{
    "@class": "com.kony.gen.viz.model.component.KVizImage2",
    "DNDConfig": null,
    "_base64_": null,
    "_height_": {
        "type": "string",
        "value": "20dp"
    },
    "_left_": {
        "type": "string",
        "value": "0dp"
    },
    "_margin_": [
        0,
        0,
        0,
        0
    ],
    "_padding_": [
        0,
        0,
        0,
        0
    ],
    "_skin_": "s78a5f26c9f14cec9ebed1bb46098f80",
    "_src_": "unchecked_box.png",
    "_top_": {
        "type": "string",
        "value": "0px"
    },
    "_width_": {
        "type": "string",
        "value": "20dp"
    },
    "accessibilityconfig": {
        "a11yLabel": "Terms and Conditions Checkbox",
        "a11yValue": ""
    },
    "canUpdateUI": true,
    "containerweight": 100,
    "id": "imgTCContentsCheckbox",
    "imagescalemode": 1,
    "info": null,
    "invokedProperty": "src",
    "isvisible": false,
    "kuid": "gd907a3f775c4c6cb7fe952a54615296",
    "name": "kony.ui.Image2",
    "parent": "flxTCContentsCheckbox",
    "pf": "frmCardManagementTravelPlanConfirm",
    "srcType": 1,
    "tooltip": "Select Terms & Conditions",
    "wType": "Image",
    "widgetalignment": 5,
    "zindex": 1
}