{
	 "@class": "com.kony.gen.viz.model.component.KVizImage2",
	 "DNDConfig": null,
	 "__parentReadjusting__": false,
	 "_base64_": null,
	 "_bottom_": {
		 "type": "string",
		 "value": "10dp"
	},
	 "_height_": {
		 "type": "string",
		 "value": "40dp"
	},
	 "_left_": {
		 "type": "string",
		 "value": "20dp"
	},
	 "_margin_": [
		 0,
		 0,
		 0,
		 0
	],
	 "_padding_": [
		 0,
		 0,
		 0,
		 0
	],
	 "_skin_": "s78a5f26c9f14cec9ebed1bb46098f80",
	 "_src_": "error_yellow.png",
	 "_top_": {
		 "type": "string",
		 "value": "10dp"
	},
	 "_width_": {
		 "type": "string",
		 "value": "40dp"
	},
	 "accessibilityconfig": {
		 "a11yHidden": true,
		 "a11yARIA": {
			 "tabindex": -1
		},
		 "a11yValue": ""
	},
	 "canUpdateUI": true,
	 "containerweight": 100,
	 "context": {
		 "channel": "desktop",
		 "formID": "uw39ccecb2aea441eb99bbbb0e5788162b",
		 "platform": "desktopweb",
		 "templateType": "userwidgets",
		 "topLevelBox": null
	},
	 "id": "imgInfoIconWarning",
	 "imagescalemode": 1,
	 "imagewhiledownloading": "img_transparent.png",
	 "info": null,
	 "invokedProperty": "src",
	 "isvisible": true,
	 "kuid": "faba44e840344b0fa1dc8bbc6ea4c98c",
	 "name": "kony.ui.Image2",
	 "parent": "flxServiceErrorWarning",
	 "pf": "userwidgetmodel",
	 "srcType": 1,
	 "wType": "Image",
	 "widgetalignment": 5,
	 "zindex": 1
}