{
    "@class": "com.kony.gen.viz.model.component.KVizButton",
    "DNDConfig": null,
    "__parentReadjusting__": false,
    "_bottom_": {
        "type": "number",
        "value": ""
    },
    "_height_": {
        "type": "string",
        "value": "40dp"
    },
    "_left_": {
        "type": "string",
        "value": "2.00%"
    },
    "_margin_": [
        6,
        6,
        6,
        6
    ],
    "_padding_": [
        0,
        0,
        0,
        0
    ],
    "_right_": {
        "type": "string",
        "value": "2%"
    },
    "_skin_": "se13b7ef4adf467195f52926d6fc1f43",
    "_text_": "",
    "_top_": {
        "type": "string",
        "value": "20dp"
    },
    "_width_": {
        "type": "string",
        "value": "12%"
    },
    "canUpdateUI": true,
    "centery": {
        "type": "string",
        "value": "50%"
    },
    "containerweight": 100,
    "contentalignment": 5,
    "desktopweb": {
        "psp": {}
    },
    "disabledSkins": {
        "focusSkin": "sf44d06ca8224832827ea7fdff757013",
        "hoverSkin": "sebe96f69ec748a6917945b51615c447"
    },
    "displaytext": true,
    "id": "btnUserTransactionDetailsActionsSaveAndUpdate",
    "info": null,
    "isvisible": true,
    "kuid": "eb5c8bb427db43a1a2cf695537c98224",
    "name": "kony.ui.Button",
    "parent": "flxUserTransactionDetailsActionsHolder",
    "pf": "frmPermissionsTemplate",
    "responsiveData": {
        "b1": {
            "bottom": {
                "type": "string",
                "value": ""
            },
            "left": {
                "type": "string",
                "value": "2%"
            },
            "width": {
                "type": "string",
                "value": "150dp"
            }
        },
        "b2": {
            "width": {
                "type": "string",
                "value": "150dp"
            }
        },
        "b3": {},
        "b4": {
            "bottom": {
                "type": "string",
                "value": ""
            },
            "left": {
                "type": "string",
                "value": "2%"
            },
            "top": {
                "type": "string",
                "value": "20dp"
            },
            "width": {
                "type": "string",
                "value": "150dp"
            }
        }
    },
    "texti18n": "i18n.konybb.common.SaveAndUpdate",
    "tooltip": "Save And Update",
    "wType": "Button",
    "zindex": 1
}