{
    "@class": "com.kony.gen.viz.model.component.KVizButton",
    "DNDConfig": null,
    "__parentReadjusting__": false,
    "_height_": {
        "type": "string",
        "value": "40dp"
    },
    "_left_": {
        "type": "string",
        "value": "55%"
    },
    "_margin_": [
        6,
        6,
        6,
        6
    ],
    "_padding_": [
        0,
        0,
        0,
        0
    ],
    "_skin_": "sc569d5db4eb4d8aa6a7f0400662d66f",
    "_text_": "",
    "_top_": {
        "type": "number",
        "value": ""
    },
    "_width_": {
        "type": "string",
        "value": "12%"
    },
    "canUpdateUI": true,
    "centery": {
        "type": "string",
        "value": "50%"
    },
    "containerweight": 100,
    "contentalignment": 5,
    "desktopweb": {
        "psp": {
            "hoverSkin": "s83729feaa224e359d660d5af05c4bac"
        }
    },
    "disabledSkins": {
        "focusSkin": "sf44d06ca8224832827ea7fdff757013"
    },
    "displaytext": true,
    "id": "btnVerifyUserActionsBack",
    "info": null,
    "isvisible": true,
    "kuid": "f8bc941e941b4afb92a5d470ea831781",
    "name": "kony.ui.Button",
    "parent": "flxVerifyUserActionsHolder",
    "pf": "frmPermissionsTemplate",
    "responsiveData": {
        "b1": {
            "top": {
                "type": "string",
                "value": "30dp"
            }
        },
        "b2": {
            "centerY": {
                "type": "string",
                "value": ""
            },
            "top": {
                "type": "string",
                "value": "30dp"
            },
            "width": {
                "type": "string",
                "value": "150dp"
            }
        },
        "b3": {
            "isVisible": false
        },
        "b4": {
            "top": {
                "type": "string",
                "value": "30dp"
            }
        }
    },
    "texti18n": "i18n.ProfileManagement.BACK",
    "tooltip": "Back",
    "wType": "Button",
    "zindex": 1
}