{
    "DNDConfig": null,
    "_height_": {
        "type": "string",
        "value": "220dp"
    },
    "_left_": {
        "type": "string",
        "value": "0"
    },
    "_margin_": [
        0,
        0,
        0,
        0
    ],
    "_orientation_": 6,
    "_padding_": [
        0,
        0,
        0,
        0
    ],
    "_percent_": true,
    "_skin_": "s25fc94d968e49e2bf66bcbb74d07172",
    "_top_": {
        "type": "string",
        "value": "0"
    },
    "_width_": {
        "type": "string",
        "value": "100%"
    },
    "allboxes": [],
    "canUpdateUI": true,
    "children": [],
    "clipbounds": true,
    "containerweight": 100,
    "enablescrolling": true,
    "id": "flxPermissionSeparator",
    "info": null,
    "iscustomlayout": false,
    "isvisible": true,
    "kuid": "d609d709a16f48b3afbb5cd0f38631ed",
    "layouttype": 2,
    "name": "kony.ui.FlexContainer",
    "parent": "flxUserRoles",
    "pf": "frmPermissionsTemplate",
    "responsiveData": {
        "b1": {
            "height": {
                "type": "string",
                "value": "1dp"
            },
            "isVisible": false,
            "left": {
                "type": "string",
                "value": "20dp"
            },
            "top": {
                "type": "string",
                "value": "16dp"
            }
        },
        "b2": {
            "height": {
                "type": "string",
                "value": "1dp"
            },
            "isVisible": false,
            "left": {
                "type": "string",
                "value": "20dp"
            },
            "top": {
                "type": "string",
                "value": "16dp"
            }
        },
        "b4": {
            "height": {
                "type": "string",
                "value": "1dp"
            },
            "isVisible": false,
            "left": {
                "type": "string",
                "value": "20dp"
            },
            "top": {
                "type": "string",
                "value": "16dp"
            }
        }
    },
    "retaincontentalignment": false,
    "retainflexpositionproperties": false,
    "retainflowhorizontalalignment": false,
    "snapgridsize": 10,
    "snaptogrid": true,
    "wType": "FlexContainer",
    "widgetalignment": 1
}