{
    "DNDConfig": null,
    "_height_": {
        "type": "string",
        "value": "1dp"
    },
    "_left_": {
        "type": "string",
        "value": "0dp"
    },
    "_margin_": [
        0,
        0,
        0,
        0
    ],
    "_orientation_": 6,
    "_padding_": [
        0,
        0,
        0,
        0
    ],
    "_percent_": true,
    "_skin_": "s25fc94d968e49e2bf66bcbb74d07172",
    "_top_": {
        "type": "string",
        "value": "0dp"
    },
    "_width_": {
        "type": "string",
        "value": "94.90%"
    },
    "allboxes": [],
    "autogrowmode": 0,
    "canUpdateUI": true,
    "centerx": {
        "type": "string",
        "value": "50%"
    },
    "children": [],
    "clipbounds": true,
    "containerweight": 100,
    "enablescrolling": true,
    "id": "flxSeperatorBtm2",
    "info": null,
    "isvisible": true,
    "kuid": "e30efb8cdb3b4be28753b03b83806f3e",
    "layouttype": 2,
    "name": "kony.ui.FlexContainer",
    "parent": "flxSearchRoleButton",
    "pf": "frmPermissionsTemplate",
    "responsiveData": {
        "b1": {
            "width": {
                "type": "string",
                "value": "98%"
            }
        }
    },
    "snapgridsize": 10,
    "snaptogrid": true,
    "wType": "FlexContainer",
    "widgetalignment": 1,
    "zindex": 1
}