{
    "DNDConfig": null,
    "__parentReadjusting__": false,
    "_height_": {
        "type": "string",
        "value": "90px"
    },
    "_left_": {
        "type": "string",
        "value": "0dp"
    },
    "_margin_": [
        0,
        0,
        0,
        0
    ],
    "_orientation_": 6,
    "_padding_": [
        0,
        0,
        0,
        0
    ],
    "_percent_": true,
    "_skin_": "s68cde8c1c40436989962f3559a757ac",
    "_top_": {
        "type": "string",
        "value": "0dp"
    },
    "_width_": {
        "type": "string",
        "value": "100%"
    },
    "allboxes": [],
    "canUpdateUI": true,
    "children": [
        "flxViewAccountLevelPermissionsActionsSeperator",
        "flxViewAccountLevelPermissionsActionsHolder"
    ],
    "clipbounds": true,
    "containerweight": 100,
    "enablescrolling": true,
    "id": "flxViewAccountLevelPermissionsActions",
    "info": null,
    "isvisible": true,
    "kuid": "g31c2b32dd1c4abdacb2e7825b917e5d",
    "layouttype": 2,
    "name": "kony.ui.FlexContainer",
    "parent": "flxAccountLevelPermissions",
    "pf": "frmPermissionsTemplate",
    "responsiveData": {
        "b3": {
            "height": {
                "type": "string",
                "value": "180px"
            }
        }
    },
    "snapgridsize": 10,
    "snaptogrid": true,
    "wType": "FlexContainer",
    "widgetalignment": 1,
    "zindex": 1
}