{
    "@class": "com.kony.gen.viz.model.component.KVizLabel",
    "DNDConfig": null,
    "__parentReadjusting__": false,
    "_height_": {
        "type": "string",
        "value": "30dp"
    },
    "_left_": {
        "type": "string",
        "value": "2%"
    },
    "_margin_": [
        1,
        1,
        1,
        1
    ],
    "_padding_": [
        0,
        0,
        0,
        0
    ],
    "_skin_": "s1e63c39cf6246f0b9c80ba5a5aa6d04",
    "_text_": "",
    "_top_": {
        "type": "number",
        "value": ""
    },
    "_width_": {
        "type": "string",
        "value": "25%"
    },
    "_wrapping_": 2,
    "android": {
        "textStyle": {
            "letterSpacing": 0,
            "strikeThrough": false
        }
    },
    "canUpdateUI": true,
    "centery": {
        "type": "number",
        "value": ""
    },
    "containerweight": 100,
    "contentalignment": 4,
    "id": "lblParentRoleKey",
    "info": null,
    "ipad": {
        "psp": {
            "wrapping": 2
        }
    },
    "iphone": {
        "psp": {
            "wrapping": 2
        }
    },
    "iscustomlayout": false,
    "isvisible": true,
    "kuid": "cdd650cf87c64355a4d52756666d941d",
    "name": "kony.ui.Label",
    "parent": "flxParentRole",
    "pf": "frmPermissionsTemplate",
    "responsiveData": {
        "b1": {
            "centerY": {
                "type": "string",
                "value": "50%"
            },
            "skin": "sffa7cd1b1684dc08c89e203ddb75736",
            "width": {
                "type": "string",
                "value": "17%"
            }
        },
        "b2": {
            "centerY": {
                "type": "string",
                "value": "50%"
            },
            "skin": "s089a30edc014fedb2eb54b3b16a7723",
            "text": "",
            "width": {
                "type": "string",
                "value": "17%"
            }
        },
        "b3": {
            "left": {
                "type": "string",
                "value": "2%"
            },
            "skin": "sd3c87f0e7764509b8521cac67e79d26",
            "top": {
                "type": "string",
                "value": "10%"
            },
            "width": {
                "type": "ref",
                "value": "preferred"
            }
        },
        "b4": {
            "centerY": {
                "type": "string",
                "value": "50%"
            },
            "left": {
                "type": "string",
                "value": "17dp"
            },
            "skin": "s089a30edc014fedb2eb54b3b16a7723",
            "text": "",
            "width": {
                "type": "string",
                "value": "17%"
            }
        }
    },
    "retaincontentalignment": false,
    "retainflexpositionproperties": false,
    "texti18n": "i18n.customRole.ParentRole",
    "tooltip": "",
    "wType": "Label",
    "zindex": 1
}