{
    "@class": "com.kony.gen.viz.model.component.KVizLabel",
    "DNDConfig": null,
    "__parentReadjusting__": false,
    "_height_": {
        "type": "ref",
        "value": "preferred"
    },
    "_margin_": [
        1,
        1,
        1,
        1
    ],
    "_padding_": [
        0,
        0,
        0,
        0
    ],
    "_skin_": "sf6470a662d743a1b1b62ba2ca51bc77",
    "_text_": "C",
    "_width_": {
        "type": "string",
        "value": "22dp"
    },
    "_wrapping_": 2,
    "accessibilityconfig": {
        "a11yLabel": "Terms and condition Checkbox"
    },
    "android": {
        "textStyle": {
            "letterSpacing": 0,
            "strikeThrough": false
        }
    },
    "canUpdateUI": true,
    "centerx": {
        "type": "string",
        "value": "50%"
    },
    "centery": {
        "type": "string",
        "value": "50%"
    },
    "containerweight": 100,
    "contentalignment": 5,
    "id": "lblTCContentsCheckBox",
    "info": null,
    "ipad": {
        "psp": {
            "wrapping": 2
        }
    },
    "iphone": {
        "psp": {
            "wrapping": 2
        }
    },
    "isvisible": true,
    "kuid": "e4239508c33a4abc8dfdf164beb0a04e",
    "name": "kony.ui.Label",
    "parent": "flxTCContentsCheckbox",
    "pf": "frmPermissionsTemplate",
    "responsiveData": {
        "b1": {}
    },
    "tooltip": "Select Terms & Conditions",
    "wType": "Label",
    "zindex": 1
}