{
    "@class": "com.kony.gen.viz.model.component.KVizLabel",
    "DNDConfig": null,
    "__parentReadjusting__": false,
    "_height_": {
        "type": "ref",
        "value": "preferred"
    },
    "_left_": {
        "type": "string",
        "value": "0dp"
    },
    "_margin_": [
        1,
        1,
        1,
        1
    ],
    "_padding_": [
        0,
        0,
        2,
        0
    ],
    "_skin_": "s7b901f0589e4cbd914447ed46411bf5",
    "_text_": "value",
    "_top_": {
        "type": "string",
        "value": "0dp"
    },
    "_width_": {
        "type": "ref",
        "value": "preferred"
    },
    "_wrapping_": 2,
    "accessibilityconfig": {
        "a11yLabel": ""
    },
    "android": {
        "textStyle": {
            "letterSpacing": 0,
            "strikeThrough": false
        }
    },
    "canUpdateUI": true,
    "containerweight": 100,
    "contentalignment": 4,
    "id": "lblConfirmValue2",
    "info": null,
    "ipad": {
        "psp": {
            "wrapping": 2
        }
    },
    "iphone": {
        "psp": {
            "wrapping": 2
        }
    },
    "isvisible": true,
    "kuid": "h167149e16594258bdd5ad22b6691701",
    "name": "kony.ui.Label",
    "paddinginpixel": false,
    "parent": "flxConfirmValue2",
    "pf": "userwidgetmodel",
    "responsiveData": {
        "b3": {
            "contentAlignment": 6,
            "width": {
                "type": "string",
                "value": "100%"
            }
        }
    },
    "tooltip": "",
    "wType": "Label",
    "zindex": 1
}