{
    "@class": "com.kony.gen.viz.model.component.KVizButton",
    "DNDConfig": null,
    "__parentReadjusting__": false,
    "_height_": {
        "type": "string",
        "value": "100%"
    },
    "_left_": {
        "type": "string",
        "value": "0dp"
    },
    "_margin_": [
        6,
        6,
        6,
        6
    ],
    "_padding_": [
        0,
        0,
        0,
        0
    ],
    "_skin_": "sae54276696f477dbbd70e34725a8526",
    "_text_": "VIEW ACTIVITY",
    "_top_": {
        "type": "string",
        "value": "0dp"
    },
    "_width_": {
        "type": "string",
        "value": "35%"
    },
    "accessibilityconfig": {
        "a11yLabel": "Transfer Money"
    },
    "canUpdateUI": true,
    "containerId": true,
    "containerweight": 100,
    "contentalignment": 5,
    "desktopweb": {
        "psp": {
            "hoverSkin": "sd36babbd8f6461f8b492698ab830d13"
        }
    },
    "disabledSkins": {
        "focusSkin": "sf44d06ca8224832827ea7fdff757013"
    },
    "displaytext": true,
    "id": "btnMakeTransfer",
    "ide_onClick": "AS_Button_e0ca54f1f07c4cdd9bdca37b458c10ab",
    "info": null,
    "isvisible": true,
    "kuid": "da5d2b533c394d0fa48625462e2e4d85",
    "name": "kony.ui.Button",
    "parent": "flxRowOne",
    "pf": "segManageRecipientsWireTransfersMobileSelectedNew",
    "texti18n": "i18n.billPay.BillPayMakeTransfer",
    "tooltip": "VIEW ACTIVITY",
    "wType": "Button",
    "zindex": 1
}