{
    "DNDConfig": null,
    "__parentReadjusting__": false,
    "_height_": {
        "type": "string",
        "value": "100%"
    },
    "_left_": {
        "type": "string",
        "value": "0dp"
    },
    "_margin_": [
        0,
        0,
        0,
        0
    ],
    "_orientation_": 6,
    "_padding_": [
        0,
        0,
        0,
        0
    ],
    "_percent_": true,
    "_skin_": "s24c92fc23b14f5484b693ee9b8a9b35",
    "_top_": {
        "type": "string",
        "value": "0dp"
    },
    "_width_": {
        "type": "string",
        "value": "100%"
    },
    "allboxes": [],
    "autogrowmode": 0,
    "canUpdateUI": true,
    "children": [
        "flxLeft",
        "flxRight",
        "flxDate",
        "flxTransactionDescription",
        "flxReferenceNo",
        "flxAmount",
        "flxStatus",
        "flxDropdown"
    ],
    "clipbounds": true,
    "containerId": true,
    "containerweight": 100,
    "enablescrolling": true,
    "id": "flxWrapper",
    "info": null,
    "isvisible": true,
    "kuid": "a5be72e5fdc943b08baf2e543ef57cb8",
    "layouttype": 2,
    "name": "kony.ui.FlexContainer",
    "parent": "flxSegDisputedTransactionRowWrappers",
    "pf": "segDisputedChecksSelectedWrapperTablet",
    "snapgridsize": 10,
    "snaptogrid": true,
    "wType": "FlexContainer",
    "widgetalignment": 1,
    "zindex": 1
}