{
    "@class": "com.kony.gen.viz.model.component.KVizButton",
    "DNDConfig": null,
    "_height_": {
        "type": "string",
        "value": "40dp"
    },
    "_left_": {
        "type": "string",
        "value": "0%"
    },
    "_margin_": [
        6,
        6,
        6,
        6
    ],
    "_padding_": [
        0,
        0,
        0,
        0
    ],
    "_skin_": "s8fa88b1eb0e4d1f92282c89bfd383a9",
    "_text_": "Sign In",
    "_top_": {
        "type": "string",
        "value": "5%"
    },
    "_width_": {
        "type": "string",
        "value": "100%"
    },
    "accessibilityconfig": {
        "a11yHint": "Click on Sign In to log into your account",
        "a11yLabel": "Log in"
    },
    "canUpdateUI": true,
    "containerweight": 100,
    "contentalignment": 5,
    "desktopweb": {
        "psp": {
            "hoverSkin": "s104a9be9c3b40dea39caaaf0ad9b127"
        }
    },
    "displaytext": true,
    "focusskin": "s4fcf53e150a4e3680423e37c981712d",
    "id": "btnNext",
    "info": null,
    "isvisible": true,
    "kuid": "b8b2363e5c554bf9842f5ec966d45627",
    "name": "kony.ui.Button",
    "parent": "flxActions",
    "pf": "userwidgetmodel",
    "tooltip": "Sign In",
    "wType": "Button",
    "zindex": 1
}