{
    "@class": "com.kony.gen.viz.model.component.KVizButton",
    "DNDConfig": null,
    "_height_": {
        "type": "ref",
        "value": "preferred"
    },
    "_margin_": [
        6,
        6,
        6,
        6
    ],
    "_padding_": [
        0,
        0,
        0,
        0
    ],
    "_right_": {
        "type": "string",
        "value": "0dp"
    },
    "_skin_": "s510cce5347c422abf42f58a54f26d0a",
    "_text_": "Look Up",
    "_top_": {
        "type": "string",
        "value": "0dp"
    },
    "_width_": {
        "type": "string",
        "value": "50%"
    },
    "canUpdateUI": true,
    "containerweight": 100,
    "contentalignment": 6,
    "disabledSkins": {
        "focusSkin": "sf44d06ca8224832827ea7fdff757013"
    },
    "displaytext": true,
    "id": "btnLookUp",
    "info": null,
    "iscustomlayout": false,
    "isvisible": false,
    "kuid": "bc7eac171e1a4e88a60b7895c3fb75c5",
    "name": "kony.ui.Button",
    "parent": "flxSWIFTBIC",
    "pf": "frmAddBeneficiaryEuro",
    "retaincontentalignment": false,
    "retainflexpositionproperties": false,
    "texti18n": "i18n.TransfersEur.LookUp",
    "tooltip": "Look Up",
    "wType": "Button",
    "zindex": 1
}