{
    "DNDConfig": null,
    "_height_": {
        "type": "string",
        "value": "1dp"
    },
    "_left_": {
        "type": "string",
        "value": "3.77%"
    },
    "_margin_": [
        0,
        0,
        0,
        0
    ],
    "_orientation_": 6,
    "_padding_": [
        0,
        0,
        0,
        0
    ],
    "_percent_": true,
    "_right_": {
        "type": "number",
        "value": ""
    },
    "_skin_": "s7eea1452197407e9f10e3546bb83332",
    "_top_": {
        "type": "string",
        "value": "30dp"
    },
    "_width_": {
        "type": "string",
        "value": "92.46%"
    },
    "allboxes": [],
    "autogrowmode": 0,
    "canUpdateUI": true,
    "children": [],
    "clipbounds": true,
    "containerweight": 100,
    "enablescrolling": true,
    "id": "flxHorizontalLine4",
    "info": null,
    "isvisible": true,
    "kuid": "e23e5f13012148a9b251ac8e4a36238c",
    "layouttype": 2,
    "name": "kony.ui.FlexContainer",
    "parent": "flxDetails",
    "pf": "frmAddBeneficiaryEuro",
    "responsiveData": {
        "b1": {
            "left": {
                "type": "string",
                "value": "3%"
            },
            "right": {
                "type": "string",
                "value": "3%"
            },
            "width": {
                "type": "string",
                "value": "94%"
            }
        },
        "b2": {
            "left": {
                "type": "string",
                "value": "3%"
            },
            "right": {
                "type": "string",
                "value": "3%"
            },
            "width": {
                "type": "string",
                "value": "94%"
            }
        },
        "b3": {
            "left": {
                "type": "string",
                "value": "0dp"
            },
            "width": {
                "type": "string",
                "value": "100%"
            }
        }
    },
    "snapgridsize": 10,
    "snaptogrid": true,
    "wType": "FlexContainer",
    "widgetalignment": 1,
    "zindex": 1
}