{
    "DNDConfig": null,
    "_height_": {
        "type": "string",
        "value": "23dp"
    },
    "_left_": {
        "type": "string",
        "value": "30dp"
    },
    "_margin_": [
        0,
        0,
        0,
        0
    ],
    "_orientation_": 6,
    "_padding_": [
        0,
        0,
        0,
        0
    ],
    "_percent_": true,
    "_skin_": "s68cde8c1c40436989962f3559a757ac",
    "_top_": {
        "type": "string",
        "value": "1dp"
    },
    "_width_": {
        "type": "string",
        "value": "21dp"
    },
    "accessibilityconfig": {
        "a11yARIA": {
            "tabindex": 1
        }
    },
    "allboxes": [],
    "canUpdateUI": true,
    "children": [
        "lblRadioBtn2"
    ],
    "clipbounds": false,
    "containerweight": 100,
    "desktopweb": {
        "psp": {
            "hoverSkin": "s3e0ac30f9774278a868cb7c73908a76"
        }
    },
    "enablescrolling": true,
    "id": "flxRadioBtn2",
    "ide_onClick": "AS_FlexContainer_d0e06544067c4cbfb0a31f08c1c978dc",
    "info": null,
    "isvisible": true,
    "kuid": "j4e61806a3f246adaef7ac55dfbb67be",
    "layouttype": 2,
    "name": "kony.ui.FlexContainer",
    "parent": "flxBankTypeOptions",
    "pf": "frmAddBeneficiaryEuro",
    "responsiveData": {
        "b1": {
            "left": {
                "type": "string",
                "value": "40dp"
            }
        },
        "b3": {
            "left": {
                "type": "string",
                "value": "0dp"
            },
            "top": {
                "type": "string",
                "value": "30dp"
            }
        },
        "b4": {
            "height": {
                "type": "string",
                "value": "33dp"
            },
            "width": {
                "type": "string",
                "value": "33dp"
            }
        }
    },
    "snapgridsize": 10,
    "snaptogrid": true,
    "wType": "FlexContainer",
    "widgetalignment": 1,
    "zindex": 1
}