{
    "@class": "com.kony.gen.viz.model.component.KVizLabel",
    "DNDConfig": null,
    "_height_": {
        "type": "ref",
        "value": "preferred"
    },
    "_left_": {
        "type": "string",
        "value": "7.69%"
    },
    "_margin_": [
        1,
        1,
        1,
        1
    ],
    "_padding_": [
        0,
        0,
        0,
        0
    ],
    "_skin_": "s5b2ae836f9d48878f7a7e388a361f08",
    "_text_": "Add New Beneficiary",
    "_width_": {
        "type": "ref",
        "value": "preferred"
    },
    "_wrapping_": 2,
    "accessibilityconfig": {
        "a11yLabel": "Add New Beneficiary"
    },
    "android": {
        "textStyle": {
            "letterSpacing": 0,
            "strikeThrough": false
        }
    },
    "canUpdateUI": true,
    "centery": {
        "type": "string",
        "value": "50%"
    },
    "containerweight": 100,
    "contentalignment": 4,
    "id": "lblAddNewBeneficiary",
    "info": null,
    "ipad": {
        "psp": {
            "wrapping": 2
        }
    },
    "iphone": {
        "psp": {
            "wrapping": 2
        }
    },
    "isvisible": true,
    "kuid": "ha69c6212e4e4cae9c8f4e57344f165f",
    "name": "kony.ui.Label",
    "parent": "flxAddNewBeneficiary",
    "pf": "frmAddBeneficiaryEuro",
    "texti18n": "i18n.TransfersEur.AddNewBeneficiary",
    "tooltip": "",
    "wType": "Label",
    "zindex": 1
}