{
    "@class": "com.kony.gen.viz.model.component.KVizLabel",
    "DNDConfig": null,
    "_height_": {
        "type": "ref",
        "value": "preferred"
    },
    "_left_": {
        "type": "string",
        "value": "0dp"
    },
    "_margin_": [
        1,
        1,
        1,
        1
    ],
    "_padding_": [
        0,
        0,
        0,
        0
    ],
    "_skin_": "s56b1c1042ae4d9391e23c3bc2a56d5f",
    "_text_": "Beneficary's Details",
    "_top_": {
        "type": "string",
        "value": "18dp"
    },
    "_width_": {
        "type": "ref",
        "value": "preferred"
    },
    "_wrapping_": 2,
    "accessibilityconfig": {
        "a11yLabel": "Beneficary’s Details"
    },
    "android": {
        "textStyle": {
            "letterSpacing": 0,
            "strikeThrough": false
        }
    },
    "canUpdateUI": true,
    "containerweight": 100,
    "contentalignment": 4,
    "id": "lblHeading",
    "info": null,
    "ipad": {
        "psp": {
            "wrapping": 2
        }
    },
    "iphone": {
        "psp": {
            "wrapping": 2
        }
    },
    "iscustomlayout": false,
    "isvisible": true,
    "kuid": "c7806b9640964824b6f7a6dcaf266426",
    "name": "kony.ui.Label",
    "parent": "flxHeading",
    "pf": "frmAddBeneficiaryEuro",
    "retaincontentalignment": false,
    "retainflexpositionproperties": false,
    "texti18n": "i18n.TransfersEur.BeneficiaryDetails",
    "tooltip": "",
    "wType": "Label",
    "zindex": 1
}