{
    "@class": "com.kony.gen.viz.model.component.KVizTextBox2",
    "DNDConfig": null,
    "_height_": {
        "type": "string",
        "value": "40dp"
    },
    "_left_": {
        "type": "string",
        "value": "3%"
    },
    "_margin_": [
        0,
        0,
        0,
        0
    ],
    "_padding_": [
        2,
        0,
        0,
        0
    ],
    "_placeholder_": "Enter Bank Name",
    "_skin_": "s2176287b62f4273bd3e8aee5ed69aca",
    "_text_": "",
    "_top_": {
        "type": "string",
        "value": "10dp"
    },
    "_width_": {
        "type": "string",
        "value": "94%"
    },
    "accessibilityconfig": {
        "a11yLabel": "Optional"
    },
    "autocapitalize": "none",
    "autocomplete": false,
    "autocorrect": false,
    "autofilter": false,
    "canUpdateUI": true,
    "containerheight": "",
    "containerheightmode": 1,
    "containerweight": 100,
    "contentalignment": 4,
    "focusskin": "s2faf9c2766d4142ab33d0bf97445ae0",
    "id": "txtBankName",
    "info": null,
    "isvisible": true,
    "keyboardtype": "A",
    "kuid": "e70b147c83cf48ae8efaca3077fcac91",
    "maxtextlength": 150,
    "mode": "A",
    "name": "kony.ui.TextBox2",
    "parent": "flxPopup",
    "pf": "frmAddBeneficiaryEuro",
    "placeholderi18n": "i18n.AccountsAggregation.EnterBankName",
    "responsiveData": {
        "b1": {},
        "b2": {},
        "b3": {
            "left": {
                "type": "string",
                "value": "2%"
            }
        },
        "b4": {}
    },
    "securetextentry": false,
    "textinputmode": "A",
    "viewtype": "default",
    "wType": "TextField",
    "zindex": 1
}