{
    "@class": "com.kony.gen.viz.model.component.KVizButton",
    "DNDConfig": null,
    "__parentReadjusting__": false,
    "_height_": {
        "type": "string",
        "value": "50dp"
    },
    "_margin_": [
        6,
        6,
        6,
        6
    ],
    "_padding_": [
        0,
        0,
        0,
        0
    ],
    "_right_": {
        "type": "string",
        "value": "0dp"
    },
    "_skin_": "sea1525e3fa24829a889b1fd650f3f24",
    "_text_": "BACK TO RECIPIENTS",
    "_width_": {
        "type": "string",
        "value": "260dp"
    },
    "accessibilityconfig": {
        "a11yLabel": "Back to Recipients"
    },
    "canUpdateUI": true,
    "centery": {
        "type": "string",
        "value": "50%"
    },
    "containerweight": 100,
    "contentalignment": 5,
    "desktopweb": {
        "psp": {
            "hoverSkin": "sfd0ce0d7f454c9f83c7e815a90a8a55"
        }
    },
    "disabledSkins": {},
    "displaytext": true,
    "focusskin": "sfd0ce0d7f454c9f83c7e815a90a8a55",
    "id": "btnBackToRecipients",
    "info": null,
    "isvisible": true,
    "kuid": "bff672675fc8459c88717c66a69edf25",
    "name": "kony.ui.Button",
    "parent": "flxBtn",
    "pf": "userwidgetmodel",
    "texti18n": "i18n.payaperson.BackToRecipients",
    "tooltip": "Back To Recipients",
    "wType": "Button",
    "zindex": 1
}