{
    "@class": "com.kony.gen.viz.model.component.KVizLabel",
    "DNDConfig": null,
    "__parentReadjusting__": false,
    "_bottom_": {
        "type": "string",
        "value": ""
    },
    "_height_": {
        "type": "ref",
        "value": "preferred"
    },
    "_left_": {
        "type": "string",
        "value": "20dp"
    },
    "_margin_": [
        1,
        1,
        1,
        1
    ],
    "_padding_": [
        0,
        0,
        0,
        0
    ],
    "_skin_": "s4b6103db040484c9823e522fcca5a36",
    "_text_": "Wire Transfer - Bulk Wires",
    "_top_": {
        "type": "string",
        "value": "50dp"
    },
    "_width_": {
        "type": "string",
        "value": "500dp"
    },
    "_wrapping_": 2,
    "accessibilityconfig": {
        "a11yLabel": "Transfers"
    },
    "android": {
        "textStyle": {
            "letterSpacing": 0,
            "strikeThrough": false
        }
    },
    "canUpdateUI": true,
    "containerweight": 100,
    "contentalignment": 1,
    "id": "lblAmount",
    "info": null,
    "ipad": {
        "psp": {
            "wrapping": 2
        }
    },
    "iphone": {
        "psp": {
            "wrapping": 2
        }
    },
    "isvisible": true,
    "kuid": "ee09bc19e7ae42b79d28a7874792eb7d",
    "name": "kony.ui.Label",
    "paddinginpixel": false,
    "parent": "flxApplyChanges",
    "pf": "frmBulkWireEditTemplateRecipient",
    "responsiveData": {
        "b1": {
            "left": {
                "type": "string",
                "value": "42%"
            },
            "padding": [
                0,
                0,
                0,
                0
            ],
            "skin": "s4b6103db040484c9823e522fcca5a36",
            "text": "Change Amount to:",
            "width": {
                "type": "ref",
                "value": "preferred"
            }
        },
        "b2": {
            "isVisible": true,
            "left": {
                "type": "string",
                "value": "2%"
            },
            "padding": [
                0,
                0,
                0,
                0
            ],
            "skin": "s4b6103db040484c9823e522fcca5a36",
            "text": "Change Amount to:",
            "top": {
                "type": "string",
                "value": "125dp"
            },
            "width": {
                "type": "string",
                "value": "20%"
            }
        },
        "b3": {
            "height": {
                "type": "string",
                "value": "0dp"
            },
            "isVisible": false
        },
        "b4": {
            "left": {
                "type": "string",
                "value": "485dp"
            },
            "padding": [
                0,
                0,
                0,
                0
            ],
            "skin": "s4b6103db040484c9823e522fcca5a36",
            "text": "Change Amount to :",
            "top": {
                "type": "string",
                "value": "50dp"
            },
            "width": {
                "type": "ref",
                "value": "preferred"
            }
        }
    },
    "texti18n": "i18n.bulkwires.changeamount",
    "tooltip": "Change Amount to :",
    "wType": "Label",
    "zindex": 1
}