{
    "@class": "com.kony.gen.viz.model.container.KVizSegment2",
    "DNDConfig": null,
    "_data_": [
        {},
        {},
        {},
        {},
        {},
        {},
        {},
        {},
        {},
        {}
    ],
    "_height_": {
        "type": "ref",
        "value": "preferred"
    },
    "_indicator_": "none",
    "_margin_": [
        0,
        0,
        0,
        0
    ],
    "_orientation_": 2,
    "_padding_": [
        0,
        0,
        0,
        0
    ],
    "_width_": {
        "type": "string",
        "value": "100%"
    },
    "autogrowmode": 1,
    "canUpdateUI": true,
    "containerweight": 100,
    "counter": "00",
    "desktop": {
        "_data_": [
            {
                "imgDropdown": {
                    "@class": "com.viz.ide.model.segment.ImageSegmentData",
                    "src": "arrow_down_1_1.png"
                },
                "imgRowCheckBox": {
                    "@class": "com.viz.ide.model.segment.ImageSegmentData",
                    "src": ""
                },
                "imgSample": {
                    "@class": "com.viz.ide.model.segment.ImageSegmentData",
                    "src": "imagedrag.png"
                },
                "imgSampleHighlighter": {
                    "@class": "com.viz.ide.model.segment.ImageSegmentData",
                    "src": "imagedrag.png"
                },
                "imgSeparatorHeader": {
                    "@class": "com.viz.ide.model.segment.ImageSegmentData",
                    "src": "imagedrag.png"
                },
                "lblCIF": {
                    "@class": "com.viz.ide.model.segment.SimpleTextSegmentData",
                    "text": ""
                },
                "lblCheckBoxSelect": {
                    "@class": "com.viz.ide.model.segment.SimpleTextSegmentData",
                    "text": ""
                },
                "lblContract": {
                    "@class": "com.viz.ide.model.segment.SimpleTextSegmentData",
                    "text": ""
                },
                "lblCustomerCheckbox": {
                    "@class": "com.viz.ide.model.segment.SimpleTextSegmentData",
                    "text": ""
                },
                "lblCustomerName": {
                    "@class": "com.viz.ide.model.segment.SimpleTextSegmentData",
                    "text": ""
                },
                "lblCustomerNumber": {
                    "@class": "com.viz.ide.model.segment.SimpleTextSegmentData",
                    "text": ""
                },
                "lblDetailsHighligher": {
                    "@class": "com.viz.ide.model.segment.SimpleTextSegmentData",
                    "text": "Label"
                },
                "lblDropdown": {
                    "@class": "com.viz.ide.model.segment.SimpleTextSegmentData",
                    "text": "O"
                },
                "lblIdentityNumber": {
                    "@class": "com.viz.ide.model.segment.SimpleTextSegmentData",
                    "text": ""
                },
                "lblUserType": {
                    "@class": "com.viz.ide.model.segment.SimpleTextSegmentData",
                    "text": ""
                },
                "lbldetailHighlighterVertical": {
                    "@class": "com.viz.ide.model.segment.SimpleTextSegmentData",
                    "text": "Label"
                }
            }
        ],
        "rowTemplateId": "d5008a293fe84e669c2fc8f0c3405d6a",
        "rowtemplate": "flxContractConfirmScreenRowTemplate",
        "sectionHeaderTemplateId": null,
        "widgetdatamap": {
            "CopyflxContractsCollapsed": "CopyflxContractsCollapsed",
            "flxCIF": "flxCIF",
            "flxCheckBox": "flxCheckBox",
            "flxContract": "flxContract",
            "flxContractsCollapsedWrapper": "flxContractsCollapsedWrapper",
            "flxCustomer": "flxCustomer",
            "flxCustomerCheckbox": "flxCustomerCheckbox",
            "flxCustomerDetails": "flxCustomerDetails",
            "flxDetailsHighlighter": "flxDetailsHighlighter",
            "flxDropdown": "flxDropdown",
            "flxHeader": "flxHeader",
            "flxIdentityNumber": "flxIdentityNumber",
            "flxRowCheckBox": "flxRowCheckBox",
            "flxSeparatorForHeader": "flxSeparatorForHeader",
            "flxSeparatorVertical": "flxSeparatorVertical",
            "imgDropdown": "imgDropdown",
            "imgRowCheckBox": "imgRowCheckBox",
            "imgSample": "imgSample",
            "imgSampleHighlighter": "imgSampleHighlighter",
            "imgSeparatorHeader": "imgSeparatorHeader",
            "lblCIF": "lblCIF",
            "lblCheckBoxSelect": "lblCheckBoxSelect",
            "lblContract": "lblContract",
            "lblCustomerCheckbox": "lblCustomerCheckbox",
            "lblCustomerName": "lblCustomerName",
            "lblCustomerNumber": "lblCustomerNumber",
            "lblDetailsHighligher": "lblDetailsHighligher",
            "lblDropdown": "lblDropdown",
            "lblIdentityNumber": "lblIdentityNumber",
            "lblUserType": "lblUserType",
            "lbldetailHighlighterVertical": "lbldetailHighlighterVertical"
        }
    },
    "focusedindex": null,
    "focuseditem": null,
    "groupcells": false,
    "hasSections": false,
    "id": "segContract",
    "info": null,
    "ipad": {
        "psp": {
            "indicator": "rowselect"
        }
    },
    "iphone": {
        "psp": {
            "indicator": "rowselect"
        }
    },
    "iscustomlayout": false,
    "isvisible": true,
    "kuid": "a10ce41c0af94ba1886706b6bd166150",
    "masterdata": {},
    "name": "kony.ui.SegmentedUI2",
    "needpageindicator": true,
    "pageoffdotimage": "pageoffdot.png",
    "pageondotimage": "pageondot.png",
    "paginationconfig": {
        "position": "bottom"
    },
    "parent": "flxContract",
    "pf": "userwidgetmodel",
    "retaincontentalignment": false,
    "retainflexpositionproperties": false,
    "retainselection": false,
    "rowcounter": 0,
    "rowfocusskin": "sdc47c9bd5274b72b3c8b55cea6a3cad",
    "rowskin": "scf5f90f6ac04976ab88b2a4f7153285",
    "rowtemplate": "CopyflxContractsCollapsed",
    "screenlevelwidget": false,
    "seccounter": 0,
    "sectionheaderskin": "sdc4ff4ed1584272be2ae69045dfb29d",
    "sectionheadertemplate": "flxContractsHeader",
    "selectedRows": null,
    "selectedState": false,
    "selectedindex": null,
    "selectedindices": null,
    "selecteditems": null,
    "selectedsectionindex": 0,
    "selectionbehavior": "default",
    "separatorcolor": "aaaaaa00",
    "separatorrequired": false,
    "separatorthickness": 1,
    "showscrollbars": false,
    "viewtype": "tableview",
    "vizProps": {},
    "wType": "Segment",
    "widgetalignment": 5,
    "widgetdatamap": {
        "CopyflxContractsCollapsed": "CopyflxContractsCollapsed",
        "flxCIF": "flxCIF",
        "flxCheckBox": "flxCheckBox",
        "flxContract": "flxContract",
        "flxContractsCollapsedWrapper": "flxContractsCollapsedWrapper",
        "flxCustomer": "flxCustomer",
        "flxCustomerCheckbox": "flxCustomerCheckbox",
        "flxCustomerDetails": "flxCustomerDetails",
        "flxDetailsHighlighter": "flxDetailsHighlighter",
        "flxDropdown": "flxDropdown",
        "flxHeader": "flxHeader",
        "flxIdentityNumber": "flxIdentityNumber",
        "flxRowCheckBox": "flxRowCheckBox",
        "flxSeparatorForHeader": "flxSeparatorForHeader",
        "flxSeparatorVertical": "flxSeparatorVertical",
        "imgDropdown": "imgDropdown",
        "imgRowCheckBox": "imgRowCheckBox",
        "imgSample": "imgSample",
        "imgSampleHighlighter": "imgSampleHighlighter",
        "imgSeparatorHeader": "imgSeparatorHeader",
        "lblCIF": "lblCIF",
        "lblCheckBoxSelect": "lblCheckBoxSelect",
        "lblContract": "lblContract",
        "lblCustomerCheckbox": "lblCustomerCheckbox",
        "lblCustomerName": "lblCustomerName",
        "lblCustomerNumber": "lblCustomerNumber",
        "lblDetailsHighligher": "lblDetailsHighligher",
        "lblDropdown": "lblDropdown",
        "lblIdentityNumber": "lblIdentityNumber",
        "lblUserType": "lblUserType",
        "lbldetailHighlighterVertical": "lbldetailHighlighterVertical"
    },
    "zindex": 1
}