{
    "@class": "com.kony.gen.viz.model.component.KVizButton",
    "DNDConfig": null,
    "__parentReadjusting__": false,
    "_height_": {
        "type": "string",
        "value": "50dp"
    },
    "_margin_": [
        6,
        6,
        6,
        6
    ],
    "_padding_": [
        0,
        0,
        0,
        0
    ],
    "_right_": {
        "type": "string",
        "value": "20dp"
    },
    "_skin_": "sfbbba35ede4457b94eb681b72349b98",
    "_text_": "PROCEED",
    "_top_": {
        "type": "string",
        "value": "30dp"
    },
    "_width_": {
        "type": "string",
        "value": "260dp"
    },
    "accessibilityconfig": {
        "a11yHint": "Click Continue to proceed",
        "a11yLabel": "Continue"
    },
    "canUpdateUI": true,
    "containerweight": 100,
    "contentalignment": 5,
    "desktopweb": {
        "psp": {
            "hoverSkin": "s81054b5e2b74f17a5261991df565427"
        }
    },
    "disabledSkins": {
        "focusSkin": "s07baf83ddf44201beb2d97fe8f96867"
    },
    "displaytext": true,
    "id": "btnProceed",
    "info": null,
    "isvisible": true,
    "kuid": "a390d49d5d9e4a25a793214eebc32426",
    "name": "kony.ui.Button",
    "parent": "flxActions",
    "pf": "userwidgetmodel",
    "texti18n": "i18n.common.proceed",
    "tooltip": "Proceed",
    "wType": "Button",
    "zindex": 2
}