{
    "DNDConfig": null,
    "_height_": {
        "type": "string",
        "value": "210%"
    },
    "_left_": {
        "type": "string",
        "value": "0dp"
    },
    "_margin_": [
        0,
        0,
        0,
        0
    ],
    "_orientation_": 6,
    "_padding_": [
        0,
        0,
        0,
        0
    ],
    "_percent_": true,
    "_skin_": "s24c92fc23b14f5484b693ee9b8a9b35",
    "_top_": {
        "type": "string",
        "value": "0dp"
    },
    "_width_": {
        "type": "string",
        "value": "100%"
    },
    "allboxes": [],
    "canUpdateUI": true,
    "children": [
        "SwiftLookup"
    ],
    "clipbounds": true,
    "containerweight": 100,
    "enablescrolling": true,
    "id": "flxSwiftLookup",
    "info": null,
    "iscustomlayout": false,
    "isvisible": false,
    "kuid": "dda6746316fb463284ff4ed177332437",
    "layouttype": 2,
    "name": "kony.ui.FlexContainer",
    "parent": "frmInternationalAddBeneficiary",
    "pf": "frmInternationalAddBeneficiary",
    "responsiveData": {
        "b1": {
            "bottom": {
                "type": "string",
                "value": ""
            },
            "centerX": {
                "type": "string",
                "value": ""
            },
            "centerY": {
                "type": "string",
                "value": ""
            },
            "maxHeight": {
                "type": "string",
                "value": ""
            },
            "maxWidth": {
                "type": "string",
                "value": ""
            },
            "minHeight": {
                "type": "string",
                "value": ""
            },
            "minWidth": {
                "type": "string",
                "value": ""
            },
            "right": {
                "type": "string",
                "value": ""
            },
            "width": {
                "type": "string",
                "value": "100%"
            }
        },
        "b2": {},
        "b3": {},
        "b4": {
            "isVisible": false
        }
    },
    "retaincontentalignment": false,
    "retainflexpositionproperties": false,
    "retainflowhorizontalalignment": false,
    "snapgridsize": 10,
    "snaptogrid": true,
    "wType": "FlexContainer",
    "widgetalignment": 1,
    "zindex": 1501
}