{
    "@class": "com.kony.gen.viz.model.component.KVizLabel",
    "DNDConfig": null,
    "_height_": {
        "type": "string",
        "value": "49dp"
    },
    "_left_": {
        "type": "string",
        "value": "7.69%"
    },
    "_margin_": [
        1,
        1,
        1,
        1
    ],
    "_padding_": [
        0,
        0,
        0,
        0
    ],
    "_skin_": "s5b2ae836f9d48878f7a7e388a361f08",
    "_text_": "Add New Same Bank Account",
    "_top_": {
        "type": "string",
        "value": "0dp"
    },
    "_width_": {
        "type": "ref",
        "value": "preferred"
    },
    "_wrapping_": 2,
    "accessibilityconfig": {
        "a11yLabel": "Add Infinity Bank Account"
    },
    "android": {
        "textStyle": {
            "letterSpacing": 0,
            "strikeThrough": false
        }
    },
    "canUpdateUI": true,
    "containerweight": 100,
    "contentalignment": 4,
    "id": "lblAddSameBankAccount",
    "info": null,
    "ipad": {
        "psp": {
            "wrapping": 2
        }
    },
    "iphone": {
        "psp": {
            "wrapping": 2
        }
    },
    "isvisible": true,
    "kuid": "e3298bf32be941a0acf654be1f20a543",
    "name": "kony.ui.Label",
    "parent": "flxAddSameBankAccount",
    "pf": "frmInternationalAddBeneficiary",
    "responsiveData": {
        "b1": {}
    },
    "tooltip": "",
    "wType": "Label",
    "zindex": 1
}