{
    "@class": "com.kony.gen.viz.model.container.KVizSegment2",
    "DNDConfig": null,
    "_data_": [{
            "imgBullet": {
                "@class": "com.viz.ide.model.segment.ImageSegmentData",
                "src": "pageoffdot.png"
            },
            "lblService": {
                "@class": "com.viz.ide.model.segment.SimpleTextSegmentData",
                "text": "Service"
            }
        },
        {
            "imgBullet": {
                "@class": "com.viz.ide.model.segment.ImageSegmentData",
                "src": "pageoffdot.png"
            },
            "lblService": {
                "@class": "com.viz.ide.model.segment.SimpleTextSegmentData",
                "text": "Service"
            }
        },
        {
            "imgBullet": {
                "@class": "com.viz.ide.model.segment.ImageSegmentData",
                "src": "pageoffdot.png"
            },
            "lblService": {
                "@class": "com.viz.ide.model.segment.SimpleTextSegmentData",
                "text": "Service"
            }
        },
        {
            "imgBullet": {
                "@class": "com.viz.ide.model.segment.ImageSegmentData",
                "src": "pageoffdot.png"
            },
            "lblService": {
                "@class": "com.viz.ide.model.segment.SimpleTextSegmentData",
                "text": "Service"
            }
        }
    ],
    "_height_": {
        "type": "ref",
        "value": "preferred"
    },
    "_indicator_": "none",
    "_left_": {
        "type": "string",
        "value": "0dp"
    },
    "_margin_": [
        0,
        0,
        0,
        0
    ],
    "_orientation_": 2,
    "_padding_": [
        0,
        0,
        0,
        0
    ],
    "_top_": {
        "type": "string",
        "value": "0dp"
    },
    "_width_": {
        "type": "string",
        "value": "100%"
    },
    "autogrowmode": 1,
    "canUpdateUI": true,
    "containerweight": 100,
    "counter": "03",
    "focusedindex": null,
    "focuseditem": null,
    "groupcells": false,
    "hasSections": false,
    "id": "segBranchService",
    "info": null,
    "ipad": {
        "psp": {
            "indicator": "rowselect"
        }
    },
    "iphone": {
        "psp": {
            "indicator": "rowselect"
        }
    },
    "iscustomlayout": false,
    "isvisible": true,
    "kuid": "gcc75839a2e6431382f6841fd66cbccd",
    "masterdata": {},
    "name": "kony.ui.SegmentedUI2",
    "needpageindicator": true,
    "pageoffdotimage": "pageoffdot.png",
    "pageondotimage": "pageondot.png",
    "paginationconfig": {
        "position": "bottom"
    },
    "parent": "flxServices",
    "pf": "frmLocateUsBranchDetailsMobile",
    "retaincontentalignment": false,
    "retainflexpositionproperties": false,
    "retainselection": false,
    "rowTemplateId": "ec7be44b294245d786de796d4d9aeb65",
    "rowcounter": 3,
    "rowfocusskin": "s0f9bf3c1b3e4a7bb6bf9fd18b0211f2",
    "rowskin": "scf5f90f6ac04976ab88b2a4f7153285",
    "rowtemplate": "flxBranchService",
    "screenlevelwidget": false,
    "seccounter": 0,
    "sectionheaderskin": "sdc4ff4ed1584272be2ae69045dfb29d",
    "selectedRows": null,
    "selectedState": false,
    "selectedindex": null,
    "selectedindices": null,
    "selecteditems": null,
    "selectedsectionindex": 0,
    "selectionbehavior": "default",
    "separatorcolor": "aaaaaa00",
    "separatorrequired": true,
    "separatorthickness": 0,
    "showscrollbars": false,
    "viewtype": "tableview",
    "vizProps": {},
    "wType": "Segment",
    "widgetalignment": 5,
    "widgetdatamap": {
        "flxBranchService": "flxBranchService",
        "imgBullet": "imgBullet",
        "lblService": "lblService"
    },
    "zindex": 1
}