{
    "DNDConfig": null,
    "_height_": {
        "type": "string",
        "value": "30dp"
    },
    "_left_": {
        "type": "string",
        "value": "20dp"
    },
    "_margin_": [
        0,
        0,
        0,
        0
    ],
    "_orientation_": 6,
    "_padding_": [
        0,
        0,
        0,
        0
    ],
    "_percent_": true,
    "_right_": {
        "type": "string",
        "value": "20dp"
    },
    "_skin_": "s24c92fc23b14f5484b693ee9b8a9b35",
    "_top_": {
        "type": "string",
        "value": "180dp"
    },
    "allboxes": [],
    "autogrowmode": 0,
    "canUpdateUI": true,
    "children": [
        "CopyLabel0f36228acd3f846",
        "CopyLabel0dec478e88b4441",
        "CopyLabel0a800fc301b1547",
        "CopyLabel0dc889bdbaac74e",
        "CopyLabel0b18db7c912024e",
        "CopyLabel0h483491c733d40",
        "CopyLabel0ec61a22e0d634e"
    ],
    "clipbounds": true,
    "containerweight": 100,
    "enablescrolling": true,
    "id": "CopyflxWeekSix0d20301d5df2249",
    "info": null,
    "iscustomlayout": false,
    "isvisible": true,
    "kuid": "cdc56e9a28af4ade92143c59a488e9c3",
    "layouttype": 2,
    "name": "kony.ui.FlexContainer",
    "parent": "flxMonthOneDummyTo",
    "pf": "userwidgetmodel",
    "retaincontentalignment": false,
    "retainflexpositionproperties": false,
    "snapgridsize": 10,
    "snaptogrid": true,
    "wType": "FlexContainer",
    "widgetalignment": 1,
    "zindex": 1
}