{
    "DNDConfig": null,
    "_height_": {
        "type": "string",
        "value": "30dp"
    },
    "_left_": {
        "type": "string",
        "value": "20dp"
    },
    "_margin_": [
        0,
        0,
        0,
        0
    ],
    "_orientation_": 6,
    "_padding_": [
        0,
        0,
        0,
        0
    ],
    "_percent_": true,
    "_right_": {
        "type": "string",
        "value": "20dp"
    },
    "_skin_": "s24c92fc23b14f5484b693ee9b8a9b35",
    "_top_": {
        "type": "string",
        "value": "72dp"
    },
    "allboxes": [],
    "autogrowmode": 0,
    "canUpdateUI": true,
    "children": [
        "CopyLabel0e3b4886e644841",
        "CopyLabel0ef337ce3b59844",
        "CopyLabel0fc62e259398f4d",
        "CopyLabel0i323e0848c8d4b",
        "CopyLabel0h0cc8a5ffa4442",
        "CopyLabel0c5fb948872a24a",
        "CopyLabel0cca78e3bb67a41"
    ],
    "clipbounds": true,
    "containerweight": 100,
    "enablescrolling": true,
    "id": "CopyflxWeekThree0e2ca00f3f7624a",
    "info": null,
    "iscustomlayout": false,
    "isvisible": true,
    "kuid": "fab17913912d496ca3d9145bf3b30869",
    "layouttype": 2,
    "name": "kony.ui.FlexContainer",
    "parent": "flxMonthOneDummyTo",
    "pf": "userwidgetmodel",
    "retaincontentalignment": false,
    "retainflexpositionproperties": false,
    "snapgridsize": 10,
    "snaptogrid": true,
    "wType": "FlexContainer",
    "widgetalignment": 1,
    "zindex": 1
}