{
    "DNDConfig": null,
    "_height_": {
        "type": "string",
        "value": "216dp"
    },
    "_left_": {
        "type": "string",
        "value": "0dp"
    },
    "_margin_": [
        0,
        0,
        0,
        0
    ],
    "_orientation_": 6,
    "_padding_": [
        0,
        0,
        0,
        0
    ],
    "_percent_": true,
    "_skin_": "s24c92fc23b14f5484b693ee9b8a9b35",
    "_top_": {
        "type": "string",
        "value": "0dp"
    },
    "_width_": {
        "type": "string",
        "value": "100%"
    },
    "allboxes": [],
    "autogrowmode": 0,
    "canUpdateUI": true,
    "children": [
        "flxWeekOne",
        "flxWeekTwo",
        "flxWeekThree",
        "flxWeekFour",
        "flxWeekFive",
        "flxWeekSix"
    ],
    "clipbounds": true,
    "containerweight": 100,
    "enablescrolling": true,
    "id": "flxMonthOne",
    "info": null,
    "iscustomlayout": false,
    "isvisible": true,
    "kuid": "c53162e8afa6429e9ed20afe022544e9",
    "layouttype": 2,
    "name": "kony.ui.FlexContainer",
    "parent": "flxMonth",
    "pf": "userwidgetmodel",
    "retaincontentalignment": false,
    "retainflexpositionproperties": false,
    "snapgridsize": 10,
    "snaptogrid": true,
    "wType": "FlexContainer",
    "widgetalignment": 1,
    "zindex": 1
}