{
    "DNDConfig": null,
    "_height_": {
        "type": "string",
        "value": "216dp"
    },
    "_left_": {
        "type": "string",
        "value": "0dp"
    },
    "_margin_": [
        0,
        0,
        0,
        0
    ],
    "_orientation_": 6,
    "_padding_": [
        0,
        0,
        0,
        0
    ],
    "_percent_": true,
    "_skin_": "s24c92fc23b14f5484b693ee9b8a9b35",
    "_top_": {
        "type": "string",
        "value": "0dp"
    },
    "_width_": {
        "type": "string",
        "value": "100%"
    },
    "allboxes": [],
    "autogrowmode": 0,
    "canUpdateUI": true,
    "children": [
        "flxWeekOneTo",
        "flxWeekTwoTo",
        "flxWeekThreeTo",
        "flxWeekFourTo",
        "flxWeekFiveTo",
        "flxWeekSixTo"
    ],
    "clipbounds": true,
    "containerweight": 100,
    "enablescrolling": true,
    "id": "flxMonthOneTo",
    "info": null,
    "iscustomlayout": false,
    "isvisible": true,
    "kuid": "g6665d7ea6b346b884a2cd998f1d5fdf",
    "layouttype": 2,
    "name": "kony.ui.FlexContainer",
    "parent": "flxMonthTo",
    "pf": "userwidgetmodel",
    "retaincontentalignment": false,
    "retainflexpositionproperties": false,
    "snapgridsize": 10,
    "snaptogrid": true,
    "wType": "FlexContainer",
    "widgetalignment": 1,
    "zindex": 1
}