{
    "DNDConfig": null,
    "__parentReadjusting__": false,
    "_height_": {
        "type": "ref",
        "value": "preferred"
    },
    "_left_": {
        "type": "string",
        "value": "2.30%"
    },
    "_margin_": [
        0,
        0,
        0,
        0
    ],
    "_orientation_": 6,
    "_padding_": [
        0,
        0,
        0,
        0
    ],
    "_percent_": true,
    "_skin_": "s24c92fc23b14f5484b693ee9b8a9b35",
    "_top_": {
        "type": "string",
        "value": "0dp"
    },
    "_width_": {
        "type": "string",
        "value": "45.34%"
    },
    "allboxes": [],
    "autogrowmode": 1,
    "canUpdateUI": true,
    "children": [
        "lblBudgetName",
        "lblNameCharCount"
    ],
    "clipbounds": true,
    "containerweight": 100,
    "enablescrolling": true,
    "id": "flxBdgtNameAndCharCnt",
    "info": null,
    "iscustomlayout": false,
    "isvisible": true,
    "kuid": "b874ea5b58904cf0961ee11c12f8648b",
    "layouttype": 2,
    "name": "kony.ui.FlexContainer",
    "parent": "flxBudgetDetails",
    "pf": "frmCreateBudget",
    "responsiveData": {
        "b3": {
            "width": {
                "type": "string",
                "value": "70%"
            }
        },
        "b4": {
            "width": {
                "type": "string",
                "value": "95.40%"
            }
        }
    },
    "retaincontentalignment": false,
    "retainflexpositionproperties": false,
    "retainflowhorizontalalignment": false,
    "snapgridsize": 10,
    "snaptogrid": true,
    "wType": "FlexContainer",
    "widgetalignment": 1
}