{
    "@class": "com.kony.gen.viz.model.component.KVizRichText",
    "DNDConfig": null,
    "__parentReadjusting__": false,
    "_height_": {
        "type": "ref",
        "value": "preferred"
    },
    "_left_": {
        "type": "string",
        "value": "0dp"
    },
    "_margin_": [
        0,
        0,
        0,
        0
    ],
    "_padding_": [
        0,
        0,
        0,
        0
    ],
    "_skin_": "sf9eda51ff18423180d6643f182ca4b3",
    "_text_": "Email addresses.",
    "_top_": {
        "type": "string",
        "value": "0dp"
    },
    "_width_": {
        "type": "ref",
        "value": "preferred"
    },
    "_wrapping_": 2,
    "canUpdateUI": true,
    "containerweight": 100,
    "contentalignment": 4,
    "id": "CopyRichText0fee490a2f4b34f",
    "info": null,
    "isvisible": true,
    "kuid": "f0f58040d10d4da18c9f378d00ae464b",
    "name": "kony.ui.RichText",
    "parent": "CopyflxValue0a4ce9f2cb86d40",
    "pf": "userwidgetmodel",
    "wType": "RichText",
    "widgetalignment": 5,
    "zindex": 1,
    "accessibilityconfig": {
        "a11yLabel": "Email addresses."
    }
}