{
	 "@class": "com.kony.gen.viz.model.component.KVizImage2",
	 "DNDConfig": null,
	 "__parentReadjusting__": false,
	 "_base64_": null,
	 "_height_": {
		 "type": "string",
		 "value": "20dp"
	},
	 "_left_": {
		 "type": "string",
		 "value": "0%"
	},
	 "_margin_": [
		 0,
		 0,
		 0,
		 0
	],
	 "_padding_": [
		 0,
		 0,
		 0,
		 0
	],
	 "_skin_": "s8ee487de5774c1eb668e74bf92f5cdd",
	 "_src_": "unchecked_box.png",
	 "_width_": {
		 "type": "string",
		 "value": "20dp"
	},
	 "canUpdateUI": true,
	 "centery": {
		 "type": "string",
		 "value": "50%"
	},
	 "containerweight": 100,
	 "context": {
		 "channel": "desktop",
		 "formID": "uw96b93cd19fc04d80abf86051af2431ed",
		 "platform": "desktopweb",
		 "templateType": "userwidgets",
		 "topLevelBox": null
	},
	 "id": "imgCheckBox",
	 "imagescalemode": 1,
	 "imagewhiledownloading": "img_transparent.png",
	 "info": null,
	 "invokedProperty": "src",
	 "isvisible": false,
	 "kuid": "e551e0711a204411bfce12290d0944e3",
	 "name": "kony.ui.Image2",
	 "parent": "flxCheckBox",
	 "pf": "userwidgetmodel",
	 "srcType": 1,
	 "wType": "Image",
	 "widgetalignment": 5,
	 "zindex": 1,
	 "accessibilityconfig": {
		 "a11yLabel": "Checkbox",
		 "a11yValue": ""
	}
}