{
    "DNDConfig": null,
    "__parentReadjusting__": false,
    "_height_": {
        "type": "string",
        "value": "20dp"
    },
    "_left_": {
        "type": "string",
        "value": "2.50%"
    },
    "_margin_": [
        0,
        0,
        0,
        0
    ],
    "_orientation_": 6,
    "_padding_": [
        0,
        0,
        0,
        0
    ],
    "_percent_": true,
    "_skin_": "sec33ce747114bec824bad2508e6968f",
    "_top_": {
        "type": "string",
        "value": "0dp"
    },
    "_width_": {
        "type": "string",
        "value": "20dp"
    },
    "allboxes": [],
    "autogrowmode": 0,
    "canUpdateUI": true,
    "children": [
        "CopyimgTCContentsCheckbox0h9889054d45745"
    ],
    "clipbounds": true,
    "containerweight": 100,
    "enablescrolling": true,
    "id": "CopyflxTCContentsCheckbox0i5f73c9b411548",
    "info": null,
    "isvisible": true,
    "kuid": "e39d4a0fc4a24e46b1523b5955ef6c6b",
    "layouttype": 2,
    "name": "kony.ui.FlexContainer",
    "parent": "CopyflxTCCheckBox0h2854eb77a214b",
    "pf": "frmPersonalLoan",
    "responsiveData": {
        "b3": {
            "left": {
                "type": "string",
                "value": "12dp"
            }
        }
    },
    "snapgridsize": 10,
    "snaptogrid": true,
    "wType": "FlexContainer",
    "widgetalignment": 1,
    "zindex": 1
}