{
    "DNDConfig": null,
    "__parentReadjusting__": false,
    "_height_": {
        "type": "ref",
        "value": "preferred"
    },
    "_left_": {
        "type": "string",
        "value": "0dp"
    },
    "_margin_": [
        0,
        0,
        0,
        0
    ],
    "_orientation_": 6,
    "_padding_": [
        0,
        0,
        0,
        0
    ],
    "_percent_": true,
    "_skin_": "s24c92fc23b14f5484b693ee9b8a9b35",
    "_top_": {
        "type": "string",
        "value": "0dp"
    },
    "_width_": {
        "type": "string",
        "value": "100%"
    },
    "allboxes": [],
    "autogrowmode": 1,
    "canUpdateUI": true,
    "children": [
        "flxAccountsDescription"
    ],
    "clipbounds": false,
    "containerweight": 100,
    "enablescrolling": true,
    "id": "flxAccounts",
    "info": null,
    "isvisible": false,
    "kuid": "fabc6f22a3df4381ae6a3a34327d6797",
    "layouttype": 4,
    "name": "kony.ui.FlexContainer",
    "parent": "flxMainLeftContainers",
    "pf": "frmPersonalLoan",
    "responsiveData": {
        "b1": {
            "skin": "s24c92fc23b14f5484b693ee9b8a9b35"
        },
        "b2": {},
        "b3": {
            "layoutType": 3
        },
        "b4": {}
    },
    "snapgridsize": 10,
    "snaptogrid": true,
    "wType": "FlexContainer",
    "widgetalignment": 1,
    "zindex": 1
}