{
    "@class": "com.kony.gen.viz.model.component.KVizButton",
    "DNDConfig": null,
    "__parentReadjusting__": false,
    "_height_": {
        "type": "string",
        "value": "100%"
    },
    "_left_": {
        "type": "string",
        "value": "8dp"
    },
    "_margin_": [
        6,
        6,
        6,
        6
    ],
    "_padding_": [
        0,
        0,
        0,
        0
    ],
    "_skin_": "sbbe76180c0c40cdb07fb2df14299c36",
    "_text_": "Amount",
    "_width_": {
        "type": "ref",
        "value": "preferred"
    },
    "canUpdateUI": true,
    "centery": {
        "type": "string",
        "value": "50%"
    },
    "containerId": true,
    "containerweight": 100,
    "contentalignment": 5,
    "displaytext": true,
    "focusskin": "s8629dca0a2e40e582d8268f1e70d64f",
    "id": "btnEditAmount",
    "info": null,
    "iscustomlayout": false,
    "isvisible": true,
    "kuid": "aa34b28ef81a40f5aea1ec8ba9b6651b",
    "name": "kony.ui.Button",
    "parent": "flxEditAmount",
    "pf": "segBulkPayementHeader",
    "retaincontentalignment": false,
    "retainflexpositionproperties": false,
    "wType": "Button",
    "zindex": 1
}