{
    "@class": "com.kony.gen.viz.model.component.KVizUserWidget",
    "DNDConfig": null,
    "_children_": [],
    "_height_": {
        "type": "ref",
        "value": "preferred"
    },
    "_left_": {
        "type": "string",
        "value": "0dp"
    },
    "_margin_": [
        0,
        0,
        0,
        0
    ],
    "_orientation_": 1,
    "_padding_": [
        0,
        0,
        0,
        0
    ],
    "_percent_": true,
    "_render_": true,
    "_skin_": "sdc143f0e5b64ae3a3f155f691c73fa7",
    "_top_": {
        "type": "string",
        "value": "0dp"
    },
    "_width_": {
        "type": "string",
        "value": "100%"
    },
    "android": {},
    "androidwearos": {},
    "areflexpropsreferenced": false,
    "autogrowmode": 1,
    "canUpdateUI": true,
    "clipbounds": false,
    "containerweight": 0,
    "dataDiffs": {
        "CopyflxTitleSeparator0bdbc19527e804c": {
            "__events__": {},
            "__info__": {
                "kuid": "id46fb6d72ec4ef78685d7ccc81fa492",
                "srcKUID": "fd8f4943e38f458aaf00d26b7e6592e1",
                "wType": "FlexContainer"
            }
        },
        "accountList": {
            "__events__": {},
            "__info__": {
                "isRoot": true,
                "kuid": "hf3cf36085314c80bc48b5ed18b6b418",
                "srcKUID": "f276f391b5ae4be4bb5d47e93b31caf8",
                "wType": "FlexContainer"
            },
            "isVisible": true,
            "vizProps": {
                "hide": true
            }
        },
        "btnShowAllAccounts": {
            "__events__": {},
            "__info__": {
                "kuid": "a6ae6aea45d94cbca23793cb4b5d7a33",
                "srcKUID": "gca8795538d34bf79d6a25f34b96791d",
                "wType": "Label"
            },
            "responsiveData": {
                "b1": {},
                "b2": {},
                "b3": {
                    "right": {
                        "type": "string",
                        "value": "60dp"
                    }
                },
                "b4": {}
            },
            "right": {
                "Default": {
                    "type": "string",
                    "value": "18%"
                }
            }
        },
        "flxAccountsHeader": {
            "__events__": {},
            "__info__": {
                "kuid": "c907370a420148329e3897bd04b3f2e6",
                "srcKUID": "fb23480919844baf86d766b2213f693c",
                "wType": "FlexContainer"
            },
            "isVisible": false,
            "responsiveData": {}
        },
        "flxAccountsHeaderWrapper": {
            "__events__": {},
            "__info__": {
                "kuid": "c1699eb462364d8fb6ff29f8d36f0eec",
                "srcKUID": "b332faf1e4e2403497df8547882331eb",
                "wType": "FlexContainer"
            },
            "left": {
                "Default": {
                    "type": "string",
                    "value": "15dp"
                }
            }
        },
        "flxAccountsRightContainer": {
            "__events__": {},
            "__info__": {
                "kuid": "ieac6dc6afd6493fabe34db993738892",
                "srcKUID": "b0f985b5bcf5435490a4f403973fa645",
                "wType": "FlexContainer"
            },
            "responsiveData": {
                "b1": {},
                "b2": {},
                "b4": {}
            },
            "right": {
                "Default": {
                    "type": "string",
                    "value": "0%"
                }
            }
        },
        "flxAccountsSegments": {
            "__events__": {},
            "__info__": {
                "kuid": "g2d3c071d41b433683d9c6ebb6e1dcea",
                "srcKUID": "c58c973931c14273899a66f7bf87d875",
                "wType": "FlexContainer"
            },
            "bottom": {
                "Default": {
                    "type": "string",
                    "value": ""
                }
            },
            "responsiveData": {},
            "top": {
                "Default": {
                    "type": "string",
                    "value": "1dp"
                }
            }
        },
        "flxDropDown": {
            "__events__": {},
            "__info__": {
                "kuid": "cd678e3937bb4903a02d22f4e0e572b1",
                "srcKUID": "b6634ebd0e9b4d28959d03fa2a490831",
                "wType": "FlexContainer"
            },
            "responsiveData": {
                "b1": {},
                "b2": {},
                "b3": {
                    "width": {
                        "type": "string",
                        "value": "60dp"
                    }
                },
                "b4": {}
            },
            "right": {
                "Default": {
                    "type": "string",
                    "value": "0dp"
                }
            },
            "width": {}
        },
        "flxHolisticAccountsHeader": {
            "__events__": {},
            "__info__": {
                "kuid": "d08e79af2f5b4da69be3ecafac6f83e4",
                "srcKUID": "b9e8e27ea2954359a84eb7e938058a49",
                "wType": "FlexContainer"
            }
        },
        "flxHolisticAccountsHeaderWrapper": {
            "__events__": {},
            "__info__": {
                "kuid": "b4c80c6728eb4d089e5bb99e4acb47de",
                "srcKUID": "a0346089fb3e43dd83aa2d88db8b6fd4",
                "wType": "FlexContainer"
            }
        },
        "flxHolisticAccountsSegments": {
            "__events__": {},
            "__info__": {
                "kuid": "jf17faa3fae740a8b6426071908fedf8",
                "srcKUID": "b450882e8b0947d680cfe1d7bcca6689",
                "wType": "FlexContainer"
            }
        },
        "flxTitleSeparator": {
            "__events__": {},
            "__info__": {
                "kuid": "dab2192606944a9b83747ea467fefb5f",
                "srcKUID": "b044f9c93350432e96e59285c4adab99",
                "wType": "FlexContainer"
            },
            "isVisible": false,
            "responsiveData": {}
        },
        "imgAccountsHeader": {
            "__events__": {},
            "__info__": {
                "kuid": "a8d11041dfdc4f8f92e2770a52a899cb",
                "srcKUID": "e31df4e8cc3b4c528d334dd782ed8af1",
                "wType": "Label"
            }
        },
        "imgHolisticAccountsHeader": {
            "__events__": {},
            "__info__": {
                "kuid": "a9d86d6e11a44ec393aa8baeb6728693",
                "srcKUID": "b40e88595888471a9d6a5ffad62dfc34",
                "wType": "Image"
            },
            "src": "accounts_blue.png"
        },
        "lblAccountsHeader": {
            "__events__": {},
            "__info__": {
                "kuid": "i871120ec7af4202828e4e2f7a9d264b",
                "srcKUID": "a1f39800dcdb4cf7b0b38515eb9c1120",
                "wType": "Label"
            }
        },
        "lblHolisticAccountsHeader": {
            "__events__": {},
            "__info__": {
                "kuid": "ibf0ac4c9da14a77817bfb302db781f3",
                "srcKUID": "b4f44481cbe94b5dba377c7655eadcef",
                "wType": "Label"
            },
            "i18n_text": "i18n.AccountsLanding.OTHERBANKACCOUNTS"
        },
        "lblImgDropdown": {
            "__events__": {},
            "__info__": {
                "kuid": "j6f00424a2e54340b2facdb8b1baae5b",
                "srcKUID": "j2163829612746b99967488523b2bb24",
                "wType": "Label"
            },
            "centerX": {
                "Default": {
                    "type": "string",
                    "value": "53%"
                }
            },
            "responsiveData": {}
        },
        "segAccounts": {
            "__events__": {},
            "__info__": {
                "kuid": "cfa4dad585f24631be0c7fe6cf81aeca",
                "srcKUID": "h0da993b03e742cfa91e8b61778aad19",
                "wType": "Segment"
            },
            "data": {
                "desktop": [
                    {
                        "CopyimgMenu0a97e7ab1e83140": {
                            "@class": "com.viz.ide.model.segment.ImageSegmentData",
                            "src": ""
                        },
                        "CopyimgThreeDotIcon0eac906fccd3d43": {
                            "@class": "com.viz.ide.model.segment.SimpleTextSegmentData",
                            "text": ""
                        },
                        "btn": {
                            "@class": "com.viz.ide.model.segment.SimpleTextSegmentData",
                            "text": ""
                        },
                        "imgBankName": {
                            "@class": "com.viz.ide.model.segment.ImageSegmentData",
                            "src": ""
                        },
                        "imgFavourite": {
                            "@class": "com.viz.ide.model.segment.ImageSegmentData",
                            "src": ""
                        },
                        "imgIdentifier": {
                            "@class": "com.viz.ide.model.segment.ImageSegmentData",
                            "src": ""
                        },
                        "imgInfo": {
                            "@class": "com.viz.ide.model.segment.ImageSegmentData",
                            "src": ""
                        },
                        "imgMenu": {
                            "@class": "com.viz.ide.model.segment.ImageSegmentData",
                            "src": ""
                        },
                        "imgStarIcon": {
                            "@class": "com.viz.ide.model.segment.SimpleTextSegmentData",
                            "text": ""
                        },
                        "imgThreeDotIcon": {
                            "@class": "com.viz.ide.model.segment.SimpleTextSegmentData",
                            "text": ""
                        },
                        "imgWarning": {
                            "@class": "com.viz.ide.model.segment.ImageSegmentData",
                            "src": ""
                        },
                        "lblAccountName": {
                            "@class": "com.viz.ide.model.segment.SimpleTextSegmentData",
                            "text": ""
                        },
                        "lblAccountNumber": {
                            "@class": "com.viz.ide.model.segment.SimpleTextSegmentData",
                            "text": ""
                        },
                        "lblAvailableBalanceTitle": {
                            "@class": "com.viz.ide.model.segment.SimpleTextSegmentData",
                            "text": ""
                        },
                        "lblAvailableBalanceValue": {
                            "@class": "com.viz.ide.model.segment.SimpleTextSegmentData",
                            "text": ""
                        }
                    }
                ]
            }
        },
        "segHolisticAccounts": {
            "__events__": {},
            "__info__": {
                "kuid": "bce49b6a441440a7814eeaaf021ff881",
                "srcKUID": "ga15efb828054568879cb8c6a2b80834",
                "wType": "Segment"
            }
        }
    },
    "desktopweb": {},
    "id": "accountList",
    "info": null,
    "ipad": {},
    "iphone": {},
    "isdatareferenced": false,
    "issegmentchild": false,
    "isvisible": true,
    "kiosk": {},
    "kuid": "hf3cf36085314c80bc48b5ed18b6b418",
    "layouttype": 4,
    "masterType": 0,
    "name": "kony.ui.UserWidgetInstance",
    "parent": "flxAccountsContainer",
    "pf": "frmDashboard",
    "responsiveData": {},
    "snaptogrid": true,
    "sourceUserWidget": "f276f391b5ae4be4bb5d47e93b31caf8",
    "spa": {},
    "spaan": {},
    "spaandroidtablet": {},
    "spabb": {},
    "spaip": {},
    "spaipad": {},
    "spamobile": {},
    "spatablet": {},
    "spawindowstablet": {},
    "spawinphone8": {},
    "tabrcandroid": {},
    "vizProps": {
        "hide": true,
        "hidewidgethierarchy": false
    },
    "vizprops": {
        "hidewidgethierarchy": false
    },
    "wType": "UserWidgetInstance",
    "windows10": {},
    "windows8": {},
    "winphone10": {},
    "winphone8": {}
}