{
    "@class": "com.kony.gen.viz.model.component.KVizUserWidget",
    "DNDConfig": null,
    "__parentReadjusting__": false,
    "_children_": [],
    "_height_": {
        "type": "ref",
        "value": "preferred"
    },
    "_left_": {
        "type": "string",
        "value": "0dp"
    },
    "_margin_": [
        0,
        0,
        0,
        0
    ],
    "_orientation_": 1,
    "_padding_": [
        0,
        0,
        0,
        0
    ],
    "_percent_": true,
    "_skin_": "sdc143f0e5b64ae3a3f155f691c73fa7",
    "_top_": {
        "type": "string",
        "value": "0dp"
    },
    "_width_": {
        "type": "string",
        "value": "99%"
    },
    "areflexpropsreferenced": false,
    "autogrowmode": 1,
    "canUpdateUI": true,
    "centerx": {
        "type": "string",
        "value": "50%"
    },
    "clipbounds": false,
    "containerweight": 0,
    "dataDiffs": {
        "advancedFilters": {
            "__events__": {},
            "__info__": {
                "isRoot": true,
                "kuid": "g4d573957a6d46378d4077492a61dcac",
                "srcKUID": "uc91661f522340f5933164a7ba839226",
                "wType": "FlexContainer"
            },
            "autogrowMode": {
                "Default": 1
            },
            "bottom": {
                "Default": {
                    "type": "string",
                    "value": ""
                }
            },
            "centerX": {
                "Default": {
                    "type": "string",
                    "value": "50%"
                }
            },
            "centerY": {
                "Default": {
                    "type": "string",
                    "value": ""
                }
            },
            "height": {
                "Default": {
                    "type": "ref",
                    "value": "preferred"
                }
            },
            "left": {
                "Default": {
                    "type": "string",
                    "value": "0dp"
                }
            },
            "maxHeight": {
                "Default": {
                    "type": "string",
                    "value": ""
                }
            },
            "maxWidth": {
                "Default": {
                    "type": "string",
                    "value": ""
                }
            },
            "minHeight": {
                "Default": {
                    "type": "string",
                    "value": ""
                }
            },
            "minWidth": {
                "Default": {
                    "type": "string",
                    "value": ""
                }
            },
            "responsiveData": {},
            "right": {
                "Default": {
                    "type": "string",
                    "value": ""
                }
            },
            "top": {
                "Default": {
                    "type": "string",
                    "value": "0dp"
                }
            },
            "width": {
                "Default": {
                    "type": "string",
                    "value": "99%"
                }
            }
        },
        "btnApplyFilter": {
            "__events__": {},
            "__info__": {
                "kuid": "afa2183fba10443cb129ad8db4e25840",
                "srcKUID": "he58e76689b74c00b2dbc8395f2c0426",
                "wType": "Button"
            }
        },
        "btnCancelFilter": {
            "__events__": {},
            "__info__": {
                "kuid": "cea066fc8344404698e0b701b3046733",
                "srcKUID": "fc8100c6ba924859bc44a282c6066c03",
                "wType": "Button"
            }
        },
        "btnReset": {
            "__events__": {},
            "__info__": {
                "kuid": "gf50d900c852408a9d622cb862a59597",
                "srcKUID": "uac3615fd32e49739a39b726211256a9",
                "wType": "Label"
            }
        },
        "flxAccountsRightContainer": {
            "__events__": {},
            "__info__": {
                "kuid": "j042a4a257eb46eaaa7a385c63405c97",
                "srcKUID": "ub972339565445e987309243fd0210c1",
                "wType": "FlexContainer"
            }
        },
        "flxAdvancedFilterHeader": {
            "__events__": {},
            "__info__": {
                "kuid": "dcd2d43a0a164e3daf09202a54566804",
                "srcKUID": "ubef125dd36a41939764abdcc59a0dc5",
                "wType": "FlexContainer"
            }
        },
        "flxAdvancedFiltersTitle": {
            "__events__": {},
            "__info__": {
                "kuid": "bf99a36ffb464dd998b2d0715e48d36e",
                "srcKUID": "u6ea327b79ee4732ba19d84a58d5ffa3",
                "wType": "FlexContainer"
            }
        },
        "flxButtons": {
            "__events__": {},
            "__info__": {
                "kuid": "ifa9be280b0e411994274310ab9cf5f7",
                "srcKUID": "ee940800b00f4af2866b097e1afdfdb0",
                "wType": "FlexContainer"
            }
        },
        "flxByAccounts": {
            "__events__": {},
            "__info__": {
                "kuid": "ad88feb7d50d43ea8efbe3baa3aa47f6",
                "srcKUID": "ca27d63a80374a6ab9fa2e125ac36cea",
                "wType": "FlexContainer"
            }
        },
        "flxByBalance": {
            "__events__": {},
            "__info__": {
                "kuid": "i7f7436f2aa5424b8311cd9df4da7f2d",
                "srcKUID": "i77cfce3f7284e508a8ad2febeff2e42",
                "wType": "FlexContainer"
            }
        },
        "flxByChoice3": {
            "__events__": {},
            "__info__": {
                "kuid": "cef6208c74fd4658bfc3857f45cac80b",
                "srcKUID": "f99607d5a2d542ec92b631b3898c7e71",
                "wType": "FlexContainer"
            }
        },
        "flxCurrency": {
            "__events__": {},
            "__info__": {
                "kuid": "ebc5f2db216e41328d784e43d104d843",
                "srcKUID": "c48bdc7fa59e4cffad6c73543e6f4535",
                "wType": "FlexContainer"
            }
        },
        "flxCurrencyBody": {
            "__events__": {},
            "__info__": {
                "kuid": "db0264ea4f584a5595d9e26e77882a71",
                "srcKUID": "h58954ad0d4949ec8ecdeb8493e98e79",
                "wType": "FlexContainer"
            }
        },
        "flxCurrencyExpand": {
            "__events__": {},
            "__info__": {
                "kuid": "i490f6a91d7e40d9972278822ad2172a",
                "srcKUID": "a75e53021a3348cdacb364044378acb2",
                "wType": "FlexContainer"
            }
        },
        "flxCurrencyHeader": {
            "__events__": {},
            "__info__": {
                "kuid": "j04f8bf3ed224e1e80c159299366e60d",
                "srcKUID": "g7d1b98e95064a11bcc2b39529f4b744",
                "wType": "FlexContainer"
            }
        },
        "flxCurrencyTitle": {
            "__events__": {},
            "__info__": {
                "kuid": "g2096d722ec34edc8237554a8d2b9ca3",
                "srcKUID": "g6e476b9f93f4954b1eb65488a2ed917",
                "wType": "FlexContainer"
            }
        },
        "flxDropDown": {
            "__events__": {},
            "__info__": {
                "kuid": "b8a19cbb575540c0aef1a00d4a36ac60",
                "srcKUID": "g905b50b96304a99b445e64300b28022",
                "wType": "FlexContainer"
            }
        },
        "flxDropdownCurrency": {
            "__events__": {},
            "__info__": {
                "kuid": "i1b4b353bf3f467380d300de27d89a62",
                "srcKUID": "g8589d569f4143c7883d624acbb955c9",
                "wType": "FlexContainer"
            }
        },
        "flxDropdownImage": {
            "__events__": {},
            "__info__": {
                "kuid": "bc7961a0677640fe945ae795c17b67fa",
                "srcKUID": "f17684d1280341588a6563772b2fcea3",
                "wType": "FlexContainer"
            }
        },
        "flxExpand": {
            "__events__": {},
            "__info__": {
                "kuid": "b76719361e2a4515a12801d827ead904",
                "srcKUID": "b88d4b86bc934b5cbead67b96cd87b79",
                "wType": "FlexContainer"
            }
        },
        "flxGroup": {
            "__events__": {},
            "__info__": {
                "kuid": "f2084276777c4f8baffa0e1222b28ff7",
                "srcKUID": "j9ee1940b5374cc4aeb7cd0d538f6d78",
                "wType": "FlexContainer"
            }
        },
        "flxGroupBody": {
            "__events__": {},
            "__info__": {
                "kuid": "d716d3ce341a428f93d7f02b14cf242a",
                "srcKUID": "a1186e9bb36349c9a8a2b4c358c17fbb",
                "wType": "FlexContainer"
            }
        },
        "flxGroupByAccountType": {
            "__events__": {},
            "__info__": {
                "kuid": "jcb9619909ce431f92470d2fc860f7c8",
                "srcKUID": "caa40ca0d7bb489faf8dfb9876e6b91d",
                "wType": "FlexContainer"
            }
        },
        "flxGroupByCompany": {
            "__events__": {},
            "__info__": {
                "kuid": "de47dfbc08ca4ee7891fd8f0d5bdb93d",
                "srcKUID": "a7a231636296433b8dd89c4114f84925",
                "wType": "FlexContainer"
            }
        },
        "flxGroupByHeader": {
            "__events__": {},
            "__info__": {
                "kuid": "g90b82d941464a24990919c3d779eaab",
                "srcKUID": "b76cf3b94b814a1db157b2ff26822146",
                "wType": "FlexContainer"
            }
        },
        "flxGroupDropDown": {
            "__events__": {},
            "__info__": {
                "kuid": "ed3becea16b049d484d58cd58b758e4a",
                "srcKUID": "f51b226aeb0849d298b8686eacba33bd",
                "wType": "FlexContainer"
            }
        },
        "flxGroupExpand": {
            "__events__": {},
            "__info__": {
                "kuid": "c3e91e6c64da4784bf5be963c9371b6f",
                "srcKUID": "c34b721b55454c218d2dd267ed893470",
                "wType": "FlexContainer"
            }
        },
        "flxGroupHeader": {
            "__events__": {},
            "__info__": {
                "kuid": "c6738ec077f84fdb979be616dcb6eeff",
                "srcKUID": "d7874b3a5bb24fa58203a4b35a912455",
                "wType": "FlexContainer"
            }
        },
        "flxGroupRow": {
            "__events__": {},
            "__info__": {
                "kuid": "g01ab73dba1a405e87b6aec8137ab4dc",
                "srcKUID": "c241fe1174ad42eb984c6da98ac86ea5",
                "wType": "FlexContainer"
            }
        },
        "flxGroupSeperator": {
            "__events__": {},
            "__info__": {
                "kuid": "b3969ea1b0de4130a8557f26ed1e3432",
                "srcKUID": "d6b740ba58b8435591ec2a725c13308e",
                "wType": "FlexContainer"
            }
        },
        "flxRow1": {
            "__events__": {},
            "__info__": {
                "kuid": "jfe83daf1f72438fa752e8847fd598d4",
                "srcKUID": "b204829f4d5d45f9b944a3277591f4f3",
                "wType": "FlexContainer"
            }
        },
        "flxRow2": {
            "__events__": {},
            "__info__": {
                "kuid": "j5edf2e4f69a4d6889814c594d76b2fd",
                "srcKUID": "ie64348ec99042ebaf5f7404737d2f2a",
                "wType": "FlexContainer"
            }
        },
        "flxSeperator": {
            "__events__": {},
            "__info__": {
                "kuid": "j31c3743a81d4635afdbe19177d576ce",
                "srcKUID": "b825b37e479842a386afec322e8e2301",
                "wType": "FlexContainer"
            }
        },
        "flxSeperatorCurrency": {
            "__events__": {},
            "__info__": {
                "kuid": "e01ef772902049cb8f002a7e01c57077",
                "srcKUID": "fd39aa473e8a462aa74ada932b6ec549",
                "wType": "FlexContainer"
            }
        },
        "flxSeperatorCurrencyType": {
            "__events__": {},
            "__info__": {
                "kuid": "c9984de1eb604b92afa789623a0d2fb9",
                "srcKUID": "f6dc30ab842e4135a4c3b84c0a4ab921",
                "wType": "FlexContainer"
            }
        },
        "flxSeperatorGroup": {
            "__events__": {},
            "__info__": {
                "kuid": "g2dd3afb3e354925a9b53f390b2be2ff",
                "srcKUID": "j65571c7bb984e8c87d6960dc3234dcb",
                "wType": "FlexContainer"
            }
        },
        "flxSeperatorSort": {
            "__events__": {},
            "__info__": {
                "kuid": "gcb76014578942fe9c348e44de147c66",
                "srcKUID": "e614e2a0caf940ad89919a20eb12167c",
                "wType": "FlexContainer"
            }
        },
        "flxSeperatorToa": {
            "__events__": {},
            "__info__": {
                "kuid": "d29e1aff89b945948b168ea98ecf4186",
                "srcKUID": "c94cf2e7915e4e02882858eb801e3c79",
                "wType": "FlexContainer"
            }
        },
        "flxSeperatorToaTitle": {
            "__events__": {},
            "__info__": {
                "kuid": "g659c524f5704dd482c9e3f9c89e3eb2",
                "srcKUID": "e4119dcdd4bb45d8a4bbd32f0bd63005",
                "wType": "FlexContainer"
            }
        },
        "flxSort": {
            "__events__": {},
            "__info__": {
                "kuid": "a41894ce9fb4412baa6d9ba6036d2a9d",
                "srcKUID": "ae8671838a2645e68975ebca1c8146ae",
                "wType": "FlexContainer"
            }
        },
        "flxSortBody": {
            "__events__": {},
            "__info__": {
                "kuid": "cf04407e08f6447693108204a0384faf",
                "srcKUID": "g9d143dac7664fab9af2ef0c314e134d",
                "wType": "FlexContainer"
            }
        },
        "flxSortByHeader": {
            "__events__": {},
            "__info__": {
                "kuid": "g75e169d46ca4254936b48a1a8f0cd2c",
                "srcKUID": "f14f8463afbc45cb8c3ba285a08ef966",
                "wType": "FlexContainer"
            }
        },
        "flxSortHeader": {
            "__events__": {},
            "__info__": {
                "kuid": "fdc2aadce1dc46b8a4f307bc3c56b664",
                "srcKUID": "c9a97515dd4f44479d42aad1f9e2a0a7",
                "wType": "FlexContainer"
            }
        },
        "flxTitleSeparator": {
            "__events__": {},
            "__info__": {
                "kuid": "gefca2159f874e7c9b2640f66d2d3317",
                "srcKUID": "ue6aa1930a324fddace149dd26298e6c",
                "wType": "FlexContainer"
            }
        },
        "flxToaBody": {
            "__events__": {},
            "__info__": {
                "kuid": "ea430e37312e4e8dbf47203463f98771",
                "srcKUID": "dff694dcecde45a69d9d4ac7c9c1d41d",
                "wType": "FlexContainer"
            }
        },
        "flxToaHeader": {
            "__events__": {},
            "__info__": {
                "kuid": "f2985de228d746f09604e12b31ae00a0",
                "srcKUID": "aaafc28e3ec140d7a6aa0fac55e54d60",
                "wType": "FlexContainer"
            }
        },
        "flxToaHeaderTitle": {
            "__events__": {},
            "__info__": {
                "kuid": "dcd606cda22d4b04ac3644996ee58b2b",
                "srcKUID": "g78da95401e847dc851dae41f8b9e220",
                "wType": "FlexContainer"
            }
        },
        "flxTypeOfAccounts": {
            "__events__": {},
            "__info__": {
                "kuid": "c9acfeadf5fc4098bf8d70550b28c30b",
                "srcKUID": "cdaa3e3761bf4854a5f557d21548ed57",
                "wType": "FlexContainer"
            }
        },
        "flxTypeOfAccountsExpand": {
            "__events__": {},
            "__info__": {
                "kuid": "e95f70f9270344e7921113de8a0798f8",
                "srcKUID": "i6cd9744abc643b7b4be44a251b95647",
                "wType": "FlexContainer"
            }
        },
        "lblAccountType": {
            "__events__": {},
            "__info__": {
                "kuid": "dd977a019fb344fa94b92dc81c786637",
                "srcKUID": "d1df583a1d564c98b5cb67b213d9ccfa",
                "wType": "Label"
            }
        },
        "lblAccounts": {
            "__events__": {},
            "__info__": {
                "kuid": "d2c3530f003141da9178830f54423865",
                "srcKUID": "ceda2d1a7f6e4528ace27e31be819957",
                "wType": "Label"
            }
        },
        "lblAccountsHeader": {
            "__events__": {},
            "__info__": {
                "kuid": "b51b4553fe61402fa96db2b3324bd760",
                "srcKUID": "u6fc9c302b3349fc8ecea3ba78a4bf3a",
                "wType": "Label"
            }
        },
        "lblBalance": {
            "__events__": {},
            "__info__": {
                "kuid": "a24bc71bdc29442e8742141d5a5db306",
                "srcKUID": "i4bc58323fae44cb89dfb02b516c6fa5",
                "wType": "Label"
            }
        },
        "lblChoice3": {
            "__events__": {},
            "__info__": {
                "kuid": "d7d353ccf34244b0bc04b5c2d9c0dac7",
                "srcKUID": "ha3a4086b1c94f229a9401e489c37a75",
                "wType": "Label"
            }
        },
        "lblCurrencyType": {
            "__events__": {},
            "__info__": {
                "kuid": "i54a5377462d455f9d394115c6706891",
                "srcKUID": "ef1ab90964b54f1d845fab89444a5f11",
                "wType": "Label"
            }
        },
        "lblGroupBy": {
            "__events__": {},
            "__info__": {
                "kuid": "e6bcf45593fb43faa7a38c078491976e",
                "srcKUID": "b9d72e6fb5c14a55a64540928ab67ef5",
                "wType": "Label"
            }
        },
        "lblGroupCompany": {
            "__events__": {},
            "__info__": {
                "kuid": "h28f6f0c1d254e3f9b057a93a94a7d59",
                "srcKUID": "b0c5687c8c6147d381df0f713d42de60",
                "wType": "Label"
            }
        },
        "lblIconAccountName": {
            "__events__": {},
            "__info__": {
                "kuid": "d550e62eaf3448d6a8d80a0c710eb3ae",
                "srcKUID": "j6c52a84934d45d388ef5a7330cf24c7",
                "wType": "Label"
            }
        },
        "lblIconAccountType": {
            "__events__": {},
            "__info__": {
                "kuid": "b53d4d6c38cb4aff84fc36c2fd738d62",
                "srcKUID": "c5ca89de38db4085bb8b7a6809c8bb80",
                "wType": "Label"
            }
        },
        "lblIconBalance": {
            "__events__": {},
            "__info__": {
                "kuid": "bbcff1c9ed114afab4855cc17e72d117",
                "srcKUID": "cb5e500196674d4ab12de70b9ade21d7",
                "wType": "Label"
            }
        },
        "lblIconChoice3": {
            "__events__": {},
            "__info__": {
                "kuid": "d4f4ea69ceb54ed2a03cb04167b438f9",
                "srcKUID": "e92ebbaca0c6472dbcbba1d5d1c075d1",
                "wType": "Label"
            }
        },
        "lblIconGroupCompany": {
            "__events__": {},
            "__info__": {
                "kuid": "ca62053cef6a482da1124621d620486a",
                "srcKUID": "b7e193b010624f50be62f42032133f39",
                "wType": "Label"
            }
        },
        "lblImage": {
            "__events__": {},
            "__info__": {
                "kuid": "a198b8b6032a438398b42478a82a6fe0",
                "srcKUID": "eedae5dd720e4b918f83727ff4eabe13",
                "wType": "Label"
            }
        },
        "lblImageCurrency": {
            "__events__": {},
            "__info__": {
                "kuid": "bd7c75eeadbf4261b7b31877467ddef5",
                "srcKUID": "dfafa2545ea24c848e726d1ebe263a8f",
                "wType": "Label"
            }
        },
        "lblImgDropdown": {
            "__events__": {},
            "__info__": {
                "kuid": "j1080739c2c04b1b8b6b807016153c8f",
                "srcKUID": "bc88b787b71b4c38a4bf58a41155c428",
                "wType": "Label"
            }
        },
        "lblImgGroupDropdown": {
            "__events__": {},
            "__info__": {
                "kuid": "hd181ab79e57444da471a6f87b3df6d7",
                "srcKUID": "ddc3d5c3e055424d8ec5af8927cf9419",
                "wType": "Label"
            }
        },
        "lblSortBy": {
            "__events__": {},
            "__info__": {
                "kuid": "d7a294c798694bd49473092e8db0796b",
                "srcKUID": "f7066b740d694ed4a41f6b81305a1051",
                "wType": "Label"
            }
        },
        "lblTypeOfAccounts": {
            "__events__": {},
            "__info__": {
                "kuid": "ba9aa5272c824c0aa36d7b420f684dea",
                "srcKUID": "b418079c592f450984046c2f220b11c4",
                "wType": "Label"
            }
        },
        "segCurrency": {
            "__events__": {},
            "__info__": {
                "kuid": "haefad943d9d4ceeaf2f7cad93baff0d",
                "srcKUID": "a47a5404e5864e3db8c706aa5fabdcf7",
                "wType": "Segment"
            }
        },
        "segTypeOfAccounts": {
            "__events__": {},
            "__info__": {
                "kuid": "je4a16acd1f048f79da15295e726c257",
                "srcKUID": "dacaa7b86289413e84e14c08e3acd05f",
                "wType": "Segment"
            }
        }
    },
    "enablescrolling": true,
    "id": "advancedFilters",
    "info": null,
    "isdatareferenced": false,
    "isvisible": true,
    "kuid": "g4d573957a6d46378d4077492a61dcac",
    "layouttype": 4,
    "masterType": 0,
    "name": "kony.ui.UserWidgetInstance",
    "parent": "flxAdvancedFilters",
    "pf": "frmDashboard",
    "snapgridsize": 10,
    "snaptogrid": true,
    "sourceUserWidget": "uc91661f522340f5933164a7ba839226",
    "wType": "UserWidgetInstance"
}