{
    "DNDConfig": null,
    "__parentReadjusting__": false,
    "_height_": {
        "type": "string",
        "value": "80dp"
    },
    "_left_": {
        "type": "string",
        "value": "0dp"
    },
    "_margin_": [
        0,
        0,
        0,
        0
    ],
    "_orientation_": 6,
    "_padding_": [
        0,
        0,
        0,
        0
    ],
    "_percent_": true,
    "_skin_": "s24c92fc23b14f5484b693ee9b8a9b35",
    "_top_": {
        "type": "string",
        "value": "0dp"
    },
    "_width_": {
        "type": "string",
        "value": "100%"
    },
    "allboxes": [],
    "canUpdateUI": true,
    "children": [
        "lblShowing",
        "flxFilterListBox",
        "flxAdvancedFiltersDropdown",
        "flxSearch",
        "txtDummy"
    ],
    "clipbounds": false,
    "containerweight": 100,
    "enablescrolling": true,
    "id": "flxAccountsHeader",
    "info": null,
    "iscustomlayout": false,
    "isvisible": true,
    "kuid": "ce0c58ae87ab4f69a44dad9a14533282",
    "layouttype": 2,
    "name": "kony.ui.FlexContainer",
    "parent": "flxAccountsContainer",
    "pf": "frmDashboard",
    "responsiveData": {
        "b3": {
            "height": {
                "type": "string",
                "value": "100dp"
            }
        }
    },
    "retaincontentalignment": false,
    "retainflexpositionproperties": false,
    "retainflowhorizontalalignment": false,
    "snapgridsize": 10,
    "snaptogrid": true,
    "wType": "FlexContainer",
    "widgetalignment": 1,
    "zindex": 1
}