{
    "DNDConfig": null,
    "__parentReadjusting__": false,
    "_height_": {
        "type": "string",
        "value": "22dp"
    },
    "_margin_": [
        0,
        0,
        0,
        0
    ],
    "_orientation_": 6,
    "_padding_": [
        0,
        0,
        0,
        0
    ],
    "_percent_": true,
    "_right_": {
        "type": "string",
        "value": "4.30%"
    },
    "_skin_": "s6c4cbf31f7c4fc08f7236fc38f01a0e",
    "_width_": {
        "type": "string",
        "value": "22dp"
    },
    "allboxes": [],
    "autogrowmode": 0,
    "canUpdateUI": true,
    "centery": {
        "type": "string",
        "value": "50%"
    },
    "children": [
        "lblDropDown"
    ],
    "clipbounds": true,
    "containerweight": 100,
    "enablescrolling": true,
    "id": "flxDropDown",
    "info": null,
    "isvisible": true,
    "kuid": "g1bd4606aa374b588a0feb2938c50702",
    "layouttype": 2,
    "name": "kony.ui.FlexContainer",
    "parent": "flxFilterListBox",
    "pf": "frmDashboard",
    "responsiveData": {
        "b3": {
            "right": {
                "type": "string",
                "value": "5dp"
            }
        }
    },
    "snapgridsize": 10,
    "snaptogrid": true,
    "wType": "FlexContainer",
    "widgetalignment": 1,
    "zindex": 10
}