{
    "@class": "com.kony.gen.viz.model.component.KVizUserWidget",
    "DNDConfig": null,
    "__parentReadjusting__": false,
    "_bottom_": {
        "type": "string",
        "value": "15dp"
    },
    "_children_": [],
    "_height_": {
        "type": "ref",
        "value": "preferred"
    },
    "_left_": {
        "type": "string",
        "value": "0%"
    },
    "_margin_": [
        0,
        0,
        0,
        0
    ],
    "_orientation_": 1,
    "_padding_": [
        0,
        0,
        0,
        0
    ],
    "_percent_": true,
    "_render_": true,
    "_skin_": "sdc143f0e5b64ae3a3f155f691c73fa7",
    "_top_": {
        "type": "string",
        "value": "0px"
    },
    "_width_": {
        "type": "string",
        "value": "100%"
    },
    "android": {},
    "androidwearos": {},
    "areflexpropsreferenced": false,
    "canUpdateUI": true,
    "centerx": {
        "type": "number",
        "value": ""
    },
    "clipbounds": false,
    "containerweight": 0,
    "dataDiffs": {
        "flxHeader": {
            "__events__": {},
            "__info__": {
                "kuid": "ea8dca1961ac4dc8869835f98dbd3e9f",
                "srcKUID": "caede16d9fd240a58aa21574b9a69042",
                "wType": "FlexContainer"
            }
        },
        "flxMySpending": {
            "__events__": {},
            "__info__": {
                "kuid": "ed9fcddfb22342afa5b99208c2a711a2",
                "srcKUID": "h126d56842c64634bca49f4ce27ca9dc",
                "wType": "FlexContainer"
            },
            "centerX": {
                "Default": {
                    "type": "string",
                    "value": ""
                }
            },
            "centerY": {
                "Default": {
                    "type": "string",
                    "value": ""
                }
            },
            "left": {
                "Default": {
                    "type": "number",
                    "value": "0"
                }
            },
            "responsiveData": {}
        },
        "flxMySpendingWrapper": {
            "__events__": {},
            "__info__": {
                "kuid": "ba7fdf3642a44e5db5324e5c8bb87605",
                "srcKUID": "b33da3a6995c4da690ee76e7e489cb5f",
                "wType": "FlexContainer"
            },
            "autogrowMode": {
                "Default": 0
            },
            "height": {
                "Default": {
                    "type": "string",
                    "value": "360dp"
                }
            },
            "isVisible": true,
            "left": {
                "Default": {
                    "type": "string",
                    "value": "0dp"
                }
            },
            "responsiveData": {
                "b1": {}
            },
            "top": {
                "Default": {
                    "type": "string",
                    "value": "0dp"
                }
            }
        },
        "flxMySpendingWrapperdataUnavailable": {
            "__events__": {},
            "__info__": {
                "kuid": "da24208c11434ba6bb2e890eadc0933a",
                "srcKUID": "b9c0343f8b094f16a483993db8795853",
                "wType": "FlexContainer"
            },
            "isVisible": false,
            "responsiveData": {
                "b1": {
                    "isVisible": false
                },
                "b2": {
                    "isVisible": false
                },
                "b4": {
                    "isVisible": false
                }
            },
            "width": {
                "Default": {
                    "type": "string",
                    "value": "100%"
                }
            }
        },
        "flxNoTransactionsMySpending": {
            "__events__": {},
            "__info__": {
                "kuid": "eae884adc8474165b608ac6dd0f3c614",
                "srcKUID": "a6bdcd8118d846f188e08920afca27bd",
                "wType": "FlexContainer"
            },
            "autogrowMode": {
                "Default": 0
            },
            "height": {
                "Default": {
                    "type": "string",
                    "value": "300px"
                }
            },
            "responsiveData": {
                "b1": {
                    "height": null,
                    "top": {
                        "type": "string",
                        "value": "0dp"
                    },
                    "width": {
                        "type": "string",
                        "value": "100%"
                    }
                },
                "b2": {
                    "height": null,
                    "top": {
                        "type": "string",
                        "value": "0dp"
                    },
                    "width": {
                        "type": "string",
                        "value": "100%"
                    }
                },
                "b3": {
                    "height": null,
                    "width": {
                        "type": "string",
                        "value": "100%"
                    }
                },
                "b4": {
                    "height": null,
                    "top": {
                        "type": "string",
                        "value": "0dp"
                    },
                    "width": {
                        "type": "string",
                        "value": "100%"
                    }
                }
            },
            "top": {
                "Default": {
                    "type": "string",
                    "value": "40dp"
                }
            },
            "width": {
                "Default": {
                    "type": "string",
                    "value": "80%"
                }
            }
        },
        "flxSeparator": {
            "__events__": {},
            "__info__": {
                "kuid": "d4d9956529e740499299a8a8df50f864",
                "srcKUID": "gee91910a82e471fa558a27379d63f3d",
                "wType": "FlexContainer"
            },
            "responsiveData": {
                "b2": {
                    "isVisible": false
                },
                "b3": {
                    "isVisible": false
                }
            }
        },
        "flxSeparatorMySpending": {
            "__events__": {},
            "__info__": {
                "kuid": "d48190dbe9f945e381431e3f2684bb66",
                "srcKUID": "b225db61d55f4627bb2f7dec0f9da8ed",
                "wType": "FlexContainer"
            }
        },
        "flxServiceError": {
            "__events__": {},
            "__info__": {
                "kuid": "c6a48af57908407eaa2eb1a95bdb87b1",
                "srcKUID": "h7d3d2c7010f4b9b8d3ef6353bfee783",
                "wType": "FlexContainer"
            },
            "isVisible": false
        },
        "flxServiceErrorWarning": {
            "__events__": {},
            "__info__": {
                "kuid": "f4ed094d8a7940e49d82486d497d587b",
                "srcKUID": "e5aeb13fb8414d52bd45f0f1c4f8f163",
                "wType": "FlexContainer"
            }
        },
        "imgInfoIconWarning": {
            "__events__": {},
            "__info__": {
                "kuid": "a3ddc3f21ffa47e1b586cd2067a59331",
                "srcKUID": "h7b077d213cc4a06ab057ef8452536d4",
                "wType": "Image"
            },
            "src": "error_yellow.png"
        },
        "imgInfoMySpending": {
            "__events__": {},
            "__info__": {
                "kuid": "e6f5a35e1164489d94fc34bd33d4f533",
                "srcKUID": "a9dd9c90767542bd9ae9a9a1f5cb73a0",
                "wType": "Image"
            },
            "height": {},
            "left": {
                "Default": {
                    "type": "string",
                    "value": "5%"
                }
            },
            "responsiveData": {
                "b1": {
                    "height": {
                        "type": "string",
                        "value": "30dp"
                    },
                    "left": null,
                    "top": null,
                    "width": {
                        "type": "string",
                        "value": "30dp"
                    }
                },
                "b2": {
                    "height": {
                        "type": "string",
                        "value": "30dp"
                    },
                    "left": null,
                    "top": null,
                    "width": {
                        "type": "string",
                        "value": "30dp"
                    }
                },
                "b3": {
                    "height": {
                        "type": "string",
                        "value": "30dp"
                    },
                    "left": null,
                    "top": null,
                    "width": {
                        "type": "string",
                        "value": "30dp"
                    }
                },
                "b4": {
                    "height": {
                        "type": "string",
                        "value": "30dp"
                    },
                    "left": null,
                    "top": null,
                    "width": {
                        "type": "string",
                        "value": "30dp"
                    }
                }
            },
            "src": "info_large.png",
            "top": {
                "Default": {
                    "type": "string",
                    "value": "5dp"
                }
            },
            "width": {}
        },
        "imgInfoMySpendingNoDat": {
            "__events__": {},
            "__info__": {
                "kuid": "ca7ce82f84094f53a60a69eb008a9f7e",
                "srcKUID": "ge1ee661a63c442f8654f497bcaf697d",
                "wType": "Image"
            },
            "isVisible": false,
            "left": {
                "Default": {
                    "type": "string",
                    "value": "53dp"
                }
            },
            "responsiveData": {
                "b1": {
                    "left": {
                        "type": "string",
                        "value": "80dp"
                    }
                },
                "b2": {
                    "left": {
                        "type": "string",
                        "value": "80dp"
                    }
                },
                "b3": {
                    "left": {
                        "type": "string",
                        "value": "60dp"
                    }
                },
                "b4": {
                    "left": {
                        "type": "string",
                        "value": "80dp"
                    }
                }
            },
            "src": "grey_donut.png",
            "top": {
                "Default": {
                    "type": "string",
                    "value": "21dp"
                }
            }
        },
        "imgMySpendingIcon": {
            "__events__": {},
            "__info__": {
                "kuid": "e9ed13cf87114bf6be212180670a7fb5",
                "srcKUID": "c4376320c2034d8ca932c15250a78949",
                "wType": "Label"
            },
            "height": {
                "Default": {
                    "type": "string",
                    "value": "20px"
                }
            },
            "isVisible": true,
            "left": {
                "Default": {
                    "type": "string",
                    "value": "3.59%"
                }
            },
            "responsiveData": {
                "b3": {
                    "left": {
                        "type": "string",
                        "value": "3%"
                    }
                }
            },
            "text": "",
            "width": {
                "Default": {
                    "type": "string",
                    "value": "20px"
                }
            }
        },
        "lblDataNotAvailable": {
            "__events__": {},
            "__info__": {
                "kuid": "dc165a06a0d24f1b81e3bfbc3d2e9032",
                "srcKUID": "fe47eed5637e4be8ae63d73d291396ec",
                "wType": "Label"
            },
            "centerX": {
                "Default": {
                    "type": "string",
                    "value": "50%"
                }
            },
            "isVisible": false,
            "left": {
                "Default": {
                    "type": "string",
                    "value": "115dp"
                }
            },
            "responsiveData": {
                "b1": {
                    "centerX": {
                        "type": "string",
                        "value": "60%"
                    },
                    "left": {
                        "type": "string",
                        "value": "0dp"
                    },
                    "top": {
                        "type": "string",
                        "value": "300dp"
                    },
                    "width": {
                        "type": "string",
                        "value": "150dp"
                    }
                },
                "b2": {
                    "centerX": {
                        "type": "string",
                        "value": "60%"
                    },
                    "left": {
                        "type": "string",
                        "value": "0dp"
                    },
                    "top": {
                        "type": "string",
                        "value": "300dp"
                    },
                    "width": {
                        "type": "string",
                        "value": "150dp"
                    }
                },
                "b3": {
                    "centerX": {
                        "type": "string",
                        "value": "60%"
                    },
                    "left": {
                        "type": "string",
                        "value": "0dp"
                    },
                    "top": {
                        "type": "string",
                        "value": "300dp"
                    },
                    "width": {
                        "type": "string",
                        "value": "150dp"
                    }
                },
                "b4": {
                    "centerX": {
                        "type": "string",
                        "value": "60%"
                    },
                    "left": {
                        "type": "string",
                        "value": "0dp"
                    },
                    "top": {
                        "type": "string",
                        "value": "300dp"
                    },
                    "width": {
                        "type": "string",
                        "value": "150dp"
                    }
                }
            },
            "top": {
                "Default": {
                    "type": "string",
                    "value": "235dp"
                }
            },
            "width": {
                "Default": {
                    "type": "string",
                    "value": "100dp"
                }
            }
        },
        "lblHeader": {
            "__events__": {},
            "__info__": {
                "kuid": "i9430f6271f14723b0af185b39b41253",
                "srcKUID": "a9ff88173666427b976c29840addce89",
                "wType": "Label"
            },
            "i18n_text": "i18n.PFM.MySpending",
            "left": {
                "Default": {
                    "type": "string",
                    "value": "2.50%"
                }
            },
            "responsiveData": {
                "b3": {
                    "left": null
                }
            },
            "text": "MY SPENDING LAST MONTH",
            "width": {
                "Default": {
                    "type": "string",
                    "value": "50%"
                }
            }
        },
        "lblImgMySpending": {
            "__events__": {},
            "__info__": {
                "kuid": "a6ee6e4f8793478e95fcc9f05dc0577b",
                "srcKUID": "j5281131516c4db9b431fd550441ceba",
                "wType": "Label"
            },
            "isVisible": false,
            "left": {
                "Default": {
                    "type": "string",
                    "value": "53dp"
                }
            },
            "responsiveData": {
                "b1": {},
                "b2": {},
                "b3": {
                    "left": {
                        "type": "string",
                        "value": "53dp"
                    }
                }
            }
        },
        "lblMySpending": {
            "__events__": {},
            "__info__": {
                "kuid": "cce0f3dd3a054a089a704c4c3dd4d9f8",
                "srcKUID": "j1adf257c80d4b448665f94f333286c3",
                "wType": "Label"
            },
            "left": {
                "Default": {
                    "type": "string",
                    "value": "17%"
                }
            },
            "responsiveData": {
                "b1": {
                    "left": null,
                    "top": null,
                    "width": null
                },
                "b2": {
                    "left": null,
                    "top": null,
                    "width": null
                },
                "b3": {
                    "left": null,
                    "top": null,
                    "width": null
                },
                "b4": {
                    "left": null,
                    "top": null,
                    "width": null
                }
            },
            "top": {
                "Default": {
                    "type": "string",
                    "value": "10dp"
                }
            },
            "width": {
                "Default": {
                    "type": "string",
                    "value": "75%"
                }
            }
        },
        "lblOverallSpendingAmount": {
            "__events__": {},
            "__info__": {
                "kuid": "i3d06fd7b83b4f7581183156a1e419ac",
                "srcKUID": "f7f615d67a6c49ca96622daf1e8309d0",
                "wType": "Label"
            },
            "responsiveData": {
                "b3": {
                    "right": {
                        "type": "string",
                        "value": "30dp"
                    },
                    "top": {
                        "type": "string",
                        "value": "25dp"
                    }
                }
            }
        },
        "lblOverallSpendingMySpending": {
            "__events__": {},
            "__info__": {
                "kuid": "f23c3e7aeb684b37aefbdb77c6f8597c",
                "srcKUID": "g41e57a7f9784acaa2a52e385a630ba7",
                "wType": "Label"
            },
            "i18n_text": "i18n.Accounts.Spending",
            "left": {},
            "responsiveData": {
                "b3": {
                    "left": {
                        "type": "string",
                        "value": "30dp"
                    },
                    "top": {
                        "type": "string",
                        "value": "28dp"
                    },
                    "width": {
                        "type": "string",
                        "value": "35%"
                    }
                }
            },
            "text": "Spending"
        },
        "lblServiceErrorWarning": {
            "__events__": {},
            "__info__": {
                "kuid": "c46b77b3e786426284f5966cc07d0b72",
                "srcKUID": "c016077a1a3149b1b86f9678a7589da3",
                "wType": "Label"
            },
            "i18n_text": "i18n.AccountsLanding.UnableToFetchData"
        },
        "lblimgRound": {
            "__events__": {},
            "__info__": {
                "kuid": "b7352bb6366d42a3a609bca7181d14ea",
                "srcKUID": "c031ccfd27bd4ed2a943c827cc312abb",
                "wType": "Label"
            },
            "isVisible": false,
            "responsiveData": {}
        },
        "mySpending": {
            "__events__": {},
            "__info__": {
                "isRoot": true,
                "kuid": "d36f7608c845409abf94ae64198cfd3b",
                "srcKUID": "dc2af2c2aa5b4357820d7433949b973a",
                "wType": "FlexContainer"
            },
            "autogrowMode": 1,
            "bottom": {
                "Default": {
                    "type": "string",
                    "value": "15dp"
                }
            },
            "centerX": {},
            "height": {
                "Default": {
                    "type": "ref",
                    "value": "preferred"
                }
            },
            "left": {
                "Default": {
                    "type": "string",
                    "value": "0%"
                }
            },
            "minWidth": {
                "Default": {
                    "type": "string",
                    "value": ""
                }
            },
            "responsiveData": {
                "b2": {
                    "centerX": {
                        "type": "string",
                        "value": ""
                    },
                    "left": null,
                    "width": null
                },
                "b3": {
                    "height": {
                        "type": "string",
                        "value": "420dp"
                    },
                    "left": null,
                    "right": {
                        "type": "string",
                        "value": "10dp"
                    },
                    "width": null,
                    "zIndex": 1
                },
                "b4": {
                    "left": null
                }
            },
            "right": {},
            "top": {
                "Default": {
                    "type": "string",
                    "value": "0px"
                }
            },
            "width": {
                "Default": {
                    "type": "string",
                    "value": "100%"
                }
            }
        }
    },
    "desktopweb": {},
    "id": "mySpending",
    "info": null,
    "ipad": {},
    "iphone": {},
    "isdatareferenced": false,
    "issegmentchild": false,
    "isvisible": true,
    "kiosk": {},
    "kuid": "d36f7608c845409abf94ae64198cfd3b",
    "layouttype": 4,
    "masterType": 0,
    "minwidth": {
        "type": "string",
        "value": ""
    },
    "name": "kony.ui.UserWidgetInstance",
    "parent": "flxRightContainer",
    "pf": "frmDashboard",
    "responsiveData": {
        "b2": {
            "centerX": {
                "type": "string",
                "value": ""
            },
            "left": null,
            "width": null
        },
        "b3": {
            "height": {
                "type": "string",
                "value": "420dp"
            },
            "left": null,
            "right": {
                "type": "string",
                "value": "10dp"
            },
            "width": null,
            "zIndex": 1
        },
        "b4": {
            "left": null
        }
    },
    "snapgridsize": 10,
    "snaptogrid": true,
    "sourceUserWidget": "dc2af2c2aa5b4357820d7433949b973a",
    "spa": {},
    "spaan": {},
    "spaandroidtablet": {},
    "spabb": {},
    "spaip": {},
    "spaipad": {},
    "spamobile": {},
    "spatablet": {},
    "spawindowstablet": {},
    "spawinphone8": {},
    "tabrcandroid": {},
    "vizProps": {
        "hidewidgethierarchy": false
    },
    "vizprops": {
        "hidewidgethierarchy": false
    },
    "wType": "UserWidgetInstance",
    "windows10": {},
    "windows8": {},
    "winphone10": {},
    "winphone8": {}
}