{
    "@class": "com.kony.gen.viz.model.component.KVizUserWidget",
    "DNDConfig": null,
    "__parentReadjusting__": false,
    "_children_": [],
    "_height_": {
        "type": "string",
        "value": "100dp"
    },
    "_margin_": [
        0,
        0,
        0,
        0
    ],
    "_orientation_": 1,
    "_padding_": [
        0,
        0,
        0,
        0
    ],
    "_percent_": true,
    "_skin_": "s24c92fc23b14f5484b693ee9b8a9b35",
    "_top_": {
        "type": "string",
        "value": "10dp"
    },
    "_width_": {
        "type": "string",
        "value": "99%"
    },
    "android": {},
    "androidwearos": {},
    "areflexpropsreferenced": false,
    "canUpdateUI": true,
    "centerx": {
        "type": "string",
        "value": "50%"
    },
    "clipbounds": true,
    "containerweight": 0,
    "dataDiffs": {
        "btnBack": {
            "__events__": {},
            "__info__": {
                "kuid": "dc88fa430b284382ad1cb3285c0a71d3",
                "srcKUID": "h24be82bc96e4ee6a04762680f6e874e",
                "wType": "Button"
            },
            "bottom": {
                "Default": {
                    "type": "string",
                    "value": ""
                }
            },
            "centerX": {
                "Default": {
                    "type": "number",
                    "value": ""
                }
            },
            "centerY": {
                "Default": {
                    "type": "string",
                    "value": "50%"
                }
            },
            "height": {
                "Default": {
                    "type": "string",
                    "value": "40dp"
                }
            },
            "isVisible": false,
            "left": {
                "Default": {
                    "type": "string",
                    "value": ""
                }
            },
            "responsiveData": {
                "b3": {
                    "width": null
                },
                "b4": {
                    "bottom": {
                        "type": "string",
                        "value": "20dp"
                    },
                    "centerX": {
                        "type": "string",
                        "value": "50%"
                    },
                    "centerY": {
                        "type": "string",
                        "value": ""
                    },
                    "height": null,
                    "isVisible": null,
                    "left": {
                        "type": "string",
                        "value": "20dp"
                    },
                    "right": null,
                    "top": {
                        "type": "string",
                        "value": ""
                    },
                    "width": null
                }
            },
            "right": {
                "Default": {
                    "type": "string",
                    "value": "2.54%"
                }
            },
            "top": {
                "Default": {
                    "type": "number",
                    "value": ""
                }
            },
            "width": {
                "Default": {
                    "type": "string",
                    "value": "13%"
                }
            },
            "zIndex": {
                "Default": 3
            }
        },
        "btnCancel": {
            "__events__": {},
            "__info__": {
                "kuid": "fb523465a0eb46958a2adaf6543e3c0b",
                "srcKUID": "e47a358a81aa4a0da07a4a7c8e127177",
                "wType": "Button"
            },
            "bottom": {
                "Default": {
                    "type": "string",
                    "value": ""
                }
            },
            "centerX": {},
            "centerY": {},
            "height": {
                "Default": {
                    "type": "string",
                    "value": "40dp"
                }
            },
            "isVisible": false,
            "left": {
                "Default": {
                    "type": "string",
                    "value": ""
                }
            },
            "responsiveData": {
                "b3": {
                    "height": null,
                    "width": null
                },
                "b4": {
                    "bottom": {
                        "type": "string",
                        "value": "20dp"
                    },
                    "centerX": {
                        "type": "string",
                        "value": "50%"
                    },
                    "centerY": {
                        "type": "string",
                        "value": ""
                    },
                    "height": null,
                    "isVisible": false,
                    "left": {
                        "type": "string",
                        "value": "20dp"
                    },
                    "right": null,
                    "top": {
                        "type": "string",
                        "value": ""
                    },
                    "width": null
                }
            },
            "right": {
                "Default": {
                    "type": "string",
                    "value": "2.54%"
                }
            },
            "top": {},
            "width": {
                "Default": {
                    "type": "string",
                    "value": "13%"
                }
            }
        },
        "btnNext": {
            "__events__": {},
            "__info__": {
                "kuid": "b83ad0852a4c4bb2ab86577e92208bb0",
                "srcKUID": "b82d156418d9458d809e69dc41992a16",
                "wType": "Button"
            },
            "bottom": {
                "Default": {
                    "type": "string",
                    "value": ""
                }
            },
            "centerX": {},
            "centerY": {},
            "height": {
                "Default": {
                    "type": "string",
                    "value": "40dp"
                }
            },
            "isVisible": false,
            "left": {
                "Default": {
                    "type": "string",
                    "value": ""
                }
            },
            "responsiveData": {
                "b3": {
                    "width": null
                },
                "b4": {
                    "bottom": {
                        "type": "string",
                        "value": "20dp"
                    },
                    "centerX": {
                        "type": "string",
                        "value": "50%"
                    },
                    "centerY": {
                        "type": "string",
                        "value": ""
                    },
                    "height": {
                        "type": "string",
                        "value": "40dp"
                    },
                    "isVisible": false,
                    "left": {
                        "type": "string",
                        "value": "20dp"
                    },
                    "right": null,
                    "text": "Next",
                    "top": {
                        "type": "string",
                        "value": ""
                    },
                    "width": null
                }
            },
            "right": {
                "Default": {
                    "type": "string",
                    "value": "2.54%"
                }
            },
            "text": "Next",
            "top": {},
            "width": {
                "Default": {
                    "type": "string",
                    "value": "13%"
                }
            }
        },
        "btnOption": {
            "__events__": {},
            "__info__": {
                "kuid": "d4f39a1591924b1889295a6e5af4620c",
                "srcKUID": "ebf49918aa7a419fb39b29e23b734b42",
                "wType": "Button"
            },
            "bottom": {
                "Default": {
                    "type": "string",
                    "value": ""
                }
            },
            "centerX": {
                "Default": {
                    "type": "number",
                    "value": ""
                }
            },
            "centerY": {},
            "height": {
                "Default": {
                    "type": "string",
                    "value": "40dp"
                }
            },
            "isVisible": true,
            "left": {
                "Default": {
                    "type": "string",
                    "value": ""
                }
            },
            "responsiveData": {
                "b1": {
                    "isVisible": null
                },
                "b2": {},
                "b3": {
                    "height": null,
                    "width": null
                },
                "b4": {
                    "bottom": {
                        "type": "string",
                        "value": "20dp"
                    },
                    "centerX": {
                        "type": "string",
                        "value": "50%"
                    },
                    "centerY": {
                        "type": "string",
                        "value": ""
                    },
                    "height": null,
                    "isVisible": null,
                    "left": {
                        "type": "string",
                        "value": "20dp"
                    },
                    "right": null,
                    "text": "Option",
                    "top": null,
                    "width": null
                }
            },
            "right": {
                "Default": {
                    "type": "string",
                    "value": "2.54%"
                }
            },
            "top": {
                "Default": {
                    "type": "string",
                    "value": ""
                }
            },
            "width": {
                "Default": {
                    "type": "string",
                    "value": "13%"
                }
            },
            "zIndex": {
                "Default": 2
            }
        },
        "flxMain": {
            "__events__": {},
            "__info__": {
                "kuid": "a4269bed8a2a44fabcb484c9422eae7b",
                "srcKUID": "d54f919210284a3a8ba217e23f749884",
                "wType": "FlexContainer"
            },
            "autogrowMode": {
                "Default": 0
            },
            "centerX": {
                "Default": {
                    "type": "number",
                    "value": ""
                }
            },
            "centerY": {
                "Default": {
                    "type": "string",
                    "value": "40%"
                }
            },
            "height": {
                "Default": {
                    "type": "string",
                    "value": "100%"
                }
            },
            "isVisible": true,
            "layoutType": 3,
            "left": {
                "Default": {
                    "type": "string",
                    "value": "0dp"
                }
            },
            "responsiveData": {
                "b1": {
                    "right": {
                        "type": "string",
                        "value": "2%"
                    },
                    "width": null
                },
                "b2": {
                    "width": null
                },
                "b3": {
                    "width": null
                },
                "b4": {
                    "centerX": {
                        "type": "string",
                        "value": ""
                    },
                    "height": {
                        "type": "string",
                        "value": "260dp"
                    },
                    "isVisible": true,
                    "layoutType": 4,
                    "left": {
                        "type": "string",
                        "value": "0dp"
                    },
                    "top": {
                        "type": "string",
                        "value": "0dp"
                    }
                }
            },
            "reverseLayoutDirection": true,
            "right": {
                "Default": {
                    "type": "number",
                    "value": ""
                }
            },
            "top": {
                "Default": {
                    "type": "string",
                    "value": "0dp"
                }
            },
            "width": {
                "Default": {
                    "type": "string",
                    "value": "100%"
                }
            }
        },
        "formActionsNew": {
            "__events__": {},
            "__info__": {
                "isRoot": true,
                "kuid": "ec2b8302158641c99c3ffbd0135d4343",
                "srcKUID": "a571c5a347394d3fb1e9debcf70da170",
                "wType": "FlexContainer"
            },
            "autogrowMode": {
                "Default": 0
            },
            "centerX": {
                "Default": {
                    "type": "string",
                    "value": "50%"
                }
            },
            "height": {
                "Default": {
                    "type": "string",
                    "value": "100dp"
                }
            },
            "responsiveData": {
                "b4": {
                    "height": null,
                    "top": null
                }
            },
            "top": {
                "Default": {
                    "type": "string",
                    "value": "10dp"
                }
            },
            "width": {
                "Default": {
                    "type": "string",
                    "value": "99%"
                }
            }
        }
    },
    "desktopweb": {},
    "enablescrolling": true,
    "id": "CommonFormActionsNew",
    "info": null,
    "ipad": {},
    "iphone": {},
    "iscustomlayout": false,
    "isdatareferenced": false,
    "issegmentchild": false,
    "isvisible": true,
    "kiosk": {},
    "kuid": "ec2b8302158641c99c3ffbd0135d4343",
    "layouttype": 2,
    "masterType": 0,
    "name": "kony.ui.UserWidgetInstance",
    "parent": "flxMainContainer",
    "pf": "frmBulkPaymentsReview",
    "responsiveData": {
        "b4": {
            "height": {
                "type": "string",
                "value": "260dp"
            },
            "top": {
                "type": "string",
                "value": ""
            }
        }
    },
    "retaincontentalignment": false,
    "retainflexpositionproperties": false,
    "snapgridsize": 10,
    "snaptogrid": true,
    "sourceUserWidget": "a571c5a347394d3fb1e9debcf70da170",
    "spa": {},
    "spaan": {},
    "spaandroidtablet": {},
    "spabb": {},
    "spaip": {},
    "spaipad": {},
    "spamobile": {},
    "spatablet": {},
    "spawindowstablet": {},
    "spawinphone8": {},
    "tabrcandroid": {},
    "vizProps": {
        "hidewidgethierarchy": false
    },
    "wType": "UserWidgetInstance",
    "windows10": {},
    "windows8": {},
    "winphone10": {},
    "winphone8": {},
    "zindex": 1
}