{
    "DNDConfig": null,
    "__parentReadjusting__": false,
    "_height_": {
        "type": "string",
        "value": "66dp"
    },
    "_left_": {
        "type": "string",
        "value": "20dp"
    },
    "_margin_": [
        0,
        0,
        0,
        0
    ],
    "_orientation_": 6,
    "_padding_": [
        0,
        0,
        0,
        0
    ],
    "_percent_": true,
    "_skin_": "s24c92fc23b14f5484b693ee9b8a9b35",
    "_top_": {
        "type": "string",
        "value": "0dp"
    },
    "_width_": {
        "type": "string",
        "value": "100%"
    },
    "allboxes": [],
    "autogrowmode": 0,
    "canUpdateUI": true,
    "centerx": {
        "type": "number",
        "value": ""
    },
    "children": [
        "imgTemplateRecordsError",
        "lblTemplateRecordsError",
        "flxTemplateRecordsErrorSeperator"
    ],
    "clipbounds": true,
    "containerweight": 100,
    "enablescrolling": true,
    "id": "flxAddRecipientDetailsErrorMessage",
    "info": null,
    "iscustomlayout": false,
    "isvisible": false,
    "kuid": "caa910525bf84d61a02d44694a637ed8",
    "layouttype": 3,
    "name": "kony.ui.FlexContainer",
    "parent": "flxAddRecipientDetails",
    "pf": "frmBulkPaymentsReview",
    "responsiveData": {
        "b1": {
            "centerX": {
                "type": "string",
                "value": ""
            },
            "layoutType": 2,
            "left": {
                "type": "string",
                "value": "20dp"
            }
        },
        "b2": {
            "layoutType": 2,
            "skin": "s174dc5ab00f4532a8118bd55fb59517"
        },
        "b3": {
            "layoutType": 2,
            "left": {
                "type": "string",
                "value": "2.60%"
            }
        }
    },
    "retaincontentalignment": false,
    "retainflexpositionproperties": false,
    "snapgridsize": 10,
    "snaptogrid": true,
    "wType": "FlexContainer",
    "widgetalignment": 1,
    "zindex": 1
}