{
    "DNDConfig": null,
    "__parentReadjusting__": false,
    "_height_": {
        "type": "string",
        "value": "1dp"
    },
    "_margin_": [
        0,
        0,
        0,
        0
    ],
    "_orientation_": 6,
    "_padding_": [
        0,
        0,
        0,
        0
    ],
    "_percent_": true,
    "_skin_": "s25fc94d968e49e2bf66bcbb74d07172",
    "_top_": {
        "type": "string",
        "value": "0dp"
    },
    "_width_": {
        "type": "string",
        "value": "96.66%"
    },
    "allboxes": [],
    "autogrowmode": 0,
    "canUpdateUI": true,
    "centerx": {
        "type": "string",
        "value": "50%"
    },
    "children": [
        "lblTopSeparator"
    ],
    "clipbounds": true,
    "containerweight": 100,
    "enablescrolling": true,
    "id": "flxTopSeparator",
    "info": null,
    "iscustomlayout": false,
    "isvisible": false,
    "kuid": "g103b5305cd249a6a118253d669eb6be",
    "layouttype": 2,
    "name": "kony.ui.FlexContainer",
    "parent": "flxSearchBar",
    "pf": "frmBulkPaymentsReview",
    "responsiveData": {
        "b3": {
            "centerX": {
                "type": "string",
                "value": "49.89%"
            },
            "width": {
                "type": "string",
                "value": "94.66%"
            }
        }
    },
    "retaincontentalignment": false,
    "retainflexpositionproperties": false,
    "snapgridsize": 10,
    "snaptogrid": true,
    "wType": "FlexContainer",
    "widgetalignment": 1,
    "zindex": 1
}