{
    "@class": "com.kony.gen.viz.model.component.KVizUserWidget",
    "DNDConfig": null,
    "__parentReadjusting__": false,
    "_children_": [],
    "_height_": {
        "type": "string",
        "value": "111dp"
    },
    "_margin_": [
        0,
        0,
        0,
        0
    ],
    "_orientation_": 1,
    "_padding_": [
        0,
        0,
        0,
        0
    ],
    "_percent_": true,
    "_skin_": "s24c92fc23b14f5484b693ee9b8a9b35",
    "_top_": {
        "type": "string",
        "value": "0dp"
    },
    "_width_": {
        "type": "string",
        "value": "100%"
    },
    "areflexpropsreferenced": false,
    "autogrowmode": 0,
    "canUpdateUI": true,
    "centerx": {
        "type": "string",
        "value": "50%"
    },
    "clipbounds": true,
    "containerweight": 0,
    "dataDiffs": {
        "btnBack": {
            "__events__": {},
            "__info__": {
                "kuid": "ga1ba52791a24cfda6b2f40b6a81335b",
                "srcKUID": "h24be82bc96e4ee6a04762680f6e874e",
                "wType": "Button"
            }
        },
        "btnCancel": {
            "__events__": {},
            "__info__": {
                "kuid": "d00c1d691e324dc09913e8548af528c9",
                "srcKUID": "e47a358a81aa4a0da07a4a7c8e127177",
                "wType": "Button"
            }
        },
        "btnNext": {
            "__events__": {},
            "__info__": {
                "kuid": "e2eb33115d5a40fa81328f200f47112b",
                "srcKUID": "b82d156418d9458d809e69dc41992a16",
                "wType": "Button"
            }
        },
        "btnOption": {
            "__events__": {},
            "__info__": {
                "kuid": "fe21a2e526b54bf3856374b65018b223",
                "srcKUID": "ebf49918aa7a419fb39b29e23b734b42",
                "wType": "Button"
            }
        },
        "flxMain": {
            "__events__": {},
            "__info__": {
                "kuid": "ecc0b9b2412f449d82d1de24e075e467",
                "srcKUID": "d54f919210284a3a8ba217e23f749884",
                "wType": "FlexContainer"
            }
        },
        "formActionsNew": {
            "__events__": {},
            "__info__": {
                "isRoot": true,
                "kuid": "if68d88ee7ac403e9bc926462f5b57da",
                "srcKUID": "a571c5a347394d3fb1e9debcf70da170",
                "wType": "FlexContainer"
            },
            "isVisible": false,
            "responsiveData": {}
        }
    },
    "enablescrolling": true,
    "id": "formActionsNew",
    "info": null,
    "iscustomlayout": false,
    "isdatareferenced": false,
    "isvisible": false,
    "kuid": "if68d88ee7ac403e9bc926462f5b57da",
    "layouttype": 2,
    "masterType": 0,
    "name": "kony.ui.UserWidgetInstance",
    "parent": "flxTabPaneContainer",
    "pf": "frmBulkPaymentsReview",
    "retaincontentalignment": false,
    "retainflexpositionproperties": false,
    "snapgridsize": 10,
    "snaptogrid": true,
    "sourceUserWidget": "a571c5a347394d3fb1e9debcf70da170",
    "wType": "UserWidgetInstance",
    "zindex": 1
}