{
    "@class": "com.kony.gen.viz.model.component.KVizLabel",
    "DNDConfig": null,
    "__parentReadjusting__": false,
    "_height_": {
        "type": "ref",
        "value": "preferred"
    },
    "_left_": {
        "type": "string",
        "value": "1.54%"
    },
    "_margin_": [
        1,
        1,
        1,
        1
    ],
    "_padding_": [
        0,
        0,
        0,
        0
    ],
    "_skin_": "s63e81af6a184e7e8e891b0dbbe7895c",
    "_text_": "Add this Beneficiary to existing Beneficiary list.",
    "_top_": {
        "type": "string",
        "value": "16dp"
    },
    "_width_": {
        "type": "ref",
        "value": "preferred"
    },
    "_wrapping_": 2,
    "accessibilityconfig": {
        "a11yLabel": "Recipient Address"
    },
    "android": {
        "textStyle": {
            "letterSpacing": 0,
            "strikeThrough": false
        }
    },
    "canUpdateUI": true,
    "centery": {
        "type": "string",
        "value": "50%"
    },
    "containerweight": 100,
    "contentalignment": 4,
    "id": "lblAddToList",
    "info": null,
    "ipad": {
        "psp": {
            "wrapping": 2
        }
    },
    "iphone": {
        "psp": {
            "wrapping": 2
        }
    },
    "isvisible": true,
    "kuid": "b5a2af615a6b4f8b8ecef34000b19786",
    "name": "kony.ui.Label",
    "parent": "flxAddToList",
    "pf": "frmBulkPaymentsReview",
    "responsiveData": {
        "b3": {
            "centerY": {
                "type": "string",
                "value": "56%"
            }
        },
        "b4": {}
    },
    "tooltip": "",
    "wType": "Label",
    "zindex": 1
}