{
    "@class": "com.kony.gen.viz.model.component.KVizLabel",
    "DNDConfig": null,
    "_height_": {
        "type": "ref",
        "value": "preferred"
    },
    "_left_": {
        "type": "string",
        "value": "0"
    },
    "_margin_": [
        1,
        1,
        1,
        1
    ],
    "_padding_": [
        0,
        0,
        0,
        0
    ],
    "_skin_": "sc39b68cb14e457b9b79ba3c8c3b88d1",
    "_text_": "Label",
    "_top_": {
        "type": "string",
        "value": "0"
    },
    "_width_": {
        "type": "ref",
        "value": "preferred"
    },
    "_wrapping_": 2,
    "android": {
        "textStyle": {
            "letterSpacing": 0,
            "strikeThrough": false
        }
    },
    "canUpdateUI": true,
    "centery": {
        "type": "number",
        "value": ""
    },
    "containerweight": 100,
    "contentalignment": 4,
    "id": "lblCityName",
    "info": null,
    "ipad": {
        "psp": {
            "wrapping": 2
        }
    },
    "iphone": {
        "psp": {
            "wrapping": 2
        }
    },
    "iscustomlayout": false,
    "isvisible": true,
    "kuid": "f08d8bec220349418922ffe47a66c7d4",
    "name": "kony.ui.Label",
    "parent": "flxLookupSegmentHeader",
    "pf": "frmBulkPaymentsReview",
    "responsiveData": {
        "b1": {
            "centerY": {
                "type": "string",
                "value": "50%"
            },
            "skin": "s366eebecebd44eca21ed96b68f7c2ab",
            "width": {
                "type": "string",
                "value": "20%"
            }
        },
        "b2": {
            "centerY": {
                "type": "string",
                "value": "50%"
            },
            "contentAlignment": 5,
            "left": {
                "type": "string",
                "value": "0%"
            },
            "skin": "s366eebecebd44eca21ed96b68f7c2ab",
            "text": "City",
            "top": {
                "type": "string",
                "value": ""
            },
            "width": {
                "type": "string",
                "value": "20%"
            }
        },
        "b3": {
            "centerY": {
                "type": "string",
                "value": "50%"
            },
            "skin": "s366eebecebd44eca21ed96b68f7c2ab",
            "width": {
                "type": "string",
                "value": "20%"
            }
        },
        "b4": {
            "centerY": {
                "type": "string",
                "value": "50%"
            },
            "skin": "s366eebecebd44eca21ed96b68f7c2ab",
            "width": {
                "type": "string",
                "value": "20%"
            }
        }
    },
    "retaincontentalignment": false,
    "retainflexpositionproperties": false,
    "texti18n": "i18n.TransfersEur.City",
    "tooltip": "",
    "wType": "Label"
}