{
    "@class": "com.kony.gen.viz.model.component.KVizLabel",
    "DNDConfig": null,
    "__parentReadjusting__": false,
    "_height_": {
        "type": "ref",
        "value": "preferred"
    },
    "_left_": {
        "type": "string",
        "value": "5dp"
    },
    "_margin_": [
        1,
        1,
        1,
        1
    ],
    "_padding_": [
        0,
        0,
        0,
        0
    ],
    "_skin_": "s63e81af6a184e7e8e891b0dbbe7895c",
    "_text_": "Using Existing Recipient",
    "_width_": {
        "type": "ref",
        "value": "preferred"
    },
    "_wrapping_": 2,
    "accessibilityconfig": {
        "a11yLabel": "BUSINESS"
    },
    "android": {
        "textStyle": {
            "letterSpacing": 0,
            "strikeThrough": false
        }
    },
    "canUpdateUI": true,
    "centery": {
        "type": "string",
        "value": "43%"
    },
    "containerweight": 100,
    "contentalignment": 4,
    "id": "lblRadio2Add2",
    "info": null,
    "ipad": {
        "psp": {
            "wrapping": 2
        }
    },
    "iphone": {
        "psp": {
            "wrapping": 2
        }
    },
    "isvisible": true,
    "kuid": "he4a3f6a9fa340a9bc8d915e71bd8859",
    "name": "kony.ui.Label",
    "parent": "flxAddType2RadioButtons",
    "pf": "frmBulkPaymentsReview",
    "responsiveData": {
        "b4": {
            "centerY": {
                "type": "string",
                "value": "41%"
            }
        }
    },
    "texti18n": "i18n.common.existingBeneficiary",
    "tooltip": "",
    "wType": "Label",
    "zindex": 1
}