{
    "@class": "com.kony.gen.viz.model.component.KVizUserWidget",
    "DNDConfig": null,
    "__parentReadjusting__": false,
    "_children_": [],
    "_height_": {
        "type": "ref",
        "value": "preferred"
    },
    "_left_": {
        "type": "string",
        "value": "0dp"
    },
    "_margin_": [
        0,
        0,
        0,
        0
    ],
    "_orientation_": 1,
    "_padding_": [
        0,
        0,
        0,
        0
    ],
    "_percent_": true,
    "_skin_": "s24c92fc23b14f5484b693ee9b8a9b35",
    "_top_": {
        "type": "string",
        "value": "0dp"
    },
    "_width_": {
        "type": "string",
        "value": "100%"
    },
    "areflexpropsreferenced": false,
    "autogrowmode": 1,
    "canUpdateUI": true,
    "clipbounds": true,
    "containerweight": 0,
    "dataDiffs": {
        "PaginationContainer": {
            "__events__": {},
            "__info__": {
                "isRoot": true,
                "kuid": "j19561fd93af4d8c9fb7fd7ab0230127",
                "srcKUID": "ice8cbbb6daf446fb8ce127859bcf017",
                "wType": "FlexContainer"
            },
            "isVisible": false,
            "responsiveData": {}
        },
        "flxPagination": {
            "__events__": {},
            "__info__": {
                "kuid": "b42465db1c944ee8aba9cddd960c8cc4",
                "srcKUID": "b07209b6523d429d91d1f86e5c576379",
                "wType": "FlexContainer"
            }
        },
        "flxPaginationFirst": {
            "__events__": {},
            "__info__": {
                "kuid": "fc0ad0100599448b9c97a62c398d07a2",
                "srcKUID": "b894aefa9441464fa97610c0d1065bcd",
                "wType": "FlexContainer"
            }
        },
        "flxPaginationLast": {
            "__events__": {},
            "__info__": {
                "kuid": "ea595c1c4700446da05a788b75a549ec",
                "srcKUID": "c4e3ef5e5b504e94a96e3cd3996c5ccf",
                "wType": "FlexContainer"
            },
            "isVisible": false,
            "responsiveData": {}
        },
        "flxPaginationNext": {
            "__events__": {},
            "__info__": {
                "kuid": "j3dd0196e1be4919b7640ecf809fd25b",
                "srcKUID": "g693c7a404b247099a02efe337403a16",
                "wType": "FlexContainer"
            },
            "responsiveData": {},
            "right": {
                "Default": {
                    "type": "string",
                    "value": "-0.50%"
                }
            }
        },
        "flxPaginationPrevious": {
            "__events__": {},
            "__info__": {
                "kuid": "b4c6c87b41df49fa956313a96564358f",
                "srcKUID": "j9aa598d741c4cb8aee25041b3b66849",
                "wType": "FlexContainer"
            }
        },
        "imgPaginationFirst": {
            "__events__": {},
            "__info__": {
                "kuid": "c476fe8729204263ae2d36706f9386a7",
                "srcKUID": "eb7f93aaba36463ead0a0dac05b8cfef",
                "wType": "Image"
            }
        },
        "imgPaginationLast": {
            "__events__": {},
            "__info__": {
                "kuid": "fc6669e1ebd64fc6baa070c214d26ff7",
                "srcKUID": "h70aa197b6834f5da2fda3b16e358fbd",
                "wType": "Image"
            },
            "src": "pagination_last_active.png"
        },
        "imgPaginationNext": {
            "__events__": {},
            "__info__": {
                "kuid": "a5dafbdd00534c74a12863e56e1551b0",
                "srcKUID": "i3a20e1ceab540d490ad32ca87e5a1e0",
                "wType": "Image"
            },
            "src": "pagination_next_active.png"
        },
        "imgPaginationPrevious": {
            "__events__": {},
            "__info__": {
                "kuid": "b8ca414713dc43a69bab1086c1805f0a",
                "srcKUID": "fe5b71b39044460da9d255810c5de280",
                "wType": "Image"
            },
            "src": "pagination_back_inactive.png"
        },
        "lblPagination": {
            "__events__": {},
            "__info__": {
                "kuid": "d844541c34894e05a29c296ce4dbb818",
                "srcKUID": "id8aa659677f4ae9a11944383081582a",
                "wType": "Label"
            },
            "left": {
                "Default": {
                    "type": "string",
                    "value": "1.50%"
                }
            },
            "responsiveData": {},
            "right": {
                "Default": {
                    "type": "string",
                    "value": "1.50%"
                }
            },
            "text": "1-03 of 03 Records"
        }
    },
    "enablescrolling": true,
    "id": "PaginationContainer",
    "info": null,
    "iscustomlayout": false,
    "isdatareferenced": false,
    "isvisible": false,
    "kuid": "j19561fd93af4d8c9fb7fd7ab0230127",
    "layouttype": 4,
    "masterType": 0,
    "name": "kony.ui.UserWidgetInstance",
    "parent": "flxTabPaneContainer",
    "pf": "frmBulkPaymentsReview",
    "retaincontentalignment": false,
    "retainflexpositionproperties": false,
    "retainflowhorizontalalignment": false,
    "snapgridsize": 10,
    "snaptogrid": true,
    "sourceUserWidget": "ice8cbbb6daf446fb8ce127859bcf017",
    "wType": "UserWidgetInstance"
}