{
    "@class": "com.kony.gen.viz.model.component.KVizButton",
    "DNDConfig": null,
    "__parentReadjusting__": false,
    "_height_": {
        "type": "string",
        "value": "50dp"
    },
    "_left_": {
        "type": "string",
        "value": "74%"
    },
    "_margin_": [
        6,
        6,
        6,
        6
    ],
    "_padding_": [
        0,
        0,
        0,
        0
    ],
    "_skin_": "s611bd2c5d324490aa9f7ed9d412984f",
    "_text_": "December 2018",
    "_width_": {
        "type": "ref",
        "value": "preferred"
    },
    "accessibilityconfig": {
        "a11yLabel": "STATEMENTS (22K,PDF) "
    },
    "canUpdateUI": true,
    "centery": {
        "type": "string",
        "value": "50%"
    },
    "containerId": true,
    "containerweight": 100,
    "contentalignment": 5,
    "disabledSkins": {
        "focusSkin": "sf44d06ca8224832827ea7fdff757013"
    },
    "displaytext": true,
    "id": "btnStatement2",
    "ide_onClick": "AS_Button_aa8d42b85e8842e2b53475b46dc7eefa",
    "info": null,
    "isvisible": true,
    "kuid": "d73707ce41e74702a44abd6eb47463f7",
    "name": "kony.ui.Button",
    "parent": "flxMonthStatements",
    "pf": "segMonthStatements",
    "wType": "Button",
    "zindex": 1
}