{
    "@class": "com.kony.gen.viz.model.component.KVizLabel",
    "DNDConfig": null,
    "__parentReadjusting__": false,
    "_height_": {
        "type": "ref",
        "value": "preferred"
    },
    "_left_": {
        "type": "string",
        "value": "3dp"
    },
    "_margin_": [
        1,
        1,
        1,
        1
    ],
    "_padding_": [
        0,
        0,
        0,
        0
    ],
    "_skin_": "sd58e7dec3cf45cfb721a7ac97d2837a",
    "_text_": "Jennifer Reid",
    "_top_": {
        "type": "number",
        "value": ""
    },
    "_width_": {
        "type": "ref",
        "value": "preferred"
    },
    "_wrapping_": 2,
    "accessibilityconfig": {
        "a11yLabel": "Transaction Date"
    },
    "android": {
        "textStyle": {
            "letterSpacing": 0,
            "strikeThrough": false
        }
    },
    "canUpdateUI": true,
    "centery": {
        "type": "string",
        "value": "52%"
    },
    "containerweight": 100,
    "contentalignment": 4,
    "id": "lblDomesticRecipients",
    "info": null,
    "ipad": {
        "psp": {
            "wrapping": 2
        }
    },
    "iphone": {
        "psp": {
            "wrapping": 2
        }
    },
    "isvisible": true,
    "kuid": "d2f763c8f98e47fea23364fba5c32318",
    "name": "kony.ui.Label",
    "parent": "flxFileDetails",
    "pf": "frmBulkWireConfirmTransfer",
    "responsiveData": {
        "b1": {
            "text": "80"
        },
        "b2": {
            "centerY": {
                "type": "string",
                "value": ""
            },
            "left": {
                "type": "string",
                "value": "160dp"
            },
            "text": "80",
            "top": {
                "type": "string",
                "value": "85dp"
            }
        },
        "b4": {
            "text": "70"
        }
    },
    "tooltip": "",
    "wType": "Label",
    "zindex": 1
}