{
    "@class": "com.kony.gen.viz.model.component.KVizLabel",
    "DNDConfig": null,
    "__parentReadjusting__": false,
    "_height_": {
        "type": "ref",
        "value": "preferred"
    },
    "_left_": {
        "type": "string",
        "value": "8dp"
    },
    "_margin_": [
        1,
        1,
        1,
        1
    ],
    "_padding_": [
        0,
        0,
        0,
        0
    ],
    "_skin_": "sf5961c097964b808d8053c8072c2574",
    "_text_": "Select any one or both mode of contact to get a secure access code.",
    "_top_": {
        "type": "string",
        "value": "20dp"
    },
    "_width_": {
        "type": "string",
        "value": "673dp"
    },
    "_wrapping_": 2,
    "accessibilityconfig": {
        "a11yLabel": "You have entered an incorrect secure access code. Please re-enter the code ask us to send you a new code."
    },
    "android": {
        "textStyle": {
            "letterSpacing": 0,
            "strikeThrough": false
        }
    },
    "canUpdateUI": true,
    "containerweight": 100,
    "contentalignment": 4,
    "id": "lblHeader",
    "info": null,
    "ipad": {
        "psp": {
            "wrapping": 2
        }
    },
    "iphone": {
        "psp": {
            "wrapping": 2
        }
    },
    "isvisible": true,
    "kuid": "jb2a90607c214c4b88ef921cc75cc97e",
    "name": "kony.ui.Label",
    "parent": "flxOTPHeader",
    "pf": "userwidgetmodel",
    "texti18n": "i18n.MFA.headerMessageForOTP",
    "tooltip": "",
    "wType": "Label",
    "zindex": 1
}