{
    "@class": "com.kony.gen.viz.model.component.KVizLabel",
    "DNDConfig": null,
    "__parentReadjusting__": false,
    "_height_": {
        "type": "ref",
        "value": "preferred"
    },
    "_left_": {
        "type": "string",
        "value": "0dp"
    },
    "_margin_": [
        1,
        1,
        1,
        1
    ],
    "_padding_": [
        0,
        0,
        0,
        0
    ],
    "_skin_": "s2f56eb499e34a6cb2635d92fc0bc55a",
    "_text_": "b",
    "_top_": {
        "type": "string",
        "value": "15dp"
    },
    "_width_": {
        "type": "string",
        "value": "65dp"
    },
    "_wrapping_": 2,
    "accessibilityconfig": {
        "a11yARIA": {
            "tabindex": -1
        },
        "a11yHidden": true,
        "a11yLabel": "You have entered an incorrect secure access code. Please re-enter the code ask us to send you a new code."
    },
    "android": {
        "textStyle": {
            "letterSpacing": 0,
            "strikeThrough": false
        }
    },
    "canUpdateUI": true,
    "containerweight": 100,
    "contentalignment": 4,
    "id": "lblOTP",
    "info": null,
    "ipad": {
        "psp": {
            "wrapping": 2
        }
    },
    "iphone": {
        "psp": {
            "wrapping": 2
        }
    },
    "isvisible": true,
    "kuid": "c91f04c2675a4b49b9d69b41bacf3895",
    "name": "kony.ui.Label",
    "parent": "flxImgTxt",
    "pf": "userwidgetmodel",
    "responsiveData": {
        "b1": {
            "top": {
                "type": "string",
                "value": "2dp"
            }
        }
    },
    "tooltip": "",
    "wType": "Label",
    "zindex": 1
}