{
    "@class": "com.kony.gen.viz.model.component.KVizLabel",
    "DNDConfig": null,
    "__parentReadjusting__": false,
    "_height_": {
        "type": "ref",
        "value": "preferred"
    },
    "_left_": {
        "type": "string",
        "value": "30dp"
    },
    "_margin_": [
        1,
        1,
        1,
        1
    ],
    "_padding_": [
        0,
        0,
        0,
        0
    ],
    "_skin_": "s089a30edc014fedb2eb54b3b16a7723",
    "_text_": "Registered Phone:",
    "_top_": {
        "type": "string",
        "value": "35dp"
    },
    "_width_": {
        "type": "string",
        "value": "137dp"
    },
    "_wrapping_": 2,
    "accessibilityconfig": {
        "a11yLabel": "Note: Your CVV number is confidential. Please dont share this number with anyone!"
    },
    "android": {
        "textStyle": {
            "letterSpacing": 0,
            "strikeThrough": false
        }
    },
    "canUpdateUI": true,
    "containerweight": 100,
    "contentalignment": 4,
    "id": "lblRegisteredPhone",
    "info": null,
    "ipad": {
        "psp": {
            "wrapping": 2
        }
    },
    "iphone": {
        "psp": {
            "wrapping": 2
        }
    },
    "isvisible": true,
    "kuid": "dacc197e47c94bf39d97d02b19376de4",
    "name": "kony.ui.Label",
    "parent": "flxEnterOTP",
    "pf": "userwidgetmodel",
    "texti18n": "i18n.MFA.RegisteredPhone",
    "tooltip": "",
    "wType": "Label",
    "zindex": 1
}