{
    "@class": "com.kony.gen.viz.model.component.KVizButton",
    "DNDConfig": null,
    "__parentReadjusting__": false,
    "_height_": {
        "type": "string",
        "value": "40dp"
    },
    "_left_": {
        "type": "string",
        "value": "29.50%"
    },
    "_margin_": [
        6,
        6,
        6,
        6
    ],
    "_padding_": [
        0,
        0,
        0,
        0
    ],
    "_skin_": "sa611611b2f24e93bcfd09e1606c0d86",
    "_text_": "Cancel",
    "_top_": {
        "type": "string",
        "value": "0dp"
    },
    "_width_": {
        "type": "string",
        "value": "32.40%"
    },
    "accessibilityconfig": {
        "a11yLabel": "Cancel"
    },
    "canUpdateUI": true,
    "containerweight": 100,
    "contentalignment": 5,
    "desktopweb": {
        "psp": {
            "hoverSkin": "s83729feaa224e359d660d5af05c4bac"
        }
    },
    "displaytext": true,
    "focusskin": "s434743e49c446699565893e4974ec52",
    "id": "btnIntCancelKA",
    "info": null,
    "isvisible": true,
    "kuid": "039e2174e63f4622b949a2755d5e12b0",
    "name": "kony.ui.Button",
    "parent": "flxIntAddOrCancelKA",
    "pf": "userwidgetmodel",
    "tooltip": "Cancel",
    "wType": "Button",
    "zindex": 1
}