{
    "DNDConfig": null,
    "__parentReadjusting__": false,
    "_height_": {
        "type": "string",
        "value": "630px"
    },
    "_left_": {
        "type": "string",
        "value": "3.60%"
    },
    "_margin_": [
        0,
        0,
        0,
        0
    ],
    "_orientation_": 6,
    "_padding_": [
        0,
        0,
        0,
        0
    ],
    "_percent_": true,
    "_skin_": "scbd4cac3526468089bf3013adff0549",
    "_top_": {
        "type": "string",
        "value": "0dp"
    },
    "_width_": {
        "type": "string",
        "value": "58%"
    },
    "allboxes": [],
    "autogrowmode": 0,
    "canUpdateUI": true,
    "children": [
        "flxIntCheckboxKA",
        "flxIntSwiftCodeKA",
        "flxIntBankNameKA",
        "flxIntAccountTypeKA",
        "flxIntAccountNumberKA",
        "flxIntAccountNumberAgainKA",
        "flxIntBeneficiaryNameKA",
        "flxIntAccountNickNameKA"
    ],
    "clipbounds": true,
    "containerweight": 100,
    "enablescrolling": true,
    "id": "flxInternationalCustomerDetailsKA",
    "info": null,
    "isvisible": true,
    "kuid": "4f8657eb4057467fbeb8c95bdf3e0f0b",
    "layouttype": 4,
    "name": "kony.ui.FlexContainer",
    "parent": "flxInternationalDetailsKA",
    "pf": "userwidgetmodel",
    "snapgridsize": 10,
    "snaptogrid": true,
    "wType": "FlexContainer",
    "widgetalignment": 1,
    "zindex": 1
}