{
    "@class": "com.kony.gen.viz.model.component.KVizLabel",
    "DNDConfig": null,
    "_height_": {
        "type": "ref",
        "value": "preferred"
    },
    "_left_": {
        "type": "string",
        "value": "8.33%"
    },
    "_margin_": [
        1,
        1,
        1,
        1
    ],
    "_padding_": [
        0,
        0,
        0,
        0
    ],
    "_skin_": "s88f540ca66940eebe986a90e0697d16",
    "_text_": "‘Linda’s’ Personal checkings has been added successfully",
    "_top_": {
        "type": "string",
        "value": "0"
    },
    "_width_": {
        "type": "ref",
        "value": "preferred"
    },
    "_wrapping_": 2,
    "accessibilityconfig": {
        "a11yLabel": "‘Linda’s’ Personal checkings has been added successfully"
    },
    "android": {
        "textStyle": {
            "letterSpacing": 0,
            "strikeThrough": false
        }
    },
    "canUpdateUI": true,
    "centerx": {
        "type": "number",
        "value": ""
    },
    "centery": {
        "type": "string",
        "value": "50%"
    },
    "containerweight": 100,
    "contentalignment": 4,
    "id": "lblSuccessAcknowledgement",
    "info": null,
    "ipad": {
        "psp": {
            "wrapping": 2
        }
    },
    "iphone": {
        "psp": {
            "wrapping": 2
        }
    },
    "isvisible": true,
    "kuid": "d5d9131c02e847de8b90ef9028b31f53",
    "name": "kony.ui.Label",
    "parent": "flxSuccessMessage",
    "pf": "frmWireTransferAddInternationalAccountAck",
    "responsiveData": {
        "b3": {
            "centerX": {
                "type": "string",
                "value": "50%"
            },
            "centerY": {
                "type": "string",
                "value": ""
            },
            "contentAlignment": 5,
            "left": {
                "type": "string",
                "value": ""
            },
            "skin": "sf0cb6e968274aa389aafbf14ff806fd",
            "text": "‘Linda’s’ Personal checkings has been added successfully",
            "top": {
                "type": "string",
                "value": "30dp"
            },
            "width": {
                "type": "string",
                "value": "80%"
            }
        },
        "b4": {
            "left": {
                "type": "string",
                "value": "12%"
            },
            "width": {
                "type": "string",
                "value": "60%"
            }
        }
    },
    "tooltip": "",
    "wType": "Label",
    "zindex": 1
}