{
    "@class": "com.kony.gen.viz.model.component.KVizUserWidget",
    "DNDConfig": null,
    "_children_": [],
    "_height_": {
        "type": "string",
        "value": "111dp"
    },
    "_margin_": [
        0,
        0,
        0,
        0
    ],
    "_orientation_": 1,
    "_padding_": [
        0,
        0,
        0,
        0
    ],
    "_percent_": true,
    "_skin_": "s24c92fc23b14f5484b693ee9b8a9b35",
    "_top_": {
        "type": "string",
        "value": "0dp"
    },
    "_width_": {
        "type": "string",
        "value": "100%"
    },
    "android": {},
    "androidwearos": {},
    "areflexpropsreferenced": false,
    "canUpdateUI": true,
    "centerx": {
        "type": "string",
        "value": "50%"
    },
    "clipbounds": true,
    "containerweight": 0,
    "dataDiffs": {
        "btnBack": {
            "__events__": {},
            "__info__": {
                "kuid": "h5a4b84412da466a9e9c40b4b5260fd6",
                "srcKUID": "h24be82bc96e4ee6a04762680f6e874e",
                "wType": "Button"
            },
            "height": {
                "Default": {
                    "type": "string",
                    "value": "40dp"
                }
            },
            "isVisible": false,
            "left": {
                "Default": {
                    "type": "string",
                    "value": ""
                }
            },
            "responsiveData": {
                "b1": {
                    "right": {
                        "type": "string",
                        "value": "46.75%"
                    },
                    "width": {
                        "type": "string",
                        "value": "12.25%"
                    }
                },
                "b2": {
                    "isVisible": false,
                    "right": {
                        "type": "string",
                        "value": "46.75%"
                    },
                    "width": {
                        "type": "string",
                        "value": "12.25%"
                    }
                },
                "b3": {
                    "height": null,
                    "isVisible": null,
                    "left": null,
                    "right": null,
                    "width": null
                }
            },
            "right": {
                "Default": {
                    "type": "string",
                    "value": "55%"
                }
            },
            "width": {
                "Default": {
                    "type": "string",
                    "value": "15%"
                }
            }
        },
        "btnCancel": {
            "__events__": {},
            "__info__": {
                "kuid": "f738abe6e1ee49b793c8e1185692cb54",
                "srcKUID": "e47a358a81aa4a0da07a4a7c8e127177",
                "wType": "Button"
            },
            "centerX": {},
            "centerY": {},
            "height": {
                "Default": {
                    "type": "string",
                    "value": "40dp"
                }
            },
            "i18n_text": "i18n.konybb.common.cancel",
            "isVisible": true,
            "left": {},
            "responsiveData": {
                "b1": {
                    "centerX": {
                        "type": "string",
                        "value": ""
                    },
                    "centerY": {
                        "type": "string",
                        "value": "50%"
                    },
                    "left": {
                        "type": "string",
                        "value": ""
                    },
                    "right": {
                        "type": "string",
                        "value": "17.25%"
                    },
                    "width": {
                        "type": "string",
                        "value": "12.25%"
                    }
                },
                "b2": {
                    "centerX": {
                        "type": "string",
                        "value": ""
                    },
                    "centerY": {
                        "type": "string",
                        "value": "50%"
                    },
                    "left": {
                        "type": "string",
                        "value": ""
                    },
                    "right": {
                        "type": "string",
                        "value": "17.25%"
                    },
                    "width": {
                        "type": "string",
                        "value": "12.25%"
                    }
                },
                "b3": {
                    "centerX": {
                        "type": "string",
                        "value": ""
                    },
                    "centerY": {
                        "type": "string",
                        "value": "50%"
                    },
                    "desktopweb": {
                        "centerY": {
                            "type": "string",
                            "value": "50.00%"
                        }
                    },
                    "height": null,
                    "left": {
                        "type": "string",
                        "value": ""
                    },
                    "right": null,
                    "width": null
                },
                "b4": {
                    "centerY": {
                        "type": "string",
                        "value": ""
                    },
                    "desktopweb": {},
                    "left": {
                        "type": "string",
                        "value": "2.50%"
                    },
                    "top": {
                        "type": "number",
                        "value": "70"
                    },
                    "width": null
                }
            },
            "right": {
                "Default": {
                    "type": "string",
                    "value": "20%"
                }
            },
            "text": "",
            "top": {},
            "width": {
                "Default": {
                    "type": "string",
                    "value": "15%"
                }
            }
        },
        "btnNext": {
            "__events__": {},
            "__info__": {
                "kuid": "c697795b35d04a1289dd8e2bedc7cee2",
                "srcKUID": "b82d156418d9458d809e69dc41992a16",
                "wType": "Button"
            },
            "centerX": {},
            "centerY": {},
            "i18n_text": "i18n.wireTemplate.selectFile",
            "left": {
                "Default": {
                    "type": "string",
                    "value": "79.83%"
                }
            },
            "responsiveData": {
                "b1": {
                    "left": {
                        "type": "string",
                        "value": ""
                    },
                    "right": null,
                    "text": null,
                    "width": {
                        "type": "string",
                        "value": "12.25%"
                    }
                },
                "b2": {
                    "left": {
                        "type": "string",
                        "value": ""
                    },
                    "width": {
                        "type": "string",
                        "value": "12.25%"
                    }
                },
                "b3": {
                    "centerX": {
                        "type": "string",
                        "value": ""
                    },
                    "centerY": {
                        "type": "string",
                        "value": "50%"
                    },
                    "left": {
                        "type": "string",
                        "value": ""
                    },
                    "right": {
                        "type": "string",
                        "value": "2.50%"
                    },
                    "text": null,
                    "width": null
                },
                "b4": {
                    "centerY": {
                        "type": "string",
                        "value": ""
                    },
                    "left": {
                        "type": "string",
                        "value": "2.50%"
                    },
                    "top": {
                        "type": "string",
                        "value": "20dp"
                    },
                    "width": null
                }
            },
            "right": {
                "Default": {
                    "type": "string",
                    "value": "2.50%"
                }
            },
            "text": "",
            "top": {},
            "width": {
                "Default": {
                    "type": "string",
                    "value": "15%"
                }
            }
        },
        "btnOption": {
            "__events__": {},
            "__info__": {
                "kuid": "bc309ff0195c4217ae26a1c4b1416c72",
                "srcKUID": "ebf49918aa7a419fb39b29e23b734b42",
                "wType": "Button"
            },
            "centerX": {},
            "centerY": {
                "Default": {
                    "type": "string",
                    "value": "50%"
                }
            },
            "height": {
                "Default": {
                    "type": "string",
                    "value": "40dp"
                }
            },
            "isVisible": false,
            "left": {},
            "responsiveData": {
                "b1": {
                    "isVisible": false,
                    "left": {
                        "type": "string",
                        "value": ""
                    },
                    "right": {
                        "type": "string",
                        "value": "32%"
                    },
                    "width": {
                        "type": "string",
                        "value": "12.25%"
                    }
                },
                "b2": {
                    "centerY": {
                        "type": "string",
                        "value": "50.00%"
                    },
                    "isVisible": false,
                    "left": {
                        "type": "string",
                        "value": ""
                    },
                    "right": {
                        "type": "string",
                        "value": "32%"
                    },
                    "width": {
                        "type": "string",
                        "value": "12.25%"
                    }
                },
                "b3": {
                    "centerX": {
                        "type": "string",
                        "value": ""
                    },
                    "centerY": {
                        "type": "string",
                        "value": "50.00%"
                    },
                    "height": null,
                    "isVisible": null,
                    "left": {
                        "type": "string",
                        "value": ""
                    },
                    "right": null,
                    "width": null
                }
            },
            "right": {
                "Default": {
                    "type": "string",
                    "value": "37.50%"
                }
            },
            "width": {
                "Default": {
                    "type": "string",
                    "value": "15%"
                }
            }
        },
        "flxMain": {
            "__events__": {},
            "__info__": {
                "kuid": "f0028f084d994476b21694707ef7f04a",
                "srcKUID": "d54f919210284a3a8ba217e23f749884",
                "wType": "FlexContainer"
            },
            "centerY": {
                "Default": {
                    "type": "number",
                    "value": ""
                }
            },
            "responsiveData": {
                "b2": {},
                "b3": {
                    "left": {
                        "type": "string",
                        "value": "0dp"
                    },
                    "top": {
                        "type": "string",
                        "value": "0dp"
                    }
                }
            }
        },
        "formActionsNew": {
            "__events__": {},
            "__info__": {
                "isRoot": true,
                "kuid": "b63ff48ce3e44d3d80a4b4a3951535b8",
                "srcKUID": "a571c5a347394d3fb1e9debcf70da170",
                "wType": "FlexContainer"
            },
            "autogrowMode": {
                "Default": 0
            },
            "height": {},
            "isVisible": true,
            "responsiveData": {
                "b4": {
                    "height": {
                        "type": "string",
                        "value": "140dp"
                    }
                }
            }
        }
    },
    "desktopweb": {},
    "enablescrolling": true,
    "id": "filesFormActionsNew",
    "info": null,
    "ipad": {},
    "iphone": {},
    "iscustomlayout": false,
    "isdatareferenced": false,
    "isvisible": true,
    "kiosk": {},
    "kuid": "b63ff48ce3e44d3d80a4b4a3951535b8",
    "layouttype": 2,
    "masterType": 0,
    "name": "kony.ui.UserWidgetInstance",
    "parent": "flxBPUploadFormActions",
    "pf": "frmBulkPaymentsUploadFile",
    "responsiveData": {
        "b4": {
            "height": {
                "type": "string",
                "value": "140dp"
            }
        }
    },
    "retaincontentalignment": false,
    "retainflexpositionproperties": false,
    "snapgridsize": 10,
    "snaptogrid": true,
    "sourceUserWidget": "a571c5a347394d3fb1e9debcf70da170",
    "spa": {},
    "spaan": {},
    "spaandroidtablet": {},
    "spabb": {},
    "spaip": {},
    "spaipad": {},
    "spamobile": {},
    "spatablet": {},
    "spawindowstablet": {},
    "spawinphone8": {},
    "tabrcandroid": {},
    "vizProps": {
        "hidewidgethierarchy": false
    },
    "wType": "UserWidgetInstance",
    "windows10": {},
    "windows8": {},
    "winphone10": {},
    "winphone8": {},
    "zindex": 1
}