{
    "DNDConfig": null,
    "__parentReadjusting__": false,
    "_height_": {
        "type": "string",
        "value": "220dp"
    },
    "_left_": {
        "type": "string",
        "value": "0"
    },
    "_margin_": [
        0,
        0,
        0,
        0
    ],
    "_orientation_": 6,
    "_padding_": [
        0,
        0,
        0,
        0
    ],
    "_percent_": true,
    "_skin_": "s24c92fc23b14f5484b693ee9b8a9b35",
    "_top_": {
        "type": "string",
        "value": "0"
    },
    "_width_": {
        "type": "string",
        "value": "100%"
    },
    "allboxes": [],
    "canUpdateUI": true,
    "children": [
        "imgXLSType",
        "imgCSVType"
    ],
    "clipbounds": true,
    "containerweight": 100,
    "enablescrolling": true,
    "id": "flxImgFileType",
    "info": null,
    "iscustomlayout": false,
    "isvisible": true,
    "kuid": "dce62578714e4dd3bfc66865d3f5329f",
    "layouttype": 2,
    "name": "kony.ui.FlexContainer",
    "parent": "flxFileNameVerify",
    "pf": "frmBulkPaymentsUploadFile",
    "responsiveData": {
        "b1": {
            "height": {
                "type": "string",
                "value": "18dp"
            },
            "left": {
                "type": "string",
                "value": "24.50%"
            },
            "width": {
                "type": "string",
                "value": "16dp"
            }
        },
        "b2": {
            "height": {
                "type": "string",
                "value": "18dp"
            },
            "left": {
                "type": "string",
                "value": "270dp"
            },
            "width": {
                "type": "string",
                "value": "16dp"
            }
        },
        "b3": {
            "height": {
                "type": "string",
                "value": "18dp"
            },
            "isVisible": true,
            "left": {
                "type": "string",
                "value": "30%"
            },
            "top": {
                "type": "string",
                "value": "0dp"
            },
            "width": {
                "type": "string",
                "value": "16dp"
            }
        }
    },
    "retaincontentalignment": false,
    "retainflexpositionproperties": false,
    "retainflowhorizontalalignment": false,
    "snapgridsize": 10,
    "snaptogrid": true,
    "wType": "FlexContainer",
    "widgetalignment": 1
}