{
    "DNDConfig": null,
    "__parentReadjusting__": false,
    "_height_": {
        "type": "string",
        "value": "50dp"
    },
    "_left_": {
        "type": "string",
        "value": "2.52%"
    },
    "_margin_": [
        0,
        0,
        0,
        0
    ],
    "_orientation_": 6,
    "_padding_": [
        0,
        0,
        0,
        0
    ],
    "_percent_": true,
    "_skin_": "s2f1930e68bc4b258cfe821e7f0122cd",
    "_top_": {
        "type": "string",
        "value": "0dp"
    },
    "_width_": {
        "type": "string",
        "value": "513dp"
    },
    "allboxes": [],
    "autogrowmode": 0,
    "canUpdateUI": true,
    "centerx": {
        "type": "string",
        "value": "50%"
    },
    "centery": {
        "type": "string",
        "value": "50dp"
    },
    "children": [
        "flxFileTypeImage",
        "lblFIleName",
        "btnOpenFile"
    ],
    "clipbounds": true,
    "containerweight": 100,
    "enablescrolling": true,
    "focusskin": "s3308b031b8e4da8a5965b769840b865",
    "id": "flxUploadedFile",
    "info": null,
    "isvisible": true,
    "kuid": "ee6ca10fda054e3aa1c28811f6f633b9",
    "layouttype": 3,
    "maxwidth": {
        "type": "string",
        "value": "40%"
    },
    "name": "kony.ui.FlexContainer",
    "parent": "flxUploadedFileDetails",
    "pf": "frmBulkPaymentsUploadFile",
    "responsiveData": {
        "b3": {}
    },
    "snapgridsize": 10,
    "snaptogrid": true,
    "wType": "FlexContainer",
    "widgetalignment": 1,
    "zindex": 1
}