{
    "@class": "com.kony.gen.viz.model.component.KVizLabel",
    "DNDConfig": null,
    "__parentReadjusting__": false,
    "_height_": {
        "type": "ref",
        "value": "preferred"
    },
    "_left_": {
        "type": "string",
        "value": "0dp"
    },
    "_margin_": [
        1,
        1,
        1,
        1
    ],
    "_padding_": [
        0,
        0,
        0,
        0
    ],
    "_right_": {
        "type": "string",
        "value": ""
    },
    "_skin_": "sf5961c097964b808d8053c8072c2574",
    "_text_": "",
    "_width_": {
        "type": "ref",
        "value": "preferred"
    },
    "_wrapping_": 2,
    "android": {
        "textStyle": {
            "letterSpacing": 0,
            "strikeThrough": false
        }
    },
    "canUpdateUI": true,
    "centery": {
        "type": "string",
        "value": "50%"
    },
    "containerweight": 100,
    "contentalignment": 4,
    "desktopweb": {
        "right": {
            "type": "string",
            "value": ""
        }
    },
    "id": "lblContentHeader",
    "info": null,
    "ipad": {
        "psp": {
            "wrapping": 2
        }
    },
    "iphone": {
        "psp": {
            "wrapping": 2
        }
    },
    "iscustomlayout": false,
    "isvisible": true,
    "kuid": "c75e3778ce154612bacc2f27e70f0b13",
    "name": "kony.ui.Label",
    "parent": "flxContentHeader",
    "pf": "frmBulkPaymentsUploadFile",
    "responsiveData": {
        "b1": {
            "text": "Bulk Payment - Upload File"
        },
        "b2": {
            "text": "Bulk Payment - Upload File"
        },
        "b3": {
            "left": {
                "type": "string",
                "value": "0dp"
            },
            "text": "Bulk Payment - Upload File"
        },
        "b4": {}
    },
    "retaincontentalignment": false,
    "retainflexpositionproperties": false,
    "texti18n": "konybb.i18n.BulkPayemntUploadFile",
    "tooltip": "",
    "wType": "Label",
    "zindex": 1
}