{
    "@class": "com.kony.gen.viz.model.component.KVizListBox",
    "DNDConfig": null,
    "_blur_": {
        "enabled": false,
        "value": 0
    },
    "_height_": {
        "type": "string",
        "value": "40px"
    },
    "_left_": {
        "type": "number",
        "value": "0"
    },
    "_margin_": [
        0,
        0,
        0,
        0
    ],
    "_padding_": [
        3,
        0,
        0,
        0
    ],
    "_placeholder_": "Please Select",
    "_skin_": "scd52a852bc54402a64a243d55f79661",
    "_top_": {
        "type": "string",
        "value": "10px"
    },
    "_width_": {
        "type": "string",
        "value": "30%"
    },
    "canUpdateUI": true,
    "centerx": {
        "type": "string",
        "value": ""
    },
    "containerweight": 100,
    "contentalignment": 4,
    "disabledSkins": {},
    "dropdownimage": "listboxarw.png",
    "focusskin": "s347ac8f0c3549608f5d05527258678f",
    "groupcells": false,
    "id": "lbxBatchMode",
    "ide_onSelection": "AS_ListBox_a6cdd796abe94d0a85cce0b054f7cb8c",
    "info": null,
    "iscustomlayout": false,
    "isvisible": true,
    "kuid": "de769933a88e4044883964168d7619a4",
    "masterdata": [
        [
            "SINGLE",
            "Single",
            "i18n.kony.BulkPayments.batchModeSingle"
        ],
        [
            "MULTI",
            "Multiple",
            "i18n.kony.BulkPayments.batchModeMulti"
        ]
    ],
    "name": "kony.ui.ListBox",
    "parent": "flxBPUpload",
    "pf": "frmBulkPaymentsUploadFile",
    "responsiveData": {
        "b1": {
            "disabledSkins": {
                "focusSkin": "s347ac8f0c3549608f5d05527258678f"
            },
            "skin": "scd52a852bc54402a64a243d55f79661"
        },
        "b2": {
            "disabledSkins": {
                "focusSkin": "s347ac8f0c3549608f5d05527258678f"
            }
        },
        "b3": {
            "height": {
                "type": "string",
                "value": "40px"
            }
        }
    },
    "retaincontentalignment": false,
    "retainflexpositionproperties": false,
    "selectedkey": "SINGLE",
    "selectedkeys": null,
    "selectedkeyvalue": [
        "SINGLE",
        "Single"
    ],
    "selectedkeyvalues": null,
    "size": 18,
    "viewconfig": {
        "toggleViewConfig": {
            "viewStyle": 0
        }
    },
    "viewtype": 0,
    "wType": "ListBox",
    "zindex": 1
}