{
    "@class": "com.kony.gen.viz.model.component.KVizButton",
    "DNDConfig": null,
    "_bottom_": {
        "type": "number",
        "value": ""
    },
    "_height_": {
        "type": "string",
        "value": "40dp"
    },
    "_left_": {
        "type": "number",
        "value": ""
    },
    "_margin_": [
        6,
        6,
        6,
        6
    ],
    "_padding_": [
        0,
        0,
        0,
        0
    ],
    "_right_": {
        "type": "string",
        "value": "42.20%"
    },
    "_skin_": "se0f05d8d6124e549135dce05daff066",
    "_text_": "Cancel",
    "_top_": {
        "type": "number",
        "value": ""
    },
    "_width_": {
        "type": "string",
        "value": "18%"
    },
    "accessibilityconfig": {
        "a11yLabel": "Cancel"
    },
    "canUpdateUI": true,
    "centery": {
        "type": "string",
        "value": "50%"
    },
    "containerweight": 100,
    "contentalignment": 5,
    "desktopweb": {
        "psp": {
            "hoverSkin": "sc940dc3c9884b1bb2701c6c8b342ba0"
        }
    },
    "disabledSkins": {},
    "displaytext": true,
    "focusskin": "s2c03c82b6a246a589f2adda2c613645",
    "id": "btnAction1",
    "info": null,
    "isvisible": true,
    "kuid": "c5aeef8b44f6469db4a2bebbe6bc5be1",
    "name": "kony.ui.Button",
    "parent": "flxConfirmButtons",
    "pf": "userwidgetmodel",
    "responsiveData": {
        "b1": {
            "left": {
                "type": "string",
                "value": ""
            },
            "right": {
                "type": "string",
                "value": "20dp"
            },
            "text": "Cancel",
            "width": {
                "type": "string",
                "value": "145dp"
            }
        },
        "b2": {
            "right": {
                "type": "string",
                "value": "2.20%"
            },
            "text": "Cancel",
            "width": {
                "type": "string",
                "value": "145dp"
            }
        },
        "b3": {
            "bottom": {
                "type": "string",
                "value": "20dp"
            },
            "centerY": {
                "type": "string",
                "value": ""
            },
            "left": {
                "type": "string",
                "value": "2%"
            },
            "right": {
                "type": "string",
                "value": "2%"
            },
            "text": "Cancel",
            "top": {
                "type": "string",
                "value": "120dp"
            },
            "width": {
                "type": "string",
                "value": "96%"
            }
        },
        "b4": {
            "right": {
                "type": "string",
                "value": "30dp"
            },
            "width": {
                "type": "string",
                "value": "145dp"
            }
        }
    },
    "textcommonbreakpoint": "CANCEL",
    "texti18n": "i18n.transfers.Cancel",
    "tooltip": "Cancel",
    "wType": "Button",
    "zindex": 1
}