{
    "@class": "com.kony.gen.viz.model.component.KVizButton",
    "DNDConfig": null,
    "_height_": {
        "type": "string",
        "value": "40dp"
    },
    "_left_": {
        "type": "number",
        "value": ""
    },
    "_margin_": [
        6,
        6,
        6,
        6
    ],
    "_padding_": [
        0,
        0,
        0,
        0
    ],
    "_right_": {
        "type": "string",
        "value": "2.20%"
    },
    "_skin_": "s91c17290564439088be08930a2127db",
    "_text_": "Continue",
    "_top_": {
        "type": "number",
        "value": ""
    },
    "_width_": {
        "type": "string",
        "value": "18%"
    },
    "accessibilityconfig": {
        "a11yLabel": "Add Account"
    },
    "canUpdateUI": true,
    "centery": {
        "type": "string",
        "value": "50%"
    },
    "containerweight": 100,
    "contentalignment": 5,
    "desktopweb": {
        "psp": {
            "hoverSkin": "sf0ea5f9d63d442697ed01f54e548b97"
        }
    },
    "disabledSkins": {},
    "displaytext": true,
    "focusskin": "s89dc94c783c4db7bddd6b793c26cf78",
    "id": "btnAction3",
    "info": null,
    "isvisible": true,
    "kiosk": {},
    "kuid": "ff8f40c77d6e4c06b1ed965685a8c64d",
    "name": "kony.ui.Button",
    "parent": "flxConfirmButtons",
    "pf": "userwidgetmodel",
    "responsiveData": {
        "b1": {
            "left": {
                "type": "string",
                "value": ""
            },
            "right": {
                "type": "string",
                "value": "30dp"
            },
            "width": {
                "type": "string",
                "value": "145dp"
            }
        },
        "b2": {
            "text": "Confirm",
            "width": {
                "type": "string",
                "value": "145dp"
            }
        },
        "b3": {
            "centerY": {
                "type": "string",
                "value": ""
            },
            "left": {
                "type": "string",
                "value": "2%"
            },
            "right": {
                "type": "string",
                "value": "2%"
            },
            "top": {
                "type": "string",
                "value": "0dp"
            },
            "width": {
                "type": "string",
                "value": "96%"
            }
        },
        "b4": {
            "right": {
                "type": "string",
                "value": "30dp"
            },
            "width": {
                "type": "string",
                "value": "145dp"
            }
        }
    },
    "texti18n": "i18n.FastTransfers.AddAccount",
    "tooltip": "Confirm",
    "wType": "Button",
    "zindex": 1
}