{
    "DNDConfig": null,
    "_height_": {
        "type": "string",
        "value": "25dp"
    },
    "_margin_": [
        0,
        0,
        0,
        0
    ],
    "_orientation_": 6,
    "_padding_": [
        0,
        0,
        0,
        0
    ],
    "_percent_": true,
    "_right_": {
        "type": "string",
        "value": "20dp"
    },
    "_skin_": "s24c92fc23b14f5484b693ee9b8a9b35",
    "_top_": {
        "type": "string",
        "value": "20dp"
    },
    "_width_": {
        "type": "string",
        "value": "25dp"
    },
    "allboxes": [],
    "canUpdateUI": true,
    "children": [
        "imgClose"
    ],
    "clipbounds": true,
    "containerweight": 100,
    "enablescrolling": true,
    "id": "flxClose",
    "info": null,
    "iscustomlayout": false,
    "isvisible": true,
    "kuid": "dd27af220ce542f1b26bc3fd175065e0",
    "layouttype": 2,
    "name": "kony.ui.FlexContainer",
    "parent": "flxClosePopup",
    "pf": "userwidgetmodel",
    "responsiveData": {
        "b1": {
            "height": {
                "type": "string",
                "value": "30dp"
            },
            "right": {
                "type": "string",
                "value": "20dp"
            },
            "top": {
                "type": "string",
                "value": "12dp"
            },
            "width": {
                "type": "string",
                "value": "30dp"
            }
        },
        "b2": {
            "height": {
                "type": "string",
                "value": "30dp"
            },
            "right": {
                "type": "string",
                "value": "20dp"
            },
            "top": {
                "type": "string",
                "value": "12dp"
            },
            "width": {
                "type": "string",
                "value": "30dp"
            }
        },
        "b3": {
            "height": {
                "type": "string",
                "value": "30dp"
            },
            "right": {
                "type": "string",
                "value": "5%"
            },
            "width": {
                "type": "string",
                "value": "30dp"
            }
        },
        "b4": {
            "height": {
                "type": "string",
                "value": "30dp"
            },
            "right": {
                "type": "string",
                "value": "20dp"
            },
            "top": {
                "type": "string",
                "value": "12dp"
            },
            "width": {
                "type": "string",
                "value": "30dp"
            }
        }
    },
    "retaincontentalignment": false,
    "retainflexpositionproperties": false,
    "retainflowhorizontalalignment": false,
    "snapgridsize": 10,
    "snaptogrid": true,
    "wType": "FlexContainer",
    "widgetalignment": 1,
    "zindex": 1
}