{
    "DNDConfig": null,
    "_height_": {
        "type": "string",
        "value": "220dp"
    },
    "_left_": {
        "type": "number",
        "value": ""
    },
    "_margin_": [
        0,
        0,
        0,
        0
    ],
    "_orientation_": 6,
    "_padding_": [
        0,
        0,
        0,
        0
    ],
    "_percent_": true,
    "_right_": {
        "type": "number",
        "value": ""
    },
    "_skin_": "s28ec9b3a17241b4ab28b6285726037e",
    "_top_": {
        "type": "number",
        "value": ""
    },
    "_width_": {
        "type": "ref",
        "value": "preferred"
    },
    "allboxes": [],
    "canUpdateUI": true,
    "centerx": {
        "type": "string",
        "value": "50%"
    },
    "centery": {
        "type": "string",
        "value": "50%"
    },
    "children": [
        "lblClose",
        "flxClose",
        "lblSeperator",
        "lblCancel",
        "btnNo",
        "btnYes"
    ],
    "clipbounds": true,
    "containerweight": 100,
    "enablescrolling": true,
    "id": "flxClosePopup",
    "info": null,
    "iscustomlayout": false,
    "isvisible": true,
    "kuid": "i731435712e64e5584e26bbc6ca894fc",
    "layouttype": 2,
    "name": "kony.ui.FlexContainer",
    "parent": "flxPopup",
    "pf": "userwidgetmodel",
    "responsiveData": {
        "b1": {
            "centerX": {
                "type": "string",
                "value": "50%"
            },
            "centerY": {
                "type": "string",
                "value": "215dp"
            },
            "height": {
                "type": "string",
                "value": "258dp"
            },
            "skin": "s41042f9f9cf4463ae6fd29709143563",
            "width": {
                "type": "string",
                "value": "500dp"
            }
        },
        "b2": {
            "centerY": {
                "type": "string",
                "value": "215dp"
            },
            "height": {
                "type": "string",
                "value": "258dp"
            },
            "left": {
                "type": "string",
                "value": "10dp"
            },
            "right": {
                "type": "string",
                "value": "10dp"
            },
            "skin": "s41042f9f9cf4463ae6fd29709143563",
            "width": {
                "type": "string",
                "value": "500dp"
            }
        },
        "b3": {
            "centerY": {
                "type": "string",
                "value": "215dp"
            },
            "height": {
                "type": "string",
                "value": "258dp"
            },
            "left": {
                "type": "string",
                "value": "10dp"
            },
            "right": {
                "type": "string",
                "value": "10dp"
            },
            "skin": "s41042f9f9cf4463ae6fd29709143563",
            "width": {
                "type": "string",
                "value": "98%"
            }
        },
        "b4": {
            "centerX": {
                "type": "string",
                "value": "50.00%"
            },
            "centerY": {
                "type": "string",
                "value": "215dp"
            },
            "height": {
                "type": "string",
                "value": "258dp"
            },
            "skin": "s41042f9f9cf4463ae6fd29709143563",
            "top": {
                "type": "string",
                "value": ""
            },
            "width": {
                "type": "string",
                "value": "500dp"
            }
        }
    },
    "retaincontentalignment": false,
    "retainflexpositionproperties": false,
    "retainflowhorizontalalignment": false,
    "snapgridsize": 10,
    "snaptogrid": true,
    "wType": "FlexContainer",
    "widgetalignment": 1,
    "zindex": 1
}