{
    "DNDConfig": null,
    "_height_": {
        "type": "ref",
        "value": "preferred"
    },
    "_left_": {
        "type": "string",
        "value": "2.20%"
    },
    "_margin_": [
        0,
        0,
        0,
        0
    ],
    "_orientation_": 6,
    "_padding_": [
        0,
        0,
        0,
        0
    ],
    "_percent_": true,
    "_skin_": "s24c92fc23b14f5484b693ee9b8a9b35",
    "_top_": {
        "type": "string",
        "value": "0dp"
    },
    "_width_": {
        "type": "string",
        "value": "18.50%"
    },
    "allboxes": [],
    "autogrowmode": 1,
    "canUpdateUI": true,
    "children": [
        "lblKey3"
    ],
    "clipbounds": true,
    "containerweight": 100,
    "enablescrolling": true,
    "id": "flxKey3",
    "info": null,
    "isvisible": true,
    "kuid": "e4fe2827ecbe4a8a9f2d27b7d0b8a754",
    "layouttype": 2,
    "name": "kony.ui.FlexContainer",
    "parent": "flxConfirmDetail3",
    "pf": "userwidgetmodel",
    "responsiveData": {
        "b1": {
            "width": {
                "type": "string",
                "value": "44%"
            }
        },
        "b2": {
            "width": {
                "type": "string",
                "value": "25.50%"
            }
        },
        "b3": {
            "left": {
                "type": "string",
                "value": "2%"
            },
            "width": {
                "type": "string",
                "value": "96%"
            }
        },
        "b4": {
            "width": {
                "type": "string",
                "value": "44%"
            }
        }
    },
    "snapgridsize": 10,
    "snaptogrid": true,
    "wType": "FlexContainer",
    "widgetalignment": 1,
    "zindex": 1
}