{
    "DNDConfig": null,
    "_height_": {
        "type": "string",
        "value": "2px"
    },
    "_left_": {
        "type": "string",
        "value": "0px"
    },
    "_margin_": [
        0,
        0,
        0,
        0
    ],
    "_orientation_": 6,
    "_padding_": [
        0,
        0,
        0,
        0
    ],
    "_percent_": true,
    "_skin_": "s11e03f664a44586818ff6bd61c33ff0",
    "_top_": {
        "type": "string",
        "value": "48px"
    },
    "_width_": {
        "type": "string",
        "value": "100%"
    },
    "allboxes": [],
    "canUpdateUI": true,
    "centerx": {
        "type": "number",
        "value": ""
    },
    "children": [],
    "clipbounds": true,
    "containerweight": 100,
    "enablescrolling": true,
    "id": "flxSeparator2",
    "info": null,
    "isvisible": true,
    "kuid": "e4a6dff051f9415bb3c41ff48c32756f",
    "layouttype": 2,
    "name": "kony.ui.FlexContainer",
    "parent": "flxSections",
    "pf": "userwidgetmodel",
    "responsiveData": {
        "b1": {
            "left": {
                "type": "string",
                "value": "7.48%"
            },
            "top": {
                "type": "string",
                "value": "27dp"
            },
            "width": {
                "type": "string",
                "value": "1dp"
            }
        },
        "b2": {
            "centerX": {
                "type": "string",
                "value": "50%"
            },
            "isVisible": true,
            "left": {
                "type": "string",
                "value": ""
            },
            "top": {
                "type": "string",
                "value": "20dp"
            },
            "width": {
                "type": "string",
                "value": "96%"
            },
            "zIndex": 5
        },
        "b3": {
            "isVisible": true,
            "top": {
                "type": "string",
                "value": "20px"
            }
        },
        "b4": {
            "left": {
                "type": "string",
                "value": "7.48%"
            },
            "top": {
                "type": "string",
                "value": "27dp"
            },
            "width": {
                "type": "string",
                "value": "1dp"
            }
        }
    },
    "snapgridsize": 10,
    "snaptogrid": true,
    "wType": "FlexContainer",
    "widgetalignment": 1,
    "zindex": 1
}