{
    "DNDConfig": null,
    "_height_": {
        "type": "ref",
        "value": "preferred"
    },
    "_left_": {
        "type": "string",
        "value": "0"
    },
    "_margin_": [
        0,
        0,
        0,
        0
    ],
    "_orientation_": 6,
    "_padding_": [
        0,
        0,
        0,
        0
    ],
    "_percent_": true,
    "_skin_": "s24c92fc23b14f5484b693ee9b8a9b35",
    "_top_": {
        "type": "string",
        "value": "0"
    },
    "_width_": {
        "type": "string",
        "value": "100%"
    },
    "allboxes": [],
    "autogrowmode": 1,
    "canUpdateUI": true,
    "children": [
        "flxConfirmDetail1",
        "flxConfirmDetail2",
        "flxConfirmDetail3",
        "flxConfirmDetail4",
        "flxConfirmDetail5",
        "flxConfirmDetail6",
        "flxConfirmDetail7",
        "flxConfirmDetail8",
        "flxConfirmDetail9",
        "flxConfirmDetail10",
        "flxConfirmDetail11",
        "flxConfirmDetail12",
        "flxConfirmDetail13",
        "flxConfirmDetail14",
        "flxConfirmChargesBreakdown",
        "flxConfirmDetail15",
        "flxConfirmDetail16",
        "flxConfirmDetail17",
        "flxConfirmDetail18",
        "flxConfirmDetail19",
        "flxConfirmDetail20",
        "flxConfirmSupportingDocs"
    ],
    "clipbounds": true,
    "containerweight": 100,
    "enablescrolling": true,
    "id": "flxSection1",
    "info": null,
    "iscustomlayout": false,
    "isvisible": true,
    "kuid": "hcf643a8bf8f4525a8dd498bc9ed27e0",
    "layouttype": 2,
    "name": "kony.ui.FlexContainer",
    "parent": "flxSections",
    "pf": "userwidgetmodel",
    "responsiveData": {
        "b1": {
            "isVisible": true,
            "layoutType": 4,
            "width": {
                "type": "string",
                "value": "43.30%"
            }
        },
        "b2": {
            "layoutType": 4,
            "zIndex": 4
        },
        "b3": {
            "layoutType": 4,
            "left": {
                "type": "string",
                "value": "1%"
            },
            "top": {
                "type": "string",
                "value": "-1dp"
            },
            "width": {
                "type": "string",
                "value": "84.30%"
            }
        },
        "b4": {
            "layoutType": 4,
            "top": {
                "type": "string",
                "value": "0dp"
            },
            "width": {
                "type": "string",
                "value": "43.30%"
            }
        }
    },
    "retaincontentalignment": false,
    "retainflexpositionproperties": false,
    "retainflowhorizontalalignment": false,
    "snapgridsize": 10,
    "snaptogrid": true,
    "wType": "FlexContainer",
    "widgetalignment": 1
}