{
    "@class": "com.kony.gen.viz.model.component.KVizLabel",
    "DNDConfig": null,
    "_height_": {
        "type": "ref",
        "value": "preferred"
    },
    "_left_": {
        "type": "string",
        "value": "0dp"
    },
    "_margin_": [
        1,
        1,
        1,
        1
    ],
    "_padding_": [
        0,
        0,
        2,
        0
    ],
    "_skin_": "s79d68f935494ed4ab25dedaec0313b4",
    "_text_": "Label",
    "_top_": {
        "type": "string",
        "value": "0dp"
    },
    "_width_": {
        "type": "ref",
        "value": "preferred"
    },
    "_wrapping_": 2,
    "accessibilityconfig": {
        "a11yLabel": "Bank Name"
    },
    "android": {
        "textStyle": {
            "letterSpacing": 0,
            "strikeThrough": false
        }
    },
    "canUpdateUI": true,
    "containerweight": 100,
    "contentalignment": 4,
    "id": "lblKey19",
    "info": null,
    "ipad": {
        "psp": {
            "wrapping": 2
        }
    },
    "iphone": {
        "psp": {
            "wrapping": 2
        }
    },
    "isvisible": true,
    "kuid": "bbecc07beefc436a99f2b23c6b378ebf",
    "name": "kony.ui.Label",
    "paddinginpixel": false,
    "parent": "flxKey19",
    "pf": "userwidgetmodel",
    "responsiveData": {
        "b3": {
            "skin": "s5afe59797474b90820b64301491925b"
        }
    },
    "texti18n": "i18n.transfers.bankName",
    "tooltip": "",
    "wType": "Label",
    "zindex": 1
}