{
    "@class": "com.kony.gen.viz.model.component.KVizUserWidget",
    "DNDConfig": null,
    "_children_": [],
    "_height_": {
        "type": "ref",
        "value": "preferred"
    },
    "_left_": {
        "type": "string",
        "value": "0dp"
    },
    "_margin_": [
        0,
        0,
        0,
        0
    ],
    "_orientation_": 1,
    "_padding_": [
        0,
        0,
        0,
        0
    ],
    "_percent_": true,
    "_skin_": "s24c92fc23b14f5484b693ee9b8a9b35",
    "_top_": {
        "type": "string",
        "value": "0dp"
    },
    "_width_": {
        "type": "string",
        "value": "100%"
    },
    "canUpdateUI": true,
    "containerweight": 0,
    "data": {
        "blockTitle1": "Receipient Linked With",
        "sknBlockTitle1": "ICSknLblSSP42424215px"
    },
    "id": "screenConfirm",
    "info": null,
    "iscustomlayout": false,
    "isvisible": true,
    "kuid": "c3e1b066b5c54fe2b338700a0f3b6556",
    "masterType": 1,
    "name": "kony.ui.UserWidgetInstance",
    "parent": "flxConfirmation",
    "pf": "userwidgetmodel",
    "retaincontentalignment": false,
    "retainflexpositionproperties": false,
    "retainflowhorizontalalignment": false,
    "sourceUserWidget": "j68bfddd366c487dad6f7190691958ab",
    "wType": "UserWidgetInstance"
}