{
    "DNDConfig": null,
    "_height_": {
        "type": "string",
        "value": "85px"
    },
    "_left_": {
        "type": "string",
        "value": "0dp"
    },
    "_margin_": [
        0,
        0,
        0,
        0
    ],
    "_orientation_": 6,
    "_padding_": [
        0,
        0,
        0,
        0
    ],
    "_percent_": true,
    "_skin_": "s4c797f7dfc54ed19ee474f557a48017",
    "_top_": {
        "type": "string",
        "value": "0dp"
    },
    "_width_": {
        "type": "string",
        "value": "100%"
    },
    "allboxes": [],
    "canUpdateUI": true,
    "children": [
        "lblBillerNameKey",
        "lblBillerNameValue",
        "lblAccountNumberKey",
        "lblAccountNumberValue"
    ],
    "clipbounds": true,
    "containerweight": 100,
    "enablescrolling": true,
    "id": "flxMiddle",
    "info": null,
    "isvisible": true,
    "kuid": "e20110b9e00a4419b733df8c7127e73b",
    "layouttype": 2,
    "name": "kony.ui.FlexContainer",
    "parent": "flxActivate",
    "pf": "frmBillPaymentDue",
    "responsiveData": {
        "b3": {
            "height": {
                "type": "string",
                "value": "120px"
            },
            "layoutType": 4
        }
    },
    "snapgridsize": 10,
    "snaptogrid": true,
    "wType": "FlexContainer",
    "widgetalignment": 1,
    "zindex": 1
}