{
    "@class": "com.kony.gen.viz.model.component.KVizLabel",
    "DNDConfig": null,
    "_height_": {
        "type": "string",
        "value": "30px"
    },
    "_left_": {
        "type": "string",
        "value": "21%"
    },
    "_margin_": [
        1,
        1,
        1,
        1
    ],
    "_padding_": [
        0,
        0,
        0,
        0
    ],
    "_skin_": "se56454286124fef97a46e7249497088",
    "_text_": "AC23658900200",
    "_top_": {
        "type": "string",
        "value": "45px"
    },
    "_width_": {
        "type": "string",
        "value": "20.90%"
    },
    "_wrapping_": 2,
    "accessibilityconfig": {
        "a11yLabel": "AC23658900200"
    },
    "android": {
        "textStyle": {
            "letterSpacing": 0,
            "strikeThrough": false
        }
    },
    "canUpdateUI": true,
    "containerweight": 100,
    "contentalignment": 4,
    "id": "lblAccountNumberValue",
    "info": null,
    "ipad": {
        "psp": {
            "wrapping": 2
        }
    },
    "iphone": {
        "psp": {
            "wrapping": 2
        }
    },
    "isvisible": true,
    "kuid": "c684b6eba5ab44a8a3b9672d0b79ea85",
    "name": "kony.ui.Label",
    "parent": "flxMiddle",
    "pf": "frmBillPaymentDue",
    "responsiveData": {
        "b1": {
            "left": {
                "type": "string",
                "value": "25%"
            }
        },
        "b2": {
            "left": {
                "type": "string",
                "value": "25%"
            }
        },
        "b3": {
            "height": {
                "type": "string",
                "value": "20px"
            },
            "left": {
                "type": "string",
                "value": "3.77%"
            },
            "top": {
                "type": "string",
                "value": "5px"
            },
            "width": {
                "type": "string",
                "value": "80%"
            }
        }
    },
    "tooltip": "",
    "wType": "Label",
    "zindex": 1
}