{
    "@class": "com.kony.gen.viz.model.container.KVizSegment2",
    "DNDConfig": null,
    "__parentReadjusting__": false,
    "_data_": [],
    "_height_": {
        "type": "ref",
        "value": "preferred"
    },
    "_indicator_": "none",
    "_left_": {
        "type": "string",
        "value": "0dp"
    },
    "_margin_": [
        0,
        0,
        0,
        0
    ],
    "_orientation_": 2,
    "_padding_": [
        0,
        0,
        0,
        0
    ],
    "_top_": {
        "type": "string",
        "value": "0dp"
    },
    "_width_": {
        "type": "string",
        "value": "100%"
    },
    "autogrowmode": 1,
    "canUpdateUI": true,
    "containerweight": 100,
    "counter": "00",
    "disabledSkins": {},
    "focusedindex": null,
    "focuseditem": null,
    "groupcells": false,
    "hasSections": false,
    "id": "segmentBillpay",
    "info": null,
    "ipad": {
        "psp": {
            "indicator": "rowselect"
        }
    },
    "iphone": {
        "psp": {
            "indicator": "rowselect"
        }
    },
    "isvisible": true,
    "kuid": "e3234446319e4f3ab42ad0fd2aa161c4",
    "masterdata": {},
    "name": "kony.ui.SegmentedUI2",
    "needpageindicator": true,
    "pageoffdotimage": "pageoffdot.png",
    "pageondotimage": "pageondot.png",
    "paginationconfig": {
        "position": "bottom"
    },
    "parent": "flxSegmentContainer",
    "pf": "frmBillPaymentDue",
    "retainselection": false,
    "rowTemplateId": "j3b42045f1fa401dbfd2614d5accb518",
    "rowcounter": 0,
    "rowfocusskin": "s9f69e977910472eb44c62ae28c41fe1",
    "rowskin": "s971af14e3cc4643bed5bb37c330e87a",
    "rowtemplate": "flxBillPayAllPayees",
    "screenlevelwidget": false,
    "seccounter": 0,
    "sectionheaderskin": "sdc4ff4ed1584272be2ae69045dfb29d",
    "selectedRows": null,
    "selectedState": false,
    "selectedindex": null,
    "selectedindices": null,
    "selecteditems": null,
    "selectedsectionindex": 0,
    "selectionbehavior": "default",
    "separatorrequired": false,
    "separatorthickness": 0,
    "showscrollbars": false,
    "viewtype": "tableview",
    "vizProps": {},
    "wType": "Segment",
    "widgetalignment": 5,
    "widgetdatamap": {
        "btnActivateEbill": "btnActivateEbill",
        "btnEbill": "btnEbill",
        "btnPayBill": "btnPayBill",
        "flxAmount": "flxAmount",
        "flxAmountDollar": "flxAmountDollar",
        "flxBill": "flxBill",
        "flxBillPayAllPayees": "flxBillPayAllPayees",
        "flxBillPayAllPayeesWrapper": "flxBillPayAllPayeesWrapper",
        "flxDate": "flxDate",
        "flxDropdown": "flxDropdown",
        "flxHidden": "flxHidden",
        "flxPayee": "flxPayee",
        "flxPayeeWrapper": "flxPayeeWrapper",
        "flxWrapper": "flxWrapper",
        "imgDropdown": "imgDropdown",
        "imgError": "imgError",
        "lblBill": "lblBill",
        "lblBillId": "lblBillId",
        "lblDollar": "lblDollar",
        "lblDueDate": "lblDueDate",
        "lblPayee": "lblPayee",
        "lblPayeeDate": "lblPayeeDate",
        "lblPayeeId": "lblPayeeId",
        "lblSeparator": "lblSeparator",
        "lblfromAccountNumber": "lblfromAccountNumber",
        "txtAmount": "txtAmount"
    },
    "widgetskin": "s1db4a47735347358e42e61113c8bc58",
    "zindex": 1
}