{
    "@class": "com.kony.gen.viz.model.component.KVizUserWidget",
    "DNDConfig": null,
    "__parentReadjusting__": false,
    "_android_": {},
    "_androidwearos_": {},
    "_children_": [],
    "_desktopweb_": {},
    "_height_": {
        "type": "string",
        "value": "175dp"
    },
    "_ipad_": {},
    "_iphone_": {},
    "_kiosk_": {},
    "_left_": {
        "type": "string",
        "value": "0dp"
    },
    "_margin_": [
        0,
        0,
        0,
        0
    ],
    "_orientation_": 1,
    "_padding_": [
        0,
        0,
        0,
        0
    ],
    "_percent_": true,
    "_render_": true,
    "_responsiveData_": {
        "b1": {
            "top": {
                "type": "string",
                "value": "15dp"
            }
        },
        "b4": {
            "top": {
                "type": "string",
                "value": "15dp"
            }
        }
    },
    "_skin_": "scbd4cac3526468089bf3013adff0549",
    "_spa_": {},
    "_spaan_": {},
    "_spaandroidtablet_": {},
    "_spabb_": {},
    "_spaip_": {},
    "_spaipad_": {},
    "_spamobile_": {},
    "_spatablet_": {},
    "_spawindowstablet_": {},
    "_spawinphone8_": {},
    "_tabrcandroid_": {},
    "_top_": {
        "type": "string",
        "value": "30dp"
    },
    "_vizProps_": {
        "hidewidgethierarchy": false
    },
    "_width_": {
        "type": "string",
        "value": "100%"
    },
    "_windows10_": {},
    "_windows8_": {},
    "_winphone10_": {},
    "_winphone8_": {},
    "android": {},
    "androidwearos": {},
    "areflexpropsreferenced": false,
    "canUpdateUI": true,
    "clipbounds": false,
    "containerweight": 0,
    "dataDiffs": {
        "BannerNUO": {
            "__events__": {},
            "__info__": {
                "isRoot": true,
                "kuid": "a9a47f4e0d25439abd98889d358d92d0",
                "srcKUID": "b782e27d8289411e86273ee54ffeadb0",
                "wType": "FlexContainer"
            },
            "isVisible": false,
            "responsiveData": {},
            "top": {
                "Default": {
                    "type": "string",
                    "value": "30dp"
                }
            },
            "width": {
                "Default": {
                    "type": "string",
                    "value": "100%"
                }
            }
        },
        "btnAccountsDescriptionCancel": {
            "__events__": {},
            "__info__": {
                "kuid": "c04ae57e5d3f4b648955a1999b2ef22a",
                "srcKUID": "d611fa72861b444eb082409416d4ff96",
                "wType": "Button"
            }
        },
        "flxBannerImage": {
            "__events__": {},
            "__info__": {
                "kuid": "i66e19f0243d47ab80dfd6a7c9de4168",
                "srcKUID": "b1c87dfb1233466583d371d6a0d36d59",
                "wType": "FlexContainer"
            },
            "top": {
                "Default": {
                    "type": "string",
                    "value": "10dp"
                }
            }
        },
        "flxBannerWrapper": {
            "__events__": {},
            "__info__": {
                "kuid": "h4cc7ef6d3964f48a5fc53fda3bca5d6",
                "srcKUID": "a67ade5a02ed45cf9ee70e954b0145dd",
                "wType": "FlexContainer"
            },
            "autogrowMode": {
                "Default": 0
            },
            "height": {
                "Default": {
                    "type": "string",
                    "value": "335dp"
                }
            }
        },
        "imgBanner": {
            "__events__": {},
            "__info__": {
                "kuid": "d5da821ebec349c9acc2064781c2ff26",
                "srcKUID": "fc41b424b56d4ba48f53450e29fc4442",
                "wType": "Image"
            },
            "src": "nuo_banner_1.png",
            "top": {
                "Default": {
                    "type": "string",
                    "value": "0dp"
                }
            }
        },
        "lblChooseEligibilityCriteriaError": {
            "__events__": {},
            "__info__": {
                "kuid": "j17e47a30a754cb6813d5abe734876fc",
                "srcKUID": "be923c7f06bb468b8717b9462c6ed5b7",
                "wType": "Label"
            },
            "isVisible": false
        },
        "lblMessage2": {
            "__events__": {},
            "__info__": {
                "kuid": "d8bdca35aece49d7a3d39c3d39bf1b79",
                "srcKUID": "b70a0c03566f43fc994b4b1f667b81f0",
                "wType": "Label"
            },
            "isVisible": false
        }
    },
    "desktopweb": {},
    "id": "BannerTransfers",
    "info": null,
    "ipad": {},
    "iphone": {},
    "iscustomlayout": false,
    "isdatareferenced": false,
    "isvisible": false,
    "kiosk": {},
    "kuid": "a9a47f4e0d25439abd98889d358d92d0",
    "layouttype": 2,
    "masterType": 0,
    "name": "kony.ui.UserWidgetInstance",
    "parent": "flxRightBar",
    "pf": "frmFastManagePayee",
    "responsiveData": {},
    "retaincontentalignment": false,
    "retainflexpositionproperties": false,
    "snaptogrid": true,
    "sourceUserWidget": "b782e27d8289411e86273ee54ffeadb0",
    "spa": {},
    "spaan": {},
    "spaandroidtablet": {},
    "spabb": {},
    "spaip": {},
    "spaipad": {},
    "spamobile": {},
    "spatablet": {},
    "spawindowstablet": {},
    "spawinphone8": {},
    "tabrcandroid": {},
    "vizProps": {
        "hidewidgethierarchy": false
    },
    "vizprops": {
        "hidewidgethierarchy": false
    },
    "wType": "UserWidgetInstance",
    "windows10": {},
    "windows8": {},
    "winphone10": {},
    "winphone8": {}
}