{
    "@class": "com.kony.gen.viz.model.component.KVizButton",
    "DNDConfig": null,
    "__parentReadjusting__": false,
    "_height_": {
        "type": "string",
        "value": "100%"
    },
    "_left_": {
        "type": "string",
        "value": "20px"
    },
    "_margin_": [
        6,
        6,
        6,
        6
    ],
    "_padding_": [
        1,
        0,
        1,
        0
    ],
    "_skin_": "s5dd5bb2b8874529bd590fd8525a7fd5",
    "_text_": "Accounts",
    "_width_": {
        "type": "ref",
        "value": "preferred"
    },
    "accessibilityconfig": {
        "a11yLabel": "Accounts"
    },
    "canUpdateUI": true,
    "centery": {
        "type": "string",
        "value": "50%"
    },
    "containerweight": 100,
    "contentalignment": 5,
    "desktopweb": {
        "psp": {}
    },
    "displaytext": true,
    "id": "btnExternalAccounts",
    "info": null,
    "isvisible": true,
    "kuid": "faaf4d2eef7941f4b639efae6b8efe17",
    "name": "kony.ui.Button",
    "paddinginpixel": false,
    "parent": "flxTabsChecking",
    "pf": "frmFastManagePayee",
    "responsiveData": {
        "b3": {
            "height": {
                "type": "string",
                "value": "100%"
            },
            "left": {
                "type": "string",
                "value": "0px"
            },
            "skin": "sf7c86556e4445c9b9011084c0362ded",
            "width": {
                "type": "string",
                "value": "50%"
            }
        }
    },
    "texti18n": "i18n.topmenu.accounts",
    "tooltip": "Accounts",
    "wType": "Button",
    "zindex": 1
}