{
    "@class": "com.kony.gen.viz.model.component.KVizButton",
    "DNDConfig": null,
    "__parentReadjusting__": false,
    "_height_": {
        "type": "string",
        "value": "100%"
    },
    "_left_": {
        "type": "string",
        "value": "15dp"
    },
    "_margin_": [
        6,
        6,
        6,
        6
    ],
    "_padding_": [
        1,
        0,
        1,
        0
    ],
    "_skin_": "s7c03a67da7f437395974eb07e972971",
    "_text_": "Person-To-Person",
    "_top_": {
        "type": "string",
        "value": "0dp"
    },
    "_width_": {
        "type": "ref",
        "value": "preferred"
    },
    "accessibilityconfig": {
        "a11yLabel": "Person-To-Person"
    },
    "canUpdateUI": true,
    "centery": {
        "type": "string",
        "value": "50%"
    },
    "containerweight": 100,
    "contentalignment": 5,
    "desktopweb": {
        "psp": {}
    },
    "displaytext": true,
    "id": "btnRecipients",
    "info": null,
    "isvisible": true,
    "kuid": "g2f51951beb54b3b844c23b9f16cd8fe",
    "name": "kony.ui.Button",
    "paddinginpixel": false,
    "parent": "flxTabsChecking",
    "pf": "frmFastManagePayee",
    "responsiveData": {
        "b3": {
            "left": {
                "type": "string",
                "value": "0dp"
            },
            "width": {
                "type": "string",
                "value": "50%"
            }
        }
    },
    "texti18n": "i18n.p2p.PayAPerson",
    "tooltip": "Person-To-Person",
    "wType": "Button",
    "zindex": 1
}