{
    "DNDConfig": null,
    "__parentReadjusting__": false,
    "_height_": {
        "type": "string",
        "value": "60dp"
    },
    "_left_": {
        "type": "string",
        "value": "0dp"
    },
    "_margin_": [
        0,
        0,
        0,
        0
    ],
    "_orientation_": 6,
    "_padding_": [
        0,
        0,
        0,
        0
    ],
    "_percent_": true,
    "_skin_": "s24c92fc23b14f5484b693ee9b8a9b35",
    "_top_": {
        "type": "string",
        "value": "0dp"
    },
    "_width_": {
        "type": "string",
        "value": "100%"
    },
    "allboxes": [],
    "autogrowmode": 0,
    "canUpdateUI": true,
    "children": [
        "CopylblAddNonKonyAccount0d4384c1af53542",
        "CopyflxSeperator0e6449095b6c24c"
    ],
    "clipbounds": true,
    "containerweight": 100,
    "desktopweb": {
        "psp": {
            "hoverSkin": "s6c4cbf31f7c4fc08f7236fc38f01a0e"
        }
    },
    "enablescrolling": true,
    "id": "CopyflxAddNonKonyAccount0ecda86afab164b",
    "ide_onClick": "AS_FlexContainer_bb09c93e852c4bafaaa7207494240597",
    "info": null,
    "isvisible": false,
    "kuid": "ab0c4fa694184a5b940daacd63cb6170",
    "layouttype": 2,
    "name": "kony.ui.FlexContainer",
    "parent": "flxPayAPersonsettings",
    "pf": "frmFastManagePayee",
    "responsiveData": {
        "b1": {
            "isVisible": false
        },
        "b2": {
            "skin": "s24c92fc23b14f5484b693ee9b8a9b35"
        }
    },
    "snapgridsize": 10,
    "snaptogrid": true,
    "wType": "FlexContainer",
    "widgetalignment": 1,
    "zindex": 1
}