{
    "DNDConfig": null,
    "__parentReadjusting__": false,
    "_height_": {
        "type": "string",
        "value": "50dp"
    },
    "_left_": {
        "type": "string",
        "value": "0dp"
    },
    "_margin_": [
        0,
        0,
        0,
        0
    ],
    "_orientation_": 6,
    "_padding_": [
        0,
        0,
        0,
        0
    ],
    "_percent_": true,
    "_skin_": "s24c92fc23b14f5484b693ee9b8a9b35",
    "_top_": {
        "type": "string",
        "value": "0dp"
    },
    "_width_": {
        "type": "string",
        "value": "100%"
    },
    "accessibilityconfig": {
        "a11yARIA": {
            "tabindex": 1
        }
    },
    "allboxes": [],
    "autogrowmode": 0,
    "canUpdateUI": true,
    "children": [
        "lblAddNonKonyAccount",
        "flxSeparator4"
    ],
    "clipbounds": true,
    "containerweight": 100,
    "desktopweb": {
        "psp": {
            "hoverSkin": "s6c4cbf31f7c4fc08f7236fc38f01a0e"
        }
    },
    "enablescrolling": true,
    "id": "flxAddReciepient",
    "ide_onClick": "AS_FlexContainer_g2a8e3eed4c242e7ad4ef00ed26b4a42",
    "info": null,
    "isvisible": true,
    "kuid": "h0e47c3957a144718f513fc28b460d2b",
    "layouttype": 2,
    "name": "kony.ui.FlexContainer",
    "parent": "flxAddAccountWindow",
    "pf": "frmFastManagePayee",
    "responsiveData": {
        "b2": {
            "skin": "s24c92fc23b14f5484b693ee9b8a9b35"
        }
    },
    "snapgridsize": 10,
    "snaptogrid": true,
    "wType": "FlexContainer",
    "widgetalignment": 1,
    "zindex": 1
}