{
    "DNDConfig": null,
    "__parentReadjusting__": false,
    "_height_": {
        "type": "ref",
        "value": "preferred"
    },
    "_left_": {
        "type": "string",
        "value": "0dp"
    },
    "_margin_": [
        0,
        0,
        0,
        0
    ],
    "_orientation_": 6,
    "_padding_": [
        0,
        0,
        0,
        0
    ],
    "_percent_": true,
    "_skin_": "sdc143f0e5b64ae3a3f155f691c73fa7",
    "_top_": {
        "type": "string",
        "value": "20px"
    },
    "_width_": {
        "type": "string",
        "value": "100%"
    },
    "allboxes": [],
    "autogrowmode": 1,
    "canUpdateUI": true,
    "children": [
        "flxViewP2PSettings",
        "CopyflxAddNonKonyAccount0ecda86afab164b",
        "flxDeactivateP2P"
    ],
    "clipbounds": false,
    "containerweight": 100,
    "enablescrolling": true,
    "id": "flxPayAPersonsettings",
    "info": null,
    "isvisible": true,
    "kuid": "bd274f003508498a9d68732766fe81d5",
    "layouttype": 4,
    "name": "kony.ui.FlexContainer",
    "parent": "flxRightBar",
    "pf": "frmFastManagePayee",
    "responsiveData": {
        "b2": {
            "top": {
                "type": "string",
                "value": "0px"
            }
        }
    },
    "snapgridsize": 10,
    "snaptogrid": true,
    "wType": "FlexContainer",
    "widgetalignment": 1,
    "zindex": 1
}