{
    "DNDConfig": null,
    "__parentReadjusting__": false,
    "_height_": {
        "type": "string",
        "value": "40dp"
    },
    "_left_": {
        "type": "string",
        "value": "0dp"
    },
    "_margin_": [
        0,
        0,
        0,
        0
    ],
    "_orientation_": 6,
    "_padding_": [
        0,
        0,
        0,
        0
    ],
    "_percent_": true,
    "_skin_": "sb8b2d06e5a94b0ebf74a168186f28de",
    "_top_": {
        "type": "string",
        "value": "0dp"
    },
    "_width_": {
        "type": "string",
        "value": "100%"
    },
    "allboxes": [],
    "canUpdateUI": true,
    "children": [
        "flxDropdownSendRequest",
        "flxName",
        "flxPrimaryContact"
    ],
    "clipbounds": true,
    "containerweight": 100,
    "enablescrolling": true,
    "id": "flxRecipientsWrapper",
    "info": null,
    "isvisible": false,
    "kuid": "gfb54eeff5a64a22a545370b1c6faffe",
    "layouttype": 3,
    "name": "kony.ui.FlexContainer",
    "parent": "flxContent",
    "pf": "frmFastManagePayee",
    "responsiveData": {
        "b2": {
            "isVisible": false
        },
        "b3": {
            "height": {
                "type": "string",
                "value": "0dp"
            },
            "isVisible": false,
            "width": {
                "type": "string",
                "value": "0%"
            }
        }
    },
    "snapgridsize": 10,
    "snaptogrid": true,
    "wType": "FlexContainer",
    "widgetalignment": 1,
    "zindex": 1
}