{
    "DNDConfig": null,
    "_height_": {
        "type": "string",
        "value": "1px"
    },
    "_left_": {
        "type": "string",
        "value": "20px"
    },
    "_margin_": [
        0,
        0,
        0,
        0
    ],
    "_orientation_": 6,
    "_padding_": [
        0,
        0,
        0,
        0
    ],
    "_percent_": true,
    "_right_": {
        "type": "string",
        "value": "20dp"
    },
    "_skin_": "s3bd38ffdb374ddfb5e1cef876b795c1",
    "_top_": {
        "type": "string",
        "value": "60px"
    },
    "allboxes": [],
    "autogrowmode": 0,
    "canUpdateUI": true,
    "children": [],
    "clipbounds": true,
    "containerweight": 100,
    "enablescrolling": true,
    "id": "FlexContainer0hf61eb3a73e34f",
    "info": null,
    "isvisible": true,
    "kuid": "ce4e3a26c59c4e1488e35d2e0e346cb1",
    "layouttype": 2,
    "name": "kony.ui.FlexContainer",
    "parent": "acknowledgmentModify",
    "pf": "userwidgetmodel",
    "snapgridsize": 10,
    "snaptogrid": true,
    "wType": "FlexContainer",
    "widgetalignment": 1,
    "zindex": 1
}