{
    "DNDConfig": null,
    "__parentReadjusting__": false,
    "_height_": {
        "type": "string",
        "value": "50dp"
    },
    "_left_": {
        "type": "string",
        "value": "0dp"
    },
    "_margin_": [
        0,
        0,
        0,
        0
    ],
    "_orientation_": 6,
    "_padding_": [
        0,
        0,
        0,
        0
    ],
    "_percent_": true,
    "_skin_": "s096a6787b0943a99c0d54ceaaabff2d",
    "_top_": {
        "type": "string",
        "value": "0dp"
    },
    "_width_": {
        "type": "string",
        "value": "100%"
    },
    "allboxes": [],
    "autogrowmode": 0,
    "canUpdateUI": true,
    "children": [
        "lblGroupName",
        "flxImgCheckView",
        "lblViewTitle",
        "flxImgCheckTransaction",
        "lblTransactionTitle"
    ],
    "clipbounds": true,
    "containerId": true,
    "containerweight": 100,
    "enablescrolling": true,
    "id": "flxGroupHeader",
    "info": null,
    "iscustomlayout": false,
    "isvisible": false,
    "kuid": "a2c9b27cdf7e4818ab28558f6f6df080",
    "layouttype": 2,
    "name": "kony.ui.FlexContainer",
    "parent": "flxAccountAccessHeader",
    "pf": "segBBAccountAccessHeader",
    "retaincontentalignment": false,
    "retainflexpositionproperties": false,
    "snapgridsize": 10,
    "snaptogrid": true,
    "wType": "FlexContainer",
    "widgetalignment": 1,
    "zindex": 1
}