{
    "DNDConfig": null,
    "__parentReadjusting__": false,
    "_height_": {
        "type": "string",
        "value": "30dp"
    },
    "_left_": {
        "type": "string",
        "value": "34.21%"
    },
    "_margin_": [
        0,
        0,
        0,
        0
    ],
    "_orientation_": 6,
    "_padding_": [
        0,
        0,
        0,
        0
    ],
    "_percent_": true,
    "_skin_": "s24c92fc23b14f5484b693ee9b8a9b35",
    "_width_": {
        "type": "string",
        "value": "25dp"
    },
    "allboxes": [],
    "autogrowmode": 0,
    "canUpdateUI": true,
    "centery": {
        "type": "string",
        "value": "50%"
    },
    "children": [
        "imgCheckGroupView",
        "lblCheckGroupView"
    ],
    "clipbounds": true,
    "containerId": true,
    "containerweight": 100,
    "enablescrolling": true,
    "id": "flxImgCheckView",
    "ide_onClick": "AS_FlexContainer_da077e67abf5429f9f716d16a161b11a",
    "info": null,
    "iscustomlayout": false,
    "isvisible": true,
    "kuid": "f2b53b813f8e450c936db1c97fb32427",
    "layouttype": 2,
    "name": "kony.ui.FlexContainer",
    "parent": "flxGroupHeader",
    "pf": "segBBAccountAccessHeader",
    "retaincontentalignment": false,
    "retainflexpositionproperties": false,
    "snapgridsize": 10,
    "snaptogrid": true,
    "wType": "FlexContainer",
    "widgetalignment": 1,
    "zindex": 1
}