{
    "DNDConfig": null,
    "_height_": {
        "type": "ref",
        "value": "preferred"
    },
    "_left_": {
        "type": "string",
        "value": "74px"
    },
    "_margin_": [
        0,
        0,
        0,
        0
    ],
    "_orientation_": 6,
    "_padding_": [
        0,
        0,
        0,
        0
    ],
    "_percent_": true,
    "_skin_": "s24c92fc23b14f5484b693ee9b8a9b35",
    "_top_": {
        "type": "string",
        "value": "18px"
    },
    "_width_": {
        "type": "ref",
        "value": "preferred"
    },
    "allboxes": [],
    "autogrowmode": 1,
    "canUpdateUI": true,
    "children": [
        "lblMyGoals",
        "lblMyGoalsValue"
    ],
    "clipbounds": true,
    "containerweight": 100,
    "enablescrolling": true,
    "id": "flxMyGoals",
    "info": null,
    "iscustomlayout": false,
    "isvisible": true,
    "kuid": "c1c0db0be5d646eb9562eb189e1de8d0",
    "layouttype": 4,
    "minwidth": {
        "type": "string",
        "value": "120dp"
    },
    "name": "kony.ui.FlexContainer",
    "parent": "flxSavingsPotBalanceDetails",
    "pf": "frmSavingsPotLanding",
    "responsiveData": {
        "b3": {
            "left": {
                "type": "string",
                "value": "20px"
            },
            "top": {
                "type": "string",
                "value": "92px"
            }
        },
        "b4": {
            "left": {
                "type": "string",
                "value": "54px"
            }
        }
    },
    "retaincontentalignment": false,
    "retainflexpositionproperties": false,
    "retainflowhorizontalalignment": false,
    "snapgridsize": 10,
    "snaptogrid": true,
    "wType": "FlexContainer",
    "widgetalignment": 1,
    "zindex": 1
}