{
    "@class": "com.kony.gen.viz.model.component.KVizBrowser",
    "DNDConfig": null,
    "__parentReadjusting__": false,
    "_bottom_": {
        "type": "string",
        "value": "0dp"
    },
    "_height_": {
        "type": "ref",
        "value": "preferred"
    },
    "_left_": {
        "type": "string",
        "value": "2%"
    },
    "_margin_": [
        0,
        0,
        0,
        0
    ],
    "_padding_": [
        0,
        0,
        0,
        0
    ],
    "_top_": {
        "type": "string",
        "value": "0dp"
    },
    "_type_": 5,
    "_width_": {
        "type": "string",
        "value": "95%"
    },
    "androidwearos": {
        "render": false
    },
    "canUpdateUI": true,
    "containerweight": 69,
    "detecttelnumber": true,
    "htmlstring": "Browser",
    "id": "brwBodyTnC",
    "info": null,
    "iscustomlayout": false,
    "isvisible": true,
    "kuid": "a7fe4746b0a240828bfde84318a05d4e",
    "localurl": "w013b16989bb4c35be7cab72bec0cadc",
    "margininpixel": false,
    "method": "get",
    "minheight": {
        "type": "string",
        "value": "657dp"
    },
    "name": "kony.ui.Browser",
    "paddinginpixel": false,
    "parent": "flxBody",
    "pf": "frmBulkBeneficiariesSelectedConfirm",
    "requesturlconfig": {
        "URL": "",
        "requestMethod": "get"
    },
    "responsiveData": {
        "b2": {
            "minHeight": {
                "type": "string",
                "value": "520dp"
            }
        },
        "b3": {
            "minHeight": {
                "type": "string",
                "value": "420dp"
            }
        }
    },
    "retaincontentalignment": false,
    "retainflexpositionproperties": false,
    "screenlevelwidget": false,
    "url": "",
    "wType": "Browser",
    "zindex": 1
}