{
    "@class": "com.kony.gen.viz.model.container.KVizSegment2",
    "DNDConfig": null,
    "__parentReadjusting__": false,
    "_data_": [],
    "_height_": {
        "type": "ref",
        "value": "preferred"
    },
    "_indicator_": "none",
    "_left_": {
        "type": "string",
        "value": "0dp"
    },
    "_margin_": [
        0,
        0,
        0,
        0
    ],
    "_orientation_": 2,
    "_padding_": [
        0,
        0,
        0,
        0
    ],
    "_right_": {
        "type": "string",
        "value": "0dp"
    },
    "_top_": {
        "type": "string",
        "value": "0dp"
    },
    "autogrowmode": 1,
    "canUpdateUI": true,
    "containerweight": 100,
    "counter": "01",
    "desktop": {
        "_data_": [],
        "rowTemplateId": "bd62770ffa4749bf9c7620f441c78f39",
        "rowtemplate": "flxAccountListItem",
        "sectionHeaderTemplateId": "b4e0f9f76d6144d89ee3b08a2b9b0317",
        "sectionheadertemplate": "flxAccountListItemHeader",
        "widgetdatamap": {
            "CopyimgMenu0a97e7ab1e83140": "CopyimgMenu0a97e7ab1e83140",
            "CopyimgThreeDotIcon0eac906fccd3d43": "CopyimgThreeDotIcon0eac906fccd3d43",
            "btn": "btn",
            "flxAccountListItem": "flxAccountListItem",
            "flxAccountListItemHeader": "flxAccountListItemHeader",
            "flxAccountListItemWrapper": "flxAccountListItemWrapper",
            "flxAccountName": "flxAccountName",
            "flxAccountNameWrapper": "flxAccountNameWrapper",
            "flxAvailableBalance": "flxAvailableBalance",
            "flxAvailableBalanceWrapper": "flxAvailableBalanceWrapper",
            "flxBankName": "flxBankName",
            "flxContent": "flxContent",
            "flxFavourite": "flxFavourite",
            "flxIdentifier": "flxIdentifier",
            "flxMenu": "flxMenu",
            "flxSeparator": "flxSeparator",
            "flxWrapper": "flxWrapper",
            "imgBankName": "imgBankName",
            "imgFavourite": "imgFavourite",
            "imgIdentifier": "imgIdentifier",
            "imgInfo": "imgInfo",
            "imgMenu": "imgMenu",
            "imgStarIcon": "imgStarIcon",
            "imgThreeDotIcon": "imgThreeDotIcon",
            "imgWarning": "imgWarning",
            "lblAccountName": "lblAccountName",
            "lblAccountNumber": "lblAccountNumber",
            "lblAvailableBalanceTitle": "lblAvailableBalanceTitle",
            "lblAvailableBalanceValue": "lblAvailableBalanceValue",
            "lblTransactionHeader": "lblTransactionHeader"
        }
    },
    "focusedindex": null,
    "focuseditem": null,
    "groupcells": false,
    "hasSections": true,
    "id": "segAccounts",
    "info": null,
    "ipad": {
        "psp": {
            "indicator": "rowselect"
        }
    },
    "iphone": {
        "psp": {
            "indicator": "rowselect"
        }
    },
    "isvisible": true,
    "kuid": "h0da993b03e742cfa91e8b61778aad19",
    "masterdata": {},
    "name": "kony.ui.SegmentedUI2",
    "needpageindicator": true,
    "pageoffdotimage": "pageoffdot.png",
    "pageondotimage": "pageondot.png",
    "paginationconfig": {
        "position": "bottom"
    },
    "parent": "flxAccountsSegments",
    "pf": "userwidgetmodel",
    "retainselection": false,
    "rowcounter": 1,
    "rowfocusskin": "s9f69e977910472eb44c62ae28c41fe1",
    "rowskin": "s81e45ca9be04bba9f11cf557d9d0c1e",
    "rowtemplate": "flxAccountListItem",
    "screenlevelwidget": false,
    "seccounter": 0,
    "sectionheaderskin": "sdc4ff4ed1584272be2ae69045dfb29d",
    "selectedRows": null,
    "selectedState": false,
    "selectedindex": null,
    "selectedindices": null,
    "selecteditems": null,
    "selectedsectionindex": 0,
    "selectionbehavior": "default",
    "separatorrequired": false,
    "separatorthickness": 0,
    "showscrollbars": false,
    "viewtype": "tableview",
    "vizProps": {},
    "wType": "Segment",
    "widgetalignment": 5,
    "widgetdatamap": {
        "CopyimgMenu0a97e7ab1e83140": "CopyimgMenu0a97e7ab1e83140",
        "CopyimgThreeDotIcon0eac906fccd3d43": "CopyimgThreeDotIcon0eac906fccd3d43",
        "btn": "btn",
        "flxAccountListItem": "flxAccountListItem",
        "flxAccountListItemHeader": "flxAccountListItemHeader",
        "flxAccountListItemWrapper": "flxAccountListItemWrapper",
        "flxAccountName": "flxAccountName",
        "flxAccountNameWrapper": "flxAccountNameWrapper",
        "flxAvailableBalance": "flxAvailableBalance",
        "flxAvailableBalanceWrapper": "flxAvailableBalanceWrapper",
        "flxBankName": "flxBankName",
        "flxContent": "flxContent",
        "flxFavourite": "flxFavourite",
        "flxIdentifier": "flxIdentifier",
        "flxMenu": "flxMenu",
        "flxSeparator": "flxSeparator",
        "flxWrapper": "flxWrapper",
        "imgBankName": "imgBankName",
        "imgFavourite": "imgFavourite",
        "imgIdentifier": "imgIdentifier",
        "imgInfo": "imgInfo",
        "imgMenu": "imgMenu",
        "imgStarIcon": "imgStarIcon",
        "imgThreeDotIcon": "imgThreeDotIcon",
        "imgWarning": "imgWarning",
        "lblAccountName": "lblAccountName",
        "lblAccountNumber": "lblAccountNumber",
        "lblAvailableBalanceTitle": "lblAvailableBalanceTitle",
        "lblAvailableBalanceValue": "lblAvailableBalanceValue",
        "lblTransactionHeader": "lblTransactionHeader"
    },
    "zindex": 1
}