{
    "DNDConfig": null,
    "__parentReadjusting__": false,
    "_bottom_": {
        "type": "string",
        "value": "20dp"
    },
    "_height_": {
        "type": "ref",
        "value": "preferred"
    },
    "_left_": {
        "type": "string",
        "value": "2.50%"
    },
    "_margin_": [
        0,
        0,
        0,
        0
    ],
    "_orientation_": 6,
    "_padding_": [
        0,
        0,
        0,
        0
    ],
    "_percent_": true,
    "_skin_": "sdc143f0e5b64ae3a3f155f691c73fa7",
    "_top_": {
        "type": "string",
        "value": "20dp"
    },
    "_width_": {
        "type": "string",
        "value": "95%"
    },
    "allboxes": [],
    "autogrowmode": 1,
    "canUpdateUI": true,
    "centerx": {
        "type": "number",
        "value": ""
    },
    "children": [
        "flxError",
        "flxHorzDetail1",
        "flxHorzDetail2",
        "flxHorzDetail3",
        "flxHorzDetail4",
        "flxSeparator",
        "flxAmountDetails",
        "flxSeparator1",
        "flxButtons"
    ],
    "clipbounds": false,
    "containerweight": 100,
    "enablescrolling": true,
    "id": "fundGoal",
    "info": null,
    "iscustomlayout": false,
    "isvisible": true,
    "kuid": "ffcbf19a8e5c4a42bc2c4f9e6abe3679",
    "layouttype": 4,
    "minheight": {
        "type": "string",
        "value": "440dp"
    },
    "name": "kony.ui.FlexContainer",
    "parent": "userwidgetmodel",
    "pf": "userwidgetmodel",
    "responsiveData": {
        "b1": {
            "centerX": {
                "type": "string",
                "value": "50%"
            },
            "left": {
                "type": "string",
                "value": ""
            },
            "minHeight": {
                "type": "string",
                "value": "200dp"
            },
            "width": {
                "type": "string",
                "value": "87.80%"
            }
        },
        "b2": {
            "minHeight": {
                "type": "string",
                "value": "200dp"
            }
        },
        "b3": {
            "left": {
                "type": "string",
                "value": "4.50%"
            },
            "minHeight": {
                "type": "string",
                "value": "200dp"
            },
            "width": {
                "type": "string",
                "value": "91%"
            }
        },
        "b4": {
            "centerX": {
                "type": "string",
                "value": "50%"
            },
            "left": {
                "type": "string",
                "value": "6.07%"
            },
            "minHeight": {
                "type": "string",
                "value": "200dp"
            },
            "width": {
                "type": "string",
                "value": "1200dp"
            }
        }
    },
    "retaincontentalignment": false,
    "retainflexpositionproperties": false,
    "retainflowhorizontalalignment": false,
    "snapgridsize": 10,
    "snaptogrid": true,
    "vizProps": {
        "hidewidgethierarchy": false
    },
    "wType": "FlexContainer",
    "widgetalignment": 1
}