{
    "@class": "com.kony.gen.viz.model.component.KVizButton",
    "DNDConfig": null,
    "_height_": {
        "type": "ref",
        "value": "preferred"
    },
    "_left_": {
        "type": "string",
        "value": "0dp"
    },
    "_margin_": [
        6,
        6,
        6,
        6
    ],
    "_padding_": [
        0,
        0,
        0,
        0
    ],
    "_skin_": "se4cbdf6e51f48eda9966caa941c6a19",
    "_text_": "",
    "_top_": {
        "type": "number",
        "value": "13"
    },
    "_width_": {
        "type": "ref",
        "value": "preferred"
    },
    "accessibilityconfig": {
        "a11yLabel": "CANCEL CARD"
    },
    "canUpdateUI": true,
    "containerId": true,
    "containerweight": 100,
    "contentalignment": 4,
    "desktopweb": {
        "psp": {
            "hoverSkin": "sd36babbd8f6461f8b492698ab830d13"
        }
    },
    "disabledSkins": {
        "focusSkin": "sf44d06ca8224832827ea7fdff757013"
    },
    "displaytext": true,
    "id": "btnAction5",
    "info": null,
    "isvisible": true,
    "kuid": "bd79c1995d3f4a58925e864eed1e07c5",
    "maxwidth": {
        "type": "number",
        "value": "115"
    },
    "name": "kony.ui.Button",
    "parent": "flxActionsContainer",
    "pf": "segMyCardsCollapsedNew",
    "wType": "Button",
    "zindex": 1
}