{
    "DNDConfig": null,
    "__parentReadjusting__": false,
    "_height_": {
        "type": "string",
        "value": "45dp"
    },
    "_margin_": [
        0,
        0,
        0,
        0
    ],
    "_orientation_": 6,
    "_padding_": [
        0,
        0,
        0,
        0
    ],
    "_percent_": true,
    "_skin_": "s24c92fc23b14f5484b693ee9b8a9b35",
    "_top_": {
        "type": "string",
        "value": "476dp"
    },
    "_width_": {
        "type": "string",
        "value": "117dp"
    },
    "allboxes": [],
    "autogrowmode": 0,
    "canUpdateUI": true,
    "centerx": {
        "type": "string",
        "value": "50%"
    },
    "children": [
        "imgAppStore"
    ],
    "clipbounds": true,
    "containerweight": 100,
    "enablescrolling": true,
    "id": "flxAppStore",
    "info": null,
    "iscustomlayout": false,
    "isvisible": true,
    "kuid": "a070b32f65f54c9db5f26d066e83b028",
    "layouttype": 2,
    "name": "kony.ui.FlexContainer",
    "parent": "flxLoginContainer",
    "pf": "frmLoginNew",
    "responsiveData": {
        "b1": {
            "isVisible": false,
            "top": {
                "type": "string",
                "value": "476dp"
            },
            "zIndex": 5
        },
        "b2": {
            "top": {
                "type": "string",
                "value": "563dp"
            }
        },
        "b3": {},
        "b4": {
            "isVisible": false,
            "zIndex": 5
        }
    },
    "retaincontentalignment": false,
    "retainflexpositionproperties": false,
    "retainflowhorizontalalignment": false,
    "snapgridsize": 10,
    "snaptogrid": true,
    "wType": "FlexContainer",
    "widgetalignment": 1,
    "zindex": 6
}