{
    "DNDConfig": null,
    "__parentReadjusting__": false,
    "_height_": {
        "type": "string",
        "value": "40dp"
    },
    "_left_": {
        "type": "string",
        "value": "75dp"
    },
    "_margin_": [
        0,
        0,
        0,
        0
    ],
    "_orientation_": 6,
    "_padding_": [
        0,
        0,
        0,
        0
    ],
    "_percent_": true,
    "_right_": {
        "type": "string",
        "value": "75dp"
    },
    "_skin_": "s24c92fc23b14f5484b693ee9b8a9b35",
    "_top_": {
        "type": "string",
        "value": "255dp"
    },
    "_width_": {
        "type": "string",
        "value": ""
    },
    "allboxes": [],
    "canUpdateUI": true,
    "children": [
        "tbxUsername",
        "flxUsersDropdown"
    ],
    "clipbounds": false,
    "containerweight": 100,
    "enablescrolling": true,
    "id": "flxUsernameContainer",
    "info": null,
    "iscustomlayout": false,
    "isvisible": true,
    "kuid": "a15d31cadc4046b3be9be4237b9fc907",
    "layouttype": 2,
    "name": "kony.ui.FlexContainer",
    "parent": "flxLoginContainer",
    "pf": "frmLoginNew",
    "responsiveData": {
        "b1": {},
        "b2": {},
        "b3": {
            "left": {
                "type": "string",
                "value": "20dp"
            },
            "right": {
                "type": "string",
                "value": "20dp"
            },
            "top": {
                "type": "string",
                "value": "170dp"
            }
        }
    },
    "retaincontentalignment": false,
    "retainflexpositionproperties": false,
    "retainflowhorizontalalignment": false,
    "snapgridsize": 10,
    "snaptogrid": true,
    "wType": "FlexContainer",
    "widgetalignment": 1,
    "zindex": 7
}