{
    "@class": "com.kony.gen.viz.model.component.KVizImage2",
    "DNDConfig": null,
    "__parentReadjusting__": false,
    "_base64_": null,
    "_height_": {
        "type": "string",
        "value": "30dp"
    },
    "_left_": {
        "type": "string",
        "value": "75dp"
    },
    "_margin_": [
        0,
        0,
        0,
        0
    ],
    "_padding_": [
        0,
        0,
        0,
        0
    ],
    "_right_": {
        "type": "number",
        "value": ""
    },
    "_skin_": "s78a5f26c9f14cec9ebed1bb46098f80",
    "_src_": "kony_logo.png",
    "_top_": {
        "type": "string",
        "value": "30dp"
    },
    "_width_": {
        "type": "string",
        "value": "98dp"
    },
    "canUpdateUI": true,
    "containerweight": 100,
    "context": {
        "channel": "desktop",
        "formID": "frmLoginNew",
        "platform": "desktopweb",
        "templateType": "forms",
        "topLevelBox": null
    },
    "id": "imgLogo",
    "imagescalemode": 1,
    "imagewhiledownloading": "img_transparent.png",
    "info": null,
    "invokedProperty": "src",
    "isvisible": true,
    "kuid": "b5c3d642f927452ca4e18a6cc4f3e1db",
    "name": "kony.ui.Image2",
    "parent": "flxLoginContainer",
    "pf": "frmLoginNew",
    "responsiveData": {
        "b1": {
            "height": {
                "type": "string",
                "value": "45dp"
            },
            "top": {
                "type": "string",
                "value": "75dp"
            },
            "width": {
                "type": "string",
                "value": "175dp"
            }
        },
        "b2": {
            "height": {
                "type": "string",
                "value": "40dp"
            },
            "top": {
                "type": "string",
                "value": "70dp"
            },
            "width": {
                "type": "string",
                "value": "162dp"
            }
        },
        "b3": {
            "left": {
                "type": "string",
                "value": "20dp"
            }
        },
        "b4": {
            "height": {
                "type": "string",
                "value": "45dp"
            },
            "right": {
                "type": "string",
                "value": ""
            },
            "top": {
                "type": "string",
                "value": "75dp"
            },
            "width": {
                "type": "string",
                "value": "175dp"
            }
        }
    },
    "srcType": 1,
    "wType": "Image",
    "widgetalignment": 5,
    "zindex": 6
}