{
    "@class": "com.kony.gen.viz.model.component.KVizLabel",
    "DNDConfig": null,
    "__parentReadjusting__": false,
    "_height_": {
        "type": "ref",
        "value": "preferred"
    },
    "_left_": {
        "type": "string",
        "value": "75dp"
    },
    "_margin_": [
        1,
        1,
        1,
        1
    ],
    "_padding_": [
        0,
        0,
        0,
        0
    ],
    "_right_": {
        "type": "number",
        "value": ""
    },
    "_skin_": "s18d3552bc4143569a7c5aef6bd5eaa1",
    "_text_": "Welcome to Infinity",
    "_top_": {
        "type": "string",
        "value": "160dp"
    },
    "_width_": {
        "type": "ref",
        "value": "preferred"
    },
    "_wrapping_": 2,
    "android": {
        "textStyle": {
            "letterSpacing": 0,
            "strikeThrough": false
        }
    },
    "canUpdateUI": true,
    "centerx": {
        "type": "string",
        "value": "50%"
    },
    "containerweight": 100,
    "contentalignment": 5,
    "id": "lblWelcome",
    "info": null,
    "ipad": {
        "psp": {
            "wrapping": 2
        }
    },
    "iphone": {
        "psp": {
            "wrapping": 2
        }
    },
    "iscustomlayout": false,
    "isvisible": true,
    "kuid": "dba8f0cc22e5497bb7fc3cb8ade0161f",
    "maxwidth": {
        "type": "string",
        "value": "90%"
    },
    "name": "kony.ui.Label",
    "parent": "flxLoginContainer",
    "pf": "frmLoginNew",
    "responsiveData": {
        "b1": {
            "centerX": {
                "type": "string",
                "value": ""
            },
            "contentAlignment": 4,
            "top": {
                "type": "string",
                "value": "150dp"
            }
        },
        "b2": {
            "maxWidth": {
                "type": "string",
                "value": ""
            },
            "right": {
                "type": "string",
                "value": "75dp"
            },
            "top": {
                "type": "string",
                "value": "144dp"
            }
        },
        "b3": {
            "left": {
                "type": "string",
                "value": "20dp"
            },
            "maxWidth": {
                "type": "string",
                "value": ""
            },
            "right": {
                "type": "string",
                "value": "20dp"
            },
            "top": {
                "type": "string",
                "value": "75dp"
            }
        },
        "b4": {
            "contentAlignment": 4,
            "right": {
                "type": "string",
                "value": "75dp"
            },
            "top": {
                "type": "string",
                "value": "150dp"
            }
        }
    },
    "retaincontentalignment": false,
    "retainflexpositionproperties": false,
    "tooltip": "",
    "wType": "Label",
    "zindex": 6
}