{
    "DNDConfig": null,
    "_height_": {
        "type": "string",
        "value": "51px"
    },
    "_margin_": [
        0,
        0,
        0,
        0
    ],
    "_orientation_": 6,
    "_padding_": [
        0,
        0,
        0,
        0
    ],
    "_percent_": true,
    "_skin_": "sf4c85c506de4687bf0645de2533a314",
    "allboxes": [],
    "autogrowmode": 0,
    "canUpdateUI": true,
    "children": [
        "flxRow",
        "lblSeparator"
    ],
    "clipbounds": true,
    "containerId": true,
    "containerweight": 100,
    "controllerInfo": {
        "default": {
            "channel": "desktop",
            "name": "flxMyRequestsController"
        }
    },
    "enablescrolling": true,
    "id": "flxMyRequests",
    "info": null,
    "isTemplate": true,
    "isvisible": true,
    "kuid": "c0e7b2c8623b441b860c3577b54bf1f0",
    "layouttype": 2,
    "name": "kony.ui.FlexContainer",
    "parent": "segMyRequests",
    "pf": "segMyRequests",
    "snapgridsize": 10,
    "snaptogrid": true,
    "wType": "FlexContainer",
    "widgetalignment": 1
}