{
    "android": {
        "background_color": {
            "angle": 0,
            "colors": [
                "56a9ddff",
                "3a83a7ff",
                "4aa8d1ff"
            ],
            "cs": [
                0,
                50,
                100
            ],
            "gt": "linear"
        },
        "background_style": "linear",
        "bg_type": "ms_gradient",
        "font_name": "Helvetica",
        "isForked": true
    },
    "background_color": "ffffffff",
    "bg_type": "one",
    "border_color": "336591ff",
    "border_style": "plain",
    "border_type": 0,
    "border_width": 0,
    "desktopweb": {
        "font_name": "SourceSansPro-Regular",
        "font_size": 125,
        "isForked": false
    },
    "fontSizeInPx": true,
    "font_color": "336591ff",
    "font_name": "Helvetica",
    "font_size": 125,
    "font_style": "normal",
    "font_weight": "normal",
    "ipad": {
        "background_color": {
            "angle": 0,
            "colors": [
                "56a9ddff",
                "3a83a7ff",
                "4aa8d1ff"
            ],
            "cs": [
                0,
                50,
                100
            ],
            "gt": "linear"
        },
        "background_style": "linear",
        "bg_type": "ms_gradient",
        "font_name": "Helvetica",
        "isForked": true
    },
    "iphone": {
        "background_color": {
            "angle": 0,
            "colors": [
                "56a9ddff",
                "3a83a7ff",
                "4aa8d1ff"
            ],
            "cs": [
                0,
                50,
                100
            ],
            "gt": "linear"
        },
        "background_style": "linear",
        "bg_type": "ms_gradient",
        "font_name": "Helvetica",
        "isForked": true
    },
    "isDefaultSkin": false,
    "kiosk": {
        "background_color": {
            "angle": 0,
            "colors": [
                "56a9ddff",
                "3a83a7ff",
                "4aa8d1ff"
            ],
            "cs": [
                0,
                50,
                100
            ],
            "gt": "linear"
        },
        "background_style": "linear",
        "bg_type": "ms_gradient",
        "font_name": "GenericMonospace",
        "isForked": true
    },
    "kuid": "s21cd11a212e42e693216fd3a82ed65a",
    "spaan": {
        "background_color": {
            "angle": 0,
            "colors": [
                "56a9ddff",
                "3a83a7ff",
                "4aa8d1ff"
            ],
            "cs": [
                0,
                50,
                100
            ],
            "gt": "linear"
        },
        "background_style": "linear",
        "bg_type": "ms_gradient",
        "font_name": "SourceSansPro-Regular",
        "isForked": true
    },
    "spaandroidtablet": {
        "background_color": {
            "angle": 0,
            "colors": [
                "56a9ddff",
                "3a83a7ff",
                "4aa8d1ff"
            ],
            "cs": [
                0,
                50,
                100
            ],
            "gt": "linear"
        },
        "background_style": "linear",
        "bg_type": "ms_gradient",
        "font_name": "SourceSansPro-Regular",
        "isForked": true
    },
    "spaip": {
        "background_color": {
            "angle": 0,
            "colors": [
                "56a9ddff",
                "3a83a7ff",
                "4aa8d1ff"
            ],
            "cs": [
                0,
                50,
                100
            ],
            "gt": "linear"
        },
        "background_style": "linear",
        "bg_type": "ms_gradient",
        "font_name": "SourceSansPro-Regular",
        "isForked": true
    },
    "spaipad": {
        "background_color": {
            "angle": 0,
            "colors": [
                "56a9ddff",
                "3a83a7ff",
                "4aa8d1ff"
            ],
            "cs": [
                0,
                50,
                100
            ],
            "gt": "linear"
        },
        "background_style": "linear",
        "bg_type": "ms_gradient",
        "font_name": "SourceSansPro-Regular",
        "isForked": true
    },
    "spawindowstablet": {
        "background_color": {
            "angle": 0,
            "colors": [
                "56a9ddff",
                "3a83a7ff",
                "4aa8d1ff"
            ],
            "cs": [
                0,
                50,
                100
            ],
            "gt": "linear"
        },
        "background_style": "linear",
        "bg_type": "ms_gradient",
        "font_name": "Helvetica",
        "isForked": true
    },
    "spawinphone8": {
        "background_color": {
            "angle": 0,
            "colors": [
                "56a9ddff",
                "3a83a7ff",
                "4aa8d1ff"
            ],
            "cs": [
                0,
                50,
                100
            ],
            "gt": "linear"
        },
        "background_style": "linear",
        "bg_type": "ms_gradient",
        "font_name": "Helvetica",
        "isForked": true
    },
    "tabrcandroid": {
        "background_color": {
            "angle": 0,
            "colors": [
                "56a9ddff",
                "3a83a7ff",
                "4aa8d1ff"
            ],
            "cs": [
                0,
                50,
                100
            ],
            "gt": "linear"
        },
        "background_style": "linear",
        "bg_type": "ms_gradient",
        "font_name": "Helvetica",
        "isForked": true
    },
    "wType": "Button",
    "watchos": {
        "font_name": "Helvetica",
        "font_size": 54,
        "isForked": false
    },
    "windows8": {
        "background_color": {
            "angle": 0,
            "colors": [
                "56a9ddff",
                "3a83a7ff",
                "4aa8d1ff"
            ],
            "cs": [
                0,
                50,
                100
            ],
            "gt": "linear"
        },
        "background_style": "linear",
        "bg_type": "ms_gradient",
        "font_name": "GenericMonospace",
        "isForked": true
    },
    "winphone8": {
        "background_color": {
            "angle": 0,
            "colors": [
                "56a9ddff",
                "3a83a7ff",
                "4aa8d1ff"
            ],
            "cs": [
                0,
                50,
                100
            ],
            "gt": "linear"
        },
        "background_style": "linear",
        "bg_type": "ms_gradient",
        "font_name": "GenericMonospace",
        "isForked": true
    }
}