{
    "background_gradient_bottom_color": "1185e400",
    "background_gradient_top_color": "1e87f033",
    "background_style": "vg",
    "bg_type": "two",
    "border_color": "fbfbfbff",
    "border_style": "plain",
    "border_type": 0,
    "border_width": 0,
    "isDefaultSkin": false,
    "kuid": "s95506bb0b554f53abedd2d69a61ffdd",
    "wType": "FlexContainer"
}