{
    "background_color": "ffffffff",
    "bg_type": "one",
    "border_color": "e8e9ebff",
    "border_style": "plain",
    "border_type": 0,
    "border_width": 0,
    "isDefaultSkin": false,
    "kuid": "sd25e3469c244fd887deb5da800f2747",
    "wType": "FlexContainer"
}