{
  "background_color": "e3e3e300",
  "bg_type": "one",
  "border_color": "e3e3e3ff",
  "border_style": "plain",
  "border_type": 0,
  "border_width": 0,
  "isDefaultSkin": false,
  "kuid": "s9f0c4bc0cd8418da924fd6b0065e2a7",
  "wType": "FlexContainer"
}