{
  "background_color": "003e75ff",
  "bg_type": "one",
  "border_color": "00000000",
  "border_style": "rc",
  "border_type": 0,
  "border_width": 3,
  "isDefaultSkin": false,
  "kuid": "sa29410163d242e89657da11f7033341",
  "wType": "FlexContainer"
}