{
  "background_color": "00a6f7ff",
  "bg_type": "one",
  "border_color": "000000ff",
  "border_style": "plain",
  "border_type": 0,
  "border_width": 0,
  "isDefaultSkin": false,
  "kuid": "s27388b784a8475c832f63e0727050d4",
  "wType": "FlexContainer"
}