{
    "android": {
        "font_color": "000000ff",
        "font_name": "Helvetica",
        "font_size": 71,
        "isForked": true
    },
    "androidwearos": {
        "font_color": "000000ff",
        "font_size": 71,
        "isForked": true
    },
    "background_color": "00000000",
    "bg_type": "one",
    "border_color": "424242ff",
    "border_style": "plain",
    "border_type": 0,
    "border_width": 0,
    "desktopweb": {
        "bottom_left_border_color": "424242ff",
        "bottom_left_border_style": "plain",
        "bottom_left_border_width": 0,
        "bottom_right_border_color": "424242ff",
        "bottom_right_border_style": "plain",
        "bottom_right_border_width": 0,
        "customCSS": "`",
        "font_color": "000000ff",
        "font_name": "SourceSansPro-Regular",
        "font_size": 125,
        "isCustomCSSEnabled": false,
        "isForked": true,
        "top_left_border_color": "424242ff",
        "top_left_border_style": "plain",
        "top_left_border_width": 0,
        "top_right_border_color": "424242ff",
        "top_right_border_style": "plain",
        "top_right_border_width": 0
    },
    "fontSizeInPx": true,
    "font_color": "e00b0bff",
    "font_name": "Helvetica",
    "font_size": 125,
    "font_style": "normal",
    "font_weight": "normal",
    "ipad": {
        "font_color": "000000ff",
        "font_name": "Helvetica",
        "font_size": 107,
        "isForked": true
    },
    "iphone": {
        "font_color": "000000ff",
        "font_name": "Helvetica",
        "font_size": 107,
        "isForked": true
    },
    "isDefaultSkin": false,
    "kiosk": {
        "font_color": "000000ff",
        "font_name": "GenericMonospace",
        "font_size": 188,
        "isForked": true
    },
    "kuid": "sbb0ae08c0a542a2885868b80ae28d10",
    "spaan": {
        "customCSS": "`",
        "font_color": "000000ff",
        "font_name": "SourceSansPro-Regular",
        "font_size": 125,
        "isCustomCSSEnabled": false,
        "isForked": true
    },
    "spaandroidtablet": {
        "customCSS": "`",
        "font_color": "000000ff",
        "font_name": "SourceSansPro-Regular",
        "font_size": 125,
        "isCustomCSSEnabled": false,
        "isForked": true
    },
    "spaip": {
        "customCSS": "`",
        "font_color": "000000ff",
        "font_name": "SourceSansPro-Regular",
        "font_size": 125,
        "isCustomCSSEnabled": false,
        "isForked": true
    },
    "spaipad": {
        "customCSS": "`",
        "font_color": "000000ff",
        "font_name": "SourceSansPro-Regular",
        "font_size": 125,
        "isCustomCSSEnabled": false,
        "isForked": true
    },
    "spawindowstablet": {
        "customCSS": "`",
        "font_color": "000000ff",
        "font_name": "Helvetica",
        "font_size": 125,
        "isCustomCSSEnabled": false,
        "isForked": true
    },
    "spawinphone8": {
        "customCSS": "`",
        "font_color": "000000ff",
        "font_name": "Helvetica",
        "font_size": 125,
        "isCustomCSSEnabled": false,
        "isForked": true
    },
    "tabrcandroid": {
        "font_color": "000000ff",
        "font_name": "Helvetica",
        "font_size": 178,
        "isForked": true
    },
    "wType": "Label",
    "watchos": {
        "font_color": "000000ff",
        "font_name": "Helvetica",
        "font_size": 107,
        "isForked": true
    },
    "windows8": {
        "font_color": "000000ff",
        "font_name": "GenericMonospace",
        "font_size": 73,
        "isForked": true
    },
    "winphone8": {
        "font_color": "000000ff",
        "font_name": "GenericMonospace",
        "font_size": 100,
        "isForked": true
    }
}