{
    "background_color": "f9f9f9ff",
    "bg_type": "one",
    "border_color": "000000ff",
    "border_style": "plain",
    "border_type": 0,
    "border_width": 0,
    "isDefaultSkin": false,
    "kuid": "scbeb296b8974dd9a5156ff779701320",
    "wType": "FlexContainer"
}