{
    "background_color": "d8d8d800",
    "bg_type": "one",
    "border_color": "d8d8d8ff",
    "border_style": "plain",
    "border_type": 0,
    "border_width": 0,
    "isDefaultSkin": false,
    "kuid": "sf0d290f2439453abc139ab2595466bb",
    "wType": "FlexContainer"
}