{
    "background_color": "00000059",
    "bg_type": "one",
    "border_color": "000000ff",
    "border_style": "plain",
    "border_type": 0,
    "border_width": 0,
    "isDefaultSkin": false,
    "kuid": "sd0f74b83ec041bc85c71f85b7465bde",
    "wType": "FlexContainer"
}