{
  "background_color": "a7a7a700",
  "bg_type": "one",
  "border_color": "000000ff",
  "border_style": "plain",
  "border_type": 0,
  "border_width": 0,
  "isDefaultSkin": false,
  "kuid": "s7d05c5f5394497b8bbcab40b79bdb0d",
  "wType": "Segment"
}