{
  "background_color": "ffffffff",
  "bg_type": "one",
  "border_color": "000000ff",
  "border_style": "plain",
  "border_type": 0,
  "border_width": 0,
  "isDefaultSkin": false,
  "kuid": "sdc51f42e5bc4983b8a9ea8505f9c9d9",
  "wType": "FlexContainer"
}