{
    "background_color": "d3d3d3ff",
    "bg_type": "one",
    "border_color": "000000ff",
    "border_style": "plain",
    "border_type": 0,
    "border_width": 0,
    "isDefaultSkin": false,
    "kuid": "se894445821f422da2dc078976180876",
    "wType": "FlexContainer"
}