{
    "background_color": "ffffffff",
    "bg_type": "one",
    "border_color": "00000000",
    "border_radius": 3,
    "border_style": "custom",
    "border_type": 0,
    "border_width": 1,
    "desktopweb": {
        "bottom_left_border_color": "00000000",
        "bottom_left_border_radius": "3",
        "bottom_left_border_style": "rc",
        "bottom_left_border_width": 1,
        "bottom_right_border_color": "00000000",
        "bottom_right_border_radius": "3",
        "bottom_right_border_style": "rc",
        "bottom_right_border_width": 1,
        "isForked": true,
        "shadow": {
            "br": 2,
            "color": "bebebeff",
            "inner": false,
            "nm": 0,
            "x": 0,
            "y": 0
        },
        "top_left_border_color": "00000000",
        "top_left_border_radius": "3",
        "top_left_border_style": "rc",
        "top_left_border_width": 1,
        "top_right_border_color": "00000000",
        "top_right_border_radius": "3",
        "top_right_border_style": "rc",
        "top_right_border_width": 1
    },
    "ipad": {
        "isForked": true,
        "shadow": {
            "br": 2,
            "color": "bebebeff",
            "inner": false,
            "nm": 0,
            "x": 0,
            "y": 0
        }
    },
    "iphone": {
        "isForked": true,
        "shadow": {
            "br": 2,
            "color": "bebebeff",
            "inner": false,
            "nm": 0,
            "x": 0,
            "y": 0
        }
    },
    "isDefaultSkin": false,
    "kuid": "sf898b16d49d49aca50316dda7d4acba",
    "spaan": {
        "bottom_left_border_color": "00000000",
        "bottom_left_border_radius": "3",
        "bottom_left_border_style": "rc",
        "bottom_left_border_width": 1,
        "bottom_right_border_color": "00000000",
        "bottom_right_border_radius": "3",
        "bottom_right_border_style": "rc",
        "bottom_right_border_width": 1,
        "isForked": true,
        "shadow": {
            "br": 2,
            "color": "bebebeff",
            "inner": false,
            "nm": 0,
            "x": 0,
            "y": 0
        },
        "top_left_border_color": "00000000",
        "top_left_border_radius": "3",
        "top_left_border_style": "rc",
        "top_left_border_width": 1,
        "top_right_border_color": "00000000",
        "top_right_border_radius": "3",
        "top_right_border_style": "rc",
        "top_right_border_width": 1
    },
    "spaandroidtablet": {
        "bottom_left_border_color": "00000000",
        "bottom_left_border_radius": "3",
        "bottom_left_border_style": "rc",
        "bottom_left_border_width": 1,
        "bottom_right_border_color": "00000000",
        "bottom_right_border_radius": "3",
        "bottom_right_border_style": "rc",
        "bottom_right_border_width": 1,
        "isForked": true,
        "shadow": {
            "br": 2,
            "color": "bebebeff",
            "inner": false,
            "nm": 0,
            "x": 0,
            "y": 0
        },
        "top_left_border_color": "00000000",
        "top_left_border_radius": "3",
        "top_left_border_style": "rc",
        "top_left_border_width": 1,
        "top_right_border_color": "00000000",
        "top_right_border_radius": "3",
        "top_right_border_style": "rc",
        "top_right_border_width": 1
    },
    "spaip": {
        "bottom_left_border_color": "00000000",
        "bottom_left_border_radius": "3",
        "bottom_left_border_style": "rc",
        "bottom_left_border_width": 1,
        "bottom_right_border_color": "00000000",
        "bottom_right_border_radius": "3",
        "bottom_right_border_style": "rc",
        "bottom_right_border_width": 1,
        "isForked": true,
        "shadow": {
            "br": 2,
            "color": "bebebeff",
            "inner": false,
            "nm": 0,
            "x": 0,
            "y": 0
        },
        "top_left_border_color": "00000000",
        "top_left_border_radius": "3",
        "top_left_border_style": "rc",
        "top_left_border_width": 1,
        "top_right_border_color": "00000000",
        "top_right_border_radius": "3",
        "top_right_border_style": "rc",
        "top_right_border_width": 1
    },
    "spaipad": {
        "bottom_left_border_color": "00000000",
        "bottom_left_border_radius": "3",
        "bottom_left_border_style": "rc",
        "bottom_left_border_width": 1,
        "bottom_right_border_color": "00000000",
        "bottom_right_border_radius": "3",
        "bottom_right_border_style": "rc",
        "bottom_right_border_width": 1,
        "isForked": true,
        "shadow": {
            "br": 2,
            "color": "bebebeff",
            "inner": false,
            "nm": 0,
            "x": 0,
            "y": 0
        },
        "top_left_border_color": "00000000",
        "top_left_border_radius": "3",
        "top_left_border_style": "rc",
        "top_left_border_width": 1,
        "top_right_border_color": "00000000",
        "top_right_border_radius": "3",
        "top_right_border_style": "rc",
        "top_right_border_width": 1
    },
    "spawindowstablet": {
        "bottom_left_border_color": "00000000",
        "bottom_left_border_radius": "3",
        "bottom_left_border_style": "rc",
        "bottom_left_border_width": 1,
        "bottom_right_border_color": "00000000",
        "bottom_right_border_radius": "3",
        "bottom_right_border_style": "rc",
        "bottom_right_border_width": 1,
        "isForked": true,
        "shadow": {
            "br": 2,
            "color": "bebebeff",
            "inner": false,
            "nm": 0,
            "x": 0,
            "y": 0
        },
        "top_left_border_color": "00000000",
        "top_left_border_radius": "3",
        "top_left_border_style": "rc",
        "top_left_border_width": 1,
        "top_right_border_color": "00000000",
        "top_right_border_radius": "3",
        "top_right_border_style": "rc",
        "top_right_border_width": 1
    },
    "spawinphone8": {
        "bottom_left_border_color": "00000000",
        "bottom_left_border_radius": "3",
        "bottom_left_border_style": "rc",
        "bottom_left_border_width": 1,
        "bottom_right_border_color": "00000000",
        "bottom_right_border_radius": "3",
        "bottom_right_border_style": "rc",
        "bottom_right_border_width": 1,
        "isForked": true,
        "shadow": {
            "br": 2,
            "color": "bebebeff",
            "inner": false,
            "nm": 0,
            "x": 0,
            "y": 0
        },
        "top_left_border_color": "00000000",
        "top_left_border_radius": "3",
        "top_left_border_style": "rc",
        "top_left_border_width": 1,
        "top_right_border_color": "00000000",
        "top_right_border_radius": "3",
        "top_right_border_style": "rc",
        "top_right_border_width": 1
    },
    "wType": "FlexContainer"
}