{
    "android": {
        "font_size": 125,
        "isForked": false
    },
    "androidwearos": {
        "font_size": 125,
        "isForked": false
    },
    "background_color": "00000000",
    "bg_type": "one",
    "border_color": "424242ff",
    "border_style": "plain",
    "border_type": 0,
    "border_width": 0,
    "desktopweb": {
        "font_name": "Lato-Regular",
        "font_size": 125,
        "isForked": false
    },
    "fontSizeInPx": false,
    "font_color": "424242ff",
    "font_name": "Helvetica",
    "font_size": 125,
    "font_style": "normal",
    "font_weight": "bold",
    "ipad": {
        "font_size": 125,
        "isForked": false
    },
    "iphone": {
        "font_size": 125,
        "isForked": false
    },
    "isDefaultSkin": false,
    "kiosk": {
        "font_size": 125,
        "isForked": false
    },
    "kuid": "s9167f8889fc42679b625c61da6baa04",
    "spaan": {
        "font_size": 125,
        "isForked": false
    },
    "spaandroidtablet": {
        "font_size": 125,
        "isForked": false
    },
    "spaip": {
        "font_size": 125,
        "isForked": false
    },
    "spaipad": {
        "font_size": 125,
        "isForked": false
    },
    "spawindowstablet": {
        "font_size": 125,
        "isForked": false
    },
    "spawinphone8": {
        "font_size": 125,
        "isForked": false
    },
    "tabrcandroid": {
        "font_size": 125,
        "isForked": false
    },
    "wType": "Label",
    "watchos": {
        "font_size": 125,
        "isForked": false
    },
    "windows8": {
        "font_size": 125,
        "isForked": false
    },
    "winphone8": {
        "font_size": 125,
        "isForked": false
    }
}