{
    "background_color": "00000072",
    "bg_type": "one",
    "border_color": "000000ff",
    "border_style": "plain",
    "border_type": 0,
    "border_width": 0,
    "isDefaultSkin": false,
    "kuid": "sfd1c798017a422188b74a00f87e6f69",
    "wType": "FlexContainer"
}