{
    "background_color": "ffffff4c",
    "bg_type": "one",
    "border_color": "000000ff",
    "border_style": "plain",
    "border_type": 0,
    "border_width": 0,
    "isDefaultSkin": false,
    "kuid": "s024b0e392084fb28cc8f8341acfe8aa",
    "wType": "FlexContainer"
}