{
    "background_color": "ffffffff",
    "bg_type": "one",
    "border_color": "424242ff",
    "border_style": "plain",
    "border_type": 0,
    "border_width": 1,
    "desktopweb": {
        "border_type": 0,
        "bottom_left_border_color": "e3e3e3ff",
        "bottom_left_border_radius": "2",
        "bottom_left_border_style": "rc",
        "bottom_left_border_width": 1,
        "bottom_right_border_color": "e3e3e3ff",
        "bottom_right_border_radius": "2",
        "bottom_right_border_style": "rc",
        "bottom_right_border_width": 1,
        "isForked": true,
        "top_left_border_color": "e3e3e3ff",
        "top_left_border_radius": "2",
        "top_left_border_style": "rc",
        "top_left_border_width": 1,
        "top_right_border_color": "e3e3e3ff",
        "top_right_border_radius": "2",
        "top_right_border_style": "rc",
        "top_right_border_width": 1
    },
    "font_color": "424242ff",
    "font_name": "Helvetica",
    "font_size": 126,
    "font_style": "normal",
    "font_weight": "normal",
    "isDefaultSkin": false,
    "kuid": "s5e38fc03b404921a6e6d273eb77dc41",
    "spaan": {
        "border_type": 0,
        "bottom_left_border_color": "e3e3e3ff",
        "bottom_left_border_radius": "2",
        "bottom_left_border_style": "rc",
        "bottom_left_border_width": 1,
        "bottom_right_border_color": "e3e3e3ff",
        "bottom_right_border_radius": "2",
        "bottom_right_border_style": "rc",
        "bottom_right_border_width": 1,
        "isForked": true,
        "top_left_border_color": "e3e3e3ff",
        "top_left_border_radius": "2",
        "top_left_border_style": "rc",
        "top_left_border_width": 1,
        "top_right_border_color": "e3e3e3ff",
        "top_right_border_radius": "2",
        "top_right_border_style": "rc",
        "top_right_border_width": 1
    },
    "spaandroidtablet": {
        "border_type": 0,
        "bottom_left_border_color": "e3e3e3ff",
        "bottom_left_border_radius": "2",
        "bottom_left_border_style": "rc",
        "bottom_left_border_width": 1,
        "bottom_right_border_color": "e3e3e3ff",
        "bottom_right_border_radius": "2",
        "bottom_right_border_style": "rc",
        "bottom_right_border_width": 1,
        "isForked": true,
        "top_left_border_color": "e3e3e3ff",
        "top_left_border_radius": "2",
        "top_left_border_style": "rc",
        "top_left_border_width": 1,
        "top_right_border_color": "e3e3e3ff",
        "top_right_border_radius": "2",
        "top_right_border_style": "rc",
        "top_right_border_width": 1
    },
    "spaip": {
        "border_type": 0,
        "bottom_left_border_color": "e3e3e3ff",
        "bottom_left_border_radius": "2",
        "bottom_left_border_style": "rc",
        "bottom_left_border_width": 1,
        "bottom_right_border_color": "e3e3e3ff",
        "bottom_right_border_radius": "2",
        "bottom_right_border_style": "rc",
        "bottom_right_border_width": 1,
        "isForked": true,
        "top_left_border_color": "e3e3e3ff",
        "top_left_border_radius": "2",
        "top_left_border_style": "rc",
        "top_left_border_width": 1,
        "top_right_border_color": "e3e3e3ff",
        "top_right_border_radius": "2",
        "top_right_border_style": "rc",
        "top_right_border_width": 1
    },
    "spaipad": {
        "border_type": 0,
        "bottom_left_border_color": "e3e3e3ff",
        "bottom_left_border_radius": "2",
        "bottom_left_border_style": "rc",
        "bottom_left_border_width": 1,
        "bottom_right_border_color": "e3e3e3ff",
        "bottom_right_border_radius": "2",
        "bottom_right_border_style": "rc",
        "bottom_right_border_width": 1,
        "isForked": true,
        "top_left_border_color": "e3e3e3ff",
        "top_left_border_radius": "2",
        "top_left_border_style": "rc",
        "top_left_border_width": 1,
        "top_right_border_color": "e3e3e3ff",
        "top_right_border_radius": "2",
        "top_right_border_style": "rc",
        "top_right_border_width": 1
    },
    "spawindowstablet": {
        "border_type": 0,
        "bottom_left_border_color": "e3e3e3ff",
        "bottom_left_border_radius": "2",
        "bottom_left_border_style": "rc",
        "bottom_left_border_width": 1,
        "bottom_right_border_color": "e3e3e3ff",
        "bottom_right_border_radius": "2",
        "bottom_right_border_style": "rc",
        "bottom_right_border_width": 1,
        "isForked": true,
        "top_left_border_color": "e3e3e3ff",
        "top_left_border_radius": "2",
        "top_left_border_style": "rc",
        "top_left_border_width": 1,
        "top_right_border_color": "e3e3e3ff",
        "top_right_border_radius": "2",
        "top_right_border_style": "rc",
        "top_right_border_width": 1
    },
    "spawinphone8": {
        "border_type": 0,
        "bottom_left_border_color": "e3e3e3ff",
        "bottom_left_border_radius": "2",
        "bottom_left_border_style": "rc",
        "bottom_left_border_width": 1,
        "bottom_right_border_color": "e3e3e3ff",
        "bottom_right_border_radius": "2",
        "bottom_right_border_style": "rc",
        "bottom_right_border_width": 1,
        "isForked": true,
        "top_left_border_color": "e3e3e3ff",
        "top_left_border_radius": "2",
        "top_left_border_style": "rc",
        "top_left_border_width": 1,
        "top_right_border_color": "e3e3e3ff",
        "top_right_border_radius": "2",
        "top_right_border_style": "rc",
        "top_right_border_width": 1
    },
    "wType": "TextField"
}