{
  "background_color": "e3e3e300",
  "bg_type": "one",
  "border_color": "000000ff",
  "border_style": "plain",
  "border_type": 0,
  "border_width": 0,
  "isDefaultSkin": false,
  "kuid": "sa7d8ee21adb4036b27346c07e0009a9",
  "wType": "FlexContainer"
}