{
    "background_color": "ffffffff",
    "bg_type": "one",
    "border_color": "000000ff",
    "border_style": "plain",
    "border_type": 0,
    "border_width": 0,
    "isDefaultSkin": false,
    "kuid": "s7934a2b7c29402eb9ecfda7a580dff3",
    "wType": "FlexScrollContainer"
}