{
    "android": {
        "font_size": 50,
        "isForked": false
    },
    "androidwearos": {
        "font_size": 64,
        "isForked": false
    },
    "background_color": "ffffffff",
    "bg_type": "one",
    "border_color": "424242ff",
    "border_style": "plain",
    "border_type": 0,
    "border_width": 0,
    "desktopweb": {
        "font_name": "OLB_font_icons",
        "font_size": 150,
        "isForked": false
    },
    "fontSizeInPx": true,
    "font_color": "2a9e07ff",
    "font_name": "Helvetica",
    "font_size": 150,
    "font_style": "normal",
    "font_weight": "normal",
    "ipad": {
        "font_size": 64,
        "isForked": false
    },
    "iphone": {
        "font_size": 62,
        "isForked": false
    },
    "isDefaultSkin": false,
    "kiosk": {
        "font_size": 113,
        "isForked": false
    },
    "kuid": "s66a36cbb9cf482d84cf040e7b14f5ec",
    "spaan": {
        "font_size": 150,
        "isForked": false
    },
    "spaandroidtablet": {
        "font_size": 150,
        "isForked": false
    },
    "spaip": {
        "font_size": 116,
        "isForked": false
    },
    "spaipad": {
        "font_size": 150,
        "isForked": false
    },
    "spawindowstablet": {
        "font_size": 150,
        "isForked": false
    },
    "spawinphone8": {
        "font_size": 150,
        "isForked": false
    },
    "tabrcandroid": {
        "font_size": 107,
        "isForked": false
    },
    "wType": "Label",
    "watchos": {
        "font_size": 64,
        "isForked": false
    },
    "windows8": {
        "font_size": 44,
        "isForked": false
    },
    "winphone8": {
        "font_size": 60,
        "isForked": false
    }
}