{
  "android": {
    "background_color": "f8f7f8ff",
    "bg_type": "one",
    "font_color": "424242ff",
    "font_size": 47,
    "isForked": true,
    "text_shadow": {
      "br": 0,
      "color": "000000ff",
      "nm": 0,
      "x": 0,
      "y": 0
    }
  },
  "androidwearos": {
    "background_color": "f8f7f8ff",
    "bg_type": "one",
    "font_size": 61,
    "isForked": true
  },
  "background_color": "003e75ff",
  "bg_type": "one",
  "border_color": "ffffffff",
  "border_style": "plain",
  "border_type": 0,
  "border_width": 0,
  "desktopweb": {
    "background_color": "f8f7f8ff",
    "bg_type": "one",
    "border_type": 0,
    "bottom_left_border_color": "a0a0a07f",
    "bottom_left_border_style": "plain",
    "bottom_left_border_width": "0",
    "bottom_right_border_color": "003e75ff",
    "bottom_right_border_style": "plain",
    "bottom_right_border_width": "3",
    "font_color": "424242ff",
    "font_name": "SourceSansPro-Regular",
    "font_size": 142,
    "isForked": true,
    "shadow": {
      "br": 0,
      "color": "000000ff",
      "inner": false,
      "nm": 0,
      "x": 0,
      "y": 0
    },
    "text_shadow": {
      "br": 0,
      "color": "000000ff",
      "nm": 0,
      "x": 0,
      "y": 0
    },
    "top_left_border_color": "ffffffff",
    "top_left_border_style": "plain",
    "top_left_border_width": "0",
    "top_right_border_color": "a0a0a07f",
    "top_right_border_style": "plain",
    "top_right_border_width": "0"
  },
  "fontSizeInPx": true,
  "font_color": "ffffffff",
  "font_name": "Helvetica",
  "font_size": 148,
  "font_style": "normal",
  "font_weight": "normal",
  "ipad": {
    "background_color": "f8f7f8ff",
    "bg_type": "one",
    "font_color": "424242ff",
    "font_size": 61,
    "isForked": true,
    "text_shadow": {
      "br": 0,
      "color": "000000ff",
      "nm": 0,
      "x": 0,
      "y": 0
    }
  },
  "iphone": {
    "background_color": "f8f7f8ff",
    "bg_type": "one",
    "font_color": "424242ff",
    "font_size": 59,
    "isForked": true,
    "text_shadow": {
      "br": 0,
      "color": "000000ff",
      "nm": 0,
      "x": 0,
      "y": 0
    }
  },
  "isDefaultSkin": false,
  "kiosk": {
    "background_color": "f8f7f8ff",
    "bg_type": "one",
    "font_color": "424242ff",
    "font_size": 106,
    "isForked": true
  },
  "kuid": "s8bbc18cc4c74ba583d48eefb89a1827",
  "spaan": {
    "background_color": "f8f7f8ff",
    "bg_type": "one",
    "border_type": 0,
    "bottom_left_border_color": "a0a0a07f",
    "bottom_left_border_style": "plain",
    "bottom_left_border_width": "0",
    "bottom_right_border_color": "003e75ff",
    "bottom_right_border_style": "plain",
    "bottom_right_border_width": "3",
    "font_color": "424242ff",
    "font_name": "SourceSansPro-Regular",
    "font_size": 113,
    "isForked": true,
    "shadow": {
      "br": 0,
      "color": "000000ff",
      "inner": false,
      "nm": 0,
      "x": 0,
      "y": 0
    },
    "text_shadow": {
      "br": 0,
      "color": "000000ff",
      "nm": 0,
      "x": 0,
      "y": 0
    },
    "top_left_border_color": "ffffffff",
    "top_left_border_style": "plain",
    "top_left_border_width": "0",
    "top_right_border_color": "a0a0a07f",
    "top_right_border_style": "plain",
    "top_right_border_width": "0"
  },
  "spaandroidtablet": {
    "background_color": "f8f7f8ff",
    "bg_type": "one",
    "border_type": 0,
    "bottom_left_border_color": "a0a0a07f",
    "bottom_left_border_style": "plain",
    "bottom_left_border_width": "0",
    "bottom_right_border_color": "003e75ff",
    "bottom_right_border_style": "plain",
    "bottom_right_border_width": "3",
    "font_color": "424242ff",
    "font_name": "SourceSansPro-Regular",
    "font_size": 94,
    "isForked": true,
    "shadow": {
      "br": 0,
      "color": "000000ff",
      "inner": false,
      "nm": 0,
      "x": 0,
      "y": 0
    },
    "text_shadow": {
      "br": 0,
      "color": "000000ff",
      "nm": 0,
      "x": 0,
      "y": 0
    },
    "top_left_border_color": "ffffffff",
    "top_left_border_style": "plain",
    "top_left_border_width": "0",
    "top_right_border_color": "a0a0a07f",
    "top_right_border_style": "plain",
    "top_right_border_width": "0"
  },
  "spaip": {
    "background_color": "f8f7f8ff",
    "bg_type": "one",
    "border_type": 0,
    "bottom_left_border_color": "a0a0a07f",
    "bottom_left_border_style": "plain",
    "bottom_left_border_width": "0",
    "bottom_right_border_color": "003e75ff",
    "bottom_right_border_style": "plain",
    "bottom_right_border_width": "3",
    "font_color": "424242ff",
    "font_name": "SourceSansPro-Regular",
    "font_size": 110,
    "isForked": true,
    "shadow": {
      "br": 0,
      "color": "000000ff",
      "inner": false,
      "nm": 0,
      "x": 0,
      "y": 0
    },
    "text_shadow": {
      "br": 0,
      "color": "000000ff",
      "nm": 0,
      "x": 0,
      "y": 0
    },
    "top_left_border_color": "ffffffff",
    "top_left_border_style": "plain",
    "top_left_border_width": "0",
    "top_right_border_color": "a0a0a07f",
    "top_right_border_style": "plain",
    "top_right_border_width": "0"
  },
  "spaipad": {
    "background_color": "f8f7f8ff",
    "bg_type": "one",
    "border_type": 0,
    "bottom_left_border_color": "a0a0a07f",
    "bottom_left_border_style": "plain",
    "bottom_left_border_width": "0",
    "bottom_right_border_color": "003e75ff",
    "bottom_right_border_style": "plain",
    "bottom_right_border_width": "3",
    "font_color": "424242ff",
    "font_name": "SourceSansPro-Regular",
    "font_size": 100,
    "isForked": true,
    "shadow": {
      "br": 0,
      "color": "000000ff",
      "inner": false,
      "nm": 0,
      "x": 0,
      "y": 0
    },
    "text_shadow": {
      "br": 0,
      "color": "000000ff",
      "nm": 0,
      "x": 0,
      "y": 0
    },
    "top_left_border_color": "ffffffff",
    "top_left_border_style": "plain",
    "top_left_border_width": "0",
    "top_right_border_color": "a0a0a07f",
    "top_right_border_style": "plain",
    "top_right_border_width": "0"
  },
  "spawindowstablet": {
    "background_color": "f8f7f8ff",
    "bg_type": "one",
    "border_type": 0,
    "bottom_left_border_color": "a0a0a07f",
    "bottom_left_border_style": "plain",
    "bottom_left_border_width": "0",
    "bottom_right_border_color": "003e75ff",
    "bottom_right_border_style": "plain",
    "bottom_right_border_width": "3",
    "font_color": "424242ff",
    "font_size": 100,
    "isForked": true,
    "shadow": {
      "br": 0,
      "color": "000000ff",
      "inner": false,
      "nm": 0,
      "x": 0,
      "y": 0
    },
    "text_shadow": {
      "br": 0,
      "color": "000000ff",
      "nm": 0,
      "x": 0,
      "y": 0
    },
    "top_left_border_color": "ffffffff",
    "top_left_border_style": "plain",
    "top_left_border_width": "0",
    "top_right_border_color": "a0a0a07f",
    "top_right_border_style": "plain",
    "top_right_border_width": "0"
  },
  "spawinphone8": {
    "background_color": "f8f7f8ff",
    "bg_type": "one",
    "border_type": 0,
    "bottom_left_border_color": "a0a0a07f",
    "bottom_left_border_style": "plain",
    "bottom_left_border_width": "0",
    "bottom_right_border_color": "003e75ff",
    "bottom_right_border_style": "plain",
    "bottom_right_border_width": "3",
    "font_color": "424242ff",
    "font_size": 142,
    "isForked": true,
    "shadow": {
      "br": 0,
      "color": "000000ff",
      "inner": false,
      "nm": 0,
      "x": 0,
      "y": 0
    },
    "text_shadow": {
      "br": 0,
      "color": "000000ff",
      "nm": 0,
      "x": 0,
      "y": 0
    },
    "top_left_border_color": "ffffffff",
    "top_left_border_style": "plain",
    "top_left_border_width": "0",
    "top_right_border_color": "a0a0a07f",
    "top_right_border_style": "plain",
    "top_right_border_width": "0"
  },
  "tabrcandroid": {
    "background_color": "f8f7f8ff",
    "bg_type": "one",
    "font_color": "424242ff",
    "font_size": 101,
    "isForked": true,
    "text_shadow": {
      "br": 0,
      "color": "000000ff",
      "nm": 0,
      "x": 0,
      "y": 0
    }
  },
  "wType": "Button",
  "watchos": {
    "background_color": "f8f7f8ff",
    "bg_type": "one",
    "font_color": "424242ff",
    "font_size": 61,
    "isForked": true
  },
  "windows8": {
    "background_color": "f8f7f8ff",
    "bg_type": "one",
    "font_color": "424242ff",
    "font_size": 41,
    "isForked": true
  },
  "winphone8": {
    "background_color": "f8f7f8ff",
    "bg_type": "one",
    "font_color": "424242ff",
    "font_size": 57,
    "isForked": true
  }
}