{
  "background_color": "e3e3e399",
  "bg_type": "one",
  "border_color": "000000ff",
  "border_style": "plain",
  "border_type": 0,
  "border_width": 0,
  "isDefaultSkin": false,
  "kuid": "s3bd38ffdb374ddfb5e1cef876b79oiy",
  "wType": "FlexContainer"
}