{
    "background_color": "e8edf600",
    "bg_type": "one",
    "border_color": "e8edf600",
    "border_style": "plain",
    "border_type": 0,
    "border_width": 0,
    "isDefaultSkin": false,
    "kuid": "s9a73da5aea84b929fece5f3200580c0",
    "wType": "FlexContainer"
}