{
  "android": {
    "font_size": 31,
    "isForked": true
  },
  "androidwearos": {
    "font_size": 54,
    "isForked": false
  },
  "background_color": "00000000",
  "bg_type": "one",
  "border_color": "424242ff",
  "border_style": "plain",
  "border_type": 0,
  "border_width": 0,
  "desktopweb": {
    "font_name": "SourceSansPro-Regular",
    "font_size": 108,
    "isForked": true
  },
  "fontSizeInPx": true,
  "font_color": "424242ff",
  "font_name": "Helvetica",
  "font_size": 52,
  "font_style": "normal",
  "font_weight": "normal",
  "ipad": {
    "font_size": 46,
    "isForked": true
  },
  "iphone": {
    "font_size": 46,
    "isForked": true
  },
  "isDefaultSkin": false,
  "kiosk": {
    "font_size": 81,
    "isForked": true
  },
  "kuid": "scb492b6c16243379d2097119f1f5e65",
  "spaan": {
    "font_size": 108,
    "isForked": true
  },
  "spaandroidtablet": {
    "font_size": 108,
    "isForked": true
  },
  "spaip": {
    "font_size": 108,
    "isForked": true
  },
  "spaipad": {
    "font_name": "SourceSansPro-Regular",
    "font_size": 108,
    "isForked": true
  },
  "spawindowstablet": {
    "font_size": 108,
    "isForked": true
  },
  "spawinphone8": {
    "font_size": 108,
    "isForked": true
  },
  "tabrcandroid": {
    "font_size": 77,
    "isForked": true
  },
  "wType": "Label",
  "watchos": {
    "font_size": 46,
    "isForked": true
  },
  "windows8": {
    "font_size": 32,
    "isForked": true
  },
  "winphone8": {
    "font_size": 43,
    "isForked": true
  }
}