{
  "android": {
    "font_name": "default",
    "font_size": 42,
    "isForked": false
  },
  "androidwearos": {
    "font_name": "default",
    "font_size": 54,
    "isForked": false
  },
  "background_color": "003e75ff",
  "bg_type": "one",
  "border_color": "ffffff00",
  "border_radius": 3,
  "border_style": "custom",
  "border_type": 0,
  "border_width": 1,
  "desktopweb": {
    "font_name": "SourceSansPro-Regular",
    "font_size": 94,
    "isForked": false
  },
  "fontSizeInPx": true,
  "font_color": "ffffffff",
  "font_name": "iphoneSystem",
  "font_size": 94,
  "font_style": "normal",
  "font_weight": "400",
  "ipad": {
    "font_name": "System",
    "font_size": 54,
    "isForked": false
  },
  "iphone": {
    "font_name": "System",
    "font_size": 52,
    "isForked": false
  },
  "isDefaultSkin": false,
  "kiosk": {
    "font_name": "None",
    "font_size": 94,
    "isForked": false
  },
  "kuid": "s8d7f7f1cbdc48acbe0d2f944df0794f",
  "spaan": {
    "font_name": "Helvetica",
    "font_size": 100,
    "isForked": false
  },
  "spaandroidtablet": {
    "font_name": "Helvetica",
    "font_size": 83,
    "isForked": false
  },
  "spaip": {
    "font_name": "Helvetica",
    "font_size": 97,
    "isForked": false
  },
  "spaipad": {
    "font_name": "Helvetica",
    "font_size": 88,
    "isForked": false
  },
  "spawindowstablet": {
    "font_name": "Helvetica",
    "font_size": 88,
    "isForked": false
  },
  "spawinphone8": {
    "font_name": "Helvetica",
    "font_size": 125,
    "isForked": false
  },
  "tabrcandroid": {
    "font_name": "default",
    "font_size": 89,
    "isForked": false
  },
  "wType": "Button",
  "watchos": {
    "font_name": "System",
    "font_size": 54,
    "isForked": false
  },
  "windows8": {
    "font_name": "None",
    "font_size": 37,
    "isForked": false
  },
  "winphone8": {
    "font_name": "None",
    "font_size": 50,
    "isForked": false
  }
}