{
  "android": {
    "font_size": 47,
    "isForked": false
  },
  "androidwearos": {
    "font_size": 61,
    "isForked": false
  },
  "background_color": "00000000",
  "bg_type": "one",
  "border_color": "424242ff",
  "border_style": "plain",
  "border_type": 0,
  "border_width": 0,
  "desktopweb": {
    "font_name": "olb_fonts",
    "font_size": 142,
    "isForked": false
  },
  "fontSizeInPx": true,
  "font_color": "003e75ff",
  "font_name": "Helvetica",
  "font_size": 59,
  "font_style": "normal",
  "font_weight": "normal",
  "ipad": {
    "font_size": 61,
    "isForked": false
  },
  "iphone": {
    "font_size": 59,
    "isForked": false
  },
  "isDefaultSkin": false,
  "kiosk": {
    "font_size": 106,
    "isForked": false
  },
  "kuid": "s3e63ea9f083459c9fffb6971abc1020",
  "spaan": {
    "font_size": 38,
    "isForked": false
  },
  "spaandroidtablet": {
    "font_size": 31,
    "isForked": false
  },
  "spaip": {
    "font_size": 37,
    "isForked": false
  },
  "spaipad": {
    "font_name": "SourceSansPro-Regular",
    "font_size": 33,
    "isForked": false
  },
  "spawindowstablet": {
    "font_size": 33,
    "isForked": false
  },
  "spawinphone8": {
    "font_size": 47,
    "isForked": false
  },
  "tabrcandroid": {
    "font_size": 101,
    "isForked": false
  },
  "wType": "Label",
  "watchos": {
    "font_size": 61,
    "isForked": false
  },
  "windows8": {
    "font_size": 41,
    "isForked": false
  },
  "winphone8": {
    "font_size": 57,
    "isForked": false
  }
}