{
  "background_color": "e3e3e3ff",
  "bg_type": "one",
  "border_color": "000000ff",
  "border_style": "plain",
  "border_type": 0,
  "border_width": 0,
  "isDefaultSkin": false,
  "kuid": "s8a89175ff834b15a815057b9b122a57",
  "wType": "FlexContainer"
}