{
    "background_color": "ffffffff",
    "bg_type": "one",
    "border_color": "c0c0c000",
    "border_style": "plain",
    "border_type": 0,
    "border_width": 3,
    "desktopweb": {
        "border_type": 0,
        "bottom_left_border_color": "e3e3e3ff",
        "bottom_left_border_style": "plain",
        "bottom_left_border_width": "0",
        "bottom_right_border_color": "e3e3e3ff",
        "bottom_right_border_style": "plain",
        "bottom_right_border_width": "0",
        "customCSS": "cursor:pointer;",
        "isCustomCSSEnabled": true,
        "isForked": true,
        "shadow": {
            "br": 0,
            "color": "bebebeff",
            "inner": false,
            "nm": 0,
            "x": 0,
            "y": 0
        },
        "top_left_border_color": "e3e3e3ff",
        "top_left_border_style": "plain",
        "top_left_border_width": "0",
        "top_right_border_color": "e3e3e3ff",
        "top_right_border_style": "plain",
        "top_right_border_width": "0"
    },
    "ipad": {
        "isForked": true,
        "shadow": {
            "br": 0,
            "color": "bebebeff",
            "inner": false,
            "nm": 0,
            "x": 0,
            "y": 0
        }
    },
    "iphone": {
        "isForked": true,
        "shadow": {
            "br": 0,
            "color": "bebebeff",
            "inner": false,
            "nm": 0,
            "x": 0,
            "y": 0
        }
    },
    "isDefaultSkin": false,
    "kuid": "s1e70102c7a44d0a8361136bfdc1dcd3",
    "spaan": {
        "border_type": 0,
        "bottom_left_border_color": "e3e3e3ff",
        "bottom_left_border_style": "plain",
        "bottom_left_border_width": "0",
        "bottom_right_border_color": "e3e3e3ff",
        "bottom_right_border_style": "plain",
        "bottom_right_border_width": "0",
        "customCSS": "cursor:pointer;",
        "isCustomCSSEnabled": true,
        "isForked": true,
        "shadow": {
            "br": 0,
            "color": "bebebeff",
            "inner": false,
            "nm": 0,
            "x": 0,
            "y": 0
        },
        "top_left_border_color": "e3e3e3ff",
        "top_left_border_style": "plain",
        "top_left_border_width": "0",
        "top_right_border_color": "e3e3e3ff",
        "top_right_border_style": "plain",
        "top_right_border_width": "0"
    },
    "spaandroidtablet": {
        "border_type": 0,
        "bottom_left_border_color": "e3e3e3ff",
        "bottom_left_border_style": "plain",
        "bottom_left_border_width": "0",
        "bottom_right_border_color": "e3e3e3ff",
        "bottom_right_border_style": "plain",
        "bottom_right_border_width": "0",
        "customCSS": "cursor:pointer;",
        "isCustomCSSEnabled": true,
        "isForked": true,
        "shadow": {
            "br": 0,
            "color": "bebebeff",
            "inner": false,
            "nm": 0,
            "x": 0,
            "y": 0
        },
        "top_left_border_color": "e3e3e3ff",
        "top_left_border_style": "plain",
        "top_left_border_width": "0",
        "top_right_border_color": "e3e3e3ff",
        "top_right_border_style": "plain",
        "top_right_border_width": "0"
    },
    "spaip": {
        "border_type": 0,
        "bottom_left_border_color": "e3e3e3ff",
        "bottom_left_border_style": "plain",
        "bottom_left_border_width": "0",
        "bottom_right_border_color": "e3e3e3ff",
        "bottom_right_border_style": "plain",
        "bottom_right_border_width": "0",
        "customCSS": "cursor:pointer;",
        "isCustomCSSEnabled": true,
        "isForked": true,
        "shadow": {
            "br": 0,
            "color": "bebebeff",
            "inner": false,
            "nm": 0,
            "x": 0,
            "y": 0
        },
        "top_left_border_color": "e3e3e3ff",
        "top_left_border_style": "plain",
        "top_left_border_width": "0",
        "top_right_border_color": "e3e3e3ff",
        "top_right_border_style": "plain",
        "top_right_border_width": "0"
    },
    "spaipad": {
        "border_type": 0,
        "bottom_left_border_color": "e3e3e3ff",
        "bottom_left_border_style": "plain",
        "bottom_left_border_width": "0",
        "bottom_right_border_color": "e3e3e3ff",
        "bottom_right_border_style": "plain",
        "bottom_right_border_width": "0",
        "customCSS": "cursor:pointer;",
        "isCustomCSSEnabled": true,
        "isForked": true,
        "shadow": {
            "br": 0,
            "color": "bebebeff",
            "inner": false,
            "nm": 0,
            "x": 0,
            "y": 0
        },
        "top_left_border_color": "e3e3e3ff",
        "top_left_border_style": "plain",
        "top_left_border_width": "0",
        "top_right_border_color": "e3e3e3ff",
        "top_right_border_style": "plain",
        "top_right_border_width": "0"
    },
    "spawindowstablet": {
        "border_type": 0,
        "bottom_left_border_color": "e3e3e3ff",
        "bottom_left_border_style": "plain",
        "bottom_left_border_width": "0",
        "bottom_right_border_color": "e3e3e3ff",
        "bottom_right_border_style": "plain",
        "bottom_right_border_width": "0",
        "customCSS": "cursor:pointer;",
        "isCustomCSSEnabled": true,
        "isForked": true,
        "shadow": {
            "br": 0,
            "color": "bebebeff",
            "inner": false,
            "nm": 0,
            "x": 0,
            "y": 0
        },
        "top_left_border_color": "e3e3e3ff",
        "top_left_border_style": "plain",
        "top_left_border_width": "0",
        "top_right_border_color": "e3e3e3ff",
        "top_right_border_style": "plain",
        "top_right_border_width": "0"
    },
    "spawinphone8": {
        "border_type": 0,
        "bottom_left_border_color": "e3e3e3ff",
        "bottom_left_border_style": "plain",
        "bottom_left_border_width": "0",
        "bottom_right_border_color": "e3e3e3ff",
        "bottom_right_border_style": "plain",
        "bottom_right_border_width": "0",
        "customCSS": "cursor:pointer;",
        "isCustomCSSEnabled": true,
        "isForked": true,
        "shadow": {
            "br": 0,
            "color": "bebebeff",
            "inner": false,
            "nm": 0,
            "x": 0,
            "y": 0
        },
        "top_left_border_color": "e3e3e3ff",
        "top_left_border_style": "plain",
        "top_left_border_width": "0",
        "top_right_border_color": "e3e3e3ff",
        "top_right_border_style": "plain",
        "top_right_border_width": "0"
    },
    "wType": "FlexContainer"
}