{
  "background_color": "f9f9f9ff",
  "bg_type": "one",
  "border_color": "000000ff",
  "border_style": "plain",
  "border_type": 0,
  "border_width": 0,
  "isDefaultSkin": false,
  "kuid": "s09037532683470198419880d46fbd7e",
  "wType": "FlexContainer"
}