{
  "android": {
    "font_name": "default",
    "font_size": 36,
    "isForked": false
  },
  "androidwearos": {
    "font_name": "default",
    "font_size": 46,
    "isForked": false
  },
  "background_color": "ffffff00",
  "bg_type": "one",
  "border_color": "333333ff",
  "border_style": "plain",
  "border_type": 0,
  "border_width": 0,
  "desktopweb": {
    "font_name": "SourceSansPro-Regular",
    "font_size": 81,
    "isForked": false
  },
  "fontSizeInPx": true,
  "font_color": "727272ff",
  "font_name": "iphoneSystem",
  "font_size": 81,
  "ipad": {
    "font_name": "System",
    "font_size": 46,
    "isForked": false
  },
  "iphone": {
    "font_name": "System",
    "font_size": 45,
    "isForked": false
  },
  "isDefaultSkin": false,
  "kiosk": {
    "font_name": "None",
    "font_size": 81,
    "isForked": false
  },
  "kuid": "sf5f88a10837425b8e11905a50e9e04a",
  "spaan": {
    "font_name": "Helvetica",
    "font_size": 87,
    "isForked": false
  },
  "spaandroidtablet": {
    "font_name": "Helvetica",
    "font_size": 72,
    "isForked": false
  },
  "spaip": {
    "font_name": "Helvetica",
    "font_size": 84,
    "isForked": false
  },
  "spaipad": {
    "font_name": "Helvetica",
    "font_size": 76,
    "isForked": false
  },
  "spawindowstablet": {
    "font_name": "Helvetica",
    "font_size": 76,
    "isForked": false
  },
  "spawinphone8": {
    "font_name": "Helvetica",
    "font_size": 108,
    "isForked": false
  },
  "tabrcandroid": {
    "font_name": "default",
    "font_size": 77,
    "isForked": false
  },
  "wType": "TextField",
  "watchos": {
    "font_name": "System",
    "font_size": 46,
    "isForked": false
  },
  "windows8": {
    "font_name": "None",
    "font_size": 32,
    "isForked": false
  },
  "winphone8": {
    "font_name": "None",
    "font_size": 43,
    "isForked": false
  }
}