{
  "android": {
    "font_size": 25,
    "isForked": false
  },
  "androidwearos": {
    "font_size": 32,
    "isForked": false
  },
  "background_color": "00000000",
  "bg_type": "one",
  "border_color": "424242ff",
  "border_style": "plain",
  "border_type": 0,
  "border_width": 0,
  "desktopweb": {
    "font_name": "OLB_font_icons",
    "font_size": 75,
    "isForked": false
  },
  "fontSizeInPx": true,
  "font_color": "e2e9f0ff",
  "font_name": "Helvetica",
  "font_size": 75,
  "font_style": "normal",
  "font_weight": "normal",
  "ipad": {
    "font_size": 32,
    "isForked": false
  },
  "iphone": {
    "font_size": 31,
    "isForked": false
  },
  "isDefaultSkin": false,
  "kiosk": {
    "font_size": 56,
    "isForked": false
  },
  "kuid": "s5a393e2ab964afab634f4d2d95245be",
  "spaan": {
    "font_size": 60,
    "isForked": false
  },
  "spaandroidtablet": {
    "font_size": 50,
    "isForked": false
  },
  "spaip": {
    "font_size": 58,
    "isForked": false
  },
  "spaipad": {
    "font_size": 53,
    "isForked": false
  },
  "spawindowstablet": {
    "font_size": 53,
    "isForked": false
  },
  "spawinphone8": {
    "font_size": 75,
    "isForked": false
  },
  "tabrcandroid": {
    "font_size": 53,
    "isForked": false
  },
  "wType": "Label",
  "watchos": {
    "font_size": 32,
    "isForked": false
  },
  "windows8": {
    "font_size": 22,
    "isForked": false
  },
  "winphone8": {
    "font_size": 30,
    "isForked": false
  }
}