{
    "background_color": "e3e3e399",
    "bg_type": "one",
    "border_color": "000000ff",
    "border_style": "plain",
    "border_type": 0,
    "border_width": 0,
    "isDefaultSkin": false,
    "kuid": "sc39c20ee61b43e0a5efea1925fd89a9",
    "wType": "FlexContainer"
}