{
  "background_color": "00000000",
  "bg_type": "one",
  "border_color": "e3e3e3ff",
  "border_radius": 4,
  "border_style": "custom",
  "border_type": 0,
  "border_width": 1,
  "isDefaultSkin": false,
  "kuid": "se097e475468465bb1b355715838fc9b",
  "wType": "FlexScrollContainer"
}