{
  "background_color": "f8f7f8ff",
  "bg_type": "one",
  "border_color": "ffffffff",
  "border_style": "plain",
  "border_type": 0,
  "border_width": 0,
  "desktopweb": {
    "border_type": 0,
    "bottom_left_border_color": "e3e3e3ff",
    "bottom_left_border_style": "plain",
    "bottom_left_border_width": "1",
    "bottom_right_border_color": "e3e3e3ff",
    "bottom_right_border_style": "plain",
    "bottom_right_border_width": "1",
    "isForked": true,
    "top_left_border_color": "e3e3e3ff",
    "top_left_border_radius": "4",
    "top_left_border_style": "rc",
    "top_left_border_width": "1",
    "top_right_border_color": "e3e3e3ff",
    "top_right_border_radius": "4",
    "top_right_border_style": "rc",
    "top_right_border_width": "1"
  },
  "isDefaultSkin": false,
  "kiosk": {
    "isForked": true
  },
  "kuid": "sad1b19c6ddf4ea8acb13e96e7b0f677",
  "spaan": {
    "border_type": 0,
    "bottom_left_border_color": "e3e3e3ff",
    "bottom_left_border_style": "plain",
    "bottom_left_border_width": "1",
    "bottom_right_border_color": "e3e3e3ff",
    "bottom_right_border_style": "plain",
    "bottom_right_border_width": "1",
    "isForked": true,
    "top_left_border_color": "e3e3e3ff",
    "top_left_border_radius": "4",
    "top_left_border_style": "rc",
    "top_left_border_width": "1",
    "top_right_border_color": "e3e3e3ff",
    "top_right_border_radius": "4",
    "top_right_border_style": "rc",
    "top_right_border_width": "1"
  },
  "spaandroidtablet": {
    "border_type": 0,
    "bottom_left_border_color": "e3e3e3ff",
    "bottom_left_border_style": "plain",
    "bottom_left_border_width": "1",
    "bottom_right_border_color": "e3e3e3ff",
    "bottom_right_border_style": "plain",
    "bottom_right_border_width": "1",
    "isForked": true,
    "top_left_border_color": "e3e3e3ff",
    "top_left_border_radius": "4",
    "top_left_border_style": "rc",
    "top_left_border_width": "1",
    "top_right_border_color": "e3e3e3ff",
    "top_right_border_radius": "4",
    "top_right_border_style": "rc",
    "top_right_border_width": "1"
  },
  "spaip": {
    "border_type": 0,
    "bottom_left_border_color": "e3e3e3ff",
    "bottom_left_border_style": "plain",
    "bottom_left_border_width": "1",
    "bottom_right_border_color": "e3e3e3ff",
    "bottom_right_border_style": "plain",
    "bottom_right_border_width": "1",
    "isForked": true,
    "top_left_border_color": "e3e3e3ff",
    "top_left_border_radius": "4",
    "top_left_border_style": "rc",
    "top_left_border_width": "1",
    "top_right_border_color": "e3e3e3ff",
    "top_right_border_radius": "4",
    "top_right_border_style": "rc",
    "top_right_border_width": "1"
  },
  "spaipad": {
    "border_type": 0,
    "bottom_left_border_color": "e3e3e3ff",
    "bottom_left_border_style": "plain",
    "bottom_left_border_width": "1",
    "bottom_right_border_color": "e3e3e3ff",
    "bottom_right_border_style": "plain",
    "bottom_right_border_width": "1",
    "isForked": true,
    "top_left_border_color": "e3e3e3ff",
    "top_left_border_radius": "4",
    "top_left_border_style": "rc",
    "top_left_border_width": "1",
    "top_right_border_color": "e3e3e3ff",
    "top_right_border_radius": "4",
    "top_right_border_style": "rc",
    "top_right_border_width": "1"
  },
  "spawindowstablet": {
    "border_type": 0,
    "bottom_left_border_color": "e3e3e3ff",
    "bottom_left_border_style": "plain",
    "bottom_left_border_width": "1",
    "bottom_right_border_color": "e3e3e3ff",
    "bottom_right_border_style": "plain",
    "bottom_right_border_width": "1",
    "isForked": true,
    "top_left_border_color": "e3e3e3ff",
    "top_left_border_radius": "4",
    "top_left_border_style": "rc",
    "top_left_border_width": "1",
    "top_right_border_color": "e3e3e3ff",
    "top_right_border_radius": "4",
    "top_right_border_style": "rc",
    "top_right_border_width": "1"
  },
  "spawinphone8": {
    "border_type": 0,
    "bottom_left_border_color": "e3e3e3ff",
    "bottom_left_border_style": "plain",
    "bottom_left_border_width": "1",
    "bottom_right_border_color": "e3e3e3ff",
    "bottom_right_border_style": "plain",
    "bottom_right_border_width": "1",
    "isForked": true,
    "top_left_border_color": "e3e3e3ff",
    "top_left_border_radius": "4",
    "top_left_border_style": "rc",
    "top_left_border_width": "1",
    "top_right_border_color": "e3e3e3ff",
    "top_right_border_radius": "4",
    "top_right_border_style": "rc",
    "top_right_border_width": "1"
  },
  "wType": "FlexContainer"
}