{
  "background_color": "f8f7f8ff",
  "bg_type": "one",
  "border_color": "f8f7f8ff",
  "border_radius": 5,
  "border_style": "custom",
  "border_type": 0,
  "border_width": 1,
  "desktopweb": {
    "bottom_left_border_color": "f8f7f8ff",
    "bottom_left_border_style": "plain",
    "bottom_left_border_width": 1,
    "bottom_right_border_color": "f8f7f8ff",
    "bottom_right_border_style": "plain",
    "bottom_right_border_width": 1,
    "customCSS": "cursor:pointer;",
    "isCustomCSSEnabled": true,
    "isForked": true,
    "top_left_border_color": "f8f7f8ff",
    "top_left_border_style": "plain",
    "top_left_border_width": 1,
    "top_right_border_color": "f8f7f8ff",
    "top_right_border_style": "plain",
    "top_right_border_width": 1
  },
  "isDefaultSkin": false,
  "kuid": "s4138ea038244f2ab3e8be74656d0653",
  "wType": "FlexContainer"
}