{
  "background_color": "00000000",
  "bg_type": "one",
  "border_color": "e3e3e3ff",
  "border_radius": 0,
  "border_style": "custom",
  "border_type": 0,
  "border_width": 1,
  "desktopweb": {
    "border_type": 0,
    "bottom_left_border_color": "e3e3e3ff",
    "bottom_left_border_radius": 0,
    "bottom_left_border_style": "rc",
    "bottom_left_border_width": 1,
    "bottom_right_border_color": "e3e3e3ff",
    "bottom_right_border_radius": 0,
    "bottom_right_border_style": "rc",
    "bottom_right_border_width": 1,
    "customCSS": "\n   border: 1px dashed #979797;\n",
    "isCustomCSSEnabled": false,
    "isForked": true,
    "top_left_border_color": "e3e3e3ff",
    "top_left_border_radius": 0,
    "top_left_border_style": "rc",
    "top_left_border_width": 1,
    "top_right_border_color": "e3e3e3ff",
    "top_right_border_radius": 0,
    "top_right_border_style": "rc",
    "top_right_border_width": 1
  },
  "isDefaultSkin": false,
  "kuid": "saf789e7d66c4735bb7d66796942cf7d",
  "spaan": {
    "border_type": 0,
    "bottom_left_border_color": "e3e3e3ff",
    "bottom_left_border_radius": 0,
    "bottom_left_border_style": "rc",
    "bottom_left_border_width": 1,
    "bottom_right_border_color": "e3e3e3ff",
    "bottom_right_border_radius": 0,
    "bottom_right_border_style": "rc",
    "bottom_right_border_width": 1,
    "customCSS": "\n   border: 1px dashed #979797;\n",
    "isCustomCSSEnabled": false,
    "isForked": true,
    "top_left_border_color": "e3e3e3ff",
    "top_left_border_radius": 0,
    "top_left_border_style": "rc",
    "top_left_border_width": 1,
    "top_right_border_color": "e3e3e3ff",
    "top_right_border_radius": 0,
    "top_right_border_style": "rc",
    "top_right_border_width": 1
  },
  "spaandroidtablet": {
    "border_type": 0,
    "bottom_left_border_color": "e3e3e3ff",
    "bottom_left_border_radius": 0,
    "bottom_left_border_style": "rc",
    "bottom_left_border_width": 1,
    "bottom_right_border_color": "e3e3e3ff",
    "bottom_right_border_radius": 0,
    "bottom_right_border_style": "rc",
    "bottom_right_border_width": 1,
    "customCSS": "\n   border: 1px dashed #979797;\n",
    "isCustomCSSEnabled": false,
    "isForked": true,
    "top_left_border_color": "e3e3e3ff",
    "top_left_border_radius": 0,
    "top_left_border_style": "rc",
    "top_left_border_width": 1,
    "top_right_border_color": "e3e3e3ff",
    "top_right_border_radius": 0,
    "top_right_border_style": "rc",
    "top_right_border_width": 1
  },
  "spaip": {
    "border_type": 0,
    "bottom_left_border_color": "e3e3e3ff",
    "bottom_left_border_radius": 0,
    "bottom_left_border_style": "rc",
    "bottom_left_border_width": 1,
    "bottom_right_border_color": "e3e3e3ff",
    "bottom_right_border_radius": 0,
    "bottom_right_border_style": "rc",
    "bottom_right_border_width": 1,
    "customCSS": "\n   border: 1px dashed #979797;\n",
    "isCustomCSSEnabled": false,
    "isForked": true,
    "top_left_border_color": "e3e3e3ff",
    "top_left_border_radius": 0,
    "top_left_border_style": "rc",
    "top_left_border_width": 1,
    "top_right_border_color": "e3e3e3ff",
    "top_right_border_radius": 0,
    "top_right_border_style": "rc",
    "top_right_border_width": 1
  },
  "spaipad": {
    "border_type": 0,
    "bottom_left_border_color": "e3e3e3ff",
    "bottom_left_border_radius": 0,
    "bottom_left_border_style": "rc",
    "bottom_left_border_width": 1,
    "bottom_right_border_color": "e3e3e3ff",
    "bottom_right_border_radius": 0,
    "bottom_right_border_style": "rc",
    "bottom_right_border_width": 1,
    "customCSS": "\n   border: 1px dashed #979797;\n",
    "isCustomCSSEnabled": false,
    "isForked": true,
    "top_left_border_color": "e3e3e3ff",
    "top_left_border_radius": 0,
    "top_left_border_style": "rc",
    "top_left_border_width": 1,
    "top_right_border_color": "e3e3e3ff",
    "top_right_border_radius": 0,
    "top_right_border_style": "rc",
    "top_right_border_width": 1
  },
  "spawindowstablet": {
    "border_type": 0,
    "bottom_left_border_color": "e3e3e3ff",
    "bottom_left_border_radius": 0,
    "bottom_left_border_style": "rc",
    "bottom_left_border_width": 1,
    "bottom_right_border_color": "e3e3e3ff",
    "bottom_right_border_radius": 0,
    "bottom_right_border_style": "rc",
    "bottom_right_border_width": 1,
    "customCSS": "\n   border: 1px dashed #979797;\n",
    "isCustomCSSEnabled": false,
    "isForked": true,
    "top_left_border_color": "e3e3e3ff",
    "top_left_border_radius": 0,
    "top_left_border_style": "rc",
    "top_left_border_width": 1,
    "top_right_border_color": "e3e3e3ff",
    "top_right_border_radius": 0,
    "top_right_border_style": "rc",
    "top_right_border_width": 1
  },
  "spawinphone8": {
    "border_type": 0,
    "bottom_left_border_color": "e3e3e3ff",
    "bottom_left_border_radius": 0,
    "bottom_left_border_style": "rc",
    "bottom_left_border_width": 1,
    "bottom_right_border_color": "e3e3e3ff",
    "bottom_right_border_radius": 0,
    "bottom_right_border_style": "rc",
    "bottom_right_border_width": 1,
    "customCSS": "\n   border: 1px dashed #979797;\n",
    "isCustomCSSEnabled": false,
    "isForked": true,
    "top_left_border_color": "e3e3e3ff",
    "top_left_border_radius": 0,
    "top_left_border_style": "rc",
    "top_left_border_width": 1,
    "top_right_border_color": "e3e3e3ff",
    "top_right_border_radius": 0,
    "top_right_border_style": "rc",
    "top_right_border_width": 1
  },
  "wType": "FlexContainer"
}