{
  "background_color": "ffffffff",
  "bg_type": "one",
  "border_color": "e3e3e3ff",
  "border_radius": 3,
  "border_style": "custom",
  "border_type": 0,
  "border_width": 1,
  "desktopweb": {
    "bottom_left_border_color": "e3e3e3ff",
    "bottom_left_border_radius": 3,
    "bottom_left_border_style": "rc",
    "bottom_left_border_width": 1,
    "bottom_right_border_color": "e3e3e3ff",
    "bottom_right_border_radius": 3,
    "bottom_right_border_style": "rc",
    "bottom_right_border_width": 1,
    "isForked": true,
    "shadow": {
      "br": 8,
      "color": "454545ff",
      "inner": false,
      "nm": 0,
      "x": 1,
      "y": 1
    },
    "top_left_border_color": "e3e3e3ff",
    "top_left_border_radius": 3,
    "top_left_border_style": "rc",
    "top_left_border_width": 1,
    "top_right_border_color": "e3e3e3ff",
    "top_right_border_radius": 3,
    "top_right_border_style": "rc",
    "top_right_border_width": 1
  },
  "ipad": {
    "isForked": true,
    "shadow": {
      "br": 8,
      "color": "454545ff",
      "inner": false,
      "nm": 0,
      "x": 1,
      "y": 1
    }
  },
  "iphone": {
    "isForked": true,
    "shadow": {
      "br": 8,
      "color": "454545ff",
      "inner": false,
      "nm": 0,
      "x": 1,
      "y": 1
    }
  },
  "isDefaultSkin": false,
  "kuid": "sd4492aa0069498cb7fef44fb8d9b8a7",
  "spaan": {
    "bottom_left_border_color": "e3e3e3ff",
    "bottom_left_border_radius": 3,
    "bottom_left_border_style": "rc",
    "bottom_left_border_width": 1,
    "bottom_right_border_color": "e3e3e3ff",
    "bottom_right_border_radius": 3,
    "bottom_right_border_style": "rc",
    "bottom_right_border_width": 1,
    "isForked": true,
    "shadow": {
      "br": 8,
      "color": "454545ff",
      "inner": false,
      "nm": 0,
      "x": 1,
      "y": 1
    },
    "top_left_border_color": "e3e3e3ff",
    "top_left_border_radius": 3,
    "top_left_border_style": "rc",
    "top_left_border_width": 1,
    "top_right_border_color": "e3e3e3ff",
    "top_right_border_radius": 3,
    "top_right_border_style": "rc",
    "top_right_border_width": 1
  },
  "spaandroidtablet": {
    "bottom_left_border_color": "e3e3e3ff",
    "bottom_left_border_radius": 3,
    "bottom_left_border_style": "rc",
    "bottom_left_border_width": 1,
    "bottom_right_border_color": "e3e3e3ff",
    "bottom_right_border_radius": 3,
    "bottom_right_border_style": "rc",
    "bottom_right_border_width": 1,
    "isForked": true,
    "shadow": {
      "br": 8,
      "color": "454545ff",
      "inner": false,
      "nm": 0,
      "x": 1,
      "y": 1
    },
    "top_left_border_color": "e3e3e3ff",
    "top_left_border_radius": 3,
    "top_left_border_style": "rc",
    "top_left_border_width": 1,
    "top_right_border_color": "e3e3e3ff",
    "top_right_border_radius": 3,
    "top_right_border_style": "rc",
    "top_right_border_width": 1
  },
  "spaip": {
    "bottom_left_border_color": "e3e3e3ff",
    "bottom_left_border_radius": 3,
    "bottom_left_border_style": "rc",
    "bottom_left_border_width": 1,
    "bottom_right_border_color": "e3e3e3ff",
    "bottom_right_border_radius": 3,
    "bottom_right_border_style": "rc",
    "bottom_right_border_width": 1,
    "isForked": true,
    "shadow": {
      "br": 8,
      "color": "454545ff",
      "inner": false,
      "nm": 0,
      "x": 1,
      "y": 1
    },
    "top_left_border_color": "e3e3e3ff",
    "top_left_border_radius": 3,
    "top_left_border_style": "rc",
    "top_left_border_width": 1,
    "top_right_border_color": "e3e3e3ff",
    "top_right_border_radius": 3,
    "top_right_border_style": "rc",
    "top_right_border_width": 1
  },
  "spaipad": {
    "bottom_left_border_color": "e3e3e3ff",
    "bottom_left_border_radius": 3,
    "bottom_left_border_style": "rc",
    "bottom_left_border_width": 1,
    "bottom_right_border_color": "e3e3e3ff",
    "bottom_right_border_radius": 3,
    "bottom_right_border_style": "rc",
    "bottom_right_border_width": 1,
    "isForked": true,
    "shadow": {
      "br": 8,
      "color": "454545ff",
      "inner": false,
      "nm": 0,
      "x": 1,
      "y": 1
    },
    "top_left_border_color": "e3e3e3ff",
    "top_left_border_radius": 3,
    "top_left_border_style": "rc",
    "top_left_border_width": 1,
    "top_right_border_color": "e3e3e3ff",
    "top_right_border_radius": 3,
    "top_right_border_style": "rc",
    "top_right_border_width": 1
  },
  "spawindowstablet": {
    "bottom_left_border_color": "e3e3e3ff",
    "bottom_left_border_radius": 3,
    "bottom_left_border_style": "rc",
    "bottom_left_border_width": 1,
    "bottom_right_border_color": "e3e3e3ff",
    "bottom_right_border_radius": 3,
    "bottom_right_border_style": "rc",
    "bottom_right_border_width": 1,
    "isForked": true,
    "shadow": {
      "br": 8,
      "color": "454545ff",
      "inner": false,
      "nm": 0,
      "x": 1,
      "y": 1
    },
    "top_left_border_color": "e3e3e3ff",
    "top_left_border_radius": 3,
    "top_left_border_style": "rc",
    "top_left_border_width": 1,
    "top_right_border_color": "e3e3e3ff",
    "top_right_border_radius": 3,
    "top_right_border_style": "rc",
    "top_right_border_width": 1
  },
  "spawinphone8": {
    "bottom_left_border_color": "e3e3e3ff",
    "bottom_left_border_radius": 3,
    "bottom_left_border_style": "rc",
    "bottom_left_border_width": 1,
    "bottom_right_border_color": "e3e3e3ff",
    "bottom_right_border_radius": 3,
    "bottom_right_border_style": "rc",
    "bottom_right_border_width": 1,
    "isForked": true,
    "shadow": {
      "br": 8,
      "color": "454545ff",
      "inner": false,
      "nm": 0,
      "x": 1,
      "y": 1
    },
    "top_left_border_color": "e3e3e3ff",
    "top_left_border_radius": 3,
    "top_left_border_style": "rc",
    "top_left_border_width": 1,
    "top_right_border_color": "e3e3e3ff",
    "top_right_border_radius": 3,
    "top_right_border_style": "rc",
    "top_right_border_width": 1
  },
  "wType": "FlexScrollContainer"
}