{
    "android": {
        "background_color": "ffffffff",
        "bg_type": "one",
        "isForked": true
    },
    "background_color": "00000000",
    "bg_type": "one",
    "border_color": "ffffffff",
    "border_radius": 3,
    "border_style": "custom",
    "border_type": 0,
    "border_width": 1,
    "desktopweb": {
        "background_color": "ffffffff",
        "bg_type": "one",
        "border_type": 0,
        "bottom_left_border_color": "ffffff00",
        "bottom_left_border_style": "plain",
        "bottom_left_border_width": "0",
        "bottom_right_border_color": "ffffff00",
        "bottom_right_border_style": "plain",
        "bottom_right_border_width": "0",
        "isCustomCSSEnabled": false,
        "isForked": true,
        "shadow": {
            "br": 4,
            "color": "e3e3e3ff",
            "inner": false,
            "nm": 0,
            "x": 1,
            "y": 1
        },
        "top_left_border_color": "ffffff00",
        "top_left_border_style": "plain",
        "top_left_border_width": "0",
        "top_right_border_color": "ffffff00",
        "top_right_border_style": "plain",
        "top_right_border_width": "0"
    },
    "ipad": {
        "background_color": "ffffffff",
        "bg_type": "one",
        "isForked": true,
        "shadow": {
            "br": 4,
            "color": "e3e3e3ff",
            "inner": false,
            "nm": 0,
            "x": 1,
            "y": 1
        }
    },
    "iphone": {
        "background_color": "ffffffff",
        "bg_type": "one",
        "isForked": true,
        "shadow": {
            "br": 4,
            "color": "e3e3e3ff",
            "inner": false,
            "nm": 0,
            "x": 1,
            "y": 1
        }
    },
    "isDefaultSkin": false,
    "kiosk": {
        "background_color": "ffffffff",
        "bg_type": "one",
        "isForked": true
    },
    "kuid": "s93ac737171d42a798da0f2e334b75d9",
    "spaan": {
        "background_color": "ffffffff",
        "bg_type": "one",
        "border_type": 0,
        "bottom_left_border_color": "ffffff00",
        "bottom_left_border_style": "plain",
        "bottom_left_border_width": "0",
        "bottom_right_border_color": "ffffff00",
        "bottom_right_border_style": "plain",
        "bottom_right_border_width": "0",
        "isCustomCSSEnabled": false,
        "isForked": true,
        "shadow": {
            "br": 4,
            "color": "e3e3e3ff",
            "inner": false,
            "nm": 0,
            "x": 1,
            "y": 1
        },
        "top_left_border_color": "ffffff00",
        "top_left_border_style": "plain",
        "top_left_border_width": "0",
        "top_right_border_color": "ffffff00",
        "top_right_border_style": "plain",
        "top_right_border_width": "0"
    },
    "spaandroidtablet": {
        "background_color": "ffffffff",
        "bg_type": "one",
        "border_type": 0,
        "bottom_left_border_color": "ffffff00",
        "bottom_left_border_style": "plain",
        "bottom_left_border_width": "0",
        "bottom_right_border_color": "ffffff00",
        "bottom_right_border_style": "plain",
        "bottom_right_border_width": "0",
        "isCustomCSSEnabled": false,
        "isForked": true,
        "shadow": {
            "br": 4,
            "color": "e3e3e3ff",
            "inner": false,
            "nm": 0,
            "x": 1,
            "y": 1
        },
        "top_left_border_color": "ffffff00",
        "top_left_border_style": "plain",
        "top_left_border_width": "0",
        "top_right_border_color": "ffffff00",
        "top_right_border_style": "plain",
        "top_right_border_width": "0"
    },
    "spaip": {
        "background_color": "ffffffff",
        "bg_type": "one",
        "border_type": 0,
        "bottom_left_border_color": "ffffff00",
        "bottom_left_border_style": "plain",
        "bottom_left_border_width": "0",
        "bottom_right_border_color": "ffffff00",
        "bottom_right_border_style": "plain",
        "bottom_right_border_width": "0",
        "isCustomCSSEnabled": false,
        "isForked": true,
        "shadow": {
            "br": 4,
            "color": "e3e3e3ff",
            "inner": false,
            "nm": 0,
            "x": 1,
            "y": 1
        },
        "top_left_border_color": "ffffff00",
        "top_left_border_style": "plain",
        "top_left_border_width": "0",
        "top_right_border_color": "ffffff00",
        "top_right_border_style": "plain",
        "top_right_border_width": "0"
    },
    "spaipad": {
        "background_color": "ffffffff",
        "bg_type": "one",
        "border_type": 0,
        "bottom_left_border_color": "ffffff00",
        "bottom_left_border_style": "plain",
        "bottom_left_border_width": "0",
        "bottom_right_border_color": "ffffff00",
        "bottom_right_border_style": "plain",
        "bottom_right_border_width": "0",
        "isCustomCSSEnabled": false,
        "isForked": true,
        "shadow": {
            "br": 4,
            "color": "e3e3e3ff",
            "inner": false,
            "nm": 0,
            "x": 1,
            "y": 1
        },
        "top_left_border_color": "ffffff00",
        "top_left_border_style": "plain",
        "top_left_border_width": "0",
        "top_right_border_color": "ffffff00",
        "top_right_border_style": "plain",
        "top_right_border_width": "0"
    },
    "spawindowstablet": {
        "background_color": "ffffffff",
        "bg_type": "one",
        "border_type": 0,
        "bottom_left_border_color": "ffffff00",
        "bottom_left_border_style": "plain",
        "bottom_left_border_width": "0",
        "bottom_right_border_color": "ffffff00",
        "bottom_right_border_style": "plain",
        "bottom_right_border_width": "0",
        "isCustomCSSEnabled": false,
        "isForked": true,
        "shadow": {
            "br": 4,
            "color": "e3e3e3ff",
            "inner": false,
            "nm": 0,
            "x": 1,
            "y": 1
        },
        "top_left_border_color": "ffffff00",
        "top_left_border_style": "plain",
        "top_left_border_width": "0",
        "top_right_border_color": "ffffff00",
        "top_right_border_style": "plain",
        "top_right_border_width": "0"
    },
    "spawinphone8": {
        "background_color": "ffffffff",
        "bg_type": "one",
        "border_type": 0,
        "bottom_left_border_color": "ffffff00",
        "bottom_left_border_style": "plain",
        "bottom_left_border_width": "0",
        "bottom_right_border_color": "ffffff00",
        "bottom_right_border_style": "plain",
        "bottom_right_border_width": "0",
        "isCustomCSSEnabled": false,
        "isForked": true,
        "shadow": {
            "br": 4,
            "color": "e3e3e3ff",
            "inner": false,
            "nm": 0,
            "x": 1,
            "y": 1
        },
        "top_left_border_color": "ffffff00",
        "top_left_border_style": "plain",
        "top_left_border_width": "0",
        "top_right_border_color": "ffffff00",
        "top_right_border_style": "plain",
        "top_right_border_width": "0"
    },
    "tabrcandroid": {
        "background_color": "ffffffff",
        "bg_type": "one",
        "isForked": true
    },
    "wType": "FlexContainer",
    "windows8": {
        "background_color": "ffffffff",
        "bg_type": "one",
        "isForked": true
    },
    "winphone8": {
        "background_color": "ffffffff",
        "bg_type": "one",
        "isForked": true
    }
}