{
  "background_color": "f8f7f8ff",
  "bg_type": "one",
  "border_color": "000000ff",
  "border_style": "plain",
  "border_type": 0,
  "border_width": 0,
  "isDefaultSkin": false,
  "kuid": "sb75f187c17c456fb0450d66550451bb",
  "wType": "FlexContainer"
}