{
  "background_color": "ffffffff",
  "bg_type": "one",
  "border_color": "003e75ff",
  "border_radius": 2,
  "border_style": "custom",
  "border_type": 0,
  "border_width": 3,
  "isDefaultSkin": false,
  "kuid": "s757c2a6bd72401f942876343f7c6969",
  "wType": "FlexContainer"
}