{
  "background_gradient_bottom_color": "003e7500",
  "background_gradient_top_color": "003e7533",
  "background_style": "vg",
  "bg_type": "two",
  "border_color": "ffffffff",
  "border_style": "plain",
  "border_type": 0,
  "border_width": 0,
  "isDefaultSkin": false,
  "kuid": "s0fa73f078e247aca7c561229c33c48f",
  "wType": "FlexContainer"
}