{
  "background_color": "f8f7f800",
  "bg_type": "one",
  "border_color": "e3e3e3ff",
  "border_radius": 5,
  "border_style": "custom",
  "border_type": 0,
  "border_width": 1,
  "isDefaultSkin": false,
  "kuid": "se9d0a7614e94d2f99e9c68cb45be490",
  "wType": "FlexContainer"
}