{
  "background_color": "ffffffff",
  "bg_type": "one",
  "border_color": "003e75ff",
  "border_radius": 3,
  "border_style": "custom",
  "border_type": 0,
  "border_width": 1,
  "desktopweb": {
    "bottom_left_border_color": "003e75ff",
    "bottom_left_border_style": "plain",
    "bottom_left_border_width": 1,
    "bottom_right_border_color": "003e75ff",
    "bottom_right_border_style": "plain",
    "bottom_right_border_width": 1,
    "cursor_type": "pointer",
    "isForked": true,
    "top_left_border_color": "003e75ff",
    "top_left_border_style": "plain",
    "top_left_border_width": 1,
    "top_right_border_color": "003e75ff",
    "top_right_border_style": "plain",
    "top_right_border_width": 1
  },
  "isDefaultSkin": false,
  "kuid": "sc0b0167743140aab846d6f6f44acc97",
  "wType": "FlexContainer"
}