{
  "background_color": "0000007f",
  "bg_type": "one",
  "border_color": "000000ff",
  "border_style": "plain",
  "border_type": 0,
  "border_width": 0,
  "isDefaultSkin": false,
  "kuid": "s417bab1ea8144ddabbee7e3841704a8",
  "wType": "FlexContainer"
}