{
    "background_color": "e3e3e3ff",
    "bg_type": "one",
    "border_color": "000000ff",
    "border_style": "plain",
    "border_type": 0,
    "border_width": 0,
    "isDefaultSkin": false,
    "kuid": "sb8778dd78d542b69dd0c20f0a20135f",
    "wType": "FlexContainer"
}