{
    "background_color": "fbfbfb00",
    "bg_type": "one",
    "border_color": "dcdcdc00",
    "border_style": "plain",
    "border_type": 0,
    "border_width": 1,
    "desktopweb": {
        "background_color": "fbfbfbff",
        "bg_type": "one",
        "border_type": 0,
        "bottom_left_border_color": "dcdcdcff",
        "bottom_left_border_style": "plain",
        "bottom_left_border_width": 1,
        "bottom_right_border_color": "dcdcdcff",
        "bottom_right_border_style": "plain",
        "bottom_right_border_width": 1,
        "isForked": true,
        "shadow": {
            "br": 4,
            "color": "c0c0c042",
            "inner": false,
            "nm": 0,
            "x": 0,
            "y": 0
        },
        "top_left_border_color": "dcdcdcff",
        "top_left_border_style": "plain",
        "top_left_border_width": 1,
        "top_right_border_color": "dcdcdcff",
        "top_right_border_style": "plain",
        "top_right_border_width": 1
    },
    "ipad": {
        "isForked": true,
        "shadow": {
            "br": 4,
            "color": "c0c0c002",
            "inner": false,
            "nm": 0,
            "x": 0,
            "y": 0
        }
    },
    "iphone": {
        "isForked": true,
        "shadow": {
            "br": 4,
            "color": "c0c0c002",
            "inner": false,
            "nm": 0,
            "x": 0,
            "y": 0
        }
    },
    "isDefaultSkin": false,
    "kuid": "s41e382ef3534e5bbf48a5f906edbd6d",
    "spaan": {
        "bottom_left_border_color": "dcdcdc00",
        "bottom_left_border_style": "plain",
        "bottom_left_border_width": 1,
        "bottom_right_border_color": "dcdcdc00",
        "bottom_right_border_style": "plain",
        "bottom_right_border_width": 1,
        "isForked": true,
        "shadow": {
            "br": 4,
            "color": "c0c0c002",
            "inner": false,
            "nm": 0,
            "x": 0,
            "y": 0
        },
        "top_left_border_color": "dcdcdc00",
        "top_left_border_style": "plain",
        "top_left_border_width": 1,
        "top_right_border_color": "dcdcdc00",
        "top_right_border_style": "plain",
        "top_right_border_width": 1
    },
    "spaandroidtablet": {
        "bottom_left_border_color": "dcdcdc00",
        "bottom_left_border_style": "plain",
        "bottom_left_border_width": 1,
        "bottom_right_border_color": "dcdcdc00",
        "bottom_right_border_style": "plain",
        "bottom_right_border_width": 1,
        "isForked": true,
        "shadow": {
            "br": 4,
            "color": "c0c0c002",
            "inner": false,
            "nm": 0,
            "x": 0,
            "y": 0
        },
        "top_left_border_color": "dcdcdc00",
        "top_left_border_style": "plain",
        "top_left_border_width": 1,
        "top_right_border_color": "dcdcdc00",
        "top_right_border_style": "plain",
        "top_right_border_width": 1
    },
    "spaip": {
        "bottom_left_border_color": "dcdcdc00",
        "bottom_left_border_style": "plain",
        "bottom_left_border_width": 1,
        "bottom_right_border_color": "dcdcdc00",
        "bottom_right_border_style": "plain",
        "bottom_right_border_width": 1,
        "isForked": true,
        "shadow": {
            "br": 4,
            "color": "c0c0c002",
            "inner": false,
            "nm": 0,
            "x": 0,
            "y": 0
        },
        "top_left_border_color": "dcdcdc00",
        "top_left_border_style": "plain",
        "top_left_border_width": 1,
        "top_right_border_color": "dcdcdc00",
        "top_right_border_style": "plain",
        "top_right_border_width": 1
    },
    "spaipad": {
        "bottom_left_border_color": "dcdcdc00",
        "bottom_left_border_style": "plain",
        "bottom_left_border_width": 1,
        "bottom_right_border_color": "dcdcdc00",
        "bottom_right_border_style": "plain",
        "bottom_right_border_width": 1,
        "isForked": true,
        "shadow": {
            "br": 4,
            "color": "c0c0c002",
            "inner": false,
            "nm": 0,
            "x": 0,
            "y": 0
        },
        "top_left_border_color": "dcdcdc00",
        "top_left_border_style": "plain",
        "top_left_border_width": 1,
        "top_right_border_color": "dcdcdc00",
        "top_right_border_style": "plain",
        "top_right_border_width": 1
    },
    "spawindowstablet": {
        "bottom_left_border_color": "dcdcdc00",
        "bottom_left_border_style": "plain",
        "bottom_left_border_width": 1,
        "bottom_right_border_color": "dcdcdc00",
        "bottom_right_border_style": "plain",
        "bottom_right_border_width": 1,
        "isForked": true,
        "shadow": {
            "br": 4,
            "color": "c0c0c002",
            "inner": false,
            "nm": 0,
            "x": 0,
            "y": 0
        },
        "top_left_border_color": "dcdcdc00",
        "top_left_border_style": "plain",
        "top_left_border_width": 1,
        "top_right_border_color": "dcdcdc00",
        "top_right_border_style": "plain",
        "top_right_border_width": 1
    },
    "spawinphone8": {
        "bottom_left_border_color": "dcdcdc00",
        "bottom_left_border_style": "plain",
        "bottom_left_border_width": 1,
        "bottom_right_border_color": "dcdcdc00",
        "bottom_right_border_style": "plain",
        "bottom_right_border_width": 1,
        "isForked": true,
        "shadow": {
            "br": 4,
            "color": "c0c0c002",
            "inner": false,
            "nm": 0,
            "x": 0,
            "y": 0
        },
        "top_left_border_color": "dcdcdc00",
        "top_left_border_style": "plain",
        "top_left_border_width": 1,
        "top_right_border_color": "dcdcdc00",
        "top_right_border_style": "plain",
        "top_right_border_width": 1
    },
    "wType": "FlexContainer"
}