{
    "android": {
        "font_size": 36,
        "isForked": false
    },
    "background_color": "fed864ff",
    "bg_type": "one",
    "border_color": "42424200",
    "border_style": "rc",
    "border_type": 0,
    "border_width": 1,
    "desktopweb": {
        "font_name": "SourceSansPro-Regular",
        "font_size": 125,
        "isForked": false
    },
    "fontSizeInPx": true,
    "font_color": "4176a4ff",
    "font_name": "Helvetica",
    "font_size": 125,
    "font_style": "normal",
    "font_weight": "normal",
    "ipad": {
        "font_size": 54,
        "isForked": false
    },
    "iphone": {
        "font_size": 54,
        "isForked": false
    },
    "isDefaultSkin": false,
    "kiosk": {
        "font_size": 94,
        "isForked": false
    },
    "kuid": "s01c75d8dc93468687564dcc082302c6",
    "spaan": {
        "font_size": 125,
        "isForked": false
    },
    "spaandroidtablet": {
        "font_size": 125,
        "isForked": false
    },
    "spaip": {
        "font_size": 125,
        "isForked": false
    },
    "spaipad": {
        "font_name": "SourceSansPro-Regular",
        "font_size": 125,
        "isForked": false
    },
    "spawindowstablet": {
        "font_size": 125,
        "isForked": false
    },
    "spawinphone8": {
        "font_size": 125,
        "isForked": false
    },
    "tabrcandroid": {
        "font_size": 89,
        "isForked": false
    },
    "wType": "Label",
    "watchos": {
        "font_size": 54,
        "isForked": false
    },
    "windows8": {
        "font_size": 37,
        "isForked": false
    },
    "winphone8": {
        "font_size": 50,
        "isForked": false
    }
}