{
  "android": {
    "font_name": "Helvetica",
    "font_size": 36,
    "isForked": false
  },
  "androidwearos": {
    "font_name": "Helvetica",
    "font_size": 46,
    "isForked": false
  },
  "background_color": "00000000",
  "bg_type": "one",
  "border_color": "424242ff",
  "border_style": "plain",
  "border_type": 0,
  "border_width": 0,
  "desktopweb": {
    "font_name": "SourceSansPro-SemiBold",
    "font_size": 108,
    "isForked": false
  },
  "fontSizeInPx": true,
  "font_color": "003e75ff",
  "font_name": "Helvetica",
  "font_size": 45,
  "font_style": "normal",
  "font_weight": "normal",
  "ipad": {
    "font_name": "Helvetica",
    "font_size": 46,
    "isForked": false
  },
  "iphone": {
    "font_name": "Helvetica",
    "font_size": 45,
    "isForked": false
  },
  "isDefaultSkin": false,
  "kiosk": {
    "font_name": "None",
    "font_size": 81,
    "isForked": false
  },
  "kuid": "s7a709a3bb1b414b964c7d4eb7488ca9",
  "spaan": {
    "font_name": "Helvetica",
    "font_size": 36,
    "isForked": false
  },
  "spaandroidtablet": {
    "font_name": "Helvetica",
    "font_size": 36,
    "isForked": false
  },
  "spaip": {
    "font_name": "Helvetica",
    "font_size": 28,
    "isForked": false
  },
  "spaipad": {
    "font_name": "Helvetica",
    "font_size": 36,
    "isForked": false
  },
  "spawindowstablet": {
    "font_name": "Helvetica",
    "font_size": 36,
    "isForked": false
  },
  "spawinphone8": {
    "font_name": "Helvetica",
    "font_size": 36,
    "isForked": false
  },
  "tabrcandroid": {
    "font_name": "Helvetica",
    "font_size": 77,
    "isForked": false
  },
  "wType": "Label",
  "watchos": {
    "font_name": "Helvetica",
    "font_size": 46,
    "isForked": false
  },
  "windows8": {
    "font_name": "None",
    "font_size": 32,
    "isForked": false
  },
  "winphone8": {
    "font_name": "None",
    "font_size": 43,
    "isForked": false
  }
}