{
  "android": {
    "font_name": "Helvetica",
    "font_size": 25,
    "isForked": false
  },
  "androidwearos": {
    "font_name": "Helvetica",
    "font_size": 32,
    "isForked": false
  },
  "background_color": "003e75ff",
  "bg_type": "one",
  "border_color": "003e75ff",
  "border_style": "rc",
  "border_type": 0,
  "border_width": 1,
  "desktopweb": {
    "font_name": "SourceSansPro-Regular",
    "font_size": 75,
    "isForked": false
  },
  "fontSizeInPx": true,
  "font_color": "ffffffff",
  "font_name": "Helvetica",
  "font_size": 31,
  "font_style": "normal",
  "font_weight": "normal",
  "ipad": {
    "font_name": "Helvetica",
    "font_size": 32,
    "isForked": false
  },
  "iphone": {
    "font_name": "Helvetica",
    "font_size": 31,
    "isForked": false
  },
  "isDefaultSkin": false,
  "kiosk": {
    "font_name": "None",
    "font_size": 56,
    "isForked": false
  },
  "kuid": "s91c314f8e2549db82e8f48ae2c7c2ff",
  "spaan": {
    "font_name": "Helvetica",
    "font_size": 25,
    "isForked": false
  },
  "spaandroidtablet": {
    "font_name": "Helvetica",
    "font_size": 25,
    "isForked": false
  },
  "spaip": {
    "font_name": "Helvetica",
    "font_size": 19,
    "isForked": false
  },
  "spaipad": {
    "font_name": "Helvetica",
    "font_size": 25,
    "isForked": false
  },
  "spawindowstablet": {
    "font_name": "Helvetica",
    "font_size": 25,
    "isForked": false
  },
  "spawinphone8": {
    "font_name": "Helvetica",
    "font_size": 25,
    "isForked": false
  },
  "tabrcandroid": {
    "font_name": "Helvetica",
    "font_size": 53,
    "isForked": false
  },
  "wType": "Label",
  "watchos": {
    "font_name": "Helvetica",
    "font_size": 32,
    "isForked": false
  },
  "windows8": {
    "font_name": "None",
    "font_size": 22,
    "isForked": false
  },
  "winphone8": {
    "font_name": "None",
    "font_size": 30,
    "isForked": false
  }
}