{
  "background_color": "1a98ffff",
  "bg_type": "one",
  "border_color": "979797ff",
  "border_style": "plain",
  "border_type": 0,
  "border_width": 0,
  "font_color": "42424200",
  "font_name": "Helvetica",
  "font_size": 215,
  "font_style": "normal",
  "font_weight": "normal",
  "isDefaultSkin": false,
  "kuid": "sb58cd5774174ba690b696bcf4cfad67",
  "wType": "Label"
}