{
    "android": {
        "background_image": "icon_zoom_frame.png",
        "bg_type": "image",
        "isForked": true
    },
    "background_image": "",
    "bg_type": "image",
    "border_color": "bebebeff",
    "border_style": "plain",
    "border_type": 0,
    "border_width": 1,
    "desktopweb": {
        "backgroundSize": true,
        "background_image": "icon_zoom_frame.png",
        "bg_type": "image",
        "bottom_left_border_color": "bebebeff",
        "bottom_left_border_style": "plain",
        "bottom_left_border_width": 1,
        "bottom_right_border_color": "bebebeff",
        "bottom_right_border_style": "plain",
        "bottom_right_border_width": 1,
        "cursor_type": "pointer",
        "isForked": true,
        "top_left_border_color": "bebebeff",
        "top_left_border_style": "plain",
        "top_left_border_width": 1,
        "top_right_border_color": "bebebeff",
        "top_right_border_style": "plain",
        "top_right_border_width": 1
    },
    "ipad": {
        "background_image": "icon_zoom_frame.png",
        "bg_type": "image",
        "isForked": true
    },
    "iphone": {
        "background_image": "icon_zoom_frame.png",
        "bg_type": "image",
        "isForked": true
    },
    "isDefaultSkin": false,
    "kiosk": {
        "background_image": "icon_zoom_frame.png",
        "bg_type": "image",
        "isForked": true
    },
    "kuid": "sb992965823d457892d412b1e730021a",
    "spaan": {
        "backgroundSize": true,
        "background_image": "icon_zoom_frame.png",
        "bg_type": "image",
        "bottom_left_border_color": "bebebeff",
        "bottom_left_border_style": "plain",
        "bottom_left_border_width": 1,
        "bottom_right_border_color": "bebebeff",
        "bottom_right_border_style": "plain",
        "bottom_right_border_width": 1,
        "isForked": true,
        "top_left_border_color": "bebebeff",
        "top_left_border_style": "plain",
        "top_left_border_width": 1,
        "top_right_border_color": "bebebeff",
        "top_right_border_style": "plain",
        "top_right_border_width": 1
    },
    "spaandroidtablet": {
        "backgroundSize": true,
        "background_image": "icon_zoom_frame.png",
        "bg_type": "image",
        "bottom_left_border_color": "bebebeff",
        "bottom_left_border_style": "plain",
        "bottom_left_border_width": 1,
        "bottom_right_border_color": "bebebeff",
        "bottom_right_border_style": "plain",
        "bottom_right_border_width": 1,
        "isForked": true,
        "top_left_border_color": "bebebeff",
        "top_left_border_style": "plain",
        "top_left_border_width": 1,
        "top_right_border_color": "bebebeff",
        "top_right_border_style": "plain",
        "top_right_border_width": 1
    },
    "spaip": {
        "backgroundSize": true,
        "background_image": "icon_zoom_frame.png",
        "bg_type": "image",
        "bottom_left_border_color": "bebebeff",
        "bottom_left_border_style": "plain",
        "bottom_left_border_width": 1,
        "bottom_right_border_color": "bebebeff",
        "bottom_right_border_style": "plain",
        "bottom_right_border_width": 1,
        "isForked": true,
        "top_left_border_color": "bebebeff",
        "top_left_border_style": "plain",
        "top_left_border_width": 1,
        "top_right_border_color": "bebebeff",
        "top_right_border_style": "plain",
        "top_right_border_width": 1
    },
    "spaipad": {
        "background_image": "icon_zoom_frame.png",
        "bg_type": "image",
        "bottom_left_border_color": "bebebeff",
        "bottom_left_border_style": "plain",
        "bottom_left_border_width": 1,
        "bottom_right_border_color": "bebebeff",
        "bottom_right_border_style": "plain",
        "bottom_right_border_width": 1,
        "isForked": true,
        "top_left_border_color": "bebebeff",
        "top_left_border_style": "plain",
        "top_left_border_width": 1,
        "top_right_border_color": "bebebeff",
        "top_right_border_style": "plain",
        "top_right_border_width": 1
    },
    "spawindowstablet": {
        "background_image": "icon_zoom_frame.png",
        "bg_type": "image",
        "bottom_left_border_color": "bebebeff",
        "bottom_left_border_style": "plain",
        "bottom_left_border_width": 1,
        "bottom_right_border_color": "bebebeff",
        "bottom_right_border_style": "plain",
        "bottom_right_border_width": 1,
        "isForked": true,
        "top_left_border_color": "bebebeff",
        "top_left_border_style": "plain",
        "top_left_border_width": 1,
        "top_right_border_color": "bebebeff",
        "top_right_border_style": "plain",
        "top_right_border_width": 1
    },
    "spawinphone8": {
        "backgroundSize": true,
        "background_image": "icon_zoom_frame.png",
        "bg_type": "image",
        "bottom_left_border_color": "bebebeff",
        "bottom_left_border_style": "plain",
        "bottom_left_border_width": 1,
        "bottom_right_border_color": "bebebeff",
        "bottom_right_border_style": "plain",
        "bottom_right_border_width": 1,
        "isForked": true,
        "top_left_border_color": "bebebeff",
        "top_left_border_style": "plain",
        "top_left_border_width": 1,
        "top_right_border_color": "bebebeff",
        "top_right_border_style": "plain",
        "top_right_border_width": 1
    },
    "tabrcandroid": {
        "background_image": "icon_zoom_frame.png",
        "bg_type": "image",
        "isForked": true
    },
    "wType": "FlexContainer",
    "windows8": {
        "background_image": "icon_zoom_frame.png",
        "bg_type": "image",
        "isForked": true
    },
    "winphone8": {
        "background_image": "icon_zoom_frame.png",
        "bg_type": "image",
        "isForked": true
    }
}