{
    "android": {
        "font_size": 71,
        "isForked": false
    },
    "background_color": "00000000",
    "bg_type": "one",
    "border_color": "424242ff",
    "border_style": "plain",
    "border_type": 0,
    "border_width": 0,
    "desktopweb": {
        "font_name": "OLB_font_icons",
        "font_size": 250,
        "isForked": false
    },
    "fontSizeInPx": true,
    "font_color": "4176a4ff",
    "font_name": "Helvetica",
    "font_size": 250,
    "font_style": "normal",
    "font_weight": "normal",
    "ipad": {
        "font_size": 107,
        "isForked": false
    },
    "iphone": {
        "font_size": 107,
        "isForked": false
    },
    "isDefaultSkin": false,
    "kiosk": {
        "font_size": 188,
        "isForked": false
    },
    "kuid": "s619b9eabd1749c5b5d1aac746157216",
    "spaan": {
        "font_size": 250,
        "isForked": false
    },
    "spaandroidtablet": {
        "font_size": 250,
        "isForked": false
    },
    "spaip": {
        "font_size": 250,
        "isForked": false
    },
    "spaipad": {
        "font_size": 250,
        "isForked": false
    },
    "spawindowstablet": {
        "font_size": 250,
        "isForked": false
    },
    "spawinphone8": {
        "font_size": 250,
        "isForked": false
    },
    "tabrcandroid": {
        "font_size": 178,
        "isForked": false
    },
    "wType": "Label",
    "watchos": {
        "font_size": 107,
        "isForked": false
    },
    "windows8": {
        "font_size": 73,
        "isForked": false
    },
    "winphone8": {
        "font_size": 100,
        "isForked": false
    }
}