{
    "android": {
        "font_name": "Helvetica",
        "font_size": 71,
        "isForked": false
    },
    "background_color": "00000000",
    "bg_type": "one",
    "border_color": "424242ff",
    "border_style": "plain",
    "border_type": 0,
    "border_width": 0,
    "desktopweb": {
        "font_name": "olb_fonts",
        "font_size": 250,
        "isForked": false
    },
    "fontSizeInPx": true,
    "font_color": "003e75ff",
    "font_name": "Helvetica",
    "font_size": 250,
    "font_style": "normal",
    "font_weight": "normal",
    "ipad": {
        "font_name": "Helvetica",
        "font_size": 107,
        "isForked": false
    },
    "iphone": {
        "font_name": "Helvetica",
        "font_size": 107,
        "isForked": false
    },
    "isDefaultSkin": false,
    "kiosk": {
        "font_name": "GenericMonospace",
        "font_size": 188,
        "isForked": false
    },
    "kuid": "sf29a7fcbb414689849bd5f609c2899f",
    "spaan": {
        "font_name": "SourceSansPro-Regular",
        "font_size": 250,
        "isForked": false
    },
    "spaandroidtablet": {
        "font_name": "SourceSansPro-Regular",
        "font_size": 250,
        "isForked": false
    },
    "spaip": {
        "font_name": "SourceSansPro-Regular",
        "font_size": 250,
        "isForked": false
    },
    "spaipad": {
        "font_name": "SourceSansPro-Regular",
        "font_size": 250,
        "isForked": false
    },
    "spawindowstablet": {
        "font_name": "Helvetica",
        "font_size": 250,
        "isForked": false
    },
    "spawinphone8": {
        "font_name": "Helvetica",
        "font_size": 250,
        "isForked": false
    },
    "tabrcandroid": {
        "font_name": "Helvetica",
        "font_size": 178,
        "isForked": false
    },
    "wType": "Label",
    "watchos": {
        "font_name": "Helvetica",
        "font_size": 107,
        "isForked": false
    },
    "windows8": {
        "font_name": "GenericMonospace",
        "font_size": 73,
        "isForked": false
    },
    "winphone8": {
        "font_name": "GenericMonospace",
        "font_size": 100,
        "isForked": false
    }
}