{
    "android": {
        "font_size": 97,
        "isForked": false
    },
    "androidwearos": {
        "font_size": 125,
        "isForked": false
    },
    "background_color": "00000000",
    "bg_type": "one",
    "border_color": "424242ff",
    "border_style": "plain",
    "border_type": 0,
    "border_width": 0,
    "desktopweb": {
        "font_name": "olb_fonts",
        "font_size": 292,
        "isForked": false
    },
    "fontSizeInPx": true,
    "font_color": "003e75ff",
    "font_name": "Helvetica",
    "font_size": 292,
    "font_style": "normal",
    "font_weight": "normal",
    "ipad": {
        "font_size": 125,
        "isForked": false
    },
    "iphone": {
        "font_size": 121,
        "isForked": false
    },
    "isDefaultSkin": false,
    "kiosk": {
        "font_size": 219,
        "isForked": false
    },
    "kuid": "s73d93b164954b2db37483fc5718b653",
    "spaan": {
        "font_size": 292,
        "isForked": false
    },
    "spaandroidtablet": {
        "font_size": 292,
        "isForked": false
    },
    "spaip": {
        "font_size": 225,
        "isForked": false
    },
    "spaipad": {
        "font_name": "SourceSansPro-Regular",
        "font_size": 292,
        "isForked": false
    },
    "spawindowstablet": {
        "font_size": 292,
        "isForked": false
    },
    "spawinphone8": {
        "font_size": 292,
        "isForked": false
    },
    "tabrcandroid": {
        "font_size": 207,
        "isForked": false
    },
    "wType": "Label",
    "watchos": {
        "font_size": 125,
        "isForked": false
    },
    "windows8": {
        "font_size": 85,
        "isForked": false
    },
    "winphone8": {
        "font_size": 117,
        "isForked": false
    }
}