{
    "android": {
        "font_name": "Helvetica",
        "font_size": 20,
        "isForked": false
    },
    "androidwearos": {
        "font_size": 39,
        "isForked": false
    },
    "background_color": "ffffff00",
    "bg_type": "one",
    "border_color": "72727233",
    "border_style": "plain",
    "border_type": 0,
    "border_width": 0,
    "desktopweb": {
        "font_name": "Lato-Regular",
        "font_size": 92,
        "isForked": false
    },
    "fontSizeInPx": true,
    "font_color": "727272ff",
    "font_name": "Helvetica",
    "font_size": 92,
    "ipad": {
        "font_name": "Helvetica",
        "font_size": 39,
        "isForked": false
    },
    "iphone": {
        "font_name": "Helvetica",
        "font_size": 26,
        "isForked": false
    },
    "isDefaultSkin": false,
    "kiosk": {
        "font_name": "GenericMonospace",
        "font_size": 69,
        "isForked": false
    },
    "kuid": "saedc7e72a2d43a49da68f7e456d5951",
    "spaan": {
        "font_name": "Lato-Regular",
        "font_size": 92,
        "isForked": false
    },
    "spaandroidtablet": {
        "font_name": "Lato-Regular",
        "font_size": 92,
        "isForked": false
    },
    "spaip": {
        "font_name": "Lato-Regular",
        "font_size": 92,
        "isForked": false
    },
    "spaipad": {
        "font_name": "Lato-Regular",
        "font_size": 92,
        "isForked": false
    },
    "spawindowstablet": {
        "font_name": "Helvetica",
        "font_size": 92,
        "isForked": false
    },
    "spawinphone8": {
        "font_name": "Helvetica",
        "font_size": 92,
        "isForked": false
    },
    "tabrcandroid": {
        "font_name": "Helvetica",
        "font_size": 65,
        "isForked": false
    },
    "wType": "TextField",
    "watchos": {
        "font_name": "Helvetica",
        "font_size": 39,
        "isForked": false
    },
    "windows8": {
        "font_name": "GenericMonospace",
        "font_size": 27,
        "isForked": false
    },
    "winphone8": {
        "font_name": "GenericMonospace",
        "font_size": 37,
        "isForked": false
    }
}