{
  "background_color": "ffffff33",
  "bg_type": "one",
  "border_color": "72727233",
  "border_style": "plain",
  "border_type": 0,
  "border_width": 0,
  "isDefaultSkin": false,
  "kuid": "s5c76539af4145bcb69dc05bd8efe9b7",
  "wType": "FlexContainer"
}