{
    "background_color": "000000",
    "bg_type": "one",
    "border_color": "ffffffff",
    "isDefaultSkin": true,
    "kuid": "sc881b73c87d448f883ba1135c617e53",
    "wType": "WatchDynamicNotificationForm"
}
