{
    "DNDConfig": null,
    "__parentReadjusting__": false,
    "_height_": {
        "type": "string",
        "value": "100%"
    },
    "_margin_": [
        0,
        0,
        0,
        0
    ],
    "_orientation_": 6,
    "_padding_": [
        0,
        0,
        0,
        0
    ],
    "_percent_": true,
    "_right_": {
        "type": "string",
        "value": "165dp"
    },
    "_skin_": "s82fcadc60fe41f1b788ecfcac1c4e78",
    "_top_": {
        "type": "string",
        "value": "0dp"
    },
    "_width_": {
        "type": "string",
        "value": "250dp"
    },
    "allboxes": [],
    "autogrowmode": 0,
    "canUpdateUI": true,
    "children": [
        "lblCategoryList",
        "imgCategoryListDropdown",
        "lblLineTwo"
    ],
    "clipbounds": true,
    "containerId": true,
    "containerweight": 100,
    "enablescrolling": true,
    "id": "flxCategoryList",
    "ide_onClick": "AS_FlexContainer_e232dd1f07cf4f22949ea1f678d9ac59",
    "info": null,
    "isvisible": false,
    "kuid": "b455d1d163244b7aba5bec40d892c7b4",
    "layouttype": 2,
    "name": "kony.ui.FlexContainer",
    "parent": "flxDetailRowFourWrapper",
    "pf": "segBillPayAllPayeesSelected",
    "snapgridsize": 10,
    "snaptogrid": true,
    "wType": "FlexContainer",
    "widgetalignment": 1,
    "zindex": 1
}