{
    "@class": "com.kony.gen.viz.model.component.KVizButton",
    "DNDConfig": null,
    "_height_": {
        "type": "string",
        "value": "40dp"
    },
    "_left_": {
        "type": "number",
        "value": ""
    },
    "_margin_": [
        6,
        6,
        6,
        6
    ],
    "_padding_": [
        0,
        0,
        0,
        0
    ],
    "_right_": {
        "type": "string",
        "value": "2.20%"
    },
    "_skin_": "s4fe0674a3c84b76a21524a90bad4282",
    "_text_": "CONFIRM",
    "_top_": {
        "type": "number",
        "value": ""
    },
    "_width_": {
        "type": "string",
        "value": "18.80%"
    },
    "accessibilityconfig": {
        "a11yLabel": "Confirm"
    },
    "canUpdateUI": true,
    "centery": {
        "type": "string",
        "value": "50%"
    },
    "containerweight": 100,
    "contentalignment": 5,
    "desktopweb": {
        "psp": {
            "hoverSkin": "s81054b5e2b74f17a5261991df565427"
        }
    },
    "disabledSkins": {},
    "displaytext": true,
    "focusskin": "s5a4f67acd3e47b9be6d6910a7a6686f",
    "id": "btnConfirm",
    "ide_onClick": "AS_Button_b2d7390d6f2c44479d31798d90544c74",
    "info": null,
    "isvisible": true,
    "kuid": "b5611fd4e34e44f1b6980b883971d1af",
    "name": "kony.ui.Button",
    "parent": "flxButtons",
    "pf": "frmAddBeneficiaryConfirmEuro",
    "responsiveData": {
        "b1": {
            "right": {
                "type": "string",
                "value": "26dp"
            },
            "width": {
                "type": "string",
                "value": "150dp"
            }
        },
        "b2": {
            "right": {
                "type": "string",
                "value": "26dp"
            },
            "width": {
                "type": "string",
                "value": "150dp"
            }
        },
        "b3": {
            "centerY": {
                "type": "string",
                "value": ""
            },
            "left": {
                "type": "string",
                "value": "2.50%"
            },
            "right": {
                "type": "string",
                "value": "2.50%"
            },
            "top": {
                "type": "string",
                "value": "20dp"
            },
            "width": {
                "type": "string",
                "value": "95%"
            }
        }
    },
    "texti18n": "i18n.transfers.Confirm",
    "tooltip": "Confirm",
    "wType": "Button",
    "zindex": 1
}