{
    "@class": "com.kony.gen.viz.model.component.KVizButton",
    "DNDConfig": null,
    "_bottom_": {
        "type": "number",
        "value": ""
    },
    "_height_": {
        "type": "string",
        "value": "40dp"
    },
    "_left_": {
        "type": "string",
        "value": "320dp"
    },
    "_margin_": [
        6,
        6,
        6,
        6
    ],
    "_padding_": [
        0,
        0,
        0,
        0
    ],
    "_right_": {
        "type": "number",
        "value": ""
    },
    "_skin_": "s8612286e3634efe8501cdb707c64d03",
    "_text_": "Yes",
    "_top_": {
        "type": "string",
        "value": "150dp"
    },
    "_width_": {
        "type": "string",
        "value": "120dp"
    },
    "canUpdateUI": true,
    "containerweight": 100,
    "contentalignment": 5,
    "desktopweb": {
        "psp": {
            "hoverSkin": "s18ce0e2a8da4435814b19a155b3e98c"
        }
    },
    "displaytext": true,
    "focusskin": "s415f40966644638807e02568655482e",
    "id": "btnYes",
    "info": null,
    "iscustomlayout": false,
    "isvisible": true,
    "kuid": "b902aee220a04d2391b7aa8ef23065c3",
    "name": "kony.ui.Button",
    "parent": "flxClosePopup",
    "pf": "userwidgetmodel",
    "responsiveData": {
        "b1": {
            "bottom": {
                "type": "string",
                "value": "20dp"
            },
            "left": {
                "type": "string",
                "value": ""
            },
            "right": {
                "type": "string",
                "value": "5%"
            },
            "skin": "s74653cb097e4dcb8e8dda062cf35bdd",
            "top": {
                "type": "string",
                "value": ""
            },
            "width": {
                "type": "string",
                "value": "30%"
            }
        },
        "b2": {
            "bottom": {
                "type": "string",
                "value": "20dp"
            },
            "left": {
                "type": "string",
                "value": ""
            },
            "right": {
                "type": "string",
                "value": "5%"
            },
            "skin": "s74653cb097e4dcb8e8dda062cf35bdd",
            "top": {
                "type": "string",
                "value": ""
            },
            "width": {
                "type": "string",
                "value": "30%"
            }
        },
        "b3": {
            "bottom": {
                "type": "string",
                "value": "40dp"
            },
            "left": {
                "type": "string",
                "value": ""
            },
            "right": {
                "type": "string",
                "value": "5%"
            },
            "skin": "s74653cb097e4dcb8e8dda062cf35bdd",
            "top": {
                "type": "string",
                "value": ""
            },
            "width": {
                "type": "string",
                "value": "35%"
            }
        },
        "b4": {
            "left": {
                "type": "string",
                "value": ""
            },
            "right": {
                "type": "string",
                "value": "2%"
            },
            "skin": "s74653cb097e4dcb8e8dda062cf35bdd",
            "top": {
                "type": "string",
                "value": "210dp"
            }
        }
    },
    "retaincontentalignment": false,
    "retainflexpositionproperties": false,
    "wType": "Button",
    "zindex": 1
}