{
    "DNDConfig": null,
    "_height_": {
        "type": "ref",
        "value": "preferred"
    },
    "_left_": {
        "type": "string",
        "value": "696px"
    },
    "_margin_": [
        0,
        0,
        0,
        0
    ],
    "_orientation_": 6,
    "_padding_": [
        0,
        0,
        0,
        0
    ],
    "_percent_": true,
    "_right_": {
        "type": "number",
        "value": ""
    },
    "_skin_": "sbe71b1aa4cc4533a0835e6838b3da9c",
    "_top_": {
        "type": "string",
        "value": "0px"
    },
    "_width_": {
        "type": "string",
        "value": "590px"
    },
    "allboxes": [],
    "autogrowmode": 1,
    "canUpdateUI": true,
    "children": [
        "flxSection2Header",
        "flxNewPayeeDetails"
    ],
    "clipbounds": false,
    "containerweight": 100,
    "enablescrolling": true,
    "id": "flxAckSection2",
    "info": null,
    "iscustomlayout": false,
    "isvisible": true,
    "kuid": "jeae9b0b43514540b54ebf020763ba14",
    "layouttype": 4,
    "minheight": {
        "type": "string",
        "value": "400dp"
    },
    "name": "kony.ui.FlexContainer",
    "parent": "flxMiddleContent",
    "pf": "userwidgetmodel",
    "responsiveData": {
        "b1": {
            "left": {
                "type": "string",
                "value": ""
            },
            "minHeight": {
                "type": "string",
                "value": "406dp"
            },
            "right": {
                "type": "string",
                "value": "6%"
            },
            "skin": "sdc143f0e5b64ae3a3f155f691c73fa7",
            "width": {
                "type": "string",
                "value": "43.27%"
            }
        },
        "b2": {
            "left": {
                "type": "string",
                "value": "2.50%"
            },
            "skin": "sdc143f0e5b64ae3a3f155f691c73fa7",
            "top": {
                "type": "string",
                "value": "20dp"
            },
            "width": {
                "type": "string",
                "value": "95%"
            }
        },
        "b3": {
            "left": {
                "type": "string",
                "value": "2%"
            },
            "minHeight": {
                "type": "string",
                "value": "350dp"
            },
            "skin": "sdc143f0e5b64ae3a3f155f691c73fa7",
            "top": {
                "type": "string",
                "value": "20dp"
            },
            "width": {
                "type": "string",
                "value": "96%"
            }
        },
        "b4": {
            "minHeight": {
                "type": "string",
                "value": "406dp"
            },
            "skin": "sdc143f0e5b64ae3a3f155f691c73fa7"
        }
    },
    "retaincontentalignment": false,
    "retainflexpositionproperties": false,
    "retainflowhorizontalalignment": false,
    "snapgridsize": 10,
    "snaptogrid": true,
    "wType": "FlexContainer",
    "widgetalignment": 1,
    "zindex": 1
}