{
    "@class": "com.kony.gen.viz.model.component.KVizLabel",
    "DNDConfig": null,
    "_height_": {
        "type": "ref",
        "value": "preferred"
    },
    "_left_": {
        "type": "string",
        "value": "0dp"
    },
    "_margin_": [
        1,
        1,
        1,
        1
    ],
    "_padding_": [
        0,
        0,
        0,
        0
    ],
    "_skin_": "s7ff24c1300140178bb427d88a56cda3",
    "_text_": "Pay a Person Details",
    "_top_": {
        "type": "number",
        "value": ""
    },
    "_width_": {
        "type": "ref",
        "value": "preferred"
    },
    "_wrapping_": 2,
    "accessibilityconfig": {
        "a11yLabel": "Recipient Details"
    },
    "android": {
        "textStyle": {
            "letterSpacing": 0,
            "strikeThrough": false
        }
    },
    "canUpdateUI": true,
    "centery": {
        "type": "string",
        "value": "50%"
    },
    "containerweight": 100,
    "contentalignment": 4,
    "id": "lblAddressHeader",
    "info": null,
    "ipad": {
        "psp": {
            "wrapping": 2
        }
    },
    "iphone": {
        "psp": {
            "wrapping": 2
        }
    },
    "iscustomlayout": false,
    "isvisible": true,
    "kuid": "ac68e41bff9247b18e166bdd8f50f969",
    "name": "kony.ui.Label",
    "parent": "flxAddressHeader",
    "pf": "userwidgetmodel",
    "responsiveData": {
        "b1": {
            "skin": "sf767bf165d54d209e4a32fcb56e20a8",
            "text": "Transaction Details"
        },
        "b2": {
            "skin": "sf767bf165d54d209e4a32fcb56e20a8",
            "text": "Your Transaction  Details"
        },
        "b3": {
            "centerY": {
                "type": "string",
                "value": ""
            },
            "left": {
                "type": "string",
                "value": "2%"
            },
            "skin": "sc96f8c40ad24e7681ac7928d833c302",
            "text": "Payee Details",
            "top": {
                "type": "string",
                "value": "18dp"
            }
        },
        "b4": {
            "skin": "sf767bf165d54d209e4a32fcb56e20a8",
            "text": "Transaction Details"
        }
    },
    "retaincontentalignment": false,
    "retainflexpositionproperties": false,
    "texti18n": "i18n.payaperson.RecipientDetails",
    "tooltip": "",
    "wType": "Label",
    "zindex": 1
}