{
    "@class": "com.kony.gen.viz.model.component.KVizLabel",
    "DNDConfig": null,
    "_height_": {
        "type": "ref",
        "value": "preferred"
    },
    "_left_": {
        "type": "string",
        "value": "0dp"
    },
    "_margin_": [
        1,
        1,
        1,
        1
    ],
    "_padding_": [
        0,
        0,
        2,
        0
    ],
    "_skin_": "s79d68f935494ed4ab25dedaec0313b4",
    "_text_": "Label",
    "_top_": {
        "type": "string",
        "value": "0dp"
    },
    "_width_": {
        "type": "ref",
        "value": "preferred"
    },
    "_wrapping_": 2,
    "accessibilityconfig": {
        "a11yLabel": "Account Type"
    },
    "android": {
        "textStyle": {
            "letterSpacing": 0,
            "strikeThrough": false
        }
    },
    "canUpdateUI": true,
    "containerweight": 100,
    "contentalignment": 4,
    "id": "lblKey5",
    "info": null,
    "ipad": {
        "psp": {
            "wrapping": 2
        }
    },
    "iphone": {
        "psp": {
            "wrapping": 2
        }
    },
    "isvisible": true,
    "kuid": "c273b5f3b2aa4e0a991e2ffe56d4e3cc",
    "name": "kony.ui.Label",
    "paddinginpixel": false,
    "parent": "flxKey5",
    "pf": "userwidgetmodel",
    "responsiveData": {
        "b1": {
            "skin": "s79d68f935494ed4ab25dedaec0313b4"
        },
        "b2": {
            "skin": "s79d68f935494ed4ab25dedaec0313b4"
        },
        "b3": {
            "skin": "s79d68f935494ed4ab25dedaec0313b4",
            "text": "Label"
        },
        "b4": {
            "skin": "s79d68f935494ed4ab25dedaec0313b4"
        }
    },
    "texti18n": "i18n.transfers.accountType",
    "tooltip": "",
    "wType": "Label",
    "zindex": 1
}