{
    "DNDConfig": null,
    "_bottom_": {
        "type": "string",
        "value": "11dp"
    },
    "_height_": {
        "type": "string",
        "value": "60dp"
    },
    "_left_": {
        "type": "string",
        "value": "6%"
    },
    "_margin_": [
        0,
        0,
        0,
        0
    ],
    "_orientation_": 6,
    "_padding_": [
        0,
        0,
        0,
        0
    ],
    "_percent_": true,
    "_skin_": "sdc143f0e5b64ae3a3f155f691c73fa7",
    "_width_": {
        "type": "string",
        "value": "87.50%"
    },
    "allboxes": [],
    "autogrowmode": 0,
    "canUpdateUI": true,
    "children": [
        "imgErrorInfo",
        "txtErrorInfo"
    ],
    "clipbounds": true,
    "containerweight": 100,
    "enablescrolling": true,
    "id": "flxErrorInfo",
    "info": null,
    "iscustomlayout": false,
    "isvisible": false,
    "kuid": "e1c00bb03f964fd492e91e4ae46a368a",
    "layouttype": 3,
    "name": "kony.ui.FlexContainer",
    "parent": "flxMainWrapper",
    "pf": "frmInstrumentDetails",
    "responsiveData": {
        "b1": {
            "left": {
                "type": "string",
                "value": "86dp"
            }
        },
        "b2": {
            "isVisible": false,
            "left": {
                "type": "string",
                "value": "2.50%"
            },
            "width": {
                "type": "string",
                "value": "95%"
            }
        }
    },
    "retaincontentalignment": false,
    "retainflexpositionproperties": false,
    "retainflowhorizontalalignment": false,
    "snapgridsize": 10,
    "snaptogrid": true,
    "wType": "FlexContainer",
    "widgetalignment": 1
}