{
    "@class": "com.kony.gen.viz.model.component.KVizButton",
    "DNDConfig": null,
    "__parentReadjusting__": false,
    "_height_": {
        "type": "string",
        "value": "50dp"
    },
    "_margin_": [
        6,
        6,
        6,
        6
    ],
    "_padding_": [
        0,
        0,
        0,
        0
    ],
    "_right_": {
        "type": "string",
        "value": "30dp"
    },
    "_skin_": "sfbbba35ede4457b94eb681b72349b98",
    "_text_": "CREATE NEW ACCOUNT",
    "_width_": {
        "type": "string",
        "value": "258dp"
    },
    "canUpdateUI": true,
    "centery": {
        "type": "string",
        "value": "50%"
    },
    "containerweight": 100,
    "contentalignment": 5,
    "desktopweb": {
        "psp": {
            "hoverSkin": "s81054b5e2b74f17a5261991df565427"
        }
    },
    "disabledSkins": {
        "focusSkin": "sf44d06ca8224832827ea7fdff757013"
    },
    "displaytext": true,
    "id": "btnProceedNotEligible",
    "info": null,
    "isvisible": true,
    "kuid": "jf54b2fe2ef3456cae42185ac00161ee",
    "name": "kony.ui.Button",
    "parent": "flxButtonsNotEligible",
    "pf": "userwidgetmodel",
    "texti18n": "i18n.WireTransfer.CreateNewAccount",
    "tooltip": "Create New Account",
    "wType": "Button",
    "zindex": 2,
    "accessibilityconfig": {
        "a11yLabel": "Open New Account"
    }
}