{
    "DNDConfig": null,
    "__parentReadjusting__": false,
    "_height_": {
        "type": "string",
        "value": "580px"
    },
    "_left_": {
        "type": "string",
        "value": "-6dp"
    },
    "_margin_": [
        0,
        0,
        0,
        0
    ],
    "_orientation_": 6,
    "_padding_": [
        0,
        0,
        0,
        0
    ],
    "_percent_": true,
    "_skin_": "s24c92fc23b14f5484b693ee9b8a9b35",
    "_top_": {
        "type": "string",
        "value": "0dp"
    },
    "_width_": {
        "type": "string",
        "value": "100.47%"
    },
    "allboxes": [],
    "autogrowmode": 0,
    "canUpdateUI": true,
    "children": [
        "flxHeader",
        "flxSeparator",
        "flxWarning",
        "lblHeading2",
        "flxone",
        "flxtwo",
        "flxThree",
        "flxFour",
        "flxDefaultAccount",
        "flxAgree",
        "flxSeparator2",
        "flxButtons"
    ],
    "clipbounds": true,
    "containerweight": 100,
    "enablescrolling": true,
    "id": "flxActivateMain",
    "info": null,
    "isvisible": true,
    "kuid": "ba07311af32e4c0981774d17465f6f91",
    "layouttype": 4,
    "name": "kony.ui.FlexContainer",
    "parent": "Activate",
    "pf": "userwidgetmodel",
    "snapgridsize": 10,
    "snaptogrid": true,
    "wType": "FlexContainer",
    "widgetalignment": 1,
    "zindex": 2
}