{
    "@class": "com.kony.gen.viz.model.component.KVizLabel",
    "DNDConfig": null,
    "__parentReadjusting__": false,
    "_height_": {
        "type": "string",
        "value": "10%"
    },
    "_left_": {
        "type": "string",
        "value": "89dp"
    },
    "_margin_": [
        1,
        1,
        1,
        1
    ],
    "_padding_": [
        2,
        0,
        2,
        2
    ],
    "_skin_": "sfc804c74cbf4285b3364b91ea7d3c4e",
    "_text_": "You do not have any billers in your list.  Please add biller to proceed further.",
    "_top_": {
        "type": "string",
        "value": "35px"
    },
    "_width_": {
        "type": "string",
        "value": "50%"
    },
    "_wrapping_": 2,
    "android": {
        "textStyle": {
            "letterSpacing": 0,
            "strikeThrough": false
        }
    },
    "canUpdateUI": true,
    "centerx": {
        "type": "string",
        "value": "50%"
    },
    "containerweight": 100,
    "contentalignment": 5,
    "id": "lblAddBiller",
    "info": null,
    "ipad": {
        "psp": {
            "wrapping": 2
        }
    },
    "iphone": {
        "psp": {
            "wrapping": 2
        }
    },
    "isvisible": true,
    "kuid": "ccfbf28a09434885a5996fdba3008792",
    "name": "kony.ui.Label",
    "paddinginpixel": false,
    "parent": "flxActivateAcknowledgement",
    "pf": "userwidgetmodel",
    "tooltip": "",
    "wType": "Label",
    "zindex": 1,
    "accessibilityconfig": {
        "a11yLabel": "You do not have any billers in your list.  Please add biller to proceed further."
    }
}