{
    "@class": "com.kony.gen.viz.model.container.KVizSegment2",
    "DNDConfig": null,
    "__parentReadjusting__": false,
    "_data_": [],
    "_height_": {
        "type": "ref",
        "value": "preferred"
    },
    "_indicator_": "none",
    "_left_": {
        "type": "string",
        "value": "0dp"
    },
    "_margin_": [
        0,
        0,
        0,
        0
    ],
    "_orientation_": 2,
    "_padding_": [
        0,
        0,
        0,
        0
    ],
    "_top_": {
        "type": "string",
        "value": "5dp"
    },
    "_width_": {
        "type": "string",
        "value": "100%"
    },
    "autogrowmode": 1,
    "canUpdateUI": true,
    "containerweight": 100,
    "counter": "00",
    "desktop": {
        "_data_": [],
        "rowTemplateId": "be4d6032ef254224af2c520d949d2d14",
        "rowtemplate": "flxDefaultAccountFilterRowTemplate",
        "selectionBehaviorConfig": {},
        "widgetdatamap": {
            "flxAccountFilterRowTemplate": "flxAccountFilterRowTemplate",
            "flxDelete": "flxDelete",
            "flxEdit": "flxEdit",
            "lblDelete": "lblDelete",
            "lblEdit": "lblEdit",
            "lblFilterValue": "lblFilterValue",
            "lblRadioButton": "lblRadioButton"
        }
    },
    "focusedindex": null,
    "focuseditem": null,
    "groupcells": false,
    "hasSections": false,
    "id": "segDefaultFilters",
    "info": null,
    "ipad": {
        "psp": {
            "indicator": "rowselect"
        }
    },
    "iphone": {
        "psp": {
            "indicator": "rowselect"
        }
    },
    "iscustomlayout": false,
    "isvisible": true,
    "kuid": "ia33844dad754e4aad9f92d7b710a163",
    "masterdata": {},
    "name": "kony.ui.SegmentedUI2",
    "needpageindicator": true,
    "pageoffdotimage": "pageoffdot.png",
    "pageondotimage": "pageondot.png",
    "paginationconfig": {
        "position": "bottom"
    },
    "parent": "flxDefaultFiltersWrapper",
    "pf": "userwidgetmodel",
    "retaincontentalignment": false,
    "retainflexpositionproperties": false,
    "retainselection": false,
    "rowcounter": 0,
    "rowfocusskin": "s0f9bf3c1b3e4a7bb6bf9fd18b0211f2",
    "rowskin": "scf5f90f6ac04976ab88b2a4f7153285",
    "rowtemplate": "flxDefaultAccountFilterRowTemplate",
    "screenlevelwidget": false,
    "seccounter": 0,
    "sectionheaderskin": "sdc4ff4ed1584272be2ae69045dfb29d",
    "selectedRows": null,
    "selectedState": false,
    "selectedindex": null,
    "selectedindices": null,
    "selecteditems": null,
    "selectedsectionindex": 0,
    "selectionbehavior": "default",
    "separatorcolor": "aaaaaa00",
    "separatorrequired": true,
    "separatorthickness": 0,
    "showscrollbars": false,
    "viewtype": "tableview",
    "vizProps": {},
    "wType": "Segment",
    "widgetalignment": 5,
    "widgetdatamap": {
        "flxAccountFilterRowTemplate": "flxAccountFilterRowTemplate",
        "flxDelete": "flxDelete",
        "flxEdit": "flxEdit",
        "lblDelete": "lblDelete",
        "lblEdit": "lblEdit",
        "lblFilterValue": "lblFilterValue",
        "lblRadioButton": "lblRadioButton"
    },
    "zindex": 1
}