{
    "@class": "com.kony.gen.viz.model.component.KVizLabel",
    "DNDConfig": null,
    "__parentReadjusting__": false,
    "_height_": {
        "type": "string",
        "value": "100%"
    },
    "_left_": {
        "type": "string",
        "value": "3dp"
    },
    "_margin_": [
        1,
        1,
        1,
        1
    ],
    "_padding_": [
        0,
        0,
        0,
        0
    ],
    "_skin_": "s5cfc7eedaa64cd6b4c1972cc50846ef",
    "_text_": "You do not have any accounts added in this category. Please add an international account to proceed further.",
    "_top_": {
        "type": "string",
        "value": "0dp"
    },
    "_width_": {
        "type": "string",
        "value": "60%"
    },
    "_wrapping_": 2,
    "accessibilityconfig": {
        "a11yLabel": "Transfers"
    },
    "android": {
        "textStyle": {
            "letterSpacing": 0,
            "strikeThrough": false
        }
    },
    "canUpdateUI": true,
    "containerweight": 100,
    "contentalignment": 4,
    "id": "txtMessage",
    "info": null,
    "ipad": {
        "psp": {
            "wrapping": 2
        }
    },
    "iphone": {
        "psp": {
            "wrapping": 2
        }
    },
    "isvisible": true,
    "kuid": "e591f0c1b5d04d9797e88683d39898b0",
    "name": "kony.ui.Label",
    "parent": "flxMessage",
    "pf": "userwidgetmodel",
    "texti18n": "i18n.hamburger.transfers",
    "tooltip": "",
    "wType": "Label",
    "zindex": 1
}