{
    "@class": "com.kony.gen.viz.model.component.KVizButton",
    "DNDConfig": null,
    "__parentReadjusting__": false,
    "_bottom_": {
        "type": "number",
        "value": ""
    },
    "_height_": {
        "type": "string",
        "value": "40dp"
    },
    "_margin_": [
        6,
        6,
        6,
        6
    ],
    "_padding_": [
        0,
        0,
        0,
        0
    ],
    "_right_": {
        "type": "string",
        "value": "190dp"
    },
    "_skin_": "s6dd66d624c2424b8a4d5b93efef2f3d",
    "_text_": "",
    "_top_": {
        "type": "string",
        "value": "250px"
    },
    "_width_": {
        "type": "string",
        "value": "150dp"
    },
    "accessibilityconfig": {
        "a11yLabel": "Maybe Later"
    },
    "canUpdateUI": true,
    "containerweight": 100,
    "contentalignment": 5,
    "desktopweb": {
        "psp": {
            "hoverSkin": "s83729feaa224e359d660d5af05c4bac"
        }
    },
    "displaytext": true,
    "focusskin": "sb23593b913b4005add4a246020aa1cc",
    "id": "btnNo",
    "info": null,
    "isvisible": true,
    "kuid": "e0e2739a9d5b47339b539ff284bfcb56",
    "name": "kony.ui.Button",
    "parent": "flxConfirmDefaultAccountPopUp",
    "pf": "frmMakeOneTimePayment",
    "responsiveData": {
        "b3": {
            "bottom": {
                "type": "string",
                "value": "20dp"
            },
            "right": {
                "type": "string",
                "value": "160dp"
            },
            "width": {
                "type": "string",
                "value": "120dp"
            }
        }
    },
    "texti18n": "i18n.CustomerFeedback.MaybeLater",
    "tooltip": "Maybe Later",
    "wType": "Button",
    "zindex": 1
}