{
    "DNDConfig": null,
    "__parentReadjusting__": false,
    "_height_": {
        "type": "ref",
        "value": "preferred"
    },
    "_left_": {
        "type": "string",
        "value": "51%"
    },
    "_margin_": [
        0,
        0,
        0,
        0
    ],
    "_orientation_": 6,
    "_padding_": [
        0,
        0,
        0,
        0
    ],
    "_percent_": true,
    "_skin_": "s24c92fc23b14f5484b693ee9b8a9b35",
    "_top_": {
        "type": "string",
        "value": "12.20%"
    },
    "_width_": {
        "type": "string",
        "value": "45.40%"
    },
    "allboxes": [],
    "autogrowmode": 1,
    "canUpdateUI": true,
    "children": [
        "lblAccountNumberValue"
    ],
    "clipbounds": true,
    "containerweight": 100,
    "desktopweb": {
        "psp": {}
    },
    "disabledSkins": {
        "focusSkin": "s24c92fc23b14f5484b693ee9b8a9b35",
        "hoverSkin": "s24c92fc23b14f5484b693ee9b8a9b35"
    },
    "enablescrolling": true,
    "id": "flxAccountNumber",
    "info": null,
    "isvisible": true,
    "kuid": "g904e0d905c44a338ca35b53cc8fb911",
    "layouttype": 4,
    "name": "kony.ui.FlexContainer",
    "parent": "flxAccountDetails",
    "pf": "frmMakeOneTimePayment",
    "responsiveData": {
        "b1": {
            "top": {
                "type": "string",
                "value": "45dp"
            }
        },
        "b2": {
            "top": {
                "type": "string",
                "value": "45dp"
            }
        },
        "b3": {
            "top": {
                "type": "string",
                "value": "45dp"
            }
        },
        "b4": {
            "top": {
                "type": "string",
                "value": "45dp"
            }
        }
    },
    "snapgridsize": 10,
    "snaptogrid": true,
    "wType": "FlexContainer",
    "widgetalignment": 1,
    "zindex": 1
}