{
    "DNDConfig": null,
    "__parentReadjusting__": false,
    "_height_": {
        "type": "string",
        "value": "100%"
    },
    "_margin_": [
        0,
        0,
        0,
        0
    ],
    "_orientation_": 6,
    "_padding_": [
        0,
        0,
        0,
        0
    ],
    "_percent_": true,
    "_right_": {
        "type": "string",
        "value": "6.30%"
    },
    "_skin_": "s24c92fc23b14f5484b693ee9b8a9b35",
    "_top_": {
        "type": "string",
        "value": "0dp"
    },
    "_width_": {
        "type": "string",
        "value": "40dp"
    },
    "allboxes": [],
    "canUpdateUI": true,
    "children": [
        "imgDownloadIcon"
    ],
    "clipbounds": true,
    "containerweight": 100,
    "enablescrolling": true,
    "id": "flxDownload",
    "info": null,
    "isvisible": false,
    "kuid": "h6c3bc597f9a42eeb86925f40dcc3675",
    "layouttype": 2,
    "name": "kony.ui.FlexContainer",
    "parent": "flxContentHeader",
    "pf": "frmMakeOneTimePayment",
    "responsiveData": {
        "b1": {
            "height": {
                "type": "string",
                "value": "25dp"
            },
            "top": {
                "type": "string",
                "value": "22dp"
            }
        },
        "b2": {
            "height": {
                "type": "string",
                "value": "25dp"
            },
            "top": {
                "type": "string",
                "value": "22dp"
            }
        }
    },
    "snapgridsize": 10,
    "snaptogrid": true,
    "wType": "FlexContainer",
    "widgetalignment": 1,
    "zindex": 20
}