{
    "@class": "com.kony.gen.viz.model.component.KVizTextBox2",
    "DNDConfig": null,
    "__parentReadjusting__": false,
    "_bottom_": {
        "type": "number",
        "value": ""
    },
    "_height_": {
        "type": "string",
        "value": "40dp"
    },
    "_left_": {
        "type": "string",
        "value": "3.77%"
    },
    "_margin_": [
        0,
        0,
        0,
        0
    ],
    "_padding_": [
        2,
        0,
        0,
        0
    ],
    "_placeholder_": "",
    "_right_": {
        "type": "number",
        "value": ""
    },
    "_skin_": "s5f5a9f8c3a548e281fa49915b760e95",
    "_text_": "",
    "_top_": {
        "type": "string",
        "value": "80%"
    },
    "_width_": {
        "type": "string",
        "value": "45.30%"
    },
    "accessibilityconfig": {
        "a11yLabel": "Optional"
    },
    "autocapitalize": "none",
    "autocomplete": false,
    "autocorrect": false,
    "autofilter": false,
    "canUpdateUI": true,
    "containerheight": "",
    "containerheightmode": 1,
    "containerweight": 100,
    "contentalignment": 4,
    "desktopweb": {
        "psp": {
            "hoverSkin": "s80a8c5539a441ee9b9b49917cc45cc2"
        }
    },
    "focusskin": "s2faf9c2766d4142ab33d0bf97445ae0",
    "id": "txtNotes",
    "info": null,
    "isvisible": true,
    "keyboardtype": "A",
    "kiosk": {
        "psp": {
            "toolTip": "Notes"
        }
    },
    "kuid": "ce6520fe9cb043f8b677b9248565d21c",
    "maxtextlength": 150,
    "mode": "A",
    "name": "kony.ui.TextBox2",
    "paddinginpixel": false,
    "parent": "flxDetails",
    "pf": "frmMakeOneTimePayment",
    "placeholderi18n": "i18n.transfers.optional",
    "responsiveData": {
        "b2": {
            "top": {
                "type": "string",
                "value": "82%"
            }
        },
        "b3": {
            "bottom": {
                "type": "string",
                "value": ""
            },
            "left": {
                "type": "string",
                "value": "3%"
            },
            "right": {
                "type": "string",
                "value": ""
            },
            "top": {
                "type": "string",
                "value": "445dp"
            },
            "width": {
                "type": "string",
                "value": "94%"
            }
        }
    },
    "securetextentry": false,
    "textinputmode": "A",
    "viewtype": "default",
    "wType": "TextField",
    "zindex": 1
}