{
    "@class": "com.kony.gen.viz.model.component.KVizButton",
    "DNDConfig": null,
    "__parentReadjusting__": false,
    "_height_": {
        "type": "string",
        "value": "100%"
    },
    "_left_": {
        "type": "string",
        "value": "48%"
    },
    "_margin_": [
        6,
        6,
        6,
        6
    ],
    "_padding_": [
        0,
        0,
        0,
        0
    ],
    "_skin_": "s4be8bdf85bf477882e287999fecbcd9",
    "_text_": "Search",
    "_top_": {
        "type": "string",
        "value": "0dp"
    },
    "_width_": {
        "type": "string",
        "value": "40%"
    },
    "accessibilityconfig": {
        "a11yLabel": "Search"
    },
    "canUpdateUI": true,
    "containerweight": 100,
    "contentalignment": 5,
    "desktopweb": {
        "psp": {
            "hoverSkin": "s4fe0674a3c84b76a21524a90bad4282"
        }
    },
    "disabledSkins": {},
    "displaytext": true,
    "focusskin": "s4fe0674a3c84b76a21524a90bad4282",
    "id": "btnSearch",
    "info": null,
    "isvisible": true,
    "kuid": "e0114529408a4d60a59b6bf7d7dc4ed2",
    "name": "kony.ui.Button",
    "parent": "flxActions",
    "pf": "userwidgetmodel",
    "tooltip": "Search",
    "wType": "Button",
    "zindex": 1
}