{
	"DNDConfig": null,
	"__parentReadjusting__": false,
	"_height_": {
		"type": "string",
		"value": "100%"
	},
	"_left_": {
		"type": "string",
		"value": "490dp"
	},
	"_margin_": [
		0,
		0,
		0,
		0
	],
	"_orientation_": 6,
	"_padding_": [
		0,
		0,
		0,
		0
	],
	"_percent_": true,
	"_skin_": "s24c92fc23b14f5484b693ee9b8a9b35",
	"_top_": {
		"type": "string",
		"value": "0.83%"
	},
	"_width_": {
		"type": "string",
		"value": "150dp"
	},
	"allboxes": [],
	"autogrowmode": 0,
	"canUpdateUI": true,
	"children": [
		"lblMyChequePayeeName",
		"imgSort2"
	],
	"clipbounds": true,
	"containerweight": 100,
	"enablescrolling": true,
	"id": "flxMyChequePayeeName",
	"info": null,
	"iscustomlayout": false,
	"isvisible": true,
	"kuid": "e92f5d816a294b52bf3f3a46be174d3a",
	"layouttype": 2,
	"name": "kony.ui.FlexContainer",
	"parent": "flxMyCheques",
	"pf": "userwidgetmodel",
	"retaincontentalignment": false,
	"retainflexpositionproperties": false,
	"retainflowhorizontalalignment": false,
	"snapgridsize": 10,
	"snaptogrid": true,
	"wType": "FlexContainer",
	"widgetalignment": 1,
	"zindex": 1
}