{
    "@class": "com.kony.gen.viz.model.component.KVizButton",
    "DNDConfig": null,
    "_height_": {
        "type": "string",
        "value": "30dp"
    },
    "_left_": {
        "type": "string",
        "value": "20px"
    },
    "_margin_": [
        6,
        6,
        6,
        6
    ],
    "_padding_": [
        0,
        0,
        0,
        0
    ],
    "_skin_": "s8629dca0a2e40e582d8268f1e70d64f",
    "_text_": "+ Add New Approval Limit",
    "_top_": {
        "type": "string",
        "value": "0"
    },
    "_width_": {
        "type": "string",
        "value": "170dp"
    },
    "canUpdateUI": true,
    "centery": {
        "type": "string",
        "value": "50%"
    },
    "containerweight": 100,
    "contentalignment": 5,
    "disabledSkins": {
        "focusSkin": "sf44d06ca8224832827ea7fdff757013"
    },
    "displaytext": true,
    "id": "btnAddAnotherRow",
    "info": null,
    "iscustomlayout": false,
    "isvisible": true,
    "kuid": "b971d77c5029468591c27af39fd80735",
    "name": "kony.ui.Button",
    "parent": "flxAddRowContainer",
    "pf": "frmProfileManagement",
    "retaincontentalignment": false,
    "retainflexpositionproperties": false,
    "wType": "Button"
}