{
    "@class": "com.kony.gen.viz.model.component.KVizLabel",
    "DNDConfig": null,
    "_height_": {
        "type": "string",
        "value": "20dp"
    },
    "_margin_": [
        1,
        1,
        1,
        1
    ],
    "_padding_": [
        0,
        0,
        0,
        0
    ],
    "_skin_": "s3e63ea9f083459c9fffb6971bcd3299",
    "_text_": "g",
    "_width_": {
        "type": "string",
        "value": "20dp"
    },
    "_wrapping_": 2,
    "accessibilityconfig": {
        "a11yLabel": "QUIT BILL PAY"
    },
    "android": {
        "textStyle": {
            "letterSpacing": 0,
            "strikeThrough": false
        }
    },
    "canUpdateUI": true,
    "centerx": {
        "type": "string",
        "value": "50%"
    },
    "centery": {
        "type": "string",
        "value": "50%"
    },
    "containerweight": 100,
    "contentalignment": 4,
    "id": "lblCrossRevokedHeading",
    "info": null,
    "ipad": {
        "psp": {
            "wrapping": 2
        }
    },
    "iphone": {
        "psp": {
            "wrapping": 2
        }
    },
    "isvisible": true,
    "kuid": "jd02ad14b31745868782c193b38422cc",
    "name": "kony.ui.Label",
    "parent": "flxCrossRevokedHeading",
    "pf": "frmProfileManagement",
    "tooltip": "",
    "wType": "Label",
    "zindex": 1
}