{
    "DNDConfig": null,
    "_height_": {
        "type": "string",
        "value": "1dp"
    },
    "_left_": {
        "type": "string",
        "value": "0%"
    },
    "_margin_": [
        0,
        0,
        0,
        0
    ],
    "_orientation_": 6,
    "_padding_": [
        0,
        0,
        0,
        0
    ],
    "_percent_": true,
    "_right_": {
        "type": "string",
        "value": "0%"
    },
    "_skin_": "sd8c129bd6814cb6a7c3e69543d96f7b",
    "_top_": {
        "type": "string",
        "value": "10dp"
    },
    "_width_": {
        "type": "string",
        "value": "100%"
    },
    "allboxes": [],
    "autogrowmode": 0,
    "canUpdateUI": true,
    "children": [],
    "clipbounds": true,
    "containerweight": 100,
    "enablescrolling": true,
    "id": "lblseparator",
    "info": null,
    "isvisible": true,
    "kuid": "d16349b51523484290883969e67b4e8f",
    "layouttype": 2,
    "name": "kony.ui.FlexContainer",
    "parent": "flxRevokedPopupContent",
    "pf": "frmProfileManagement",
    "responsiveData": {
        "b1": {
            "top": {
                "type": "string",
                "value": "50dp"
            }
        },
        "b2": {
            "top": {
                "type": "string",
                "value": "50dp"
            }
        },
        "b3": {
            "top": {
                "type": "string",
                "value": "50dp"
            }
        }
    },
    "snapgridsize": 10,
    "snaptogrid": true,
    "wType": "FlexContainer",
    "widgetalignment": 1,
    "zindex": 1
}