{
    "@class": "com.kony.gen.viz.model.component.KVizRichText",
    "DNDConfig": null,
    "_height_": {
        "type": "ref",
        "value": "preferred"
    },
    "_left_": {
        "type": "string",
        "value": "50dp"
    },
    "_margin_": [
        0,
        0,
        0,
        0
    ],
    "_padding_": [
        0,
        0,
        0,
        0
    ],
    "_right_": {
        "type": "string",
        "value": "5%"
    },
    "_skin_": "sc4cc30bc71442ee9f8b2e9230a973fa",
    "_text_": "Upon disabling,you will not receive any alert further\n",
    "_width_": {
        "type": "string",
        "value": "90%"
    },
    "_wrapping_": 2,
    "accessibilityconfig": {
        "a11yLabel": "Alerts is enabled. you will receive Alerts for Balance & spending related activities. You can select the Alerts & the channel."
    },
    "canUpdateUI": true,
    "centery": {
        "type": "string",
        "value": "50%"
    },
    "containerweight": 100,
    "contentalignment": 4,
    "id": "rtxAlertsDisableWarning",
    "info": null,
    "isvisible": true,
    "kuid": "hb6a8b1ccf704ed8b8b3ea9230abc31d",
    "name": "kony.ui.RichText",
    "parent": "flxAlertsDisableWarningWrapper",
    "pf": "frmProfileManagement",
    "responsiveData": {
        "b1": {}
    },
    "texti18n": "i18n.Profilemanagement.AlertsDisableWarning",
    "wType": "RichText",
    "widgetalignment": 5,
    "zindex": 1
}