{
    "@class": "com.kony.gen.viz.model.component.KVizUserWidget",
    "DNDConfig": null,
    "_children_": [],
    "_height_": {
        "type": "string",
        "value": "70dp"
    },
    "_left_": {
        "type": "string",
        "value": "0px"
    },
    "_margin_": [
        0,
        0,
        0,
        0
    ],
    "_orientation_": 1,
    "_padding_": [
        0,
        0,
        0,
        0
    ],
    "_percent_": true,
    "_skin_": "s24c92fc23b14f5484b693ee9b8a9b35",
    "_top_": {
        "type": "string",
        "value": "20dp"
    },
    "_width_": {
        "type": "string",
        "value": "100%"
    },
    "areflexpropsreferenced": false,
    "autogrowmode": 0,
    "canUpdateUI": true,
    "clipbounds": false,
    "containerweight": 0,
    "dataDiffs": {
        "Search": {
            "__events__": {},
            "__info__": {
                "isRoot": true,
                "kuid": "h3ef808b8fa44343bd3b277343f2c393",
                "srcKUID": "afd57c04bad743bba99d0e5529f286ef",
                "wType": "FlexContainer"
            },
            "autogrowMode": {
                "Default": 0
            },
            "height": {
                "Default": {
                    "type": "string",
                    "value": "70dp"
                }
            },
            "left": {
                "Default": {
                    "type": "string",
                    "value": "0px"
                }
            },
            "responsiveData": {},
            "top": {
                "Default": {
                    "type": "string",
                    "value": "20dp"
                }
            },
            "width": {
                "Default": {
                    "type": "string",
                    "value": "100%"
                }
            }
        },
        "btnConfirm": {
            "__events__": {},
            "__info__": {
                "kuid": "i76b28c587a14717a49422b43e79e172",
                "srcKUID": "e9702e4808614e879fc1c538e8418494",
                "wType": "FlexContainer"
            },
            "responsiveData": {
                "b3": {}
            },
            "width": {
                "Default": {
                    "type": "string",
                    "value": "40dp"
                }
            }
        },
        "btnConfirm1": {
            "__events__": {},
            "__info__": {
                "kuid": "jc4fa67640ea4ffebf0ddbd38665f8ac",
                "srcKUID": "af76dace2e82450d9f162b8462c58110",
                "wType": "Button"
            },
            "responsiveData": {
                "b3": {
                    "isVisible": false
                }
            }
        },
        "flxClearBtn": {
            "__events__": {},
            "__info__": {
                "kuid": "f95dffda1afc4b72a403da53d7bbf0ce",
                "srcKUID": "d3fe792123d04455b5f0b964efb41461",
                "wType": "FlexContainer"
            },
            "isVisible": false,
            "responsiveData": {
                "b3": {
                    "right": {
                        "type": "string",
                        "value": "3.70%"
                    },
                    "width": {
                        "type": "string",
                        "value": "5%"
                    }
                }
            },
            "right": {},
            "width": {}
        },
        "flxtxtSearchandClearbtn": {
            "__events__": {},
            "__info__": {
                "kuid": "f5ec81f095f745dc8c223f49788a1c93",
                "srcKUID": "c09f8d65274f4847b9b386da774ae9ed",
                "wType": "FlexContainer"
            },
            "autogrowMode": {
                "Default": 0
            },
            "centerX": {},
            "height": {
                "Default": {
                    "type": "string",
                    "value": "40dp"
                }
            },
            "left": {
                "Default": {
                    "type": "string",
                    "value": "21dp"
                }
            },
            "responsiveData": {
                "b3": {
                    "centerX": {
                        "type": "string",
                        "value": "50%"
                    }
                }
            },
            "width": {
                "Default": {
                    "type": "string",
                    "value": "96%"
                }
            }
        },
        "imgCross": {
            "__events__": {},
            "__info__": {
                "kuid": "i8a56950b8bb4597b94565b8cdd91b00",
                "srcKUID": "eaa7b734e8034d52976bb1bb5a6ef8df",
                "wType": "Image"
            },
            "src": "icon_close_grey_2.png"
        },
        "lblSearch": {
            "__events__": {},
            "__info__": {
                "kuid": "g035dacd98054753816b4e0911bdff0a",
                "srcKUID": "ha872e5f14bd4b81be4c93f1a3c18480",
                "wType": "Label"
            },
            "responsiveData": {},
            "text": "e",
            "width": {
                "Default": {
                    "type": "string",
                    "value": "20dp"
                }
            }
        },
        "txtSearch": {
            "__events__": {},
            "__info__": {
                "kuid": "cc7d5b8c64fe4511b62415faaeefbb22",
                "srcKUID": "i3f8ddcc8538436280c67c4c0ccc7cb6",
                "wType": "TextField"
            },
            "i18n_placeholder": "i18n.billpay.searchForKeywords",
            "placeholder": "",
            "responsiveData": {
                "b3": {
                    "width": {
                        "type": "string",
                        "value": "86%"
                    }
                }
            },
            "text": "",
            "width": {}
        }
    },
    "enablescrolling": true,
    "id": "Search",
    "info": null,
    "isdatareferenced": false,
    "isvisible": true,
    "kuid": "h3ef808b8fa44343bd3b277343f2c393",
    "layouttype": 2,
    "masterType": 0,
    "name": "kony.ui.UserWidgetInstance",
    "parent": "flxMainWrapper",
    "pf": "frmApprovalMatrixAccountLevel",
    "snapgridsize": 10,
    "snaptogrid": true,
    "sourceUserWidget": "afd57c04bad743bba99d0e5529f286ef",
    "wType": "UserWidgetInstance"
}