{
    "@class": "com.kony.gen.viz.model.component.KVizLabel",
    "DNDConfig": null,
    "__parentReadjusting__": false,
    "_height_": {
        "type": "ref",
        "value": "preferred"
    },
    "_left_": {
        "type": "string",
        "value": "10dp"
    },
    "_margin_": [
        1,
        1,
        1,
        1
    ],
    "_padding_": [
        0,
        0,
        0,
        0
    ],
    "_skin_": "s99da42c63bb4cada02062579733a547",
    "_text_": "Please select your security challenge questions. We may ask you to answer these questions when we detect a change in your activity, like when you log in from a new device, or make an usual transaction.",
    "_top_": {
        "type": "string",
        "value": "0dp"
    },
    "_width_": {
        "type": "string",
        "value": "82%"
    },
    "_wrapping_": 2,
    "accessibilityconfig": {
        "a11yLabel": "Please select your security challenge questions. We may ask you to answer these questions when we detect a change in your activity, like when you log in from a new device, or make an usual transaction."
    },
    "android": {
        "textStyle": {
            "letterSpacing": 0,
            "strikeThrough": false
        }
    },
    "canUpdateUI": true,
    "containerweight": 100,
    "contentalignment": 1,
    "id": "lblRules",
    "info": null,
    "ipad": {
        "psp": {
            "wrapping": 2
        }
    },
    "iphone": {
        "psp": {
            "wrapping": 2
        }
    },
    "isvisible": true,
    "kuid": "he05be12b0d04a50b5f5c81cc3916508",
    "name": "kony.ui.Label",
    "parent": "flxPasswordRules",
    "pf": "userwidgetmodel",
    "tooltip": "",
    "wType": "Label",
    "zindex": 1
}