{
    "@class": "com.kony.gen.viz.model.component.KVizListBox",
    "DNDConfig": null,
    "__parentReadjusting__": false,
    "_height_": {
        "type": "string",
        "value": "40dp"
    },
    "_left_": {
        "type": "string",
        "value": "0%"
    },
    "_margin_": [
        0,
        0,
        0,
        0
    ],
    "_padding_": [
        3,
        0,
        0,
        0
    ],
    "_skin_": "sfbdba3294874c128c510053e8925f33",
    "_top_": {
        "type": "string",
        "value": "5dp"
    },
    "_width_": {
        "type": "string",
        "value": "100%"
    },
    "canUpdateUI": true,
    "containerweight": 100,
    "contentalignment": 4,
    "context": {
        "channel": "desktop",
        "formID": "uwu22aa0060fa94dc2ba63c3890dc131d9",
        "platform": "desktopweb",
        "templateType": "userwidgets",
        "topLevelBox": null
    },
    "groupcells": false,
    "id": "lbxQuestion1",
    "info": null,
    "isvisible": true,
    "kuid": "cd793a046ad04ac488021d6a2b9b2739",
    "masterdata": [
        [
            "lb1",
            "In which city were you born?"
        ],
        [
            "lb2",
            "Who is your favourite hollywood actor?"
        ],
        [
            "lb3",
            "What is your favourite holiday destination?"
        ],
        [
            "lb4",
            "Who is your favourite sports man?"
        ],
        [
            "lb5",
            "What is your favourite dish?"
        ]
    ],
    "name": "kony.ui.ListBox",
    "parent": "flxSecurityQASet1",
    "pf": "userwidgetmodel",
    "selectedkey": "lb1",
    "selectedkeys": null,
    "selectedkeyvalue": [
        "lb1",
        "In which city were you born?"
    ],
    "selectedkeyvalues": null,
    "size": 18,
    "viewconfig": {
        "toggleViewConfig": {
            "viewStyle": 0
        }
    },
    "viewtype": 0,
    "wType": "ListBox",
    "zindex": 1,
    "focusskin": "s9eb08f78097439eb767801e8fdeb5cd"
}