{
    "DNDConfig": null,
    "_height_": {
        "type": "string",
        "value": "230dp"
    },
    "_left_": {
        "type": "string",
        "value": "0dp"
    },
    "_margin_": [
        0,
        0,
        0,
        0
    ],
    "_orientation_": 6,
    "_padding_": [
        0,
        0,
        0,
        0
    ],
    "_percent_": true,
    "_skin_": "s24c92fc23b14f5484b693ee9b8a9b35",
    "_top_": {
        "type": "string",
        "value": "0dp"
    },
    "_width_": {
        "type": "string",
        "value": "100%"
    },
    "allboxes": [],
    "canUpdateUI": true,
    "centerx": {
        "type": "number",
        "value": ""
    },
    "children": [
        "flxFilterContainer",
        "segSelectedExchangeRate",
        "flxSegFilter",
        "flxNoSelectedCurrency"
    ],
    "clipbounds": true,
    "containerweight": 100,
    "enablescrolling": true,
    "id": "flxParentFilterContainer",
    "info": null,
    "iscustomlayout": false,
    "isvisible": true,
    "kuid": "f6bf4b80e4184e419f9bf678c8b36af8",
    "layouttype": 2,
    "name": "kony.ui.FlexContainer",
    "parent": "flxSelectedCurrenecyContainer",
    "pf": "userwidgetmodel",
    "responsiveData": {
        "b2": {
            "centerX": {
                "type": "string",
                "value": "50%"
            },
            "height": {
                "type": "string",
                "value": "380dp"
            },
            "isVisible": true,
            "top": {
                "type": "string",
                "value": "0dp"
            },
            "width": {
                "type": "string",
                "value": "96%"
            }
        },
        "b3": {
            "height": {
                "type": "string",
                "value": "200dp"
            }
        }
    },
    "retaincontentalignment": false,
    "retainflexpositionproperties": false,
    "retainflowhorizontalalignment": false,
    "snapgridsize": 10,
    "snaptogrid": true,
    "wType": "FlexContainer",
    "widgetalignment": 1,
    "zindex": 15
}