{
    "DNDConfig": null,
    "_height_": {
        "type": "string",
        "value": "500dp"
    },
    "_left_": {
        "type": "string",
        "value": "0dp"
    },
    "_margin_": [
        0,
        0,
        0,
        0
    ],
    "_orientation_": 6,
    "_padding_": [
        0,
        0,
        0,
        0
    ],
    "_percent_": true,
    "_skin_": "s105ec3c20d849e1b69ab0d3b0fb2fb2",
    "_top_": {
        "type": "string",
        "value": "50dp"
    },
    "_width_": {
        "type": "string",
        "value": "99%"
    },
    "allboxes": [],
    "allowhorizontalbounce": false,
    "allowverticalbounce": true,
    "bounces": true,
    "canUpdateUI": true,
    "centerx": {
        "type": "number",
        "value": ""
    },
    "children": [
        "flxSearchData",
        "flxNoQuoteCurrencyList"
    ],
    "clipbounds": false,
    "containerweight": 100,
    "decelerat": false,
    "dragg": false,
    "enablescrolling": false,
    "horizontalscrollindicator": true,
    "id": "flxScrollCurrencyCode",
    "info": null,
    "iscustomlayout": false,
    "isvisible": false,
    "kiosk": {
        "psp": {
            "verticalScrollIndicator": false
        }
    },
    "kuid": "c08c6500409f496cb846973bcca4986a",
    "layouttype": 2,
    "maxheight": {
        "type": "string",
        "value": "400dp"
    },
    "name": "kony.ui.FlexScrollContainer",
    "pagingenabled": false,
    "parent": "flxToCurrencyContainer",
    "pf": "userwidgetmodel",
    "responsiveData": {
        "b1": {
            "skin": "s105ec3c20d849e1b69ab0d3b0fb2fb2"
        },
        "b2": {
            "centerX": {
                "type": "string",
                "value": "0%"
            },
            "isVisible": false,
            "top": {
                "type": "string",
                "value": "43dp"
            },
            "width": {
                "type": "string",
                "value": "215%"
            }
        },
        "b3": {},
        "b4": {
            "isVisible": false,
            "maxHeight": {
                "type": "string",
                "value": ""
            },
            "skin": "s105ec3c20d849e1b69ab0d3b0fb2fb2"
        }
    },
    "retaincontentalignment": false,
    "retainflexpositionproperties": false,
    "retainflowhorizontalalignment": false,
    "scrolldirection": 2,
    "snapgridsize": 10,
    "snaptogrid": true,
    "track": false,
    "verticalscrollindicator": true,
    "wType": "FlexScrollContainer",
    "widgetalignment": 1,
    "zindex": 15
}