{
    "@class": "com.kony.gen.viz.model.component.KVizLabel",
    "DNDConfig": null,
    "_height_": {
        "type": "ref",
        "value": "preferred"
    },
    "_left_": {
        "type": "string",
        "value": "0dp"
    },
    "_margin_": [
        1,
        1,
        1,
        1
    ],
    "_padding_": [
        0,
        0,
        0,
        0
    ],
    "_skin_": "sc39b68cb14e457b9b79ba3c8c3b88d1",
    "_text_": "Label",
    "_top_": {
        "type": "string",
        "value": "105dp"
    },
    "_width_": {
        "type": "ref",
        "value": "preferred"
    },
    "_wrapping_": 2,
    "android": {
        "textStyle": {
            "letterSpacing": 0,
            "strikeThrough": false
        }
    },
    "canUpdateUI": true,
    "containerweight": 100,
    "contentalignment": 7,
    "id": "lblConversionRate",
    "info": null,
    "ipad": {
        "psp": {
            "wrapping": 2
        }
    },
    "iphone": {
        "psp": {
            "wrapping": 2
        }
    },
    "iscustomlayout": false,
    "isvisible": true,
    "kuid": "jacabf34250241b9b933246590a4f05d",
    "name": "kony.ui.Label",
    "parent": "flxToCurrencyContainer",
    "pf": "userwidgetmodel",
    "responsiveData": {
        "b1": {
            "skin": "s63e81af6a184e7e8e891b0dbbe7895c",
            "text": "1USD = 0.83539 EUR"
        },
        "b2": {
            "isVisible": true,
            "left": {
                "type": "string",
                "value": "0dp"
            },
            "skin": "sbff4ac20b984fc49b28258a1e7f2ef8",
            "text": "1 USD = 0.835359 EUR",
            "top": {
                "type": "string",
                "value": "100dp"
            }
        },
        "b3": {
            "skin": "s63e81af6a184e7e8e891b0dbbe7895c",
            "text": "1USD = 0.83539 EUR"
        },
        "b4": {
            "skin": "s63e81af6a184e7e8e891b0dbbe7895c",
            "text": "1USD = 0.83539 EUR"
        }
    },
    "retaincontentalignment": false,
    "retainflexpositionproperties": false,
    "tooltip": "",
    "wType": "Label",
    "zindex": 1
}