{
    "@class": "com.kony.gen.viz.model.component.KVizLabel",
    "DNDConfig": null,
    "_height_": {
        "type": "ref",
        "value": "preferred"
    },
    "_left_": {
        "type": "string",
        "value": "84dp"
    },
    "_margin_": [
        1,
        1,
        1,
        1
    ],
    "_padding_": [
        0,
        0,
        0,
        0
    ],
    "_skin_": "sc39b68cb14e457b9b79ba3c8c3b88d1",
    "_text_": "Label",
    "_top_": {
        "type": "string",
        "value": "72dp"
    },
    "_width_": {
        "type": "ref",
        "value": "preferred"
    },
    "_wrapping_": 2,
    "android": {
        "textStyle": {
            "letterSpacing": 0,
            "strikeThrough": false
        }
    },
    "canUpdateUI": true,
    "containerweight": 100,
    "contentalignment": 4,
    "id": "lblHeaderTitle",
    "info": null,
    "ipad": {
        "psp": {
            "wrapping": 2
        }
    },
    "iphone": {
        "psp": {
            "wrapping": 2
        }
    },
    "iscustomlayout": false,
    "isvisible": true,
    "kuid": "b81b9d62dcb445b5b6ff72cd23d698ba",
    "name": "kony.ui.Label",
    "parent": "flxMainContainer",
    "pf": "userwidgetmodel",
    "responsiveData": {
        "b1": {
            "left": {
                "type": "string",
                "value": "1.50%"
            },
            "skin": "s6e13e645ba1488d9cac62841907bbb3",
            "top": {
                "type": "string",
                "value": "15dp"
            }
        },
        "b2": {
            "left": {
                "type": "string",
                "value": "10dp"
            },
            "skin": "s0c6b7dec39b42f18d466408c415324c",
            "top": {
                "type": "string",
                "value": "15dp"
            }
        },
        "b3": {
            "left": {
                "type": "string",
                "value": "20dp"
            },
            "skin": "s6e13e645ba1488d9cac62841907bbb3",
            "top": {
                "type": "string",
                "value": "33dp"
            }
        },
        "b4": {
            "left": {
                "type": "string",
                "value": "1.50%"
            },
            "skin": "s6e13e645ba1488d9cac62841907bbb3",
            "top": {
                "type": "string",
                "value": "15dp"
            }
        }
    },
    "retaincontentalignment": false,
    "retainflexpositionproperties": false,
    "texti18n": "i18n.ForeignExchange.ExchangeRateCalculator",
    "tooltip": "",
    "wType": "Label",
    "zindex": 1
}