{
    "@class": "com.kony.gen.viz.model.component.KVizLabel",
    "DNDConfig": null,
    "_height_": {
        "type": "ref",
        "value": "preferred"
    },
    "_left_": {
        "type": "string",
        "value": "100dp"
    },
    "_margin_": [
        1,
        1,
        1,
        1
    ],
    "_padding_": [
        0,
        0,
        0,
        0
    ],
    "_right_": {
        "type": "number",
        "value": ""
    },
    "_skin_": "s6bf2bdd63984d2a87c21ccd01a5ad76",
    "_text_": "USD - US Dollar",
    "_top_": {
        "type": "string",
        "value": "0dp"
    },
    "_width_": {
        "type": "string",
        "value": "65%"
    },
    "_wrapping_": 2,
    "android": {
        "textStyle": {
            "letterSpacing": 0,
            "strikeThrough": false
        }
    },
    "canUpdateUI": true,
    "centerx": {
        "type": "number",
        "value": ""
    },
    "containerweight": 100,
    "contentalignment": 1,
    "id": "lblToCurrencyType",
    "info": null,
    "ipad": {
        "psp": {
            "wrapping": 2
        }
    },
    "iphone": {
        "psp": {
            "wrapping": 2
        }
    },
    "iscustomlayout": false,
    "isvisible": true,
    "kuid": "cff5755bc566480da0cb57470be441ac",
    "name": "kony.ui.Label",
    "parent": "flxToCurrency",
    "pf": "userwidgetmodel",
    "responsiveData": {
        "b1": {
            "right": {
                "type": "string",
                "value": "50dp"
            },
            "width": {
                "type": "string",
                "value": ""
            }
        },
        "b2": {
            "centerX": {
                "type": "string",
                "value": "57.50%"
            },
            "contentAlignment": 1,
            "height": {
                "type": "string",
                "value": "40dp"
            },
            "left": {
                "type": "string",
                "value": "35dp"
            },
            "skin": "s0c6b7dec39b42f18d466408c415324c",
            "text": "USD - US Dollar",
            "top": {
                "type": "string",
                "value": "10dp"
            },
            "width": {
                "type": "string",
				"value": "70%"
            }
        },
        "b3": {
            "left": {
                "type": "string",
                "value": "65%"
			}
        },
        "b4": {
            "right": {
                "type": "string",
                "value": "50dp"
            }
        }
    },
    "retaincontentalignment": false,
    "retainflexpositionproperties": false,
    "tooltip": "",
    "wType": "Label",
    "zindex": 5
}