{
    "@class": "com.kony.gen.viz.model.component.KVizButton",
    "DNDConfig": null,
    "__parentReadjusting__": false,
    "_height_": {
        "type": "ref",
        "value": "preferred"
    },
    "_left_": {
        "type": "string",
        "value": "0"
    },
    "_margin_": [
        6,
        6,
        6,
        6
    ],
    "_padding_": [
        0,
        0,
        0,
        0
    ],
    "_skin_": "se4cbdf6e51f48eda9966caa941c6a19",
    "_text_": "EDIT",
    "_width_": {
        "type": "string",
        "value": "100%"
    },
    "accessibilityconfig": {
        "a11yLabel": "EDIT"
    },
    "canUpdateUI": true,
    "centery": {
        "type": "string",
        "value": "50%"
    },
    "containerId": true,
    "containerweight": 100,
    "contentalignment": 6,
    "desktopweb": {
        "psp": {
            "hoverSkin": "s8ba57bbb01e49f2acad2f1ea21d8717"
        }
    },
    "disabledSkins": {
        "focusSkin": "sf44d06ca8224832827ea7fdff757013"
    },
    "displaytext": true,
    "id": "btnEdit",
    "ide_onClick": "AS_Button_abe9618c0a9142fb9f45b3d9162fe341",
    "info": null,
    "isvisible": true,
    "kuid": "cdde7e68582847308d36292e8b5b3f70",
    "name": "kony.ui.Button",
    "parent": "flxAction",
    "pf": "segBillPayScheduled",
    "tooltip": "Edit Transaction",
    "wType": "Button",
    "zindex": 1
}