{
    "@class": "com.kony.gen.viz.model.component.KVizButton",
    "DNDConfig": null,
    "__parentReadjusting__": false,
    "_height_": {
        "type": "ref",
        "value": "preferred"
    },
    "_margin_": [
        6,
        6,
        6,
        6
    ],
    "_padding_": [
        0,
        0,
        0,
        0
    ],
    "_right_": {
        "type": "string",
        "value": "0dp"
    },
    "_skin_": "sf6ca31ec68641e5a2df8232c58cd39a",
    "_text_": "",
    "_top_": {
        "type": "string",
        "value": "13dp"
    },
    "_width_": {
        "type": "string",
        "value": "110dp"
    },
    "accessibilityconfig": {
        "a11yLabel": "Delete"
    },
    "canUpdateUI": true,
    "containerId": true,
    "containerweight": 100,
    "contentalignment": 6,
    "desktopweb": {
        "psp": {
            "hoverSkin": "sd36babbd8f6461f8b492698ab830d13"
        }
    },
    "disabledSkins": {
        "focusSkin": "sf44d06ca8224832827ea7fdff757013"
    },
    "displaytext": true,
    "id": "btnAction2",
    "ide_onClick": "AS_Button_e64839733512473c85b74e77565219d8",
    "info": null,
    "isvisible": true,
    "kuid": "c1de869907ea487bbb2470590449cb5a",
    "name": "kony.ui.Button",
    "parent": "flxActions",
    "pf": "segTravelNotificationsExpanded",
    "wType": "Button",
    "zindex": 1
}