{
    "DNDConfig": null,
    "_bottom_": {
        "type": "number",
        "value": ""
    },
    "_height_": {
        "type": "ref",
        "value": "preferred"
    },
    "_left_": {
        "type": "string",
        "value": "5dp"
    },
    "_margin_": [
        0,
        0,
        0,
        0
    ],
    "_orientation_": 6,
    "_padding_": [
        0,
        0,
        0,
        0
    ],
    "_percent_": true,
    "_right_": {
        "type": "string",
        "value": ""
    },
    "_skin_": "s65354b7cde046abb7d41396889ffe1b",
    "_top_": {
        "type": "string",
        "value": "20dp"
    },
    "_width_": {
        "type": "string",
        "value": "95%"
    },
    "allboxes": [],
    "autogrowmode": 1,
    "canUpdateUI": true,
    "centerx": {
        "type": "number",
        "value": ""
    },
    "children": [
        "flxRecentActivity",
        "flxCampaignContainerTab"
    ],
    "clipbounds": false,
    "containerweight": 100,
    "enablescrolling": true,
    "id": "flxRecentActivityAndMarketing",
    "info": null,
    "isvisible": true,
    "kuid": "e0d82d43e6b0452993ca43c753dc1ed9",
    "layouttype": 4,
    "name": "kony.ui.FlexContainer",
    "parent": "flxRight",
    "pf": "CopyfrmAccountsLanding",
    "responsiveData": {
        "b1": {
            "bottom": {
                "type": "string",
                "value": "5dp"
            },
            "left": {
                "type": "string",
                "value": "0dp"
            },
            "skin": "s8a5e15a18db4c6a8aabb7482a3b7afd",
            "width": {
                "type": "string",
                "value": "95%"
            }
        },
        "b2": {
            "bottom": {
                "type": "string",
                "value": "5dp"
            },
            "centerX": {
                "type": "string",
                "value": "50%"
            },
            "layoutType": 3,
            "left": {
                "type": "string",
                "value": "0dp"
            },
            "skin": "s044854a4a64401f977fbc4a82d34f6c",
            "width": {
                "type": "string",
                "value": "100%"
            }
        },
        "b3": {
            "bottom": {
                "type": "string",
                "value": "5dp"
            },
            "centerX": {
                "type": "string",
                "value": "50%"
            },
            "left": {
                "type": "string",
                "value": "0dp"
            },
            "skin": "s737aba7d97f4b4aa584ba688e29d555",
            "width": {
                "type": "string",
                "value": "100%"
            }
        },
        "b4": {
            "bottom": {
                "type": "string",
                "value": "5dp"
            }
        }
    },
    "snapgridsize": 10,
    "snaptogrid": true,
    "wType": "FlexContainer",
    "widgetalignment": 1,
    "zindex": 1
}