{
    "@class": "com.kony.gen.viz.model.component.KVizUserWidget",
    "DNDConfig": null,
    "__parentReadjusting__": false,
    "_android_": {},
    "_androidwearos_": {},
    "_children_": [],
    "_desktopweb_": {},
    "_height_": {
        "type": "ref",
        "value": "preferred"
    },
    "_ipad_": {},
    "_iphone_": {},
    "_kiosk_": {},
    "_left_": {
        "type": "string",
        "value": "1000dp"
    },
    "_margin_": [
        0,
        0,
        0,
        0
    ],
    "_orientation_": 1,
    "_padding_": [
        0,
        0,
        0,
        0
    ],
    "_percent_": true,
    "_render_": true,
    "_responsiveData_": {
        "b1": {
            "isVisible": false
        },
        "b2": {
            "isVisible": false
        },
        "b3": {
            "isVisible": false
        },
        "b4": {
            "isVisible": false
        }
    },
    "_skin_": "scbd4cac3526468089bf3013adff0549",
    "_spa_": {},
    "_spaan_": {},
    "_spaandroidtablet_": {},
    "_spabb_": {},
    "_spaip_": {},
    "_spaipad_": {},
    "_spamobile_": {},
    "_spatablet_": {},
    "_spawindowstablet_": {},
    "_spawinphone8_": {},
    "_tabrcandroid_": {},
    "_top_": {
        "type": "string",
        "value": "140dp"
    },
    "_vizProps_": {
        "hidewidgethierarchy": false
    },
    "_width_": {
        "type": "string",
        "value": "270dp"
    },
    "_windows10_": {},
    "_windows8_": {},
    "_winphone10_": {},
    "_winphone8_": {},
    "areflexpropsreferenced": false,
    "autogrowmode": 1,
    "canUpdateUI": true,
    "clipbounds": false,
    "containerweight": 0,
    "dataDiffs": {
        "AllForms": {
            "__events__": {},
            "__info__": {
                "isRoot": true,
                "kuid": "a7970a003905494f95abd5826489a05c",
                "srcKUID": "aef6ac17436948abacbe12ea5a1d5e5b",
                "wType": "FlexContainer"
            },
            "isVisible": true,
            "left": {
                "Default": {
                    "type": "string",
                    "value": "1000dp"
                }
            },
            "responsiveData": {
                "b1": {
                    "isVisible": false
                },
                "b2": {
                    "isVisible": false
                },
                "b3": {
                    "isVisible": false
                },
                "b4": {
                    "isVisible": false
                }
            },
            "top": {
                "Default": {
                    "type": "string",
                    "value": "140dp"
                }
            },
            "width": {
                "Default": {
                    "type": "string",
                    "value": "270dp"
                }
            },
            "zIndex": {
                "Default": 20
            }
        },
        "RichTextInfo": {
            "__events__": {},
            "__info__": {
                "kuid": "a7df93b953264ee6a6758436dd1cba41",
                "srcKUID": "i86f020750564f6ba173ce46ea601ab5",
                "wType": "RichText"
            },
            "i18n_text": "i18n.WireTransfer.msgInfo2Confirm",
            "text": "This account will be the default account when you make a new wire transfer. You can change this while making a new Transfer or update the default account preference in your Account Settings.",
            "width": {
                "Default": {
                    "type": "string",
                    "value": "83%"
                }
            }
        },
        "flxAccountType": {
            "__events__": {},
            "__info__": {
                "kuid": "c215a8aa63e04b46811aa0dcc8bd9323",
                "srcKUID": "ed52287fd449401ba9a5f005c99e3f35",
                "wType": "FlexContainer"
            },
            "left": {
                "Default": {
                    "type": "string",
                    "value": "0dp"
                }
            },
            "top": {
                "Default": {
                    "type": "string",
                    "value": "-1dp"
                }
            }
        },
        "flxCross": {
            "__events__": {},
            "__info__": {
                "kuid": "d0230f85aa5843d98b579c78c98f3605",
                "srcKUID": "d452c358ed1445a58e5fdff55685498f",
                "wType": "FlexContainer"
            }
        },
        "flxInformation": {
            "__events__": {},
            "__info__": {
                "kuid": "cb1ab0aba8434655877a924ef0febf74",
                "srcKUID": "be414255ea60408894eb2a9b719b864e",
                "wType": "FlexContainer"
            },
            "top": {
                "Default": {
                    "type": "string",
                    "value": "0dp"
                }
            }
        },
        "flxInformationText": {
            "__events__": {},
            "__info__": {
                "kuid": "bd1c646c60494fd0b5ff61e27a9082fd",
                "srcKUID": "fa4dbab87ecf4647a21060118b02bd03",
                "wType": "FlexContainer"
            },
            "top": {
                "Default": {
                    "type": "string",
                    "value": "-2dp"
                }
            }
        },
        "imgCross": {
            "__events__": {},
            "__info__": {
                "kuid": "dd7ae53917344c86892e2f3737fbf740",
                "srcKUID": "d86a08cea857467eae13f42ed033a771",
                "wType": "Image"
            },
            "responsiveData": {
                "b3": {
                    "src": "bbcloseicon.png"
                }
            },
            "src": "bbcloseicon.png"
        },
        "imgToolTip": {
            "__events__": {},
            "__info__": {
                "kuid": "f03a771f067a4df385c2f1eced556473",
                "srcKUID": "f9274528aa6b41bfb057f17c510b73b5",
                "wType": "Image"
            },
            "left": {
                "Default": {
                    "type": "string",
                    "value": "49%"
                }
            },
            "src": "tool_tip.png"
        },
        "lblInfo": {
            "__events__": {},
            "__info__": {
                "kuid": "d1f9b12510394851bb85879d0f3fcf7c",
                "srcKUID": "c6ecc9c129c943b396152e99a30763f6",
                "wType": "Label"
            },
            "i18n_text": "i18n.WireTransfers.Information"
        },
        "lblSeperator": {
            "__events__": {},
            "__info__": {
                "kuid": "dc08714dba764fa5b18620104427dc55",
                "srcKUID": "f142d5aa44384a3fb94504a874cbbb95",
                "wType": "Label"
            }
        }
    },
    "id": "AllFormsConfirmDetails",
    "info": null,
    "isdatareferenced": false,
    "isvisible": true,
    "kuid": "a7970a003905494f95abd5826489a05c",
    "layouttype": 4,
    "masterType": 0,
    "name": "kony.ui.UserWidgetInstance",
    "parent": "flxMainWrapper",
    "pf": "frmAccountInfoForInboundTransfer",
    "snaptogrid": true,
    "sourceUserWidget": "aef6ac17436948abacbe12ea5a1d5e5b",
    "vizprops": {
        "hidewidgethierarchy": false
    },
    "wType": "UserWidgetInstance",
    "zindex": 20
}