{
    "@class": "com.kony.gen.viz.model.component.KVizButton",
    "DNDConfig": null,
    "__parentReadjusting__": false,
    "_height_": {
        "type": "string",
        "value": "50dp"
    },
    "_margin_": [
        6,
        6,
        6,
        6
    ],
    "_padding_": [
        0,
        0,
        0,
        0
    ],
    "_right_": {
        "type": "string",
        "value": "30px"
    },
    "_skin_": "sea1525e3fa24829a889b1fd650f3f24",
    "_text_": "]",
    "_top_": {
        "type": "string",
        "value": "30px"
    },
    "_width_": {
        "type": "string",
        "value": "257px"
    },
    "accessibilityconfig": {
        "a11yLabel": "Download"
    },
    "canUpdateUI": true,
    "containerweight": 100,
    "contentalignment": 5,
    "desktopweb": {
        "psp": {
            "hoverSkin": "sfd0ce0d7f454c9f83c7e815a90a8a55"
        }
    },
    "disabledSkins": {},
    "displaytext": true,
    "focusskin": "sfd0ce0d7f454c9f83c7e815a90a8a55",
    "id": "btnDownloadAsPDF",
    "info": null,
    "isvisible": true,
    "kuid": "gbe2ca26d0d14b4bb2da10cd93313e06",
    "name": "kony.ui.Button",
    "parent": "flxButtons",
    "pf": "frmAccountInfoForInboundTransfer",
    "responsiveData": {
        "b1": {
            "height": {
                "type": "string",
                "value": "40dp"
            },
            "width": {
                "type": "string",
                "value": "220px"
            }
        },
        "b2": {
            "height": {
                "type": "string",
                "value": "40dp"
            },
            "width": {
                "type": "string",
                "value": "220px"
            }
        },
        "b3": {
            "height": {
                "type": "string",
                "value": "40dp"
            },
            "right": {
                "type": "string",
                "value": "30dp"
            },
            "width": {
                "type": "string",
                "value": "220px"
            }
        },
        "b4": {
            "bottom": {
                "type": "string",
                "value": ""
            },
            "height": {
                "type": "string",
                "value": "40dp"
            },
            "left": {
                "type": "string",
                "value": "10dp"
            },
            "minWidth": {
                "type": "string",
                "value": ""
            },
            "right": {
                "type": "string",
                "value": "10dp"
            },
            "top": {
                "type": "string",
                "value": "20dp"
            },
            "width": {
                "type": "string",
                "value": ""
            }
        }
    },
    "texti18n": "i18n.inboundTransfer.DOWNLOADASPDF",
    "tooltip": "Download as PDF",
    "wType": "Button",
    "zindex": 2
}