{
    "DNDConfig": null,
    "__parentReadjusting__": false,
    "_height_": {
        "type": "string",
        "value": "70px"
    },
    "_left_": {
        "type": "string",
        "value": "3.77%"
    },
    "_margin_": [
        0,
        0,
        0,
        0
    ],
    "_orientation_": 6,
    "_padding_": [
        0,
        0,
        0,
        0
    ],
    "_percent_": true,
    "_skin_": "s96c1ab807354105a41f9db9f44c1d73",
    "_top_": {
        "type": "string",
        "value": "30px"
    },
    "_width_": {
        "type": "string",
        "value": "92.44%"
    },
    "allboxes": [],
    "canUpdateUI": true,
    "children": [
        "imgError",
        "lblNoRecipientsWarning"
    ],
    "clipbounds": true,
    "containerweight": 100,
    "enablescrolling": true,
    "id": "flxMessage",
    "info": null,
    "isvisible": true,
    "kuid": "hb8c6f74264b45a4a08edabdde95be30",
    "layouttype": 3,
    "name": "kony.ui.FlexContainer",
    "parent": "flxNoAccounts",
    "pf": "frmAccountInfoForInboundTransfer",
    "responsiveData": {
        "b4": {
            "height": {
                "type": "string",
                "value": "90px"
            }
        }
    },
    "snapgridsize": 10,
    "snaptogrid": true,
    "wType": "FlexContainer",
    "widgetalignment": 1,
    "zindex": 1
}