{
    "DNDConfig": null,
    "_height_": {
        "type": "string",
        "value": "70px"
    },
    "_margin_": [
        0,
        0,
        0,
        0
    ],
    "_orientation_": 6,
    "_padding_": [
        0,
        0,
        0,
        0
    ],
    "_percent_": true,
    "_skin_": "sf4c85c506de4687bf0645de2533a314",
    "allboxes": [],
    "autogrowmode": 0,
    "canUpdateUI": true,
    "children": [
        "flxRow",
        "flxBottomSeperator",
        "lblSeparator"
    ],
    "clipbounds": true,
    "containerId": true,
    "containerweight": 100,
    "controllerInfo": {
        "default": {
            "channel": "desktop",
            "name": "flxManageRecipientMobileController"
        }
    },
    "enablescrolling": true,
    "id": "flxManageRecipientMobile",
    "info": null,
    "isTemplate": true,
    "isvisible": true,
    "kuid": "f367c37dfc2446649758ff3cf68880ee",
    "layouttype": 2,
    "name": "kony.ui.FlexContainer",
    "parent": "segManageRecipientMobile",
    "pf": "segManageRecipientMobile",
    "snapgridsize": 10,
    "snaptogrid": true,
    "wType": "FlexContainer",
    "widgetalignment": 1
}