{
    "AS_Button_a6f5cb77bfdb4e9b8c23afa5088aa6fb": {
        "id": "AS_Button_a6f5cb77bfdb4e9b8c23afa5088aa6fb",
        "type": "ACTION_SEQUENCE",
        "params": [{
            "datatype": "collection",
            "name": "eventobject"
        }],
        "language": "js",
        "actions": [{
            "id": "ADD_SNIPPET__e462d96eeae64e71ae7de75a4e02b010",
            "type": "ADD_SNIPPET",
            "codeSnippet": "this.clickTab(eventobject);",
            "parentId": null,
            "callbackType": null
        }]
    }
}