{
    "AS_Button_ed5cfb84b1b44262adb80b9ee9d9f7fe": {
        "id": "AS_Button_ed5cfb84b1b44262adb80b9ee9d9f7fe",
        "type": "ACTION_SEQUENCE",
        "params": [{
            "datatype": "collection",
            "name": "eventobject"
        }],
        "contextObj": {
            "KUID": "g1a7602f674d4b91a56e27a3e4949e03",
            "name": "uwg1a7602f674d4b91a56e27a3e4949e03",
            "type": "userwidgets"
        },
        "language": "js",
        "actions": [{
            "id": "ADD_SNIPPET_ide_onClick_cec888e5c61e4087bd292247cbe6f9f7",
            "type": "ADD_SNIPPET",
            "codeSnippet": "this.clickTab(eventobject);",
            "callbackType": null
        }]
    }
}