{
    "AS_Button_g333d3a43a784f158fc076a0448de0c3": {
        "id": "AS_Button_g333d3a43a784f158fc076a0448de0c3",
        "type": "ACTION_SEQUENCE",
        "params": [{
            "datatype": "collection",
            "name": "eventobject"
        }],
        "language": "js",
        "actions": [{
            "id": "ADD_SNIPPET__b8802dee74ec40a2bea782d87a03cba3",
            "type": "ADD_SNIPPET",
            "codeSnippet": "this.clickTab(eventobject);",
            "parentId": null,
            "callbackType": null
        }]
    }
}