{
    "AS_Button_d9576d04ecb543ab847085759218c760": {
        "id": "AS_Button_d9576d04ecb543ab847085759218c760",
        "type": "ACTION_SEQUENCE",
        "params": [{
            "datatype": "collection",
            "name": "eventobject"
        }],
        "contextObj": {
            "KUID": "u231fc047c4f42b484edd68232b38b34",
            "name": "uwu231fc047c4f42b484edd68232b38b34",
            "type": "userwidgets"
        },
        "language": "js",
        "actions": [{
            "id": "ADD_SNIPPET__d298a66499a1430a94582982cd2f4ec4",
            "type": "ADD_SNIPPET",
            "codeSnippet": "this.showContactUsPage();",
            "parentId": null,
            "callbackType": null
        }]
    }
}