{
    "AS_Button_aa66eef07c044f6fa58c9fb23f77ca48": {
        "id": "AS_Button_aa66eef07c044f6fa58c9fb23f77ca48",
        "type": "ACTION_SEQUENCE",
        "params": [{
            "datatype": "collection",
            "name": "eventobject"
        }],
        "contextObj": {
            "KUID": "u7dce84ebfea433f962a14d9d4aed344",
            "name": "uwu7dce84ebfea433f962a14d9d4aed344",
            "type": "userwidgets"
        },
        "language": "js",
        "actions": [{
            "id": "ADD_SNIPPET__d9400a7f521c4459bffb551f83588eb1",
            "type": "ADD_SNIPPET",
            "codeSnippet": "this.onClickUpdateDefaultAmount();",
            "parentId": null,
            "callbackType": null
        }]
    }
}