{
    "AS_Button_g3b9aacd6e764aaaad6d49d7be64d9f0": {
        "id": "AS_Button_g3b9aacd6e764aaaad6d49d7be64d9f0",
        "type": "ACTION_SEQUENCE",
        "params": [{
            "datatype": "collection",
            "name": "eventobject"
        }],
        "contextObj": {
            "name": "uw294b249e1f264e78b48398d28b888f75",
            "type": "userwidgets",
            "KUID": "294b249e1f264e78b48398d28b888f75"
        },
        "language": "js",
        "actions": [{
            "id": "ADD_SNIPPET__ba9caeb6feaf44de8e85a8f994b56bc9",
            "type": "ADD_SNIPPET",
            "codeSnippet": "onNavigate(\"Sent\");",
            "parentId": null,
            "callbackType": null
        }]
    }
}