{
    "AS_Button_i07efe89f0d94655806e5b008dd3941d": {
        "id": "AS_Button_i07efe89f0d94655806e5b008dd3941d",
        "type": "ACTION_SEQUENCE",
        "params": [{
            "datatype": "collection",
            "name": "eventobject"
        }],
        "contextObj": {
            "name": "uwu880133531214eb8bd74348879605663",
            "type": "userwidgets",
            "KUID": "u880133531214eb8bd74348879605663"
        },
        "language": "js",
        "actions": [{
            "id": "ADD_SNIPPET__fe44447b1f474fb7a7f4f694397a6c3a",
            "type": "ADD_SNIPPET",
            "codeSnippet": "this.showNoRecipient();",
            "parentId": null,
            "callbackType": null
        }]
    }
}