{
    "AS_Button_fbb009fcdf64483e950bd8f9170a07c4": {
        "id": "AS_Button_fbb009fcdf64483e950bd8f9170a07c4",
        "type": "ACTION_SEQUENCE",
        "params": [{
            "datatype": "collection",
            "name": "eventobject"
        }],
        "contextObj": {
            "name": "uw9fa226d9679c43a18199f18fbc5ee02d",
            "type": "userwidgets",
            "KUID": "9fa226d9679c43a18199f18fbc5ee02d"
        },
        "language": "js",
        "actions": []
    }
}