{
    "AS_Button_h0db8dc57e5d4c0baf85e4a912f6cab4": {
        "id": "AS_Button_h0db8dc57e5d4c0baf85e4a912f6cab4",
        "type": "ACTION_SEQUENCE",
        "params": [{
            "datatype": "collection",
            "name": "eventobject"
        }],
        "contextObj": {
            "KUID": "uec644e263604e338bace78a52623720",
            "name": "uwuec644e263604e338bace78a52623720",
            "type": "userwidgets"
        },
        "language": "js",
        "actions": [{
            "id": "ADD_SNIPPET__faeb09cc57e441b0933fa4fa6e92608a",
            "type": "ADD_SNIPPET",
            "codeSnippet": "this.showFAQs();",
            "parentId": null,
            "callbackType": null
        }]
    }
}