{
    "AS_Button_da9defe1f174486996d8b04b11fa6836": {
        "id": "AS_Button_da9defe1f174486996d8b04b11fa6836",
        "type": "ACTION_SEQUENCE",
        "params": [{
            "datatype": "collection",
            "name": "eventobject"
        }],
        "contextObj": {
            "name": "uwu886471e9ec64dfabf9345f176339ccd",
            "type": "userwidgets",
            "KUID": "u886471e9ec64dfabf9345f176339ccd"
        },
        "language": "js",
        "actions": []
    }
}