{
    "AS_Button_bbf71c59761943b897b6b185bc416503": {
        "id": "AS_Button_bbf71c59761943b897b6b185bc416503",
        "type": "ACTION_SEQUENCE",
        "params": [{
            "datatype": "collection",
            "name": "eventobject"
        }],
        "contextObj": {
            "KUID": "u69e81693b034f5abe5c619b67bb8cb9",
            "name": "uwu69e81693b034f5abe5c619b67bb8cb9",
            "type": "userwidgets"
        },
        "language": "js",
        "actions": [{
            "id": "ADD_SNIPPET__faeb09cc57e441b0933fa4fa6e92608a",
            "type": "ADD_SNIPPET",
            "codeSnippet": "this.showFAQs();",
            "parentId": null,
            "callbackType": null
        }]
    }
}