{
    "AS_Button_e52d44beb7bc4bc3bf0589f17b2cab22": {
        "id": "AS_Button_e52d44beb7bc4bc3bf0589f17b2cab22",
        "type": "ACTION_SEQUENCE",
        "params": [{
            "datatype": "collection",
            "name": "eventobject"
        }],
        "contextObj": {
            "KUID": "u231fc047c4f42b484edd68232b38b34",
            "name": "uwu231fc047c4f42b484edd68232b38b34",
            "type": "userwidgets"
        },
        "language": "js",
        "actions": [{
            "id": "ADD_SNIPPET__d18aea445e6a40569e9bb4797fb9ec33",
            "type": "ADD_SNIPPET",
            "codeSnippet": "this.showLocateUsPage();",
            "parentId": null,
            "callbackType": null
        }]
    }
}