{
    "AS_Button_fe6e6e6b02514a89b5e7d10b99fc78b5": {
        "id": "AS_Button_fe6e6e6b02514a89b5e7d10b99fc78b5",
        "type": "ACTION_SEQUENCE",
        "params": [{
            "datatype": "collection",
            "name": "eventobject"
        }],
        "contextObj": {
            "name": "uwu061affc28134a43aad7bfab7786c25c",
            "type": "userwidgets",
            "KUID": "u061affc28134a43aad7bfab7786c25c"
        },
        "language": "js",
        "actions": []
    }
}