{
	"AS_Button_ee8f7c8128eb4d3dbfa034f8e440fc53": {
		"id": "AS_Button_ee8f7c8128eb4d3dbfa034f8e440fc53",
		"type": "ACTION_SEQUENCE",
		"params": [
			{
				"datatype": "collection",
				"name": "eventobject"
			}
		],
		"contextObj": {
			"name": "uwd17d594c704b42fdb178f7966db4d204",
			"type": "userwidgets",
			"KUID": "d17d594c704b42fdb178f7966db4d204"
		},
		"language": "js",
		"actions": [
			{
				"id": "INVOKE_FUNCTION__d89d9018e468471ab6d6013554bd8e15",
				"type": "INVOKE_FUNCTION",
				"sequenceKUID": "viewWatchlist",
				"display": "viewWatchlist",
				"inputparams": [],
				"parentId": null,
				"callbackType": null,
				"disabled": null,
				"source": "controller"
			}
		]
	}
}