{
    "AS_Button_aa5a8ebeb1e941d6897254de557c7878": {
        "id": "AS_Button_aa5a8ebeb1e941d6897254de557c7878",
        "type": "ACTION_SEQUENCE",
        "params": [{
            "datatype": "collection",
            "name": "eventobject"
        }],
        "contextObj": {
            "KUID": "u39214087a494c66833692192a956a56",
            "name": "uwu39214087a494c66833692192a956a56",
            "type": "userwidgets"
        },
        "language": "js",
        "actions": [{
            "id": "ADD_SNIPPET__g6a031545a4743f38a20362dcc5df774",
            "type": "ADD_SNIPPET",
            "codeSnippet": "this.view.TabBody.addEmptyRow();",
            "parentId": null,
            "callbackType": null
        }]
    }
}