{
    "AS_Button_a22586b8ea7e4224a14b62ca08baa5cd": {
        "id": "AS_Button_a22586b8ea7e4224a14b62ca08baa5cd",
        "type": "ACTION_SEQUENCE",
        "params": [{
            "datatype": "collection",
            "name": "eventobject"
        }],
        "contextObj": {
            "KUID": "u9d457d8bda94981aecb2bebd68f9496",
            "type": "userwidgets"
        },
        "language": "js",
        "actions": [{
            "id": "ADD_SNIPPET__e99a1f1d93e241d38d5435fb476ec9ce",
            "type": "ADD_SNIPPET",
            "codeSnippet": "this.showPrivacyPolicyPage();",
            "parentId": null,
            "callbackType": null
        }]
    }
}