{
    "AS_Button_dd005e53a582405991d66bbd079d0e78": {
        "id": "AS_Button_dd005e53a582405991d66bbd079d0e78",
        "type": "ACTION_SEQUENCE",
        "params": [{
            "datatype": "collection",
            "name": "eventobject"
        }],
        "contextObj": {
            "KUID": "u69e81693b034f5abe5c619b67bb8cb9",
            "name": "uwu69e81693b034f5abe5c619b67bb8cb9",
            "type": "userwidgets"
        },
        "language": "js",
        "actions": [{
            "id": "ADD_SNIPPET__d298a66499a1430a94582982cd2f4ec4",
            "type": "ADD_SNIPPET",
            "codeSnippet": "this.showContactUsPage();",
            "parentId": null,
            "callbackType": null
        }]
    }
}