{
    "AS_Button_a5c48d87b55045f693d06380f287e32b": {
        "id": "AS_Button_a5c48d87b55045f693d06380f287e32b",
        "type": "ACTION_SEQUENCE",
        "params": [{
            "datatype": "collection",
            "name": "eventobject"
        }],
        "contextObj": {
            "KUID": "u06d6835f8214b36819f3bc55dbd4678",
            "name": "uwu06d6835f8214b36819f3bc55dbd4678",
            "type": "userwidgets"
        },
        "language": "js",
        "actions": [{
            "id": "ADD_SNIPPET_ide_onClick_cdb723ce3bae47dca556a642470ff02a",
            "type": "ADD_SNIPPET",
            "codeSnippet": "\n    this.view.flxAcknowledgement.setVisibility(false);\n    this.view.flxConfirmation.setVisibility(false);\n    this.view.flxAddInternationalAccount.setVisibility(true);\nthis.view.forceLayout();",
            "callbackType": null
        }]
    }
}