{
    "AS_Button_h827d262892a480082f41d3e489db69e": {
        "id": "AS_Button_h827d262892a480082f41d3e489db69e",
        "type": "ACTION_SEQUENCE",
        "params": [{
            "datatype": "collection",
            "name": "eventobject"
        }],
        "language": "js",
        "actions": [{
            "id": "ADD_SNIPPET__b722cb20e6cf471faba39cf2245589f2",
            "type": "ADD_SNIPPET",
            "codeSnippet": "this.clickTab(eventobject);",
            "parentId": null,
            "callbackType": null
        }]
    }
}