{
    "AS_Button_f78f1cd2d5834ce99441ed3c9b0a84f1": {
        "id": "AS_Button_f78f1cd2d5834ce99441ed3c9b0a84f1",
        "type": "ACTION_SEQUENCE",
        "params": [{
            "datatype": "collection",
            "name": "eventobject"
        }],
        "contextObj": {
            "KUID": "uec644e263604e338bace78a52623720",
            "name": "uwuec644e263604e338bace78a52623720",
            "type": "userwidgets"
        },
        "language": "js",
        "actions": [{
            "id": "ADD_SNIPPET__i8ff965546c74af381ac1bc098ae4b2c",
            "type": "ADD_SNIPPET",
            "codeSnippet": "this.showTermsAndConditions();",
            "parentId": null,
            "callbackType": null
        }]
    }
}