{
    "AS_Button_j1b599ddc468422abf5f77c147933440": {
        "id": "AS_Button_j1b599ddc468422abf5f77c147933440",
        "type": "ACTION_SEQUENCE",
        "params": [{
            "datatype": "collection",
            "name": "eventobject"
        }],
        "contextObj": {
            "KUID": "uec644e263604e338bace78a52623720",
            "name": "uwuec644e263604e338bace78a52623720",
            "type": "userwidgets"
        },
        "language": "js",
        "actions": [{
            "id": "ADD_SNIPPET__d298a66499a1430a94582982cd2f4ec4",
            "type": "ADD_SNIPPET",
            "codeSnippet": "this.showContactUsPage();",
            "parentId": null,
            "callbackType": null
        }]
    }
}