{
    "AS_Button_e3323eeced5847fbab8fbfd23f60ada6": {
        "id": "AS_Button_e3323eeced5847fbab8fbfd23f60ada6",
        "type": "ACTION_SEQUENCE",
        "params": [{
            "datatype": "collection",
            "name": "eventobject"
        }],
        "contextObj": {
            "name": "uwb50876f980ec4fc193400f13716e0d4e",
            "type": "userwidgets",
            "KUID": "b50876f980ec4fc193400f13716e0d4e"
        },
        "language": "js",
        "actions": [{
            "id": "ADD_SNIPPET__g1d4cbe3c47b4c4cb24d2917146e9537",
            "type": "ADD_SNIPPET",
            "codeSnippet": "this.setNotificationSegmentData();",
            "parentId": null,
            "callbackType": null
        }]
    }
}