{
    "AS_Button_defcd1c45e43446ca25e5bac64eec96c": {
        "id": "AS_Button_defcd1c45e43446ca25e5bac64eec96c",
        "type": "ACTION_SEQUENCE",
        "params": [{
            "datatype": "collection",
            "name": "eventobject"
        }],
        "contextObj": {
            "name": "uwu880133531214eb8bd74348879605663",
            "type": "userwidgets",
            "KUID": "u880133531214eb8bd74348879605663"
        },
        "language": "js",
        "actions": [{
            "id": "ADD_SNIPPET__da48357f2f614c4ca56df8c4c6dabd6d",
            "type": "ADD_SNIPPET",
            "codeSnippet": "var count= this.view.flxPhone.widgets().length;\nkony.print(\"count value\"+count);\nvar append=count+1;\nvar idName = \"tbxPhoneValue0\"+append;\nkony.print(idName);\nvar txtBasic = {id:idName, placeholder:\"Enter a number here\", maxTextLength:15, isVisible:true,skin:\"sknTBXAcc\", bottom:\"5px\",height:\"40dp\", left : \"0%\",width : \"100%\" };\nvar txtLayout = {padding:[3,0,3,0],type:\"FlowVertical\"};\nvar txtPSP ={};\nvar textBox1 = new kony.ui.TextBox2(txtBasic, txtLayout, txtPSP);\nthis.view.flxPhone.add(textBox1);\n",
            "parentId": null,
            "callbackType": null
        }]
    }
}