{
    "AS_FlexContainer_cfef3fec129e4e089ad06977006bf129": {
        "id": "AS_FlexContainer_cfef3fec129e4e089ad06977006bf129",
        "type": "ACTION_SEQUENCE",
        "params": [{
            "datatype": "collection",
            "name": "eventobject"
        }],
        "contextObj": {
            "name": "uwu886471e9ec64dfabf9345f176339ccd",
            "type": "userwidgets",
            "KUID": "u886471e9ec64dfabf9345f176339ccd"
        },
        "language": "js",
        "actions": [{
            "id": "ADD_SNIPPET_i7c574d77dc548dd8b9320050cec7ceb",
            "type": "ADD_SNIPPET",
            "codeSnippet": "this.postshow()",
            "parentId": null
        }]
    }
}