{
    "AS_FlexContainer_f75ec4f85ea34a63b092dad0826baa7c": {
        "id": "AS_FlexContainer_f75ec4f85ea34a63b092dad0826baa7c",
        "type": "ACTION_SEQUENCE",
        "params": [{
            "datatype": "collection",
            "name": "eventobject"
        }, {
            "datatype": "string",
            "name": "x"
        }, {
            "datatype": "string",
            "name": "y"
        }],
        "contextObj": {
            "name": "uwu0c254ff60fd4759bdc3555b1eaef73d",
            "type": "userwidgets",
            "KUID": "u0c254ff60fd4759bdc3555b1eaef73d"
        },
        "language": "js",
        "actions": [{
            "id": "ADD_SNIPPET__a974aeaea76e43f2b3acf2bb2445ab9f",
            "type": "ADD_SNIPPET",
            "codeSnippet": "this.view.flxContextualMenu.setVisibility(false);",
            "parentId": null,
            "callbackType": null
        }]
    }
}