{
    "AS_FlexContainer_fb371b8195824777bd1524b514a064e1": {
        "id": "AS_FlexContainer_fb371b8195824777bd1524b514a064e1",
        "type": "ACTION_SEQUENCE",
        "params": [{
            "datatype": "collection",
            "name": "eventobject"
        }],
        "contextObj": {
            "name": "uwu061affc28134a43aad7bfab7786c25c",
            "type": "userwidgets",
            "KUID": "u061affc28134a43aad7bfab7786c25c"
        },
        "language": "js",
        "actions": [{
            "id": "ADD_SNIPPET__e537bac1e8124400b7af4f731afdfff9",
            "type": "ADD_SNIPPET",
            "codeSnippet": "this.toggle(this.view.flxTransfersSubMenu);",
            "parentId": null,
            "callbackType": null
        }]
    }
}