{
    "AS_FlexContainer_da66837e99a54e2b94bea7d8d229f965": {
        "id": "AS_FlexContainer_da66837e99a54e2b94bea7d8d229f965",
        "type": "ACTION_SEQUENCE",
        "params": [{
            "datatype": "collection",
            "name": "eventobject"
        }],
        "contextObj": {
            "KUID": "uf89e39bce194c39bed1b805cebe4f94",
            "name": "uwuf89e39bce194c39bed1b805cebe4f94",
            "type": "userwidgets"
        },
        "language": "js",
        "actions": [{
            "id": "ADD_SNIPPET__cec7d69e44724147b0c269fc04f888a9",
            "type": "ADD_SNIPPET",
            "codeSnippet": "this.postShowFunction();",
            "parentId": null,
            "callbackType": null
        }]
    }
}