{
    "AS_FlexContainer_fc2fb7e1706d42f698ca12961c632775": {
        "id": "AS_FlexContainer_fc2fb7e1706d42f698ca12961c632775",
        "type": "ACTION_SEQUENCE",
        "params": [{
            "datatype": "collection",
            "name": "eventobject"
        }],
        "contextObj": {
            "KUID": "ufcb012421244ba69f90fa53702068fb",
            "name": "uwufcb012421244ba69f90fa53702068fb",
            "type": "userwidgets"
        },
        "language": "js",
        "actions": [{
            "id": "ADD_SNIPPET__abf40ba270f0463ebc0ac821542c136b",
            "type": "ADD_SNIPPET",
            "codeSnippet": "this.toggleCheckbox(this.view.imgCheckboxEmailId);",
            "parentId": null,
            "callbackType": null
        }]
    }
}