{
    "AS_FlexContainer_jb031eb3bc634ec494f5e5ff0e79aa6b": {
        "id": "AS_FlexContainer_jb031eb3bc634ec494f5e5ff0e79aa6b",
        "type": "ACTION_SEQUENCE",
        "params": [
            {
                "datatype": "collection",
                "name": "eventobject"
            }
        ],
        "contextObj": {
            "KUID": "u584457ffb5c4a6e9ab351bffd1c73bd",
            "name": "uwjcea739329544eda96289edf0ee20957",
            "type": "userwidgets"
        },
        "language": "js",
        "actions": [
            {
                "id": "ADD_SNIPPET_a2e6ed1308bb4b1f8832d417a944d6a8",
                "type": "ADD_SNIPPET",
                "codeSnippet": "this.preshow();",
                "parentId": null
            }
        ]
    }
}