{
    "AS_FlexContainer_f4c29813ea03436685937000a9daecf3": {
        "id": "AS_FlexContainer_f4c29813ea03436685937000a9daecf3",
        "type": "ACTION_SEQUENCE",
        "params": [{
            "datatype": "collection",
            "name": "eventobject"
        }],
        "contextObj": {
            "KUID": "u39214087a494c66833692192a956a56",
            "name": "uwu39214087a494c66833692192a956a56",
            "type": "userwidgets"
        },
        "language": "js",
        "actions": [{
            "id": "ADD_SNIPPET__e0d7f23c216e4b21acc1f263abc1377e",
            "type": "ADD_SNIPPET",
            "codeSnippet": "this.onPreshow();",
            "parentId": null,
            "callbackType": null
        }]
    }
}