{
    "AS_FlexContainer_d662c2a667604cc48559eaa5c8b7fba6": {
        "id": "AS_FlexContainer_d662c2a667604cc48559eaa5c8b7fba6",
        "type": "ACTION_SEQUENCE",
        "params": [{
            "datatype": "collection",
            "name": "eventobject"
        }],
        "contextObj": {
            "name": "uwud9f4eb3a24849eeb6d698d32ad70955",
            "type": "userwidgets",
            "KUID": "ud9f4eb3a24849eeb6d698d32ad70955"
        },
        "language": "js",
        "actions": [{
            "id": "INVOKE_FUNCTION__b0d6f30db99e4630a7f0e1a5b8926494",
            "type": "INVOKE_FUNCTION",
            "sequenceKUID": "preShow",
            "display": "preShow",
            "inputparams": [],
            "parentId": null,
            "callbackType": null,
            "disabled": null,
            "source": "controller"
        }]
    }
}