{
    "AS_FlexContainer_fba04d06a6134358b03390a79e809410": {
        "id": "AS_FlexContainer_fba04d06a6134358b03390a79e809410",
        "type": "ACTION_SEQUENCE",
        "params": [{
            "datatype": "collection",
            "name": "eventobject"
        }],
        "contextObj": {
            "KUID": "u858229b5a6247bcbfb91c63fb936a1a",
            "name": "uwu858229b5a6247bcbfb91c63fb936a1a",
            "type": "userwidgets"
        },
        "language": "js",
        "actions": [{
            "id": "ADD_SNIPPET__ba56d49d171f42bf900677a42415f226",
            "type": "ADD_SNIPPET",
            "codeSnippet": "this.init();",
            "parentId": null,
            "callbackType": null
        }]
    }
}