{
    "AS_FlexContainer_ade7a3bbb5994063b0732fceeca1b970": {
        "id": "AS_FlexContainer_ade7a3bbb5994063b0732fceeca1b970",
        "type": "ACTION_SEQUENCE",
        "params": [{
            "datatype": "collection",
            "name": "eventobject"
        }],
        "contextObj": {
            "KUID": "ufcb012421244ba69f90fa53702068fb",
            "name": "uwufcb012421244ba69f90fa53702068fb",
            "type": "userwidgets"
        },
        "language": "js",
        "actions": [{
            "id": "ADD_SNIPPET__cf496ba74e8248fd986aead1cbb51906",
            "type": "ADD_SNIPPET",
            "codeSnippet": "this.toggleCheckbox(this.view.imgCheckBoxPhoneNo);",
            "parentId": null,
            "callbackType": null
        }]
    }
}