{
    "AS_FlexContainer_i330723b0da541b088e7962ccb9c50fe": {
        "id": "AS_FlexContainer_i330723b0da541b088e7962ccb9c50fe",
        "type": "ACTION_SEQUENCE",
        "params": [{
            "datatype": "collection",
            "name": "eventobject"
        }],
        "contextObj": {
            "name": "uwu8f0ba6556d7488ab3da70e8d3fe53a9",
            "type": "userwidgets",
            "KUID": "u8f0ba6556d7488ab3da70e8d3fe53a9"
        },
        "language": "js",
        "actions": [{
            "id": "ADD_SNIPPET_dfc17a5d5d284016a8bfe60742fbb5ad",
            "type": "ADD_SNIPPET",
            "codeSnippet": "this.preshow();",
            "parentId": null
        }]
    }
}