{
    "AS_FlexContainer_g0bf232cd2674d6bb90a5a41fe5b6094": {
        "actions": [
            {
                "callbackType": null,
                "codeSnippet": "this.showUserActions();",
                "id": "ADD_SNIPPET__i8a665c189f547d2970d2fb631cb9ee4",
                "parentId": null,
                "type": "ADD_SNIPPET"
            }
        ],
        "contextObj": {
            "KUID": "ub502194d7404f56ba4d32bb5f6d75b3",
            "name": "uwu8a6ec125b5849f1b101cb5192deae35",
            "type": "userwidgets"
        },
        "id": "AS_FlexContainer_g0bf232cd2674d6bb90a5a41fe5b6094",
        "language": "js",
        "params": [
            {
                "datatype": "collection",
                "name": "eventobject"
            }
        ],
        "type": "ACTION_SEQUENCE"
    }
}