{
    "AS_FlexContainer_f927f437d87d4320bb7d2c42859acfac": {
        "id": "AS_FlexContainer_f927f437d87d4320bb7d2c42859acfac",
        "type": "ACTION_SEQUENCE",
        "params": [{
            "datatype": "collection",
            "name": "eventobject"
        }],
        "contextObj": {
            "name": "uwu2ebd3870c3341b5b611428ef56ae336",
            "type": "userwidgets",
            "KUID": "u2ebd3870c3341b5b611428ef56ae336"
        },
        "language": "js",
        "actions": [{
            "id": "ADD_SNIPPET__a6cfffca50d64b68a1411bb379eb5c99",
            "type": "ADD_SNIPPET",
            "codeSnippet": "this.showUserActions();",
            "parentId": null,
            "callbackType": null
        }]
    }
}