{
    "AS_FlexContainer_f1fb9093689b421e8ceca6efdd1028d5": {
        "id": "AS_FlexContainer_f1fb9093689b421e8ceca6efdd1028d5",
        "type": "ACTION_SEQUENCE",
        "params": [{
            "datatype": "collection",
            "name": "eventobject"
        }],
        "contextObj": {
            "KUID": "cef95fefb0b54ae097e43c6fdf1c4788",
            "name": "uwcef95fefb0b54ae097e43c6fdf1c4788",
            "type": "userwidgets"
        },
        "language": "js",
        "actions": [{
            "id": "ADD_SNIPPET__eee5fbbcce8f479f8a58b4049c1671d2",
            "type": "ADD_SNIPPET",
            "codeSnippet": "this.preshow();",
            "parentId": null,
            "callbackType": null
        }]
    }
}