{
    "AS_FlexContainer_b77ca9c707bd4231833f2902fba647d5": {
        "id": "AS_FlexContainer_b77ca9c707bd4231833f2902fba647d5",
        "type": "ACTION_SEQUENCE",
        "params": [{
            "datatype": "collection",
            "name": "eventobject"
        }],
        "contextObj": {
            "KUID": "u81d93a0da2d4135bb5c28cf039fe615",
            "name": "uwu81d93a0da2d4135bb5c28cf039fe615",
            "type": "userwidgets"
        },
        "language": "js",
        "actions": [{
            "id": "INVOKE_FUNCTION__e3becdebd0b9421aa4772f00c84c2e97",
            "type": "INVOKE_FUNCTION",
            "sequenceKUID": "preShow",
            "display": "preShow",
            "inputparams": [],
            "parentId": null,
            "callbackType": null,
            "disabled": null,
            "source": "controller"
        }]
    }
}