{
    "AS_FlexContainer_e9d9bd2dee5242dead0f28db8e449a7b": {
        "actions": [
            {
                "callbackType": null,
                "codeSnippet": "this.onPreshow();",
                "id": "ADD_SNIPPET__e0d7f23c216e4b21acc1f263abc1377e",
                "parentId": null,
                "type": "ADD_SNIPPET"
            }
        ],
        "contextObj": {
            "KUID": "u7dce84ebfea433f962a14d9d4aed344",
            "type": "userwidgets"
        },
        "id": "AS_FlexContainer_e9d9bd2dee5242dead0f28db8e449a7b",
        "language": "js",
        "params": [
            {
                "datatype": "collection",
                "name": "eventobject"
            }
        ],
        "type": "ACTION_SEQUENCE"
    }
}