{
    "AS_FlexContainer_cb8317fb53ef40bcb22237d08f53949d": {
        "id": "AS_FlexContainer_cb8317fb53ef40bcb22237d08f53949d",
        "type": "ACTION_SEQUENCE",
        "params": [{
            "datatype": "collection",
            "name": "eventobject"
        }],
        "contextObj": {
            "KUID": "uda12518e4fb4b858ba302b6ce4c4770",
            "name": "uwuda12518e4fb4b858ba302b6ce4c4770",
            "type": "userwidgets"
        },
        "language": "js",
        "actions": [{
            "id": "ADD_SNIPPET__f79194b16afd4c6db5059376befd6e61",
            "type": "ADD_SNIPPET",
            "codeSnippet": "this.initHamburger();",
            "parentId": null,
            "callbackType": null
        }]
    }
}