{
    "AS_FlexContainer_ba6102412d35426a95d66a729555650e": {
        "actions": [
            {
                "callbackType": null,
                "codeSnippet": "this.initHamburger();",
                "id": "ADD_SNIPPET__f79194b16afd4c6db5059376befd6e61",
                "parentId": null,
                "type": "ADD_SNIPPET"
            }
        ],
        "contextObj": {
            "KUID": "uda08b9730274e7bb8bb238b546b3b3e",
            "name": "uwu061affc28134a43aad7bfab7786c25c",
            "type": "userwidgets"
        },
        "id": "AS_FlexContainer_ba6102412d35426a95d66a729555650e",
        "language": "js",
        "params": [
            {
                "datatype": "collection",
                "name": "eventobject"
            }
        ],
        "type": "ACTION_SEQUENCE"
    }
}