{
    "AS_FlexContainer_c790c303f72649f6a9a65ff25187d406": {
        "id": "AS_FlexContainer_c790c303f72649f6a9a65ff25187d406",
        "type": "ACTION_SEQUENCE",
        "params": [{
            "datatype": "collection",
            "name": "eventobject"
        }],
        "contextObj": {
            "KUID": "u2a891457831454eb04e788f699c297b",
            "name": "uwu2a891457831454eb04e788f699c297b",
            "type": "userwidgets"
        },
        "language": "js",
        "actions": [{
            "id": "ADD_SNIPPET__j8ed2eba7c8f48429719c3d2a90650e8",
            "type": "ADD_SNIPPET",
            "codeSnippet": "this.fixContextualMenu();",
            "parentId": null,
            "callbackType": null
        }]
    }
}