{
    "AS_FlexContainer_a1eb64f2d4004a5089c035f60267c9f1": {
        "id": "AS_FlexContainer_a1eb64f2d4004a5089c035f60267c9f1",
        "type": "ACTION_SEQUENCE",
        "params": [{
            "datatype": "collection",
            "name": "eventobject"
        }],
        "contextObj": {
            "name": "uw48f59ba1ac324f07b3ab3a83be7f3f93",
            "type": "userwidgets",
            "KUID": "48f59ba1ac324f07b3ab3a83be7f3f93"
        },
        "language": "js",
        "actions": [{
            "id": "ADD_SNIPPET__i96a79709a22427283e610c059333f05",
            "type": "ADD_SNIPPET",
            "codeSnippet": "",
            "parentId": null,
            "callbackType": null
        }]
    }
}