{
	"AS_FlexContainer_f7abc08d6120496097eeb47872bb1f21": {
		"id": "AS_FlexContainer_f7abc08d6120496097eeb47872bb1f21",
		"type": "ACTION_SEQUENCE",
		"params": [
			{
				"datatype": "collection",
				"name": "eventobject"
			}
		],
		"contextObj": {
			"name": "uwhcc7c52c44d5476c9fe6997d276933aa",
			"type": "userwidgets",
			"KUID": "hcc7c52c44d5476c9fe6997d276933aa"
		},
		"language": "js",
		"actions": [
			{
				"id": "INVOKE_FUNCTION__ad043356f79b4d9eb4ed13d88c5fdf72",
				"type": "INVOKE_FUNCTION",
				"sequenceKUID": "preshow",
				"display": "preshow",
				"inputparams": [],
				"parentId": null,
				"callbackType": null,
				"disabled": null,
				"source": "controller"
			}
		]
	}
}