{
    "AS_FlexContainer_e69bf673f66741a6a461dae669a0f2bb": {
        "id": "AS_FlexContainer_e69bf673f66741a6a461dae669a0f2bb",
        "type": "ACTION_SEQUENCE",
        "params": [{
            "datatype": "collection",
            "name": "eventobject"
        }],
        "contextObj": {
            "KUID": "u06d6835f8214b36819f3bc55dbd4678",
            "name": "uwu06d6835f8214b36819f3bc55dbd4678",
            "type": "userwidgets"
        },
        "language": "js",
        "actions": [{
            "id": "INVOKE_FUNCTION__e5c0e3aeaf424ead92b8002b853f4a1c",
            "type": "INVOKE_FUNCTION",
            "sequenceKUID": "preShow",
            "display": "preShow",
            "inputparams": [],
            "parentId": null,
            "callbackType": null,
            "disabled": null,
            "source": "controller"
        }]
    }
}