{
    "AS_FlexContainer_a4a4390e20d74defbc8707b39f620b48": {
        "id": "AS_FlexContainer_a4a4390e20d74defbc8707b39f620b48",
        "type": "ACTION_SEQUENCE",
        "params": [{
            "datatype": "collection",
            "name": "eventobject"
        }],
        "contextObj": {
            "KUID": "u4dcd28858204dcfa8558beead10fd8d",
            "name": "uwu4dcd28858204dcfa8558beead10fd8d",
            "type": "userwidgets"
        },
        "language": "js",
        "actions": [{
            "id": "ADD_SNIPPET__abf1cfd9aa364085a832f37cacb9dd3b",
            "type": "ADD_SNIPPET",
            "codeSnippet": "//this.invokePreShow();",
            "parentId": null,
            "callbackType": null
        }]
    }
}