{
    "AS_FlexScrollContainer_c54138f7252541e0a148d21f513dca54": {
        "actions": [
            {
                "callbackType": null,
                "codeSnippet": "//this.invokePreShow();",
                "id": "ADD_SNIPPET__gce84af61c6143418edf14238ebff6f7",
                "parentId": null,
                "type": "ADD_SNIPPET"
            }
        ],
        "contextObj": {
            "KUID": "g1a7602f674d4b91a56e27a3e4949e03",
            "type": "userwidgets"
        },
        "id": "AS_FlexScrollContainer_c54138f7252541e0a148d21f513dca54",
        "language": "js",
        "params": [
            {
                "datatype": "collection",
                "name": "eventobject"
            }
        ],
        "type": "ACTION_SEQUENCE"
    }
}