{
    "AS_FlexContainer_c8c496f15d7d4a0491c0bcb8412df78f": {
        "id": "AS_FlexContainer_c8c496f15d7d4a0491c0bcb8412df78f",
        "type": "ACTION_SEQUENCE",
        "params": [{
            "datatype": "collection",
            "name": "eventobject"
        }],
        "contextObj": {
            "name": "uwue176f4af17847e98e99e2816bf18799",
            "type": "userwidgets",
            "KUID": "ue176f4af17847e98e99e2816bf18799"
        },
        "language": "js",
        "actions": [{
            "id": "INVOKE_FUNCTION__ef421ca1514c4dc296f1536a0d1c0b02",
            "type": "INVOKE_FUNCTION",
            "sequenceKUID": "preshow",
            "display": "preshow",
            "inputparams": [],
            "parentId": null,
            "callbackType": null,
            "disabled": null,
            "source": "controller"
        }]
    }
}