{
    "AS_FlexContainer_fcbeae12e77d44b7a31f8cd6864a7b51": {
        "id": "AS_FlexContainer_fcbeae12e77d44b7a31f8cd6864a7b51",
        "type": "ACTION_SEQUENCE",
        "params": [{
            "datatype": "collection",
            "name": "eventobject"
        }],
        "contextObj": {
            "name": "uwu886471e9ec64dfabf9345f176339ccd",
            "type": "userwidgets",
            "KUID": "u886471e9ec64dfabf9345f176339ccd"
        },
        "language": "js",
        "actions": [{
            "id": "ADD_SNIPPET__ge7a741362184421b681f403b08fc809",
            "type": "ADD_SNIPPET",
            "codeSnippet": "this.initProfileSettingsMenu();",
            "parentId": null,
            "callbackType": null
        }]
    }
}