{
	"AS_FlexContainer_g2321d20ed344bebb2b97241ef52d078": {
		"id": "AS_FlexContainer_g2321d20ed344bebb2b97241ef52d078",
		"type": "ACTION_SEQUENCE",
		"params": [
			{
				"datatype": "collection",
				"name": "eventobject"
			}
		],
		"contextObj": {
			"name": "uwfbc177c6403e448ba8ba5d799dbc3246",
			"type": "userwidgets",
			"KUID": "fbc177c6403e448ba8ba5d799dbc3246"
		},
		"language": "js",
		"actions": [
			{
				"id": "INVOKE_FUNCTION__e1ff50612412425fbcb1f338da3fbdd9",
				"type": "INVOKE_FUNCTION",
				"sequenceKUID": "preshow",
				"display": "preshow",
				"inputparams": [],
				"parentId": null,
				"callbackType": null,
				"disabled": null,
				"source": "controller"
			}
		]
	}
}