{
    "AS_FlexContainer_i09071890ca04aa7ac931d9b02e08089": {
        "id": "AS_FlexContainer_i09071890ca04aa7ac931d9b02e08089",
        "type": "ACTION_SEQUENCE",
        "params": [{
            "datatype": "collection",
            "name": "eventobject"
        }],
        "contextObj": {
            "name": "uwu0c254ff60fd4759bdc3555b1eaef73d",
            "type": "userwidgets",
            "KUID": "u0c254ff60fd4759bdc3555b1eaef73d"
        },
        "language": "js",
        "actions": [{
            "id": "ADD_SNIPPET__i096e0e6cf83462493e2f160f6d99320",
            "type": "ADD_SNIPPET",
            "codeSnippet": "this.navigatetoAccounts();",
            "parentId": null,
            "callbackType": null
        }]
    }
}