{
    "AS_FlexContainer_aa67b4e1607d45b1a1f5035c70404245": {
        "id": "AS_FlexContainer_aa67b4e1607d45b1a1f5035c70404245",
        "type": "ACTION_SEQUENCE",
        "params": [{
            "datatype": "collection",
            "name": "eventobject"
        }],
        "contextObj": {
            "KUID": "u6a3b9d37b7f4c03b12114621624c40c",
            "name": "uwu6a3b9d37b7f4c03b12114621624c40c",
            "type": "userwidgets"
        },
        "language": "js",
        "actions": [{
            "id": "OPEN_URL__c5e14cbe91fa4ab497f65f3d9dda596e",
            "type": "OPEN_URL",
            "url": "https://dbx.kony.com/products-and-solutions/business-banking",
            "parentId": null,
            "callbackType": null
        }]
    }
}