{
    "AS_FlexContainer_e0df4f63c9b348769d28344a2d682110": {
        "id": "AS_FlexContainer_e0df4f63c9b348769d28344a2d682110",
        "type": "ACTION_SEQUENCE",
        "params": [{
            "datatype": "collection",
            "name": "eventobject"
        }],
        "contextObj": {
            "name": "uwue1a1386f9f8492fafe0048dab81ba70",
            "type": "userwidgets",
            "KUID": "ue1a1386f9f8492fafe0048dab81ba70"
        },
        "language": "js",
        "actions": [{
            "id": "ADD_SNIPPET_hfac91d9414044b1896df764fd3c9885",
            "type": "ADD_SNIPPET",
            "codeSnippet": "this.preShow();",
            "parentId": null
        }]
    }
}