{
    "AS_FlexContainer_d849326637f84ca9aa4f7fb3efe6baa8": {
        "id": "AS_FlexContainer_d849326637f84ca9aa4f7fb3efe6baa8",
        "type": "ACTION_SEQUENCE",
        "params": [{
            "datatype": "collection",
            "name": "eventobject"
        }],
        "contextObj": {
            "KUID": "ucd7c6ba0eb84e91a4f84e3fdccf960e",
            "name": "uwucd7c6ba0eb84e91a4f84e3fdccf960e",
            "type": "userwidgets"
        },
        "language": "js",
        "actions": [{
            "id": "ADD_SNIPPET__f3b54f65a6c2480e9134008516d553c8",
            "type": "ADD_SNIPPET",
            "codeSnippet": "this.preShow();",
            "parentId": null,
            "callbackType": null
        }]
    }
}