{
    "AS_Image_a803eb9f7dad4f6fb61bc2871361f1de": {
        "id": "AS_Image_a803eb9f7dad4f6fb61bc2871361f1de",
        "type": "ACTION_SEQUENCE",
        "params": [{
            "datatype": "collection",
            "name": "eventobject"
        }, {
            "datatype": "string",
            "name": "x"
        }, {
            "datatype": "string",
            "name": "y"
        }],
        "contextObj": {
            "name": "uwu53b0de3a8a648eaa6f120313abbdbec",
            "type": "userwidgets",
            "KUID": "u53b0de3a8a648eaa6f120313abbdbec"
        },
        "language": "js",
        "actions": []
    }
}