{
    "AS_Image_ie3f373392b6404b8be7c574c0dbc88a": {
        "id": "AS_Image_ie3f373392b6404b8be7c574c0dbc88a",
        "type": "ACTION_SEQUENCE",
        "params": [{
            "datatype": "collection",
            "name": "eventobject"
        }, {
            "datatype": "string",
            "name": "x"
        }, {
            "datatype": "string",
            "name": "y"
        }],
        "contextObj": {
            "KUID": "u4dcd28858204dcfa8558beead10fd8d",
            "name": "uwu4dcd28858204dcfa8558beead10fd8d",
            "type": "userwidgets"
        },
        "language": "js",
        "actions": [{
            "id": "ADD_SNIPPET__g7cfe6d29817459c888bfd8ba7860ca9",
            "type": "ADD_SNIPPET",
            "codeSnippet": "if(this.view.imgOption1.src === \"radioinactivebb.png\")\n{\n  this.view.imgOption1.src = \"radioactivebb.png\";\n  this.view.imgOption0.src = \"radioinactivebb.png\";\n  this.view.flxToggleOptions.forceLayout();\n  if(this.onOptionToggle !== undefined && this.onOptionToggle !== null) \n  {\n    this.onOptionToggle();\n  }\n}",
            "parentId": null,
            "callbackType": null
        }]
    }
}