{
    "AS_ListBox_e668ec3ced7440e89fc8137ad2c37355": {
        "id": "AS_ListBox_e668ec3ced7440e89fc8137ad2c37355",
        "type": "ACTION_SEQUENCE",
        "params": [{
            "datatype": "collection",
            "name": "eventobject"
        }],
        "language": "js",
        "actions": [{
            "id": "ADD_SNIPPET_ide_onSelection_d6b9ab3b0abf4a78ba212185179317a3",
            "type": "ADD_SNIPPET",
            "codeSnippet": "this.getFrequencyAndFormLayout();",
            "callbackType": null
        }]
    }
}