{
    "AS_TextField_f523b69bfb9440f78436a929c6603651": {
        "id": "AS_TextField_f523b69bfb9440f78436a929c6603651",
        "type": "ACTION_SEQUENCE",
        "params": [{
            "datatype": "collection",
            "name": "eventobject"
        }, {
            "datatype": "string",
            "name": "changedtext"
        }],
        "contextObj": {
            "name": "uwe6ba8dad9a33463abde60225b243ad94",
            "type": "userwidgets",
            "KUID": "e6ba8dad9a33463abde60225b243ad94"
        },
        "language": "js",
        "actions": [{
            "id": "ADD_SNIPPET__b555afe15aff455fa26dfcac0cb012f6",
            "type": "ADD_SNIPPET",
            "codeSnippet": null,
            "parentId": null,
            "callbackType": null
        }]
    }
}