{
    "AS_TextField_e862b75c54ea40f590542cfb4152bc7b": {
        "id": "AS_TextField_e862b75c54ea40f590542cfb4152bc7b",
        "type": "ACTION_SEQUENCE",
        "params": [{
            "datatype": "collection",
            "name": "eventobject"
        }, {
            "datatype": "string",
            "name": "changedtext"
        }],
        "contextObj": {
            "name": "uwa19e5ad444374d03bb8e80f65d5d1e53",
            "type": "userwidgets",
            "KUID": "a19e5ad444374d03bb8e80f65d5d1e53"
        },
        "language": "js",
        "actions": [{
            "id": "ADD_SNIPPET__a1a6398c4f864ca7a17d9c92ee19e888",
            "type": "ADD_SNIPPET",
            "codeSnippet": null,
            "parentId": null,
            "callbackType": null
        }]
    }
}