{
    "@class": "com.kony.gen.viz.model.component.KVizButton",
    "DNDConfig": null,
    "__parentReadjusting__": false,
    "_bottom_": {
        "type": "number",
        "value": "30"
    },
    "_height_": {
        "type": "string",
        "value": "50dp"
    },
    "_margin_": [
        6,
        6,
        6,
        6
    ],
    "_padding_": [
        0,
        0,
        0,
        0
    ],
    "_right_": {
        "type": "string",
        "value": "20dp"
    },
    "_skin_": "s3cfd2625c014a4bb122e14e6ec15fd2",
    "_text_": "YES",
    "_width_": {
        "type": "string",
        "value": "150dp"
    },
    "canUpdateUI": true,
    "centery": {
        "type": "string",
        "value": "50%"
    },
    "containerweight": 100,
    "contentalignment": 5,
    "disabledSkins": {
        "focusSkin": "sf44d06ca8224832827ea7fdff757013"
    },
    "displaytext": true,
    "id": "btnSave",
    "info": null,
    "isvisible": true,
    "kuid": "cd534a52e57b4f41a771783fd082bf04",
    "name": "kony.ui.Button",
    "parent": "flxContentsButtons",
    "pf": "frmEnrollBusiness",
    "texti18n": "i18n.ProfileManagement.Save",
    "tooltip": "Save",
    "wType": "Button",
    "zindex": 1
}