{
    "DNDConfig": null,
    "__parentReadjusting__": false,
    "_height_": {
        "type": "ref",
        "value": "preferred"
    },
    "_left_": {
        "type": "string",
        "value": "0"
    },
    "_margin_": [
        0,
        0,
        0,
        0
    ],
    "_orientation_": 6,
    "_padding_": [
        0,
        0,
        0,
        0
    ],
    "_percent_": true,
    "_skin_": "sdc143f0e5b64ae3a3f155f691c73fa7",
    "_top_": {
        "type": "string",
        "value": "0dp"
    },
    "_width_": {
        "type": "string",
        "value": "100%"
    },
    "allboxes": [],
    "autogrowmode": 1,
    "canUpdateUI": true,
    "centerx": {
        "type": "string",
        "value": "50%"
    },
    "children": [
        "flxDetailsHeader",
        "flxErrorMessage",
        "flxPersonalDetailsWithCIF",
        "flxCompanyAndBusinessContainer",
        "flxDomainDetailsContainer",
        "flxAcknowledgement",
        "flxVerifyDetials",
        "flxEnrollmentMethod",
        "flxVerifyCompanyDetails",
        "flxVerifyBusinessAccounts",
        "flxAboutYouContainer",
        "flxBusinessAccounts",
        "flxFeatureContainer",
        "flxOTP",
        "flxActionsSeparator",
        "formActionsNew"
    ],
    "clipbounds": false,
    "containerweight": 100,
    "enablescrolling": true,
    "id": "flxContent",
    "info": null,
    "iscustomlayout": false,
    "isvisible": true,
    "kuid": "f3d13e5c914f479ebaf1cc4d385aaf35",
    "layouttype": 4,
    "name": "kony.ui.FlexContainer",
    "parent": "flxContentContainer",
    "pf": "frmEnrollBusiness",
    "responsiveData": {
        "b1": {}
    },
    "retaincontentalignment": false,
    "retainflexpositionproperties": false,
    "snapgridsize": 10,
    "snaptogrid": true,
    "wType": "FlexContainer",
    "widgetalignment": 1
}