{
    "DNDConfig": null,
    "_height_": {
        "type": "string",
        "value": "40dp"
    },
    "_left_": {
        "type": "string",
        "value": "2.10%"
    },
    "_margin_": [
        0,
        0,
        0,
        0
    ],
    "_orientation_": 6,
    "_padding_": [
        0,
        0,
        0,
        0
    ],
    "_percent_": true,
    "_right_": {
        "type": "number",
        "value": "20"
    },
    "_skin_": "s750125314a64894aaf08f9b6e43295e",
    "_top_": {
        "type": "number",
        "value": "31"
    },
    "_width_": {
        "type": "string",
        "value": "23%"
    },
    "allboxes": [],
    "autogrowmode": 0,
    "canUpdateUI": true,
    "children": [
        "tbxFirstNameWithCIF"
    ],
    "clipbounds": false,
    "containerweight": 100,
    "disabledSkins": {},
    "enablescrolling": true,
    "id": "flxFirstNameWithCIF",
    "info": null,
    "isvisible": true,
    "kuid": "a4e684d5a7504822ae9dada970ef71ac",
    "layouttype": 2,
    "name": "kony.ui.FlexContainer",
    "parent": "flxNameDetailsWithCIF",
    "pf": "frmEnrollBusiness",
    "responsiveData": {
        "b2": {
            "top": {
                "type": "string",
                "value": "25dp"
            },
            "width": {
                "type": "string",
                "value": "40%"
            }
        },
        "b3": {}
    },
    "snapgridsize": 10,
    "snaptogrid": true,
    "wType": "FlexContainer",
    "widgetalignment": 1,
    "zindex": 1
}