{
    "DNDConfig": null,
    "__parentReadjusting__": false,
    "_height_": {
        "type": "string",
        "value": "40dp"
    },
    "_left_": {
        "type": "string",
        "value": "2.51%"
    },
    "_margin_": [
        0,
        0,
        0,
        0
    ],
    "_orientation_": 6,
    "_padding_": [
        0,
        0,
        0,
        0
    ],
    "_percent_": true,
    "_right_": {
        "type": "number",
        "value": "20"
    },
    "_skin_": "s750125314a64894aaf08f9b6e43295e",
    "_top_": {
        "type": "string",
        "value": "24dp"
    },
    "_width_": {
        "type": "string",
        "value": "23%"
    },
    "allboxes": [],
    "autogrowmode": 0,
    "canUpdateUI": true,
    "children": [
        "tbxNameWithOutCIF"
    ],
    "clipbounds": false,
    "containerweight": 100,
    "disabledSkins": {},
    "enablescrolling": true,
    "id": "flxNameWithOutCIF",
    "info": null,
    "isvisible": true,
    "kuid": "j30b2ecb911f45ca85169b47da289460",
    "layouttype": 2,
    "name": "kony.ui.FlexContainer",
    "parent": "flxNameDetailsWithOutCIF",
    "pf": "frmEnrollBusiness",
    "responsiveData": {
        "b2": {
            "left": {
                "type": "string",
                "value": "20dp"
            },
            "right": {
                "type": "number",
                "value": "20"
            },
            "top": {
                "type": "string",
                "value": "31dp"
            },
            "width": {
                "type": "string",
                "value": "32%"
            }
        },
        "b3": {
            "top": {
                "type": "string",
                "value": "26dp"
            }
        }
    },
    "snapgridsize": 10,
    "snaptogrid": true,
    "wType": "FlexContainer",
    "widgetalignment": 1,
    "zindex": 1
}