{
    "DNDConfig": null,
    "_bottom_": {
        "type": "string",
        "value": "150dp"
    },
    "_height_": {
        "type": "string",
        "value": "40dp"
    },
    "_left_": {
        "type": "string",
        "value": "2.10%"
    },
    "_margin_": [
        0,
        0,
        0,
        0
    ],
    "_orientation_": 6,
    "_padding_": [
        0,
        0,
        0,
        0
    ],
    "_percent_": true,
    "_skin_": "s750125314a64894aaf08f9b6e43295e",
    "_top_": {
        "type": "string",
        "value": "10dp"
    },
    "_width_": {
        "type": "string",
        "value": "32%"
    },
    "allboxes": [],
    "autogrowmode": 0,
    "canUpdateUI": true,
    "children": [
        "tbxSSNWithCIF"
    ],
    "clipbounds": false,
    "containerweight": 100,
    "enablescrolling": true,
    "id": "flxSSNWithCIF",
    "info": null,
    "isvisible": true,
    "kuid": "cf891499c5414abfb70041eac8c7c1a1",
    "layouttype": 2,
    "name": "kony.ui.FlexContainer",
    "parent": "flxPersonalDetailsWithCIF",
    "pf": "frmEnrollBusiness",
    "responsiveData": {
        "b2": {
            "width": {
                "type": "string",
                "value": "40%"
            }
        },
        "b3": {}
    },
    "snapgridsize": 10,
    "snaptogrid": true,
    "wType": "FlexContainer",
    "widgetalignment": 1,
    "zindex": 1
}