{
    "DNDConfig": null,
    "__parentReadjusting__": false,
    "_height_": {
        "type": "string",
        "value": "50dp"
    },
    "_margin_": [
        0,
        0,
        0,
        0
    ],
    "_orientation_": 6,
    "_padding_": [
        0,
        0,
        0,
        0
    ],
    "_percent_": true,
    "_skin_": "s9f0c4bc0cd8418da924fd6b0065e2a7",
    "_top_": {
        "type": "string",
        "value": "0dp"
    },
    "_width_": {
        "type": "string",
        "value": "100%"
    },
    "allboxes": [],
    "autogrowmode": 0,
    "canUpdateUI": true,
    "centerx": {
        "type": "number",
        "value": ""
    },
    "children": [
        "lblverifyDetailsHeader",
        "btnEditUserDetails"
    ],
    "clipbounds": true,
    "containerweight": 100,
    "enablescrolling": true,
    "id": "flxVerifyDetailsHeader",
    "info": null,
    "iscustomlayout": false,
    "isvisible": true,
    "kuid": "if71a2a57c1e473da31bd836fd6b3142",
    "layouttype": 2,
    "name": "kony.ui.FlexContainer",
    "parent": "flxVerifyDetials",
    "pf": "frmEnrollBusiness",
    "responsiveData": {
        "b2": {
            "centerX": {
                "type": "string",
                "value": "50%"
            }
        },
        "b3": {},
        "b4": {}
    },
    "retaincontentalignment": false,
    "retainflexpositionproperties": false,
    "snapgridsize": 10,
    "snaptogrid": true,
    "wType": "FlexContainer",
    "widgetalignment": 1,
    "zindex": 1
}