{
    "@class": "com.kony.gen.viz.model.component.KVizTextBox2",
    "DNDConfig": null,
    "_height_": {
        "type": "string",
        "value": "100%"
    },
    "_left_": {
        "type": "string",
        "value": "0%"
    },
    "_margin_": [
        0,
        0,
        0,
        0
    ],
    "_padding_": [
        2,
        1,
        10,
        1
    ],
    "_placeholder_": "Enter First Name",
    "_right_": {
        "type": "string",
        "value": "0%"
    },
    "_skin_": "s5fed1fa92e846d2b43ab73b00b33247",
    "_text_": "",
    "_width_": {
        "type": "string",
        "value": "100%"
    },
    "accessibilityconfig": {
        "a11yLabel": "Enter First Name"
    },
    "autocapitalize": "none",
    "autocomplete": false,
    "autocorrect": false,
    "autofilter": false,
    "canUpdateUI": true,
    "centery": {
        "type": "string",
        "value": "50%"
    },
    "containerheight": "",
    "containerheightmode": 1,
    "containerweight": 100,
    "contentalignment": 4,
    "desktopweb": {
        "placeholderSkin": "se881b7b34eb4e1bb82decfab9c35cfb"
    },
    "disabledSkins": {},
    "focusskin": "s227f630b9654ae58fba655b8d7722fb",
    "id": "tbxFirstNameWithCIF",
    "info": null,
    "isvisible": true,
    "keyboardtype": "A",
    "kuid": "i3b03f0ab4c1416ea8ea10b59216ce2f",
    "maxtextlength": "",
    "mode": "A",
    "name": "kony.ui.TextBox2",
    "paddinginpixel": false,
    "parent": "flxFirstNameWithCIF",
    "pf": "frmEnrollBusiness",
    "placeholderi18n": "i18n.konybb.tbxName",
    "placeholderskin": "se881b7b34eb4e1bb82decfab9c35cfb",
    "responsiveData": {
        "b2": {
            "centerY": {
                "type": "string",
                "value": "50.00%"
            },
            "left": {
                "type": "string",
                "value": ""
            }
        },
        "b4": {}
    },
    "securetextentry": false,
    "textinputmode": "A",
    "viewtype": "default",
    "wType": "TextField",
    "zindex": 1
}