{
	 "@class": "com.kony.gen.viz.model.component.KVizImage2",
	 "DNDConfig": null,
	 "__markedForDelete__": true,
	 "__parentReadjusting__": false,
	 "_base64_": null,
	 "_height_": {
		 "type": "string",
		 "value": "60dp"
	},
	 "_left_": {
		 "type": "string",
		 "value": "3dp"
	},
	 "_margin_": [
		 0,
		 0,
		 0,
		 0
	],
	 "_padding_": [
		 0,
		 0,
		 0,
		 0
	],
	 "_right_": {
		 "type": "string",
		 "value": "0dp"
	},
	 "_skin_": "s78a5f26c9f14cec9ebed1bb46098f80",
	 "_src_": "icon_zoom_frame.png",
	 "_top_": {
		 "type": "string",
		 "value": "1dp"
	},
	 "_width_": {
		 "type": "string",
		 "value": "60dp"
	},
	 "canUpdateUI": true,
	 "containerweight": 100,
	 "context": {
		 "channel": "desktop",
		 "formID": "uwu5626e498f3c477f9bc16f9b18398d1d",
		 "platform": "desktopweb",
		 "templateType": "userwidgets",
		 "topLevelBox": null
	},
	 "id": "imgZoom",
	 "imagescalemode": 1,
	 "imagewhiledownloading": "img_transparent.png",
	 "info": null,
	 "invokedProperty": "src",
	 "isvisible": true,
	 "kuid": "je2b70eee5da4db0b2b8869f9611ce78",
	 "name": "kony.ui.Image2",
	 "parent": "flxZoom",
	 "pf": "userwidgetmodel",
	 "srcType": 1,
	 "tooltip": "Zoom",
	 "wType": "Image",
	 "widgetalignment": 5,
	 "zindex": 1,
	 "accessibilityconfig": {
		 "a11yLabel": "Zoom in",
		 "a11yValue": ""
	}
}