{
    "@class": "com.kony.gen.viz.model.component.KVizUserWidget",
    "DNDConfig": null,
    "_children_": [],
    "_height_": {
        "type": "ref",
        "value": "preferred"
    },
    "_left_": {
        "type": "string",
        "value": "0dp"
    },
    "_margin_": [
        0,
        0,
        0,
        0
    ],
    "_orientation_": 1,
    "_padding_": [
        0,
        0,
        0,
        0
    ],
    "_percent_": true,
    "_render_": true,
    "_skin_": "s24c92fc23b14f5484b693ee9b8a9b35",
    "_top_": {
        "type": "string",
        "value": "0dp"
    },
    "_width_": {
        "type": "string",
        "value": "100%"
    },
    "canUpdateUI": true,
    "containerweight": 0,
    "data": {
        "Criteria": "{\"amount\":\"{$.c.amount}\",\"beneficiaryId\":\"{$.c.beneficiaryId}\",\"frequencyStartDate\":\"{$.c.frequencyStartDate}\",\"frequencyEndDate\":\"{$.c.frequencyEndDate}\",\"frequencyType\":\"{$.c.frequencyType}\",\"fromAccountNumber\":\"{$.c.fromAccountNumber}\",\"isScheduled\":\"{$.c.isScheduled}\",\"scheduledDate\":\"{$.c.scheduledDate}\",\"paidBy\":\"{$.c.paidBy}\",\"transactionsNotes\":\"{$.c.transactionsNotes}\",\"transactionType\":\"{$.c.transactionType}\",\"transactionCurrency\":\"{$.c.transactionCurrency}\",\"fromAccountCurrency\":\"{$.c.fromAccountCurrency}\",\"toAccountCurrency\":\"{$.c.toAccountCurrency}\",\"numberOfRecurrences\":\"{$.c.numberOfRecurrences}\",\"ExternalAccountNumber\":\"{$.c.ExternalAccountNumber}\", \"uploadedattachments\": \"{$.c.uploadedattachments}\",\"personId\":\"{$.c.PayPersonId}\"}",
        "ObjectName": "{\"New Payee\":\"Transactions\",\"Existing Payee\":\"Transaction\"}",
        "ObjectServiceName": "{\"New Payee\":\"RBObjects\",\"Existing Payee\":\"TransactionObjects\"}",
        "OperationName": "{\"Existing Payee\":\"P2PTransfer\",\"New Payee\":\"createOneTimeTransfer\"}",
        "addressLabel": "",
        "addressValue1": "",
        "addressValue2": "",
        "addressValue3": "",
        "addressValue4": "",
        "addressValue5": "",
        "addressValue6": "",
        "attachedFileList": "{    \"text\": \"{$.c.attachedFileList}\",     \"isOptionalField\": \"true\" }",
        "charge1Value": "",
        "chargeValue": "{    \"text\": \"{$.c.charges}\" }",
        "chargesBreakdownLabel": "{\"$.BREAKPTS.BP1\":\"{i.i18n.TransfersEur.FeeBreakdown}:\",\"default\":\"{i.i18n.TransfersEur.FeeBreakdown}:\"}",
        "field10Label": "{\"$.BREAKPTS.BP1\":\"{i.i18n.transfers.start_date}:\",\"default\":\"{i.i18n.transfers.start_date}:\"}",
        "field10Value": "{    \"text\": \"{$.c.startDate}\",     \"isOptionalField\": \"false\" }",
        "field11Label": "{\"$.BREAKPTS.BP1\":\"{i.i18n.transfers.lblNumberOfRecurrences}:\",\"default\":\"{i.i18n.transfers.lblNumberOfRecurrences}:\"}",
        "field11Value": "{\"text\":\"{$.c.numberOfRecurrences}\",\"isOptionalField\":\"false\"}",
        "field12Label": "{\"$.BREAKPTS.BP1\":\"{i.i18n.transfers.end_date}:\",\"default\":\"{i.i18n.transfers.end_date}:\"}",
        "field12Value": "{    \"text\": \"{$.c.endDate}\",     \"isOptionalField\": \"false\" }",
        "field13Label": "",
        "field13Value": "",
        "field14Label": "{\"$.BREAKPTS.BP1\":\"{i.i18n.TransfersEur.FeesPaidBy}:\",\"default\":\"{i.i18n.TransfersEur.FeesPaidBy}:\"}",
        "field14Value": "{    \"text\": \"{$.c.feesPaidBy}\",     \"isOptionalField\": \"false\" }",
        "field15Label": "",
        "field15Value": "",
        "field16Label": "",
        "field16Value": "",
        "field17Label": "",
        "field17Value": "",
        "field18Label": "{\"$.BREAKPTS.BP1\":\"{i.i18n.TransfersEur.ExchangeRate}:\",\"default\":\"{i.i18n.TransfersEur.ExchangeRate}:\"}",
        "field18Value": "{    \"text\": \"{$.c.exchangeRate}\",     \"isOptionalField\": \"false\" }",
        "field19Label": "{\"$.BREAKPTS.BP1\":\"{i.i18n.TransfersEur.PaymentDetails}:\",\"default\":\"{i.i18n.TransfersEur.PaymentDetails}:\"}",
        "field19Value": "{    \"text\": \"{$.c.notes}\",     \"isOptionalField\": \"true\" }",
        "field1Label": "{\"$.BREAKPTS.BP1\":\"{i.i18n.transfers.lblFrom}:\",\"default\":\"{i.i18n.transfers.lblFrom}:\"}",
        "field1Value": "{    \"text\": \"{$.c.from}\",     \"isOptionalField\": \"false\" }",
        "field21Label": "",
        "field21Value": "",
        "field22Label": "",
        "field22Value": "",
        "field2Label": "{\"$.BREAKPTS.BP1\":\"{i.i18n.transfers.lblTo}:\",\"default\":\"{i.i18n.transfers.lblTo}:\"}",
        "field2Value": "{    \"text\": \"{$.c.to}\",     \"isOptionalField\": \"false\" }",
        "field3Label": "{\"$.BREAKPTS.BP1\":\"{i.i18n.konybb.manageUser.PhoneNo}:\",\"default\":\"{i.i18n.konybb.manageUser.PhoneNo}:\"}",
        "field3Value": "{    \"text\": \"{$.c.phoneNumerDisplay}\",     \"isOptionalField\": \"false\" }",
        "field4Label": "{\"$.BREAKPTS.BP1\":\"{i.i18n.konybb.manageUser.EmailID}:\",\"default\":\"{i.i18n.konybb.manageUser.EmailID}:\"}",
        "field4Value": "{    \"text\": \"{$.c.emailAddress}\",     \"isOptionalField\": \"false\" }",
        "field5Label": "{\"$.BREAKPTS.BP1\":\"{i.i18n.WireTransfer.TransferCurrency}:\",\"default\":\"{i.i18n.WireTransfer.TransferCurrency}:\"}",
        "field5Value": "{    \"text\": \"{$.c.transferCurrency}\",     \"isOptionalField\": \"false\" }",
        "field6Label": "{\"$.BREAKPTS.BP1\":\"{i.i18n.konybb.Common.Amount}:\",\"default\":\"{i.i18n.konybb.Common.Amount}:\"}",
        "field6Value": "{    \"text\": \"{$.c.amountDisplay}\",     \"isOptionalField\": \"false\" }",
        "field7Label": "{\"$.BREAKPTS.BP1\":\"{i.i18n.transfers.lblFrequency}:\",\"default\":\"{i.i18n.transfers.lblFrequency}:\"}",
        "field7Value": "{    \"text\": \"{$.c.frequency}\",     \"isOptionalField\": \"false\" }",
        "field8Label": "{\"$.BREAKPTS.BP1\":\"{i.i18n.konybb.Common.TotalDebitAmt}:\",\"default\":\"{i.i18n.konybb.Common.TotalDebitAmt}:\"}",
        "field8Value": "{\"text\":\"{$.c.totalAmount}\",\"isOptionalField\":\"false\"}",
        "field9Label": "{\"$.BREAKPTS.BP1\":\"{i.i18n.transfers.send_on}:\",\"default\":\"{i.i18n.transfers.send_on}:\"}",
        "field9Value": "{    \"text\": \"{$.c.sendOn}\",     \"isOptionalField\": \"false\" }",
        "reviewBlockTitle": "{\"$.BREAKPTS.BP1\":\"{i.i18n.transfers.YourTransactionDetails}\",\"default\":\"{i.i18n.transfers.YourTransactionDetails}\"}",
        "reviewSectionTitle": "{\"$.BREAKPTS.BP1\":\"{i.i18n.UnifiedTransfer.BeneficiaryAddressDetails}:\",\"default\":\"{i.i18n.UnifiedTransfer.BeneficiaryAddressDetails}:\"}",
        "supportingDocumentLabel": "{\"$.BREAKPTS.BP1\":\"{i.i18n.TransfersEur.SupportingDocuments}:\",\"default\":\"{i.i18n.TransfersEur.SupportingDocuments}:\"}"
    },
    "id": "confirmTransfer",
    "info": null,
    "iscustomlayout": false,
    "issegmentchild": false,
    "isvisible": true,
    "kuid": "fc3f820f64254bdc9036d5ffa611c879",
    "layouttype": 2,
    "masterType": 1,
    "name": "kony.ui.UserWidgetInstance",
    "parent": "flxMain",
    "pf": "frmP2PTransferConfirmation",
    "responsiveData": {
        "b1": {
            "layoutType": 4,
            "skin": "s24c92fc23b14f5484b693ee9b8a9b35",
            "top": {
                "type": "string",
                "value": "16dp"
            }
        },
        "b2": {
            "layoutType": 4,
            "top": {
                "type": "string",
                "value": "15dp"
            }
        },
        "b3": {
            "top": {
                "type": "string",
                "value": "0dp"
            }
        },
        "b4": {
            "top": {
                "type": "string",
                "value": "16dp"
            }
        }
    },
    "retaincontentalignment": false,
    "retainflexpositionproperties": false,
    "retainflowhorizontalalignment": false,
    "sourceUserWidget": "a19a19694f5b4d28817f89bac659e96c",
    "wType": "UserWidgetInstance"
}