{
    "@class": "com.kony.gen.viz.model.component.KVizLabel",
    "DNDConfig": null,
    "_height_": {
        "type": "ref",
        "value": "preferred"
    },
    "_left_": {
        "type": "string",
        "value": "0"
    },
    "_margin_": [
        1,
        1,
        1,
        1
    ],
    "_padding_": [
        0,
        0,
        0,
        0
    ],
    "_skin_": "sb75b207521b47ba8f721dca18b56352",
    "_text_": "Label",
    "_top_": {
        "type": "string",
        "value": "0"
    },
    "_width_": {
        "type": "ref",
        "value": "preferred"
    },
    "_wrapping_": 2,
    "android": {
        "textStyle": {
            "letterSpacing": 0,
            "strikeThrough": false
        }
    },
    "canUpdateUI": true,
    "containerweight": 100,
    "contentalignment": 4,
    "id": "lblTransfersHead",
    "info": null,
    "ipad": {
        "psp": {
            "wrapping": 2
        }
    },
    "iphone": {
        "psp": {
            "wrapping": 2
        }
    },
    "iscustomlayout": false,
    "isvisible": true,
    "kuid": "bf44293bc70b4fafa5ed9de6561ceff1",
    "name": "kony.ui.Label",
    "parent": "flxMain",
    "pf": "frmP2PTransferConfirmation",
    "responsiveData": {
        "b1": {
            "left": {
                "type": "number",
                "value": "80"
            },
            "skin": "sa7698f19d1b473283864b966d8be272",
            "text": "Transfers-Confirmation",
            "top": {
                "type": "string",
                "value": "30dp"
            },
            "zIndex": 2
        },
        "b2": {
            "left": {
                "type": "string",
                "value": "25dp"
            },
            "skin": "sa7698f19d1b473283864b966d8be272",
            "text": "Transfers-Confirmation",
            "top": {
                "type": "string",
                "value": "22dp"
            },
            "zIndex": 2
        },
        "b3": {
            "isVisible": false,
            "skin": "sa7698f19d1b473283864b966d8be272"
        },
        "b4": {
            "left": {
                "type": "string",
                "value": "80dp"
            },
            "skin": "sa7698f19d1b473283864b966d8be272",
            "text": "Transfers-Confirmation",
            "top": {
                "type": "string",
                "value": "30dp"
            },
            "zIndex": 2
        }
    },
    "retaincontentalignment": false,
    "retainflexpositionproperties": false,
    "tooltip": "",
    "wType": "Label",
    "zindex": 1
}