{
    "@class": "com.kony.gen.viz.model.component.KVizButton",
    "DNDConfig": null,
    "__parentReadjusting__": false,
    "_height_": {
        "type": "string",
        "value": "50dp"
    },
    "_margin_": [
        6,
        6,
        6,
        6
    ],
    "_padding_": [
        0,
        0,
        0,
        0
    ],
    "_skin_": "s07f75da31a244779db872f9d57d03f2",
    "_text_": "Where Can I find my CVV number?",
    "_top_": {
        "type": "string",
        "value": "15dp"
    },
    "_width_": {
        "type": "string",
        "value": "300dp"
    },
    "canUpdateUI": true,
    "centerx": {
        "type": "string",
        "value": "50%"
    },
    "containerweight": 100,
    "contentalignment": 5,
    "disabledSkins": {
        "focusSkin": "sf44d06ca8224832827ea7fdff757013"
    },
    "displaytext": true,
    "id": "btnfindCVV",
    "info": null,
    "iscustomlayout": false,
    "isvisible": true,
    "kuid": "bc79c78ebb2b425da1bb5d31c5d1840d",
    "name": "kony.ui.Button",
    "parent": "flxActivateContent",
    "pf": "frmCardManagement",
    "responsiveData": {
        "b1": {
            "skin": "sd3d7d8bf6784b30adadc45c3bbb44e0"
        },
        "b2": {
            "skin": "sd3d7d8bf6784b30adadc45c3bbb44e0",
            "top": {
                "type": "string",
                "value": "15dp"
            }
        },
        "b3": {
            "skin": "sd3d7d8bf6784b30adadc45c3bbb44e0"
        },
        "b4": {
            "skin": "sd3d7d8bf6784b30adadc45c3bbb44e0"
        }
    },
    "retaincontentalignment": false,
    "retainflexpositionproperties": false,
    "texti18n": "i18n.CardManagement.findCVVCode",
    "wType": "Button",
    "zindex": 1
}