{
    "@class": "com.kony.gen.viz.model.component.KVizButton",
    "DNDConfig": null,
    "__parentReadjusting__": false,
    "_height_": {
        "type": "string",
        "value": "30dp"
    },
    "_left_": {
        "type": "string",
        "value": ""
    },
    "_margin_": [
        6,
        6,
        6,
        6
    ],
    "_padding_": [
        0,
        0,
        0,
        0
    ],
    "_right_": {
        "type": "string",
        "value": "2.10%"
    },
    "_skin_": "se4cbdf6e51f48eda9966caa941c6a19",
    "_text_": "Restore defaults",
    "_top_": {
        "type": "string",
        "value": "0"
    },
    "_width_": {
        "type": "ref",
        "value": "preferred"
    },
    "accessibilityconfig": {
        "a11yLabel": "Back To Cards"
    },
    "canUpdateUI": true,
    "centery": {
        "type": "string",
        "value": "50%"
    },
    "containerweight": 100,
    "contentalignment": 5,
    "desktopweb": {
        "psp": {}
    },
    "disabledSkins": {
        "focusSkin": "s5a4f67acd3e47b9be6d6910a7a6686f",
        "hoverSkin": "s81054b5e2b74f17a5261991df565427"
    },
    "displaytext": true,
    "id": "btnRestoreDefaults",
    "ide_onClick": "AS_Button_aaf843b0c49c417aae66f3b3bb5e698a",
    "info": null,
    "isvisible": false,
    "kuid": "ff3f4869abf149df9ba8760f546377f2",
    "name": "kony.ui.Button",
    "parent": "flxCardName",
    "pf": "frmCardManagement",
    "responsiveData": {
        "b1": {},
        "b2": {},
        "b3": {},
        "b4": {}
    },
    "texti18n": "i18n.CardManagement.RestoreDefaults",
    "tooltip": "VIEW TRANSFER ACTIVITY",
    "wType": "Button",
    "zindex": 1
}