{
    "@class": "com.kony.gen.viz.model.component.KVizUserWidget",
    "DNDConfig": null,
    "__parentReadjusting__": false,
    "_children_": [],
    "_height_": {
        "type": "ref",
        "value": "preferred"
    },
    "_left_": {
        "type": "string",
        "value": "0dp"
    },
    "_margin_": [
        0,
        0,
        0,
        0
    ],
    "_orientation_": 1,
    "_padding_": [
        0,
        0,
        0,
        0
    ],
    "_percent_": true,
    "_render_": true,
    "_skin_": "s6c801425113440f9292523a3df3e5c2",
    "_top_": {
        "type": "string",
        "value": "0dp"
    },
    "_width_": {
        "type": "string",
        "value": "100%"
    },
    "areflexpropsreferenced": false,
    "autogrowmode": 1,
    "canUpdateUI": true,
    "clipbounds": true,
    "containerweight": 0,
    "dataDiffs": {
        "CardActivation": {
            "__events__": {},
            "__info__": {
                "isRoot": true,
                "kuid": "f3a192cea77947628305d1a623eb13ab",
                "srcKUID": "e26777f987264335a934e1393fffec7b",
                "wType": "FlexContainer"
            },
            "left": {},
            "responsiveData": {
                "b1": {
                    "isVisible": true
                },
                "b2": {
                    "left": {
                        "type": "string",
                        "value": "0dp"
                    },
                    "right": {
                        "type": "string",
                        "value": "20dp"
                    },
                    "width": {
                        "type": "string",
                        "value": ""
                    }
                }
            },
            "right": {},
            "width": {}
        },
        "btnCancel": {
            "__events__": {},
            "__info__": {
                "kuid": "fd19ed8055854d2889da7193a6cc3e8e",
                "srcKUID": "a121ec028ba24b4da97ed04edd5bfeb2",
                "wType": "Button"
            },
            "centerX": {},
            "height": {
                "Default": {
                    "type": "string",
                    "value": "40dp"
                }
            },
            "left": {},
            "responsiveData": {
                "b2": {
                    "right": {
                        "type": "string",
                        "value": "25.80%"
                    },
                    "width": {
                        "type": "string",
                        "value": "21.40%"
                    }
                },
                "b3": {
                    "centerX": {
                        "type": "string",
                        "value": "50%"
                    },
                    "left": {
                        "type": "string",
                        "value": "2.50%"
                    },
                    "right": {
                        "type": "string",
                        "value": ""
                    },
                    "top": {
                        "type": "string",
                        "value": "10dp"
                    },
                    "width": {
                        "type": "string",
                        "value": "95%"
                    }
                },
                "b4": {
                    "right": {
                        "type": "string",
                        "value": "200dp"
                    },
                    "width": {
                        "type": "string",
                        "value": "150dp"
                    }
                }
            },
            "right": {},
            "top": {},
            "width": {}
        },
        "btnProceed": {
            "__events__": {},
            "__info__": {
                "kuid": "c8927f98ccfe462589ef49999d6eefab",
                "srcKUID": "dfde33b01b8340ba891401b051e1b441",
                "wType": "Button"
            },
            "height": {
                "Default": {
                    "type": "string",
                    "value": "40dp"
                }
            },
            "i18n_text": "i18n.common.proceed",
            "left": {
                "Default": {
                    "type": "string",
                    "value": "76.8%"
                }
            },
            "responsiveData": {
                "b2": {
                    "left": {
                        "type": "string",
                        "value": ""
                    },
                    "right": {
                        "type": "string",
                        "value": "2.20%"
                    },
                    "width": {
                        "type": "string",
                        "value": "21.40%"
                    }
                },
                "b3": {
                    "left": {
                        "type": "string",
                        "value": "2.50%"
                    },
                    "top": {
                        "type": "string",
                        "value": "20dp"
                    },
                    "width": {
                        "type": "string",
                        "value": "95%"
                    }
                },
                "b4": {
                    "left": {
                        "type": "string",
                        "value": ""
                    },
                    "right": {
                        "type": "string",
                        "value": "30dp"
                    },
                    "width": {
                        "type": "string",
                        "value": "150dp"
                    }
                }
            },
            "right": {
                "Default": {
                    "type": "string",
                    "value": ""
                }
            },
            "top": {},
            "width": {}
        },
        "btnTermsAndConditions": {
            "__events__": {},
            "__info__": {
                "kuid": "c17eb062ad71498aa4e16a2711c22034",
                "srcKUID": "a96f8e3b8b274ed0817e41501a2b730d",
                "wType": "Button"
            },
            "responsiveData": {
                "b1": {
                    "top": {
                        "type": "string",
                        "value": "5dp"
                    }
                },
                "b2": {
                    "top": {
                        "type": "string",
                        "value": "5dp"
                    }
                },
                "b3": {
                    "top": {
                        "type": "string",
                        "value": "5dp"
                    }
                },
                "b4": {
                    "top": {
                        "type": "string",
                        "value": "5dp"
                    }
                }
            },
            "top": {
                "Default": {
                    "type": "string",
                    "value": "2px"
                }
            }
        },
        "flxActions": {
            "__events__": {},
            "__info__": {
                "kuid": "bdb299260279402ca28e04472961a1ca",
                "srcKUID": "cf1703c808534fd6b4b2f3b76d17405d",
                "wType": "FlexContainer"
            },
            "autogrowMode": {
                "Default": 0
            },
            "clipBounds": false,
            "height": {},
            "responsiveData": {
                "b2": {
                    "height": {
                        "type": "string",
                        "value": "100dp"
                    }
                },
                "b3": {
                    "height": {
                        "type": "string",
                        "value": "150dp"
                    },
                    "layoutType": 4,
                    "width": {
                        "type": "string",
                        "value": "100%"
                    }
                }
            },
            "width": {}
        },
        "flxCheckbox": {
            "__events__": {},
            "__info__": {
                "kuid": "gd21fceb56d6429899575685389718bf",
                "srcKUID": "df44073369ca4341ba79c39f2a91bb27",
                "wType": "FlexContainer"
            },
            "left": {},
            "responsiveData": {
                "b2": {
                    "left": {
                        "type": "string",
                        "value": "0dp"
                    }
                }
            }
        },
        "flxDetails": {
            "__events__": {},
            "__info__": {
                "kuid": "d9094d050cd5478d97f559f3e383f829",
                "srcKUID": "df6136dc5053405db089fee396b69c1b",
                "wType": "FlexContainer"
            }
        },
        "flxFour": {
            "__events__": {},
            "__info__": {
                "kuid": "gba28d6d67ad49208fdb3db144508111",
                "srcKUID": "g76afba7e83c44dc9b170eac0851e932",
                "wType": "FlexContainer"
            }
        },
        "flxHeader": {
            "__events__": {},
            "__info__": {
                "kuid": "eb3372f892b14d96aa449fa48a0d6571",
                "srcKUID": "a43bb71ef8074b1f8cbde13b126bd3a8",
                "wType": "FlexContainer"
            },
            "autogrowMode": {
                "Default": 0
            },
            "height": {},
            "responsiveData": {
                "b2": {
                    "width": {
                        "type": "string",
                        "value": "100%"
                    }
                },
                "b3": {
                    "height": {
                        "type": "string",
                        "value": "45dp"
                    }
                }
            },
            "width": {}
        },
        "flxIAgree": {
            "__events__": {},
            "__info__": {
                "kuid": "b9c91fc0d43a412bae4998adace63750",
                "srcKUID": "c84623e75f5a40eba593572b63174e7a",
                "wType": "FlexContainer"
            },
            "left": {},
            "responsiveData": {
                "b2": {
                    "left": {
                        "type": "string",
                        "value": "2.50%"
                    },
                    "top": {
                        "type": "string",
                        "value": "20dp"
                    }
                }
            },
            "top": {}
        },
        "flxSeparator": {
            "__events__": {},
            "__info__": {
                "kuid": "h89292d4542f4157aed6f8925868d400",
                "srcKUID": "ad76fb8c6906417d820675ef6d70a7a2",
                "wType": "FlexContainer"
            }
        },
        "flxSeparator2": {
            "__events__": {},
            "__info__": {
                "kuid": "beb0840efbc7422f9002cd3b0ba55136",
                "srcKUID": "fea9e3718fe94578b625cd769a02af7f",
                "wType": "FlexContainer"
            },
            "responsiveData": {
                "b3": {
                    "top": {
                        "type": "string",
                        "value": "5dp"
                    }
                }
            },
            "top": {}
        },
        "flxThree": {
            "__events__": {},
            "__info__": {
                "kuid": "fe77af8a2b7f4dc5862c53fbaefc88bb",
                "srcKUID": "c2f8ef4234494ebbbf20a564af258868",
                "wType": "FlexContainer"
            }
        },
        "flxWarning": {
            "__events__": {},
            "__info__": {
                "kuid": "e5c055582368493bb892b5168321c51c",
                "srcKUID": "b6f41e4ceed74ef5ac7a695b785b0d55",
                "wType": "FlexContainer"
            },
            "left": {},
            "responsiveData": {
                "b2": {
                    "left": {
                        "type": "string",
                        "value": "2.50%"
                    }
                }
            }
        },
        "flxbullet": {
            "__events__": {},
            "__info__": {
                "kuid": "bfb8fab4e13d41cabadaf78edbf838c4",
                "srcKUID": "h196675a629f428b89a14414dd6fe997",
                "wType": "FlexContainer"
            }
        },
        "flxbullet2": {
            "__events__": {},
            "__info__": {
                "kuid": "a5c50fc182ef4c28935db3a6e3eac245",
                "srcKUID": "a4c2d2bd35044a98b8f793a276a88e50",
                "wType": "FlexContainer"
            }
        },
        "flxbullet3": {
            "__events__": {},
            "__info__": {
                "kuid": "g3d7fab2f1d9468099ceb5b531b37855",
                "srcKUID": "c31e72739de4466ca063d6e2b3589093",
                "wType": "FlexContainer"
            }
        },
        "flxbullet4": {
            "__events__": {},
            "__info__": {
                "kuid": "c77f9f9a46b54096ad67dd8f98eb308f",
                "srcKUID": "g800c4a7fd174afe9ba8b6a4dd8e2aac",
                "wType": "FlexContainer"
            }
        },
        "flxone": {
            "__events__": {},
            "__info__": {
                "kuid": "b9f299db05a543b3973f0149ac1765d7",
                "srcKUID": "i8c334e2a2df4eb3b2d9eaab3b83c8a3",
                "wType": "FlexContainer"
            },
            "responsiveData": {
                "b1": {
                    "top": {
                        "type": "string",
                        "value": "5dp"
                    }
                },
                "b2": {
                    "top": {
                        "type": "string",
                        "value": "5dp"
                    }
                },
                "b3": {
                    "top": {
                        "type": "string",
                        "value": "10dp"
                    }
                },
                "b4": {
                    "top": {
                        "type": "string",
                        "value": "5dp"
                    }
                }
            },
            "top": {}
        },
        "flxtwo": {
            "__events__": {},
            "__info__": {
                "kuid": "d03539475e244a608d99dab5f9965d85",
                "srcKUID": "a06f2b32086847cb9be891f5c7b7fd81",
                "wType": "FlexContainer"
            }
        },
        "imgChecbox": {
            "__events__": {},
            "__info__": {
                "kuid": "c362069fd89a4bf6a39db42d61a6da0b",
                "srcKUID": "ce529a256bfd46298a77e39f616d4713",
                "wType": "Image"
            },
            "src": "unchecked_box.png"
        },
        "imgWarning": {
            "__events__": {},
            "__info__": {
                "kuid": "hda267c2d72c4eb6a828622b0d28f4ce",
                "srcKUID": "cc8e8b4f025f480e9906983145f3ccdf",
                "wType": "Image"
            },
            "src": "error_yellow.png"
        },
        "lblAgree": {
            "__events__": {},
            "__info__": {
                "kuid": "ee2940b86a604fcfad74399973c92abe",
                "srcKUID": "c360d1961d7941769933bb6bd49b250d",
                "wType": "Label"
            },
            "responsiveData": {
                "b1": {
                    "top": {
                        "type": "string",
                        "value": "5px"
                    }
                },
                "b2": {
                    "top": {
                        "type": "string",
                        "value": "5dp"
                    }
                },
                "b3": {
                    "top": {
                        "type": "string",
                        "value": "5dp"
                    }
                },
                "b4": {
                    "top": {
                        "type": "string",
                        "value": "5dp"
                    }
                }
            },
            "top": {
                "Default": {
                    "type": "string",
                    "value": "2px"
                }
            }
        },
        "lblHeader": {
            "__events__": {},
            "__info__": {
                "kuid": "i7c2961eb6b64b99bf1b66d79a2d1599",
                "srcKUID": "jdb88036bf6f466c92a23821e332fd00",
                "wType": "Label"
            },
            "centerY": {},
            "left": {},
            "responsiveData": {
                "b2": {
                    "left": {
                        "type": "string",
                        "value": "2.50%"
                    }
                },
                "b3": {
                    "centerY": {
                        "type": "string",
                        "value": "50%"
                    },
                    "top": {
                        "type": "string",
                        "value": ""
                    }
                }
            },
            "top": {}
        },
        "lblHeading2": {
            "__events__": {},
            "__info__": {
                "kuid": "a620b5d0225c45bd9dcdb963d35683cc",
                "srcKUID": "ff910464d7c24d89a29d9fb82559bbd6",
                "wType": "Label"
            },
            "height": {},
            "left": {
                "Default": {
                    "type": "string",
                    "value": "0%"
                }
            },
            "responsiveData": {
                "b1": {
                    "left": {
                        "type": "string",
                        "value": "28dp"
                    },
                    "width": {
                        "type": "string",
                        "value": "90%"
                    }
                },
                "b2": {
                    "height": {
                        "type": "ref",
                        "value": "preferred"
                    },
                    "left": {
                        "type": "string",
                        "value": "25dp"
                    }
                },
                "b3": {
                    "height": {
                        "type": "ref",
                        "value": "preferred"
                    },
                    "left": {
                        "type": "string",
                        "value": "16dp"
                    },
                    "width": {
                        "type": "string",
                        "value": "95%"
                    }
                },
                "b4": {
                    "left": {
                        "type": "string",
                        "value": "28dp"
                    }
                }
            },
            "width": {}
        },
        "lblIns1": {
            "__events__": {},
            "__info__": {
                "kuid": "be6c4acee9ae4e1ea062dbf5527dc983",
                "srcKUID": "ef6a518f873b459d8f9ee9e5bc009566",
                "wType": "Label"
            },
            "responsiveData": {
                "b2": {
                    "width": {
                        "type": "string",
                        "value": "80%"
                    }
                }
            },
            "width": {}
        },
        "lblIns2": {
            "__events__": {},
            "__info__": {
                "kuid": "b9bb84faf51a44b6921c50de1ade3d50",
                "srcKUID": "ef1f4215d2b54ce3b649db1eacf89c4c",
                "wType": "Label"
            },
            "responsiveData": {
                "b2": {
                    "width": {
                        "type": "string",
                        "value": "80%"
                    }
                }
            },
            "width": {}
        },
        "lblIns3": {
            "__events__": {},
            "__info__": {
                "kuid": "d6a8130bf55f4ea2a0b3c20cb42c836c",
                "srcKUID": "f50ebf284fcd479ca08a095e85c4f1b3",
                "wType": "Label"
            },
            "responsiveData": {
                "b2": {
                    "width": {
                        "type": "string",
                        "value": "80%"
                    }
                }
            },
            "width": {}
        },
        "lblIns4": {
            "__events__": {},
            "__info__": {
                "kuid": "d8dfa693239d42e8ae2a7ff9d721c9f6",
                "srcKUID": "a23a2b14a1fe450fb5d844d608f5a1c7",
                "wType": "Label"
            },
            "responsiveData": {
                "b2": {
                    "width": {
                        "type": "string",
                        "value": "80%"
                    }
                }
            },
            "width": {}
        },
        "lblRememberMeIcon": {
            "__events__": {},
            "__info__": {
                "kuid": "f683746ab2d74a0192ca733ecd10aca6",
                "srcKUID": "e692b614ebd24ed4b2c57360c3fc1c35",
                "wType": "Label"
            }
        },
        "lblWarning": {
            "__events__": {},
            "__info__": {
                "kuid": "h20b478bd9874280935fc200f830edc1",
                "srcKUID": "efe97abee8de4f7886ae848d09d8e54d",
                "wType": "Label"
            }
        }
    },
    "id": "CardActivation",
    "info": null,
    "isdatareferenced": false,
    "issegmentchild": false,
    "isvisible": true,
    "kuid": "f3a192cea77947628305d1a623eb13ab",
    "layouttype": 4,
    "masterType": 0,
    "name": "kony.ui.UserWidgetInstance",
    "parent": "flxActivateCard",
    "pf": "frmCardManagement",
    "snaptogrid": true,
    "sourceUserWidget": "e26777f987264335a934e1393fffec7b",
    "vizprops": {
        "hidewidgethierarchy": false
    },
    "wType": "UserWidgetInstance"
}