{
    "@class": "com.kony.gen.viz.model.component.KVizUserWidget",
    "DNDConfig": null,
    "__parentReadjusting__": false,
    "_children_": [],
    "_height_": {
        "type": "string",
        "value": "82dp"
    },
    "_left_": {
        "type": "string",
        "value": "0dp"
    },
    "_margin_": [
        0,
        0,
        0,
        0
    ],
    "_orientation_": 1,
    "_padding_": [
        0,
        0,
        0,
        0
    ],
    "_percent_": true,
    "_skin_": "sc1d307cbd5b498e90095d4e8f344347",
    "_top_": {
        "type": "string",
        "value": "0dp"
    },
    "_width_": {
        "type": "string",
        "value": "100%"
    },
    "areflexpropsreferenced": false,
    "autogrowmode": 0,
    "canUpdateUI": true,
    "clipbounds": true,
    "containerweight": 0,
    "dataDiffs": {
        "btnCancel": {
            "__events__": {},
            "__info__": {
                "kuid": "f82c50e46d4c4f8ebcfab95621390be3",
                "srcKUID": "fe63955edbd24a4ea6b8cae6b9dc4e9d",
                "wType": "Button"
            },
            "responsiveData": {},
            "right": {
                "Default": {
                    "type": "string",
                    "value": "16.60%"
                }
            }
        },
        "btnConfirm": {
            "__events__": {
                "ide_onClick": "AS_Button_jb5e3299d9824550bfa9de7e2d9636a7"
            },
            "__info__": {
                "kuid": "h412abbe59b74230965e9cb3aac8040d",
                "srcKUID": "fce03529e50d441ea6385939a861c275",
                "wType": "Button"
            }
        },
        "btnModify": {
            "__events__": {},
            "__info__": {
                "kuid": "c01c6039f13a4f76a64d6dc06279eb1a",
                "srcKUID": "b0db2b5c6b0b4deb89afff129dc620f7",
                "wType": "Button"
            },
            "isVisible": false,
            "responsiveData": {}
        },
        "confirmButtons": {
            "__events__": {},
            "__info__": {
                "isRoot": true,
                "kuid": "bf6c871b099342e0b7e867bbc8f30b1a",
                "srcKUID": "ddfb5a99e80b4d01b3e3abf4c1af4adc",
                "wType": "FlexContainer"
            },
            "autogrowMode": {
                "Default": 0
            },
            "height": {
                "Default": {
                    "type": "string",
                    "value": "82dp"
                }
            },
            "responsiveData": {}
        },
        "flxHorizontalLine": {
            "__events__": {},
            "__info__": {
                "kuid": "f528141e2eab4c6fb9946338e4f88f3c",
                "srcKUID": "ac533aa67f084f63ae00d6834110ffa8",
                "wType": "FlexContainer"
            }
        }
    },
    "enablescrolling": true,
    "id": "confirmButtons",
    "info": null,
    "isdatareferenced": false,
    "isvisible": true,
    "kuid": "bf6c871b099342e0b7e867bbc8f30b1a",
    "layouttype": 2,
    "masterType": 0,
    "name": "kony.ui.UserWidgetInstance",
    "parent": "flxSetCardLimitsNew",
    "pf": "frmCardManagement",
    "snapgridsize": 10,
    "snaptogrid": true,
    "sourceUserWidget": "ddfb5a99e80b4d01b3e3abf4c1af4adc",
    "wType": "UserWidgetInstance"
}