{
    "@class": "com.kony.gen.viz.model.component.KVizUserWidget",
    "DNDConfig": null,
    "__parentReadjusting__": false,
    "_children_": [],
    "_height_": {
        "type": "string",
        "value": "60dp"
    },
    "_left_": {
        "type": "string",
        "value": "0dp"
    },
    "_margin_": [
        0,
        0,
        0,
        0
    ],
    "_orientation_": 1,
    "_padding_": [
        0,
        0,
        0,
        0
    ],
    "_percent_": true,
    "_skin_": "s576844bc0e148a9a02e6171eac305ac",
    "_top_": {
        "type": "string",
        "value": "0dp"
    },
    "_width_": {
        "type": "string",
        "value": "100%"
    },
    "areflexpropsreferenced": false,
    "autogrowmode": 0,
    "canUpdateUI": true,
    "clipbounds": true,
    "containerweight": 0,
    "dataDiffs": {
        "confirmHeaders": {
            "__events__": {},
            "__info__": {
                "isRoot": true,
                "kuid": "cba4e09e3c904cb48b8f8c1ded404e7f",
                "srcKUID": "bfa374b04e3743cf981eb31d77ebf746",
                "wType": "FlexContainer"
            },
            "autogrowMode": {
                "Default": 0
            },
            "height": {
                "Default": {
                    "type": "string",
                    "value": "60dp"
                }
            },
            "responsiveData": {}
        },
        "flxHeader": {
            "__events__": {},
            "__info__": {
                "kuid": "b64c0382ae7940f5a9a413b17dd8d5ff",
                "srcKUID": "ge4b975c1527467a9bc1b610e3dcf02e",
                "wType": "FlexContainer"
            }
        },
        "lblHeading": {
            "__events__": {},
            "__info__": {
                "kuid": "bdb3c61981c04bbc95d8cce96b7e9576",
                "srcKUID": "e48654a7e4ae4428b39557093fea9b39",
                "wType": "Label"
            },
            "i18n_text": "i18n.CardManagement.YourCardDetails",
            "responsiveData": {},
            "text": "Your Card Details"
        }
    },
    "enablescrolling": true,
    "id": "confirmHeaders",
    "info": null,
    "isdatareferenced": false,
    "isvisible": true,
    "kuid": "cba4e09e3c904cb48b8f8c1ded404e7f",
    "layouttype": 2,
    "masterType": 0,
    "name": "kony.ui.UserWidgetInstance",
    "parent": "flxMainSetCardLimits",
    "pf": "frmCardManagement",
    "snapgridsize": 10,
    "snaptogrid": true,
    "sourceUserWidget": "bfa374b04e3743cf981eb31d77ebf746",
    "wType": "UserWidgetInstance"
}