{
    "@class": "com.kony.gen.viz.model.component.KVizUserWidget",
    "DNDConfig": null,
    "__parentReadjusting__": false,
    "_children_": [],
    "_desktopweb_": {},
    "_height_": {
        "type": "string",
        "value": "268px"
    },
    "_kiosk_": {},
    "_left_": {
        "type": "string",
        "value": "0dp"
    },
    "_margin_": [
        0,
        0,
        0,
        0
    ],
    "_orientation_": 1,
    "_padding_": [
        0,
        0,
        0,
        0
    ],
    "_percent_": true,
    "_render_": true,
    "_responsiveData_": {
        "b2": {
            "width": {
                "type": "string",
                "value": "75%"
            }
        },
        "b3": {
            "width": {
                "type": "string",
                "value": "75%"
            }
        }
    },
    "_skin_": "s701065f11074080832b59947e731160",
    "_top_": {
        "type": "string",
        "value": "300dp"
    },
    "_vizProps_": {
        "hidewidgethierarchy": false
    },
    "_width_": {
        "type": "string",
        "value": "44.30%"
    },
    "areflexpropsreferenced": false,
    "autogrowmode": 0,
    "canUpdateUI": true,
    "centerx": {
        "type": "string",
        "value": "50.00%"
    },
    "centery": {
        "type": "string",
        "value": ""
    },
    "clipbounds": false,
    "containerweight": 0,
    "dataDiffs": {
        "CustomPopup": {
            "__events__": {},
            "__info__": {
                "isRoot": true,
                "kuid": "f694c3049d2a4f0d93430f8cbdd319b4",
                "srcKUID": "eb2d311dcb4744a7b05aa4f5428a6c53",
                "wType": "FlexContainer"
            },
            "centerX": {
                "Default": {
                    "type": "string",
                    "value": "50.00%"
                }
            },
            "centerY": {
                "Default": {
                    "type": "string",
                    "value": ""
                }
            },
            "responsiveData": {
                "b2": {
                    "width": {
                        "type": "string",
                        "value": "75%"
                    }
                },
                "b3": {
                    "width": {
                        "type": "string",
                        "value": "75%"
                    }
                }
            },
            "top": {
                "Default": {
                    "type": "string",
                    "value": "300dp"
                }
            },
            "width": {
                "Default": {
                    "type": "string",
                    "value": "44.30%"
                }
            },
            "zIndex": {
                "Default": 1100
            }
        },
        "btnNo": {
            "__events__": {},
            "__info__": {
                "kuid": "ed17857cd07842fe9f21b11d594082b4",
                "srcKUID": "h61577b4448c4e22a2636221e8fe0d6d",
                "wType": "Button"
            },
            "text": ""
        },
        "btnYes": {
            "__events__": {},
            "__info__": {
                "kuid": "e117ebbbed3b42b3beddcbf0c8d02d4f",
                "srcKUID": "e1c11d09edb846848d4aaf921cb1e5a0",
                "wType": "Button"
            },
            "text": ""
        },
        "flxCross": {
            "__events__": {},
            "__info__": {
                "kuid": "cb4877d4c90e42d68dd0a5df9f3b4fd7",
                "srcKUID": "e896a8d6e1244397be41e1011101c6ec",
                "wType": "FlexContainer"
            }
        },
        "flxHeader": {
            "__events__": {},
            "__info__": {
                "kuid": "h6910985c38748d586dde8cd134f8374",
                "srcKUID": "b6d465d7232a428eba11c466c6843856",
                "wType": "FlexContainer"
            }
        },
        "flxSeperator": {
            "__events__": {},
            "__info__": {
                "kuid": "eed2adea8855462b9905b5572f5e67e6",
                "srcKUID": "b469cc45156e429d8fa47b9786168d10",
                "wType": "FlexContainer"
            }
        },
        "flxSeperator2": {
            "__events__": {},
            "__info__": {
                "kuid": "d208730e232944468d779a5a38941141",
                "srcKUID": "e909e4e4b4a145b1aa92b22ece7050d3",
                "wType": "FlexContainer"
            }
        },
        "imgCross": {
            "__events__": {},
            "__info__": {
                "kuid": "c987c9605ab44b8286f6da4533d6ee70",
                "srcKUID": "ja13bba308404016b1cd223dbcdf01ae",
                "wType": "Image"
            },
            "height": {
                "Default": {
                    "type": "string",
                    "value": "15dp"
                }
            },
            "responsiveData": {
                "b4": {}
            },
            "src": "bbcloseicon.png"
        },
        "lblHeading": {
            "__events__": {},
            "__info__": {
                "kuid": "e71f78bc3767451da6cc4e01fd2f4016",
                "srcKUID": "f97c1408984847af9f3cd9984a260c74",
                "wType": "Label"
            },
            "text": "Alert"
        },
        "lblPopupMessage": {
            "__events__": {},
            "__info__": {
                "kuid": "jf3f254ac11b48399284e883012f2663",
                "srcKUID": "f7c7509dccf24b88aeb13dc3d34fcc6b",
                "wType": "Label"
            },
            "text": "Unable to save the changes. Do you want to try again?"
        }
    },
    "id": "CustomAlertPopup",
    "info": null,
    "isdatareferenced": false,
    "isvisible": true,
    "kuid": "gf8b7644aff24cedb02c5e1123789a6a",
    "layouttype": 2,
    "masterType": 0,
    "name": "kony.ui.UserWidgetInstance",
    "parent": "flxAlert",
    "pf": "frmCardManagement",
    "snaptogrid": true,
    "sourceUserWidget": "eb2d311dcb4744a7b05aa4f5428a6c53",
    "vizprops": {
        "hidewidgethierarchy": false
    },
    "wType": "UserWidgetInstance",
    "zindex": 1100
}