{
    "@class": "com.kony.gen.viz.model.component.KVizUserWidget",
    "DNDConfig": null,
    "__parentReadjusting__": false,
    "_children_": [],
    "_height_": {
        "type": "string",
        "value": "200dp"
    },
    "_left_": {
        "type": "string",
        "value": "0dp"
    },
    "_margin_": [
        0,
        0,
        0,
        0
    ],
    "_orientation_": 1,
    "_padding_": [
        0,
        0,
        0,
        0
    ],
    "_percent_": true,
    "_skin_": "s24c92fc23b14f5484b693ee9b8a9b35",
    "_top_": {
        "type": "string",
        "value": "0dp"
    },
    "_width_": {
        "type": "string",
        "value": "100%"
    },
    "areflexpropsreferenced": false,
    "canUpdateUI": true,
    "clipbounds": true,
    "containerweight": 0,
    "dataDiffs": {
        "CVVInfo": {
            "__events__": {},
            "__info__": {
                "isRoot": true,
                "kuid": "b59ee76ef64747c6ac0081ec0d25a978",
                "srcKUID": "de5bbfc0088449f2adf578916bcfe8a8",
                "wType": "FlexContainer"
            },
            "autogrowMode": {
                "Default": 0
            },
            "height": {
                "Default": {
                    "type": "string",
                    "value": "200dp"
                }
            },
            "left": {
                "Default": {
                    "type": "string",
                    "value": "0dp"
                }
            },
            "responsiveData": {
                "b1": {
                    "height": {
                        "type": "string",
                        "value": "230dp"
                    },
                    "left": {
                        "type": "string",
                        "value": "6%"
                    }
                },
                "b2": {
                    "height": {
                        "type": "string",
                        "value": "225dp"
                    }
                },
                "b3": {
                    "height": {
                        "type": "string",
                        "value": "230dp"
                    }
                },
                "b4": {
                    "height": {
                        "type": "string",
                        "value": "230dp"
                    },
                    "left": {
                        "type": "string",
                        "value": "6.20%"
                    }
                }
            }
        },
        "RichTextInfo": {
            "__events__": {},
            "__info__": {
                "kuid": "gaa7acb098f34fdfbed15a90f09656c2",
                "srcKUID": "b672acccab0e4402a9642b21f9642a6e",
                "wType": "RichText"
            },
            "height": {
                "Default": {
                    "type": "ref",
                    "value": "preferred"
                }
            },
            "responsiveData": {
                "b1": {
                    "width": {
                        "type": "string",
                        "value": "100%"
                    }
                },
                "b2": {
                    "width": {
                        "type": "string",
                        "value": "100%"
                    }
                },
                "b3": {
                    "width": {
                        "type": "string",
                        "value": "100%"
                    }
                },
                "b4": {
                    "height": {
                        "type": "ref",
                        "value": "preferred"
                    },
                    "top": {
                        "type": "string",
                        "value": "20dp"
                    },
                    "width": {
                        "type": "string",
                        "value": "100%"
                    }
                }
            },
            "top": {
                "Default": {
                    "type": "string",
                    "value": "0dp"
                }
            },
            "width": {
                "Default": {
                    "type": "string",
                    "value": "70%"
                }
            }
        },
        "flxAccountType": {
            "__events__": {},
            "__info__": {
                "kuid": "b540a79ca53a488f8d6a934ec101c8c5",
                "srcKUID": "c1e2579fca764e83b71f13035fbeb58c",
                "wType": "FlexContainer"
            },
            "autogrowMode": {
                "Default": 0
            },
            "centerX": {
                "Default": {
                    "type": "number",
                    "value": ""
                }
            },
            "height": {
                "Default": {
                    "type": "ref",
                    "value": "preferred"
                }
            },
            "responsiveData": {
                "b1": {
                    "centerX": {
                        "type": "string",
                        "value": "50%"
                    },
                    "height": {
                        "type": "string",
                        "value": "45dp"
                    },
                    "top": {
                        "type": "string",
                        "value": "134dp"
                    }
                },
                "b2": {
                    "centerX": {
                        "type": "string",
                        "value": "50%"
                    },
                    "height": {
                        "type": "string",
                        "value": "48dp"
                    },
                    "top": {
                        "type": "string",
                        "value": "120dp"
                    },
                    "width": {
                        "type": "string",
                        "value": "86%"
                    },
                    "zIndex": 5
                },
                "b3": {
                    "centerX": {
                        "type": "string",
                        "value": "50%"
                    },
                    "top": {
                        "type": "string",
                        "value": "140dp"
                    },
                    "width": {
                        "type": "string",
                        "value": "86%"
                    },
                    "zIndex": 5
                },
                "b4": {
                    "centerX": {
                        "type": "string",
                        "value": "50%"
                    }
                }
            },
            "top": {
                "Default": {
                    "type": "string",
                    "value": "115dp"
                }
            },
            "width": {
                "Default": {
                    "type": "string",
                    "value": "80%"
                }
            },
            "zIndex": {}
        },
        "flxCross": {
            "__events__": {},
            "__info__": {
                "kuid": "ffc36521d2164c71b373be33fbfb760f",
                "srcKUID": "f7e949d7603d4a85a5ac9165877ede90",
                "wType": "FlexContainer"
            },
            "isVisible": true,
            "responsiveData": {}
        },
        "flxInformation": {
            "__events__": {},
            "__info__": {
                "kuid": "gfe8b497491d46f18858ea692c949652",
                "srcKUID": "g549d439a46742f295da04c852cdf239",
                "wType": "FlexContainer"
            }
        },
        "flxInformationText": {
            "__events__": {},
            "__info__": {
                "kuid": "a1e5f71463dd47409f7816e7e9401e1e",
                "srcKUID": "ja065e9065cd47a0ae757b1e465e185e",
                "wType": "FlexContainer"
            },
            "autogrowMode": {
                "Default": 0
            },
            "centerX": {
                "Default": {
                    "type": "number",
                    "value": ""
                }
            },
            "clipBounds": true,
            "height": {
                "Default": {
                    "type": "string",
                    "value": "200dp"
                }
            },
            "left": {
                "Default": {
                    "type": "string",
                    "value": "0dp"
                }
            },
            "responsiveData": {
                "b1": {
                    "centerX": {
                        "type": "string",
                        "value": "30%"
                    },
                    "height": null,
                    "left": {
                        "type": "string",
                        "value": "0dp"
                    },
                    "top": {
                        "type": "string",
                        "value": "5dp"
                    },
                    "width": {
                        "type": "string",
                        "value": "25%"
                    }
                },
                "b2": {
                    "height": null,
                    "left": {
                        "type": "string",
                        "value": "2dp"
                    },
                    "right": {
                        "type": "string",
                        "value": "2dp"
                    },
                    "top": {
                        "type": "string",
                        "value": "2dp"
                    },
                    "width": {
                        "type": "string",
                        "value": ""
                    }
                },
                "b3": {
                    "height": null,
                    "left": {
                        "type": "string",
                        "value": "2dp"
                    },
                    "right": {
                        "type": "string",
                        "value": "2dp"
                    },
                    "top": {
                        "type": "string",
                        "value": "2dp"
                    },
                    "width": {
                        "type": "string",
                        "value": ""
                    }
                },
                "b4": {
                    "centerX": {
                        "type": "string",
                        "value": "30%"
                    },
                    "height": null,
                    "top": {
                        "type": "string",
                        "value": "5dp"
                    },
                    "width": {
                        "type": "string",
                        "value": "25%"
                    }
                }
            },
            "right": {
                "Default": {
                    "type": "number",
                    "value": ""
                }
            },
            "top": {
                "Default": {
                    "type": "string",
                    "value": "-2dp"
                }
            },
            "width": {
                "Default": {
                    "type": "string",
                    "value": "100%"
                }
            }
        },
        "imgCross": {
            "__events__": {},
            "__info__": {
                "kuid": "b625438a89f044c3bf087b889cc7225c",
                "srcKUID": "a8f893f1641e421687583ff5ef4815ba",
                "wType": "Image"
            },
            "src": "bbcloseicon.png"
        },
        "imgHighlightCVV": {
            "__events__": {},
            "__info__": {
                "kuid": "f1c5c0889a624ddca359f27678d856d1",
                "srcKUID": "c3129c1701954804adfc01f223280292",
                "wType": "Image"
            },
            "height": {
                "Default": {
                    "type": "string",
                    "value": "70dp"
                }
            },
            "responsiveData": {
                "b1": {
                    "height": {
                        "type": "string",
                        "value": "85dp"
                    },
                    "top": {
                        "type": "string",
                        "value": "40dp"
                    },
                    "width": {
                        "type": "string",
                        "value": "120dp"
                    }
                },
                "b2": {
                    "height": {
                        "type": "string",
                        "value": "80dp"
                    },
                    "width": {
                        "type": "string",
                        "value": "120dp"
                    }
                },
                "b3": {
                    "height": {
                        "type": "string",
                        "value": "80dp"
                    },
                    "top": {
                        "type": "string",
                        "value": "45dp"
                    },
                    "width": {
                        "type": "string",
                        "value": "130dp"
                    }
                },
                "b4": {
                    "height": {
                        "type": "string",
                        "value": "80dp"
                    },
                    "width": {
                        "type": "string",
                        "value": "120dp"
                    }
                }
            },
            "src": "cardcvv.png",
            "top": {
                "Default": {
                    "type": "string",
                    "value": "35dp"
                }
            },
            "width": {
                "Default": {
                    "type": "string",
                    "value": "100dp"
                }
            }
        },
        "imgToolTip": {
            "__events__": {},
            "__info__": {
                "kuid": "j474fda0834241ffa6a54d6d1b01f621",
                "srcKUID": "d6f8cf57a4934c8ca265c2b2d002bff2",
                "wType": "Image"
            },
            "centerX": {
                "Default": {
                    "type": "string",
                    "value": "50%"
                }
            },
            "height": {
                "Default": {
                    "type": "string",
                    "value": "50dp"
                }
            },
            "responsiveData": {
                "b1": {
                    "centerX": {
                        "type": "string",
                        "value": "30%"
                    },
                    "height": {
                        "type": "string",
                        "value": "50dp"
                    },
                    "top": {
                        "type": "string",
                        "value": "187dp"
                    }
                },
                "b2": {
                    "top": {
                        "type": "string",
                        "value": "182dp"
                    }
                },
                "b3": {
                    "height": {
                        "type": "string",
                        "value": "65dp"
                    },
                    "top": {
                        "type": "string",
                        "value": "175dp"
                    },
                    "width": {
                        "type": "string",
                        "value": "50dp"
                    },
                    "zIndex": 3
                },
                "b4": {
                    "centerX": {
                        "type": "string",
                        "value": "30%"
                    },
                    "height": {
                        "type": "string",
                        "value": "50dp"
                    },
                    "top": {
                        "type": "string",
                        "value": "188dp"
                    }
                }
            },
            "src": "callout.png",
            "top": {
                "Default": {
                    "type": "string",
                    "value": "140dp"
                }
            },
            "width": {
                "Default": {
                    "type": "string",
                    "value": "60dp"
                }
            },
            "zIndex": {
                "Default": 1
            }
        },
        "lblInfo": {
            "__events__": {},
            "__info__": {
                "kuid": "b6bcf058dd194d289a00d1476131a3b0",
                "srcKUID": "de76019707c34f3d84aded964526b1f8",
                "wType": "Label"
            }
        }
    },
    "enablescrolling": true,
    "id": "CVVInfo",
    "info": null,
    "iscustomlayout": false,
    "isdatareferenced": false,
    "issegmentchild": false,
    "isvisible": true,
    "kuid": "b59ee76ef64747c6ac0081ec0d25a978",
    "layouttype": 2,
    "masterType": 0,
    "name": "kony.ui.UserWidgetInstance",
    "parent": "flxCVVPopup",
    "pf": "frmCardManagement",
    "retaincontentalignment": false,
    "retainflexpositionproperties": false,
    "retainflowhorizontalalignment": false,
    "snapgridsize": 10,
    "snaptogrid": true,
    "sourceUserWidget": "de5bbfc0088449f2adf578916bcfe8a8",
    "wType": "UserWidgetInstance"
}