{
    "DNDConfig": null,
    "__parentReadjusting__": false,
    "_bottom_": {
        "type": "number",
        "value": ""
    },
    "_height_": {
        "type": "ref",
        "value": "preferred"
    },
    "_left_": {
        "type": "string",
        "value": "0dp"
    },
    "_margin_": [
        0,
        0,
        0,
        0
    ],
    "_orientation_": 6,
    "_padding_": [
        0,
        0,
        0,
        0
    ],
    "_percent_": true,
    "_skin_": "sdc143f0e5b64ae3a3f155f691c73fa7",
    "_top_": {
        "type": "string",
        "value": "70dp"
    },
    "_width_": {
        "type": "string",
        "value": "100%"
    },
    "allboxes": [],
    "autogrowmode": 1,
    "canUpdateUI": true,
    "centerx": {
        "type": "number",
        "value": ""
    },
    "children": [
        "lblWarningTravelPlan",
        "lblRequestID",
        "lblRequestNo",
        "lblDates",
        "flxDates",
        "lblDestination",
        "flxDestination",
        "flxOtherDestinations",
        "lblPhoneNumber",
        "txtPhoneNumber",
        "lblAdditionalInformation",
        "txtareaUserComments",
        "flxButtons"
    ],
    "clipbounds": false,
    "containerweight": 100,
    "enablescrolling": true,
    "id": "flxBody",
    "info": null,
    "iscustomlayout": false,
    "isvisible": true,
    "kuid": "edf4616a38484a5cbaad568c6a36e15a",
    "layouttype": 4,
    "name": "kony.ui.FlexContainer",
    "parent": "flxTravelPlan",
    "pf": "frmCardManagement",
    "responsiveData": {
        "b2": {
            "bottom": {
                "type": "string",
                "value": "2dp"
            },
            "centerX": {
                "type": "string",
                "value": "50%"
            },
            "left": {
                "type": "string",
                "value": ""
            },
            "width": {
                "type": "string",
                "value": "99.50%"
            }
        },
        "b3": {
            "bottom": {
                "type": "string",
                "value": "2dp"
            },
            "centerX": {
                "type": "string",
                "value": "50%"
            },
            "width": {
                "type": "string",
                "value": "99.50%"
            }
        },
        "b4": {
            "bottom": {
                "type": "string",
                "value": "2dp"
            },
            "centerX": {
                "type": "string",
                "value": "50%"
            },
            "left": {
                "type": "string",
                "value": ""
            },
            "width": {
                "type": "string",
                "value": "99.50%"
            }
        }
    },
    "retaincontentalignment": false,
    "retainflexpositionproperties": false,
    "snapgridsize": 10,
    "snaptogrid": true,
    "wType": "FlexContainer",
    "widgetalignment": 1,
    "zindex": 5
}