{
    "DNDConfig": null,
    "__parentReadjusting__": false,
    "_height_": {
        "type": "string",
        "value": "60px"
    },
    "_left_": {
        "type": "string",
        "value": "0dp"
    },
    "_margin_": [
        0,
        0,
        0,
        0
    ],
    "_orientation_": 6,
    "_padding_": [
        0,
        0,
        0,
        0
    ],
    "_percent_": true,
    "_skin_": "s24c92fc23b14f5484b693ee9b8a9b35",
    "_top_": {
        "type": "string",
        "value": "0dp"
    },
    "_width_": {
        "type": "string",
        "value": "100%"
    },
    "allboxes": [],
    "autogrowmode": 0,
    "canUpdateUI": true,
    "children": [
        "lblConfirmTravelPlan",
        "lblSeparator5"
    ],
    "clipbounds": true,
    "containerweight": 100,
    "enablescrolling": true,
    "id": "flxConfirmHeading",
    "info": null,
    "iscustomlayout": false,
    "isvisible": true,
    "kuid": "f67eb30c03a44b0782082ab8bc0adb5d",
    "layouttype": 2,
    "name": "kony.ui.FlexContainer",
    "parent": "flxConfirm",
    "pf": "frmCardManagement",
    "responsiveData": {
        "b2": {
            "left": {
                "type": "string",
                "value": "20dp"
            }
        },
        "b3": {
            "left": {
                "type": "string",
                "value": "2.50%"
            }
        }
    },
    "retaincontentalignment": false,
    "retainflexpositionproperties": false,
    "snapgridsize": 10,
    "snaptogrid": true,
    "wType": "FlexContainer",
    "widgetalignment": 1,
    "zindex": 1
}