{
    "DNDConfig": null,
    "__parentReadjusting__": false,
    "_height_": {
        "type": "ref",
        "value": "preferred"
    },
    "_left_": {
        "type": "string",
        "value": "30dp"
    },
    "_margin_": [
        0,
        0,
        0,
        0
    ],
    "_orientation_": 6,
    "_padding_": [
        0,
        0,
        0,
        0
    ],
    "_percent_": true,
    "_skin_": "s668e0bd55c844adb38ca48dfb363f93",
    "_top_": {
        "type": "string",
        "value": "245dp"
    },
    "_width_": {
        "type": "string",
        "value": "92%"
    },
    "allboxes": [],
    "autogrowmode": 1,
    "canUpdateUI": true,
    "children": [
        "segDestinationList"
    ],
    "clipbounds": true,
    "containerweight": 100,
    "enablescrolling": true,
    "id": "flxDestinationList",
    "info": null,
    "isvisible": false,
    "kuid": "ee83be40ee5a4a129e537c879d6f49bb",
    "layouttype": 2,
    "name": "kony.ui.FlexContainer",
    "parent": "flxTravelPlan",
    "pf": "frmCardManagement",
    "responsiveData": {
        "b4": {
            "isVisible": false
        }
    },
    "snapgridsize": 10,
    "snaptogrid": true,
    "wType": "FlexContainer",
    "widgetalignment": 1,
    "zindex": 100
}