{
    "DNDConfig": null,
    "_height_": {
        "type": "string",
        "value": "60dp"
    },
    "_left_": {
        "type": "number",
        "value": "0"
    },
    "_margin_": [
        0,
        0,
        0,
        0
    ],
    "_orientation_": 6,
    "_padding_": [
        0,
        0,
        0,
        0
    ],
    "_percent_": true,
    "_skin_": "s24c92fc23b14f5484b693ee9b8a9b35",
    "_top_": {
        "type": "number",
        "value": "0"
    },
    "_width_": {
        "type": "string",
        "value": "100%"
    },
    "allboxes": [],
    "canUpdateUI": true,
    "centerx": {
        "type": "string",
        "value": "50%"
    },
    "children": [
        "lblContactUsMsg",
        "lblContactUsLimits"
    ],
    "clipbounds": false,
    "containerweight": 100,
    "enablescrolling": true,
    "id": "flxIncreaseLimits",
    "info": null,
    "iscustomlayout": false,
    "isvisible": true,
    "kuid": "abdd3a07034d443396a5c0c00b6c27d8",
    "layouttype": 3,
    "name": "kony.ui.FlexContainer",
    "parent": "flxSetCardLimitsOverview",
    "pf": "frmCardManagement",
    "responsiveData": {
        "b1": {
            "height": {
                "type": "string",
                "value": "50dp"
            }
        },
        "b2": {
            "height": {
                "type": "string",
                "value": "50dp"
            }
        },
        "b3": {
            "height": {
                "type": "string",
                "value": "50dp"
            }
        },
        "b4": {
            "height": {
                "type": "string",
                "value": "50dp"
            }
        }
    },
    "retaincontentalignment": false,
    "retainflexpositionproperties": false,
    "retainflowhorizontalalignment": false,
    "snapgridsize": 10,
    "snaptogrid": true,
    "wType": "FlexContainer",
    "widgetalignment": 1,
    "zindex": 1
}