{
    "DNDConfig": null,
    "_height_": {
        "type": "string",
        "value": "100.54%"
    },
    "_left_": {
        "type": "string",
        "value": "272dp"
    },
    "_margin_": [
        0,
        0,
        0,
        0
    ],
    "_orientation_": 6,
    "_padding_": [
        0,
        0,
        0,
        0
    ],
    "_percent_": true,
    "_skin_": "s24c92fc23b14f5484b693ee9b8a9b35",
    "_top_": {
        "type": "string",
        "value": "16dp"
    },
    "_width_": {
        "type": "string",
        "value": "35.50%"
    },
    "allboxes": [],
    "autogrowmode": 0,
    "canUpdateUI": true,
    "children": [
        "limitPurchaseSlider"
    ],
    "clipbounds": true,
    "containerweight": 100,
    "enablescrolling": true,
    "id": "flxPrevPurchaseSlider",
    "info": null,
    "iscustomlayout": false,
    "isvisible": true,
    "kuid": "ef4105d0ac4c454691a8276794a2750a",
    "layouttype": 2,
    "name": "kony.ui.FlexContainer",
    "parent": "flxDailyPurchaseLimit",
    "pf": "frmCardManagement",
    "retaincontentalignment": false,
    "retainflexpositionproperties": false,
    "retainflowhorizontalalignment": false,
    "snapgridsize": 10,
    "snaptogrid": true,
    "wType": "FlexContainer",
    "widgetalignment": 1,
    "zindex": 2
}