{
    "DNDConfig": null,
    "_bottom_": {
        "type": "string",
        "value": "1dp"
    },
    "_height_": {
        "type": "string",
        "value": "1dp"
    },
    "_left_": {
        "type": "string",
        "value": "0dp"
    },
    "_margin_": [
        0,
        0,
        0,
        0
    ],
    "_orientation_": 6,
    "_padding_": [
        0,
        0,
        0,
        0
    ],
    "_percent_": true,
    "_skin_": "s8823f92dd17459d8dbd603fe9224e85",
    "_width_": {
        "type": "string",
        "value": "100%"
    },
    "allboxes": [],
    "autogrowmode": 0,
    "canUpdateUI": true,
    "children": [],
    "clipbounds": true,
    "containerweight": 100,
    "enablescrolling": true,
    "id": "flxSeparator",
    "ide_onClick": "AS_FlexContainer_g48ecaca2eb14c0a95ffaf490a1306ef",
    "info": null,
    "isvisible": true,
    "kuid": "ge97cb8cdd064bad9a8ba9bd068c740e",
    "layouttype": 2,
    "name": "kony.ui.FlexContainer",
    "parent": "flxCardsAccountsHeader",
    "pf": "frmCardManagement",
    "responsiveData": {
        "b3": {
            "left": {
                "type": "string",
                "value": "20dp"
            }
        }
    },
    "snapgridsize": 10,
    "snaptogrid": true,
    "wType": "FlexContainer",
    "widgetalignment": 1,
    "zindex": 5
}