{
    "@class": "com.kony.gen.viz.model.container.KVizScrollFlexForm",
    "DNDConfig": null,
    "_margin_": [
        0,
        0,
        0,
        0
    ],
    "_orientation_": 1,
    "_padding_": [
        0,
        0,
        0,
        0
    ],
    "_percent_": true,
    "_skin_": "s2f58a140c5647b8a643edf5a6309600",
    "_title_": null,
    "addWidgetsdone": false,
    "allboxes": [],
    "android": {
        "psp": {
            "windowSoftInputMode": 2
        }
    },
    "breakpointInfo": {
        "b1": {
            "width": 1366
        },
        "b2": {
            "width": 1024
        },
        "b3": {
            "width": 640
        },
        "b4": {
            "width": 1380
        }
    },
    "canUpdateUI": true,
    "canvasWidth": 1400,
    "children": [
        "flxHeader",
        "flxFormContent",
        "flxLogout",
        "flxAlert",
        "flxLoading",
        "flxTermsAndConditionsPopUp",
        "flxCVVPopup"
    ],
    "containerweight": 100,
    "controllerInfo": {
        "default": {
            "channel": "desktop",
            "name": "frmCardManagementController"
        }
    },
    "currentBreakpoint": {
        "kuid": "b3",
        "width": 640
    },
    "currentLocale": "default",
    "desktopweb": {
        "needAppMenu": false
    },
    "device": "desktopweb",
    "displayorientation": 1,
    "enabledforidletimeout": true,
    "friendlyName": "frmCardManagement",
    "id": "frmCardManagement",
    "ide_init": "AS_Form_jeea1b6f492642399617bfdf6d3fe509",
    "ide_onDeviceBack": "AS_Form_bd9d54643e8e4dbea529d79f89d9f901",
    "ide_onTouchEnd": "AS_Form_gd108bb6da8042b7b4ec54ad6ed88408",
    "ide_postShow": "AS_Form_cf48919e45714f268daa73ee7b928732",
    "ide_preShow": "AS_Form_e6c0940ed634451a841fe1815961cbfa",
    "info": null,
    "initdone": false,
    "inputaccessoryviewtype": 4,
    "ipad": {
        "psp": {
            "inputAccessoryViewType": 4
        }
    },
    "iphone": {
        "psp": {
            "inputAccessoryViewType": 4
        }
    },
    "isvisible": true,
    "kuid": "h4c9dbfa96c44e9c90ab6a89df234252",
    "layouttype": 2,
    "name": "kony.ui.Form2",
    "needappmenu": true,
    "paddinginpixel": false,
    "platform": "desktopweb",
    "prevDevice": "desktopweb",
    "prevPlatform": "desktopweb",
    "retainscrollposition": false,
    "shellCSS": "desktop",
    "snapgridsize": 10,
    "snaptogrid": true,
    "titleBarSkin": "s2e24ee0a8ca46b089d8a5bea8a1a32e",
    "titlebar": true,
    "type": 3,
    "vizProps": {
        "globalRespDesignEnabled": false
    },
    "wType": "Form"
}