{
    "@class": "com.kony.gen.viz.model.component.KVizLabel",
    "DNDConfig": null,
    "__parentReadjusting__": false,
    "_height_": {
        "type": "ref",
        "value": "preferred"
    },
    "_left_": {
        "type": "string",
        "value": "10dp"
    },
    "_margin_": [
        1,
        1,
        1,
        1
    ],
    "_padding_": [
        0,
        0,
        0,
        0
    ],
    "_skin_": "saba7a95163a455f8f2f131435e16122",
    "_text_": "Transfer From",
    "_width_": {
        "type": "ref",
        "value": "preferred"
    },
    "_wrapping_": 2,
    "accessibilityconfig": {
        "a11yLabel": "Transfer From"
    },
    "android": {
        "textStyle": {
            "letterSpacing": 0,
            "strikeThrough": false
        }
    },
    "canUpdateUI": true,
    "centery": {
        "type": "string",
        "value": "50%"
    },
    "containerweight": 100,
    "contentalignment": 4,
    "id": "lblAccountvalue",
    "info": null,
    "ipad": {
        "psp": {
            "wrapping": 2
        }
    },
    "iphone": {
        "psp": {
            "wrapping": 2
        }
    },
    "isvisible": true,
    "kuid": "deb90be1a8cf474da94c10ce627a0ff2",
    "name": "kony.ui.Label",
    "parent": "flxAccountValue",
    "pf": "frmCardManagement",
    "responsiveData": {
        "b1": {
            "text": "Checking Account Nickname….2365"
        },
        "b2": {
            "text": "Checking Account Nickname….2365"
        },
        "b3": {
            "text": "Checking Account Nickname….2365"
        },
        "b4": {
            "text": "Checking Account Nickname….2365"
        }
    },
    "tooltip": "",
    "wType": "Label",
    "zindex": 1
}