{
    "@class": "com.kony.gen.viz.model.component.KVizLabel",
    "DNDConfig": null,
    "__parentReadjusting__": false,
    "_height_": {
        "type": "ref",
        "value": "preferred"
    },
    "_margin_": [
        1,
        1,
        1,
        1
    ],
    "_padding_": [
        0,
        0,
        0,
        0
    ],
    "_skin_": "s9afc629656e4e22895081bb8d498c93",
    "_text_": "Need to increase your limit for a single large purchase?",
    "_width_": {
        "type": "ref",
        "value": "preferred"
    },
    "_wrapping_": 2,
    "accessibilityconfig": {
        "a11yLabel": "Need to increase your limit for a single large purch"
    },
    "android": {
        "textStyle": {
            "letterSpacing": 0,
            "strikeThrough": false
        }
    },
    "canUpdateUI": true,
    "centerx": {
        "type": "string",
        "value": "45%"
    },
    "centery": {
        "type": "string",
        "value": "50%"
    },
    "containerweight": 100,
    "contentalignment": 5,
    "id": "lblIncreaseLimit",
    "info": null,
    "ipad": {
        "psp": {
            "wrapping": 2
        }
    },
    "iphone": {
        "psp": {
            "wrapping": 2
        }
    },
    "iscustomlayout": false,
    "isvisible": true,
    "kuid": "cc622f7574254832a4ee2e42e8ffeabc",
    "name": "kony.ui.Label",
    "parent": "flxIncreaseLimit",
    "pf": "frmCardManagement",
    "retaincontentalignment": false,
    "retainflexpositionproperties": false,
    "texti18n": "i18n.CardManagement.IncreaseLimit",
    "tooltip": "",
    "wType": "Label",
    "zindex": 1
}