{
	 "@class": "com.kony.gen.viz.model.component.KVizImage2",
	 "DNDConfig": null,
	 "__parentReadjusting__": false,
	 "_base64_": null,
	 "_height_": {
		 "type": "string",
		 "value": "80dp"
	},
	 "_margin_": [
		 0,
		 0,
		 0,
		 0
	],
	 "_padding_": [
		 0,
		 0,
		 0,
		 0
	],
	 "_skin_": "s78a5f26c9f14cec9ebed1bb46098f80",
	 "_src_": "success_green.png",
	 "_top_": {
		 "type": "string",
		 "value": "30dp"
	},
	 "_width_": {
		 "type": "string",
		 "value": "80dp"
	},
	 "accessibilityconfig": {
		 "a11yHidden": true,
		 "a11yARIA": {
			 "tabindex": -1
		},
		 "a11yValue": ""
	},
	 "canUpdateUI": true,
	 "centerx": {
		 "type": "string",
		 "value": "50%"
	},
	 "containerweight": 100,
	 "context": {
		 "channel": "desktop",
		 "formID": "uwu56dd779533f49b086ebafeb45001d73",
		 "platform": "desktopweb",
		 "templateType": "userwidgets",
		 "topLevelBox": null
	},
	 "id": "imgSuccess",
	 "imagescalemode": 1,
	 "info": null,
	 "iscustomlayout": false,
	 "isvisible": true,
	 "kuid": "ie9ce6cda71a4f12b1ada62991d02b2d",
	 "name": "kony.ui.Image2",
	 "parent": "flxAcknowledgementMain",
	 "pf": "userwidgetmodel",
	 "retaincontentalignment": false,
	 "retainflexpositionproperties": false,
	 "srcType": 1,
	 "wType": "Image",
	 "widgetalignment": 5,
	 "zindex": 1
}