{
    "@class": "com.kony.gen.viz.model.component.KVizButton",
    "DNDConfig": null,
    "__parentReadjusting__": false,
    "_height_": {
        "type": "string",
        "value": "20dp"
    },
    "_margin_": [
        6,
        6,
        6,
        6
    ],
    "_padding_": [
        0,
        0,
        0,
        0
    ],
    "_right_": {
        "type": "string",
        "value": "10dp"
    },
    "_skin_": "s8629dca0a2e40e582d8268f1e70d64f",
    "_text_": "Reset to Default",
    "_top_": {
        "type": "number",
        "value": "0"
    },
    "_width_": {
        "type": "string",
        "value": "10%"
    },
    "canUpdateUI": true,
    "centery": {
        "type": "string",
        "value": "50%"
    },
    "containerId": true,
    "containerweight": 100,
    "contentalignment": 5,
    "displaytext": true,
    "focusskin": "sf44d06ca8224832827ea7fdff757013",
    "id": "btnReset",
    "info": null,
    "iscustomlayout": false,
    "isvisible": true,
    "kuid": "f9199b5d59fa48c1a94e7992530a414b",
    "name": "kony.ui.Button",
    "parent": "flxAccountSelection",
    "pf": "segAccountCollapsible",
    "retaincontentalignment": false,
    "retainflexpositionproperties": false,
    "wType": "Button"
}