{
    "@class": "com.kony.gen.viz.model.component.KVizLabel",
    "DNDConfig": null,
    "_height_": {
        "type": "ref",
        "value": "preferred"
    },
    "_left_": {
        "type": "string",
        "value": "2.51%"
    },
    "_margin_": [
        1,
        1,
        1,
        1
    ],
    "_padding_": [
        0,
        0,
        0,
        0
    ],
    "_skin_": "s63e81af6a184e7e8e891b0dbbe7895c",
    "_text_": "Create User",
    "_top_": {
        "type": "string",
        "value": "24dp"
    },
    "_width_": {
        "type": "ref",
        "value": "preferred"
    },
    "_wrapping_": 2,
    "android": {
        "textStyle": {
            "letterSpacing": 0,
            "strikeThrough": false
        }
    },
    "canUpdateUI": true,
    "containerweight": 100,
    "contentalignment": 4,
    "id": "lblTitleText",
    "info": null,
    "ipad": {
        "psp": {
            "wrapping": 2
        }
    },
    "iphone": {
        "psp": {
            "wrapping": 2
        }
    },
    "iscustomlayout": false,
    "isvisible": true,
    "kuid": "iee59d9038be4a38a8fe80fd430c6d25",
    "name": "kony.ui.Label",
    "parent": "flxUserDetails",
    "pf": "frmCreateUserManually",
    "responsiveData": {
        "b1": {
            "skin": "s6d17f23daea475aaebe9ec69aaf4f05",
            "top": {
                "type": "string",
                "value": "20dp"
            }
        },
        "b2": {
            "left": {
                "type": "string",
                "value": "20dp"
            },
            "skin": "sdfd15d3ea794a0d9f7af92d2e46715c",
            "top": {
                "type": "string",
                "value": "20dp"
            }
        },
        "b4": {
            "left": {
                "type": "string",
                "value": "30px"
            },
            "skin": "s6d17f23daea475aaebe9ec69aaf4f05",
            "top": {
                "type": "string",
                "value": "20dp"
            }
        }
    },
    "retaincontentalignment": false,
    "retainflexpositionproperties": false,
    "texti18n": "konybb.i18n.userMgmt.ViewExistingCustomers",
    "tooltip": "",
    "wType": "Label",
    "zindex": 1
}