{
    "DNDConfig": null,
    "__parentReadjusting__": false,
    "_height_": {
        "type": "string",
        "value": "100%"
    },
    "_left_": {
        "type": "string",
        "value": "0dp"
    },
    "_margin_": [
        0,
        0,
        0,
        0
    ],
    "_orientation_": 6,
    "_padding_": [
        0,
        0,
        0,
        0
    ],
    "_percent_": true,
    "_skin_": "s24c92fc23b14f5484b693ee9b8a9b35",
    "_top_": {
        "type": "string",
        "value": "0dp"
    },
    "_width_": {
        "type": "string",
        "value": "55%"
    },
    "allboxes": [],
    "autogrowmode": 0,
    "canUpdateUI": true,
    "children": [
        "lblBranchName3",
        "flxHeaderBackgroundTimings",
        "flxTimingsMonday",
        "flxTimingsTuesday",
        "flxTimingsWednesday",
        "flxTimingsThursday",
        "flxTimingsFriday",
        "flxTimingsSaturday",
        "segDayAndTime"
    ],
    "clipbounds": true,
    "containerweight": 100,
    "enablescrolling": true,
    "id": "flxBranchTimings",
    "info": null,
    "isvisible": true,
    "kuid": "icb4750fe4ad4698913b14e3a489303d",
    "layouttype": 4,
    "name": "kony.ui.FlexContainer",
    "parent": "flxBranchTimingsAndServices",
    "pf": "userwidgetmodel",
    "snapgridsize": 10,
    "snaptogrid": true,
    "wType": "FlexContainer",
    "widgetalignment": 1,
    "zindex": 1
}