{
	 "@class": "com.kony.gen.viz.model.component.KVizImage2",
	 "DNDConfig": null,
	 "__parentReadjusting__": false,
	 "_base64_": null,
	 "_height_": {
		 "type": "string",
		 "value": "16dp"
	},
	 "_margin_": [
		 0,
		 0,
		 0,
		 0
	],
	 "_padding_": [
		 0,
		 0,
		 0,
		 0
	],
	 "_skin_": "s78a5f26c9f14cec9ebed1bb46098f80",
	 "_src_": "search_close.png",
	 "_width_": {
		 "type": "string",
		 "value": "16dp"
	},
	 "accessibilityconfig": {
		 "a11yLabel": "Close",
		 "a11yValue": ""
	},
	 "canUpdateUI": true,
	 "centerx": {
		 "type": "string",
		 "value": "50%"
	},
	 "centery": {
		 "type": "string",
		 "value": "50%"
	},
	 "containerweight": 100,
	 "context": {
		 "channel": "desktop",
		 "formID": "uwu38e8dcc86d64d6b8b79d9cb09b91c35",
		 "platform": "desktopweb",
		 "templateType": "userwidgets",
		 "topLevelBox": null
	},
	 "id": "imgCancelFilter1",
	 "imagescalemode": 1,
	 "imagewhiledownloading": "img_transparent.png",
	 "info": null,
	 "invokedProperty": "src",
	 "isvisible": true,
	 "kuid": "d37e386fd1e2444195a7bd148d6cdec8",
	 "name": "kony.ui.Image2",
	 "parent": "flxCancelFilter1",
	 "pf": "userwidgetmodel",
	 "srcType": 1,
	 "tooltip": "Remove",
	 "wType": "Image",
	 "widgetalignment": 5,
	 "zindex": 1
}