{
	 "@class": "com.kony.gen.viz.model.component.KVizImage2",
	 "DNDConfig": null,
	 "__parentReadjusting__": false,
	 "_base64_": null,
	 "_bottom_": {
		 "type": "number",
		 "value": "20"
	},
	 "_height_": {
		 "type": "string",
		 "value": "40dp"
	},
	 "_margin_": [
		 0,
		 0,
		 0,
		 0
	],
	 "_padding_": [
		 0,
		 0,
		 0,
		 0
	],
	 "_right_": {
		 "type": "string",
		 "value": "2.88%"
	},
	 "_skin_": "s78a5f26c9f14cec9ebed1bb46098f80",
	 "_src_": "centralize_location_blue.png",
	 "_width_": {
		 "type": "string",
		 "value": "40dp"
	},
	 "canUpdateUI": true,
	 "containerweight": 100,
	 "context": {
		 "channel": "desktop",
		 "formID": "uwu38e8dcc86d64d6b8b79d9cb09b91c35",
		 "platform": "desktopweb",
		 "templateType": "userwidgets",
		 "topLevelBox": null
	},
	 "id": "imgMyLocation",
	 "imagescalemode": 1,
	 "info": null,
	 "invokedProperty": "src",
	 "isvisible": true,
	 "kuid": "i5fc51a83b0c42e581389a19b4ebdcb6",
	 "name": "kony.ui.Image2",
	 "parent": "flxMap",
	 "pf": "userwidgetmodel",
	 "srcType": 1,
	 "wType": "Image",
	 "widgetalignment": 5,
	 "zindex": 2,
	 "accessibilityconfig": {
		 "a11yLabel": "Locate us",
		 "a11yValue": ""
	}
}