{
	 "@class": "com.kony.gen.viz.model.component.KVizImage2",
	 "DNDConfig": null,
	 "__parentReadjusting__": false,
	 "_base64_": null,
	 "_height_": {
		 "type": "string",
		 "value": "20dp"
	},
	 "_left_": {
		 "type": "string",
		 "value": "123dp"
	},
	 "_margin_": [
		 0,
		 0,
		 0,
		 0
	],
	 "_padding_": [
		 0,
		 0,
		 0,
		 0
	],
	 "_skin_": "s78a5f26c9f14cec9ebed1bb46098f80",
	 "_src_": "tooltip_arrow_blue.png",
	 "_top_": {
		 "type": "string",
		 "value": "74.3%"
	},
	 "_width_": {
		 "type": "string",
		 "value": "30dp"
	},
	 "canUpdateUI": true,
	 "centerx": {
		 "type": "string",
		 "value": "50%"
	},
	 "containerweight": 100,
	 "context": {
		 "channel": "desktop",
		 "formID": "uwu38e8dcc86d64d6b8b79d9cb09b91c35",
		 "platform": "desktopweb",
		 "templateType": "userwidgets",
		 "topLevelBox": null
	},
	 "id": "imgToolTip",
	 "imagescalemode": 1,
	 "info": null,
	 "invokedProperty": "src",
	 "isvisible": true,
	 "kuid": "hd72f6826ea54a148102fdcc930c5414",
	 "name": "kony.ui.Image2",
	 "parent": "flxDistanceDetails",
	 "pf": "userwidgetmodel",
	 "srcType": 1,
	 "wType": "Image",
	 "widgetalignment": 5,
	 "zindex": 2,
	 "accessibilityconfig": {
		 "a11yHidden": true,
		 "a11yARIA": {
			 "tabindex": -1
		},
		 "a11yValue": ""
	}
}