{
    "@class": "com.kony.gen.viz.model.component.KVizRichText",
    "DNDConfig": null,
    "__parentReadjusting__": false,
    "_height_": {
        "type": "ref",
        "value": "preferred"
    },
    "_left_": {
        "type": "string",
        "value": "2.50%"
    },
    "_margin_": [
        0,
        0,
        0,
        0
    ],
    "_padding_": [
        0,
        0,
        0,
        0
    ],
    "_skin_": "s4b3cb6cb5a74a92b0d1f5ad087753f7",
    "_text_": "<b>No search result found.</b><br>\nPlease change the search criteria",
    "_top_": {
        "type": "string",
        "value": "31dp"
    },
    "_width_": {
        "type": "string",
        "value": "80%"
    },
    "_wrapping_": 2,
    "accessibilityconfig": {
        "a11yLabel": "<b>No search result found.</b><br>\nPlease change the search criteria"
    },
    "canUpdateUI": true,
    "containerweight": 100,
    "contentalignment": 4,
    "id": "rtxNoSearchResults",
    "info": null,
    "isvisible": false,
    "kuid": "i5851ced51614c4a9473f107ce3321d8",
    "name": "kony.ui.RichText",
    "parent": "flxNoSearchResult",
    "pf": "userwidgetmodel",
    "wType": "RichText",
    "widgetalignment": 5,
    "zindex": 1
}