{
    "@class": "com.kony.gen.viz.model.component.KVizTextBox2",
    "DNDConfig": null,
    "__parentReadjusting__": false,
    "_height_": {
        "type": "string",
        "value": "40dp"
    },
    "_left_": {
        "type": "string",
        "value": "35px"
    },
    "_margin_": [
        0,
        0,
        0,
        0
    ],
    "_padding_": [
        0,
        0,
        0,
        0
    ],
    "_placeholder_": "Search for address, pincode etc",
    "_right_": {
        "type": "string",
        "value": "30px"
    },
    "_skin_": "sacfff5a28f04bb7858b94da6a04ddbc",
    "_text_": "",
    "_top_": {
        "type": "string",
        "value": "0px"
    },
    "accessibilityconfig": {
        "a11yLabel": "Search for address, pincode etc"
    },
    "autocapitalize": "none",
    "autocomplete": false,
    "autocorrect": false,
    "autofilter": false,
    "canUpdateUI": true,
    "containerheight": "",
    "containerheightmode": 1,
    "containerweight": 100,
    "contentalignment": 4,
    "id": "tbxSearchBox",
    "info": null,
    "isvisible": true,
    "keyboardtype": "A",
    "kiosk": {
        "psp": {
            "toolTip": "Search Keywords such as Name, Bank, Account Type etc..."
        }
    },
    "kuid": "ef9dfdced2994b4380b878d195aafaf7",
    "mode": "A",
    "name": "kony.ui.TextBox2",
    "parent": "flxSearchBar",
    "pf": "userwidgetmodel",
    "securetextentry": false,
    "textinputmode": "A",
    "viewtype": "default",
    "wType": "TextField",
    "zindex": 1
}