{
    "@class": "com.kony.gen.viz.model.component.KVizUserWidget",
    "DNDConfig": null,
    "_bottom_": {
        "type": "string",
        "value": "20dp"
    },
    "_children_": [],
    "_height_": {
        "type": "ref",
        "value": "preferred"
    },
    "_left_": {
        "type": "string",
        "value": "2.50%"
    },
    "_margin_": [
        0,
        0,
        0,
        0
    ],
    "_orientation_": 1,
    "_padding_": [
        0,
        0,
        0,
        0
    ],
    "_percent_": true,
    "_skin_": "sdc143f0e5b64ae3a3f155f691c73fa7",
    "_top_": {
        "type": "string",
        "value": "20dp"
    },
    "_width_": {
        "type": "string",
        "value": "95%"
    },
    "areflexpropsreferenced": false,
    "autogrowmode": 1,
    "canUpdateUI": true,
    "centerx": {
        "type": "number",
        "value": ""
    },
    "clipbounds": false,
    "containerweight": 0,
    "dataDiffs": {
        "btnCancel": {
            "__events__": {},
            "__info__": {
                "kuid": "hbd968fd0b354b3e93d5ebccfcf09f28",
                "srcKUID": "j2dcdf72e3cc4fce86251015822e27cd",
                "wType": "Button"
            },
            "bottom": {
                "Default": {
                    "type": "number",
                    "value": ""
                }
            },
            "left": {
                "Default": {
                    "type": "number",
                    "value": ""
                }
            },
            "responsiveData": {
                "b1": {},
                "b2": {},
                "b3": {
                    "bottom": {
                        "type": "string",
                        "value": "20dp"
                    },
                    "left": {
                        "type": "string",
                        "value": "2.50%"
                    },
                    "width": {
                        "type": "string",
                        "value": "95%"
                    }
                },
                "b4": {}
            },
            "width": {
                "Default": {
                    "type": "string",
                    "value": "150dp"
                }
            }
        },
        "btnContinue": {
            "__events__": {},
            "__info__": {
                "kuid": "fd901c419d4c4fe4a456b626d5d446f0",
                "srcKUID": "b9b8e62f2f4549d38e4142209e4ce39c",
                "wType": "Button"
            },
            "bottom": {
                "Default": {
                    "type": "number",
                    "value": ""
                }
            },
            "left": {
                "Default": {
                    "type": "number",
                    "value": ""
                }
            },
            "responsiveData": {
                "b1": {},
                "b2": {},
                "b3": {
                    "bottom": {
                        "type": "string",
                        "value": "20dp"
                    },
                    "left": {
                        "type": "string",
                        "value": "2.50%"
                    },
                    "width": {
                        "type": "string",
                        "value": "95%"
                    }
                },
                "b4": {}
            },
            "width": {
                "Default": {
                    "type": "string",
                    "value": "150dp"
                }
            }
        },
        "flxAmountDetails": {
            "__events__": {},
            "__info__": {
                "kuid": "jde450e8c0964dfeb0cbc8fc4064600d",
                "srcKUID": "dd5d8a2638f94faca900150440a1f329",
                "wType": "FlexContainer"
            }
        },
        "flxAmountKey": {
            "__events__": {},
            "__info__": {
                "kuid": "a1dc29989f3f4bafb0157b4864e8954d",
                "srcKUID": "gde1d17b005c402598091cf5fe7f0fa2",
                "wType": "FlexContainer"
            }
        },
        "flxAmountValue": {
            "__events__": {},
            "__info__": {
                "kuid": "j0d5039e604c43d8927f015705b9db45",
                "srcKUID": "d2e206a3203340199cf366620b4deafa",
                "wType": "FlexContainer"
            }
        },
        "flxButtons": {
            "__events__": {},
            "__info__": {
                "kuid": "c8fab180527e443ea096d948ec7fc556",
                "srcKUID": "ec0410e391a64d428e55e3f7282ac274",
                "wType": "FlexContainer"
            },
            "autogrowMode": {
                "Default": 0
            },
            "height": {
                "Default": {
                    "type": "ref",
                    "value": "preferred"
                }
            },
            "layoutType": 3,
            "responsiveData": {
                "b1": {
                    "height": {
                        "type": "string",
                        "value": "80dp"
                    }
                },
                "b2": {
                    "height": {
                        "type": "string",
                        "value": "80dp"
                    }
                },
                "b3": {
                    "height": {
                        "type": "string",
                        "value": "140dp"
                    },
                    "layoutType": 4
                },
                "b4": {
                    "height": {
                        "type": "string",
                        "value": "80dp"
                    }
                }
            },
            "reverseLayoutDirection": true
        },
        "flxError": {
            "__events__": {},
            "__info__": {
                "kuid": "ccf2a8b378164a1bba46b983f069bcb4",
                "srcKUID": "d553b62e8b284823b229b60af0bfab53",
                "wType": "FlexContainer"
            }
        },
        "flxHorzDetail1": {
            "__events__": {},
            "__info__": {
                "kuid": "j6355e584e1a4cc19c504af06d5a3055",
                "srcKUID": "a3798f2107174151ac137d4a1a0a61bb",
                "wType": "FlexContainer"
            }
        },
        "flxHorzDetail2": {
            "__events__": {},
            "__info__": {
                "kuid": "bd5f5f6cfc7d4fdfa87a9e02d3875be7",
                "srcKUID": "ea58ab21b7e349fd97600ee4145e795e",
                "wType": "FlexContainer"
            }
        },
        "flxHorzDetail3": {
            "__events__": {},
            "__info__": {
                "kuid": "d716ba28fcb44b8c938f84985339c887",
                "srcKUID": "f5aa36b5c6c04130a2362aed4ab0f5b8",
                "wType": "FlexContainer"
            }
        },
        "flxHorzDetail4": {
            "__events__": {},
            "__info__": {
                "kuid": "cc2e621a06164185b5f87fc4bfa8ff1b",
                "srcKUID": "ced2e48fc5fd4030b3201a30e08274c2",
                "wType": "FlexContainer"
            }
        },
        "flxKey1": {
            "__events__": {},
            "__info__": {
                "kuid": "d39883497cf24d7da1021fc6a8d4d119",
                "srcKUID": "f2bd3375a44a4c6384b713f60d0fd729",
                "wType": "FlexContainer"
            }
        },
        "flxKey2": {
            "__events__": {},
            "__info__": {
                "kuid": "d57470b98100419f8dbc26b13c70904a",
                "srcKUID": "d0bd62eb7054428e81d0e96536f43878",
                "wType": "FlexContainer"
            }
        },
        "flxKey3": {
            "__events__": {},
            "__info__": {
                "kuid": "e94bf7d188d14f83b949541a9ba8b6a4",
                "srcKUID": "e5b01b19f6d247499581d7a58a977ced",
                "wType": "FlexContainer"
            }
        },
        "flxKey4": {
            "__events__": {},
            "__info__": {
                "kuid": "da4bee877c2540c09842abc8fcb3a24e",
                "srcKUID": "ebf8a2c8903e43499dbd81578333bb70",
                "wType": "FlexContainer"
            }
        },
        "flxSeparator": {
            "__events__": {},
            "__info__": {
                "kuid": "c3221ace4224469dab921ecbc7ac9a82",
                "srcKUID": "geb52475c642448ba7ff6b9e5c55c409",
                "wType": "FlexContainer"
            }
        },
        "flxSeparator1": {
            "__events__": {},
            "__info__": {
                "kuid": "ic6ca73fc3be438dbe4fc6f45fbc2a15",
                "srcKUID": "faedb8ee9f3e47058108d1eb2b4c9a53",
                "wType": "FlexContainer"
            }
        },
        "flxValue1": {
            "__events__": {},
            "__info__": {
                "kuid": "g5570d0809ce4d99a3ea7c9e3123ab3a",
                "srcKUID": "i03f1fd420b4494aa3f0274abd22df75",
                "wType": "FlexContainer"
            }
        },
        "flxValue2": {
            "__events__": {},
            "__info__": {
                "kuid": "cf7e607d233a4611999b5046642e6279",
                "srcKUID": "ga0d9145454a42c2893756729122e37b",
                "wType": "FlexContainer"
            }
        },
        "flxValue3": {
            "__events__": {},
            "__info__": {
                "kuid": "d47c82469c774c1a85bebea185826842",
                "srcKUID": "d6430f9362f241a8b8ddb5ae05965ae3",
                "wType": "FlexContainer"
            }
        },
        "flxValue4": {
            "__events__": {},
            "__info__": {
                "kuid": "h96ade341cf248f8b3e258053c98dd74",
                "srcKUID": "b08aed121f76460ca6022a897d04f1de",
                "wType": "FlexContainer"
            }
        },
        "fundGoal": {
            "__events__": {},
            "__info__": {
                "isRoot": true,
                "kuid": "a81939fb1b79420c967472f91e76394f",
                "srcKUID": "ffcbf19a8e5c4a42bc2c4f9e6abe3679",
                "wType": "FlexContainer"
            }
        },
        "lblAmount": {
            "__events__": {},
            "__info__": {
                "kuid": "db7dedd5fb664ff5847ef977faacbd3d",
                "srcKUID": "d9ecf1073710491b81031dacd909642c",
                "wType": "Label"
            }
        },
        "lblCurrency": {
            "__events__": {},
            "__info__": {
                "kuid": "e42a40ab06fc488b88ce3b4be9270b81",
                "srcKUID": "faaafb86f2cb4448b5646374c0c8c440",
                "wType": "Label"
            }
        },
        "lblError": {
            "__events__": {},
            "__info__": {
                "kuid": "de726a35a0c74bb29b65f7542eff5178",
                "srcKUID": "ba375e0121724e48af97888f7e106afa",
                "wType": "Label"
            }
        },
        "lblKey1": {
            "__events__": {},
            "__info__": {
                "kuid": "i0f10267b92643b09e432719460958d8",
                "srcKUID": "g6bb682bcad542509efb22d8e41c375d",
                "wType": "Label"
            }
        },
        "lblKey2": {
            "__events__": {},
            "__info__": {
                "kuid": "fcfd38509ef34bd38ad1d2773272136b",
                "srcKUID": "e46d24300b7c4816a087ad419e77d3ad",
                "wType": "Label"
            }
        },
        "lblKey3": {
            "__events__": {},
            "__info__": {
                "kuid": "b0e893b41e6347dea0dedbf7d1903b12",
                "srcKUID": "a93aa76f72e940b18cd934c85a98f597",
                "wType": "Label"
            }
        },
        "lblKey4": {
            "__events__": {},
            "__info__": {
                "kuid": "fac32bc6413a4c5cac9918d1e5c5a293",
                "srcKUID": "d7f80fe93042478ca5b41a15174283b5",
                "wType": "Label"
            }
        },
        "lblValue1": {
            "__events__": {},
            "__info__": {
                "kuid": "ee99bc2135f0430ab20a6defba02fc2b",
                "srcKUID": "b4748ca895f74742845aa7c58484779a",
                "wType": "Label"
            }
        },
        "lblValue2": {
            "__events__": {},
            "__info__": {
                "kuid": "afea85bc2a9f4930b109ef9cedc97207",
                "srcKUID": "fa292066204a446bbf64039c81c9d083",
                "wType": "Label"
            }
        },
        "lblValue3": {
            "__events__": {},
            "__info__": {
                "kuid": "g97c0a2467df4305be13432ed5ff318e",
                "srcKUID": "f9719cf454154e43a6f829432147ef9f",
                "wType": "Label"
            }
        },
        "lblValue4": {
            "__events__": {},
            "__info__": {
                "kuid": "ad1ff2d22afc4c8888be2b75d758118a",
                "srcKUID": "f348bbc440e641f79068024fd9bb38d9",
                "wType": "Label"
            }
        },
        "tbxAmount": {
            "__events__": {},
            "__info__": {
                "kuid": "c2519bbb0ff5437b931797b34e5d8c18",
                "srcKUID": "cc6c12fe7da9477a82dcd83759b66666",
                "wType": "TextField"
            }
        }
    },
    "enablescrolling": true,
    "id": "fundGoal",
    "info": null,
    "iscustomlayout": false,
    "isdatareferenced": false,
    "isvisible": true,
    "kuid": "a81939fb1b79420c967472f91e76394f",
    "layouttype": 4,
    "masterType": 0,
    "minheight": {
        "type": "string",
        "value": "440dp"
    },
    "name": "kony.ui.UserWidgetInstance",
    "parent": "flxMain",
    "pf": "frmWithdrawGoal",
    "retaincontentalignment": false,
    "retainflexpositionproperties": false,
    "retainflowhorizontalalignment": false,
    "snapgridsize": 10,
    "snaptogrid": true,
    "sourceUserWidget": "ffcbf19a8e5c4a42bc2c4f9e6abe3679",
    "wType": "UserWidgetInstance"
}