{
	 "@class": "com.kony.gen.viz.model.component.KVizImage2",
	 "DNDConfig": null,
	 "__parentReadjusting__": false,
	 "_base64_": null,
	 "_height_": {
		 "type": "string",
		 "value": "51dp"
	},
	 "_left_": {
		 "type": "string",
		 "value": "0dp"
	},
	 "_margin_": [
		 0,
		 0,
		 0,
		 0
	],
	 "_padding_": [
		 0,
		 0,
		 0,
		 0
	],
	 "_skin_": "s78a5f26c9f14cec9ebed1bb46098f80",
	 "_src_": "chrome_256x256_2.png",
	 "_top_": {
		 "type": "string",
		 "value": "0dp"
	},
	 "_width_": {
		 "type": "string",
		 "value": "51dp"
	},
	 "canUpdateUI": true,
	 "centerx": {
		 "type": "string",
		 "value": "50%"
	},
	 "containerweight": 100,
	 "context": {
		 "channel": "desktop",
		 "formID": "uwudecbe023e584238951c12800722a2c3",
		 "platform": "desktopweb",
		 "templateType": "userwidgets",
		 "topLevelBox": null
	},
	 "id": "imgBrowser4",
	 "imagescalemode": 1,
	 "info": null,
	 "iscustomlayout": false,
	 "isvisible": true,
	 "kuid": "je9be88130dd4a508295632406dfc21a",
	 "name": "kony.ui.Image2",
	 "parent": "flxBrowser4",
	 "pf": "userwidgetmodel",
	 "responsiveData": {},
	 "retaincontentalignment": false,
	 "retainflexpositionproperties": false,
	 "srcType": 1,
	 "wType": "Image",
	 "widgetalignment": 5,
	 "zindex": 1,
	 "accessibilityconfig": {
		 "a11yHidden": true,
		 "a11yARIA": {
			 "tabindex": -1
		},
		 "a11yValue": ""
	}
}