{
    "DNDConfig": null,
    "_bottom_": {
        "type": "string",
        "value": "30dp"
    },
    "_height_": {
        "type": "ref",
        "value": "preferred"
    },
    "_left_": {
        "type": "string",
        "value": "50.83%"
    },
    "_margin_": [
        0,
        0,
        0,
        0
    ],
    "_orientation_": 6,
    "_padding_": [
        0,
        0,
        0,
        0
    ],
    "_percent_": true,
    "_skin_": "s6ee01d1fed2406d99bfbea5e78b4638",
    "_top_": {
        "type": "string",
        "value": "50dp"
    },
    "_width_": {
        "type": "string",
        "value": "46.66%"
    },
    "allboxes": [],
    "autogrowmode": 1,
    "canUpdateUI": true,
    "children": [
        "flxRow1",
        "flxRow2",
        "flxRow3",
        "flxRow4",
        "flxRow5",
        "flxRow6"
    ],
    "clipbounds": true,
    "containerweight": 100,
    "enablescrolling": true,
    "id": "flxBankDetails",
    "info": null,
    "isvisible": true,
    "kuid": "ff60b30cc7d343ffac4f80540bbaaf11",
    "layouttype": 4,
    "name": "kony.ui.FlexContainer",
    "parent": "flxDetails",
    "pf": "frmConfirmDetails",
    "responsiveData": {
        "b1": {
            "height": {
                "type": "string",
                "value": "330dp"
            }
        },
        "b2": {
            "height": {
                "type": "string",
                "value": "330dp"
            }
        },
        "b3": {
            "height": {
                "type": "string",
                "value": "310dp"
            },
            "isVisible": true,
            "left": {
                "type": "string",
                "value": "30dp"
            },
            "right": {
                "type": "string",
                "value": "30dp"
            },
            "top": {
                "type": "string",
                "value": "5dp"
            },
            "width": {
                "type": "string",
                "value": ""
            }
        },
        "b4": {
            "height": {
                "type": "ref",
                "value": "preferred"
            },
            "isVisible": true,
            "left": {
                "type": "string",
                "value": "15dp"
            },
            "right": {
                "type": "string",
                "value": "15dp"
            },
            "top": {
                "type": "string",
                "value": "5dp"
            },
            "width": {
                "type": "ref",
                "value": "preferred"
            }
        }
    },
    "snapgridsize": 10,
    "snaptogrid": true,
    "wType": "FlexContainer",
    "widgetalignment": 1,
    "zindex": 1
}