{
    "DNDConfig": null,
    "__parentReadjusting__": false,
    "_height_": {
        "type": "ref",
        "value": "preferred"
    },
    "_left_": {
        "type": "string",
        "value": "0dp"
    },
    "_margin_": [
        0,
        0,
        0,
        0
    ],
    "_orientation_": 6,
    "_padding_": [
        0,
        0,
        0,
        0
    ],
    "_percent_": true,
    "_right_": {
        "type": "string",
        "value": "82.50%"
    },
    "_skin_": "s24c92fc23b14f5484b693ee9b8a9b35",
    "_top_": {
        "type": "string",
        "value": "0dp"
    },
    "allboxes": [],
    "autogrowmode": 1,
    "canUpdateUI": true,
    "children": [
        "lblTransactionFeeKey",
        "flxTransactionFeeInfo"
    ],
    "clipbounds": true,
    "containerweight": 100,
    "enablescrolling": true,
    "id": "flxTransctionFee",
    "info": null,
    "isvisible": true,
    "kuid": "h1296355b15a472aab6bfb094ca49e57",
    "layouttype": 3,
    "name": "kony.ui.FlexContainer",
    "parent": "flxTransactionDetailsRow3",
    "pf": "frmConfirmDetails",
    "responsiveData": {
        "b3": {
            "width": {
                "type": "string",
                "value": "25%"
            }
        },
        "b4": {
            "bottom": {
                "type": "string",
                "value": ""
            },
            "width": {
                "type": "string",
                "value": "40%"
            }
        }
    },
    "snapgridsize": 10,
    "snaptogrid": true,
    "wType": "FlexContainer",
    "widgetalignment": 1,
    "zindex": 1
}