{
    "@class": "com.kony.gen.viz.model.component.KVizLabel",
    "DNDConfig": null,
    "__parentReadjusting__": false,
    "_bottom_": {
        "type": "string",
        "value": "18dp"
    },
    "_height_": {
        "type": "ref",
        "value": "preferred"
    },
    "_margin_": [
        1,
        1,
        1,
        1
    ],
    "_padding_": [
        0,
        0,
        0,
        0
    ],
    "_right_": {
        "type": "string",
        "value": "2.25%"
    },
    "_skin_": "s1af4004be374a1cbf307cfbb14c6278",
    "_text_": "45423792753",
    "_top_": {
        "type": "number",
        "value": ""
    },
    "_width_": {
        "type": "ref",
        "value": "preferred"
    },
    "_wrapping_": 2,
    "accessibilityconfig": {
        "a11yLabel": "45423792753"
    },
    "android": {
        "textStyle": {
            "letterSpacing": 0,
            "strikeThrough": false
        }
    },
    "canUpdateUI": true,
    "centerx": {
        "type": "number",
        "value": ""
    },
    "containerweight": 100,
    "contentalignment": 4,
    "id": "lblRefrenceNumberValue",
    "info": null,
    "ipad": {
        "psp": {
            "wrapping": 2
        }
    },
    "iphone": {
        "psp": {
            "wrapping": 2
        }
    },
    "isvisible": true,
    "kuid": "a847e68737334bdabcac99056c59e8ae",
    "name": "kony.ui.Label",
    "parent": "flxSuccessMessage",
    "pf": "frmConfirmDetails",
    "responsiveData": {
        "b4": {
            "bottom": {
                "type": "string",
                "value": "15dp"
            },
            "centerX": {
                "type": "string",
                "value": "50%"
            },
            "contentAlignment": 5,
            "right": {
                "type": "string",
                "value": ""
            },
            "skin": "s1af4004be374a1cbf307cfbb14c6278",
            "top": {
                "type": "string",
                "value": "20dp"
            },
            "width": {
                "type": "string",
                "value": "100%"
            }
        }
    },
    "tooltip": "",
    "wType": "Label",
    "zindex": 1
}