{
    "@class": "com.kony.gen.viz.model.component.KVizRichText",
    "DNDConfig": null,
    "__parentReadjusting__": false,
    "_bottom_": {
        "type": "string",
        "value": "10dp"
    },
    "_height_": {
        "type": "ref",
        "value": "preferred"
    },
    "_left_": {
        "type": "string",
        "value": "2.50%"
    },
    "_margin_": [
        0,
        0,
        0,
        0
    ],
    "_padding_": [
        0,
        0,
        0,
        0
    ],
    "_render_": true,
    "_skin_": "s23186e58cad43ad821b713e9f9a389c",
    "_text_": " <p style=\"line-height:100%;\">\nBy agreeing that you have read these Terms and Conditions and continuing eStatement/ eNotices enrollment, you signify your agreement to all the terms, conditions, and notices contained or referenced in this document and accept responsibility for your use of the service. If you choose not to agree that you have read these Terms and Conditions, you will not be enrolled in the Service and will have no further responsibility to the Bank.Access to the Service and use of the Service is subject to all applicable federal, state and local laws and regulations. Unauthorized use of the Service or information accessed via the Service is strictly prohibited.\n<br/>\nDescription of eStatements\n<br/>\nEStatements are offered for eligible deposit accounts, allowing you to replace your mailed (paper) statement with an electronic version (PDF) that you can view, save to your computer or print at your convenience. Any legal notices that normally accompany your mailed statement will be delivered to you electronically. The following is a brief description of the various features of the Service and requirements for using the Service. From time to time, we may add to, modify, or delete any feature of the Service at our sole discretion. Please note that by enrolling in eStatements, you will no longer receive a mailed paper statement. However, a monthly paper statement will be available to you upon request by contacting the Bank.\n<br/>\nRegistration for eStatements\nYou must first register and become an Internet Banking customer to use the Service. You must accept these Terms and Conditions to become a registered user of the Service. Your eStatement(s) will be made available to you when you log into the Bank’s Internet Banking Service. When you register for eStatements:\n<br/>\nYou consent to receive your Bank account statement in electronic format and authorize us to electronically deliver your account statement on a monthly statement cycle. Combined customer account statements may no longer be available.\nYour statement will be provided in a readable, printable, and downloadable format. Your eStatement will be available for viewing for a period of up to 12 calendar months beginning with your month of registration. You also agree to waive the mailing of a paper statement from this time forward. You can, however, at any time decline the Service and receive paper statements by mail by contacting us with your termination request. At all times a monthly statement will be available to you at the Bank upon request.\n<br/>\nEligible Accounts For eStatements\nEligible accounts include the following personal or non-personal account types: checking, savings, and money market accounts that have recurring periodic statements. All checking, money market and savings accounts that are related under the primary or secondary account holder’s social security number or Tax Identification Number will be automatically enrolled for eStatements. You will receive eStatements for the accounts you choose when enrolling. If you do not choose an account, you will continue to receive paper statements for that account.\n<br/>\nWe hereby reserve the right in our sole and absolute discretion to limit the approval or availability of and the access to the services set forth in this agreement on any subject account being applied for hereunder to only the individual listed on the bank’s records as the primary account holder of such accounts.\nIf any account which you have applied for and have been approved by the Bank to receive eStatements is a joint account, please be advised that only the primary holder or secondary holder of the account as shown on the statement document will receive and be able to access the eStatement for such account.\nEnrollment For eStatement Delivery\nTo have access to the Service you must log in to our Internet Banking service and choose PROFILE, then ESTATEMENT-EDIT. Follow the instructions on screen to enroll in eStatements. For accounts with multiple owners, only one account owner need enroll the account in the Service. Your current month’s statement may not be available until your next cycle date.\n<br/>\nChange In Terms and Conditions\nThe Bank reserves the right to modify this Agreement at any time. Any modifications shall be effective when they are posted on the Service. You will be notified as soon as possible when any changes are made which materially affect your rights, such as changes regarding how your information is maintained or used. It is your responsibility to review this Agreement including the bank’s Privacy Policy in order to be aware of any such changes.\n<br/>\nTermination\n<br/>\nThis Agreement will be in effect from the date your registration is submitted by you and accepted by the Bank and at all times while you are using the Service. Either you or the Bank may terminate this Agreement and your use of the Service at any time. As a customer of the Bank, you do have the right to have mailed to you a paper statement in place of an electronic one (eStatement). To unsubscribe from the Bank’s eStatement service and begin receiving your paper statement again, you will contact us by calling (605) 698-7621.\n<br/>\n<br/>\nMiscellaneous\nIf any provision of this Agreement is held to be invalid or otherwise unenforceable, the remainder of the provisions shall remain in full force and effect and shall in no way be invalidated or otherwise affected. Headings are for reference only and in no way define, limit, construe, or describe the scope or extent of such section. Our failure to act with respect to a breach by you or others does not waive our right to act with respect to subsequent or similar breaches. This Agreement represents the sole and exclusive agreement between you and the Bank regarding the Service and merges and supersedes all previous and contemporaneous written or oral agreements and understandings regarding the subject matter hereof. The Bank may assign the Service, including this Agreement in whole or in part; however, you may not assign or transfer this Agreement. Should any term or condition be in conflict between this agreement and any document incorporated herein by reference into this Agreement, the Agreement shall control.\nIf you have any questions regarding this Agreement, or the Service, please contact our bank.\nThis service is subject to all terms and conditions as set forth in the Internet Banking Terms and Conditions that you have previously been provided.\n<br/>\n.</style></p>",
    "_top_": {
        "type": "string",
        "value": "0px"
    },
    "_width_": {
        "type": "string",
        "value": "94.60%"
    },
    "_wrapping_": 2,
    "accessibilityconfig": {
        "a11yLabel": " <p style=\"line-height:100%;\">\nBy agreeing that you have read these Terms and Conditions and continuing eStatement/ eNotices enrollment, you signify your agreement to all the terms, conditions, and notices contained or referenced in this document and accept responsibility for your use of the service. If you choose not to agree that you have read these Terms and Conditions, you will not be enrolled in the Service and will have no further responsibility to the Bank.Access to the Service and use of the Service is subject to all applicable federal, state and local laws and regulations. Unauthorized use of the Service or information accessed via the Service is strictly prohibited.\n<br/>\nDescription of eStatements\n<br/>\nEStatements are offered for eligible deposit accounts, allowing you to replace your mailed (paper) statement with an electronic version (PDF) that you can view, save to your computer or print at your convenience. Any legal notices that normally accompany your mailed statement will be delivered to you electronically. The following is a brief description of the various features of the Service and requirements for using the Service. From time to time, we may add to, modify, or delete any feature of the Service at our sole discretion. Please note that by enrolling in eStatements, you will no longer receive a mailed paper statement. However, a monthly paper statement will be available to you upon request by contacting the Bank.\n<br/>\nRegistration for eStatements\nYou must first register and become an Internet Banking customer to use the Service. You must accept these Terms and Conditions to become a registered user of the Service. Your eStatement(s) will be made available to you when you log into the Bank’s Internet Banking Service. When you register for eStatements:\n<br/>\nYou consent to receive your Bank account statement in electronic format and authorize us to electronically deliver your account statement on a monthly statement cycle. Combined customer account statements may no longer be available.\nYour statement will be provided in a readable, printable, and downloadable format. Your eStatement will be available for viewing for a period of up to 12 calendar months beginning with your month of registration. You also agree to waive the mailing of a paper statement from this time forward. You can, however, at any time decline the Service and receive paper statements by mail by contacting us with your termination request. At all times a monthly statement will be available to you at the Bank upon request.\n<br/>\nEligible Accounts For eStatements\nEligible accounts include the following personal or non-personal account types: checking, savings, and money market accounts that have recurring periodic statements. All checking, money market and savings accounts that are related under the primary or secondary account holder’s social security number or Tax Identification Number will be automatically enrolled for eStatements. You will receive eStatements for the accounts you choose when enrolling. If you do not choose an account, you will continue to receive paper statements for that account.\n<br/>\nWe hereby reserve the right in our sole and absolute discretion to limit the approval or availability of and the access to the services set forth in this agreement on any subject account being applied for hereunder to only the individual listed on the bank’s records as the primary account holder of such accounts.\nIf any account which you have applied for and have been approved by the Bank to receive eStatements is a joint account, please be advised that only the primary holder or secondary holder of the account as shown on the statement document will receive and be able to access the eStatement for such account.\nEnrollment For eStatement Delivery\nTo have access to the Service you must log in to our Internet Banking service and choose PROFILE, then ESTATEMENT-EDIT. Follow the instructions on screen to enroll in eStatements. For accounts with multiple owners, only one account owner need enroll the account in the Service. Your current month’s statement may not be available until your next cycle date.\n<br/>\nChange In Terms and Conditions\nThe Bank reserves the right to modify this Agreement at any time. Any modifications shall be effective when they are posted on the Service. You will be notified as soon as possible when any changes are made which materially affect your rights, such as changes regarding how your information is maintained or used. It is your responsibility to review this Agreement including the bank’s Privacy Policy in order to be aware of any such changes.\n<br/>\nTermination\n<br/>\nThis Agreement will be in effect from the date your registration is submitted by you and accepted by the Bank and at all times while you are using the Service. Either you or the Bank may terminate this Agreement and your use of the Service at any time. As a customer of the Bank, you do have the right to have mailed to you a paper statement in place of an electronic one (eStatement). To unsubscribe from the Bank’s eStatement service and begin receiving your paper statement again, you will contact us by calling (605) 698-7621.\n<br/>\n<br/>\nMiscellaneous\nIf any provision of this Agreement is held to be invalid or otherwise unenforceable, the remainder of the provisions shall remain in full force and effect and shall in no way be invalidated or otherwise affected. Headings are for reference only and in no way define, limit, construe, or describe the scope or extent of such section. Our failure to act with respect to a breach by you or others does not waive our right to act with respect to subsequent or similar breaches. This Agreement represents the sole and exclusive agreement between you and the Bank regarding the Service and merges and supersedes all previous and contemporaneous written or oral agreements and understandings regarding the subject matter hereof. The Bank may assign the Service, including this Agreement in whole or in part; however, you may not assign or transfer this Agreement. Should any term or condition be in conflict between this agreement and any document incorporated herein by reference into this Agreement, the Agreement shall control.\nIf you have any questions regarding this Agreement, or the Service, please contact our bank.\nThis service is subject to all terms and conditions as set forth in the Internet Banking Terms and Conditions that you have previously been provided.\n<br/>\n.</style></p>"
    },
    "canUpdateUI": true,
    "containerweight": 100,
    "contentalignment": 4,
    "desktopweb": {
        "render": true
    },
    "id": "rtxTC",
    "info": null,
    "isvisible": true,
    "kiosk": {
        "render": true
    },
    "kuid": "fcbc155011554b1b8b77a36ecbf10850",
    "name": "kony.ui.RichText",
    "parent": "flxTCContents",
    "pf": "frmConfirmDetails",
    "wType": "RichText",
    "widgetalignment": 5,
    "zindex": 1
}