{
    "@class": "com.kony.gen.viz.model.component.KVizUserWidget",
    "DNDConfig": null,
    "__parentReadjusting__": false,
    "_children_": [],
    "_height_": {
        "type": "string",
        "value": "80dp"
    },
    "_left_": {
        "type": "string",
        "value": "0dp"
    },
    "_margin_": [
        0,
        0,
        0,
        0
    ],
    "_orientation_": 1,
    "_padding_": [
        0,
        0,
        0,
        0
    ],
    "_percent_": true,
    "_render_": true,
    "_skin_": "s24c92fc23b14f5484b693ee9b8a9b35",
    "_top_": {
        "type": "string",
        "value": "0dp"
    },
    "_width_": {
        "type": "string",
        "value": "100%"
    },
    "android": {},
    "androidwearos": {},
    "areflexpropsreferenced": false,
    "canUpdateUI": true,
    "clipbounds": false,
    "containerweight": 0,
    "dataDiffs": {
        "TermsAndConditions": {
            "__events__": {},
            "__info__": {
                "isRoot": true,
                "kuid": "cf309e6dbd2549bfb69b3443e51a26f5",
                "srcKUID": "c16c4e0f518e42eea7570dfe08c59493",
                "wType": "FlexContainer"
            },
            "centerX": {},
            "centerY": {},
            "left": {
                "Default": {
                    "type": "string",
                    "value": "0dp"
                }
            },
            "responsiveData": {
                "b3": {
                    "centerX": {
                        "type": "string",
                        "value": ""
                    },
                    "centerY": {
                        "type": "string",
                        "value": "50%"
                    },
                    "top": {
                        "type": "string",
                        "value": ""
                    }
                }
            },
            "top": {}
        },
        "lblTermsAndConditions": {
            "__events__": {},
            "__info__": {
                "kuid": "c592328c90134e7fb636c7371868fb6e",
                "srcKUID": "e89f6d70ff194996a07d3b608f705514",
                "wType": "Label"
            },
            "i18n_text": "i18n.WireTransfers.TandC"
        }
    },
    "desktopweb": {},
    "id": "TermsAndConditions",
    "info": null,
    "ipad": {},
    "iphone": {},
    "isdatareferenced": false,
    "isvisible": true,
    "kiosk": {},
    "kuid": "cf309e6dbd2549bfb69b3443e51a26f5",
    "layouttype": 2,
    "masterType": 0,
    "name": "kony.ui.UserWidgetInstance",
    "parent": "flxTermsAndConditions",
    "pf": "frmBWTEditRecipientFile",
    "responsiveData": {
        "b3": {
            "centerX": {
                "type": "string",
                "value": ""
            },
            "centerY": {
                "type": "string",
                "value": "50%"
            },
            "top": {
                "type": "string",
                "value": ""
            }
        }
    },
    "snaptogrid": true,
    "sourceUserWidget": "c16c4e0f518e42eea7570dfe08c59493",
    "spa": {},
    "spaan": {},
    "spaandroidtablet": {},
    "spabb": {},
    "spaip": {},
    "spaipad": {},
    "spamobile": {},
    "spatablet": {},
    "spawindowstablet": {},
    "spawinphone8": {},
    "tabrcandroid": {},
    "vizProps": {
        "hidewidgethierarchy": false
    },
    "vizprops": {
        "hidewidgethierarchy": false
    },
    "wType": "UserWidgetInstance",
    "windows10": {},
    "windows8": {},
    "winphone10": {},
    "winphone8": {}
}