{
    "@class": "com.kony.gen.viz.model.component.KVizImage2",
    "DNDConfig": null,
    "__parentReadjusting__": false,
    "_base64_": null,
    "_height_": {
        "type": "string",
        "value": "14dp"
    },
    "_left_": {
        "type": "string",
        "value": "12.90%"
    },
    "_margin_": [
        0,
        0,
        0,
        0
    ],
    "_padding_": [
        0,
        0,
        0,
        0
    ],
    "_skin_": "s78a5f26c9f14cec9ebed1bb46098f80",
    "_src_": "sorting_next.png",
    "_width_": {
        "type": "string",
        "value": "10dp"
    },
    "accessibilityconfig": {
        "a11yLabel": "Sort",
        "a11yValue": ""
    },
    "canUpdateUI": true,
    "centery": {
        "type": "string",
        "value": "50%"
    },
    "containerweight": 100,
    "id": "imgRoleName",
    "imagescalemode": 1,
    "imagewhenfailed": "sorting_next.png",
    "imagewhiledownloading": "sorting_next.png",
    "info": null,
    "invokedProperty": "imageWhenFailed",
    "iscustomlayout": false,
    "isvisible": true,
    "kuid": "fe6868fc0b2d4f0b8379f9b6afd3d95e",
    "name": "kony.ui.Image2",
    "parent": "flxRoleName",
    "pf": "userwidgetmodel",
    "retaincontentalignment": false,
    "retainflexpositionproperties": false,
    "srcType": 1,
    "wType": "Image",
    "widgetalignment": 5,
    "zindex": 1
}