{
    "@class": "com.kony.gen.viz.model.container.KVizSegment2",
    "DNDConfig": null,
    "__parentReadjusting__": false,
    "_data_": [],
    "_height_": {
        "type": "ref",
        "value": "preferred"
    },
    "_indicator_": "none",
    "_left_": {
        "type": "string",
        "value": "0dp"
    },
    "_margin_": [
        0,
        0,
        0,
        0
    ],
    "_orientation_": 2,
    "_padding_": [
        0,
        0,
        0,
        0
    ],
    "_top_": {
        "type": "string",
        "value": "0dp"
    },
    "_width_": {
        "type": "string",
        "value": "100%"
    },
    "autogrowmode": 1,
    "canUpdateUI": true,
    "containerweight": 100,
    "counter": "023",
    "desktop": {
        "_data_": [],
        "rowTemplateId": "ae4eb4964612444487de88ea79c29b14",
        "rowtemplate": "flxBBUserBasicDetails",
        "sectionHeaderTemplateId": null,
        "widgetdatamap": {
            "btnActionsApprovals": "btnActionsApprovals",
            "btnChangeStatus": "btnChangeStatus",
            "btnChangeStatusApprovals": "btnChangeStatusApprovals",
            "btnManageUsers": "btnManageUsers",
            "btnViewDetailsOfUser": "btnViewDetailsOfUser",
            "flxActions": "flxActions",
            "flxActionsApprovals": "flxActionsApprovals",
            "flxBBUserBasicDetails": "flxBBUserBasicDetails",
            "flxBottomSeperator": "flxBottomSeperator",
            "flxDetails": "flxDetails",
            "flxDetailsApprovals": "flxDetailsApprovals",
            "flxDetailsHighlighter": "flxDetailsHighlighter",
            "flxDetailsHighlighterApprovals": "flxDetailsHighlighterApprovals",
            "flxDropDown": "flxDropDown",
            "flxMain": "flxMain",
            "flxManageUsers": "flxManageUsers",
            "flxSeparatorForHeader": "flxSeparatorForHeader",
            "flxUserApprovalsRowDetails": "flxUserApprovalsRowDetails",
            "flxUserApprovalsRowHeader": "flxUserApprovalsRowHeader",
            "flxUserCommonRowDetails": "flxUserCommonRowDetails",
            "flxUserCommonRowHeader": "flxUserCommonRowHeader",
            "flxUserDetails": "flxUserDetails",
            "flxUserHeader": "flxUserHeader",
            "flxUserStatusChange": "flxUserStatusChange",
            "flxUserStatusIcon": "flxUserStatusIcon",
            "imgBottonSeparator": "imgBottonSeparator",
            "imgDropDown": "imgDropDown",
            "imgHigh": "imgHigh",
            "imgSample": "imgSample",
            "imgSeparatorHeader": "imgSeparatorHeader",
            "imgUserStatusIndicator": "imgUserStatusIndicator",
            "lblActions": "lblActions",
            "lblActionsApprovals": "lblActionsApprovals",
            "lblDetailsHighligher": "lblDetailsHighligher",
            "lblDetailsHighligherApprovals": "lblDetailsHighligherApprovals",
            "lblEmailTitle": "lblEmailTitle",
            "lblEmailTitleApprovals": "lblEmailTitleApprovals",
            "lblEmailValue": "lblEmailValue",
            "lblEmailValueApprovals": "lblEmailValueApprovals",
            "lblLastSignedIn": "lblLastSignedIn",
            "lblLastSignedInTitle": "lblLastSignedInTitle",
            "lblName": "lblName",
            "lblNameApprovals": "lblNameApprovals",
            "lblPhoneNumber": "lblPhoneNumber",
            "lblPhoneNumberTitle": "lblPhoneNumberTitle",
            "lblRole": "lblRole",
            "lblRoleApprovals": "lblRoleApprovals",
            "lblUserCreatedDate": "lblUserCreatedDate",
            "lblUserStatus": "lblUserStatus",
            "lblUsernameTitleApprovals": "lblUsernameTitleApprovals",
            "lblUsernameValue": "lblUsernameValue",
            "lblUsernameValueApprovals": "lblUsernameValueApprovals"
        }
    },
    "focusedindex": null,
    "focuseditem": null,
    "groupcells": false,
    "hasSections": false,
    "id": "segTemplates",
    "info": null,
    "ipad": {
        "psp": {
            "indicator": "rowselect"
        }
    },
    "iphone": {
        "psp": {
            "indicator": "rowselect"
        }
    },
    "iscustomlayout": false,
    "isvisible": true,
    "kuid": "u36f213007dd43c6a1c0f1d5250d71df",
    "masterdata": {},
    "mobile": {
        "_data_": [
            {},
            {},
            {},
            {},
            {},
            {},
            {},
            {},
            {},
            {}
        ]
    },
    "name": "kony.ui.SegmentedUI2",
    "needpageindicator": true,
    "pageoffdotimage": "pageoffdot.png",
    "pageondotimage": "pageondot.png",
    "paginationconfig": {
        "position": "bottom"
    },
    "parent": "TabBodyNewCopy",
    "pf": "userwidgetmodel",
    "retaincontentalignment": false,
    "retainflexpositionproperties": false,
    "retainselection": false,
    "rowcounter": 23,
    "rowfocusskin": "s96b726ec4f046d7b0ba9483086cf05b",
    "rowskin": "scf5f90f6ac04976ab88b2a4f7153285",
    "screenlevelwidget": false,
    "seccounter": 0,
    "sectionheaderskin": "sdc4ff4ed1584272be2ae69045dfb29d",
    "selectedRows": null,
    "selectedState": false,
    "selectedindex": null,
    "selectedindices": null,
    "selecteditems": null,
    "selectedsectionindex": 0,
    "selectionbehavior": "default",
    "separatorrequired": true,
    "separatorthickness": 0,
    "showscrollbars": true,
    "viewtype": "tableview",
    "vizProps": {},
    "wType": "Segment",
    "widgetalignment": 5,
    "widgetdatamap": {
        "btnActionsApprovals": "btnActionsApprovals",
        "btnChangeStatus": "btnChangeStatus",
        "btnChangeStatusApprovals": "btnChangeStatusApprovals",
        "btnManageUsers": "btnManageUsers",
        "btnViewDetailsOfUser": "btnViewDetailsOfUser",
        "flxActions": "flxActions",
        "flxActionsApprovals": "flxActionsApprovals",
        "flxBBUserBasicDetails": "flxBBUserBasicDetails",
        "flxBottomSeperator": "flxBottomSeperator",
        "flxDetails": "flxDetails",
        "flxDetailsApprovals": "flxDetailsApprovals",
        "flxDetailsHighlighter": "flxDetailsHighlighter",
        "flxDetailsHighlighterApprovals": "flxDetailsHighlighterApprovals",
        "flxDropDown": "flxDropDown",
        "flxMain": "flxMain",
        "flxManageUsers": "flxManageUsers",
        "flxSeparatorForHeader": "flxSeparatorForHeader",
        "flxUserApprovalsRowDetails": "flxUserApprovalsRowDetails",
        "flxUserApprovalsRowHeader": "flxUserApprovalsRowHeader",
        "flxUserCommonRowDetails": "flxUserCommonRowDetails",
        "flxUserCommonRowHeader": "flxUserCommonRowHeader",
        "flxUserDetails": "flxUserDetails",
        "flxUserHeader": "flxUserHeader",
        "flxUserStatusChange": "flxUserStatusChange",
        "flxUserStatusIcon": "flxUserStatusIcon",
        "imgBottonSeparator": "imgBottonSeparator",
        "imgDropDown": "imgDropDown",
        "imgHigh": "imgHigh",
        "imgSample": "imgSample",
        "imgSeparatorHeader": "imgSeparatorHeader",
        "imgUserStatusIndicator": "imgUserStatusIndicator",
        "lblActions": "lblActions",
        "lblActionsApprovals": "lblActionsApprovals",
        "lblDetailsHighligher": "lblDetailsHighligher",
        "lblDetailsHighligherApprovals": "lblDetailsHighligherApprovals",
        "lblEmailTitle": "lblEmailTitle",
        "lblEmailTitleApprovals": "lblEmailTitleApprovals",
        "lblEmailValue": "lblEmailValue",
        "lblEmailValueApprovals": "lblEmailValueApprovals",
        "lblLastSignedIn": "lblLastSignedIn",
        "lblLastSignedInTitle": "lblLastSignedInTitle",
        "lblName": "lblName",
        "lblNameApprovals": "lblNameApprovals",
        "lblPhoneNumber": "lblPhoneNumber",
        "lblPhoneNumberTitle": "lblPhoneNumberTitle",
        "lblRole": "lblRole",
        "lblRoleApprovals": "lblRoleApprovals",
        "lblUserCreatedDate": "lblUserCreatedDate",
        "lblUserStatus": "lblUserStatus",
        "lblUsernameTitleApprovals": "lblUsernameTitleApprovals",
        "lblUsernameValue": "lblUsernameValue",
        "lblUsernameValueApprovals": "lblUsernameValueApprovals"
    },
    "zindex": 1
}