{
	 "@class": "com.kony.gen.viz.model.component.KVizLabel",
	 "DNDConfig": null,
	 "__parentReadjusting__": false,
	 "_height_": {
		 "type": "string",
		 "value": "25dp"
	},
	 "_margin_": [
		 1,
		 1,
		 1,
		 1
	],
	 "_padding_": [
		 1,
		 1,
		 1,
		 1
	],
	 "_skin_": "s5b5d2802d29421e91f20a1ec11d45e4",
	 "_text_": "M",
	 "_width_": {
		 "type": "string",
		 "value": "25dp"
	},
	 "_wrapping_": 2,
	 "accessibilityconfig": {
		 "a11yLabel": "Radio Button"
	},
	 "android": {
		 "textStyle": {
			 "letterSpacing": 0,
			 "strikeThrough": false
		}
	},
	 "canUpdateUI": true,
	 "centerx": {
		 "type": "string",
		 "value": "50%"
	},
	 "centery": {
		 "type": "string",
		 "value": "50%"
	},
	 "containerweight": 100,
	 "contentalignment": 5,
	 "id": "lblAddressCheckBox1",
	 "info": null,
	 "ipad": {
		 "psp": {
			 "wrapping": 2
		}
	},
	 "iphone": {
		 "psp": {
			 "wrapping": 2
		}
	},
	 "isvisible": true,
	 "kuid": "b9d257f620404ff39936e47eb3829605",
	 "name": "kony.ui.Label",
	 "parent": "flxAddressCheckbox1",
	 "pf": "userwidgetmodel",
	 "tooltip": "Email Address",
	 "wType": "Label",
	 "zindex": 1
}