{
	 "@class": "com.kony.gen.viz.model.component.KVizLabel",
	 "DNDConfig": null,
	 "__parentReadjusting__": false,
	 "_height_": {
		 "type": "string",
		 "value": "25dp"
	},
	 "_left_": {
		 "type": "string",
		 "value": "1dp"
	},
	 "_margin_": [
		 1,
		 1,
		 1,
		 1
	],
	 "_padding_": [
		 1,
		 1,
		 1,
		 1
	],
	 "_skin_": "sbf892219fd04dbcae8a4a76f57b2ae0",
	 "_text_": "L",
	 "_width_": {
		 "type": "string",
		 "value": "25dp"
	},
	 "_wrapping_": 2,
	 "accessibilityconfig": {
		 "a11yLabel": "Radio Button"
	},
	 "android": {
		 "textStyle": {
			 "letterSpacing": 0,
			 "strikeThrough": false
		}
	},
	 "canUpdateUI": true,
	 "centerx": {
		 "type": "string",
		 "value": "50%"
	},
	 "centery": {
		 "type": "string",
		 "value": "50%"
	},
	 "containerweight": 100,
	 "contentalignment": 5,
	 "id": "lblAddressCheckBox3",
	 "info": null,
	 "ipad": {
		 "psp": {
			 "wrapping": 2
		}
	},
	 "iphone": {
		 "psp": {
			 "wrapping": 2
		}
	},
	 "isvisible": true,
	 "kuid": "h34d3bd0dc064880bba7778734fff616",
	 "name": "kony.ui.Label",
	 "parent": "flxAddressCheckbox3",
	 "pf": "userwidgetmodel",
	 "tooltip": "Email Address",
	 "wType": "Label",
	 "zindex": 1
}