{
    "@class": "com.kony.gen.viz.model.component.KVizUserWidget",
    "DNDConfig": null,
    "__parentReadjusting__": false,
    "_android_": {},
    "_androidwearos_": {},
    "_children_": [],
    "_desktopweb_": {},
    "_height_": {
        "type": "string",
        "value": "60dp"
    },
    "_ipad_": {},
    "_iphone_": {},
    "_kiosk_": {},
    "_left_": {
        "type": "string",
        "value": "0dp"
    },
    "_margin_": [
        0,
        0,
        0,
        0
    ],
    "_orientation_": 1,
    "_padding_": [
        0,
        0,
        0,
        0
    ],
    "_percent_": true,
    "_render_": true,
    "_skin_": "s4d6392bface4761840338d65d827a61",
    "_spa_": {},
    "_spaan_": {},
    "_spaandroidtablet_": {},
    "_spabb_": {},
    "_spaip_": {},
    "_spaipad_": {},
    "_spamobile_": {},
    "_spatablet_": {},
    "_spawindowstablet_": {},
    "_spawinphone8_": {},
    "_tabrcandroid_": {},
    "_top_": {
        "type": "string",
        "value": "0dp"
    },
    "_vizProps_": {
        "hidewidgethierarchy": false
    },
    "_width_": {
        "type": "string",
        "value": "100%"
    },
    "_windows10_": {},
    "_windows8_": {},
    "_winphone10_": {},
    "_winphone8_": {},
    "areflexpropsreferenced": false,
    "canUpdateUI": true,
    "clipbounds": true,
    "containerweight": 0,
    "dataDiffs": {
        "confirmHeaders": {
            "__events__": {},
            "__info__": {
                "isRoot": true,
                "kuid": "e24550f8d402490a8262759a4ba49d12",
                "srcKUID": "bfa374b04e3743cf981eb31d77ebf746",
                "wType": "FlexContainer"
            },
            "left": {
                "Default": {
                    "type": "string",
                    "value": "0dp"
                }
            },
            "top": {
                "Default": {
                    "type": "string",
                    "value": "0dp"
                }
            },
            "zIndex": {
                "Default": 1
            }
        },
        "flxHeader": {
            "__events__": {},
            "__info__": {
                "kuid": "bfbfb9f59a6f415880f5ba35fbddd249",
                "srcKUID": "ge4b975c1527467a9bc1b610e3dcf02e",
                "wType": "FlexContainer"
            }
        },
        "lblHeading": {
            "__events__": {},
            "__info__": {
                "kuid": "b632c5d3e7934929bf29a1aa5ab625f2",
                "srcKUID": "e48654a7e4ae4428b39557093fea9b39",
                "wType": "Label"
            },
            "i18n_text": "i18n.ViewStatements.STATEMENTS",
            "left": {
                "Default": {
                    "type": "string",
                    "value": "2.10%"
                }
            }
        }
    },
    "id": "confirmHeaders",
    "info": null,
    "isdatareferenced": false,
    "isvisible": true,
    "kuid": "bce9b8d8b6174505a1a055c6778b64c6",
    "layouttype": 2,
    "masterType": 0,
    "name": "kony.ui.UserWidgetInstance",
    "parent": "flxMain",
    "pf": "userwidgetmodel",
    "snaptogrid": true,
    "sourceUserWidget": "bfa374b04e3743cf981eb31d77ebf746",
    "wType": "UserWidgetInstance",
    "zindex": 1
}