{
    "@class": "com.kony.gen.viz.model.container.KVizSegment2",
    "DNDConfig": null,
    "__parentReadjusting__": false,
    "_data_": [],
    "_height_": {
        "type": "ref",
        "value": "preferred"
    },
    "_indicator_": "none",
    "_left_": {
        "type": "string",
        "value": "0dp"
    },
    "_margin_": [
        0,
        0,
        0,
        0
    ],
    "_orientation_": 2,
    "_padding_": [
        0,
        0,
        0,
        0
    ],
    "_top_": {
        "type": "string",
        "value": "20dp"
    },
    "_width_": {
        "type": "string",
        "value": "100%"
    },
    "autogrowmode": 1,
    "canUpdateUI": true,
    "containerweight": 100,
    "counter": "00",
    "desktop": {
        "_data_": [],
        "rowTemplateId": "d5581abc18234373861512c42232ee58",
        "rowtemplate": "CopyflxAccountTypes0ie1c29b5916243",
        "widgetdatamap": {
            "CopyflxAccountTypes0ie1c29b5916243": "CopyflxAccountTypes0ie1c29b5916243",
            "btnStatement1": "btnStatement1",
            "btnStatement2": "btnStatement2",
            "lblMonth1": "lblMonth1",
            "lblMonth2": "lblMonth2",
            "lblSeparator": "lblSeparator"
        }
    },
    "disabledSkins": {},
    "focusedindex": null,
    "focuseditem": null,
    "groupcells": false,
    "hasSections": false,
    "id": "Segment0d986ba7141b544",
    "info": null,
    "ipad": {
        "psp": {
            "indicator": "rowselect"
        }
    },
    "iphone": {
        "psp": {
            "indicator": "rowselect"
        }
    },
    "isvisible": true,
    "kuid": "ibb38d70785f48ec8a77885e0bcccf67",
    "masterdata": {},
    "name": "kony.ui.SegmentedUI2",
    "needpageindicator": true,
    "pageoffdotimage": "pageoffdot.png",
    "pageondotimage": "pageondot.png",
    "paginationconfig": {
        "position": "bottom"
    },
    "parent": "flxMain",
    "pf": "userwidgetmodel",
    "retainselection": false,
    "rowcounter": 0,
    "rowfocusskin": "s9f69e977910472eb44c62ae28c41fe1",
    "rowskin": "scf5f90f6ac04976ab88b2a4f7153285",
    "rowtemplate": "CopyflxAccountTypes0ie1c29b5916243",
    "screenlevelwidget": false,
    "seccounter": 0,
    "sectionheaderskin": "sdc4ff4ed1584272be2ae69045dfb29d",
    "selectedRows": null,
    "selectedState": false,
    "selectedindex": null,
    "selectedindices": null,
    "selecteditems": null,
    "selectedsectionindex": 0,
    "selectionbehavior": "default",
    "separatorcolor": "64646400",
    "separatorrequired": true,
    "separatorthickness": 0,
    "showscrollbars": false,
    "viewtype": "tableview",
    "vizProps": {},
    "wType": "Segment",
    "widgetalignment": 5,
    "widgetdatamap": {
        "CopyflxAccountTypes0ie1c29b5916243": "CopyflxAccountTypes0ie1c29b5916243",
        "btnStatement1": "btnStatement1",
        "btnStatement2": "btnStatement2",
        "lblMonth1": "lblMonth1",
        "lblMonth2": "lblMonth2",
        "lblSeparator": "lblSeparator"
    },
    "zindex": 1
}