{
    "DNDConfig": null,
    "_height_": {
        "type": "ref",
        "value": "preferred"
    },
    "_margin_": [
        0,
        0,
        0,
        0
    ],
    "_orientation_": 6,
    "_padding_": [
        0,
        0,
        0,
        0
    ],
    "_percent_": true,
    "_skin_": "s24c92fc23b14f5484b693ee9b8a9b35",
    "_top_": {
        "type": "number",
        "value": "0"
    },
    "_width_": {
        "type": "string",
        "value": "1366dp"
    },
    "allboxes": [],
    "autogrowmode": 1,
    "canUpdateUI": true,
    "centerx": {
        "type": "string",
        "value": "50%"
    },
    "children": [
        "flxContentHeader",
        "flxContent"
    ],
    "clipbounds": false,
    "containerweight": 100,
    "enablescrolling": true,
    "id": "flxContentContainer",
    "info": null,
    "isvisible": true,
    "kuid": "cba5a58a1a564211804cd8fce902680c",
    "layouttype": 4,
    "name": "kony.ui.FlexContainer",
    "parent": "flxMain",
    "pf": "frmBBApprovalsDashboard",
    "responsiveData": {
        "b1": {
            "width": {
                "type": "string",
                "value": "100%"
            },
            "zIndex": 1000
        },
        "b2": {
            "width": {
                "type": "string",
                "value": "100%"
            },
            "zIndex": 1000
        },
        "b3": {
            "width": {
                "type": "string",
                "value": "100%"
            },
            "zIndex": 1000
        },
        "b4": {
            "zIndex": 1000
        }
    },
    "snapgridsize": 10,
    "snaptogrid": true,
    "wType": "FlexContainer",
    "widgetalignment": 1,
    "zindex": 1
}