{
    "DNDConfig": null,
    "_height_": {
        "type": "ref",
        "value": "preferred"
    },
    "_left_": {
        "type": "string",
        "value": "20dp"
    },
    "_margin_": [
        0,
        0,
        0,
        0
    ],
    "_orientation_": 6,
    "_padding_": [
        0,
        0,
        0,
        0
    ],
    "_percent_": true,
    "_right_": {
        "type": "string",
        "value": "3%"
    },
    "_skin_": "sdc143f0e5b64ae3a3f155f691c73fa7",
    "_top_": {
        "type": "string",
        "value": "75dp"
    },
    "_width_": {
        "type": "string",
        "value": "22%"
    },
    "allboxes": [],
    "autogrowmode": 1,
    "canUpdateUI": true,
    "children": [
        "segAccountListActions"
    ],
    "clipbounds": false,
    "containerweight": 100,
    "enablescrolling": true,
    "id": "companyListMenu",
    "info": null,
    "iscustomlayout": false,
    "isvisible": false,
    "kuid": "d5bd1f5de9474d2385e13236357fb361",
    "layouttype": 2,
    "name": "kony.ui.FlexContainer",
    "parent": "flxSelectedContract",
    "pf": "frmBBCreateCustomRole",
    "responsiveData": {
        "b2": {
            "height": {
                "type": "ref",
                "value": "preferred"
            },
            "isVisible": false,
            "width": {
                "type": "string",
                "value": "350dp"
            }
        },
        "b4": {
            "width": {
                "type": "string",
                "value": "22%"
            },
            "zIndex": 200
        },
        "b5": {
            "right": {
                "type": "string",
                "value": "2%"
            },
            "skin": "sdc143f0e5b64ae3a3f155f691c73fa7",
            "width": {
                "type": "string",
                "value": "23%"
            }
        }
    },
    "retaincontentalignment": false,
    "retainflexpositionproperties": false,
    "retainflowhorizontalalignment": false,
    "snapgridsize": 10,
    "snaptogrid": true,
    "wType": "FlexContainer",
    "widgetalignment": 1,
    "zindex": 200
}