{
    "DNDConfig": null,
    "_height_": {
        "type": "string",
        "value": "50dp"
    },
    "_left_": {
        "type": "string",
        "value": "20dp"
    },
    "_margin_": [
        0,
        0,
        0,
        0
    ],
    "_orientation_": 6,
    "_padding_": [
        0,
        0,
        0,
        0
    ],
    "_percent_": true,
    "_right_": {
        "type": "string",
        "value": "0%"
    },
    "_skin_": "s680c9bafb594fe4bfa388d84acc43b2",
    "_top_": {
        "type": "string",
        "value": "30dp"
    },
    "_width_": {
        "type": "string",
        "value": "50%"
    },
    "allboxes": [],
    "canUpdateUI": true,
    "centerx": {
        "type": "number",
        "value": ""
    },
    "centery": {
        "type": "number",
        "value": ""
    },
    "children": [
        "btnShowAllAccounts",
        "flxDropDown"
    ],
    "clipbounds": false,
    "containerweight": 100,
    "desktopweb": {
        "psp": {
            "hoverSkin": "s3e0ac30f9774278a868cb7c73908a76"
        }
    },
    "enablescrolling": true,
    "id": "flxAccountsRightContainer",
    "info": null,
    "isvisible": true,
    "kuid": "bf66a3740b97435c86080971d62965e2",
    "layouttype": 2,
    "name": "kony.ui.FlexContainer",
    "parent": "flxSelectedContract",
    "pf": "frmBBCreateCustomRole",
    "responsiveData": {
        "b2": {
            "centerX": {
                "type": "string",
                "value": ""
            },
            "centerY": {
                "type": "string",
                "value": ""
            },
            "height": {
                "type": "string",
                "value": "50dp"
            },
            "right": {
                "type": "string",
                "value": "3%"
            },
            "skin": "s90a3d6a0e234d9685e7d1b8013cf2a2",
            "width": {
                "type": "string",
                "value": "350dp"
            }
        },
        "b4": {
            "centerY": {
                "type": "string",
                "value": ""
            },
            "height": {
                "type": "string",
                "value": "50dp"
            },
            "skin": "s90a3d6a0e234d9685e7d1b8013cf2a2",
            "width": {
                "type": "string",
                "value": "22%"
            }
        },
        "b5": {
            "height": {
                "type": "string",
                "value": "50dp"
            },
            "right": {
                "type": "string",
                "value": ""
            },
            "skin": "s90a3d6a0e234d9685e7d1b8013cf2a2",
            "width": {
                "type": "string",
                "value": "23%"
            }
        }
    },
    "snapgridsize": 10,
    "snaptogrid": true,
    "wType": "FlexContainer",
    "widgetalignment": 1,
    "zindex": 1
}