{
    "@class": "com.kony.gen.viz.model.component.KVizTextBox2",
    "DNDConfig": null,
    "_height_": {
        "type": "string",
        "value": "40dp"
    },
    "_left_": {
        "type": "string",
        "value": "0%"
    },
    "_margin_": [
        0,
        0,
        0,
        0
    ],
    "_padding_": [
        3,
        0,
        2,
        0
    ],
    "_placeholder_": "Enter Name",
    "_right_": {
        "type": "string",
        "value": "0%"
    },
    "_skin_": "s52633133ffc4d90b8f79448b4831f75",
    "_text_": "",
    "_width_": {
        "type": "string",
        "value": "350dp"
    },
    "autocapitalize": "none",
    "autocomplete": false,
    "autocorrect": false,
    "autofilter": false,
    "canUpdateUI": true,
    "centery": {
        "type": "string",
        "value": "50%"
    },
    "containerheight": "",
    "containerheightmode": 1,
    "containerweight": 100,
    "contentalignment": 4,
    "desktopweb": {
        "placeholderSkin": "se881b7b34eb4e1bb82decfab9c35cfb"
    },
    "disabledSkins": {
        "focusSkin": "s227f630b9654ae58fba655b8d7722fb"
    },
    "id": "tbxRoleName",
    "info": null,
    "isvisible": true,
    "keyboardtype": "A",
    "kuid": "dc28ff5aee3749639a942b7ed1102544",
    "maxtextlength": 50,
    "mode": "A",
    "name": "kony.ui.TextBox2",
    "paddinginpixel": false,
    "parent": "flxCustRoleName",
    "pf": "frmBBCreateCustomRole",
    "placeholderi18n": "konybb.i18n.userMgmt.EnterRoleName",
    "placeholderskin": "se881b7b34eb4e1bb82decfab9c35cfb",
    "responsiveData": {
        "b4": {
            "disabledSkins": {
                "placeholderSkin": "se881b7b34eb4e1bb82decfab9c35cfb"
            }
        },
        "b5": {
            "disabledSkins": {
                "placeholderSkin": "se881b7b34eb4e1bb82decfab9c35cfb"
            }
        }
    },
    "securetextentry": false,
    "textinputmode": "A",
    "viewtype": "default",
    "wType": "TextField",
    "zindex": 1
}