{
    "APPLICATION_THEME": "default",
    "Appoinments": "true",
    "Contacts": "true",
    "DisableApplicationScreenshot": "false",
    "Documents_Library_Access": "true",
    "Enterprise_Authentication": "true",
    "Home_or_Work_Networking": "true",
    "ID_CAP_APPOINTMENTS": "true",
    "ID_CAP_CAMERA": "false",
    "ID_CAP_CONTACTS": "true",
    "ID_CAP_GAMERSERVICES": "true",
    "ID_CAP_IDENTITY_DEVICE": "true",
    "ID_CAP_IDENTITY_USER": "true",
    "ID_CAP_ISV_CAMERA": "true",
    "ID_CAP_LOCATION": "true",
    "ID_CAP_MEDIALIB": "true",
    "ID_CAP_MICROPHONE": "true",
    "ID_CAP_NETWORKING": "true",
    "ID_CAP_PHONEDIALER": "true",
    "ID_CAP_PUSH_NOTIFICATION": "true",
    "ID_CAP_SENSORS": "true",
    "ID_CAP_WEBBROWSERCOMPONENT": "true",
    "ID_HW_FRONTCAMERA": "false",
    "ID_REQ_FRONTCAMERA": "false",
    "ID_REQ_GYROSCOPE": "false",
    "ID_REQ_MAGNETOMETER": "false",
    "ID_REQ_NFC": "false",
    "ID_REQ_REARCAMERA": "false",
    "ID_RESOLUTION_HD720P": "true",
    "ID_RESOLUTION_WVGA": "true",
    "ID_RESOLUTION_WXGA": "true",
    "Internet(Client)": "true",
    "Internet(Client_AND_Server)": "true",
    "KonyPay": "false",
    "Location": "true",
    "Microphone": "true",
    "Music_Library": "true",
    "Pictures_Library_Access": "true",
    "Proximity": "true",
    "Removable_Storage": "true",
    "SELECTED_THEME": "default",
    "Server side mobile web": "false",
    "Shared_User_Certificate": "true",
    "Shared_User_Certificates": "true",
    "Text_Messaging": "true",
    "UseOpenSSLLibrary": "true",
    "UseOpenSSLLibraryandwear": "false",
    "UseSQLCipherFIPS": "true",
    "UseSQLCipherFIPSandwear": "false",
    "Videos_Library_Access": "true",
    "WP8_ID_CAP_APPOINTMENTS": "true",
    "WP8_ID_CAP_CONTACTS": "true",
    "WP8_ID_CAP_GAMERSERVICES": "false",
    "WP8_ID_CAP_IDENTITY_DEVICE": "true",
    "WP8_ID_CAP_IDENTITY_USER": "true",
    "WP8_ID_CAP_ISV_CAMERA": "true",
    "WP8_ID_CAP_LOCATION": "true",
    "WP8_ID_CAP_MAP": "true",
    "WP8_ID_CAP_MEDIALIB_AUDIO": "true",
    "WP8_ID_CAP_MEDIALIB_PHOTO": "true",
    "WP8_ID_CAP_MEDIALIB_PLAYBACK": "true",
    "WP8_ID_CAP_MICROPHONE": "true",
    "WP8_ID_CAP_NETWORKING": "true",
    "WP8_ID_CAP_PHONEDIALER": "true",
    "WP8_ID_CAP_PROXIMITY": "true",
    "WP8_ID_CAP_PUSH_NOTIFICATION": "true",
    "WP8_ID_CAP_REMOVABLE_STORAGE": "true",
    "WP8_ID_CAP_SENSORS": "true",
    "WP8_ID_CAP_SPEECH_RECOGNITION": "true",
    "WP8_ID_CAP_VOIP": "true",
    "WP8_ID_CAP_WALLET": "false",
    "WP8_ID_CAP_WALLET_PAYMENTINSTRUMENTS": "false",
    "WP8_ID_CAP_WALLET_SECUREELEMENT": "false",
    "WP8_ID_CAP_WEBBROWSERCOMPONENT": "true",
    "Webcam": "true",
    "_sys_use_consumer_push": "false",
    "access_internet": "true",
    "access_location_services": "false",
    "access_phone": "false",
    "access_pimdomain_calendars": "false",
    "access_pimdomain_contacts": "false",
    "access_pimdomain_messages": "false",
    "access_shared": "false",
    "access_sms_mms": "false",
    "addWatchBackgroundListenerToReceiveDataPayload": "false",
    "addWatchBackgroundListenerToReceiveDataPayloadAndWear": "false",
    "addWatchBackgroundListenerToReceiveMessagePayload": "false",
    "addWatchBackgroundListenerToReceiveMessagePayloadAndWear": "false",
    "allJoyn": "false",
    "allowselfsignedcertificate": "false",
    "andmaxsdkkey": "None",
    "andminsdkkey": "4.4 (19)",
    "androidInstallLocation": "Auto",
    "androidInstallLocnPref": "false",
    "android_allowselfsignedcertificates": "None",
    "androidloadindicatorkey": "true",
    "androidmapkey": "",
    "androidmapkey2": "",
    "androidorientation": "Device Default",
    "androidscreenanydensity": "true",
    "androidscreenextralarge": "true",
    "androidscreenlarge": "true",
    "androidscreennormal": "true",
    "androidscreenresizeable": "false",
    "androidscreensmall": "true",
    "androidwear_allowselfsignedcertificates": "None",
    "andtargetsdkkey": "4.4 (19)",
    "andwearapppackagekey": "com.konylabs.KonyOLB",
    "andwearappversioncode": "1",
    "andwearmaxsdkkey": "None",
    "andwearminsdkkey": "7.1 (25)",
    "andweartargetsdkkey": "7.1 (25)",
    "antialiaseddrawing": "false",
    "apmappload": "true",
    "apmapptransition": "true",
    "apmcrash": "true",
    "apmerrorunhandledexception": "true",
    "apmformEntry": "true",
    "apmformExit": "false",
    "apmgestureswipe": "false",
    "apmorientationchange": "false",
    "apmservicerequest": "false",
    "apmserviceresponse": "true",
    "apmtouchorclick": "false",
    "appaddrkey": "",
    "appidkey": "OnlineBanking",
    "appiniteventkey": "None",
    "applepushfunc": "None",
    "apploadeventkey": "None",
    "applogokey": "",
    "appmenu": {
        "context": {
            "channel": "mobile",
            "platform": "iphone"
        },
        "desktop": {
            "data": [
                {
                    "icon": {
                        "default": "option1.png"
                    },
                    "id": "appmenuitemid1",
                    "kuid": "ba14b3a2b4e54798b5572b9b0b1011a2",
                    "title": "Item 1"
                },
                {
                    "icon": {
                        "default": "option2.png"
                    },
                    "id": "appmenuitemid2",
                    "kuid": "dce3d7aa252240d7a34a0a8704b855e6",
                    "title": "Item 2"
                },
                {
                    "icon": {
                        "default": "option3.png"
                    },
                    "id": "appmenuitemid3",
                    "kuid": "c530e902baac4cf0901b9ccba60c42a4",
                    "title": "Item 3"
                },
                {
                    "icon": {
                        "default": "option4.png"
                    },
                    "id": "appmenuitemid4",
                    "kuid": "de8747f37ef541ef9ba12e094f8892c0",
                    "title": "Item 4"
                }
            ]
        },
        "focusSkin": null,
        "focusskin": null,
        "mobile": {
            "data": [
                {
                    "android": {
                        "showAsFlag": 0
                    },
                    "icon": {
                        "default": "option1.png"
                    },
                    "id": "appmenuitemid1",
                    "kuid": "afb1e431b5df4f2f8862b3fabe3f9237",
                    "title": "Item 1"
                },
                {
                    "android": {
                        "showAsFlag": 0
                    },
                    "icon": {
                        "default": "option2.png"
                    },
                    "id": "appmenuitemid2",
                    "kuid": "a9511640bd7741d88ab93415a7fbb725",
                    "title": "Item 2"
                },
                {
                    "android": {
                        "showAsFlag": 0
                    },
                    "icon": {
                        "default": "option3.png"
                    },
                    "id": "appmenuitemid3",
                    "kuid": "b548b1592a294bfc92fbb3d5c9e4a7a3",
                    "title": "Item 3"
                },
                {
                    "android": {
                        "showAsFlag": 0
                    },
                    "icon": {
                        "default": "option4.png"
                    },
                    "id": "appmenuitemid4",
                    "kuid": "ca263c8df2234de1aba01211b206e342",
                    "title": "Item 4"
                }
            ]
        },
        "osPlatform": "",
        "osVersion": "iOS7",
        "skin": null,
        "tablet": {
            "data": [
                {
                    "android": {
                        "showAsFlag": 0
                    },
                    "icon": {
                        "default": "option1.png"
                    },
                    "id": "appmenuitemid1",
                    "kuid": "i8a19d69490340a5b2b3b5cb1c520ab2",
                    "title": "Item 1",
                    "windows8": {
                        "appBarButtonStyle": "No Style",
                        "position": "BOTTOM_LEFT"
                    }
                },
                {
                    "android": {
                        "showAsFlag": 0
                    },
                    "icon": {
                        "default": "option2.png"
                    },
                    "id": "appmenuitemid2",
                    "kuid": "je5c9da9160841ee9d48be1a862dd495",
                    "title": "Item 2",
                    "windows8": {
                        "appBarButtonStyle": "No Style",
                        "position": "BOTTOM_LEFT"
                    }
                },
                {
                    "android": {
                        "showAsFlag": 0
                    },
                    "icon": {
                        "default": "option3.png"
                    },
                    "id": "appmenuitemid3",
                    "kuid": "cabd88276df843c0b110106cff00154d",
                    "title": "Item 3",
                    "windows8": {
                        "appBarButtonStyle": "No Style",
                        "position": "BOTTOM_LEFT"
                    }
                },
                {
                    "android": {
                        "showAsFlag": 0
                    },
                    "icon": {
                        "default": "option4.png"
                    },
                    "id": "appmenuitemid4",
                    "kuid": "e03a4e0049234de8b9d359e068abc75f",
                    "title": "Item 4",
                    "windows8": {
                        "appBarButtonStyle": "No Style",
                        "position": "BOTTOM_LEFT"
                    }
                }
            ]
        },
        "wType": "Appmenu"
    },
    "appnamekey": "KonyOnlineBanking",
    "appointments": "false",
    "apppackagekey": "com.orgname.KonyOLB",
    "apptitle": "",
    "appversioncode": "1",
    "appversionkey": "21.04.0",
    "backgroundMediaPlayback": "false",
    "backgroundmodes": "Disabled",
    "backward_compatibility_mode": "false",
    "baseTarget": "_blank",
    "bb10author": "",
    "bb10authorid": "",
    "bb10buildid": "",
    "bb10description": "",
    "bb10keystorepassword": "",
    "bb10orientationmode": "Default",
    "bb10packageid": "",
    "bb10theme": "Default",
    "bb10urlscheme": "",
    "bb10versionnumber": "",
    "bbserviceidentifierpattern": "",
    "bbservicemenuitemlabel": "",
    "bgcolorkey": "255,255,255",
    "blockedChatMessages": "false",
    "bluetooth": "false",
    "build": "debug",
    "buildExclusion": {},
    "buildWarCompatability": "false",
    "build_gradle_attrs_prefix": "",
    "build_gradle_attrs_prefix_andwear": "",
    "build_gradle_attrs_suffix": "",
    "build_gradle_attrs_suffix_andwear": "",
    "buttonAsLabel": true,
    "camerasettings": "",
    "category": "app",
    "certs_key_store_pwd": "kds/0eUc+i3BqFqSkpCk4g==",
    "certs_key_store_type": "JKS",
    "certs_ssl_algorithm": "TLS",
    "certs_trust_store_pwd": "kds/0eUc+i3BqFqSkpCk4g==",
    "certs_trust_store_type": "JKS",
    "chat": "false",
    "cloud_account_guid": "8f30d362-3355-49a7-93a5-7d6310ca5746",
    "cloud_account_id": "100026484",
    "cloud_config_ipaddress_list": "",
    "cloud_env_GUID": "a96c5669-3d6b-45c3-853d-e9838b3437eb",
    "cloud_env_name": "Apps - Digital Banking 6-dbxlendinguat",
    "cloud_http_redirect": "false",
    "cloud_selected_ipaddress_list": "",
    "cloud_url": "https://dbxlendinguat.konycloud.com",
    "cloud_web_xml_custom_filters": "",
    "cloud_web_xml_custom_listeners": "",
    "cloud_web_xml_custom_mappings": "",
    "cloud_web_xml_custom_others": "",
    "codeGeneration": "false",
    "contacts": "false",
    "cordovaModified": false,
    "cordovaVersionInfo": {
        "useGlobalCordova": false
    },
    "createdVizVersion": "7.3.0",
    "createdgaversion": "7.3.0",
    "currentgaversion": "9.2.7",
    "deeplinkkey": "None",
    "defaultZIndex": "1",
    "defaultlocalekey": "en_US",
    "defaulttheme": "defaultTheme",
    "desktopstartupformkey": "d6328cf267c248a6b559c500d837ea14",
    "desktopwebaligenmentoption": "left",
    "desktopwebbasefontsize": "12",
    "desktopwebfavico": "",
    "desktopwebmanifestjson": "",
    "desktopwebnoscriptmessage": "To use this site, first enable your browser's JavaScript support and then refresh this page.",
    "desktopwebtitle": "",
    "desktopwebwidthoption": "Percentage",
    "desktopwebwidthval": "100",
    "deviceexception": "Unknown Error Occurred <br/> Contact System Admin",
    "devicemsg": "This device is currently not supported",
    "disablehttpskey": "false",
    "enableAwssdk": "false",
    "enableCordova": false,
    "enableIdForAutomation": false,
    "enableMVCExtensions": true,
    "enableOfflineObjects": "false",
    "enableOfflineObjectsDW": "false",
    "enableOfflineObjectsSpa": "false",
    "enableProgressiveWeb": false,
    "enablePushNotificationsDW": false,
    "enableResponsive": true,
    "enableServiceWorker": false,
    "enableServiceWorkerHelper": false,
    "enableViewportZooming": true,
    "enableWindowsOfflineObjectsForWebApp": false,
    "enableWindowsRuntimeForWebApp": false,
    "enableactionbar": false,
    "enableasyncdesktopweb": true,
    "enableasyncspa": false,
    "enableautomaticeventcap": "true",
    "enablecharts2d3diphone": "false",
    "enablefileupload": "false",
    "enablefocushtml5iphonbb": "false",
    "enablelocalnotifications": "false",
    "enablelocalnotificationsandroidwear": "false",
    "enablesearchbar": "false",
    "enablesearchbarandwear": "false",
    "enableseo": "false",
    "enableserverevents": false,
    "enablesso": false,
    "enablexfsdw": true,
    "enablexfsspa": false,
    "encryptionofsqlite": false,
    "enterpriseAuthentication": "false",
    "exceptionalert": "true",
    "extendBottom": "false",
    "extendTop": "false",
    "fabric_runtime_app_version": "Linked",
    "fbxfolderpathkey": "",
    "fcmsenderid": "",
    "fgcolorkey": "255,255,255",
    "generateJavaCodeForForms": "false",
    "genericexceptionalert": "false",
    "gradle_properties_attrs": "",
    "gradle_properties_attrs_andwear": "",
    "hiddenAppGroups": {},
    "hostkey": "",
    "hostkey_andwear": "",
    "htmlheadscripttagsdesktopweb": "",
    "ide_appEvents": {
        "desktop": {
            "deeplink": "AS_AppEvents_i81ca284166540a1bac00706c79bffbc",
            "postappinit": "AS_AppEvents_c46982b2ddb840c8968e3d128fb49d07",
            "preappinit": "AS_AppEvents_f5dafde5e96a4991ae16f91a08b8a8bc"
        }
    },
    "imagewhendownloading": "",
    "initialRotationPreferenceKey": "landscape",
    "inputaccessoryviewtype": "nextprevtoolbar",
    "internetClient": "false",
    "internetClientServer": "false",
    "ioscheckboxcorrection": "true",
    "iospopuptransitioncorrection": "true",
    "iosrespectimagesizecorrection": "true",
    "iostextboxpaddingcorrection": "true",
    "ipad_appicon_1x_76": "",
    "ipad_appicon_2x_76": "",
    "ipad_notificationicon_1x_20": "",
    "ipad_notificationicon_2x_20": "",
    "ipad_proappicon_2x_83Point5": "",
    "ipad_settingsicon_1x_29": "",
    "ipad_settingsicon_2x_29": "",
    "ipad_spotlighticon_1x_40": "",
    "ipad_spotlighticon_2x_40": "",
    "ipadlandscapemodekey": "false",
    "ipadlaunchmodekey": "Portrait",
    "ipadportraitmodekey": "true",
    "iphone_appicon_2x_60": "",
    "iphone_appicon_3x_60": "",
    "iphone_notificationicon_2x_20": "",
    "iphone_notificationicon_3x_20": "",
    "iphone_spotlighticon_2x_29": "",
    "iphone_spotlighticon_2x_40": "",
    "iphone_spotlighticon_3x_29": "",
    "iphone_spotlighticon_3x_40": "",
    "iphonebundleidentifierkey": "com.kony.KonyOLB",
    "iphonebundleversionkey": "1.0.0",
    "iphoneipad_appstoreicon_1x_1024": "",
    "iphoneipadglossyeffectkey": "false",
    "iphoneloadindicatorkey": "true",
    "iphoneurlscheme": "",
    "iphonewebshrtcutkey": "",
    "isA11yConfigEnabled": true,
    "isCrittercismEnabled": "true",
    "isDeveloperMode": "true",
    "isDpScaleFactor": true,
    "isEASAppUpgradable": false,
    "isI18nConfigEnabled": true,
    "isI18nLayoutConfigEnabled": false,
    "isLibraryBuild": "false",
    "isMVC": true,
    "isNewAppWithRespectToAndroidPackageName": "",
    "isNewAppWithRespectToAndroidWearPackageName": "true",
    "isScreenShotDisabledForTestReports": true,
    "keyAlias": "",
    "keyAliasandwear": "",
    "keyPassword": "",
    "keyPasswordandwear": "",
    "keyStoreFilePath": "",
    "keyStoreFilePathandwear": "",
    "keyStorePassword": "",
    "keyStorePasswordandwear": "",
    "kfAppInfo": {
        "01f20a1c-efa5-4b02-b588-740193f47b07": {
            "baseId": "0e9ffc04-4666-4465-bd9d-bfe1db49b025",
            "id": "0e9ffc04-4666-4465-bd9d-bfe1db49b025",
            "version": "1.0"
        },
        "04d698fb-be72-41c3-b018-65b15a3daabd": {
            "baseId": "72cc8c4c-8baf-44e5-9587-4b140c433c66",
            "id": "72cc8c4c-8baf-44e5-9587-4b140c433c66",
            "version": "1.0"
        },
        "0baf8308-2387-4809-8c48-8bbb303dab3b": {
            "appName": "DbpLocalServices",
            "baseId": "5ca0d383-4f49-4155-8d16-5c795fdf3eda",
            "id": "5ca0d383-4f49-4155-8d16-5c795fdf3eda",
            "version": "1.0"
        },
        "147abad9-e5d0-4108-ab0b-70743455dc49": {
            "appName": "DbpLocalServices",
            "baseId": "c9b4ff10-2d9a-4e37-b0ff-29de60569574",
            "id": "c9b4ff10-2d9a-4e37-b0ff-29de60569574",
            "version": "1.0"
        },
        "467052fb-9578-4b42-a84b-1f8e2f48486c": {
            "appName": "DbpLocalServices",
            "baseId": "6c362f95-08ab-4b2f-bc3a-e4c4955925ff",
            "id": "6c362f95-08ab-4b2f-bc3a-e4c4955925ff",
            "version": "1.0"
        },
        "5a54a845-a7b3-4bda-af77-ab6c3c8d89d3": {
            "appName": "DbpLocalServices",
            "baseId": "5c0d7f5a-6178-40d0-9e8b-74e021337327",
            "id": "5c0d7f5a-6178-40d0-9e8b-74e021337327",
            "version": "1.0"
        },
        "6a43972d-f770-4ce5-89ce-202816fc4274": {
            "appName": "DbpLocalServices",
            "baseId": "31fbe9f7-8cea-4d30-82a5-25537b25059f",
            "id": "31fbe9f7-8cea-4d30-82a5-25537b25059f",
            "version": "1.0"
        },
        "8f30d362-3355-49a7-93a5-7d6310ca5746": {
            "appName": "DbpLocalServices",
            "baseId": "9555b15d-897c-4a06-97e1-894b179e4145",
            "id": "9555b15d-897c-4a06-97e1-894b179e4145",
            "version": "1.0"
        },
        "b8ee081b-5a56-4254-b618-502d0f036f98": {
            "baseId": "93858ecc-c56f-461a-9996-76f389c621e9",
            "id": "93858ecc-c56f-461a-9996-76f389c621e9",
            "version": "1.0"
        },
        "bbd2d2b7-f8b9-42f6-9fa1-30f93aad0ab0": {
            "appName": "DbpLocalServices",
            "baseId": "948b9ce3-c68c-4115-a9d7-d22eefabd419",
            "id": "948b9ce3-c68c-4115-a9d7-d22eefabd419",
            "version": "1.0"
        },
        "bdb494c7-13fc-4608-bc10-a5d7b84f5db9": {
            "appName": "DbpLocalServices",
            "baseId": "865b8ae2-e71d-4601-baee-d47b2cdaa04e",
            "id": "865b8ae2-e71d-4601-baee-d47b2cdaa04e",
            "version": "1.0"
        }
    },
    "konyVizVersion": "9.2.7",
    "lastmodifiedtime": "1567491224164",
    "location": "false",
    "log_level": "ERROR",
    "mangoapptitlekey": ",,,,,,",
    "mapkey": "AIzaSyDqt4A_lqDoGVNPhYO6PprAslcs7sHl3a8",
    "marginsincludedinwidgetcontainerweight": "true",
    "mastersProperties": {
        "mastersVersion": "2.0.0"
    },
    "metatags": "",
    "microphone": "false",
    "musicLibrary": "false",
    "mwaddrkey": "",
    "mwcontextkey": "",
    "mwhttpsportkey": "",
    "mwportkey": "",
    "objects3D": "false",
    "organizationidsso": "",
    "passwordkey": "kds/0eUc+i3BqFqSkpCk4g==",
    "pasteboardtype": "systemlevel",
    "pathkey": "",
    "pathkey_andwear": "",
    "pathpatternkey": "",
    "pathpatternkey_andwear": "",
    "pathprefixkey": "",
    "pathprefixkey_andwear": "",
    "permissions": {
        "android": {
            "ACCESS_CHECKIN_PROPERTIES": "false",
            "ACCESS_COARSE_LOCATION": "false",
            "ACCESS_FINE_LOCATION": "false",
            "ACCESS_LOCATION_EXTRA_COMMANDS": "false",
            "ACCESS_MOCK_LOCATION": "false",
            "ACCESS_NETWORK_STATE": "true",
            "ACCESS_SURFACE_FLINGER": "false",
            "ACCESS_WIFI_STATE": "false",
            "ACCOUNT_MANAGER": "false",
            "AUTHENTICATE_ACCOUNTS": "false",
            "BATTERY_STATS": "false",
            "BIND_APPWIDGET": "false",
            "BIND_DEVICE_ADMIN": "false",
            "BIND_INPUT_METHOD": "false",
            "BIND_REMOTEVIEWS": "false",
            "BIND_WALLPAPER": "false",
            "BLUETOOTH": "false",
            "BLUETOOTH_ADMIN": "false",
            "BRICK": "false",
            "BROADCAST_PACKAGE_REMOVED": "false",
            "BROADCAST_SMS": "false",
            "BROADCAST_STICKY": "false",
            "BROADCAST_WAP_PUSH": "false",
            "CALL_PHONE": "false",
            "CALL_PRIVILEGED": "false",
            "CAMERA": "false",
            "CHANGE_COMPONENT_ENABLED_STATE": "false",
            "CHANGE_CONFIGURATION": "false",
            "CHANGE_NETWORK_STATE": "false",
            "CHANGE_WIFI_MULTICAST_STATE": "false",
            "CHANGE_WIFI_STATE": "false",
            "CLEAR_APP_CACHE": "false",
            "CLEAR_APP_USER_DATA": "false",
            "CONTROL_LOCATION_UPDATES": "false",
            "DELETE_CACHE_FILES": "false",
            "DELETE_PACKAGES": "false",
            "DEVICE_POWER": "false",
            "DIAGNOSTIC": "false",
            "DISABLE_KEYGUARD": "false",
            "DUMP": "false",
            "EXPAND_STATUS_BAR": "false",
            "FACTORY_TEST": "false",
            "FLASHLIGHT": "false",
            "FORCE_BACK": "false",
            "GET_ACCOUNTS": "false",
            "GET_PACKAGE_SIZE": "false",
            "GET_TASKS": "false",
            "GLOBAL_SEARCH": "false",
            "HARDWARE_TEST": "false",
            "INJECT_EVENTS": "false",
            "INSTALL_LOCATION_PROVIDER": "false",
            "INSTALL_PACKAGES": "false",
            "INTERNAL_SYSTEM_WINDOW": "false",
            "INTERNET": "true",
            "KILL_BACKGROUND_PROCESSES": "false",
            "MANAGE_ACCOUNTS": "false",
            "MANAGE_APP_TOKENS": "false",
            "MASTER_CLEAR": "false",
            "MODIFY_AUDIO_SETTINGS": "false",
            "MODIFY_PHONE_STATE": "false",
            "MOUNT_FORMAT_FILESYSTEMS": "false",
            "MOUNT_UNMOUNT_FILESYSTEMS": "false",
            "NFC": "false",
            "PERSISTENT_ACTIVITY": "false",
            "PROCESS_OUTGOING_CALLS": "false",
            "READ_CALENDAR": "false",
            "READ_CONTACTS": "false",
            "READ_FRAME_BUFFER": "false",
            "READ_HISTORY_BOOKMARKS": "false",
            "READ_INPUT_STATE": "false",
            "READ_LOGS": "false",
            "READ_PHONE_STATE": "true",
            "READ_SMS": "false",
            "READ_SYNC_SETTINGS": "false",
            "READ_SYNC_STATS": "false",
            "REBOOT": "false",
            "RECEIVE_BOOT_COMPLETED": "false",
            "RECEIVE_MMS": "false",
            "RECEIVE_SMS": "false",
            "RECEIVE_WAP_PUSH": "false",
            "RECORD_AUDIO": "false",
            "REORDER_TASKS": "false",
            "RESTART_PACKAGES": "false",
            "SEND_SMS": "false",
            "SET_ACTIVITY_WATCHER": "false",
            "SET_ALARM": "false",
            "SET_ALWAYS_FINISH": "false",
            "SET_ANIMATION_SCALE": "false",
            "SET_DEBUG_APP": "false",
            "SET_ORIENTATION": "false",
            "SET_PREFERRED_APPLICATIONS": "false",
            "SET_PROCESS_LIMIT": "false",
            "SET_TIME": "false",
            "SET_TIME_ZONE": "false",
            "SET_WALLPAPER": "false",
            "SET_WALLPAPER_HINTS": "false",
            "SIGNAL_PERSISTENT_PROCESSES": "false",
            "STATUS_BAR": "false",
            "SUBSCRIBED_FEEDS_READ": "false",
            "SUBSCRIBED_FEEDS_WRITE": "false",
            "SYSTEM_ALERT_WINDOW": "false",
            "UPDATE_DEVICE_STATS": "false",
            "USE_CREDENTIALS": "false",
            "USE_FINGERPRINT": "false",
            "USE_SIP": "false",
            "VIBRATE": "false",
            "WAKE_LOCK": "false",
            "WRITE_APN_SETTINGS": "false",
            "WRITE_CALENDAR": "false",
            "WRITE_CONTACTS": "false",
            "WRITE_EXTERNAL_STORAGE": "false",
            "WRITE_GSERVICES": "false",
            "WRITE_HISTORY_BOOKMARKS": "false",
            "WRITE_SECURE_SETTINGS": "false",
            "WRITE_SETTINGS": "false",
            "WRITE_SMS": "false",
            "WRITE_SYNC_SETTINGS": "false"
        },
        "androidwear": {
            "ACCESS_CHECKIN_PROPERTIES": "false",
            "ACCESS_COARSE_LOCATION": "false",
            "ACCESS_FINE_LOCATION": "false",
            "ACCESS_LOCATION_EXTRA_COMMANDS": "false",
            "ACCESS_MOCK_LOCATION": "false",
            "ACCESS_NETWORK_STATE": "true",
            "ACCESS_SURFACE_FLINGER": "false",
            "ACCESS_WIFI_STATE": "false",
            "ACCOUNT_MANAGER": "false",
            "AUTHENTICATE_ACCOUNTS": "false",
            "BATTERY_STATS": "false",
            "BIND_APPWIDGET": "false",
            "BIND_DEVICE_ADMIN": "false",
            "BIND_INPUT_METHOD": "false",
            "BIND_REMOTEVIEWS": "false",
            "BIND_WALLPAPER": "false",
            "BLUETOOTH": "false",
            "BLUETOOTH_ADMIN": "false",
            "BRICK": "false",
            "BROADCAST_PACKAGE_REMOVED": "false",
            "BROADCAST_SMS": "false",
            "BROADCAST_STICKY": "false",
            "BROADCAST_WAP_PUSH": "false",
            "CALL_PHONE": "false",
            "CALL_PRIVILEGED": "false",
            "CAMERA": "false",
            "CHANGE_COMPONENT_ENABLED_STATE": "false",
            "CHANGE_CONFIGURATION": "false",
            "CHANGE_NETWORK_STATE": "false",
            "CHANGE_WIFI_MULTICAST_STATE": "false",
            "CHANGE_WIFI_STATE": "false",
            "CLEAR_APP_CACHE": "false",
            "CLEAR_APP_USER_DATA": "false",
            "CONTROL_LOCATION_UPDATES": "false",
            "DELETE_CACHE_FILES": "false",
            "DELETE_PACKAGES": "false",
            "DEVICE_POWER": "false",
            "DIAGNOSTIC": "false",
            "DISABLE_KEYGUARD": "false",
            "DUMP": "false",
            "EXPAND_STATUS_BAR": "false",
            "FACTORY_TEST": "false",
            "FLASHLIGHT": "false",
            "FORCE_BACK": "false",
            "GET_ACCOUNTS": "false",
            "GET_PACKAGE_SIZE": "false",
            "GET_TASKS": "false",
            "GLOBAL_SEARCH": "false",
            "HARDWARE_TEST": "false",
            "INJECT_EVENTS": "false",
            "INSTALL_LOCATION_PROVIDER": "false",
            "INSTALL_PACKAGES": "false",
            "INTERNAL_SYSTEM_WINDOW": "false",
            "INTERNET": "true",
            "KILL_BACKGROUND_PROCESSES": "false",
            "MANAGE_ACCOUNTS": "false",
            "MANAGE_APP_TOKENS": "false",
            "MASTER_CLEAR": "false",
            "MODIFY_AUDIO_SETTINGS": "false",
            "MODIFY_PHONE_STATE": "false",
            "MOUNT_FORMAT_FILESYSTEMS": "false",
            "MOUNT_UNMOUNT_FILESYSTEMS": "false",
            "NFC": "false",
            "PERSISTENT_ACTIVITY": "false",
            "PROCESS_OUTGOING_CALLS": "false",
            "READ_CALENDAR": "false",
            "READ_CONTACTS": "false",
            "READ_FRAME_BUFFER": "false",
            "READ_HISTORY_BOOKMARKS": "false",
            "READ_INPUT_STATE": "false",
            "READ_LOGS": "false",
            "READ_PHONE_STATE": "true",
            "READ_SMS": "false",
            "READ_SYNC_SETTINGS": "false",
            "READ_SYNC_STATS": "false",
            "REBOOT": "false",
            "RECEIVE_BOOT_COMPLETED": "false",
            "RECEIVE_MMS": "false",
            "RECEIVE_SMS": "false",
            "RECEIVE_WAP_PUSH": "false",
            "RECORD_AUDIO": "false",
            "REORDER_TASKS": "false",
            "RESTART_PACKAGES": "false",
            "SEND_SMS": "false",
            "SET_ACTIVITY_WATCHER": "false",
            "SET_ALARM": "false",
            "SET_ALWAYS_FINISH": "false",
            "SET_ANIMATION_SCALE": "false",
            "SET_DEBUG_APP": "false",
            "SET_ORIENTATION": "false",
            "SET_PREFERRED_APPLICATIONS": "false",
            "SET_PROCESS_LIMIT": "false",
            "SET_TIME": "false",
            "SET_TIME_ZONE": "false",
            "SET_WALLPAPER": "false",
            "SET_WALLPAPER_HINTS": "false",
            "SIGNAL_PERSISTENT_PROCESSES": "false",
            "STATUS_BAR": "false",
            "SUBSCRIBED_FEEDS_READ": "false",
            "SUBSCRIBED_FEEDS_WRITE": "false",
            "SYSTEM_ALERT_WINDOW": "false",
            "UPDATE_DEVICE_STATS": "false",
            "USE_CREDENTIALS": "false",
            "USE_FINGERPRINT": "false",
            "USE_SIP": "false",
            "VIBRATE": "false",
            "WAKE_LOCK": "false",
            "WRITE_APN_SETTINGS": "false",
            "WRITE_CALENDAR": "false",
            "WRITE_CONTACTS": "false",
            "WRITE_EXTERNAL_STORAGE": "false",
            "WRITE_GSERVICES": "false",
            "WRITE_HISTORY_BOOKMARKS": "false",
            "WRITE_SECURE_SETTINGS": "false",
            "WRITE_SETTINGS": "false",
            "WRITE_SMS": "false",
            "WRITE_SYNC_SETTINGS": "false"
        }
    },
    "phantompath": "",
    "phoneCall": "false",
    "picturesLibrary": "false",
    "portkey": "",
    "portkey_andwear": "",
    "post_notification": "false",
    "previewshowpassword": "false",
    "privateNetworkClientServer": "false",
    "project.type": "js",
    "project_version": "sprint39",
    "protectedmodeenabled_android": "false",
    "protectedmodeenabled_androidwear": "false",
    "protectedmodeenabled_ios": "false",
    "prototype": {},
    "proximity": "false",
    "pushcertificatetype": "",
    "rcringtonedatakey": "",
    "read_device_identifying_information": "false",
    "referenceWidth": "375",
    "registerForDeepLink": {
        "androidwear": false,
        "desktop": false,
        "mobile": false,
        "tablet": false,
        "watch": false
    },
    "remoteSystem": "false",
    "removableStorage": "false",
    "schemekey": "",
    "schemekey_andwear": "",
    "secondarytilefunctionkey": "None",
    "seoconfigfilepath": "",
    "serviceworkerfile": "",
    "serviceworkerhelperfile": "",
    "sessionmanager": "Http Session Manager",
    "settings_gradle_attrs": "",
    "settings_gradle_attrs_andwear": "",
    "sharedUserCertificates": "false",
    "sitemapxmlpath": "",
    "spaandroidtab1024basefontsize": "12",
    "spaandroidtab1280basefontsize": "12",
    "spaandroidtab800basefontsize": "12",
    "spaandroidtabbasefontsize": "12",
    "spaipadbasefontsize": "12",
    "spamanifestjson": "",
    "spawindows320basefontsize": "12",
    "spawindows480basefontsize": "12",
    "spawindowstabbasefontsize": "12",
    "splashlogokey": "",
    "startupformkey": "f81c16a5678f4fca8d8e85ff31eccfbb",
    "statusBarHidden": "false",
    "statusBarStyle": "STATUS_BAR_STYLE_DEFAULT",
    "studiovizproject": "true",
    "support64bitandwear": "false",
    "supportX86Devices": "true",
    "supportX86Devicesandwear": "false",
    "tags": {
        "android": {
            "activity_child_tags": "",
            "activityattrs": "",
            "andapplicationattrs": "",
            "andapplicationtags": "",
            "andmanifesttags": "",
            "manifest_tag_attrs": ""
        },
        "androidwear": {
            "activity_child_tags_andwear": "",
            "activityattrs_andwear": "",
            "andwearapplicationattrs": "",
            "andwearapplicationtags": "",
            "andwearmanifesttags": "",
            "manifest_tag_attrs_andwear": ""
        }
    },
    "tcandroid240basefontsize": "12",
    "tcandroid320basefontsize": "12",
    "tcandroid360basefontsize": "12",
    "tcandroid400basefontsize": "12",
    "tcandroid440basefontsize": "12",
    "tcandroid480basefontsize": "12",
    "tcandroid640basefontsize": "12",
    "tcbb240basefontsize": "12",
    "tcbb320basefontsize": "12",
    "tcbb360basefontsize": "12",
    "tcbb400basefontsize": "12",
    "tcbb440basefontsize": "12",
    "tcbb480basefontsize": "12",
    "tcimportedjsfileskey": "",
    "tciphonebasefontsize": "12",
    "tcnoscriptmessage": "To use this site, first enable your browser's JavaScript support and then refresh this page.",
    "tcphoneformatindicator": "false",
    "tcrequiresGPSfuctionality": "false",
    "thinwebcontextkey": "",
    "tileUpdateRecurrenceKey": "",
    "universallinksupport": "",
    "urlschemanameorder": "",
    "urlschemanameorder_andwear": "",
    "useWatchCommunicationApis": "false",
    "useWatchCommunicationApisAndWear": "false",
    "use_camera": "false",
    "usegoogleplaylocationservices": "false",
    "usegoogleplaylocationservicesandwear": "false",
    "userAccountInformation": "false",
    "userNotificationListener": "false",
    "useridkey": "",
    "usevizactions": "false",
    "vendornamekey": "KonyLabs",
    "videosLibrary": "false",
    "voipCall": "false",
    "wap_android240_fontsize": "12",
    "wap_android320_fontsize": "12",
    "wap_android360_fontsize": "12",
    "wap_android400_fontsize": "12",
    "wap_android440_fontsize": "12",
    "wap_android480_fontsize": "12",
    "wap_android640_fontsize": "12",
    "wap_bb240_fontsize": "12",
    "wap_bb320_fontsize": "12",
    "wap_bb360_fontsize": "12",
    "wap_bb400_fontsize": "12",
    "wap_bb440_fontsize": "12",
    "wap_bb480_fontsize": "12",
    "wap_ip_fontsize": "12",
    "wap_spaandroidtab_fontsize": "12",
    "wap_spaandroidtabhdpi_fontsize": "12",
    "wap_spaandroidtabldpi_fontsize": "12",
    "wap_spaandroidtabmdpi_fontsize": "12",
    "wap_spaipad_fontsize": "12",
    "wap_spawindowstab_fontsize": "12",
    "wap_winphone320_fontsize": "12",
    "wap_winphone480_fontsize": "12",
    "watchos_companionSettings2x29": "",
    "watchos_companionSettings3x29": "",
    "watchos_homeScreen40": "",
    "watchos_longlooknotificationicon_38": "",
    "watchos_longlooknotificationicon_42": "",
    "watchos_notificationcentericon_38": "",
    "watchos_notificationcentericon_42": "",
    "watchos_shortlooknotificationicon_38": "",
    "watchos_shortlooknotificationicon_42": "",
    "watchos_shortlooknotificationicon_44": "",
    "watchos_watchMarketing1x": "",
    "webLibraryMode": "css",
    "webcam": "false",
    "win10bgagentclassname": "",
    "win10bgagentnamespace": "",
    "win10bgagentpath": "",
    "win10bgagenttaskname": "",
    "win10pfxkey": "",
    "win6xj2meonlysupported": "false",
    "win8applogokey": "",
    "win8badgelogokey": "",
    "win8bgagentclassname": "",
    "win8bgagentnamespace": "",
    "win8bgagentpath": "",
    "win8bgagenttaskname": "",
    "win8certificatekey": "",
    "win8descriptionkey": "Sample Test Application",
    "win8displaynamekey": "KonyOLB",
    "win8enablecrashlogkey": "false",
    "win8lockscreennotificationskey": "Not set",
    "win8packagedisplaynamekey": "KonyOLB",
    "win8packagelogokey": "",
    "win8packagenamekey": "KonyOLB",
    "win8packagepublichernamekey": "Kony",
    "win8publisherdisplaynamekey": "KonyLabs",
    "win8pvkkey": "",
    "win8shortnamekey": "KonyOLB",
    "win8shownamekey": "Not set",
    "win8smalllogokey": "",
    "win8toastcapablekey": "Not set",
    "win8versionbuildkey": "0",
    "win8versionmajorkey": "1",
    "win8versionminorkey": "0",
    "win8versionrevisionkey": "0",
    "win8widelogokey": "",
    "winDisableApplicationScreenshot": "false",
    "windesktop_allowselfsignedcertificate": "None",
    "windesktop_disableapplicationminimize": "false",
    "windesktop_enableBackwardCompatibility": "false",
    "windows10guid": "",
    "windowskioskguid": "",
    "windowsloadindicatorkey": "true",
    "windowsmapkey": "",
    "winenablecrashlogkey": "false",
    "winmangotiletitlekey": "KonyOLB",
    "winmobileguidkey": "",
    "winmobiletileimagekey": "",
    "winphn10bgagentclassname": "",
    "winphn10bgagentnamespace": "",
    "winphn10bgagentpath": "",
    "winphn10bgagenttaskname": "",
    "winphn81bgagentclassname": "",
    "winphn81bgagentnamespace": "",
    "winphn81bgagentpath": "",
    "winphn8bgagentclassname": "",
    "winphn8bgagentnamespace": "",
    "winphn8bgagentpath": "",
    "winphone_allowselfsignedcertificate": "None",
    "winphoneurlscheme": "",
    "winsmoothscrollkey": "true",
    "wintab_allowselfsignedcertificate": "None",
    "wintaburlscheme": "",
    "wintilebackcolornamekey": "128,128,128",
    "wintileforegroundnamekey": "Light",
    "wp10allJoyn": "false",
    "wp10applogokey": "",
    "wp10appointments": "false",
    "wp10backgroundMediaPlayback": "false",
    "wp10badgelogokey": "",
    "wp10blockedChatMessages": "false",
    "wp10bluetooth": "false",
    "wp10chat": "false",
    "wp10codeGeneration": "false",
    "wp10contacts": "false",
    "wp10descriptionkey": "Sample Test Application",
    "wp10displayname": "KonyOLB",
    "wp10enablecrashlogkey": "false",
    "wp10enterpriseAuthentication": "false",
    "wp10initialRotationPreferenceKey": "landscape",
    "wp10internetClient": "false",
    "wp10internetClientServer": "false",
    "wp10location": "false",
    "wp10lockscreennotificationskey": "Not set",
    "wp10microphone": "false",
    "wp10musicLibrary": "false",
    "wp10objects3D": "false",
    "wp10packagedisplaynamekey": "KonyOLB",
    "wp10packagelogokey": "",
    "wp10packagenamekey": "KonyOLB",
    "wp10packagepublichernamekey": "KonyLabs",
    "wp10pfxkey": "",
    "wp10phoneCall": "false",
    "wp10picturesLibrary": "false",
    "wp10privateNetworkClientServer": "false",
    "wp10proximity": "false",
    "wp10publisherdisplaynamekey": "",
    "wp10remoteSystem": "false",
    "wp10removableStorage": "false",
    "wp10sharedUserCertificates": "false",
    "wp10shortnamekey": "KonyOLB",
    "wp10shownamekey": "Not set",
    "wp10smalllogokey": "",
    "wp10tileUpdateRecurrenceKey": "",
    "wp10tilebackcolornamekey": "128,128,128",
    "wp10tileforegroundnamekey": "Light",
    "wp10toastcapablekey": "Not set",
    "wp10userAccountInformation": "false",
    "wp10userNotificationListener": "false",
    "wp10versionbuildkey": "0",
    "wp10versionmajorkey": "1",
    "wp10versionminorkey": "0",
    "wp10versionrevisionkey": "0",
    "wp10videosLibrary": "false",
    "wp10voipCall": "false",
    "wp10webcam": "false",
    "wp10widelogokey": "",
    "wp81sdescriptionkey": "Sample Test Application",
    "wp81sdisplaynamekey": "KonyOLB",
    "wp81slockscreennotificationskey": "Not set",
    "wp81spackagedisplaynamekey": "KonyOLB",
    "wp81spackagenamekey": "KonyOLB",
    "wp81spackagepublichernamekey": "Kony",
    "wp81spublisherdisplaynamekey": "KonyLabs",
    "wp81stoastcapablekey": "Not set",
    "wp8cycle1key": "",
    "wp8cycle2key": "",
    "wp8cycle3key": "",
    "wp8cycle4key": "",
    "wp8cycle5key": "",
    "wp8cycle6key": "",
    "wp8cycle7key": "",
    "wp8cycle8key": "",
    "wp8cycle9key": "",
    "wp8cyclesmallkey": "",
    "wp8descriptionkey": "Sample Test Application",
    "wp8displaynamekey": "KonyOLB",
    "wp8doNotInstalllowerMemory": "false",
    "wp8enforceMaxMemory": "false",
    "wp8fliplargekey": "",
    "wp8flipmediumkey": "",
    "wp8flipsmallkey": "",
    "wp8iconcountnotificationkey": "false",
    "wp8iconicmediumkey": "",
    "wp8iconicsmallkey": "",
    "wp8iconimagekey": "",
    "wp8lockscreenbackgroundkey": "false",
    "wp8packageauthorkey": "",
    "wp8packagepublisheridkey": "",
    "wp8packagepublisherkey": "Kony",
    "wp8packageversionkey": "",
    "wp8supportlargetileskey": "false",
    "wp8textnotificationkey": "false",
    "wp8tilestemplatekey": "FLIP_TILE",
    "wp8tilestitlekey": "",
    "xhtmlfavicokey": "",
    "export.type": "visualizer"
}