{
    "RULE_TEXT_SPELL_CHECKER":["kony","Kony","KONY","pdf","PDF","DBX","Quantum","RichText","Segment",""],
    "RULE_UNUSED_RESOURCES":["acme.png", "calbtn.png",	"defvideoposter.png",	"imagedrag.png",	"infoplist_configuration.json",	"kony_48.png",	"kony_71.png",	"kony_88.png",	"kony_150.png",	"kony_300.png",	"listboxarw.png",	"option1.png",	"option2.png",	"option3.png",	"option4.png",	"pageoffdot.png",	"pageondot.png",	"pinb.png",	"slider.png",	"slider_android.png",	"slider_ios7.png",	"splash.png",	"zoomout.png",	"close.png",	"max.png",	"min.png",	"tableftarrow.png",	"tabrightarrow.png",	"FontAwesome.ttf"],
    "RULE_UI_UX_LEFT_ALIGNMENT":{"global_spacing":{
        "form": {
            "android": {
                "left":"0"
            },
            "iphone": {
                "left":"0"
           },
           "desktopweb": {
                "left":"0"
            }
        },
        "flex":{
            "android": {
                "left":"0"
            },
            "iphone": {
                "left":"0"
           },
           "desktopweb": {
                "left":"0"
            }
        }
    }},
    "RULE_UI_UX_SAME_FONT_FOR_SIMILAR_WIDGETS_IN_APP":{   
        "Typography":   {
                "keys" : [ "font_size", "font_name"],
                "Label": {
                "android":  {
                    "font_name": ["default"],
                	"font_size": ["200", "125", "107", "92", "70"]
                },
                "iphone": {
                    "font_name": ["Lato"],
                    "font_size": ["17px", "15"]
                },
                "desktopweb": {
                    "font_name": ["Lato-Regular", "Lato-Light", "Lato", "Lato-Medium"],
                    "font_size": ["20px", "17px", "15px", "108", "67", "215"]
                }
        	}
        }
    },
	"RULE_UNUSED_SKINS" : ["CustomSkinDW","CopyslFbox0gb5dbfeecc8940","sknBtnAccountTypeSelected"]
}