{
    "@class": "com.kony.gen.viz.model.component.KVizTextBox2",
    "DNDConfig": null,
    "__parentReadjusting__": false,
    "_height_": {
        "type": "string",
        "value": "40dp"
    },
    "_left_": {
        "type": "string",
        "value": "51%"
    },
    "_margin_": [
        0,
        0,
        0,
        0
    ],
    "_padding_": [
        22,
        0,
        0,
        0
    ],
    "_placeholder_": "Payment Amount",
    "_right_": "0.00%",
    "_skin_": "s801872ac0264da098d8da59c1cea7f5",
    "_text_": "",
    "_top_": {
        "type": "string",
        "value": "37%"
    },
    "_width_": {
        "type": "string",
        "value": "45.30%"
    },
    "accessibilityconfig": {
        "a11yLabel": "Payment Amount"
    },
    "autocapitalize": "none",
    "autocomplete": false,
    "autocorrect": false,
    "autofilter": false,
    "canUpdateUI": true,
    "containerheight": "",
    "containerheightmode": 1,
    "containerweight": 100,
    "contentalignment": 4,
    "desktopweb": {
        "padding": [
            3,
            0,
            0,
            0
        ],
        "paddingInPixel": true
    },
    "focusskin": "s2faf9c2766d4142ab33d0bf97445ae0",
    "id": "txtPaymentAmount",
    "info": null,
    "isvisible": true,
    "keyboardtype": "A",
    "kuid": "dac11b52db3b4101b9d7b8af28d3b22b",
    "mode": "A",
    "name": "kony.ui.TextBox2",
    "paddingLocked": false,
    "paddinginpixel": false,
    "parent": "flxDetails",
    "pf": "userwidgetmodel",
    "securetextentry": false,
    "textinputmode": "A",
    "viewtype": "default",
    "wType": "TextField",
    "zindex": 1
}