{
    "DNDConfig": null,
    "__parentReadjusting__": false,
    "_height_": {
        "type": "string",
        "value": "20dp"
    },
    "_left_": {
        "type": "string",
        "value": "19.20%"
    },
    "_margin_": [
        0,
        0,
        0,
        0
    ],
    "_orientation_": 6,
    "_padding_": [
        0,
        0,
        0,
        0
    ],
    "_percent_": true,
    "_skin_": "sd8d02531529489a8d85487257bc0ccb",
    "_top_": {
        "type": "string",
        "value": "18dp"
    },
    "_width_": {
        "type": "string",
        "value": "20dp"
    },
    "allboxes": [],
    "autogrowmode": 0,
    "canUpdateUI": true,
    "children": [
        "imgInfoIconsend"
    ],
    "clipbounds": true,
    "containerweight": 100,
    "desktopweb": {
        "psp": {
            "hoverSkin": "s3e0ac30f9774278a868cb7c73908a76"
        }
    },
    "enablescrolling": true,
    "id": "flximgInfoIconsend",
    "ide_onClick": "AS_FlexContainer_dacd54da9d4f47eeadf189545fe8d992",
    "info": null,
    "isvisible": true,
    "kuid": "b2e902dffacc4bd394201231ecab390c",
    "layouttype": 3,
    "name": "kony.ui.FlexContainer",
    "parent": "flxAccoFrSending",
    "pf": "userwidgetmodel",
    "snapgridsize": 10,
    "snaptogrid": true,
    "wType": "FlexContainer",
    "widgetalignment": 1,
    "zindex": 2
}