{
    "@class": "com.kony.gen.viz.model.component.KVizButton",
    "DNDConfig": null,
    "_bottom_": {
        "type": "number",
        "value": ""
    },
    "_height_": {
        "type": "string",
        "value": "40dp"
    },
    "_margin_": [
        6,
        6,
        6,
        6
    ],
    "_padding_": [
        0,
        0,
        0,
        0
    ],
    "_right_": {
        "type": "string",
        "value": "0dp"
    },
    "_skin_": "s3ca751293844d29b2df2e213ccf4242",
    "_text_": "Continue",
    "_top_": {
        "type": "number",
        "value": ""
    },
    "_width_": {
        "type": "string",
        "value": "150dp"
    },
    "canUpdateUI": true,
    "containerweight": 100,
    "contentalignment": 5,
    "displaytext": true,
    "focusskin": "s3ca751293844d29b2df2e213ccf4242",
    "id": "btnContinue",
    "info": null,
    "iscustomlayout": false,
    "isvisible": true,
    "kuid": "bf2bc85655f9495a95a269842d485ccb",
    "name": "kony.ui.Button",
    "parent": "flxButton",
    "pf": "userwidgetmodel",
    "responsiveData": {
        "b3": {
            "bottom": {
                "type": "number",
                "value": "20"
            },
            "top": {
                "type": "string",
                "value": "0dp"
            },
            "width": {
                "type": "string",
                "value": "100%"
            }
        },
        "b4": {
            "focusSkin": "s3ca751293844d29b2df2e213ccf4242",
            "skin": "s3ca751293844d29b2df2e213ccf4242"
        }
    },
    "retaincontentalignment": false,
    "retainflexpositionproperties": false,
    "wType": "Button",
    "zindex": 1
}