{
    "DNDConfig": null,
    "_height_": {
        "type": "string",
        "value": "65dp"
    },
    "_left_": {
        "type": "string",
        "value": "20dp"
    },
    "_margin_": [
        0,
        0,
        0,
        0
    ],
    "_orientation_": 6,
    "_padding_": [
        0,
        0,
        0,
        0
    ],
    "_percent_": true,
    "_skin_": "s24c92fc23b14f5484b693ee9b8a9b35",
    "_top_": {
        "type": "string",
        "value": "0dp"
    },
    "_width_": {
        "type": "string",
        "value": "48%"
    },
    "allboxes": [],
    "canUpdateUI": true,
    "children": [
        "flxEndDateField",
        "flxRecurrencesField",
        "flxDueDate"
    ],
    "clipbounds": false,
    "containerweight": 100,
    "enablescrolling": true,
    "id": "flxEndDateandRecurrences",
    "info": null,
    "iscustomlayout": false,
    "isvisible": false,
    "kuid": "c283ce69d1a34338a883086211f75c87",
    "layouttype": 4,
    "name": "kony.ui.FlexContainer",
    "parent": "flxDateandRecurrenceField",
    "pf": "userwidgetmodel",
    "responsiveData": {
        "b1": {
            "left": {
                "type": "string",
                "value": "1.80%"
            },
            "width": {
                "type": "string",
                "value": "49.10%"
            }
        },
        "b2": {
            "left": {
                "type": "string",
                "value": "1.80%"
            },
            "width": {
                "type": "string",
                "value": "49.10%"
            }
        },
        "b3": {
            "height": {
                "type": "string",
                "value": "70dp"
            },
            "left": {
                "type": "string",
                "value": "0dp"
            },
            "top": {
                "type": "string",
                "value": "9dp"
            },
            "width": {
                "type": "string",
                "value": "100%"
            }
        },
        "b4": {
            "left": {
                "type": "string",
                "value": "1.80%"
            },
            "width": {
                "type": "string",
                "value": "49.10%"
            }
        }
    },
    "retaincontentalignment": false,
    "retainflexpositionproperties": false,
    "retainflowhorizontalalignment": false,
    "snapgridsize": 10,
    "snaptogrid": true,
    "wType": "FlexContainer",
    "widgetalignment": 1,
    "zindex": 4
}