{
    "DNDConfig": null,
    "_height_": {
        "type": "string",
        "value": "100%"
    },
    "_left_": {
        "type": "string",
        "value": "0dp"
    },
    "_margin_": [
        0,
        0,
        0,
        0
    ],
    "_orientation_": 6,
    "_padding_": [
        0,
        0,
        0,
        0
    ],
    "_percent_": true,
    "_skin_": "s24c92fc23b14f5484b693ee9b8a9b35",
    "_top_": {
        "type": "string",
        "value": "0dp"
    },
    "_width_": {
        "type": "string",
        "value": "49.10%"
    },
    "allboxes": [],
    "canUpdateUI": true,
    "children": [
        "flxFXRateReference",
        "flxFXRateReferenceInfo"
    ],
    "clipbounds": false,
    "containerweight": 100,
    "enablescrolling": true,
    "id": "flxFXRefRateField",
    "info": null,
    "iscustomlayout": false,
    "isvisible": true,
    "kuid": "f8ca174761ad4549a89ab5c2799070db",
    "layouttype": 2,
    "name": "kony.ui.FlexContainer",
    "parent": "flxFXRateReferenceExchangeRate",
    "pf": "userwidgetmodel",
    "responsiveData": {
        "b1": {
            "zIndex": 5
        },
        "b2": {
            "zIndex": 5
        },
        "b3": {
            "height": {
                "type": "string",
                "value": "70dp"
            },
            "width": {
                "type": "string",
                "value": "100%"
            },
            "zIndex": 19
        },
        "b4": {
            "zIndex": 5
        }
    },
    "retaincontentalignment": false,
    "retainflexpositionproperties": false,
    "retainflowhorizontalalignment": false,
    "snapgridsize": 10,
    "snaptogrid": true,
    "wType": "FlexContainer",
    "widgetalignment": 1,
    "zindex": 1
}