{
    "DNDConfig": null,
    "_height_": {
        "type": "ref",
        "value": "preferred"
    },
    "_left_": {
        "type": "string",
        "value": "30dp"
    },
    "_margin_": [
        0,
        0,
        0,
        0
    ],
    "_orientation_": 6,
    "_padding_": [
        0,
        0,
        0,
        0
    ],
    "_percent_": true,
    "_right_": {
        "type": "string",
        "value": "30dp"
    },
    "_skin_": "s24c92fc23b14f5484b693ee9b8a9b35",
    "_top_": {
        "type": "string",
        "value": "0dp"
    },
    "_width_": {
        "type": "ref",
        "value": "preferred"
    },
    "allboxes": [],
    "autogrowmode": 1,
    "canUpdateUI": true,
    "children": [
        "flxErrorWarning",
        "flxFromAccountField",
        "flxToAccountField",
        "flxNewPayeeDetails",
        "flxPayeeDetailFields",
        "flxPaymentAmountField",
        "flxTransferCurrencyAmount",
        "flxFXRateReferenceExchangeRate",
        "flxPaymentMethodField",
        "flxFrequencyOptions",
        "flxDateandRecurrenceField",
        "flxFeePaidField",
        "flxIntermediaryBICE2EField",
        "flxAdditionalField",
        "flxNotesField",
        "flxPayeeAddress",
        "flxSupportingDocuments",
        "flxActionButton",
        "flxEnds"
    ],
    "clipbounds": false,
    "containerweight": 100,
    "enablescrolling": true,
    "id": "flxFields",
    "info": null,
    "iscustomlayout": false,
    "isvisible": true,
    "kuid": "a0638090e6a148db90078f59883ce598",
    "layouttype": 4,
    "name": "kony.ui.FlexContainer",
    "parent": "unifiedTransfers",
    "pf": "userwidgetmodel",
    "responsiveData": {
        "b2": {
            "left": {
                "type": "string",
                "value": "20dp"
            },
            "right": {
                "type": "string",
                "value": "20dp"
            }
        },
        "b3": {
            "left": {
                "type": "string",
                "value": "10dp"
            },
            "right": {
                "type": "string",
                "value": "10dp"
            },
            "skin": "s8ed108e233b4110a9bb615ec974ce1c"
        },
        "b4": {
            "top": {
                "type": "string",
                "value": "0dp"
            },
            "width": {
                "type": "ref",
                "value": "preferred"
            }
        }
    },
    "retaincontentalignment": false,
    "retainflexpositionproperties": false,
    "retainflowhorizontalalignment": false,
    "snapgridsize": 10,
    "snaptogrid": true,
    "wType": "FlexContainer",
    "widgetalignment": 1
}