{
    "DNDConfig": null,
    "_height_": {
        "type": "string",
        "value": "17dp"
    },
    "_left_": {
        "type": "string",
        "value": "0dp"
    },
    "_margin_": [
        0,
        0,
        0,
        0
    ],
    "_orientation_": 6,
    "_padding_": [
        0,
        0,
        0,
        0
    ],
    "_percent_": true,
    "_right_": {
        "type": "number",
        "value": ""
    },
    "_skin_": "s24c92fc23b14f5484b693ee9b8a9b35",
    "_top_": {
        "type": "string",
        "value": "0dp"
    },
    "_width_": {
        "type": "string",
        "value": "100%"
    },
    "allboxes": [],
    "autogrowmode": 0,
    "canUpdateUI": true,
    "children": [
        "flxNotesHead",
        "flxNotesLength"
    ],
    "clipbounds": true,
    "containerweight": 100,
    "enablescrolling": true,
    "id": "flxNotesLabel",
    "info": null,
    "iscustomlayout": false,
    "isvisible": true,
    "kuid": "fd143f0cfbaa4c9293e71291f9d6cdba",
    "layouttype": 3,
    "name": "kony.ui.FlexContainer",
    "parent": "flxNotes",
    "pf": "userwidgetmodel",
    "responsiveData": {
        "b1": {
            "layoutType": 2
        },
        "b2": {
            "layoutType": 2
        },
        "b3": {
            "layoutType": 2,
            "top": {
                "type": "string",
                "value": "7dp"
            }
        },
        "b4": {
            "layoutType": 2,
            "left": {
                "type": "string",
                "value": "0dp"
            },
            "right": {
                "type": "string",
                "value": ""
            }
        }
    },
    "retaincontentalignment": false,
    "retainflexpositionproperties": false,
    "retainflowhorizontalalignment": false,
    "snapgridsize": 10,
    "snaptogrid": true,
    "wType": "FlexContainer",
    "widgetalignment": 1
}