{
    "DNDConfig": null,
    "_height_": {
        "type": "string",
        "value": "40dp"
    },
    "_left_": {
        "type": "string",
        "value": "0dp"
    },
    "_margin_": [
        0,
        0,
        0,
        0
    ],
    "_orientation_": 6,
    "_padding_": [
        0,
        0,
        0,
        0
    ],
    "_percent_": true,
    "_skin_": "sd7341bce0b242d7b51f5dcb95c08c1b",
    "_top_": {
        "type": "string",
        "value": "8dp"
    },
    "_width_": {
        "type": "string",
        "value": "100%"
    },
    "allboxes": [],
    "canUpdateUI": true,
    "children": [
        "txtAreaNotes"
    ],
    "clipbounds": true,
    "containerweight": 100,
    "enablescrolling": true,
    "id": "flxNotesTextArea",
    "info": null,
    "iscustomlayout": false,
    "isvisible": true,
    "kuid": "dbe9098da615478f9dde0277f73c47a3",
    "layouttype": 2,
    "name": "kony.ui.FlexContainer",
    "parent": "flxNotes",
    "pf": "userwidgetmodel",
    "responsiveData": {
        "b1": {
            "height": {
                "type": "string",
                "value": "75dp"
            }
        },
        "b2": {
            "height": {
                "type": "string",
                "value": "75dp"
            }
        },
        "b3": {
            "height": {
                "type": "string",
                "value": "90dp"
            },
            "top": {
                "type": "string",
                "value": "6dp"
            }
        },
        "b4": {
            "height": {
                "type": "string",
                "value": "80dp"
            }
        }
    },
    "retaincontentalignment": false,
    "retainflexpositionproperties": false,
    "retainflowhorizontalalignment": false,
    "snapgridsize": 10,
    "snaptogrid": true,
    "wType": "FlexContainer",
    "widgetalignment": 1
}