{
    "DNDConfig": null,
    "_height_": {
        "type": "string",
        "value": "17dp"
    },
    "_left_": {
        "type": "string",
        "value": "0dp"
    },
    "_margin_": [
        0,
        0,
        0,
        0
    ],
    "_orientation_": 6,
    "_padding_": [
        0,
        0,
        0,
        0
    ],
    "_percent_": true,
    "_skin_": "s24c92fc23b14f5484b693ee9b8a9b35",
    "_top_": {
        "type": "string",
        "value": "0dp"
    },
    "_width_": {
        "type": "string",
        "value": "100%"
    },
    "allboxes": [],
    "autogrowmode": 0,
    "canUpdateUI": true,
    "children": [
        "lblNewPayeeReenterAccountNumber",
        "imgNewPayeeReenterAccNumberInfoIcon"
    ],
    "clipbounds": true,
    "containerweight": 100,
    "enablescrolling": true,
    "id": "flxReenterAccNumberLabel",
    "info": null,
    "iscustomlayout": false,
    "isvisible": true,
    "kuid": "ff77726df07e4d32a59a360283528474",
    "layouttype": 3,
    "name": "kony.ui.FlexContainer",
    "parent": "flxNewPayeeReenterAccountNumber",
    "pf": "userwidgetmodel",
    "responsiveData": {
        "b3": {
            "top": {
                "type": "string",
                "value": "7dp"
            }
        }
    },
    "retaincontentalignment": false,
    "retainflexpositionproperties": false,
    "retainflowhorizontalalignment": false,
    "snapgridsize": 10,
    "snaptogrid": true,
    "wType": "FlexContainer",
    "widgetalignment": 1
}