{
    "DNDConfig": null,
    "_height_": {
        "type": "ref",
        "value": "preferred"
    },
    "_left_": {
        "type": "string",
        "value": "250dp"
    },
    "_margin_": [
        0,
        0,
        0,
        0
    ],
    "_orientation_": 6,
    "_padding_": [
        0,
        0,
        0,
        0
    ],
    "_percent_": true,
    "_skin_": "sd7341bce0b242d7b51f5dcb95c08c1b",
    "_top_": {
        "type": "string",
        "value": "-20dp"
    },
    "_width_": {
        "type": "string",
        "value": "300dp"
    },
    "allboxes": [],
    "autogrowmode": 1,
    "canUpdateUI": true,
    "children": [
        "flxSupportingDocumentsInfoRow",
        "lblSupportingDocumentsInfoTxt",
        "flxSupportingDocumentsEnd"
    ],
    "clipbounds": true,
    "containerweight": 100,
    "enablescrolling": true,
    "id": "flxSupportingDocumentsInfo",
    "info": null,
    "iscustomlayout": false,
    "isvisible": false,
    "kuid": "c568417968ce4c98880c3e15c934ae9b",
    "layouttype": 4,
    "minheight": {
        "type": "string",
        "value": "100dp"
    },
    "name": "kony.ui.FlexContainer",
    "parent": "flxSupportingDocuments",
    "pf": "userwidgetmodel",
    "responsiveData": {
        "b1": {},
        "b2": {},
        "b3": {
            "width": {
                "type": "string",
                "value": "250dp"
            }
        },
        "b4": {}
    },
    "retaincontentalignment": false,
    "retainflexpositionproperties": false,
    "retainflowhorizontalalignment": false,
    "snapgridsize": 10,
    "snaptogrid": true,
    "wType": "FlexContainer",
    "widgetalignment": 1,
    "zindex": 15
}