{
    "DNDConfig": null,
    "_height_": {
        "type": "string",
        "value": "100dp"
    },
    "_left_": {
        "type": "string",
        "value": "22%"
    },
    "_margin_": [
        0,
        0,
        0,
        0
    ],
    "_orientation_": 6,
    "_padding_": [
        0,
        0,
        0,
        0
    ],
    "_percent_": true,
    "_skin_": "sd7341bce0b242d7b51f5dcb95c08c1b",
    "_top_": {
        "type": "string",
        "value": "0dp"
    },
    "_width_": {
        "type": "string",
        "value": "300dp"
    },
    "allboxes": [],
    "autogrowmode": 0,
    "canUpdateUI": true,
    "children": [
        "flxTransferDurationInfoRow",
        "lblTransferDurationTypeInfoText"
    ],
    "clipbounds": true,
    "containerweight": 100,
    "enablescrolling": true,
    "id": "flxTransferDurationTypeInfo",
    "info": null,
    "iscustomlayout": false,
    "isvisible": false,
    "kuid": "d9860d31168944c69c0c6a3e9f98c286",
    "layouttype": 4,
    "name": "kony.ui.FlexContainer",
    "parent": "flxTranferDurationTypeField",
    "pf": "userwidgetmodel",
    "responsiveData": {
        "b1": {
            "left": {
                "type": "string",
                "value": "10%"
            }
        },
        "b2": {
            "left": {
                "type": "string",
                "value": "10%"
            }
        },
        "b3": {
            "isVisible": false,
            "left": {
                "type": "string",
                "value": "5%"
            },
            "width": {
                "type": "string",
                "value": "250dp"
            },
            "zIndex": 10
        },
        "b4": {
            "left": {
                "type": "string",
                "value": "10%"
            }
        }
    },
    "retaincontentalignment": false,
    "retainflexpositionproperties": false,
    "retainflowhorizontalalignment": false,
    "snapgridsize": 10,
    "snaptogrid": true,
    "wType": "FlexContainer",
    "widgetalignment": 1,
    "zindex": 10
}