{
    "DNDConfig": null,
    "_height_": {
        "type": "ref",
        "value": "preferred"
    },
    "_left_": {
        "type": "string",
        "value": "0dp"
    },
    "_margin_": [
        0,
        0,
        0,
        0
    ],
    "_orientation_": 6,
    "_padding_": [
        0,
        0,
        0,
        0
    ],
    "_percent_": true,
    "_skin_": "s24c92fc23b14f5484b693ee9b8a9b35",
    "_top_": {
        "type": "string",
        "value": "0dp"
    },
    "_width_": {
        "type": "string",
        "value": "100%"
    },
    "allboxes": [],
    "autogrowmode": 1,
    "canUpdateUI": true,
    "children": [
        "flxToAccountLabel",
        "toAccount"
    ],
    "clipbounds": false,
    "containerweight": 100,
    "enablescrolling": true,
    "id": "flxToAccount",
    "info": null,
    "iscustomlayout": false,
    "isvisible": true,
    "kuid": "b04494c941b04f0cb59c9b51b03d2c4e",
    "layouttype": 4,
    "name": "kony.ui.FlexContainer",
    "parent": "flxToAccountField",
    "pf": "userwidgetmodel",
    "responsiveData": {
        "b1": {
            "height": {
                "type": "ref",
                "value": "preferred"
            }
        },
        "b2": {},
        "b3": {
            "left": {
                "type": "string",
                "value": "0dp"
            }
        }
    },
    "retaincontentalignment": false,
    "retainflexpositionproperties": false,
    "retainflowhorizontalalignment": false,
    "snapgridsize": 10,
    "snaptogrid": true,
    "wType": "FlexContainer",
    "widgetalignment": 1,
    "zindex": 1
}