{
    "@class": "com.kony.gen.viz.model.component.KVizLabel",
    "DNDConfig": null,
    "_height_": {
        "type": "ref",
        "value": "preferred"
    },
    "_left_": {
        "type": "string",
        "value": "0"
    },
    "_margin_": [
        1,
        1,
        1,
        1
    ],
    "_padding_": [
        0,
        0,
        0,
        0
    ],
    "_skin_": "sb75b207521b47ba8f721dca18b56352",
    "_text_": "Label",
    "_top_": {
        "type": "string",
        "value": "0"
    },
    "_width_": {
        "type": "ref",
        "value": "preferred"
    },
    "_wrapping_": 2,
    "android": {
        "textStyle": {
            "letterSpacing": 0,
            "strikeThrough": false
        }
    },
    "canUpdateUI": true,
    "containerweight": 100,
    "contentalignment": 4,
    "id": "lblTotalLength",
    "info": null,
    "ipad": {
        "psp": {
            "wrapping": 2
        }
    },
    "iphone": {
        "psp": {
            "wrapping": 2
        }
    },
    "iscustomlayout": false,
    "isvisible": true,
    "kuid": "b68aa0abe6884e56b0f2bf985d475fa3",
    "name": "kony.ui.Label",
    "parent": "flxNotesLength",
    "pf": "userwidgetmodel",
    "responsiveData": {
        "b1": {
            "skin": "sc6c33de9c2c4f168e90ffc2db978006"
        },
        "b2": {
            "contentAlignment": 4,
            "skin": "sc6c33de9c2c4f168e90ffc2db978006",
            "text": "140"
        },
        "b3": {
            "skin": "sc6c33de9c2c4f168e90ffc2db978006"
        },
        "b4": {
            "skin": "sc6c33de9c2c4f168e90ffc2db978006"
        }
    },
    "retaincontentalignment": false,
    "retainflexpositionproperties": false,
    "tooltip": "",
    "wType": "Label"
}