{
    "@class": "com.kony.gen.viz.model.component.KVizTextBox2",
    "DNDConfig": null,
    "_height_": {
        "type": "string",
        "value": "100%"
    },
    "_left_": {
        "type": "string",
        "value": "0dp"
    },
    "_margin_": [
        0,
        0,
        0,
        0
    ],
    "_padding_": [
        3,
        0,
        0,
        0
    ],
    "_placeholder_": "Enter intermediary BIC",
    "_skin_": "sfe85de2573444b7be7e6705a1d4bba6",
    "_text_": "",
    "_top_": {
        "type": "string",
        "value": "0dp"
    },
    "_width_": {
        "type": "string",
        "value": "100%"
    },
    "autocapitalize": "none",
    "autocomplete": false,
    "autocorrect": false,
    "autofilter": false,
    "canUpdateUI": true,
    "containerheight": "",
    "containerheightmode": 1,
    "containerweight": 100,
    "contentalignment": 4,
    "desktopweb": {
        "placeholderSkin": "sac0c259705348d5a31179c2e289ba36"
    },
    "focusskin": "sd765f781274491aac534f31620ba8be",
    "id": "txtBoxIntermediaryBIC",
    "info": null,
    "iscustomlayout": false,
    "isvisible": true,
    "keyboardtype": "A",
    "kuid": "d7967d1ede974a5c8f8e50ce7345950c",
    "mode": "A",
    "name": "kony.ui.TextBox2",
    "parent": "flxIntermediaryBICTextBox",
    "pf": "userwidgetmodel",
    "placeholderskin": "sac0c259705348d5a31179c2e289ba36",
    "responsiveData": {
        "b1": {
            "desktopweb": {
                "placeholderSkin": "sb210ccce56d4a128125499bbf24c879"
            },
            "placeholderSkin": "sac0c259705348d5a31179c2e289ba36",
            "text": ""
        }
    },
    "retaincontentalignment": false,
    "retainflexpositionproperties": false,
    "securetextentry": false,
    "textinputmode": "A",
    "tooltip": "",
    "viewtype": "default",
    "wType": "TextField",
    "zindex": 1
}