{
    "DNDConfig": null,
    "__parentReadjusting__": false,
    "_bottom_": {
        "type": "string",
        "value": "30dp"
    },
    "_height_": {
        "type": "string",
        "value": "50px"
    },
    "_left_": {
        "type": "string",
        "value": "0px"
    },
    "_margin_": [
        0,
        0,
        0,
        0
    ],
    "_orientation_": 6,
    "_padding_": [
        0,
        0,
        0,
        0
    ],
    "_percent_": true,
    "_skin_": "scbd4cac3526468089bf3013adff0549",
    "_top_": {
        "type": "string",
        "value": "31px"
    },
    "_width_": {
        "type": "string",
        "value": "100%"
    },
    "allboxes": [],
    "canUpdateUI": true,
    "children": [
        "btnCancel",
        "btnSave"
    ],
    "clipbounds": true,
    "containerweight": 100,
    "enablescrolling": true,
    "id": "flxSaveOrCancelKA",
    "info": null,
    "isvisible": true,
    "kuid": "i529726558384a7797486eff12623c4b",
    "layouttype": 2,
    "name": "kony.ui.FlexContainer",
    "parent": "flxEditDomesticDetailsKA",
    "pf": "frmFastAddDBXAccount",
    "responsiveData": {
        "b3": {
            "height": {
                "type": "string",
                "value": "125px"
            },
            "top": {
                "type": "string",
                "value": "0px"
            }
        }
    },
    "snapgridsize": 10,
    "snaptogrid": true,
    "wType": "FlexContainer",
    "widgetalignment": 1,
    "zindex": 1
}