{
    "@class": "com.kony.gen.viz.model.component.KVizButton",
    "DNDConfig": null,
    "__parentReadjusting__": false,
    "_height_": {
        "type": "string",
        "value": "100%"
    },
    "_left_": {
        "type": "string",
        "value": "0dp"
    },
    "_margin_": [
        6,
        6,
        6,
        6
    ],
    "_padding_": [
        2,
        0,
        2,
        0
    ],
    "_skin_": "s691cbbc573349d5ba1da3a566d2f584",
    "_text_": "",
    "_width_": {
        "type": "string",
        "value": "100%"
    },
    "canUpdateUI": true,
    "centery": {
        "type": "string",
        "value": "50%"
    },
    "containerweight": 100,
    "contentalignment": 5,
    "disabledSkins": {
        "focusSkin": "sf44d06ca8224832827ea7fdff757013"
    },
    "displaytext": true,
    "id": "btnDummy",
    "info": null,
    "isvisible": false,
    "kuid": "bf877015198b4997944db2ccf89968a2",
    "name": "kony.ui.Button",
    "paddinginpixel": false,
    "parent": "flxTabs",
    "pf": "userwidgetmodel",
    "wType": "Button",
    "zindex": 2
}