{
    "@class": "com.kony.gen.viz.model.component.KVizButton",
    "DNDConfig": null,
    "_height_": {
        "type": "string",
        "value": "40dp"
    },
    "_left_": {
        "type": "number",
        "value": ""
    },
    "_margin_": [
        6,
        6,
        6,
        6
    ],
    "_padding_": [
        0,
        0,
        0,
        0
    ],
    "_right_": {
        "type": "string",
        "value": "0dp"
    },
    "_skin_": "s4fe0674a3c84b76a21524a90bad4282",
    "_text_": "Continue",
    "_top_": {
        "type": "number",
        "value": ""
    },
    "_width_": {
        "type": "string",
        "value": "150dp"
    },
    "canUpdateUI": true,
    "centerx": {
        "type": "number",
        "value": ""
    },
    "centery": {
        "type": "string",
        "value": "50%"
    },
    "containerweight": 100,
    "contentalignment": 5,
    "disabledSkins": {
        "focusSkin": "sf44d06ca8224832827ea7fdff757013"
    },
    "displaytext": true,
    "id": "btnContinue2",
    "info": null,
    "iscustomlayout": false,
    "isvisible": true,
    "kuid": "e14d9be81c7148c7863ec018578a2863",
    "name": "kony.ui.Button",
    "parent": "flxCVVButtons",
    "pf": "CopyfrmCardManagement",
    "responsiveData": {
        "b1": {
            "right": {
                "type": "string",
                "value": "20dp"
            }
        },
        "b2": {
            "right": {
                "type": "string",
                "value": "20dp"
            }
        },
        "b3": {
            "centerX": {
                "type": "string",
                "value": ""
            },
            "centerY": {
                "type": "string",
                "value": ""
            },
            "disabledSkins": {
                "focusSkin": "sf44d06ca8224832827ea7fdff757013"
            },
            "left": {
                "type": "string",
                "value": "20dp"
            },
            "right": {
                "type": "string",
                "value": "20dp"
            },
            "top": {
                "type": "string",
                "value": "20dp"
            },
            "width": {
                "type": "string",
                "value": ""
            }
        },
        "b4": {
            "right": {
                "type": "string",
                "value": "20dp"
            }
        }
    },
    "retaincontentalignment": false,
    "retainflexpositionproperties": false,
    "texti18n": "i18n.common.proceed",
    "wType": "Button",
    "zindex": 1
}