{
    "@class": "com.kony.gen.viz.model.component.KVizButton",
    "DNDConfig": null,
    "_height_": {
        "type": "string",
        "value": "40dp"
    },
    "_margin_": [
        6,
        6,
        6,
        6
    ],
    "_padding_": [
        0,
        0,
        0,
        0
    ],
    "_right_": {
        "type": "string",
        "value": "35dp"
    },
    "_skin_": "sfbbba35ede4457b94eb681b72349b98",
    "_text_": "Button",
    "_width_": {
        "type": "string",
        "value": "258px"
    },
    "accessibilityconfig": {
        "a11yLabel": "Continue"
    },
    "canUpdateUI": true,
    "centery": {
        "type": "string",
        "value": "50%"
    },
    "containerweight": 100,
    "contentalignment": 5,
    "desktopweb": {
        "psp": {
            "hoverSkin": "s81054b5e2b74f17a5261991df565427"
        }
    },
    "disabledSkins": {
        "focusSkin": "sf44d06ca8224832827ea7fdff757013"
    },
    "displaytext": true,
    "id": "btnContinue",
    "info": null,
    "iscustomlayout": false,
    "isvisible": true,
    "kuid": "h15336fe92ec48c49bf0e9d3fe5d351f",
    "name": "kony.ui.Button",
    "parent": "flxButtons",
    "pf": "CopyfrmCardManagement",
    "responsiveData": {
        "b4": {
            "width": {
                "type": "string",
                "value": "150dp"
            }
        }
    },
    "retaincontentalignment": false,
    "retainflexpositionproperties": false,
    "texti18n": "i18n.common.proceed",
    "wType": "Button",
    "zindex": 5
}