{
    "@class": "com.kony.gen.viz.model.component.KVizButton",
    "DNDConfig": null,
    "_bottom_": 30,
    "_height_": {
        "type": "string",
        "value": "40dp"
    },
    "_margin_": [
        6,
        6,
        6,
        6
    ],
    "_padding_": [
        0,
        0,
        0,
        0
    ],
    "_right_": {
        "type": "string",
        "value": "190dp"
    },
    "_skin_": "sa611611b2f24e93bcfd09e1606c0d86",
    "_text_": "NO",
    "_width_": {
        "type": "string",
        "value": "150dp"
    },
    "accessibilityconfig": {
        "a11yLabel": "Cancel"
    },
    "canUpdateUI": true,
    "centery": {
        "type": "string",
        "value": "50%"
    },
    "containerweight": 100,
    "contentalignment": 5,
    "desktopweb": {
        "psp": {
            "hoverSkin": "s2603e10ef734ab5a364735b13cd3697"
        }
    },
    "disabledSkins": {
        "focusSkin": "sf44d06ca8224832827ea7fdff757013"
    },
    "displaytext": true,
    "id": "btnCancel",
    "info": null,
    "isvisible": true,
    "kuid": "g90e566462fa4502a6021e1b1ae979f7",
    "name": "kony.ui.Button",
    "parent": "flxContentsButtons",
    "pf": "CopyfrmCardManagement",
    "responsiveData": {
        "b3": {
            "right": {
                "type": "string",
                "value": "160dp"
            },
            "width": {
                "type": "string",
                "value": "120dp"
            }
        }
    },
    "texti18n": "i18n.transfers.Cancel",
    "tooltip": "Cancel",
    "wType": "Button",
    "zindex": 1
}