{
    "@class": "com.kony.gen.viz.model.component.KVizButton",
    "DNDConfig": null,
    "_height_": {
        "type": "string",
        "value": "40dp"
    },
    "_margin_": [
        6,
        6,
        6,
        6
    ],
    "_padding_": [
        0,
        0,
        0,
        0
    ],
    "_right_": {
        "type": "string",
        "value": "0dp"
    },
    "_skin_": "s32f67802321463884107a44440d62c8",
    "_text_": "PROCEED",
    "_width_": {
        "type": "string",
        "value": "150dp"
    },
    "accessibilityconfig": {
        "a11yLabel": "Continue"
    },
    "canUpdateUI": true,
    "centery": {
        "type": "string",
        "value": "50%"
    },
    "containerweight": 100,
    "contentalignment": 5,
    "desktopweb": {
        "psp": {
            "hoverSkin": "s81054b5e2b74f17a5261991df565427"
        }
    },
    "disabledSkins": {
        "blockedUISkin": "s1400c825f384a46b15a0f8d6829ecef",
        "focusSkin": "sf44d06ca8224832827ea7fdff757013"
    },
    "displaytext": true,
    "focusskin": null,
    "id": "btnCardsContinue",
    "info": null,
    "isvisible": true,
    "kuid": "ge0366b5f3a444cf95122fd2cf12037a",
    "name": "kony.ui.Button",
    "parent": "flxEligibleCardsButtons",
    "pf": "CopyfrmCardManagement",
    "texti18n": "i18n.common.proceed",
    "tooltip": "Continue",
    "wType": "Button",
    "zindex": 1
}