{
    "@class": "com.kony.gen.viz.model.component.KVizButton",
    "DNDConfig": null,
    "_bottom_": {
        "type": "number",
        "value": "30"
    },
    "_height_": {
        "type": "string",
        "value": "40dp"
    },
    "_margin_": [
        6,
        6,
        6,
        6
    ],
    "_padding_": [
        0,
        0,
        0,
        0
    ],
    "_right_": {
        "type": "string",
        "value": "20dp"
    },
    "_skin_": "s4fe0674a3c84b76a21524a90bad4282",
    "_text_": "YES",
    "_width_": {
        "type": "string",
        "value": "150dp"
    },
    "accessibilityconfig": {
        "a11yLabel": "Save"
    },
    "canUpdateUI": true,
    "centery": {
        "type": "string",
        "value": "50%"
    },
    "containerweight": 100,
    "contentalignment": 5,
    "disabledSkins": {
        "focusSkin": "sf44d06ca8224832827ea7fdff757013"
    },
    "displaytext": true,
    "id": "btnSave",
    "info": null,
    "isvisible": true,
    "kuid": "h1f719ff63484e7aacfe819ad91c1f71",
    "name": "kony.ui.Button",
    "parent": "flxContentsButtons",
    "pf": "CopyfrmCardManagement",
    "responsiveData": {
        "b3": {
            "width": {
                "type": "string",
                "value": "120dp"
            }
        }
    },
    "texti18n": "i18n.ProfileManagement.Save",
    "tooltip": "Save",
    "wType": "Button",
    "zindex": 1
}