{
    "DNDConfig": null,
    "_height_": {
        "type": "ref",
        "value": "preferred"
    },
    "_left_": {
        "type": "string",
        "value": "20dp"
    },
    "_margin_": [
        0,
        0,
        0,
        0
    ],
    "_orientation_": 6,
    "_padding_": [
        0,
        0,
        0,
        0
    ],
    "_percent_": true,
    "_skin_": "s24c92fc23b14f5484b693ee9b8a9b35",
    "_top_": {
        "type": "string",
        "value": "20dp"
    },
    "_width_": {
        "type": "string",
        "value": "80dp"
    },
    "accessibilityconfig": {
        "a11yARIA": {
            "tabindex": 1
        }
    },
    "allboxes": [],
    "autogrowmode": 1,
    "canUpdateUI": true,
    "children": [
        "lblAnotherDestination"
    ],
    "clipbounds": true,
    "containerweight": 100,
    "desktopweb": {
        "psp": {
            "hoverSkin": "sd403771f17f42cbb7aea6cb69a914cc"
        }
    },
    "enablescrolling": true,
    "id": "flxAddFeatureRequestandimg",
    "info": null,
    "isvisible": true,
    "kuid": "f46fe6ee3ec349ed8876a9557d0ccdc1",
    "layouttype": 3,
    "name": "kony.ui.FlexContainer",
    "parent": "flxDestination",
    "pf": "CopyfrmCardManagement",
    "snapgridsize": 10,
    "snaptogrid": true,
    "wType": "FlexContainer",
    "widgetalignment": 1,
    "zindex": 5
}