{
    "DNDConfig": null,
    "_bottom_": {
        "type": "string",
        "value": "9dp"
    },
    "_height_": {
        "type": "ref",
        "value": "preferred"
    },
    "_left_": {
        "type": "string",
        "value": "0dp"
    },
    "_margin_": [
        0,
        0,
        0,
        0
    ],
    "_orientation_": 6,
    "_padding_": [
        0,
        0,
        0,
        0
    ],
    "_percent_": true,
    "_skin_": "s24c92fc23b14f5484b693ee9b8a9b35",
    "_top_": {
        "type": "string",
        "value": "0dp"
    },
    "_width_": {
        "type": "string",
        "value": "100%"
    },
    "allboxes": [],
    "autogrowmode": 1,
    "canUpdateUI": true,
    "centerx": {
        "type": "string",
        "value": "50%"
    },
    "children": [
        "segAccounts",
        "btnCancelAccount"
    ],
    "clipbounds": true,
    "containerweight": 100,
    "enablescrolling": true,
    "id": "flxAccountsSegments",
    "info": null,
    "isvisible": true,
    "kuid": "j0950752dc7f424582cca11b0eff259c",
    "layouttype": 4,
    "name": "kony.ui.FlexContainer",
    "parent": "flxNewcard",
    "pf": "CopyfrmCardManagement",
    "responsiveData": {
        "b1": {
            "bottom": {
                "type": "string",
                "value": ""
            },
            "centerX": {
                "type": "string",
                "value": ""
            },
            "top": {
                "type": "string",
                "value": "70dp"
            }
        },
        "b2": {
            "bottom": {
                "type": "string",
                "value": "2dp"
            },
            "top": {
                "type": "string",
                "value": "70dp"
            }
        },
        "b3": {
            "bottom": {
                "type": "string",
                "value": "2dp"
            },
            "centerX": {
                "type": "string",
                "value": "50%"
            },
            "top": {
                "type": "string",
                "value": "70dp"
            }
        },
        "b4": {
            "bottom": {
                "type": "string",
                "value": "2dp"
            },
            "height": {
                "type": "ref",
                "value": "preferred"
            },
            "top": {
                "type": "string",
                "value": "70dp"
            }
        }
    },
    "snapgridsize": 10,
    "snaptogrid": true,
    "wType": "FlexContainer",
    "widgetalignment": 1,
    "zindex": 1
}