{
    "DNDConfig": null,
    "_height_": {
        "type": "string",
        "value": "80dp"
    },
    "_left_": {
        "type": "string",
        "value": "0dp"
    },
    "_margin_": [
        0,
        0,
        0,
        0
    ],
    "_orientation_": 6,
    "_padding_": [
        0,
        0,
        0,
        0
    ],
    "_percent_": true,
    "_skin_": "s24c92fc23b14f5484b693ee9b8a9b35",
    "_top_": {
        "type": "string",
        "value": "15dp"
    },
    "_width_": {
        "type": "string",
        "value": "100%"
    },
    "allboxes": [],
    "canUpdateUI": true,
    "children": [
        "lblCard",
        "flxCardValue"
    ],
    "clipbounds": false,
    "containerweight": 100,
    "enablescrolling": true,
    "id": "flxCard",
    "info": null,
    "iscustomlayout": false,
    "isvisible": true,
    "kuid": "g838bced70964261b7bce128cdfad27d",
    "layouttype": 4,
    "name": "kony.ui.FlexContainer",
    "parent": "flxCardBody",
    "pf": "CopyfrmCardManagement",
    "responsiveData": {
        "b2": {
            "top": {
                "type": "string",
                "value": "15dp"
            }
        },
        "b3": {
            "height": {
                "type": "string",
                "value": "70dp"
            },
            "top": {
                "type": "string",
                "value": "15dp"
            }
        },
        "b4": {}
    },
    "retaincontentalignment": false,
    "retainflexpositionproperties": false,
    "snapgridsize": 10,
    "snaptogrid": true,
    "wType": "FlexContainer",
    "widgetalignment": 1,
    "zindex": 9
}