{
    "DNDConfig": null,
    "_height_": {
        "type": "string",
        "value": "103dp"
    },
    "_left_": {
        "type": "string",
        "value": "0dp"
    },
    "_margin_": [
        0,
        0,
        0,
        0
    ],
    "_orientation_": 6,
    "_padding_": [
        0,
        0,
        0,
        0
    ],
    "_percent_": true,
    "_skin_": "s24c92fc23b14f5484b693ee9b8a9b35",
    "_top_": {
        "type": "string",
        "value": "0dp"
    },
    "_width_": {
        "type": "string",
        "value": "100%"
    },
    "allboxes": [],
    "canUpdateUI": true,
    "children": [
        "btnCancelPlan",
        "btnModify",
        "btnConfirm",
        "lblSeparator6"
    ],
    "clipbounds": true,
    "containerweight": 100,
    "enablescrolling": true,
    "id": "flxConfirmButons",
    "info": null,
    "iscustomlayout": false,
    "isvisible": true,
    "kuid": "gae615fe46424676955029ae20032e5d",
    "layouttype": 2,
    "name": "kony.ui.FlexContainer",
    "parent": "flxConfirmBody",
    "pf": "CopyfrmCardManagement",
    "responsiveData": {
        "b3": {
            "height": {
                "type": "string",
                "value": "200dp"
            },
            "layoutType": 4
        }
    },
    "retaincontentalignment": false,
    "retainflexpositionproperties": false,
    "snapgridsize": 10,
    "snaptogrid": true,
    "wType": "FlexContainer",
    "widgetalignment": 1
}