{
    "DNDConfig": null,
    "_height_": {
        "type": "ref",
        "value": "preferred"
    },
    "_left_": {
        "type": "string",
        "value": "0dp"
    },
    "_margin_": [
        0,
        0,
        0,
        0
    ],
    "_orientation_": 6,
    "_padding_": [
        0,
        0,
        0,
        0
    ],
    "_percent_": true,
    "_right_": {
        "type": "number",
        "value": ""
    },
    "_skin_": "sdc143f0e5b64ae3a3f155f691c73fa7",
    "_top_": {
        "type": "string",
        "value": "0dp"
    },
    "_width_": {
        "type": "string",
        "value": "98%"
    },
    "allboxes": [],
    "autogrowmode": 1,
    "canUpdateUI": true,
    "children": [
        "CopyflxMangeTravelPlans0b5921b9abd6445",
        "CopyflxActivateNewCard0fc6e20f9d16c4e",
        "CopyflxApplyForNewCard0d77194b5449141",
        "CopyflxMyPreviousOwnedCards0ia4a39b11e4e44"
    ],
    "clipbounds": false,
    "containerweight": 100,
    "enablescrolling": true,
    "id": "flxCardAccountsSetCardLimits",
    "info": null,
    "isvisible": true,
    "kuid": "d021168914d640a48bcf88c2c2f264ae",
    "layouttype": 4,
    "name": "kony.ui.FlexContainer",
    "parent": "flxRightBarSetCardLimits",
    "pf": "CopyfrmCardManagement",
    "responsiveData": {
        "b1": {
            "left": {
                "type": "string",
                "value": "0dp"
            },
            "width": {
                "type": "string",
                "value": "98%"
            }
        },
        "b4": {
            "right": {
                "type": "string",
                "value": ""
            },
            "width": {
                "type": "string",
                "value": "98%"
            }
        }
    },
    "snapgridsize": 10,
    "snaptogrid": true,
    "wType": "FlexContainer",
    "widgetalignment": 1,
    "zindex": 1
}