{
    "DNDConfig": null,
    "_height_": {
        "type": "string",
        "value": "60dp"
    },
    "_margin_": [
        0,
        0,
        0,
        0
    ],
    "_orientation_": 6,
    "_padding_": [
        0,
        0,
        0,
        0
    ],
    "_percent_": true,
    "_skin_": "s7dbcb124625445abe16f8e7d9814726",
    "_width_": {
        "type": "string",
        "value": "100%"
    },
    "allboxes": [],
    "autogrowmode": 0,
    "canUpdateUI": true,
    "children": [
        "lblDailyWithdrawalLimit",
        "lblSetWithdrawalLimitSlider",
        "flxPrevWithdrawalSlider",
        "limitPrevWithdrawalSlider",
        "lblPreviousValue"
    ],
    "clipbounds": false,
    "containerweight": 100,
    "enablescrolling": true,
    "id": "flxDailyWithdrawalLimit",
    "info": null,
    "iscustomlayout": false,
    "isvisible": true,
    "kuid": "ca65393f1dd24a6e8b59dd411df24f60",
    "layouttype": 2,
    "name": "kony.ui.FlexContainer",
    "parent": "flxSetCardLimitsNew",
    "pf": "CopyfrmCardManagement",
    "retaincontentalignment": false,
    "retainflexpositionproperties": false,
    "retainflowhorizontalalignment": false,
    "snapgridsize": 10,
    "snaptogrid": true,
    "wType": "FlexContainer",
    "widgetalignment": 1,
    "zindex": 1
}