{
    "DNDConfig": null,
    "_height_": {
        "type": "string",
        "value": "40dp"
    },
    "_margin_": [
        0,
        0,
        0,
        0
    ],
    "_orientation_": 6,
    "_padding_": [
        0,
        0,
        0,
        0
    ],
    "_percent_": true,
    "_right_": {
        "type": "string",
        "value": "9.52%"
    },
    "_skin_": "s24c92fc23b14f5484b693ee9b8a9b35",
    "_top_": {
        "type": "string",
        "value": "21dp"
    },
    "_width_": {
        "type": "string",
        "value": "50dp"
    },
    "accessibilityconfig": {
        "a11yARIA": {
            "tabindex": 1
        }
    },
    "allboxes": [],
    "autogrowmode": 0,
    "canUpdateUI": true,
    "children": [
        "imgPrintIcon"
    ],
    "clipbounds": true,
    "containerweight": 100,
    "desktopweb": {
        "psp": {
            "hoverSkin": "s33beaea65744dc8aecdacfe3caf89af"
        }
    },
    "enablescrolling": true,
    "id": "flxPrint",
    "info": null,
    "isvisible": true,
    "kuid": "cd56d3e6e56341a28a2370523ec4359c",
    "layouttype": 2,
    "name": "kony.ui.FlexContainer",
    "parent": "flxAcknowledgment",
    "pf": "CopyfrmCardManagement",
    "responsiveData": {
        "b1": {
            "right": {
                "type": "string",
                "value": "6.29%"
            }
        },
        "b2": {
            "isVisible": false
        },
        "b3": {
            "isVisible": false
        },
        "b4": {
            "right": {
                "type": "string",
                "value": "6.29%"
            }
        }
    },
    "snapgridsize": 10,
    "snaptogrid": true,
    "wType": "FlexContainer",
    "widgetalignment": 1,
    "zindex": 1
}