{
    "DNDConfig": null,
    "_height_": {
        "type": "string",
        "value": "400dp"
    },
    "_left_": {
        "type": "string",
        "value": "2%"
    },
    "_margin_": [
        0,
        0,
        0,
        0
    ],
    "_orientation_": 6,
    "_padding_": [
        0,
        0,
        0,
        0
    ],
    "_percent_": true,
    "_right_": {
        "type": "string",
        "value": ""
    },
    "_skin_": "s24c92fc23b14f5484b693ee9b8a9b35",
    "_top_": {
        "type": "string",
        "value": "68dp"
    },
    "_width_": {
        "type": "string",
        "value": "32.50%"
    },
    "allboxes": [],
    "canUpdateUI": true,
    "children": [
        "flxMyPaymentsAccountSetCardLimits",
        "flxCardAccountsSetCardLimits"
    ],
    "clipbounds": false,
    "containerweight": 100,
    "enablescrolling": true,
    "id": "flxRightBarSetCardLimits",
    "info": null,
    "isvisible": true,
    "kuid": "ac8f7824b339463791be355cdcb41255",
    "layouttype": 4,
    "name": "kony.ui.FlexContainer",
    "parent": "flxSetCardLimits",
    "pf": "CopyfrmCardManagement",
    "responsiveData": {
        "b1": {
            "left": {
                "type": "string",
                "value": ""
            },
            "right": {
                "type": "string",
                "value": "5.20%"
            },
            "top": {
                "type": "string",
                "value": "66dp"
            },
            "width": {
                "type": "string",
                "value": "26.70%"
            }
        },
        "b2": {
            "isVisible": false,
            "left": {
                "type": "string",
                "value": "110%"
            }
        },
        "b3": {
            "isVisible": false,
            "left": {
                "type": "string",
                "value": "110%"
            }
        },
        "b4": {
            "isVisible": true,
            "left": {
                "type": "string",
                "value": ""
            },
            "right": {
                "type": "string",
                "value": "6.07%"
            },
            "top": {
                "type": "string",
                "value": "66dp"
            },
            "width": {
                "type": "string",
                "value": "28.40%"
            }
        }
    },
    "snapgridsize": 10,
    "snaptogrid": true,
    "wType": "FlexContainer",
    "widgetalignment": 1,
    "zindex": 1
}