{
    "DNDConfig": null,
    "_height_": {
        "type": "ref",
        "value": "preferred"
    },
    "_left_": {
        "type": "string",
        "value": "0dp"
    },
    "_margin_": [
        0,
        0,
        0,
        0
    ],
    "_orientation_": 6,
    "_padding_": [
        0,
        0,
        0,
        0
    ],
    "_percent_": true,
    "_skin_": "s24c92fc23b14f5484b693ee9b8a9b35",
    "_top_": {
        "type": "string",
        "value": "0dp"
    },
    "_width_": {
        "type": "string",
        "value": "100%"
    },
    "allboxes": [],
    "autogrowmode": 1,
    "canUpdateUI": true,
    "children": [
        "flxDailyWithdrawalLimitOverview",
        "flxHorizontalLine1",
        "flxDailyPurchaseLimitOverview",
        "flxHorizontalLine2",
        "flxIntDailyWithdrawalLimitOverview",
        "flxHorizontalLine3",
        "flxIntDailyPurchaseLimitOverview",
        "flxIncreaseLimits",
        "flxActions"
    ],
    "clipbounds": false,
    "containerweight": 100,
    "enablescrolling": true,
    "id": "flxSetCardLimitsOverview",
    "info": null,
    "iscustomlayout": false,
    "isvisible": false,
    "kuid": "a864d6c32beb4b4596cbddb5f17134d0",
    "layouttype": 4,
    "name": "kony.ui.FlexContainer",
    "parent": "flxMainSetCardLimits",
    "pf": "CopyfrmCardManagement",
    "retaincontentalignment": false,
    "retainflexpositionproperties": false,
    "retainflowhorizontalalignment": false,
    "snapgridsize": 10,
    "snaptogrid": true,
    "wType": "FlexContainer",
    "widgetalignment": 1,
    "zindex": 1
}