{
    "DNDConfig": null,
    "_height_": {
        "type": "ref",
        "value": "preferred"
    },
    "_left_": {
        "type": "string",
        "value": "0dp"
    },
    "_margin_": [
        0,
        0,
        0,
        0
    ],
    "_orientation_": 6,
    "_padding_": [
        0,
        0,
        0,
        0
    ],
    "_percent_": true,
    "_right_": {
        "type": "number",
        "value": ""
    },
    "_skin_": "scbd4cac3526468089bf3013adff0549",
    "_top_": {
        "type": "string",
        "value": "0dp"
    },
    "_width_": {
        "type": "string",
        "value": "66.16%"
    },
    "allboxes": [],
    "autogrowmode": 1,
    "canUpdateUI": true,
    "centerx": {
        "type": "number",
        "value": ""
    },
    "children": [
        "flxHeading",
        "flxBody",
        "flxDestinationList"
    ],
    "clipbounds": false,
    "containerweight": 100,
    "enablescrolling": true,
    "id": "flxTravelPlan",
    "info": null,
    "iscustomlayout": false,
    "isvisible": false,
    "kuid": "fb014433111842da908eb09f5b067283",
    "layouttype": 2,
    "name": "kony.ui.FlexContainer",
    "parent": "flxMyCardsView",
    "pf": "CopyfrmCardManagement",
    "responsiveData": {
        "b1": {
            "right": {
                "type": "string",
                "value": "2%"
            },
            "skin": "scbd4cac3526468089bf3013adff0549",
            "width": {
                "type": "string",
                "value": "66%"
            }
        },
        "b2": {
            "left": {
                "type": "string",
                "value": "20dp"
            },
            "right": {
                "type": "string",
                "value": "20dp"
            },
            "skin": "scbd4cac3526468089bf3013adff0549",
            "width": {
                "type": "string",
                "value": ""
            }
        },
        "b3": {
            "centerX": {
                "type": "string",
                "value": "50%"
            },
            "left": {
                "type": "string",
                "value": ""
            },
            "skin": "scbd4cac3526468089bf3013adff0549",
            "width": {
                "type": "string",
                "value": "98%"
            }
        },
        "b4": {
            "left": {
                "type": "string",
                "value": "6.07%"
            },
            "right": {
                "type": "string",
                "value": ""
            },
            "skin": "scbd4cac3526468089bf3013adff0549",
            "width": {
                "type": "string",
                "value": "58.10%"
            }
        }
    },
    "retaincontentalignment": false,
    "retainflexpositionproperties": false,
    "snapgridsize": 10,
    "snaptogrid": true,
    "wType": "FlexContainer",
    "widgetalignment": 1,
    "zindex": 1
}