{
    "@class": "com.kony.gen.viz.model.component.KVizLabel",
    "DNDConfig": null,
    "_height_": {
        "type": "ref",
        "value": "preferred"
    },
    "_left_": {
        "type": "string",
        "value": "3%"
    },
    "_margin_": [
        1,
        1,
        1,
        1
    ],
    "_padding_": [
        0,
        0,
        0,
        0
    ],
    "_skin_": "sb57ddd930ef42d5b307efc805cba3d6",
    "_text_": "Transfer From",
    "_top_": {
        "type": "string",
        "value": "10dp"
    },
    "_width_": {
        "type": "string",
        "value": "94%"
    },
    "_wrapping_": 2,
    "accessibilityconfig": {
        "a11yLabel": "Transfer From"
    },
    "android": {
        "textStyle": {
            "letterSpacing": 0,
            "strikeThrough": false
        }
    },
    "canUpdateUI": true,
    "containerweight": 100,
    "contentalignment": 4,
    "id": "lblAccount",
    "info": null,
    "ipad": {
        "psp": {
            "wrapping": 2
        }
    },
    "iphone": {
        "psp": {
            "wrapping": 2
        }
    },
    "isvisible": true,
    "kuid": "c52a45eeaaa8429cb4191f1f914afefc",
    "name": "kony.ui.Label",
    "parent": "flxAccount",
    "pf": "CopyfrmCardManagement",
    "responsiveData": {
        "b1": {
            "text": "Account"
        },
        "b2": {
            "text": "Account",
            "top": {
                "type": "string",
                "value": "15dp"
            }
        },
        "b3": {
            "left": {
                "type": "string",
                "value": "2%"
            },
            "text": "Account",
            "top": {
                "type": "string",
                "value": "15dp"
            },
            "width": {
                "type": "string",
                "value": "96%"
            }
        },
        "b4": {
            "text": "Account"
        }
    },
    "tooltip": "",
    "wType": "Label",
    "zindex": 1
}