{
    "@class": "com.kony.gen.viz.model.component.KVizLabel",
    "DNDConfig": null,
    "_height_": {
        "type": "ref",
        "value": "preferred"
    },
    "_left_": {
        "type": "string",
        "value": "8.33%"
    },
    "_margin_": [
        1,
        1,
        1,
        1
    ],
    "_padding_": [
        0,
        0,
        0,
        0
    ],
    "_skin_": "s0f480c0f9b24e09ac1b79443f12cdc9",
    "_text_": "You have already a travel notification for the same dates, destinations and cards. Do you want to edit or delete the previous notification?",
    "_width_": {
        "type": "ref",
        "value": "preferred"
    },
    "_wrapping_": 2,
    "accessibilityconfig": {
        "a11yLabel": "You have already a travel notification for the same dates, destinations and cards. Do you want to edit or delete the previous notification?"
    },
    "android": {
        "textStyle": {
            "letterSpacing": 0,
            "strikeThrough": false
        }
    },
    "canUpdateUI": true,
    "centery": {
        "type": "string",
        "value": "50%"
    },
    "containerweight": 100,
    "contentalignment": 4,
    "id": "lblErrorMsg",
    "info": null,
    "ipad": {
        "psp": {
            "wrapping": 2
        }
    },
    "iphone": {
        "psp": {
            "wrapping": 2
        }
    },
    "isvisible": true,
    "kuid": "g904a8d660474e45bbc02cf09c143842",
    "name": "kony.ui.Label",
    "parent": "flxErrorMessage",
    "pf": "CopyfrmCardManagement",
    "responsiveData": {
        "b2": {
            "left": {
                "type": "string",
                "value": "90dp"
            },
            "width": {
                "type": "string",
                "value": "85%"
            }
        },
        "b3": {
            "left": {
                "type": "string",
                "value": "70dp"
            },
            "width": {
                "type": "string",
                "value": "85%"
            }
        }
    },
    "tooltip": "",
    "wType": "Label",
    "zindex": 1
}