{
    "@class": "com.kony.gen.viz.model.component.KVizLabel",
    "DNDConfig": null,
    "_height_": {
        "type": "string",
        "value": "25dp"
    },
    "_left_": {
        "type": "string",
        "value": "0dp"
    },
    "_margin_": [
        1,
        1,
        1,
        1
    ],
    "_padding_": [
        0,
        0,
        0,
        0
    ],
    "_skin_": "sc30b371f40d4cd2979dfbd67c441409",
    "_text_": "CREATE TRAVEL PLAN",
    "_top_": {
        "type": "string",
        "value": "25dp"
    },
    "_width_": {
        "type": "ref",
        "value": "preferred"
    },
    "_wrapping_": 2,
    "accessibilityconfig": {
        "a11yLabel": "Create Travel Plan"
    },
    "android": {
        "textStyle": {
            "letterSpacing": 0,
            "strikeThrough": false
        }
    },
    "canUpdateUI": true,
    "containerweight": 100,
    "contentalignment": 4,
    "id": "lblMyCardsHeader",
    "info": null,
    "ipad": {
        "psp": {
            "wrapping": 2
        }
    },
    "iphone": {
        "psp": {
            "wrapping": 2
        }
    },
    "isvisible": true,
    "kuid": "d8e515ea45f9476c969a24010e574508",
    "name": "kony.ui.Label",
    "parent": "flxHeading",
    "pf": "CopyfrmCardManagement",
    "responsiveData": {
        "b4": {
            "skin": "s18d3552bc4143569a7c5aef6bd5eaa1"
        }
    },
    "texti18n": "i18n.CardManagement.CreateTravelPlan",
    "tooltip": "",
    "wType": "Label",
    "zindex": 1
}