{
    "@class": "com.kony.gen.viz.model.container.KVizSegment2",
    "DNDConfig": null,
    "_data_": [],
    "_height_": {
        "type": "ref",
        "value": "preferred"
    },
    "_indicator_": "none",
    "_left_": {
        "type": "string",
        "value": "0dp"
    },
    "_margin_": [
        0,
        0,
        0,
        0
    ],
    "_orientation_": 2,
    "_padding_": [
        0,
        0,
        0,
        0
    ],
    "_right_": {
        "type": "string",
        "value": "0dp"
    },
    "_top_": {
        "type": "string",
        "value": "0dp"
    },
    "_width_": {
        "type": "number",
        "value": ""
    },
    "autogrowmode": 1,
    "canUpdateUI": true,
    "containerweight": 100,
    "counter": "09",
    "focusedindex": null,
    "focuseditem": null,
    "groupcells": false,
    "hasSections": false,
    "id": "segCardProducts",
    "info": null,
    "ipad": {
        "psp": {
            "indicator": "rowselect"
        }
    },
    "iphone": {
        "psp": {
            "indicator": "rowselect"
        }
    },
    "isvisible": true,
    "kuid": "he52dc2397984a639394899e80f09ce3",
    "masterdata": {},
    "name": "kony.ui.SegmentedUI2",
    "needpageindicator": true,
    "pageoffdotimage": "pageoffdot.png",
    "pageondotimage": "pageondot.png",
    "paginationconfig": {
        "position": "bottom"
    },
    "parent": "flxCardProductsSegments",
    "pf": "CopyfrmCardManagement",
    "responsiveData": {
        "b4": {
            "height": {
                "type": "ref",
                "value": "preferred"
            },
            "width": {
                "type": "string",
                "value": "100%"
            }
        }
    },
    "retainselection": false,
    "rowTemplateId": "b723ba356f2e492bad6ad0b5902c1317",
    "rowcounter": 9,
    "rowfocusskin": "s9f69e977910472eb44c62ae28c41fe1",
    "rowskin": "s81e45ca9be04bba9f11cf557d9d0c1e",
    "rowtemplate": "flxCardProducts",
    "screenlevelwidget": false,
    "seccounter": 0,
    "sectionHeaderTemplateId": null,
    "sectionheaderskin": "sdc4ff4ed1584272be2ae69045dfb29d",
    "selectedRows": null,
    "selectedState": false,
    "selectedindex": null,
    "selectedindices": null,
    "selecteditems": null,
    "selectedsectionindex": 0,
    "selectionbehavior": "default",
    "separatorrequired": false,
    "separatorthickness": 0,
    "showscrollbars": false,
    "viewtype": "tableview",
    "vizProps": {},
    "wType": "Segment",
    "widgetalignment": 5,
    "widgetdatamap": {
        "btnSelect": "btnSelect",
        "flxCardDetails": "flxCardDetails",
        "flxCardImage": "flxCardImage",
        "flxCardProducts": "flxCardProducts",
        "flxMyCards": "flxMyCards",
        "flxProductDetails": "flxProductDetails",
        "flxRepresentative": "flxRepresentative",
        "imgCard": "imgCard",
        "lblCardHeader": "lblCardHeader",
        "lblRepresentativeheader": "lblRepresentativeheader",
        "lblSeparator2": "lblSeparator2",
        "rtxValue": "rtxValue",
        "rtxValue1": "rtxValue1"
    },
    "zindex": 1
}