{
    "@class": "com.kony.gen.viz.model.component.KVizTextBox2",
    "DNDConfig": null,
    "_height_": {
        "type": "string",
        "value": "40dp"
    },
    "_left_": {
        "type": "string",
        "value": "3%"
    },
    "_margin_": [
        0,
        0,
        0,
        0
    ],
    "_padding_": [
        1,
        1,
        1,
        1
    ],
    "_placeholder_": "Enter 4 digit PIN",
    "_skin_": "s5f5a9f8c3a548e281fa49915b760e95",
    "_text_": "",
    "_top_": {
        "type": "string",
        "value": "10dp"
    },
    "_width_": {
        "type": "string",
        "value": "35%"
    },
    "accessibilityconfig": {
        "a11yLabel": "Optional"
    },
    "autocapitalize": "none",
    "autocomplete": false,
    "autocorrect": false,
    "autofilter": false,
    "canUpdateUI": true,
    "containerheight": "",
    "containerheightmode": 1,
    "containerweight": 100,
    "contentalignment": 4,
    "focusskin": "s2faf9c2766d4142ab33d0bf97445ae0",
    "id": "tbxConfirmCardPIN",
    "info": null,
    "isvisible": true,
    "keyboardtype": "A",
    "kuid": "b2aa946e30074c1aace01a69a5c9bc37",
    "maxtextlength": 6,
    "mode": "A",
    "name": "kony.ui.TextBox2",
    "paddingLocked": true,
    "paddinginpixel": false,
    "parent": "flxCardBody",
    "pf": "CopyfrmCardManagement",
    "placeholderi18n": "i18n.common.optional",
    "securetextentry": true,
    "textinputmode": "A",
    "viewtype": "default",
    "wType": "TextField",
    "zindex": 1
}