{
    "@class": "com.kony.gen.viz.model.component.KVizTextBox2",
    "DNDConfig": null,
    "_height_": {
        "type": "string",
        "value": "40dp"
    },
    "_left_": {
        "type": "string",
        "value": "0dp"
    },
    "_margin_": [
        0,
        0,
        0,
        0
    ],
    "_padding_": [
        2,
        2,
        2,
        2
    ],
    "_placeholder_": "",
    "_skin_": "s9425d47f432490cbabd204dfe1c1e97",
    "_text_": "",
    "_top_": {
        "type": "string",
        "value": "10dp"
    },
    "_width_": {
        "type": "string",
        "value": "90%"
    },
    "accessibilityconfig": {
        "a11yLabel": "Search for a Country, State or City(Maximum of 5 destinations you can add)"
    },
    "autocapitalize": "none",
    "autocomplete": false,
    "autocorrect": false,
    "autofilter": false,
    "canUpdateUI": true,
    "containerheight": "",
    "containerheightmode": 1,
    "containerweight": 100,
    "contentalignment": 4,
    "focusskin": "s2faf9c2766d4142ab33d0bf97445ae0",
    "id": "txtDestination",
    "info": null,
    "isvisible": true,
    "keyboardtype": "A",
    "kuid": "d6ad2d4490cf4d1885fb24147b78b4a0",
    "mode": "A",
    "name": "kony.ui.TextBox2",
    "paddingLocked": true,
    "paddinginpixel": false,
    "parent": "flxDestination",
    "pf": "CopyfrmCardManagement",
    "placeholderi18n": "i18n.CardManagement.SearchCountry",
    "securetextentry": false,
    "textinputmode": "A",
    "viewtype": "default",
    "wType": "TextField",
    "zindex": 1
}