{
    "@class": "com.kony.gen.viz.model.component.KVizButton",
    "DNDConfig": null,
    "_height_": {
        "type": "string",
        "value": "60dp"
    },
    "_left_": {
        "type": "string",
        "value": "20dp"
    },
    "_margin_": [
        6,
        6,
        6,
        6
    ],
    "_padding_": [
        0,
        0,
        0,
        0
    ],
    "_skin_": "s611bd2c5d324490aa9f7ed9d412984f",
    "_text_": "Pay Due Account",
    "_top_": {
        "type": "string",
        "value": "0dp"
    },
    "_width_": {
        "type": "string",
        "value": "90%"
    },
    "accessibilityconfig": {
        "a11yLabel": "View Account Details"
    },
    "canUpdateUI": true,
    "containerweight": 100,
    "contentalignment": 4,
    "disabledSkins": {
        "focusSkin": "sf44d06ca8224832827ea7fdff757013"
    },
    "displaytext": true,
    "id": "btnPayDueAccount",
    "info": null,
    "isvisible": true,
    "kuid": "a75ad7c448dd4836a2273b3b7da1c047",
    "name": "kony.ui.Button",
    "parent": "flxSecondaryActions",
    "pf": "frmPayDueAmount",
    "responsiveData": {
        "b3": {
            "skin": "s611bd2c5d324490aa9f7ed9d412984f"
        },
        "b4": {
            "skin": "s611bd2c5d324490aa9f7ed9d412984f"
        }
    },
    "texti18n": "i18n.loan.payDueAmount",
    "tooltip": "Pay Due Account",
    "wType": "Button",
    "zindex": 1
}