{
    "DNDConfig": null,
    "_height_": {
        "type": "string",
        "value": "336dp"
    },
    "_left_": {
        "type": "string",
        "value": "65.37%"
    },
    "_margin_": [
        0,
        0,
        0,
        0
    ],
    "_orientation_": 6,
    "_padding_": [
        0,
        0,
        0,
        0
    ],
    "_percent_": true,
    "_skin_": "sdc143f0e5b64ae3a3f155f691c73fa7",
    "_top_": {
        "type": "string",
        "value": "30dp"
    },
    "_width_": {
        "type": "string",
        "value": "28.50%"
    },
    "allboxes": [],
    "canUpdateUI": true,
    "children": [
        "mypaymentAccounts"
    ],
    "clipbounds": false,
    "containerweight": 100,
    "enablescrolling": true,
    "id": "flxMyPaymentAccounts",
    "info": null,
    "isvisible": false,
    "kuid": "g383c812b76540398b079e08d12ae4c7",
    "layouttype": 2,
    "name": "kony.ui.FlexContainer",
    "parent": "flxMainContainer",
    "pf": "frmPayDueAmount",
    "responsiveData": {
        "b1": {
            "isVisible": false,
            "zIndex": 1
        },
        "b2": {
            "isVisible": false
        },
        "b3": {
            "height": {
                "type": "string",
                "value": "350dp"
            },
            "isVisible": false,
            "top": {
                "type": "string",
                "value": "80dp"
            },
            "width": {
                "type": "string",
                "value": "28.50%"
            }
        },
        "b4": {
            "height": {
                "type": "string",
                "value": "345dp"
            },
            "isVisible": false,
            "top": {
                "type": "string",
                "value": "80dp"
            }
        }
    },
    "snapgridsize": 10,
    "snaptogrid": true,
    "wType": "FlexContainer",
    "widgetalignment": 1,
    "zindex": 1
}