{
    "@class": "com.kony.gen.viz.model.container.KVizScrollFlexForm",
    "DNDConfig": null,
    "_margin_": [
        0,
        0,
        0,
        0
    ],
    "_orientation_": 1,
    "_padding_": [
        0,
        0,
        0,
        0
    ],
    "_percent_": true,
    "_skin_": "s2f58a140c5647b8a643edf5a6309600",
    "_title_": null,
    "addWidgetsdone": false,
    "allboxes": [],
    "android": {
        "psp": {
            "windowSoftInputMode": 2
        }
    },
    "breakpointInfo": {
        "b1": {
            "width": 640
        },
        "b2": {
            "width": 1024
        },
        "b3": {
            "width": 1366
        },
        "b4": {
            "width": 1380
        }
    },
    "canUpdateUI": true,
    "canvasWidth": 2000,
    "children": [
        "flxHeader",
        "flxFormContent",
        "flxLogout",
        "flxQuitPayment",
        "flxLoading",
        "flxDialogs"
    ],
    "containerweight": 100,
    "controllerInfo": {
        "default": {
            "channel": "desktop",
            "name": "frmPayDueAmountController"
        }
    },
    "currentBreakpoint": {
        "kuid": "b4",
        "width": 1380
    },
    "currentLocale": "default",
    "desktopweb": {
        "needAppMenu": false
    },
    "device": "desktopweb",
    "displayorientation": 1,
    "enabledforidletimeout": true,
    "friendlyName": "frmPayDueAmount",
    "id": "frmPayDueAmount",
    "ide_onDeviceBack": "AS_Form_b0e7160a6b374e60be051b61112ea7d0",
    "ide_onTouchEnd": "AS_Form_ced0930a179e4de8b1c410fe3ae6d697",
    "ide_postShow": "AS_Form_cd94e734981b49cdbeb5ab4d34f4f525",
    "ide_preShow": "AS_Form_g4f57f598ab34e358b6b3294048f52f5",
    "info": null,
    "initdone": false,
    "inputaccessoryviewtype": 4,
    "ipad": {
        "psp": {
            "inputAccessoryViewType": 4
        }
    },
    "iphone": {
        "psp": {
            "inputAccessoryViewType": 4
        }
    },
    "isvisible": true,
    "kuid": "ba0b4f38b88d4ad7a2c69bb7d0d38c44",
    "layouttype": 2,
    "name": "kony.ui.Form2",
    "needappmenu": true,
    "paddinginpixel": false,
    "platform": "desktopweb",
    "prevDevice": "desktopweb",
    "prevPlatform": "desktopweb",
    "responsiveData": {
        "b1": {
            "skin": "s2f58a140c5647b8a643edf5a6309600"
        }
    },
    "retainscrollposition": false,
    "shellCSS": "desktop",
    "snapgridsize": 10,
    "snaptogrid": true,
    "titleBarSkin": "s2e24ee0a8ca46b089d8a5bea8a1a32e",
    "titlebar": true,
    "type": 3,
    "vizProps": {
        "globalRespDesignEnabled": true
    },
    "wType": "Form"
}