{
    "@class": "com.kony.gen.viz.model.component.KVizButton",
    "DNDConfig": null,
    "_height_": {
        "type": "string",
        "value": "40dp"
    },
    "_left_": {
        "type": "string",
        "value": "30.33%"
    },
    "_margin_": [
        6,
        6,
        6,
        6
    ],
    "_padding_": [
        0,
        0,
        0,
        0
    ],
    "_right_": {
        "type": "string",
        "value": "30.83%"
    },
    "_skin_": "s100ad33c8184b15ac7a0f140891d88b",
    "_text_": "",
    "_width_": {
        "type": "string",
        "value": "21.40%"
    },
    "accessibilityconfig": {
        "a11yHint": "Click Cancel to cancel this transaction",
        "a11yLabel": "Cancel"
    },
    "canUpdateUI": true,
    "centery": {
        "type": "string",
        "value": "50%"
    },
    "containerweight": 100,
    "contentalignment": 5,
    "desktopweb": {
        "psp": {
            "hoverSkin": "s434743e49c446699565893e4974ec52"
        }
    },
    "disabledSkins": {},
    "displaytext": true,
    "focusskin": "s434743e49c446699565893e4974ec52",
    "id": "CopybtnCancel0f6cdcb2865c341",
    "info": null,
    "isvisible": false,
    "kuid": "a154527cc56c423b8518c6f8339024a3",
    "name": "kony.ui.Button",
    "parent": "flxButtons",
    "pf": "frmCardManagementCardReplacement",
    "texti18n": "i18n.transfers.Cancel",
    "tooltip": "Cancel",
    "wType": "Button",
    "zindex": 1
}