{
    "@class": "com.kony.gen.viz.model.component.KVizLabel",
    "DNDConfig": null,
    "_height_": {
        "type": "string",
        "value": "26dp"
    },
    "_left_": {
        "type": "string",
        "value": "1dp"
    },
    "_margin_": [
        1,
        1,
        1,
        1
    ],
    "_padding_": [
        1,
        1,
        1,
        1
    ],
    "_skin_": "sbf892219fd04dbcae8a4a76f57b2ae0",
    "_text_": "L",
    "_width_": {
        "type": "string",
        "value": "22dp"
    },
    "_wrapping_": 2,
    "accessibilityconfig": {
        "a11yLabel": "Radio Button"
    },
    "android": {
        "textStyle": {
            "letterSpacing": 0,
            "strikeThrough": false
        }
    },
    "canUpdateUI": true,
    "centerx": {
        "type": "string",
        "value": "50%"
    },
    "centery": {
        "type": "string",
        "value": "50%"
    },
    "containerweight": 100,
    "contentalignment": 5,
    "id": "lblAddressCheckBox2",
    "info": null,
    "ipad": {
        "psp": {
            "wrapping": 2
        }
    },
    "iphone": {
        "psp": {
            "wrapping": 2
        }
    },
    "isvisible": true,
    "kuid": "b48a5086b45b4d0383fab1c6b4f5f585",
    "name": "kony.ui.Label",
    "parent": "flxAddressCheckbox2",
    "pf": "frmCardManagementCardReplacement",
    "responsiveData": {
        "b2": {
            "height": {
                "type": "string",
                "value": "28dp"
            },
            "width": {
                "type": "string",
                "value": "24dp"
            }
        },
        "b3": {
            "height": {
                "type": "string",
                "value": "30dp"
            },
            "width": {
                "type": "string",
                "value": "30dp"
            }
        }
    },
    "tooltip": "Email Id",
    "wType": "Label",
    "zindex": 1
}