{
    "@class": "com.kony.gen.viz.model.component.KVizUserWidget",
    "DNDConfig": null,
    "__parentReadjusting__": false,
    "_android_": {},
    "_androidwearos_": {},
    "_children_": [],
    "_desktopweb_": {},
    "_height_": {
        "type": "ref",
        "value": "preferred"
    },
    "_ipad_": {},
    "_iphone_": {},
    "_kiosk_": {},
    "_left_": {
        "type": "string",
        "value": "0dp"
    },
    "_margin_": [
        0,
        0,
        0,
        0
    ],
    "_orientation_": 1,
    "_padding_": [
        0,
        0,
        0,
        0
    ],
    "_percent_": true,
    "_render_": true,
    "_responsiveData_": {
        "b1": {
            "isVisible": true
        },
        "b4": {
            "centerX": {
                "type": "string",
                "value": "50%"
            },
            "left": {
                "type": "string",
                "value": "0dp"
            },
            "right": {
                "type": "string",
                "value": "0dp"
            },
            "width": {
                "type": "string",
                "value": "100%"
            }
        }
    },
    "_skin_": "s24c92fc23b14f5484b693ee9b8a9b35",
    "_spa_": {},
    "_spaan_": {},
    "_spaandroidtablet_": {},
    "_spabb_": {},
    "_spaip_": {},
    "_spaipad_": {},
    "_spamobile_": {},
    "_spatablet_": {},
    "_spawindowstablet_": {},
    "_spawinphone8_": {},
    "_tabrcandroid_": {},
    "_top_": {
        "type": "string",
        "value": "0dp"
    },
    "_vizProps_": {
        "hidewidgethierarchy": false
    },
    "_width_": {
        "type": "string",
        "value": "100%"
    },
    "_windows10_": {},
    "_windows8_": {},
    "_winphone10_": {},
    "_winphone8_": {},
    "android": {},
    "androidwearos": {},
    "areflexpropsreferenced": false,
    "autogrowmode": 1,
    "canUpdateUI": true,
    "clipbounds": false,
    "containerweight": 0,
    "dataDiffs": {
        "AcknowledgementNAO": {
            "__events__": {},
            "__info__": {
                "isRoot": true,
                "kuid": "b0f370ecc1d24c91bc2d2e5212b31ebe",
                "srcKUID": "faca8ed011c64776b0c1a2025401e834",
                "wType": "FlexContainer"
            },
            "centerX": {},
            "isVisible": false,
            "left": {},
            "responsiveData": {
                "b1": {},
                "b4": {
                    "centerX": {
                        "type": "string",
                        "value": "50%"
                    },
                    "left": {
                        "type": "string",
                        "value": "0dp"
                    },
                    "right": {
                        "type": "string",
                        "value": "0dp"
                    },
                    "width": {
                        "type": "string",
                        "value": "100%"
                    }
                }
            },
            "right": {},
            "width": {}
        },
        "btnAckFundAccounts": {
            "__events__": {},
            "__info__": {
                "kuid": "a2bf07249e884a96b9f50fe8cadfeb45",
                "srcKUID": "af8868b108414b96a76e67c12c03ae62",
                "wType": "Button"
            },
            "centerX": {},
            "responsiveData": {
                "b3": {
                    "centerX": {
                        "type": "string",
                        "value": "50%"
                    },
                    "right": {
                        "type": "string",
                        "value": ""
                    },
                    "width": {
                        "type": "string",
                        "value": "92.50%"
                    }
                }
            },
            "right": {},
            "width": {}
        },
        "btnAckGoToAccounts": {
            "__events__": {},
            "__info__": {
                "kuid": "fd5ca35fc3fb4ade8286d3b61e7589c5",
                "srcKUID": "dbe4a92ada7b4d9d894c2313887e3eaf",
                "wType": "Button"
            },
            "responsiveData": {
                "b3": {
                    "width": {
                        "type": "string",
                        "value": "200dp"
                    }
                }
            },
            "width": {}
        },
        "btnAcknowledgementSeperator2": {
            "__events__": {},
            "__info__": {
                "kuid": "i2077d22593645208e039cf7c2933b59",
                "srcKUID": "b1a832efffc5489ca01fb4fe06705025",
                "wType": "FlexContainer"
            }
        },
        "flxAcknowledgeWrapper": {
            "__events__": {},
            "__info__": {
                "kuid": "cf31971f13874d3990beeffe771b96d5",
                "srcKUID": "c85febdff72c4cee963d60392912bb03",
                "wType": "FlexContainer"
            },
            "responsiveData": {
                "b1": {
                    "top": {
                        "type": "string",
                        "value": "0dp"
                    }
                },
                "b2": {
                    "top": {
                        "type": "string",
                        "value": "0dp"
                    }
                },
                "b3": {
                    "top": {
                        "type": "string",
                        "value": "4dp"
                    }
                },
                "b4": {
                    "top": {
                        "type": "string",
                        "value": "0dp"
                    }
                }
            },
            "top": {}
        },
        "flxAcknowledgementButtons": {
            "__events__": {},
            "__info__": {
                "kuid": "db625e0932104fc882c36716a44d0306",
                "srcKUID": "h9a98c41d3164a07b4ef24652fa78a0c",
                "wType": "FlexContainer"
            }
        },
        "flxAcknowledgementMain": {
            "__events__": {},
            "__info__": {
                "kuid": "bff64642179f4ed6aaee3eba1367b2a0",
                "srcKUID": "cbb0f61177c94bb8ad0ee66d000f51ad",
                "wType": "FlexContainer"
            },
            "autogrowMode": {
                "Default": 0
            },
            "height": {},
            "responsiveData": {
                "b1": {
                    "layoutType": 4
                },
                "b3": {
                    "height": {
                        "type": "string",
                        "value": "600dp"
                    }
                }
            }
        },
        "flxColorLine": {
            "__events__": {},
            "__info__": {
                "kuid": "c3208474a8174945b2466c82f4fabeb0",
                "srcKUID": "c22c66c6f4b64ed5829b285cccf5c0d9",
                "wType": "FlexContainer"
            },
            "autogrowMode": {
                "Default": 0
            },
            "height": {},
            "responsiveData": {
                "b1": {
                    "height": {
                        "type": "string",
                        "value": "6dp"
                    }
                }
            }
        },
        "flxHeaderAcknowledgement": {
            "__events__": {},
            "__info__": {
                "kuid": "f3ac590c341b4d3885e43cb66bfb0994",
                "srcKUID": "hc261369067a44bf915245d352e77a1b",
                "wType": "FlexContainer"
            },
            "autogrowMode": {
                "Default": 0
            },
            "height": {
                "Default": {
                    "type": "string",
                    "value": "60dp"
                }
            },
            "left": {},
            "responsiveData": {
                "b1": {
                    "height": {
                        "type": "string",
                        "value": "77dp"
                    },
                    "top": {
                        "type": "string",
                        "value": "0dp"
                    },
                    "zIndex": 22
                },
                "b2": {
                    "height": {
                        "type": "string",
                        "value": "77dp"
                    }
                },
                "b3": {
                    "height": {
                        "type": "string",
                        "value": "30dp"
                    },
                    "isVisible": true
                },
                "b4": {
                    "height": {
                        "type": "string",
                        "value": "77dp"
                    },
                    "top": {
                        "type": "string",
                        "value": "0dp"
                    }
                }
            },
            "top": {},
            "zIndex": {}
        },
        "flxSeparator": {
            "__events__": {},
            "__info__": {
                "kuid": "ff282c650b614992b10f93ebf9126530",
                "srcKUID": "eec2bc5905f547d3b4160679cb66e477",
                "wType": "FlexContainer"
            }
        },
        "imgSuccess": {
            "__events__": {},
            "__info__": {
                "kuid": "e6b615b84e7b44b1949902f18c199f2c",
                "srcKUID": "dad4d10a114d47c59fe752baea5aa042",
                "wType": "Image"
            },
            "src": "success_green.png"
        },
        "lblAcknowledgementSeperator": {
            "__events__": {},
            "__info__": {
                "kuid": "da15610dc5d74ea09a463b6600d58f13",
                "srcKUID": "c772489a48c144c9966d9d80e903be86",
                "wType": "Label"
            },
            "left": {},
            "responsiveData": {
                "b3": {
                    "left": {
                        "type": "string",
                        "value": "5%"
                    },
                    "right": {
                        "type": "string",
                        "value": "5%"
                    }
                }
            },
            "right": {}
        },
        "lblProductsSelected": {
            "__events__": {},
            "__info__": {
                "kuid": "ceebd751640c427b924f6a8f9299ab74",
                "srcKUID": "j3515797257f4aa28b34ed4d42a66a7f",
                "wType": "Label"
            }
        },
        "lblSuccess": {
            "__events__": {},
            "__info__": {
                "kuid": "e0d829dad79645008090667bbe51acb4",
                "srcKUID": "a023e65e0437441f8aa72e74d033b5dd",
                "wType": "Label"
            },
            "responsiveData": {
                "b1": {},
                "b3": {
                    "width": {
                        "type": "string",
                        "value": "78.87%"
                    }
                }
            },
            "text": "Congratulations. \n   You have successfully created your account."
        },
        "lblUserInformation": {
            "__events__": {},
            "__info__": {
                "kuid": "e710b4a7840747268e7e9f333bf6a053",
                "srcKUID": "i1bfd0ef255c404b82be88a899ba22d0",
                "wType": "Label"
            },
            "responsiveData": {
                "b3": {
                    "isVisible": false
                }
            }
        },
        "segProducts": {
            "__events__": {},
            "__info__": {
                "kuid": "id619e5393d949fd8be85bd6dda7ce4a",
                "srcKUID": "f14b06a704c048f28b9c82c60160e70b",
                "wType": "Segment"
            },
            "autogrowMode": {
                "Default": 0
            },
            "height": {},
            "maxHeight": {},
            "responsiveData": {
                "b1": {
                    "maxHeight": {
                        "type": "string",
                        "value": "400dp"
                    }
                },
                "b3": {
                    "height": {
                        "type": "string",
                        "value": "310dp"
                    }
                },
                "b4": {
                    "maxHeight": {
                        "type": "number",
                        "value": "400"
                    }
                }
            }
        }
    },
    "desktopweb": {},
    "id": "AcknowledgementNAO",
    "info": null,
    "ipad": {},
    "iphone": {},
    "iscustomlayout": false,
    "isdatareferenced": false,
    "isvisible": false,
    "kiosk": {},
    "kuid": "b0f370ecc1d24c91bc2d2e5212b31ebe",
    "layouttype": 4,
    "masterType": 0,
    "name": "kony.ui.UserWidgetInstance",
    "parent": "flxNAOAcknowledgement",
    "pf": "frmShortTermDeposit",
    "responsiveData": {
        "b1": {},
        "b4": {
            "centerX": {
                "type": "string",
                "value": "50%"
            },
            "left": {
                "type": "string",
                "value": "0dp"
            },
            "right": {
                "type": "string",
                "value": "0dp"
            },
            "width": {
                "type": "string",
                "value": "100%"
            }
        }
    },
    "retaincontentalignment": false,
    "retainflexpositionproperties": false,
    "snapgridsize": 10,
    "snaptogrid": true,
    "sourceUserWidget": "faca8ed011c64776b0c1a2025401e834",
    "spa": {},
    "spaan": {},
    "spaandroidtablet": {},
    "spabb": {},
    "spaip": {},
    "spaipad": {},
    "spamobile": {},
    "spatablet": {},
    "spawindowstablet": {},
    "spawinphone8": {},
    "tabrcandroid": {},
    "vizProps": {
        "hidewidgethierarchy": false
    },
    "vizprops": {
        "hidewidgethierarchy": false
    },
    "wType": "UserWidgetInstance",
    "windows10": {},
    "windows8": {},
    "winphone10": {},
    "winphone8": {}
}