{
    "@class": "com.kony.gen.viz.model.component.KVizUserWidget",
    "DNDConfig": null,
    "__parentReadjusting__": false,
    "_android_": {},
    "_androidwearos_": {},
    "_children_": [],
    "_desktopweb_": {},
    "_height_": {
        "type": "ref",
        "value": "preferred"
    },
    "_ipad_": {},
    "_iphone_": {},
    "_kiosk_": {},
    "_left_": {
        "type": "string",
        "value": "0dp"
    },
    "_margin_": [
        0,
        0,
        0,
        0
    ],
    "_orientation_": 1,
    "_padding_": [
        0,
        0,
        0,
        0
    ],
    "_percent_": true,
    "_responsiveData_": {},
    "_skin_": "s24c92fc23b14f5484b693ee9b8a9b35",
    "_spa_": {},
    "_spaan_": {},
    "_spaandroidtablet_": {},
    "_spabb_": {},
    "_spaip_": {},
    "_spaipad_": {},
    "_spamobile_": {},
    "_spatablet_": {},
    "_spawindowstablet_": {},
    "_spawinphone8_": {},
    "_tabrcandroid_": {},
    "_top_": {
        "type": "string",
        "value": "0dp"
    },
    "_vizProps_": {
        "hidewidgethierarchy": false
    },
    "_width_": {
        "type": "string",
        "value": "100%"
    },
    "_windows10_": {},
    "_windows8_": {},
    "_winphone10_": {},
    "_winphone8_": {},
    "areflexpropsreferenced": false,
    "autogrowmode": 1,
    "canUpdateUI": true,
    "clipbounds": false,
    "containerweight": 0,
    "dataDiffs": {
        "AcknowledgementCM": {
            "__events__": {},
            "__info__": {
                "isRoot": true,
                "kuid": "je58a7c8fc9149f790b1d5e6f4606803",
                "srcKUID": "fb9a2419bb0f499c9b34ef8cbb2e5d61",
                "wType": "FlexContainer"
            },
            "autogrowMode": {
                "Default": 1
            },
            "centerX": {
                "Default": {
                    "type": "string",
                    "value": ""
                }
            },
            "height": {
                "Default": {
                    "type": "ref",
                    "value": "preferred"
                }
            },
            "isVisible": true,
            "responsiveData": {},
            "width": {
                "Default": {
                    "type": "string",
                    "value": "100%"
                }
            }
        },
        "btnAckFundAccounts": {
            "__events__": {},
            "__info__": {
                "kuid": "ia94c9adc57845339c2c2b61424e96b6",
                "srcKUID": "i5f72d2fb4d3434cb32eeea0eeb32a62",
                "wType": "Button"
            }
        },
        "btnAckGoToAccounts": {
            "__events__": {},
            "__info__": {
                "kuid": "gd219ecb6a564272ac9249fc13921c79",
                "srcKUID": "dd9736de673a48c0a6ce55dca1b30bec",
                "wType": "Button"
            },
            "i18n_text": null,
            "responsiveData": {},
            "text": "View Account"
        },
        "btnAcknowledgementSeperator2": {
            "__events__": {},
            "__info__": {
                "kuid": "i98fa456b9cd49219f28b5e5364ab9f0",
                "srcKUID": "cc0524f2ce9d49daaa621c5cb7441116",
                "wType": "FlexContainer"
            }
        },
        "confirmDialog": {
            "__events__": {},
            "__info__": {
                "kuid": "g468855187ec46c8a5512357f7943a94",
                "srcKUID": "id46af26885d4d769241a4938cdf43d8",
                "wType": "UserWidgetInstance"
            }
        },
        "confirmDialog.CopyRichText0j287807d04b44c": {
            "__events__": {},
            "__info__": {
                "kuid": "h2ed6d4cbd794f79ae0bf30a138fd153",
                "srcKUID": "h6f4c68261ad4e9ead377a1166bc73cd",
                "wType": "RichText"
            }
        },
        "confirmDialog.CopyflxKeyDescription0d7c673182b0844": {
            "__events__": {},
            "__info__": {
                "kuid": "a4731d25069a4d95b5c09409811e6b91",
                "srcKUID": "f9d679c15f62447a81a1cd8575113229",
                "wType": "FlexContainer"
            },
            "responsiveData": {},
            "width": {
                "Default": {
                    "type": "string",
                    "value": "23%"
                }
            }
        },
        "confirmDialog.CopyflxKeyDescription0dab44dae2f8a4b": {
            "__events__": {},
            "__info__": {
                "kuid": "bc391c829b09411cbbd699c4a91158aa",
                "srcKUID": "g5d2941685b6430781ba0ca076860a02",
                "wType": "FlexContainer"
            }
        },
        "confirmDialog.CopyflxKeyDescription0f2b5edb2ef234a": {
            "__events__": {},
            "__info__": {
                "kuid": "db22ed4b1eae4240b91830d70f576fa6",
                "srcKUID": "b4ecd040250e46bcbf0b83bb23f25d48",
                "wType": "FlexContainer"
            },
            "responsiveData": {},
            "width": {
                "Default": {
                    "type": "string",
                    "value": "40%"
                }
            }
        },
        "confirmDialog.CopyflxKeyDescription0fa12f2286a9941": {
            "__events__": {},
            "__info__": {
                "kuid": "cd80cfbe780648928bf983a029f3249f",
                "srcKUID": "c09aa92389634fcc85104748414055be",
                "wType": "FlexContainer"
            },
            "responsiveData": {},
            "width": {
                "Default": {
                    "type": "string",
                    "value": "25%"
                }
            }
        },
        "confirmDialog.CopyflxValue0ad2c1b7fd97440": {
            "__events__": {},
            "__info__": {
                "kuid": "fbb6b50a48ed45eea87d324c15ad9f0b",
                "srcKUID": "c7446ea429d14d6fafa92eed7ff1886b",
                "wType": "FlexContainer"
            },
            "left": {
                "Default": {
                    "type": "string",
                    "value": "40%"
                }
            },
            "responsiveData": {}
        },
        "confirmDialog.CopyflxValue0bb60337ccbaa4b": {
            "__events__": {},
            "__info__": {
                "kuid": "c7d2cd85402e47beab886832f5e025cc",
                "srcKUID": "b3e8bae437054dde959803f0cc829487",
                "wType": "FlexContainer"
            },
            "left": {
                "Default": {
                    "type": "string",
                    "value": "40%"
                }
            },
            "responsiveData": {}
        },
        "confirmDialog.CopyflxValue0g860ff64430944": {
            "__events__": {},
            "__info__": {
                "kuid": "iefbf8e4ec0343baa67ba4b1c5e6a6f8",
                "srcKUID": "b4117efac25a43a79dfbec8f4b787da9",
                "wType": "FlexContainer"
            },
            "left": {
                "Default": {
                    "type": "string",
                    "value": "40%"
                }
            },
            "responsiveData": {}
        },
        "confirmDialog.CopyflxValue0h44bf72de42644": {
            "__events__": {},
            "__info__": {
                "kuid": "fd3e872e5a3a4b3085c982e8222829b8",
                "srcKUID": "f816ad9e834c4ba48ee040624f63e214",
                "wType": "FlexContainer"
            }
        },
        "confirmDialog.CopylblKeyDescription0a12fa9a6e7084d": {
            "__events__": {},
            "__info__": {
                "kuid": "a7b763f2938a43aaa5b3599d7b528777",
                "srcKUID": "ae6149dff7fe498e9aa279121e8530e8",
                "wType": "Label"
            },
            "responsiveData": {},
            "text": "Interest/Principal to be Credited to:",
            "width": {
                "Default": {
                    "type": "string",
                    "value": "100%"
                }
            }
        },
        "confirmDialog.CopylblKeyDescription0e54a3d892daa49": {
            "__events__": {},
            "__info__": {
                "kuid": "e14656184fa84ce7a5152d1c46a1cf7c",
                "srcKUID": "bf71b95b72834d559ce25bb7665dfad4",
                "wType": "Label"
            }
        },
        "confirmDialog.CopylblKeyDescription0g25d166a3c8342": {
            "__events__": {},
            "__info__": {
                "kuid": "b44cd184f4394215a854d6a464666a9f",
                "srcKUID": "b15a9ec674a74c97978d471bee3194dd",
                "wType": "Label"
            },
            "responsiveData": {},
            "text": "Total Maturity Amount:",
            "width": {
                "Default": {
                    "type": "string",
                    "value": "200dp"
                }
            }
        },
        "confirmDialog.CopylblKeyDescription0i0dcc6c4c5134e": {
            "__events__": {},
            "__info__": {
                "kuid": "f5c37f5cc47c461d896d89db288f92ee",
                "srcKUID": "g6c5ff93f2094b87b52849683f8df6b5",
                "wType": "Label"
            },
            "responsiveData": {},
            "text": "Maturity Instructions:",
            "width": {
                "Default": {
                    "type": "string",
                    "value": "200dp"
                }
            }
        },
        "confirmDialog.CopylblValueDescription0b68a3d2d9c5942": {
            "__events__": {},
            "__info__": {
                "kuid": "i6f6b79f45984f1b88b65ae46c3c6da4",
                "srcKUID": "ec47e6239a53488ba2b202d879c84292",
                "wType": "Label"
            }
        },
        "confirmDialog.CopylblValueDescription0e7e996a47e5744": {
            "__events__": {},
            "__info__": {
                "kuid": "j1cc7d8c4ad74ddf851ad0f39ac23b70",
                "srcKUID": "jc29f322a952470287240b5a2b6bc796",
                "wType": "Label"
            }
        },
        "confirmDialog.CopylblValueDescription0i58df083cb9e4b": {
            "__events__": {},
            "__info__": {
                "kuid": "cdb7757a843d40488bb9a0296809d357",
                "srcKUID": "e737534c10b44c4490167aabc6b12255",
                "wType": "Label"
            }
        },
        "confirmDialog.CopylblValueDescription0j4d08d9160fb4d": {
            "__events__": {},
            "__info__": {
                "kuid": "c889b25aae14451f9ed0ee00aec93d58",
                "srcKUID": "d97d42fb44a6401eaae9d1ad4b0f21ba",
                "wType": "Label"
            }
        },
        "confirmDialog.RichText0bfcfe81705e240": {
            "__events__": {},
            "__info__": {
                "kuid": "e74104774d7744fa8eef5bfc8349339b",
                "srcKUID": "a6f19dae36954f909caebdba1feea4e0",
                "wType": "RichText"
            }
        },
        "confirmDialog.confirmHeaders": {
            "__events__": {},
            "__info__": {
                "kuid": "je1aea8aef14421eb86347f9b813e138",
                "srcKUID": "jba9c48bea3a40d39c835382187bd57b",
                "wType": "UserWidgetInstance"
            }
        },
        "confirmDialog.confirmHeaders.flxHeader": {
            "__events__": {},
            "__info__": {
                "kuid": "da8d4c032e3f4c5582f87a236cf6d61a",
                "srcKUID": "jfe0238a4b424a8285831ec109df581c",
                "wType": "FlexContainer"
            }
        },
        "confirmDialog.confirmHeaders.lblHeading": {
            "__events__": {},
            "__info__": {
                "kuid": "b5993017cac045a5b9565a13d50ab081",
                "srcKUID": "f94bc5aae7db4e60ada5d1d22998040b",
                "wType": "Label"
            },
            "i18n_text": null,
            "responsiveData": {},
            "text": "Your Account Details"
        },
        "confirmDialog.flxContainerAmount": {
            "__events__": {},
            "__info__": {
                "kuid": "b59f9d02002b4529a325f580eaeb2237",
                "srcKUID": "bd1795507fa54876bb966c67e157b94a",
                "wType": "FlexContainer"
            }
        },
        "confirmDialog.flxContainerDate": {
            "__events__": {},
            "__info__": {
                "kuid": "f0f23d513ece4d38a9f57c3e620b313d",
                "srcKUID": "ef441241c99b41df9a9d72c50013d0df",
                "wType": "FlexContainer"
            }
        },
        "confirmDialog.flxContainerDescription": {
            "__events__": {},
            "__info__": {
                "kuid": "ef0e5b67b95a4a5bbf72c6a1b73a847b",
                "srcKUID": "j457b5a1f49140f6a32cba726ac82ac7",
                "wType": "FlexContainer"
            }
        },
        "confirmDialog.flxContainerEight": {
            "__events__": {},
            "__info__": {
                "kuid": "id42333f568844728543c1435715e090",
                "srcKUID": "aafed30f15de4ca7a68d20ae36abfb52",
                "wType": "FlexContainer"
            },
            "bottom": {
                "Default": {
                    "type": "string",
                    "value": "20dp"
                }
            },
            "responsiveData": {}
        },
        "confirmDialog.flxContainerFrom": {
            "__events__": {},
            "__info__": {
                "kuid": "j13aa6ea481242be8494e7535fd05953",
                "srcKUID": "bc8aa431b2de4b13b54149a27137b8dc",
                "wType": "FlexContainer"
            }
        },
        "confirmDialog.flxContainerNine": {
            "__events__": {},
            "__info__": {
                "kuid": "e6259483ceb542bfb4fbecae0b927de3",
                "srcKUID": "d6f8600f33a84d34bcefeb58472a56ed",
                "wType": "FlexContainer"
            }
        },
        "confirmDialog.flxContainerSeven": {
            "__events__": {},
            "__info__": {
                "kuid": "f879a15566084795bc751a2cd701ed8d",
                "srcKUID": "hb77af4d229e47468fc22ca913a7b8b8",
                "wType": "FlexContainer"
            }
        },
        "confirmDialog.flxContainerSix": {
            "__events__": {},
            "__info__": {
                "kuid": "b8fffbc2d7bb4d0b9b81d9fee90286f1",
                "srcKUID": "i15b34d50ac543cb8d75d9a3c4cb216b",
                "wType": "FlexContainer"
            }
        },
        "confirmDialog.flxContainerTo": {
            "__events__": {},
            "__info__": {
                "kuid": "a4f698f0727e4f72bc8e6137bcfa91a2",
                "srcKUID": "b4ea630256f14ff9bf3b4565afbd95fa",
                "wType": "FlexContainer"
            }
        },
        "confirmDialog.flxHorizontalLine": {
            "__events__": {},
            "__info__": {
                "kuid": "f3064ce8c2d146eb95c26c016001a369",
                "srcKUID": "g1ab6b43163b4570b6003c060a3b6ed6",
                "wType": "FlexContainer"
            }
        },
        "confirmDialog.flxKey": {
            "__events__": {},
            "__info__": {
                "kuid": "fb7cc6f635db41afac0997e7decfa407",
                "srcKUID": "bd98a44049874ac8bdabdbcdcc0b73ca",
                "wType": "FlexContainer"
            }
        },
        "confirmDialog.flxKeyAmount": {
            "__events__": {},
            "__info__": {
                "kuid": "bbde97d2082d470fa3e598862de12a96",
                "srcKUID": "gaa6fb32481e4443874d57112f129399",
                "wType": "FlexContainer"
            }
        },
        "confirmDialog.flxKeyDate": {
            "__events__": {},
            "__info__": {
                "kuid": "c41e57df3c3345b99fb3a4777fde4cca",
                "srcKUID": "ge8a2654410143329f91ad2cc518bd19",
                "wType": "FlexContainer"
            }
        },
        "confirmDialog.flxKeyDescription": {
            "__events__": {},
            "__info__": {
                "kuid": "h2839d45e6524e8aa08c612a29d082f5",
                "srcKUID": "caeae7b5db964a9592b84072ee5b1f65",
                "wType": "FlexContainer"
            }
        },
        "confirmDialog.flxKeyTo": {
            "__events__": {},
            "__info__": {
                "kuid": "e32bb7ec78d1436782790e9220af4520",
                "srcKUID": "bcb82625f0734858963e13feef305a30",
                "wType": "FlexContainer"
            }
        },
        "confirmDialog.flxMain": {
            "__events__": {},
            "__info__": {
                "kuid": "a9cd8db77aac4a15aca4bca80ab28188",
                "srcKUID": "fdd28a1ccd5741ebae6b42a7b7ddfc46",
                "wType": "FlexContainer"
            }
        },
        "confirmDialog.flxValue": {
            "__events__": {},
            "__info__": {
                "kuid": "b1a26fbc7f7d494b9ef0a12307d8d906",
                "srcKUID": "b2538ce9a56e4b78af1e58c80e1d3870",
                "wType": "FlexContainer"
            },
            "left": {
                "Default": {
                    "type": "string",
                    "value": "40%"
                }
            },
            "responsiveData": {}
        },
        "confirmDialog.flxValue0Description": {
            "__events__": {},
            "__info__": {
                "kuid": "ga5eebfec40640a399685e35be726529",
                "srcKUID": "d50fd9192d9f4e0f99643a811c5b80a1",
                "wType": "FlexContainer"
            },
            "left": {
                "Default": {
                    "type": "string",
                    "value": "40%"
                }
            },
            "responsiveData": {}
        },
        "confirmDialog.flxValueAmount": {
            "__events__": {},
            "__info__": {
                "kuid": "c3b6d6c9cd814007928ee21dc074653f",
                "srcKUID": "e03e2dc8dd5d44159402cdd4b1a9bc31",
                "wType": "FlexContainer"
            },
            "left": {
                "Default": {
                    "type": "string",
                    "value": "40%"
                }
            },
            "responsiveData": {}
        },
        "confirmDialog.flxValueDate": {
            "__events__": {},
            "__info__": {
                "kuid": "e342f6de592441b7b7782aa04dda5934",
                "srcKUID": "c64cb7ab00654cf9a971df57b0a712e2",
                "wType": "FlexContainer"
            },
            "left": {
                "Default": {
                    "type": "string",
                    "value": "40%"
                }
            },
            "responsiveData": {}
        },
        "confirmDialog.flxValueTo": {
            "__events__": {},
            "__info__": {
                "kuid": "aebb8a57c477494abb133d21cbd26fb9",
                "srcKUID": "faf918974d8246a2b8dc57cb62884c1a",
                "wType": "FlexContainer"
            },
            "left": {
                "Default": {
                    "type": "string",
                    "value": "40%"
                }
            },
            "responsiveData": {}
        },
        "confirmDialog.lblKey": {
            "__events__": {},
            "__info__": {
                "kuid": "ec9fe48a6a19498da153023764689757",
                "srcKUID": "a1f40599a77d4046aa7fec208a2121e6",
                "wType": "Label"
            },
            "responsiveData": {},
            "text": "From Account:"
        },
        "confirmDialog.lblKeyAmount": {
            "__events__": {},
            "__info__": {
                "kuid": "hd689f2bd4e34fbb9295ba5feaac996d",
                "srcKUID": "c94d2a2cdf0d4a148465b4320e3e52be",
                "wType": "Label"
            }
        },
        "confirmDialog.lblKeyDAte": {
            "__events__": {},
            "__info__": {
                "kuid": "ad915dfc2a06499fa634f8b338cc64bb",
                "srcKUID": "f32a41e8febe480caef9c80e8c0b1311",
                "wType": "Label"
            }
        },
        "confirmDialog.lblKeyDescription": {
            "__events__": {},
            "__info__": {
                "kuid": "ga64ea16d7fe4eeeac60161b6c2e250a",
                "srcKUID": "fdbe7a3c58084f30af68ab041b105f49",
                "wType": "Label"
            },
            "responsiveData": {},
            "text": "Interest Amount:"
        },
        "confirmDialog.lblKeyTo": {
            "__events__": {},
            "__info__": {
                "kuid": "f5b9eff91d7848b0b7edc6cf411cc143",
                "srcKUID": "fec609e39f474790b04208a17714b9e7",
                "wType": "Label"
            },
            "responsiveData": {},
            "text": "Deposit Amount:"
        },
        "confirmDialog.lblValue": {
            "__events__": {},
            "__info__": {
                "kuid": "cc03350f49d14630a6007322c75d08be",
                "srcKUID": "fd15cb493f60429e8252adfa1d4522a3",
                "wType": "Label"
            }
        },
        "confirmDialog.lblValueDescription": {
            "__events__": {},
            "__info__": {
                "kuid": "bae6d363d877401f81ce7527da64a564",
                "srcKUID": "e6123f607f23451db06866d200465089",
                "wType": "Label"
            }
        },
        "confirmDialog.lblValueTo": {
            "__events__": {},
            "__info__": {
                "kuid": "b84852b1469c4723b47f8f5c07c15f8d",
                "srcKUID": "hd8ef0e0232642e4adbf9a87ba404c06",
                "wType": "Label"
            }
        },
        "flxAcknowledgeWrapper": {
            "__events__": {},
            "__info__": {
                "kuid": "h09b180b315f449a999b7d9d3c6b6c53",
                "srcKUID": "cfd8e83c74f14222b82249a28e7e2931",
                "wType": "FlexContainer"
            },
            "isVisible": true,
            "responsiveData": {}
        },
        "flxAcknowledgementButtons": {
            "__events__": {},
            "__info__": {
                "kuid": "ga5f78239b0949f4b4a601028e36b0e0",
                "srcKUID": "f6fce7b99ca443309e809233eab154cb",
                "wType": "FlexContainer"
            },
            "bottom": {
                "Default": {
                    "type": "string",
                    "value": ""
                }
            },
            "isVisible": true,
            "responsiveData": {},
            "top": {
                "Default": {
                    "type": "string",
                    "value": "0dp"
                }
            }
        },
        "flxAcknowledgementMain": {
            "__events__": {},
            "__info__": {
                "kuid": "i3af6cd4e7014ba5b4e667f381629e66",
                "srcKUID": "da133bcb5e814398aa225b5ec02dbb4f",
                "wType": "FlexContainer"
            },
            "autogrowMode": {
                "Default": 0
            },
            "height": {
                "Default": {
                    "type": "string",
                    "value": "700dp"
                }
            },
            "isVisible": true,
            "responsiveData": {}
        },
        "flxColorLine": {
            "__events__": {},
            "__info__": {
                "kuid": "f51372724c3149429c59b1d51e34fc16",
                "srcKUID": "ff36594f58a445e5ada86413820aead9",
                "wType": "FlexContainer"
            }
        },
        "flxHeaderAcknowledgement": {
            "__events__": {},
            "__info__": {
                "kuid": "ef52668a457e4270962671b1d6322d12",
                "srcKUID": "b6f977a99d4a4effbb5c3275b3e7539c",
                "wType": "FlexContainer"
            }
        },
        "flxLoanDetails": {
            "__events__": {},
            "__info__": {
                "kuid": "f264978e5113451a8e6a4f281a6d80ab",
                "srcKUID": "b1c81e2b35a14c1abc5937bf6823747e",
                "wType": "FlexContainer"
            }
        },
        "flxSeparator": {
            "__events__": {},
            "__info__": {
                "kuid": "dc3385f4185a402693fede054b4dce0e",
                "srcKUID": "b94e6e4957944742a4a4670f5b2ae706",
                "wType": "FlexContainer"
            }
        },
        "flxSeparator0": {
            "__events__": {},
            "__info__": {
                "kuid": "f2e4f33690f64b44abc0c7def1b51ba6",
                "srcKUID": "g9e3e7d36e15470e823c52b7f6d04728",
                "wType": "FlexContainer"
            },
            "bottom": {
                "Default": {
                    "type": "string",
                    "value": "1dp"
                }
            },
            "isVisible": false,
            "responsiveData": {},
            "top": {
                "Default": {
                    "type": "number",
                    "value": "-1"
                }
            }
        },
        "imgSuccess": {
            "__events__": {},
            "__info__": {
                "kuid": "c47ef899ef8a43b794c5a6a2f61ac42f",
                "srcKUID": "e3dc3db15da34c0eb14f79762570de31",
                "wType": "Image"
            },
            "src": "success_green.png"
        },
        "lblAcknowledgementSeperator": {
            "__events__": {},
            "__info__": {
                "kuid": "ffa946018e394ef083a2bee2cd1d5b68",
                "srcKUID": "g6b3190a25c64c35a1e24dc6379985b4",
                "wType": "Label"
            }
        },
        "lblProductsSelected": {
            "__events__": {},
            "__info__": {
                "kuid": "h01879c7d8b749a6b6eed4f2905f2182",
                "srcKUID": "gf35975734ba4871afb3ddf2196027a2",
                "wType": "Label"
            }
        },
        "lblSuccess": {
            "__events__": {},
            "__info__": {
                "kuid": "bafc90bb0644423884771665d5ff4afd",
                "srcKUID": "b48111e4078549e5b8a14d8e701f0c1f",
                "wType": "Label"
            },
            "responsiveData": {},
            "text": "Congratulations! \n   You have successfully created your term deposit account.",
            "width": {
                "Default": {
                    "type": "string",
                    "value": "90%"
                }
            }
        },
        "lblUserInformation": {
            "__events__": {},
            "__info__": {
                "kuid": "eb23a8164a254ee198cbacdd930ea0a8",
                "srcKUID": "da793da0c92047fd9fb1c24c047e35b0",
                "wType": "Label"
            }
        },
        "segProducts": {
            "__events__": {},
            "__info__": {
                "kuid": "dc471d926b4c42c983c16f28100be322",
                "srcKUID": "jad8dbc7115e4d8389bd292b7071a67e",
                "wType": "Segment"
            }
        }
    },
    "enablescrolling": true,
    "id": "AcknowledgementCM",
    "info": null,
    "iscustomlayout": false,
    "isdatareferenced": false,
    "issegmentchild": false,
    "isvisible": true,
    "kuid": "je58a7c8fc9149f790b1d5e6f4606803",
    "layouttype": 4,
    "masterType": 0,
    "name": "kony.ui.UserWidgetInstance",
    "parent": "flxNAOAcknowledgement",
    "pf": "frmShortTermDeposit",
    "retaincontentalignment": false,
    "retainflexpositionproperties": false,
    "snapgridsize": 10,
    "snaptogrid": true,
    "sourceUserWidget": "fb9a2419bb0f499c9b34ef8cbb2e5d61",
    "wType": "UserWidgetInstance"
}