{
    "@class": "com.kony.gen.viz.model.component.KVizUserWidget",
    "DNDConfig": null,
    "__parentReadjusting__": false,
    "_android_": {},
    "_androidwearos_": {},
    "_children_": [],
    "_desktopweb_": {},
    "_height_": {
        "type": "string",
        "value": "175dp"
    },
    "_ipad_": {},
    "_iphone_": {},
    "_kiosk_": {},
    "_left_": {
        "type": "string",
        "value": "0dp"
    },
    "_margin_": [
        0,
        0,
        0,
        0
    ],
    "_orientation_": 1,
    "_padding_": [
        0,
        0,
        0,
        0
    ],
    "_percent_": true,
    "_render_": true,
    "_responsiveData_": {
        "b1": {
            "height": {
                "type": "string",
                "value": "175px"
            },
            "top": {
                "type": "string",
                "value": "20dp"
            }
        },
        "b2": {
            "height": {
                "type": "string",
                "value": "175px"
            },
            "top": {
                "type": "number",
                "value": "20"
            }
        }
    },
    "_skin_": "scbd4cac3526468089bf3013adff0549",
    "_spa_": {},
    "_spaan_": {},
    "_spaandroidtablet_": {},
    "_spabb_": {},
    "_spaip_": {},
    "_spaipad_": {},
    "_spamobile_": {},
    "_spatablet_": {},
    "_spawindowstablet_": {},
    "_spawinphone8_": {},
    "_tabrcandroid_": {},
    "_top_": {
        "type": "string",
        "value": "0dp"
    },
    "_vizProps_": {
        "hidewidgethierarchy": false
    },
    "_width_": {
        "type": "string",
        "value": "99%"
    },
    "_windows10_": {},
    "_windows8_": {},
    "_winphone10_": {},
    "_winphone8_": {},
    "android": {},
    "androidwearos": {},
    "areflexpropsreferenced": false,
    "canUpdateUI": true,
    "centerx": {
        "type": "string",
        "value": "50%"
    },
    "clipbounds": false,
    "containerweight": 0,
    "dataDiffs": {
        "BannerNUO": {
            "__events__": {},
            "__info__": {
                "isRoot": true,
                "kuid": "h30ab86d229744b0aa9b4de04137db19",
                "srcKUID": "b782e27d8289411e86273ee54ffeadb0",
                "wType": "FlexContainer"
            },
            "autogrowMode": {
                "Default": 0
            },
            "centerX": {
                "Default": {
                    "type": "string",
                    "value": "50%"
                }
            },
            "height": {},
            "responsiveData": {
                "b1": {
                    "height": {
                        "type": "string",
                        "value": "175px"
                    },
                    "top": {
                        "type": "string",
                        "value": "20dp"
                    }
                },
                "b2": {
                    "height": {
                        "type": "string",
                        "value": "175px"
                    },
                    "top": {
                        "type": "number",
                        "value": "20"
                    }
                }
            },
            "top": {},
            "width": {
                "Default": {
                    "type": "string",
                    "value": "99%"
                }
            }
        },
        "btnAccountsDescriptionCancel": {
            "__events__": {},
            "__info__": {
                "kuid": "fa3390628ee449a5aa5cb910cfdf8f10",
                "srcKUID": "d611fa72861b444eb082409416d4ff96",
                "wType": "Button"
            },
            "responsiveData": {
                "b1": {
                    "isVisible": false,
                    "top": {
                        "type": "string",
                        "value": "93dp"
                    }
                },
                "b2": {
                    "isVisible": false,
                    "top": {
                        "type": "string",
                        "value": "95dp"
                    }
                }
            }
        },
        "flxBannerImage": {
            "__events__": {},
            "__info__": {
                "kuid": "fd97f92173374edbb94b18987cceb550",
                "srcKUID": "b1c87dfb1233466583d371d6a0d36d59",
                "wType": "FlexContainer"
            },
            "autogrowMode": {
                "Default": 0
            },
            "centerX": {},
            "centerY": {
                "Default": {
                    "type": "string",
                    "value": "49%"
                }
            },
            "height": {},
            "left": {},
            "responsiveData": {
                "b1": {
                    "centerX": {
                        "type": "string",
                        "value": "50%"
                    },
                    "centerY": {
                        "type": "string",
                        "value": "50%"
                    },
                    "height": {
                        "type": "string",
                        "value": "90%"
                    },
                    "left": {
                        "type": "string",
                        "value": ""
                    },
                    "top": {
                        "type": "string",
                        "value": ""
                    },
                    "width": {
                        "type": "string",
                        "value": "95%"
                    }
                },
                "b2": {
                    "centerY": {
                        "type": "string",
                        "value": "50%"
                    },
                    "width": {
                        "type": "string",
                        "value": "95%"
                    }
                }
            },
            "top": {},
            "width": {
                "Default": {
                    "type": "string",
                    "value": "375dp"
                }
            }
        },
        "flxBannerWrapper": {
            "__events__": {},
            "__info__": {
                "kuid": "aab44a18a1824488957ea8fc4d99caeb",
                "srcKUID": "a67ade5a02ed45cf9ee70e954b0145dd",
                "wType": "FlexContainer"
            },
            "responsiveData": {
                "b1": {}
            },
            "width": {
                "Default": {
                    "type": "string",
                    "value": "100%"
                }
            }
        },
        "imgBanner": {
            "__events__": {},
            "__info__": {
                "kuid": "fffef1ec392b485b982221ea64d9e0f8",
                "srcKUID": "fc41b424b56d4ba48f53450e29fc4442",
                "wType": "Image"
            },
            "responsiveData": {
                "b1": {
                    "left": {
                        "type": "string",
                        "value": "-1dp"
                    },
                    "top": {
                        "type": "string",
                        "value": "0dp"
                    },
                    "width": {
                        "type": "string",
                        "value": "100%"
                    }
                },
                "b2": {
                    "width": {
                        "type": "string",
                        "value": "100%"
                    }
                }
            },
            "src": "nuo_banner_1.png",
            "top": {},
            "width": {
                "Default": {
                    "type": "string",
                    "value": "376dp"
                }
            }
        },
        "lblChooseEligibilityCriteriaError": {
            "__events__": {},
            "__info__": {
                "kuid": "c39b71351c754b1c8e04185df4d207cb",
                "srcKUID": "be923c7f06bb468b8717b9462c6ed5b7",
                "wType": "Label"
            },
            "responsiveData": {
                "b1": {
                    "isVisible": false,
                    "top": {
                        "type": "string",
                        "value": "21dp"
                    }
                },
                "b2": {
                    "top": {
                        "type": "string",
                        "value": "19dp"
                    }
                }
            }
        },
        "lblMessage2": {
            "__events__": {},
            "__info__": {
                "kuid": "hf07f8bb022745f99fb5bef82ae945f5",
                "srcKUID": "b70a0c03566f43fc994b4b1f667b81f0",
                "wType": "Label"
            },
            "responsiveData": {
                "b1": {
                    "isVisible": false,
                    "top": {
                        "type": "string",
                        "value": "41dp"
                    }
                },
                "b2": {
                    "top": {
                        "type": "string",
                        "value": "41dp"
                    }
                }
            }
        }
    },
    "desktopweb": {},
    "id": "BannerNUO",
    "info": null,
    "ipad": {},
    "iphone": {},
    "iscustomlayout": false,
    "isdatareferenced": false,
    "isvisible": false,
    "kiosk": {},
    "kuid": "h30ab86d229744b0aa9b4de04137db19",
    "layouttype": 2,
    "masterType": 0,
    "name": "kony.ui.UserWidgetInstance",
    "parent": "flxRightContainer",
    "pf": "frmShortTermDeposit",
    "responsiveData": {
        "b1": {
            "height": {
                "type": "string",
                "value": "175px"
            },
            "top": {
                "type": "string",
                "value": "20dp"
            }
        },
        "b2": {
            "height": {
                "type": "string",
                "value": "175px"
            },
            "top": {
                "type": "number",
                "value": "20"
            }
        }
    },
    "retaincontentalignment": false,
    "retainflexpositionproperties": false,
    "snaptogrid": true,
    "sourceUserWidget": "b782e27d8289411e86273ee54ffeadb0",
    "spa": {},
    "spaan": {},
    "spaandroidtablet": {},
    "spabb": {},
    "spaip": {},
    "spaipad": {},
    "spamobile": {},
    "spatablet": {},
    "spawindowstablet": {},
    "spawinphone8": {},
    "tabrcandroid": {},
    "vizProps": {
        "hidewidgethierarchy": false
    },
    "wType": "UserWidgetInstance",
    "windows10": {},
    "windows8": {},
    "winphone10": {},
    "winphone8": {}
}