{
    "@class": "com.kony.gen.viz.model.component.KVizButton",
    "DNDConfig": null,
    "__parentReadjusting__": false,
    "_bottom_": 30,
    "_height_": {
        "type": "string",
        "value": "40dp"
    },
    "_margin_": [
        6,
        6,
        6,
        6
    ],
    "_padding_": [
        0,
        0,
        0,
        0
    ],
    "_right_": {
        "type": "string",
        "value": "190dp"
    },
    "_skin_": "s215ef7edf8c4ddb8f9f91fcc80f7b42",
    "_text_": "NO",
    "_width_": {
        "type": "string",
        "value": "150dp"
    },
    "accessibilityconfig": {
        "a11yLabel": "Cancel"
    },
    "canUpdateUI": true,
    "centery": {
        "type": "string",
        "value": "50%"
    },
    "containerweight": 100,
    "contentalignment": 5,
    "disabledSkins": {
        "focusSkin": "sf44d06ca8224832827ea7fdff757013"
    },
    "displaytext": true,
    "id": "btnCancel",
    "info": null,
    "isvisible": false,
    "kuid": "fc6ba4edb2c9428fb27e1fb4fd91aa9a",
    "name": "kony.ui.Button",
    "parent": "flxContentsButtons",
    "pf": "frmShortTermDeposit",
    "responsiveData": {
        "b2": {
            "skin": "s215ef7edf8c4ddb8f9f91fcc80f7b42"
        },
        "b3": {
            "right": {
                "type": "string",
                "value": "160dp"
            },
            "skin": "s215ef7edf8c4ddb8f9f91fcc80f7b42",
            "width": {
                "type": "string",
                "value": "120dp"
            }
        },
        "b4": {
            "skin": "s215ef7edf8c4ddb8f9f91fcc80f7b42"
        }
    },
    "texti18n": "i18n.transfers.Cancel",
    "tooltip": "Cancel",
    "wType": "Button",
    "zindex": 1
}