{
    "@class": "com.kony.gen.viz.model.component.KVizButton",
    "DNDConfig": null,
    "__parentReadjusting__": false,
    "_bottom_": {
        "type": "number",
        "value": "30"
    },
    "_height_": {
        "type": "string",
        "value": "40dp"
    },
    "_margin_": [
        6,
        6,
        6,
        6
    ],
    "_padding_": [
        0,
        0,
        0,
        0
    ],
    "_right_": {
        "type": "string",
        "value": "20dp"
    },
    "_skin_": "sfbbba35ede4457b94eb681b72349b98",
    "_text_": "YES",
    "_width_": {
        "type": "string",
        "value": "150dp"
    },
    "accessibilityconfig": {
        "a11yLabel": "Save"
    },
    "canUpdateUI": true,
    "centery": {
        "type": "string",
        "value": "50%"
    },
    "containerweight": 100,
    "contentalignment": 5,
    "disabledSkins": {
        "focusSkin": "sf44d06ca8224832827ea7fdff757013"
    },
    "displaytext": true,
    "id": "btnSave",
    "info": null,
    "isvisible": false,
    "kuid": "aa6510e563114e2580c6e9fbdbab3c0b",
    "name": "kony.ui.Button",
    "parent": "flxContentsButtons",
    "pf": "frmShortTermDeposit",
    "responsiveData": {
        "b2": {
            "skin": "sfbbba35ede4457b94eb681b72349b98"
        },
        "b3": {
            "skin": "sfbbba35ede4457b94eb681b72349b98",
            "width": {
                "type": "string",
                "value": "120dp"
            }
        },
        "b4": {
            "skin": "sfbbba35ede4457b94eb681b72349b98"
        }
    },
    "texti18n": "i18n.ProfileManagement.Save",
    "tooltip": "Save",
    "wType": "Button",
    "zindex": 1
}