{
    "@class": "com.kony.gen.viz.model.component.KVizUserWidget",
    "DNDConfig": null,
    "__parentReadjusting__": false,
    "_android_": {},
    "_androidwearos_": {},
    "_children_": [],
    "_desktopweb_": {
        "render": true
    },
    "_height_": {
        "type": "string",
        "value": "150dp"
    },
    "_ipad_": {},
    "_iphone_": {},
    "_kiosk_": {
        "render": true
    },
    "_left_": {
        "type": "string",
        "value": "0dp"
    },
    "_margin_": [
        0,
        0,
        0,
        0
    ],
    "_orientation_": 1,
    "_padding_": [
        0,
        0,
        0,
        0
    ],
    "_percent_": true,
    "_render_": true,
    "_responsiveData_": {
        "b1": {
            "isVisible": true
        },
        "b2": {
            "width": {
                "type": "string",
                "value": "100%"
            }
        },
        "b3": {
            "isVisible": true,
            "width": {
                "type": "string",
                "value": "100%"
            }
        },
        "b4": {
            "isVisible": true,
            "right": {
                "type": "string",
                "value": "0dp"
            },
            "top": {
                "type": "string",
                "value": "-1dp"
            },
            "width": {
                "type": "string",
                "value": "100%"
            }
        }
    },
    "_skin_": "s24c92fc23b14f5484b693ee9b8a9b35",
    "_spa_": {},
    "_spaan_": {},
    "_spaandroidtablet_": {},
    "_spabb_": {},
    "_spaip_": {},
    "_spaipad_": {},
    "_spamobile_": {},
    "_spatablet_": {},
    "_spawindowstablet_": {},
    "_spawinphone8_": {},
    "_tabrcandroid_": {},
    "_top_": {
        "type": "string",
        "value": "0dp"
    },
    "_vizProps_": {
        "hidewidgethierarchy": false
    },
    "_width_": {
        "type": "string",
        "value": "1366dp"
    },
    "_windows10_": {},
    "_windows8_": {},
    "_winphone10_": {},
    "_winphone8_": {},
    "android": {},
    "androidwearos": {},
    "areflexpropsreferenced": false,
    "autogrowmode": 0,
    "canUpdateUI": true,
    "centerx": {
        "type": "string",
        "value": "50%"
    },
    "clipbounds": true,
    "containerweight": 0,
    "dataDiffs": {
        "btnContactUs": {
            "__events__": {
                "ide_onClick": "AS_Button_c9629f4bc9054d0bb9114026c374b2ce"
            },
            "__info__": {
                "kuid": "jc7e5e30eaa0451b8915c1f55b09f654",
                "srcKUID": "c47b0c9af1b84e63aa01af59eb52124a",
                "wType": "Button"
            },
            "centerX": {
                "Default": {
                    "type": "string",
                    "value": ""
                }
            },
            "centerY": {
                "Default": {
                    "type": "string",
                    "value": "50%"
                }
            },
            "left": {},
            "responsiveData": {
                "b3": {
                    "left": {
                        "type": "string",
                        "value": "20dp"
                    }
                }
            }
        },
        "btnFaqs": {
            "__events__": {
                "ide_onClick": "AS_Button_c56d95273b5748908d61380780057083"
            },
            "__info__": {
                "kuid": "db419d177de04db58946b19318825077",
                "srcKUID": "ced702d00bc5426892e4632faec9df5d",
                "wType": "Button"
            },
            "responsiveData": {
                "b3": {
                    "isVisible": false
                }
            }
        },
        "btnLocateUs": {
            "__events__": {
                "ide_onClick": "AS_Button_c2f13ae52ba449e5b197ee4ea92385d2"
            },
            "__info__": {
                "kuid": "f7c310e16511434c8ca21ce7d798fd80",
                "srcKUID": "i52587cdcb68471f9e389671ddc5f138",
                "wType": "Button"
            },
            "centerX": {},
            "centerY": {
                "Default": {
                    "type": "string",
                    "value": "50%"
                }
            },
            "left": {},
            "responsiveData": {
                "b3": {
                    "centerX": {
                        "type": "string",
                        "value": ""
                    },
                    "left": {
                        "type": "string",
                        "value": "0%"
                    }
                },
                "b4": {
                    "left": {
                        "type": "string",
                        "value": "0dp"
                    }
                }
            }
        },
        "btnPrivacy": {
            "__events__": {
                "ide_onClick": "AS_Button_hdc4f4aa95fd42d99826b88ad0f5e034"
            },
            "__info__": {
                "kuid": "j5893a7a6bf441c9b9d39950ce8127a2",
                "srcKUID": "c3810888a2304c409e04db4cd519b8ee",
                "wType": "Button"
            },
            "responsiveData": {
                "b3": {
                    "isVisible": false
                }
            }
        },
        "btnTermsAndConditions": {
            "__events__": {
                "ide_onClick": "AS_Button_c86ec452734e4676834d20e24640cc07"
            },
            "__info__": {
                "kuid": "d01e24ac20774bf3908f5e21333a3dcd",
                "srcKUID": "baf7c8f817b34b618b7e1f148f49770a",
                "wType": "Button"
            },
            "responsiveData": {
                "b3": {
                    "isVisible": false
                }
            }
        },
        "customfooter": {
            "__events__": {},
            "__info__": {
                "isRoot": true,
                "kuid": "he75f1d07d0149b682bce603c9095803",
                "srcKUID": "a142e816812a4b5b80f84484dcef7232",
                "wType": "FlexContainer"
            },
            "autogrowMode": {
                "Default": 0
            },
            "centerX": {
                "Default": {
                    "type": "string",
                    "value": "50%"
                }
            },
            "height": {
                "Default": {
                    "type": "string",
                    "value": "150dp"
                }
            },
            "responsiveData": {
                "b1": {
                    "isVisible": true,
                    "width": {
                        "type": "string",
                        "value": "1366dp"
                    }
                },
                "b2": {
                    "width": {
                        "type": "string",
                        "value": "100%"
                    }
                },
                "b3": {
                    "isVisible": true,
                    "width": {
                        "type": "string",
                        "value": "100%"
                    }
                },
                "b4": {
                    "isVisible": true,
                    "right": {
                        "type": "string",
                        "value": "0dp"
                    },
                    "top": {
                        "type": "string",
                        "value": "-1dp"
                    },
                    "width": {
                        "type": "string",
                        "value": "100%"
                    }
                }
            },
            "right": {},
            "top": {
                "Default": {
                    "type": "string",
                    "value": "0dp"
                }
            },
            "width": {
                "Default": {
                    "type": "string",
                    "value": "1366dp"
                }
            },
            "zIndex": {
                "Default": 2
            }
        },
        "flxFooterMenu": {
            "__events__": {},
            "__info__": {
                "kuid": "f8063e6b1d334b5fbbcacb8306a0cc50",
                "srcKUID": "e6b5bc6faf00428680c4dedfe25a0b9a",
                "wType": "FlexContainer"
            },
            "centerX": {
                "Default": {
                    "type": "string",
                    "value": "50%"
                }
            },
            "left": {
                "Default": {
                    "type": "string",
                    "value": ""
                }
            },
            "responsiveData": {
                "b2": {
                    "centerX": {
                        "type": "string",
                        "value": ""
                    },
                    "left": {
                        "type": "string",
                        "value": "6%"
                    },
                    "width": {
                        "type": "string",
                        "value": "87%"
                    }
                },
                "b3": {
                    "width": {
                        "type": "string",
                        "value": "180dp"
                    }
                },
                "b4": {
                    "centerX": {
                        "type": "string",
                        "value": ""
                    },
                    "left": {
                        "type": "string",
                        "value": "2.50%"
                    },
                    "width": {
                        "type": "string",
                        "value": "90%"
                    }
                }
            },
            "top": {},
            "width": {
                "Default": {
                    "type": "string",
                    "value": "1200dp"
                }
            }
        },
        "flxVBar1": {
            "__events__": {},
            "__info__": {
                "kuid": "ab64edabfa124dce95166e10800483c9",
                "srcKUID": "f31fd58a22cc496a93899a924cf2927d",
                "wType": "FlexContainer"
            },
            "centerX": {},
            "centerY": {
                "Default": {
                    "type": "string",
                    "value": "50%"
                }
            },
            "left": {},
            "responsiveData": {
                "b3": {
                    "centerX": {
                        "type": "string",
                        "value": ""
                    },
                    "left": {
                        "type": "string",
                        "value": "20dp"
                    }
                }
            }
        },
        "flxVBar2": {
            "__events__": {},
            "__info__": {
                "kuid": "bf693faeb21c411ca8cc597831b9a731",
                "srcKUID": "j39a662286e64bbc9be78a96bb491e27",
                "wType": "FlexContainer"
            },
            "responsiveData": {
                "b3": {
                    "isVisible": false
                }
            }
        },
        "flxVBar3": {
            "__events__": {},
            "__info__": {
                "kuid": "ae32f495b8474f6f8787fdf542b8778a",
                "srcKUID": "a6990ffd77914b8e8757540cb40cad1a",
                "wType": "FlexContainer"
            },
            "responsiveData": {
                "b3": {
                    "isVisible": false
                }
            },
            "right": {}
        },
        "flxVBar4": {
            "__events__": {},
            "__info__": {
                "kuid": "h0311d3bc7c34b6eabf67ea9fe16f962",
                "srcKUID": "e75f96d248634147afa5b6848252df6e",
                "wType": "FlexContainer"
            },
            "responsiveData": {
                "b3": {
                    "isVisible": false
                }
            }
        },
        "imgFooterIconOne": {
            "__events__": {},
            "__info__": {
                "kuid": "ef2da121b38a47089b7fd0e53bdbcdfb",
                "srcKUID": "f2305e3d65bb448e9d68f5608421f28a",
                "wType": "Image"
            },
            "centerY": {},
            "responsiveData": {
                "b3": {
                    "isVisible": false
                },
                "b4": {
                    "centerY": {
                        "type": "string",
                        "value": "75%"
                    },
                    "isVisible": false,
                    "right": {
                        "type": "string",
                        "value": "10dp"
                    }
                }
            },
            "right": {},
            "src": "footer_logo_1.png",
            "top": {}
        },
        "imgFooterIconThree": {
            "__events__": {},
            "__info__": {
                "kuid": "c1074ef8d0214e2f88b3ea92054957d6",
                "srcKUID": "hc27193bc4d14f24b60f03ac3c2bddb7",
                "wType": "Image"
            },
            "centerY": {},
            "responsiveData": {
                "b3": {
                    "isVisible": false
                },
                "b4": {
                    "centerY": {
                        "type": "string",
                        "value": "40%"
                    },
                    "isVisible": false,
                    "right": {
                        "type": "string",
                        "value": "60dp"
                    }
                }
            },
            "right": {},
            "src": "footer_logo_3.png"
        },
        "imgFooterIconTwo": {
            "__events__": {},
            "__info__": {
                "kuid": "ib40869949a64e168675e8988fb5288a",
                "srcKUID": "cf67ed169e364ace9f62b5aa10dcf1d8",
                "wType": "Image"
            },
            "centerY": {},
            "responsiveData": {
                "b3": {
                    "isVisible": false
                },
                "b4": {
                    "centerY": {
                        "type": "string",
                        "value": "40%"
                    },
                    "isVisible": false,
                    "right": {
                        "type": "string",
                        "value": "10dp"
                    }
                }
            },
            "right": {},
            "src": "footer_logo_2.png"
        },
        "lblCopyright": {
            "__events__": {},
            "__info__": {
                "kuid": "ce18ba17c5f04a28aba0acf3a2733a6d",
                "srcKUID": "a696ff4e198a4124810242908deae798",
                "wType": "Label"
            },
            "centerX": {
                "Default": {
                    "type": "string",
                    "value": ""
                }
            },
            "left": {
                "Default": {
                    "type": "string",
                    "value": "6%"
                }
            },
            "responsiveData": {
                "b2": {},
                "b3": {},
                "b4": {
                    "left": {
                        "type": "string",
                        "value": "2.50%"
                    },
                    "width": {
                        "type": "string",
                        "value": "90%"
                    }
                }
            },
            "width": {
                "Default": {
                    "type": "ref",
                    "value": "preferred"
                }
            }
        }
    },
    "desktopweb": {
        "render": true
    },
    "id": "CustomFooterMain",
    "info": null,
    "ipad": {},
    "iphone": {},
    "isdatareferenced": false,
    "isvisible": true,
    "kiosk": {
        "render": true
    },
    "kuid": "he75f1d07d0149b682bce603c9095803",
    "layouttype": 2,
    "masterType": 0,
    "name": "kony.ui.UserWidgetInstance",
    "parent": "flxFooter",
    "pf": "frmShortTermDeposit",
    "responsiveData": {
        "b1": {
            "isVisible": true,
            "width": {
                "type": "string",
                "value": "1366dp"
            }
        },
        "b2": {
            "width": {
                "type": "string",
                "value": "100%"
            }
        },
        "b3": {
            "isVisible": true,
            "width": {
                "type": "string",
                "value": "100%"
            }
        },
        "b4": {
            "isVisible": true,
            "right": {
                "type": "string",
                "value": "0dp"
            },
            "top": {
                "type": "string",
                "value": "-1dp"
            },
            "width": {
                "type": "string",
                "value": "100%"
            }
        }
    },
    "snapgridsize": 10,
    "snaptogrid": true,
    "sourceUserWidget": "a142e816812a4b5b80f84484dcef7232",
    "spa": {},
    "spaan": {},
    "spaandroidtablet": {},
    "spabb": {},
    "spaip": {},
    "spaipad": {},
    "spamobile": {},
    "spatablet": {},
    "spawindowstablet": {},
    "spawinphone8": {},
    "tabrcandroid": {},
    "vizProps": {
        "hidewidgethierarchy": false
    },
    "vizprops": {
        "hidewidgethierarchy": false
    },
    "wType": "UserWidgetInstance",
    "windows10": {},
    "windows8": {},
    "winphone10": {},
    "winphone8": {},
    "zindex": 2
}