{
    "DNDConfig": null,
    "__parentReadjusting__": false,
    "_height_": {
        "type": "ref",
        "value": "preferred"
    },
    "_left_": {
        "type": "string",
        "value": "0dp"
    },
    "_margin_": [
        0,
        0,
        0,
        0
    ],
    "_orientation_": 6,
    "_padding_": [
        0,
        0,
        0,
        0
    ],
    "_percent_": true,
    "_skin_": "s92425f466754964b2123cbce2313ad6",
    "_top_": {
        "type": "string",
        "value": "0dp"
    },
    "_width_": {
        "type": "string",
        "value": "100%"
    },
    "allboxes": [],
    "autogrowmode": 1,
    "canUpdateUI": true,
    "children": [
        "flxReviewApplicationTitle",
        "flxReviewApplicationContainer"
    ],
    "clipbounds": false,
    "containerweight": 100,
    "enablescrolling": true,
    "id": "flxReviewApplication",
    "info": null,
    "isvisible": false,
    "kuid": "f4b398ed4beb4221aaebef937846de75",
    "layouttype": 4,
    "name": "kony.ui.FlexContainer",
    "parent": "flxMainLeftContainers",
    "pf": "frmShortTermDeposit",
    "responsiveData": {
        "b1": {
            "top": {
                "type": "string",
                "value": "20dp"
            }
        },
        "b2": {},
        "b3": {
            "top": {
                "type": "string",
                "value": "20dp"
            }
        },
        "b4": {}
    },
    "snapgridsize": 10,
    "snaptogrid": true,
    "wType": "FlexContainer",
    "widgetalignment": 1,
    "zindex": 1
}