{
    "DNDConfig": null,
    "__parentReadjusting__": false,
    "_bottom_": {
        "type": "string",
        "value": "1dp"
    },
    "_height_": {
        "type": "string",
        "value": "1dp"
    },
    "_left_": {
        "type": "string",
        "value": "0dp"
    },
    "_margin_": [
        0,
        0,
        0,
        0
    ],
    "_orientation_": 6,
    "_padding_": [
        0,
        0,
        0,
        0
    ],
    "_percent_": true,
    "_skin_": "s8823f92dd17459d8dbd603fe9224e85",
    "_width_": {
        "type": "string",
        "value": "100%"
    },
    "allboxes": [],
    "canUpdateUI": true,
    "children": [],
    "clipbounds": true,
    "containerweight": 100,
    "enablescrolling": true,
    "id": "flxSperator",
    "info": null,
    "isvisible": false,
    "kuid": "h902df0e7c094708b0430faafb4747ab",
    "layouttype": 2,
    "name": "kony.ui.FlexContainer",
    "parent": "flxCallUsAt",
    "pf": "frmShortTermDeposit",
    "responsiveData": {
        "b1": {
            "height": {
                "type": "string",
                "value": "2dp"
            },
            "isVisible": true
        },
        "b2": {
            "height": {
                "type": "string",
                "value": "2dp"
            },
            "isVisible": true
        }
    },
    "snapgridsize": 10,
    "snaptogrid": true,
    "wType": "FlexContainer",
    "widgetalignment": 1,
    "zindex": 1
}