{
    "@class": "com.kony.gen.viz.model.component.KVizRichText",
    "DNDConfig": null,
    "_height_": {
        "type": "ref",
        "value": "preferred"
    },
    "_left_": {
        "type": "string",
        "value": "17.39%"
    },
    "_margin_": [
        0,
        0,
        0,
        0
    ],
    "_padding_": [
        0,
        0,
        0,
        0
    ],
    "_skin_": "s54053171dc84722aadd410cfc137838",
    "_text_": "<b>No search result found.</b><br>\nPlease change the search criteria",
    "_top_": {
        "type": "string",
        "value": "36dp"
    },
    "_width_": {
        "type": "string",
        "value": "70%"
    },
    "_wrapping_": 2,
    "accessibilityconfig": {
        "a11yLabel": "<b>No search result found.</b><br>\nPlease change the search criteria"
    },
    "canUpdateUI": true,
    "containerweight": 100,
    "contentalignment": 4,
    "id": "rtxNoSearchResults",
    "info": null,
    "isvisible": true,
    "kuid": "g1e3da831b5045e9b5058d3a97fca662",
    "name": "kony.ui.RichText",
    "parent": "flxNoSearchResult",
    "pf": "frmAlerts",
    "wType": "RichText",
    "widgetalignment": 5,
    "zindex": 1
}