{
    "@class": "com.kony.gen.viz.model.container.KVizSegment2",
    "DNDConfig": null,
    "_bottom_": {
        "type": "string",
        "value": "0dp"
    },
    "_data_": [{},
        {},
        {},
        {},
        {},
        {},
        {},
        {},
        {},
        {}
    ],
    "_indicator_": "none",
    "_left_": {
        "type": "string",
        "value": "0dp"
    },
    "_margin_": [
        0,
        0,
        0,
        0
    ],
    "_orientation_": 2,
    "_padding_": [
        0,
        0,
        0,
        0
    ],
    "_top_": {
        "type": "string",
        "value": "80dp"
    },
    "_width_": {
        "type": "string",
        "value": "100%"
    },
    "autogrowmode": 0,
    "canUpdateUI": true,
    "containerweight": 100,
    "counter": "09",
    "focusedindex": null,
    "focuseditem": null,
    "groupcells": false,
    "hasSections": false,
    "id": "segMessageAndNotification",
    "info": null,
    "invokedProperty": "selectedStateImage",
    "ipad": {
        "psp": {
            "indicator": "rowselect"
        }
    },
    "iphone": {
        "psp": {
            "indicator": "rowselect"
        }
    },
    "isvisible": false,
    "kuid": "bf834e2b90e5422e81791bbf0790caab",
    "masterdata": {},
    "name": "kony.ui.SegmentedUI2",
    "needpageindicator": true,
    "pageoffdotimage": "pageoffdot.png",
    "pageondotimage": "pageondot.png",
    "paginationconfig": {
        "position": "bottom",
        "vdistance": 1
    },
    "parent": "flxSegMessagesContainer",
    "pf": "frmAlerts",
    "responsiveData": {
        "b1": {
            "isVisible": true
        },
        "b2": {
            "isVisible": true
        },
        "b3": {
            "isVisible": true
        },
        "b4": {
            "isVisible": true
        }
    },
    "retainselection": false,
    "rowTemplateId": "g0fb21115385449c9279e88aa98e2a11",
    "rowcounter": 9,
    "rowfocusskin": "s9f69e977910472eb44c62ae28c41fe1",
    "rowskin": "scf5f90f6ac04976ab88b2a4f7153285",
    "rowtemplate": "flxNotificationsAndMessages",
    "screenlevelwidget": false,
    "seccounter": 0,
    "sectionheaderskin": "sdc4ff4ed1584272be2ae69045dfb29d",
    "sectionheadertemplate": "flxNotificationsAndMessages",
    "selectedRows": null,
    "selectedState": false,
    "selectedindex": null,
    "selectedindices": null,
    "selecteditems": null,
    "selectedsectionindex": 0,
    "selectionbehavior": "singleselect",
    "selectionbehaviorconfig": null,
    "separatorcolor": "e3e3e300",
    "separatorrequired": false,
    "separatorthickness": 1,
    "showscrollbars": true,
    "swipeContext": {
        "currentPage": 0,
        "imageWidth": 504,
        "widthRatio": 0
    },
    "viewtype": "tableview",
    "vizProps": {},
    "wType": "Segment",
    "widgetalignment": 5,
    "widgetdatamap": {
        "flxNotificationsAndMessages": "flxNotificationsAndMessages",
        "flxSeparator": "flxSeparator",
        "imgAttachment": "imgAttachment",
        "imgBullet": "imgBullet",
        "imgBulletIcon": "imgBulletIcon",
        "imgCurrentOne": "imgCurrentOne",
        "lblDateAndTime": "lblDateAndTime",
        "lblSegDescription": "lblSegDescription",
        "lblSegHeading": "lblSegHeading"
    },
    "zindex": 1
}