{
    "namespace": "com.konyolb.BillPay",
    "classname": "Activate",
    "version": "1.0.0",
    "definitions": {
        "properties": {
            "passthrough": [],
            "custom": []
        },
        "events": {
            "passthrough": [],
            "custom": []
        },
        "apis": {
            "passthrough": [],
            "custom": []
        }
    }
}