{
    "@class": "com.kony.gen.viz.model.component.KVizButton",
    "DNDConfig": null,
    "__parentReadjusting__": false,
    "_height_": {
        "type": "string",
        "value": "40dp"
    },
    "_left_": {
        "type": "number",
        "value": ""
    },
    "_margin_": [
        6,
        6,
        6,
        6
    ],
    "_padding_": [
        0,
        0,
        0,
        0
    ],
    "_right_": {
        "type": "string",
        "value": "2.20%"
    },
    "_skin_": "sfbbba35ede4457b94eb681b72349b98",
    "_text_": "",
    "_top_": {
        "type": "number",
        "value": ""
    },
    "_width_": {
        "type": "string",
        "value": "12.50%"
    },
    "accessibilityconfig": {
        "a11yLabel": "Add Account"
    },
    "canUpdateUI": true,
    "centery": {
        "type": "string",
        "value": "50%"
    },
    "containerweight": 100,
    "contentalignment": 5,
    "desktopweb": {
        "psp": {
            "hoverSkin": "s7ab6326aaf94c28b90b61fcb1b54547"
        }
    },
    "disabledSkins": {},
    "displaytext": true,
    "focusskin": "sfd0ce0d7f454c9f83c7e815a90a8a55",
    "id": "btnConfirm",
    "info": null,
    "isvisible": true,
    "kuid": "d293ecc7b6d645a69d411795082b48be",
    "name": "kony.ui.Button",
    "parent": "flxButtons",
    "pf": "frmBulkBillPayConfirm",
    "responsiveData": {
        "b1": {
            "right": {
                "type": "string",
                "value": "2.80%"
            }
        },
        "b2": {
            "right": {
                "type": "string",
                "value": "2.50%"
            },
            "width": {
                "type": "string",
                "value": "22%"
            }
        },
        "b3": {
            "centerY": {
                "type": "string",
                "value": ""
            },
            "left": {
                "type": "string",
                "value": "2%"
            },
            "right": {
                "type": "string",
                "value": "2%"
            },
            "top": {
                "type": "string",
                "value": "20dp"
            },
            "width": {
                "type": "string",
                "value": "96%"
            }
        },
        "b4": {
            "right": {
                "type": "string",
                "value": "2.80%"
            }
        }
    },
    "texti18n": "i18n.common.confirm",
    "tooltip": "Confirm",
    "wType": "Button",
    "zindex": 1
}