{
    "DNDConfig": null,
    "__parentReadjusting__": false,
    "_bottom_": {
        "type": "number",
        "value": ""
    },
    "_height_": {
        "type": "string",
        "value": "50dp"
    },
    "_left_": {
        "type": "string",
        "value": "1.46%"
    },
    "_margin_": [
        0,
        0,
        0,
        0
    ],
    "_orientation_": 6,
    "_padding_": [
        0,
        0,
        0,
        0
    ],
    "_percent_": true,
    "_skin_": "sec33ce747114bec824bad2508e6968f",
    "_top_": {
        "type": "string",
        "value": "20dp"
    },
    "_width_": {
        "type": "string",
        "value": "95%"
    },
    "allboxes": [],
    "autogrowmode": 0,
    "canUpdateUI": true,
    "children": [
        "imgCheckBox",
        "lblCheckBoxIcon",
        "lblAccept",
        "btnTermsAndConditions"
    ],
    "clipbounds": true,
    "containerweight": 100,
    "enablescrolling": true,
    "id": "flxCheckBoxTnC",
    "ide_onClick": "AS_FlexContainer_j5a209e2367c4223b2367d71a965ffde",
    "info": null,
    "isvisible": false,
    "kuid": "h0a2226184144b3c9ceda9674fb22d3c",
    "layouttype": 3,
    "name": "kony.ui.FlexContainer",
    "parent": "flxSubConfirmation",
    "pf": "frmBulkBillPayConfirm",
    "responsiveData": {
        "b1": {
            "bottom": {
                "type": "string",
                "value": "20dp"
            },
            "isVisible": true,
            "left": {
                "type": "string",
                "value": "2.20%"
            }
        },
        "b2": {
            "isVisible": true
        },
        "b3": {
            "isVisible": true
        },
        "b4": {
            "bottom": {
                "type": "string",
                "value": "20dp"
            },
            "isVisible": true,
            "left": {
                "type": "string",
                "value": "2.20%"
            },
            "top": {
                "type": "string",
                "value": "20dp"
            }
        }
    },
    "snapgridsize": 10,
    "snaptogrid": true,
    "wType": "FlexContainer",
    "widgetalignment": 1,
    "zindex": 5
}