{
    "@class": "com.kony.gen.viz.model.component.KVizButton",
    "DNDConfig": null,
    "__parentReadjusting__": false,
    "_height_": {
        "type": "ref",
        "value": "preferred"
    },
    "_left_": {
        "type": "string",
        "value": "0"
    },
    "_margin_": [
        6,
        6,
        6,
        6
    ],
    "_padding_": [
        0,
        0,
        0,
        0
    ],
    "_skin_": "se39d7b9f84d4ba299550dd41aae2fde",
    "_text_": "Edit",
    "_top_": {
        "type": "string",
        "value": "0dp"
    },
    "_width_": {
        "type": "string",
        "value": "100%"
    },
    "accessibilityconfig": {
        "a11yLabel": "Edit"
    },
    "canUpdateUI": true,
    "containerId": true,
    "containerweight": 100,
    "contentalignment": 6,
    "desktopweb": {
        "psp": {
            "hoverSkin": "s8ba57bbb01e49f2acad2f1ea21d8717"
        }
    },
    "disabledSkins": {
        "focusSkin": "sf44d06ca8224832827ea7fdff757013"
    },
    "displaytext": true,
    "id": "btnEdit",
    "ide_onClick": "AS_Button_dfc694c4a9554f95af5e9ef5f423281c",
    "info": null,
    "isvisible": true,
    "kuid": "b33080b8f2584973a3e6e30ff1ce2a80",
    "name": "kony.ui.Button",
    "parent": "flxAction",
    "pf": "segBillPayScheduledMobile",
    "tooltip": "Edit Transaction",
    "wType": "Button",
    "zindex": 1
}