{
    "DNDConfig": null,
    "__parentReadjusting__": false,
    "_height_": {
        "type": "string",
        "value": "60%"
    },
    "_left_": {
        "type": "string",
        "value": "35dp"
    },
    "_margin_": [
        0,
        0,
        0,
        0
    ],
    "_orientation_": 6,
    "_padding_": [
        0,
        0,
        0,
        0
    ],
    "_percent_": true,
    "_skin_": "s053ac25b3a2470490534cc2c031e6a0",
    "_top_": {
        "type": "number",
        "value": ""
    },
    "_width_": {
        "type": "string",
        "value": "1px"
    },
    "allboxes": [],
    "canUpdateUI": true,
    "centery": {
        "type": "string",
        "value": "50%"
    },
    "children": [],
    "clipbounds": true,
    "containerweight": 100,
    "enablescrolling": true,
    "id": "flxVBar4",
    "info": null,
    "isvisible": true,
    "kuid": "i16718d5f5084437ae8cf85039a9f1b9",
    "layouttype": 2,
    "name": "kony.ui.FlexContainer",
    "parent": "flxFooterContainer",
    "pf": "frmPreTermsandCondition",
    "responsiveData": {
        "b1": {
            "centerY": {
                "type": "string",
                "value": "50%"
            },
            "height": {
                "type": "string",
                "value": "13px"
            },
            "left": {
                "type": "string",
                "value": "13dp"
            },
            "top": {
                "type": "number",
                "value": "0"
            }
        },
        "b2": {
            "height": {
                "type": "string",
                "value": "50%"
            },
            "left": {
                "type": "string",
                "value": "15dp"
            }
        },
        "b3": {
            "isVisible": false
        },
        "b4": {
            "left": {
                "type": "string",
                "value": "15dp"
            }
        }
    },
    "snapgridsize": 10,
    "snaptogrid": true,
    "wType": "FlexContainer",
    "widgetalignment": 1,
    "zindex": 1
}