{
    "@class": "com.kony.gen.viz.model.component.KVizLabel",
    "DNDConfig": null,
    "__parentReadjusting__": false,
    "_bottom_": {
        "type": "number",
        "value": ""
    },
    "_height_": {
        "type": "ref",
        "value": "preferred"
    },
    "_left_": {
        "type": "string",
        "value": "42.50%"
    },
    "_margin_": [
        1,
        1,
        1,
        1
    ],
    "_padding_": [
        0,
        0,
        0,
        0
    ],
    "_right_": {
        "type": "number",
        "value": ""
    },
    "_skin_": "s404575463f040a9ad9977b446cd4073",
    "_text_": "Label",
    "_top_": {
        "type": "string",
        "value": "90.56%"
    },
    "_width_": {
        "type": "string",
        "value": "50%"
    },
    "_wrapping_": 2,
    "accessibilityconfig": {
        "a11yLabel": "\\u00a9 Copyright Kony Retail Banking. All rights reserved. Your savings are federally insured to at least $250,000 and backed by the full faith and credit of the Government."
    },
    "android": {
        "textStyle": {
            "letterSpacing": 0,
            "strikeThrough": false
        }
    },
    "canUpdateUI": true,
    "centerx": {
        "type": "number",
        "value": ""
    },
    "containerweight": 100,
    "contentalignment": 4,
    "id": "lblCopyright",
    "info": null,
    "ipad": {
        "psp": {
            "wrapping": 2
        }
    },
    "iphone": {
        "psp": {
            "wrapping": 2
        }
    },
    "isvisible": true,
    "kuid": "fe768bc6d61a474ea1303169a7ca6a4a",
    "maxwidth": {
        "type": "number",
        "value": ""
    },
    "name": "kony.ui.Label",
    "paddinginpixel": false,
    "parent": "flxMain",
    "pf": "frmPreTermsandCondition",
    "responsiveData": {
        "b1": {
            "bottom": {
                "type": "string",
                "value": "20dp"
            },
            "contentAlignment": 1,
            "height": {
                "type": "string",
                "value": "40dp"
            },
            "isVisible": true,
            "left": {
                "type": "string",
                "value": "565dp"
            },
            "padding": [
                0,
                0,
                0,
                0
            ],
            "right": {
                "type": "string",
                "value": "65px"
            },
            "skin": "s292454106504b3884e14bf2d65f8621",
            "top": {
                "type": "string",
                "value": ""
            },
            "width": {
                "type": "ref",
                "value": "preferred"
            }
        },
        "b2": {
            "centerX": {
                "type": "string",
                "value": "50%"
            },
            "contentAlignment": 5,
            "height": {
                "type": "string",
                "value": "40dp"
            },
            "isVisible": true,
            "left": {
                "type": "string",
                "value": ""
            },
            "skin": "s404575463f040a9ad9977b446cd4073",
            "top": {
                "type": "string",
                "value": "850dp"
            },
            "width": {
                "type": "string",
                "value": "90%"
            }
        },
        "b3": {
            "bottom": {
                "type": "string",
                "value": ""
            },
            "centerX": {
                "type": "string",
                "value": "50%"
            },
            "contentAlignment": 2,
            "height": {
                "type": "string",
                "value": "40dp"
            },
            "left": {
                "type": "string",
                "value": ""
            },
            "maxWidth": {
                "type": "string",
                "value": "90%"
            },
            "skin": "s404575463f040a9ad9977b446cd4073",
            "top": {
                "type": "string",
                "value": "745dp"
            },
            "width": {
                "type": "string",
                "value": "82%"
            }
        },
        "b4": {
            "centerX": {
                "type": "string",
                "value": "50%"
            },
            "contentAlignment": 2,
            "height": {
                "type": "string",
                "value": "40dp"
            },
            "isVisible": true,
            "left": {
                "type": "string",
                "value": ""
            },
            "skin": "s404575463f040a9ad9977b446cd4073",
            "top": {
                "type": "string",
                "value": "855dp"
            },
            "width": {
                "type": "string",
                "value": "640dp"
            }
        }
    },
    "texti18n": "i18n.footer.copyright",
    "tooltip": "",
    "wType": "Label",
    "zindex": 1
}