{
    "@class": "com.kony.gen.viz.model.component.KVizLabel",
    "DNDConfig": null,
    "__parentReadjusting__": false,
    "_bottom_": {
        "type": "string",
        "value": "15dp"
    },
    "_height_": {
        "type": "ref",
        "value": "preferred"
    },
    "_left_": {
        "type": "string",
        "value": "4%"
    },
    "_margin_": [
        1,
        1,
        1,
        1
    ],
    "_padding_": [
        0,
        0,
        0,
        0
    ],
    "_skin_": "se56454286124fef97a46e7249497088",
    "_text_": "Please accept the Terms and Conditions to use the retail banking application",
    "_top_": {
        "type": "string",
        "value": "15dp"
    },
    "_width_": {
        "type": "string",
        "value": "83%"
    },
    "_wrapping_": 2,
    "accessibilityconfig": {
        "a11yLabel": "Our online Banking Application will be unavailable on 13/04/2017 between 12:00 AM to 4:00 AM while we upgrade our system to provide you a better Banking Experience."
    },
    "android": {
        "textStyle": {
            "letterSpacing": 0,
            "strikeThrough": false
        }
    },
    "canUpdateUI": true,
    "containerweight": 100,
    "contentalignment": 4,
    "id": "lblDowntimeWarning",
    "info": null,
    "ipad": {
        "psp": {
            "wrapping": 2
        }
    },
    "iphone": {
        "psp": {
            "wrapping": 2
        }
    },
    "isvisible": true,
    "kuid": "fa63673afcb14b35a35defa390b8c38d",
    "name": "kony.ui.Label",
    "parent": "flxContent",
    "pf": "frmPreTermsandCondition",
    "responsiveData": {
        "b3": {
            "contentAlignment": 1,
            "left": {
                "type": "string",
                "value": "4%"
            },
            "top": {
                "type": "string",
                "value": "10dp"
            },
            "width": {
                "type": "string",
                "value": "82%"
            }
        }
    },
    "texti18n": "i18n.TnC.PleaseAcceptTnC",
    "tooltip": "",
    "wType": "Label",
    "zindex": 1
}