{
    "@class": "com.kony.gen.viz.model.component.KVizLabel",
    "DNDConfig": null,
    "__parentReadjusting__": false,
    "_height_": {
        "type": "ref",
        "value": "preferred"
    },
    "_margin_": [
        1,
        1,
        1,
        1
    ],
    "_padding_": [
        1,
        0,
        1,
        0
    ],
    "_render_": true,
    "_skin_": "s5c846d545014fb0891c57a80f2b684d",
    "_text_": "Terms and Conditions",
    "_top_": {
        "type": "string",
        "value": "15%"
    },
    "_width_": {
        "type": "string",
        "value": "70%"
    },
    "_wrapping_": 2,
    "accessibilityconfig": {
        "a11yLabel": "Welcome to Infinity"
    },
    "android": {
        "textStyle": {
            "letterSpacing": 0,
            "strikeThrough": false
        }
    },
    "canUpdateUI": true,
    "centerx": {
        "type": "string",
        "value": "50%"
    },
    "containerweight": 100,
    "contentalignment": 4,
    "desktopweb": {
        "render": true
    },
    "id": "lblWelcome",
    "info": null,
    "ipad": {
        "psp": {
            "wrapping": 2
        }
    },
    "iphone": {
        "psp": {
            "wrapping": 2
        }
    },
    "isvisible": true,
    "kiosk": {
        "render": true
    },
    "kuid": "gd30d3b7c7054e6690ef7dd74a53e9d7",
    "name": "kony.ui.Label",
    "paddinginpixel": false,
    "parent": "flxTandC",
    "pf": "frmPreTermsandCondition",
    "responsiveData": {
        "b2": {
            "top": {
                "type": "string",
                "value": "15%"
            }
        },
        "b3": {
            "width": {
                "type": "string",
                "value": "85%"
            }
        },
        "b4": {
            "top": {
                "type": "string",
                "value": "15%"
            }
        }
    },
    "texti18n": "i18n.loan.termsandconditions",
    "tooltip": "",
    "wType": "Label",
    "zindex": 1
}