{
    "DNDConfig": null,
    "__parentReadjusting__": false,
    "_height_": {
        "type": "string",
        "value": "441dp"
    },
    "_left_": {
        "type": "string",
        "value": "0dp"
    },
    "_margin_": [
        0,
        0,
        0,
        0
    ],
    "_orientation_": 6,
    "_padding_": [
        0,
        0,
        0,
        0
    ],
    "_percent_": true,
    "_skin_": "s24c92fc23b14f5484b693ee9b8a9b35",
    "_top_": {
        "type": "string",
        "value": "0dp"
    },
    "_width_": {
        "type": "string",
        "value": "100%"
    },
    "allboxes": [],
    "autogrowmode": 0,
    "canUpdateUI": true,
    "children": [
        "CopyimgInfo0abace79821cd45",
        "rtxNoPaymentMessage",
        "lblScheduleAPayment"
    ],
    "clipbounds": true,
    "containerweight": 100,
    "enablescrolling": true,
    "id": "flxNoTransactions",
    "info": null,
    "isvisible": false,
    "kuid": "b5f277410fe54cfaaf747fce7f0a79a6",
    "layouttype": 2,
    "name": "kony.ui.FlexContainer",
    "parent": "flxMainContainerTable",
    "pf": "frmWireTransfersRecent",
    "responsiveData": {
        "b3": {
            "isVisible": false
        },
        "b4": {
            "isVisible": false
        }
    },
    "snapgridsize": 10,
    "snaptogrid": true,
    "wType": "FlexContainer",
    "widgetalignment": 1,
    "zindex": 5
}