{
    "@class": "com.kony.gen.viz.model.component.KVizImage2",
    "DNDConfig": null,
    "__parentReadjusting__": false,
    "_base64_": null,
    "_height_": {
        "type": "string",
        "value": "47dp"
    },
    "_left_": {
        "type": "string",
        "value": "0dp"
    },
    "_margin_": [
        0,
        0,
        0,
        0
    ],
    "_padding_": [
        0,
        0,
        0,
        0
    ],
    "_skin_": "s78a5f26c9f14cec9ebed1bb46098f80",
    "_src_": "search_blue.png",
    "_top_": {
        "type": "string",
        "value": "0dp"
    },
    "_width_": {
        "type": "string",
        "value": "47dp"
    },
    "accessibilityconfig": {
        "a11yLabel": "Search",
        "a11yValue": ""
    },
    "canUpdateUI": true,
    "centerx": {
        "type": "string",
        "value": "50%"
    },
    "centery": {
        "type": "string",
        "value": "49%"
    },
    "containerweight": 100,
    "context": {
        "channel": "desktop",
        "formID": "uwu799ea11add24779bf84c8f12860a420",
        "platform": "desktopweb",
        "templateType": "userwidgets",
        "topLevelBox": null
    },
    "id": "imgSearch",
    "imagescalemode": 1,
    "imagewhiledownloading": "img_transparent.png",
    "info": null,
    "invokedProperty": "src",
    "isvisible": true,
    "kuid": "a7a2c1133e5c4ff2896d7ceca2646a20",
    "name": "kony.ui.Image2",
    "parent": "flxSearchImage",
    "pf": "frmWireTransfersRecent",
    "srcType": 1,
    "tooltip": "Search",
    "wType": "Image",
    "widgetalignment": 5,
    "zindex": 1
}