{
    "@class": "com.kony.gen.viz.model.component.KVizRichText",
    "DNDConfig": null,
    "__parentReadjusting__": false,
    "_height_": {
        "type": "ref",
        "value": "preferred"
    },
    "_left_": {
        "type": "string",
        "value": "85dp"
    },
    "_margin_": [
        0,
        0,
        0,
        0
    ],
    "_padding_": [
        0,
        0,
        0,
        0
    ],
    "_skin_": "s54053171dc84722aadd410cfc137838",
    "_text_": "RichText",
    "_top_": {
        "type": "string",
        "value": "41dp"
    },
    "_width_": {
        "type": "string",
        "value": "87.94%"
    },
    "_wrapping_": 2,
    "accessibilityconfig": {
        "a11yLabel": "No Transactions Found"
    },
    "canUpdateUI": true,
    "containerweight": 100,
    "contentalignment": 4,
    "id": "rtxNoPaymentMessage",
    "info": null,
    "isvisible": true,
    "kuid": "ccf6112127414a58b2ed5392a0d86394",
    "name": "kony.ui.RichText",
    "parent": "flxNoTransactions",
    "pf": "frmWireTransfersRecent",
    "responsiveData": {
        "b1": {
            "left": {
                "type": "string",
                "value": "80dp"
            }
        },
        "b2": {
            "left": {
                "type": "string",
                "value": "80dp"
            }
        },
        "b3": {
            "left": {
                "type": "string",
                "value": "80dp"
            }
        },
        "b4": {
            "left": {
                "type": "string",
                "value": "60dp"
            }
        }
    },
    "texti18n": "i18n.transfers.noTransactions",
    "wType": "RichText",
    "widgetalignment": 5,
    "zindex": 1
}