{
    "@class": "com.kony.gen.viz.model.component.KVizUserWidget",
    "DNDConfig": null,
    "__parentReadjusting__": false,
    "_android_": {},
    "_androidwearos_": {},
    "_children_": [],
    "_desktopweb_": {},
    "_height_": {
        "type": "string",
        "value": "100dp"
    },
    "_ipad_": {},
    "_iphone_": {},
    "_kiosk_": {},
    "_left_": {
        "type": "string",
        "value": "0dp"
    },
    "_margin_": [
        0,
        0,
        0,
        0
    ],
    "_orientation_": 1,
    "_padding_": [
        0,
        0,
        0,
        0
    ],
    "_percent_": true,
    "_render_": true,
    "_responsiveData_": {},
    "_skin_": "s24c92fc23b14f5484b693ee9b8a9b35",
    "_spa_": {},
    "_spaan_": {},
    "_spaandroidtablet_": {},
    "_spabb_": {},
    "_spaip_": {},
    "_spaipad_": {},
    "_spamobile_": {},
    "_spatablet_": {},
    "_spawindowstablet_": {},
    "_spawinphone8_": {},
    "_tabrcandroid_": {},
    "_top_": {
        "type": "string",
        "value": "0dp"
    },
    "_vizProps_": {
        "hidewidgethierarchy": false
    },
    "_width_": {
        "type": "string",
        "value": "100%"
    },
    "_windows10_": {},
    "_windows8_": {},
    "_winphone10_": {},
    "_winphone8_": {},
    "areflexpropsreferenced": false,
    "autogrowmode": 0,
    "canUpdateUI": true,
    "clipbounds": false,
    "containerweight": 0,
    "dataDiffs": {
        "Search": {
            "__events__": {},
            "__info__": {
                "isRoot": true,
                "kuid": "e667df0238dd4c79972e5d2aa75e68c6",
                "srcKUID": "afd57c04bad743bba99d0e5529f286ef",
                "wType": "FlexContainer"
            },
            "autogrowMode": 0,
            "height": {
                "Default": {
                    "type": "string",
                    "value": "100dp"
                }
            },
            "left": {
                "Default": {
                    "type": "string",
                    "value": "0dp"
                }
            },
            "top": {
                "Default": {
                    "type": "string",
                    "value": "0dp"
                }
            },
            "zIndex": {
                "Default": 1
            }
        },
        "btnConfirm": {
            "__events__": {},
            "__info__": {
                "kuid": "aa41ddab7ec94c5fab2f44bd4f6d6916",
                "srcKUID": "e9702e4808614e879fc1c538e8418494",
                "wType": "FlexContainer"
            },
            "left": {
                "Default": {
                    "type": "string",
                    "value": "15px"
                }
            },
            "width": {
                "Default": {
                    "type": "string",
                    "value": "17dp"
                }
            }
        },
        "btnConfirm1": {
            "__events__": {},
            "__info__": {
                "kuid": "e5a286084f9b4fc0ac5b8fd29ed90326",
                "srcKUID": "af76dace2e82450d9f162b8462c58110",
                "wType": "Button"
            }
        },
        "flxClearBtn": {
            "__events__": {},
            "__info__": {
                "kuid": "c36456f596bc48df900d33f8dbcae52e",
                "srcKUID": "d3fe792123d04455b5f0b964efb41461",
                "wType": "FlexContainer"
            },
            "isVisible": false,
            "width": {
                "Default": {
                    "type": "string",
                    "value": "40dp"
                }
            }
        },
        "flxtxtSearchandClearbtn": {
            "__events__": {},
            "__info__": {
                "kuid": "e20e7d2036404f9788bdf3fbe53c998c",
                "srcKUID": "c09f8d65274f4847b9b386da774ae9ed",
                "wType": "FlexContainer"
            },
            "layoutType": 2
        },
        "imgCross": {
            "__events__": {},
            "__info__": {
                "kuid": "b2776234c0fd4adebca92187e11796da",
                "srcKUID": "eaa7b734e8034d52976bb1bb5a6ef8df",
                "wType": "Image"
            },
            "src": "search_close.png"
        },
        "lblSearch": {
            "__events__": {},
            "__info__": {
                "kuid": "be8df0359b9645c3a8d8b183c4a3ec85",
                "srcKUID": "ha872e5f14bd4b81be4c93f1a3c18480",
                "wType": "Label"
            },
            "centerY": {},
            "responsiveData": {
                "b1": {
                    "centerY": {
                        "type": "string",
                        "value": "60%"
                    }
                },
                "b4": {
                    "centerY": {
                        "type": "string",
                        "value": "53%"
                    }
                }
            }
        },
        "txtSearch": {
            "__events__": {},
            "__info__": {
                "kuid": "he0119b4d8ed4b94a671cf911b9e57a5",
                "srcKUID": "i3f8ddcc8538436280c67c4c0ccc7cb6",
                "wType": "TextField"
            },
            "left": {
                "Default": {
                    "type": "string",
                    "value": "42px"
                }
            },
            "right": {
                "Default": {
                    "type": "string",
                    "value": "40px"
                }
            },
            "width": {
                "Default": {
                    "type": "string",
                    "value": ""
                }
            }
        }
    },
    "id": "Search",
    "info": null,
    "isdatareferenced": false,
    "isvisible": true,
    "kuid": "e667df0238dd4c79972e5d2aa75e68c6",
    "layouttype": 2,
    "masterType": 0,
    "name": "kony.ui.UserWidgetInstance",
    "parent": "flxSearch",
    "pf": "frmWireTransfersRecent",
    "snapgridsize": 10,
    "snaptogrid": true,
    "sourceUserWidget": "afd57c04bad743bba99d0e5529f286ef",
    "wType": "UserWidgetInstance",
    "zindex": 1
}