{
    "@class": "com.kony.gen.viz.model.container.KVizSegment2",
    "DNDConfig": null,
    "__parentReadjusting__": false,
    "_data_": [],
    "_height_": {
        "type": "ref",
        "value": "preferred"
    },
    "_indicator_": "none",
    "_left_": {
        "type": "string",
        "value": "0dp"
    },
    "_margin_": [
        0,
        0,
        0,
        0
    ],
    "_orientation_": 2,
    "_padding_": [
        0,
        0,
        0,
        0
    ],
    "_top_": {
        "type": "string",
        "value": "0dp"
    },
    "_width_": {
        "type": "string",
        "value": "100%"
    },
    "autogrowmode": 1,
    "canUpdateUI": true,
    "containerweight": 100,
    "counter": "09",
    "focusedindex": null,
    "focuseditem": null,
    "groupcells": false,
    "hasSections": false,
    "id": "segWireTransfers",
    "info": null,
    "ipad": {
        "psp": {
            "indicator": "rowselect"
        }
    },
    "iphone": {
        "psp": {
            "indicator": "rowselect"
        }
    },
    "isvisible": true,
    "kuid": "d32458d367e54945a6dbd167f47a57a7",
    "masterdata": {},
    "minheight": {
        "type": "number",
        "value": "400"
    },
    "name": "kony.ui.SegmentedUI2",
    "needpageindicator": true,
    "pageoffdotimage": "pageoffdot.png",
    "pageondotimage": "pageondot.png",
    "paginationconfig": {
        "position": "bottom"
    },
    "parent": "flxMainContainerTable",
    "pf": "frmWireTransfersRecent",
    "responsiveData": {
        "b3": {
            "isVisible": true
        },
        "b4": {
            "isVisible": true,
            "top": {
                "type": "string",
                "value": "10dp"
            }
        }
    },
    "retainselection": false,
    "rowTemplateId": "adac25e7b5784b0c98b1fc6e22a104c3",
    "rowcounter": 9,
    "rowfocusskin": "s9f69e977910472eb44c62ae28c41fe1",
    "rowskin": "s7ca26b79d7d4146a97e10e34b00a1c2",
    "rowtemplate": "flxRecentTransfersNewSelected",
    "screenlevelwidget": false,
    "seccounter": 0,
    "sectionheaderskin": "sdc4ff4ed1584272be2ae69045dfb29d",
    "selectedRows": null,
    "selectedState": false,
    "selectedindex": null,
    "selectedindices": null,
    "selecteditems": null,
    "selectedsectionindex": 0,
    "selectionbehavior": "default",
    "separatorcolor": "e9ebee00",
    "separatorrequired": true,
    "separatorthickness": 1,
    "showscrollbars": false,
    "viewtype": "tableview",
    "vizProps": {},
    "wType": "Segment",
    "widgetalignment": 5,
    "widgetdatamap": {
        "CopylblSeparator0dc0066e561ec4f": "CopylblSeparator0dc0066e561ec4f",
        "btnAction": "btnAction",
        "btnCancel1": "btnCancel1",
        "btnCancel2": "btnCancel2",
        "btnDownloadReport": "btnDownloadReport",
        "btnRepeat": "btnRepeat",
        "flxActions": "flxActions",
        "flxAmount": "flxAmount",
        "flxCurrency": "flxCurrency",
        "flxDate": "flxDate",
        "flxDetail": "flxDetail",
        "flxDropdown": "flxDropdown",
        "flxFromAccountTitle": "flxFromAccountTitle",
        "flxFromAccountValue": "flxFromAccountValue",
        "flxIdentifier": "flxIdentifier",
        "flxNoteTitle": "flxNoteTitle",
        "flxNoteValue": "flxNoteValue",
        "flxRecentTransfers": "flxRecentTransfers",
        "flxRecentTransfersNewSelected": "flxRecentTransfersNewSelected",
        "flxRecurrenceTitle": "flxRecurrenceTitle",
        "flxRecurrenceValue": "flxRecurrenceValue",
        "flxReferenceNumberTitle": "flxReferenceNumberTitle",
        "flxReferenceNumberValue": "flxReferenceNumberValue",
        "flxRow": "flxRow",
        "flxRowFour": "flxRowFour",
        "flxRowOne": "flxRowOne",
        "flxRowThree": "flxRowThree",
        "flxRowTwo": "flxRowTwo",
        "flxSelectedRowWrapper": "flxSelectedRowWrapper",
        "flxSendTo": "flxSendTo",
        "flxStatusTitle": "flxStatusTitle",
        "flxStatusValue": "flxStatusValue",
        "flxTransactionFee": "flxTransactionFee",
        "imgDropdown": "imgDropdown",
        "lblAmount": "lblAmount",
        "lblCurrencyTitle": "lblCurrencyTitle",
        "lblCurrencyValue": "lblCurrencyValue",
        "lblDate": "lblDate",
        "lblDropdown": "lblDropdown",
        "lblFromAccountTitle": "lblFromAccountTitle",
        "lblFromAccountValue": "lblFromAccountValue",
        "lblFromAccountValuemod": "lblFromAccountValuemod",
        "lblIdentifier": "lblIdentifier",
        "lblNoteTitle": "lblNoteTitle",
        "lblNoteValue": "lblNoteValue",
        "lblNoteValuemod": "lblNoteValuemod",
        "lblRecurrenceTitle": "lblRecurrenceTitle",
        "lblRecurrenceValue": "lblRecurrenceValue",
        "lblRecurrenceValuemod": "lblRecurrenceValuemod",
        "lblReferenceNumberTitle": "lblReferenceNumberTitle",
        "lblReferenceNumberValue": "lblReferenceNumberValue",
        "lblReferenceNumberValuemod": "lblReferenceNumberValuemod",
        "lblRowSeperator": "lblRowSeperator",
        "lblSendTo": "lblSendTo",
        "lblSeparator": "lblSeparator",
        "lblStatusTitle": "lblStatusTitle",
        "lblStatusValue": "lblStatusValue",
        "lblStatusValuemod": "lblStatusValuemod",
        "lblTransactionFeeTitle": "lblTransactionFeeTitle",
        "lblTransactionFeeValue": "lblTransactionFeeValue"
    },
    "zindex": 1
}