{
    "@class": "com.kony.gen.viz.model.component.KVizButton",
    "DNDConfig": null,
    "__parentReadjusting__": false,
    "_height_": {
        "type": "string",
        "value": "40dp"
    },
    "_left_": {
        "type": "string",
        "value": "45%"
    },
    "_margin_": [
        6,
        6,
        6,
        6
    ],
    "_padding_": [
        0,
        0,
        0,
        0
    ],
    "_right_": {
        "type": "number",
        "value": ""
    },
    "_skin_": "sfbbba35ede4457b94eb681b72349b98",
    "_text_": "",
    "_top_": {
        "type": "string",
        "value": "0px"
    },
    "_width_": {
        "type": "string",
        "value": "256dp"
    },
    "accessibilityconfig": {
        "a11yLabel": "Continue"
    },
    "canUpdateUI": true,
    "containerweight": 100,
    "contentalignment": 5,
    "desktopweb": {
        "psp": {
            "hoverSkin": "s83729feaa224e359d660d5af05c4bac"
        }
    },
    "disabledSkins": {},
    "displaytext": true,
    "focusskin": "s5a4f67acd3e47b9be6d6910a7a6686f",
    "id": "btnBack",
    "ide_onClick": "AS_Button_h80efc8b19a54629a344df1982dcef41",
    "info": null,
    "isvisible": true,
    "kuid": "j798007078a2493cbc13da4d76aa77bb",
    "name": "kony.ui.Button",
    "parent": "flxConfirmButton",
    "pf": "frmBulkBeneficiariesSelected",
    "responsiveData": {
        "b1": {
            "left": {
                "type": "string",
                "value": ""
            },
            "right": {
                "type": "string",
                "value": "190dp"
            },
            "skin": "s100ad33c8184b15ac7a0f140891d88b",
            "top": {
                "type": "string",
                "value": "0px"
            },
            "width": {
                "type": "string",
                "value": "170dp"
            }
        },
        "b2": {
            "left": {
                "type": "string",
                "value": ""
            },
            "right": {
                "type": "string",
                "value": "190dp"
            },
            "skin": "s100ad33c8184b15ac7a0f140891d88b",
            "width": {
                "type": "string",
                "value": "170dp"
            }
        },
        "b4": {
            "left": {
                "type": "string",
                "value": ""
            },
            "right": {
                "type": "string",
                "value": "190dp"
            },
            "skin": "s100ad33c8184b15ac7a0f140891d88b",
            "width": {
                "type": "string",
                "value": "170dp"
            }
        }
    },
    "texti18n": "i18n.ProfileManagement.BACK",
    "tooltip": "Continue",
    "wType": "Button",
    "zindex": 1
}