{
    "@class": "com.kony.gen.viz.model.component.KVizButton",
    "DNDConfig": null,
    "__parentReadjusting__": false,
    "_height_": {
        "type": "string",
        "value": "50dp"
    },
    "_left_": {
        "type": "number",
        "value": ""
    },
    "_margin_": [
        6,
        6,
        6,
        6
    ],
    "_padding_": [
        0,
        0,
        0,
        0
    ],
    "_right_": {
        "type": "string",
        "value": "190dp"
    },
    "_skin_": "s215ef7edf8c4ddb8f9f91fcc80f7b42",
    "_text_": "NO THANKS",
    "_top_": {
        "type": "string",
        "value": "30dp"
    },
    "_width_": {
        "type": "string",
        "value": "150dp"
    },
    "accessibilityconfig": {
        "a11yLabel": "No"
    },
    "canUpdateUI": true,
    "centery": {
        "type": "string",
        "value": "50%"
    },
    "containerweight": 100,
    "contentalignment": 5,
    "desktopweb": {
        "psp": {
            "hoverSkin": "sb6e78b4178d435fa5be5d1f96342e33"
        }
    },
    "disabledSkins": {},
    "displaytext": true,
    "focusskin": "s434743e49c446699565893e4974ec52",
    "id": "btnCancel",
    "info": null,
    "isvisible": true,
    "kuid": "a0b27cfef79a450f8b72f81e36384109",
    "name": "kony.ui.Button",
    "parent": "flxButtons",
    "pf": "frmBulkBeneficiariesSelected",
    "responsiveData": {
        "b1": {
            "height": {
                "type": "string",
                "value": "40dp"
            }
        },
        "b2": {
            "height": {
                "type": "string",
                "value": "40dp"
            }
        }
    },
    "texti18n": "i18n.common.no",
    "tooltip": "No",
    "wType": "Button",
    "zindex": 2
}