{
    "DNDConfig": null,
    "__parentReadjusting__": false,
    "_height_": {
        "type": "string",
        "value": "40dp"
    },
    "_left_": {
        "type": "string",
        "value": "0dp"
    },
    "_margin_": [
        0,
        0,
        0,
        0
    ],
    "_orientation_": 6,
    "_padding_": [
        0,
        0,
        0,
        0
    ],
    "_percent_": true,
    "_skin_": "s24c92fc23b14f5484b693ee9b8a9b35",
    "_top_": {
        "type": "string",
        "value": "0dp"
    },
    "_width_": {
        "type": "string",
        "value": "92%"
    },
    "allboxes": [],
    "canUpdateUI": true,
    "children": [
        "flxBeneficiaryName",
        "flxFrom",
        "flxAmount"
    ],
    "clipbounds": true,
    "containerweight": 100,
    "enablescrolling": true,
    "id": "flxWrapperBeneficiaries",
    "info": null,
    "isvisible": true,
    "kuid": "eeb8150322ef460e8589280247880e4d",
    "layouttype": 2,
    "name": "kony.ui.FlexContainer",
    "parent": "flxBulkBeneficiariesSelectedWrapper",
    "pf": "frmBulkBeneficiariesSelected",
    "responsiveData": {
        "b1": {
            "height": {
                "type": "string",
                "value": "42dp"
            },
            "left": {
                "type": "string",
                "value": "8%"
            }
        },
        "b2": {
            "left": {
                "type": "string",
                "value": "8%"
            }
        },
        "b4": {
            "left": {
                "type": "string",
                "value": "8%"
            }
        }
    },
    "snapgridsize": 10,
    "snaptogrid": true,
    "wType": "FlexContainer",
    "widgetalignment": 1,
    "zindex": 1
}