{
    "@class": "com.kony.gen.viz.model.component.KVizLabel",
    "DNDConfig": null,
    "__parentReadjusting__": false,
    "_height_": {
        "type": "ref",
        "value": "preferred"
    },
    "_left_": {
        "type": "string",
        "value": "0%"
    },
    "_margin_": [
        1,
        1,
        1,
        1
    ],
    "_padding_": [
        0,
        0,
        0,
        0
    ],
    "_skin_": "s331df3bebb44fb8a6d0a03fa33dd4ba",
    "_text_": "TRANSACTIONS",
    "_top_": {
        "type": "string",
        "value": "5dp"
    },
    "_width_": {
        "type": "string",
        "value": "10%"
    },
    "_wrapping_": 2,
    "accessibilityconfig": {
        "a11yLabel": "Memo"
    },
    "android": {
        "textStyle": {
            "letterSpacing": 0,
            "strikeThrough": false
        }
    },
    "canUpdateUI": true,
    "containerweight": 100,
    "contentalignment": 4,
    "id": "lblMemo",
    "info": null,
    "ipad": {
        "psp": {
            "wrapping": 2
        }
    },
    "iphone": {
        "psp": {
            "wrapping": 2
        }
    },
    "isvisible": true,
    "kuid": "g8784a762efe4f81831b872ea1db225d",
    "name": "kony.ui.Label",
    "paddinginpixel": false,
    "parent": "flxMemo",
    "pf": "frmBulkBeneficiariesSelected",
    "responsiveData": {},
    "texti18n": "i18n.billPay.labelMemo",
    "tooltip": "",
    "wType": "Label",
    "zindex": 1
}