{
    "DNDConfig": null,
    "__parentReadjusting__": false,
    "_height_": {
        "type": "string",
        "value": "100%"
    },
    "_left_": {
        "type": "string",
        "value": "0"
    },
    "_margin_": [
        0,
        0,
        0,
        0
    ],
    "_orientation_": 6,
    "_padding_": [
        0,
        0,
        0,
        0
    ],
    "_percent_": true,
    "_skin_": "s8f1f6fd0c4841f7b140d4bea4f03c63",
    "_top_": {
        "type": "string",
        "value": "0dp"
    },
    "_width_": {
        "type": "string",
        "value": "100%"
    },
    "allboxes": [],
    "autogrowmode": 0,
    "canUpdateUI": true,
    "children": [
        "flxMakeTransfers",
        "lblSeparator",
        "flxDetail",
        "lblRowSeperator"
    ],
    "clipbounds": true,
    "containerId": true,
    "containerweight": 100,
    "enablescrolling": true,
    "id": "flxSelectedRowWrapper",
    "info": null,
    "isvisible": true,
    "kuid": "b768208510714e2c85f105895e8e6321",
    "layouttype": 4,
    "name": "kony.ui.FlexContainer",
    "parent": "flxWireTransferMakeTransfersNewSelected",
    "pf": "segMakeTransferWireTransfersNewSelected",
    "snapgridsize": 10,
    "snaptogrid": true,
    "wType": "FlexContainer",
    "widgetalignment": 1,
    "zindex": 1
}