{
    "DNDConfig": null,
    "_height_": {
        "type": "string",
        "value": "20dp"
    },
    "_left_": {
        "type": "string",
        "value": "0dp"
    },
    "_margin_": [
        0,
        0,
        0,
        0
    ],
    "_orientation_": 6,
    "_padding_": [
        0,
        0,
        0,
        0
    ],
    "_percent_": true,
    "_skin_": "s24c92fc23b14f5484b693ee9b8a9b35",
    "_top_": {
        "type": "string",
        "value": "0dp"
    },
    "_width_": {
        "type": "string",
        "value": "20dp"
    },
    "allboxes": [],
    "canUpdateUI": true,
    "centerx": {
        "type": "string",
        "value": "47%"
    },
    "centery": {
        "type": "string",
        "value": "50%"
    },
    "children": [
        "imgInfo"
    ],
    "clipbounds": true,
    "containerweight": 100,
    "enablescrolling": true,
    "id": "flxImgInfo",
    "info": null,
    "iscustomlayout": false,
    "isvisible": true,
    "kuid": "dd3193fb60164197bac1d3e57bb103cc",
    "layouttype": 3,
    "name": "kony.ui.FlexContainer",
    "parent": "flxTimeWeight",
    "pf": "userwidgetmodel",
    "responsiveData": {
        "b2": {
            "centerX": {
                "type": "string",
                "value": "30%"
            }
        }
    },
    "retaincontentalignment": false,
    "retainflexpositionproperties": false,
    "retainflowhorizontalalignment": false,
    "snapgridsize": 10,
    "snaptogrid": true,
    "wType": "FlexContainer",
    "widgetalignment": 1,
    "zindex": 1
}