{
    "@class": "com.kony.gen.viz.model.component.KVizUserWidget",
    "DNDConfig": null,
    "__parentReadjusting__": false,
    "_android_": {},
    "_androidwearos_": {},
    "_children_": [],
    "_desktopweb_": {},
    "_height_": {
        "type": "string",
        "value": "121px"
    },
    "_ipad_": {},
    "_iphone_": {},
    "_kiosk_": {},
    "_left_": {
        "type": "string",
        "value": "0dp"
    },
    "_margin_": [
        0,
        0,
        0,
        0
    ],
    "_orientation_": 1,
    "_padding_": [
        0,
        0,
        0,
        0
    ],
    "_percent_": true,
    "_responsiveData_": {},
    "_skin_": "s24c92fc23b14f5484b693ee9b8a9b35",
    "_spa_": {},
    "_spaan_": {},
    "_spaandroidtablet_": {},
    "_spabb_": {},
    "_spaip_": {},
    "_spaipad_": {},
    "_spamobile_": {},
    "_spatablet_": {},
    "_spawindowstablet_": {},
    "_spawinphone8_": {},
    "_tabrcandroid_": {},
    "_top_": {
        "type": "string",
        "value": "0dp"
    },
    "_vizProps_": {
        "hidewidgethierarchy": false
    },
    "_width_": {
        "type": "string",
        "value": "100%"
    },
    "_windows10_": {},
    "_windows8_": {},
    "_winphone10_": {},
    "_winphone8_": {},
    "areflexpropsreferenced": false,
    "autogrowmode": 0,
    "canUpdateUI": true,
    "clipbounds": false,
    "containerweight": 0,
    "dataDiffs": {
        "CopyLabel0a8b12f7002084d": {
            "__events__": {},
            "__info__": {
                "kuid": "d75d7203a2584d4bb7e4f779936eefc3",
                "srcKUID": "cb34c29df04d41f58c12dbf5f1600bcf",
                "wType": "Label"
            }
        },
        "CopyLabel0bb648d916e554d": {
            "__events__": {},
            "__info__": {
                "kuid": "e1486b15b28e467dbf68337bc127e4b2",
                "srcKUID": "c8238c4264144e7391f46d2a256dfbba",
                "wType": "Label"
            }
        },
        "CopyLabel0h9e71b8a76ad44": {
            "__events__": {},
            "__info__": {
                "kuid": "a9899611b5804f0f9bb5535b9efa0e8e",
                "srcKUID": "jdc721e253c844bf9eb85dc6aee46d25",
                "wType": "Label"
            }
        },
        "CopyflxSeperator0dfcbfe80de1946": {
            "__events__": {},
            "__info__": {
                "kuid": "e376bf553ac04511b8f3b201f0635603",
                "srcKUID": "b7894266c99044dcbcafe5383e83d3db",
                "wType": "FlexContainer"
            }
        },
        "CopyflxUserDetails0b35eb5be884043": {
            "__events__": {},
            "__info__": {
                "kuid": "e693309bbf584cb1842457cb86025bdd",
                "srcKUID": "e9caaacc452a4302b7932fe3f9374adc",
                "wType": "FlexContainer"
            }
        },
        "CopyimgToolTip0i580d9acc07c42": {
            "__events__": {},
            "__info__": {
                "kuid": "cd6e1cd58c854110998323ba628f9c88",
                "srcKUID": "a30ef82b1166480faddbd6e0b99e677d",
                "wType": "Image"
            }
        },
        "FlexContainer0g7f570b54a4d4e": {
            "__events__": {},
            "__info__": {
                "kuid": "bd3b45476a3b48b59b0ed484a37d7e4b",
                "srcKUID": "ccc99354aa50423c98c026de8d1c689f",
                "wType": "FlexContainer"
            }
        },
        "Label0dcf00103bdba46": {
            "__events__": {},
            "__info__": {
                "kuid": "ae96acc5c5474b22a218a7c3c0d12b55",
                "srcKUID": "c56fe5fc01b543ad82b37aeb33af56d3",
                "wType": "Label"
            }
        },
        "btnLogout": {
            "__events__": {},
            "__info__": {
                "kuid": "f21f07c2ddfa42f19d1faf251680ce60",
                "srcKUID": "dbe084cfcd054a6cb77dabb8ab42f077",
                "wType": "Button"
            }
        },
        "customheadernew": {
            "__events__": {},
            "__info__": {
                "isRoot": true,
                "kuid": "ice40a6fdd724e9787c40212773846fa",
                "srcKUID": "g57ea9eb26d54f30b5f191c7fbd35c51",
                "wType": "FlexContainer"
            }
        },
        "flxAccounts": {
            "__events__": {},
            "__info__": {
                "kuid": "g6ef294043ae44da9f6cf32adbb80ac1",
                "srcKUID": "e621bc1a1e0848afaf99419615e517b7",
                "wType": "FlexContainer"
            }
        },
        "flxActionsMenu": {
            "__events__": {},
            "__info__": {
                "kuid": "ea68c1e5485f4a47b2721687e471a511",
                "srcKUID": "f5fec7baee6841e7b95c2a53379aeea3",
                "wType": "FlexContainer"
            }
        },
        "flxClose": {
            "__events__": {},
            "__info__": {
                "kuid": "cd2c10fffb09489590b5901bd70709cf",
                "srcKUID": "f974fd9704ee48f08006fb2cce1bb1ba",
                "wType": "FlexContainer"
            }
        },
        "flxContextualMenu": {
            "__events__": {},
            "__info__": {
                "kuid": "f06e537c5faa4520b51cff0f0b324eb9",
                "srcKUID": "j3e46f4bdd64418ba7c405b38661d948",
                "wType": "FlexContainer"
            }
        },
        "flxFeedback": {
            "__events__": {},
            "__info__": {
                "kuid": "j231c0cc8ffd4130800ec1da6b0ab103",
                "srcKUID": "b8e6354ee0aa42a684fe29b1d98a8db0",
                "wType": "FlexContainer"
            }
        },
        "flxHamburger": {
            "__events__": {},
            "__info__": {
                "kuid": "ja1bc9fbdb28401fa0f44f1a8b8f00ab",
                "srcKUID": "bb94b45671994d859ad514157efbe460",
                "wType": "FlexContainer"
            }
        },
        "flxHamburgerBack": {
            "__events__": {},
            "__info__": {
                "kuid": "a5f4a942d8fa45618732d8cea9bcc704",
                "srcKUID": "c83e44fca25e458f8c5f4cca992018c1",
                "wType": "FlexContainer"
            }
        },
        "flxHamburgerHeader": {
            "__events__": {},
            "__info__": {
                "kuid": "c33f0e9c90b6433f92b534c57fef00b5",
                "srcKUID": "ff14c903773f49fea07675bf1dc6d3aa",
                "wType": "FlexContainer"
            }
        },
        "flxHamburgerMenu": {
            "__events__": {},
            "__info__": {
                "kuid": "ab6c2ef83899495d9c4e22dcb6a81668",
                "srcKUID": "f70dbadab9194d9cab80ed58a380e355",
                "wType": "FlexScrollContainer"
            }
        },
        "flxHelp": {
            "__events__": {},
            "__info__": {
                "kuid": "g7de188022f54bb38848c4583441d236",
                "srcKUID": "ab6d787fe40b471184a4baf8371012d8",
                "wType": "FlexContainer"
            }
        },
        "flxImgUser": {
            "__events__": {},
            "__info__": {
                "kuid": "i767a7d9c2d7465cb548a605824336a6",
                "srcKUID": "c8bbffe16c9e4322a9c1f2e978bfe397",
                "wType": "FlexContainer"
            }
        },
        "flxLogoAndActions": {
            "__events__": {},
            "__info__": {
                "kuid": "cfc08ddf035245a38d6cf4875b649aad",
                "srcKUID": "c6cc3d5c40ad4387b5989655ced7897b",
                "wType": "FlexContainer"
            }
        },
        "flxLogoAndActionsWrapper": {
            "__events__": {},
            "__info__": {
                "kuid": "g979f512521e4f38b0a4186f3b30063e",
                "srcKUID": "j19f0c12db9c4a62aca336bb621f2240",
                "wType": "FlexContainer"
            }
        },
        "flxLogout": {
            "__events__": {},
            "__info__": {
                "kuid": "g381f55ab65b48fd9f6fd3f8dc8956a3",
                "srcKUID": "b9455970cb324605a7d8d8423734c5d3",
                "wType": "FlexContainer"
            }
        },
        "flxLogoutSeparator": {
            "__events__": {},
            "__info__": {
                "kuid": "e80c31d143e5478cbc29689562dff71a",
                "srcKUID": "e307a629419a4a5cb5e6b3dd241e8d33",
                "wType": "FlexContainer"
            }
        },
        "flxLogoutWrapper": {
            "__events__": {},
            "__info__": {
                "kuid": "ed7568c617964c039efdbdc8c68005a5",
                "srcKUID": "a3a6fced7d8c48c9b292f13fa15f5eb8",
                "wType": "FlexContainer"
            }
        },
        "flxMenu": {
            "__events__": {},
            "__info__": {
                "kuid": "g9dfd1899c3f47aeaba187ef0c934cd6",
                "srcKUID": "c49e3f9c246b4c9eb2037a25593f5949",
                "wType": "FlexContainer"
            }
        },
        "flxMenuContainer": {
            "__events__": {},
            "__info__": {
                "kuid": "e37acf25f9be49a2bc0ebacede1f017f",
                "srcKUID": "gbe4ab8dec9249a5b1c796d6f8196f51",
                "wType": "FlexContainer"
            }
        },
        "flxMenuItem": {
            "__events__": {},
            "__info__": {
                "kuid": "df1179d5835444f4b687b31b1b9ef520",
                "srcKUID": "b77d75a793c14f2580b76ac27da67298",
                "wType": "FlexContainer"
            }
        },
        "flxMenuItemCollapse": {
            "__events__": {},
            "__info__": {
                "kuid": "a084221e21b54549b7dca97c46103914",
                "srcKUID": "b9bab656b60e4d929d0cb26e88d05324",
                "wType": "FlexContainer"
            }
        },
        "flxMenuLeft": {
            "__events__": {},
            "__info__": {
                "kuid": "b5921a8ec0b04253a447d640994e405d",
                "srcKUID": "ea55f1f130bd498e94b6a730ef3a2340",
                "wType": "FlexContainer"
            }
        },
        "flxMenuRight": {
            "__events__": {},
            "__info__": {
                "kuid": "a1acb4b46028481f8df01092002cc9d6",
                "srcKUID": "c7c28fc54fd64c58bc606c327d1900c1",
                "wType": "FlexContainer"
            }
        },
        "flxMenuWrapper": {
            "__events__": {},
            "__info__": {
                "kuid": "eb36820a601147b99806601ad93b66a7",
                "srcKUID": "d0eec1a4de1646d3ab5d92996f569aa7",
                "wType": "FlexContainer"
            }
        },
        "flxMessages": {
            "__events__": {},
            "__info__": {
                "kuid": "cd2990060c76470a9800f75acea11980",
                "srcKUID": "b957e06250dd45ac951449c7bdd6ff51",
                "wType": "FlexContainer"
            }
        },
        "flxMyBills": {
            "__events__": {},
            "__info__": {
                "kuid": "a70f14542f454cbaa15429fd7fb731f8",
                "srcKUID": "a8bbbc89f77949f4b8140963ab148dce",
                "wType": "FlexContainer"
            }
        },
        "flxPayBills": {
            "__events__": {},
            "__info__": {
                "kuid": "h055477b2748436f898478a7cf6db734",
                "srcKUID": "dfdcb7d977c545c1b7af04aa7b4b38cf",
                "wType": "FlexContainer"
            }
        },
        "flxSendMoney": {
            "__events__": {},
            "__info__": {
                "kuid": "fe69f30f17d54eed921ac2e591f7e959",
                "srcKUID": "f44ec678efe1449f84d827b60e0ae264",
                "wType": "FlexContainer"
            }
        },
        "flxSeparator1": {
            "__events__": {},
            "__info__": {
                "kuid": "h717b8e3d44d4319b95620e2de1a8b45",
                "srcKUID": "b2a298aba680466d8f60575b80e1934e",
                "wType": "FlexContainer"
            }
        },
        "flxSeparatorNew": {
            "__events__": {},
            "__info__": {
                "kuid": "dc383ad35cc647bb8d3a1a0f2f3e2c9c",
                "srcKUID": "ea67f93ff0f94128a71262c9f88d2dbe",
                "wType": "FlexContainer"
            }
        },
        "flxSeperator1": {
            "__events__": {},
            "__info__": {
                "kuid": "h0631e13e46a41b59d153efdc370398a",
                "srcKUID": "db259fcb819a47079972d09155429c2c",
                "wType": "FlexContainer"
            }
        },
        "flxSeperator2": {
            "__events__": {},
            "__info__": {
                "kuid": "fb24550e908d4db79dcbca3d9b277867",
                "srcKUID": "c329b2e37feb4e6384dc95c9e268eedb",
                "wType": "FlexContainer"
            }
        },
        "flxSeperatorMenuItem": {
            "__events__": {},
            "__info__": {
                "kuid": "h52c893978834e11aa3a8eb5f6fda10e",
                "srcKUID": "dc614efa32034c87a72487baa94c4619",
                "wType": "FlexContainer"
            }
        },
        "flxShadowContainer": {
            "__events__": {},
            "__info__": {
                "kuid": "d40837aff6f44faeac9aa9f563fcf3be",
                "srcKUID": "c247bb7332fa47d5bd417b916c7abfec",
                "wType": "FlexContainer"
            }
        },
        "flxSubMenu": {
            "__events__": {},
            "__info__": {
                "kuid": "a7bb5d8d063e4e34bcc6d5ee5cac0819",
                "srcKUID": "dc6c7628618b483a80fcf0bae2dac6db",
                "wType": "FlexContainer"
            }
        },
        "flxSubMenuItem": {
            "__events__": {},
            "__info__": {
                "kuid": "bce63a0cbaac4edca8fb4689a0c2e4c2",
                "srcKUID": "ecc2da3d45e348e0aed2982aed7e9e98",
                "wType": "FlexContainer"
            }
        },
        "flxTransferMoney": {
            "__events__": {},
            "__info__": {
                "kuid": "d4df2f8436314dd09f51dbebe794fc65",
                "srcKUID": "fc180c87f1494b08bd7335e029745f05",
                "wType": "FlexContainer"
            }
        },
        "flxTransfersAndPay": {
            "__events__": {},
            "__info__": {
                "kuid": "j0a160341a82492cb94af8a116d3e817",
                "srcKUID": "je4acb4201274a92bebc604f30a7947a",
                "wType": "FlexContainer"
            }
        },
        "flxUser": {
            "__events__": {},
            "__info__": {
                "kuid": "c1a9ab79d06c4eda931a6a2cdae1ea2e",
                "srcKUID": "g4f3d73c7f364988900a280daf5753d8",
                "wType": "FlexContainer"
            }
        },
        "flxUserActions": {
            "__events__": {},
            "__info__": {
                "kuid": "ed5ad2e03b83414688b956414d045385",
                "srcKUID": "c82435ddffbe4a299e1b432baa97fe80",
                "wType": "FlexContainer"
            }
        },
        "flxUserActionsWrapper": {
            "__events__": {},
            "__info__": {
                "kuid": "gd9cf188ce4a41fa858c3606db1a5fc2",
                "srcKUID": "bfea9c9b15964d019ae9a28ded0b7d9d",
                "wType": "FlexContainer"
            }
        },
        "flxWarning": {
            "__events__": {},
            "__info__": {
                "kuid": "f7a2920fd9844be580e07e900afecd4b",
                "srcKUID": "c7ae9fe97da545ebad3bd6254cb34391",
                "wType": "FlexContainer"
            }
        },
        "flxWireMoney": {
            "__events__": {},
            "__info__": {
                "kuid": "fd939cd57a5042d1a5636d8348fc1072",
                "srcKUID": "a7e3790fa138476e9b408a269f31269d",
                "wType": "FlexContainer"
            }
        },
        "flxverseperator2": {
            "__events__": {},
            "__info__": {
                "kuid": "b3f4f7ddd6824f7294f7742657763016",
                "srcKUID": "b5adbb16a78e40f4aa5b53cf5caa919d",
                "wType": "FlexContainer"
            }
        },
        "imgClose": {
            "__events__": {},
            "__info__": {
                "kuid": "c5591b7f456e4a81a91c2e41fc59e5ba",
                "srcKUID": "f0059293a90844408fdc2a3c558f25b9",
                "wType": "Image"
            }
        },
        "imgCollapseMenuItem": {
            "__events__": {},
            "__info__": {
                "kuid": "de8b4660fa934622a4d4c27114868ba8",
                "srcKUID": "ba746db189ad42989176b888b25ae78b",
                "wType": "Image"
            }
        },
        "imgKony": {
            "__events__": {},
            "__info__": {
                "kuid": "d50dc475455b4b83aafca877e825eaa1",
                "srcKUID": "c55a5df1953849bc921a9a84a2cf5e70",
                "wType": "Image"
            },
            "src": "kony_logo.png"
        },
        "imgKonyHamburger": {
            "__events__": {},
            "__info__": {
                "kuid": "j03eca4e4eb04f36bee22dd406a8d47e",
                "srcKUID": "b77eae507bff4b2d91fbf7670574d59e",
                "wType": "Image"
            }
        },
        "imgLblTransfers": {
            "__events__": {},
            "__info__": {
                "kuid": "e845d378cdc94ab2804c65a5aed3b475",
                "srcKUID": "ffe510df4f16410e92dc6721f851a592",
                "wType": "Label"
            }
        },
        "imgLogout": {
            "__events__": {},
            "__info__": {
                "kuid": "eb052d5f1ec747fc9efd541e5e415541",
                "srcKUID": "d67b5f46dcd44029b4cba5d652ef4e4a",
                "wType": "Image"
            },
            "src": "logout.png"
        },
        "imgMenu": {
            "__events__": {},
            "__info__": {
                "kuid": "bcab681311f4491f962bce67d0aa43b7",
                "srcKUID": "fc4d7ba517c748f08b831479a140671f",
                "wType": "Image"
            },
            "src": "menu_icon.png"
        },
        "imgNotifications": {
            "__events__": {},
            "__info__": {
                "kuid": "f1d0e4fd0ce74cff9c0f65f7e6c0eff7",
                "srcKUID": "a6e8c4a6887349caac366cd06a1a61c7",
                "wType": "Image"
            },
            "src": "notification_flag.png"
        },
        "imgToolTip": {
            "__events__": {},
            "__info__": {
                "kuid": "a679c1f8db324d229741429c68cb10cf",
                "srcKUID": "j6d5d0d57c4d4c51bb3c07fc94674e0b",
                "wType": "Image"
            }
        },
        "imgUser": {
            "__events__": {},
            "__info__": {
                "kuid": "i900172c6b874080aacd81bec2c8ac05",
                "srcKUID": "c653f12789ff45178bc1061b44158c51",
                "wType": "Image"
            }
        },
        "imgWarning": {
            "__events__": {},
            "__info__": {
                "kuid": "j2627c97e05a43f6af9bf0d5ffeb9064",
                "srcKUID": "a008b61365884da1aeefa554430f6343",
                "wType": "Image"
            }
        },
        "lblAccounts": {
            "__events__": {},
            "__info__": {
                "kuid": "jb396d44a9ee4eb183cc242adeaba45d",
                "srcKUID": "a44ff4b384ce41fbbd285f88cde71bc7",
                "wType": "Label"
            }
        },
        "lblFeedback": {
            "__events__": {},
            "__info__": {
                "kuid": "i539fddf61ce4aaa84313410162de89c",
                "srcKUID": "f221b6bbddac4ec097577e0e2abbf72a",
                "wType": "Label"
            }
        },
        "lblHeaderMobile": {
            "__events__": {},
            "__info__": {
                "kuid": "i24beea3a0e543238584b9d72da1644d",
                "srcKUID": "fc0477569a7346b79ef7b5d61246a700",
                "wType": "Label"
            },
            "i18n_text": "i18n.PayAPerson.AddRecipient",
            "responsiveData": {
                "b3": {
                    "text": "Add Recipient"
                }
            },
            "text": "A"
        },
        "lblHelp": {
            "__events__": {},
            "__info__": {
                "kuid": "b9640351fa4d43ec94bb8c586c1ed329",
                "srcKUID": "fbd3358a503c410282a41bea6a18f47d",
                "wType": "Label"
            }
        },
        "lblLogout": {
            "__events__": {},
            "__info__": {
                "kuid": "f8a5e5dd880f4f558e64fe570532f7df",
                "srcKUID": "e2654abf270340819750f9f33e4dbfc3",
                "wType": "Label"
            }
        },
        "lblLogoutIcon": {
            "__events__": {},
            "__info__": {
                "kuid": "ab1b1c4a94284e79bbcaabb93174c865",
                "srcKUID": "f7201d67d487488f8b79f6de86dac851",
                "wType": "Label"
            }
        },
        "lblMenuItemIcon": {
            "__events__": {},
            "__info__": {
                "kuid": "b1fc46a84fc0411fafd754071f1319a6",
                "srcKUID": "b0f1d3eb6b5c4edfb845c0cadd9a65b2",
                "wType": "Label"
            }
        },
        "lblMenuItemTitle": {
            "__events__": {},
            "__info__": {
                "kuid": "e0f5d39ecf7a4224acf94d256914a4cf",
                "srcKUID": "h5445b09c22d41dba82780d50a162e5d",
                "wType": "Label"
            }
        },
        "lblMyAccounts": {
            "__events__": {},
            "__info__": {
                "kuid": "c8f9098b9eec443a8f76e64f98bbbefe",
                "srcKUID": "a7ae02bf520e467bad62d17620dbcd9c",
                "wType": "Label"
            }
        },
        "lblMyBills": {
            "__events__": {},
            "__info__": {
                "kuid": "iaba5cf8eee64746a0dca5cf7fc839e5",
                "srcKUID": "f07f6e1e108847c893514c948793123d",
                "wType": "Label"
            }
        },
        "lblName": {
            "__events__": {},
            "__info__": {
                "kuid": "d0e67a5ace7242b6a342c39f61d6905e",
                "srcKUID": "df2a7db2a13842f8b69f45d798f91ca4",
                "wType": "Label"
            }
        },
        "lblNewMessages": {
            "__events__": {},
            "__info__": {
                "kuid": "c894af457a1e42a19b4f739161647b3c",
                "srcKUID": "e390473ef6224482b645ddbbabb4246e",
                "wType": "Label"
            }
        },
        "lblTransferAndPay": {
            "__events__": {},
            "__info__": {
                "kuid": "c80eaba394bb475d8e7c9e9f716c62c8",
                "srcKUID": "b16c43dc82314d26bd801952202150c1",
                "wType": "Label"
            }
        },
        "lblUserEmail": {
            "__events__": {},
            "__info__": {
                "kuid": "a70ec1d40f8744fa90a39d34cab48790",
                "srcKUID": "j0626d5e09c04c8e82eefdb4d6a5a20b",
                "wType": "RichText"
            }
        },
        "rtxWarning": {
            "__events__": {},
            "__info__": {
                "kuid": "bd4a3477491d4386b2d0ddc0a9012f67",
                "srcKUID": "bcfca1ce25a742b4a4fe3ffb534a8743",
                "wType": "RichText"
            }
        },
        "segUserActions": {
            "__events__": {},
            "__info__": {
                "kuid": "e5da0a6c0e0c4ec99fa0c674d1c732be",
                "srcKUID": "d628530db75f48cfaf1e94b7e138808a",
                "wType": "Segment"
            }
        }
    },
    "enablescrolling": true,
    "id": "customheadernew",
    "info": null,
    "isdatareferenced": false,
    "isvisible": true,
    "kuid": "ice40a6fdd724e9787c40212773846fa",
    "layouttype": 2,
    "masterType": 0,
    "name": "kony.ui.UserWidgetInstance",
    "parent": "flxHeader",
    "pf": "frmWireTransferAddInternationalAccountStep1",
    "snapgridsize": 10,
    "snaptogrid": true,
    "sourceUserWidget": "g57ea9eb26d54f30b5f191c7fbd35c51",
    "wType": "UserWidgetInstance",
    "zindex": 1000
}