{
    "DNDConfig": null,
    "__parentReadjusting__": false,
    "_height_": {
        "type": "ref",
        "value": "preferred"
    },
    "_margin_": [
        0,
        0,
        0,
        0
    ],
    "_orientation_": 6,
    "_padding_": [
        0,
        0,
        0,
        0
    ],
    "_percent_": true,
    "_right_": {
        "type": "string",
        "value": "6.07%"
    },
    "_skin_": "sdc143f0e5b64ae3a3f155f691c73fa7",
    "_top_": {
        "type": "string",
        "value": "0px"
    },
    "_width_": {
        "type": "string",
        "value": "28.40%"
    },
    "allboxes": [],
    "autogrowmode": 1,
    "canUpdateUI": true,
    "children": [
        "BannerWireTransfer",
        "wireTransferRightbar"
    ],
    "clipbounds": false,
    "containerweight": 100,
    "enablescrolling": true,
    "id": "flxRightBar",
    "info": null,
    "isvisible": true,
    "kuid": "d963c7119b4843d6899867ed0f011d76",
    "layouttype": 4,
    "name": "kony.ui.FlexContainer",
    "parent": "flxMainWrapper",
    "pf": "frmWireTransferAddInternationalAccountStep1",
    "responsiveData": {
        "b2": {},
        "b3": {
            "isVisible": false,
            "right": {
                "type": "string",
                "value": "0%"
            },
            "width": {
                "type": "string",
                "value": "0%"
            }
        },
        "b4": {
            "isVisible": false,
            "right": {
                "type": "string",
                "value": "0%"
            },
            "width": {
                "type": "string",
                "value": "0%"
            }
        }
    },
    "snapgridsize": 10,
    "snaptogrid": true,
    "wType": "FlexContainer",
    "widgetalignment": 1,
    "zindex": 1
}