{
    "DNDConfig": null,
    "__parentReadjusting__": false,
    "_height_": {
        "type": "string",
        "value": "50dp"
    },
    "_left_": {
        "type": "string",
        "value": "25.30%"
    },
    "_margin_": [
        0,
        0,
        0,
        0
    ],
    "_orientation_": 6,
    "_padding_": [
        0,
        0,
        0,
        0
    ],
    "_percent_": true,
    "_skin_": "s2f1930e68bc4b258cfe821e7f0122cd",
    "_top_": {
        "type": "string",
        "value": "0dp"
    },
    "_width_": {
        "type": "string",
        "value": "29.20%"
    },
    "accessibilityconfig": {
        "a11yARIA": {
            "tabindex": 1
        }
    },
    "allboxes": [],
    "autogrowmode": 0,
    "canUpdateUI": true,
    "children": [
        "lblSelectAccount",
        "flxTypeIcon",
        "lblFromAmount",
        "txtTransferFrom",
        "flxCancelFilterFrom",
        "flxLoadingContainerFrom"
    ],
    "clipbounds": true,
    "containerweight": 100,
    "enablescrolling": true,
    "id": "flxFrom",
    "info": null,
    "iscustomlayout": false,
    "isvisible": false,
    "kuid": "h2ac9309756347498654b529ca4df31d",
    "layouttype": 2,
    "name": "kony.ui.FlexContainer",
    "parent": "flxAccFrDeposit",
    "pf": "frmFastActiveServices",
    "responsiveData": {
        "b1": {},
        "b2": {
            "isVisible": false,
            "left": {
                "type": "string",
                "value": "35%"
            },
            "width": {
                "type": "string",
                "value": "49.20%"
            }
        },
        "b3": {
            "isVisible": false,
            "left": {
                "type": "string",
                "value": "2%"
            },
            "top": {
                "type": "string",
                "value": "10dp"
            },
            "width": {
                "type": "string",
                "value": "96%"
            }
        },
        "b4": {
            "isVisible": false,
            "width": {
                "type": "string",
                "value": "49.20%"
            }
        }
    },
    "retaincontentalignment": false,
    "retainflexpositionproperties": false,
    "retainflowhorizontalalignment": false,
    "snapgridsize": 10,
    "snaptogrid": true,
    "wType": "FlexContainer",
    "widgetalignment": 1,
    "zindex": 5
}