{
    "DNDConfig": null,
    "__parentReadjusting__": false,
    "_bottom_": {
        "type": "string",
        "value": "0dp"
    },
    "_height_": {
        "type": "string",
        "value": "300dp"
    },
    "_left_": {
        "type": "string",
        "value": "25.30%"
    },
    "_margin_": [
        0,
        0,
        0,
        0
    ],
    "_orientation_": 6,
    "_padding_": [
        0,
        0,
        0,
        0
    ],
    "_percent_": true,
    "_skin_": "s105ec3c20d849e1b69ab0d3b0fb2fb2",
    "_top_": {
        "type": "string",
        "value": "17%"
    },
    "_width_": {
        "type": "string",
        "value": "29.20%"
    },
    "allboxes": [],
    "allowhorizontalbounce": false,
    "allowverticalbounce": true,
    "bounces": true,
    "canUpdateUI": true,
    "children": [
        "segTransferFrom",
        "flxNoAccountsFrom",
        "flxNoResultsFrom"
    ],
    "clipbounds": false,
    "containerweight": 100,
    "decelerat": false,
    "dragg": false,
    "enablescrolling": true,
    "horizontalscrollindicator": true,
    "id": "flxFromSegment",
    "info": null,
    "iscustomlayout": false,
    "isvisible": false,
    "kuid": "dd72e41f073c4f6598b2d1d67b11232f",
    "layouttype": 2,
    "name": "kony.ui.FlexScrollContainer",
    "pagingenabled": false,
    "parent": "flxAccFrDeposit",
    "pf": "frmFastActiveServices",
    "responsiveData": {
        "b2": {
            "height": {
                "type": "string",
                "value": "350dp"
            },
            "isVisible": false,
            "left": {
                "type": "string",
                "value": "35%"
            },
            "top": {
                "type": "string",
                "value": "17%"
            },
            "width": {
                "type": "string",
                "value": "49.20%"
            }
        },
        "b3": {
            "height": {
                "type": "string",
                "value": "300dp"
            },
            "isVisible": false,
            "left": {
                "type": "string",
                "value": "2%"
            },
            "top": {
                "type": "string",
                "value": "2%"
            },
            "width": {
                "type": "string",
                "value": "96%"
            },
            "zIndex": 10
        },
        "b4": {
            "isVisible": false,
            "width": {
                "type": "string",
                "value": "49.20%"
            }
        }
    },
    "retaincontentalignment": false,
    "retainflexpositionproperties": false,
    "retainflowhorizontalalignment": false,
    "scrolldirection": 2,
    "snapgridsize": 10,
    "snaptogrid": true,
    "track": false,
    "verticalscrollindicator": true,
    "vizProps": {},
    "wType": "FlexScrollContainer",
    "widgetalignment": 1,
    "zindex": 10
}