{
    "@class": "com.kony.gen.viz.model.component.KVizLabel",
    "DNDConfig": null,
    "__parentReadjusting__": false,
    "_height_": {
        "type": "ref",
        "value": "preferred"
    },
    "_left_": {
        "type": "string",
        "value": "51.07%"
    },
    "_margin_": [
        1,
        1,
        1,
        1
    ],
    "_padding_": [
        0,
        0,
        0,
        0
    ],
    "_skin_": "sd9fada740124e4a99edc1f0a05ec2d0",
    "_text_": "International Bank Account Number (IBAN)",
    "_top_": {
        "type": "string",
        "value": "16dp"
    },
    "_width_": {
        "type": "ref",
        "value": "preferred"
    },
    "_wrapping_": 2,
    "accessibilityconfig": {
        "a11yLabel": "International Bank Account Number (IBAN)"
    },
    "android": {
        "textStyle": {
            "letterSpacing": 0,
            "strikeThrough": false
        }
    },
    "canUpdateUI": true,
    "containerweight": 100,
    "contentalignment": 4,
    "id": "lblIBANOrIRC",
    "info": null,
    "ipad": {
        "psp": {
            "wrapping": 2
        }
    },
    "iphone": {
        "psp": {
            "wrapping": 2
        }
    },
    "isvisible": true,
    "kuid": "d861eb5a3a4a4ed6adf15417deece9ea",
    "name": "kony.ui.Label",
    "parent": "flxSwiftCode",
    "pf": "frmWireTransferAddInternationalAccountStep2",
    "responsiveData": {
        "b1": {
            "isVisible": true
        },
        "b2": {
            "isVisible": true
        },
        "b3": {
            "isVisible": true,
            "left": {
                "type": "string",
                "value": "15dp"
            },
            "top": {
                "type": "string",
                "value": "105dp"
            }
        },
        "b4": {
            "isVisible": true
        }
    },
    "tooltip": "",
    "wType": "Label",
    "zindex": 1
}