{
    "DNDConfig": null,
    "__parentReadjusting__": false,
    "_bottom_": {
        "type": "string",
        "value": "20dp"
    },
    "_height_": {
        "type": "ref",
        "value": "preferred"
    },
    "_left_": {
        "type": "string",
        "value": "3.25%"
    },
    "_margin_": [
        0,
        0,
        0,
        0
    ],
    "_orientation_": 6,
    "_padding_": [
        0,
        0,
        0,
        0
    ],
    "_percent_": true,
    "_right_": {
        "type": "number",
        "value": ""
    },
    "_skin_": "sdc143f0e5b64ae3a3f155f691c73fa7",
    "_top_": {
        "type": "string",
        "value": "0dp"
    },
    "_width_": {
        "type": "string",
        "value": "93.50%"
    },
    "allboxes": [],
    "autogrowmode": 1,
    "canUpdateUI": true,
    "centerx": {
        "type": "number",
        "value": ""
    },
    "children": [
        "flxError",
        "flxWarning",
        "flxBdgtNameAndCharCnt",
        "tbxbudgetName",
        "lblBudgetAmount",
        "flxBudgetAmountValue",
        "lblCurrentBalance",
        "flxCurrentBalanceValue",
        "flxSeperator",
        "flxSubmitBtnWrapper"
    ],
    "clipbounds": false,
    "containerweight": 100,
    "enablescrolling": true,
    "id": "flxBudgetDetails",
    "info": null,
    "iscustomlayout": false,
    "isvisible": true,
    "kuid": "h9cd999052b44fdba804bd023b8abbf9",
    "layouttype": 4,
    "minheight": {
        "type": "number",
        "value": ""
    },
    "minwidth": {
        "type": "number",
        "value": ""
    },
    "name": "kony.ui.FlexContainer",
    "parent": "flxContent",
    "pf": "frmEditBudget",
    "responsiveData": {
        "b1": {
            "bottom": {
                "type": "string",
                "value": "20dp"
            },
            "centerX": {
                "type": "string",
                "value": "50%"
            },
            "left": {
                "type": "string",
                "value": "6.07%"
            },
            "minHeight": {
                "type": "string",
                "value": "200dp"
            },
            "minWidth": {
                "type": "string",
                "value": ""
            },
            "right": {
                "type": "string",
                "value": ""
            },
            "width": {
                "type": "string",
                "value": "1200dp"
            }
        },
        "b2": {
            "bottom": {
                "type": "string",
                "value": "20dp"
            },
            "centerX": {
                "type": "string",
                "value": "50%"
            },
            "left": {
                "type": "string",
                "value": ""
            },
            "minHeight": {
                "type": "string",
                "value": "200dp"
            },
            "right": {
                "type": "string",
                "value": ""
            },
            "width": {
                "type": "string",
                "value": "87.80%"
            }
        },
        "b3": {
            "left": {
                "type": "string",
                "value": "2.50%"
            },
            "minHeight": {
                "type": "string",
                "value": "200dp"
            },
            "right": {
                "type": "string",
                "value": "80dp"
            },
            "width": {
                "type": "string",
                "value": "95%"
            }
        },
        "b4": {
            "left": {
                "type": "string",
                "value": "4.50%"
            },
            "minHeight": {
                "type": "string",
                "value": "200dp"
            },
            "top": {
                "type": "string",
                "value": "20dp"
            },
            "width": {
                "type": "string",
                "value": "91%"
            }
        }
    },
    "retaincontentalignment": false,
    "retainflexpositionproperties": false,
    "snapgridsize": 10,
    "snaptogrid": true,
    "wType": "FlexContainer",
    "widgetalignment": 1
}