{
    "DNDConfig": null,
    "_height_": {
        "type": "string",
        "value": "50dp"
    },
    "_left_": {
        "type": "string",
        "value": "0dp"
    },
    "_margin_": [
        0,
        0,
        0,
        0
    ],
    "_orientation_": 6,
    "_padding_": [
        0,
        0,
        0,
        0
    ],
    "_percent_": true,
    "_skin_": "sf2fa0bd11d54bd880c5f4c23142e385",
    "_top_": {
        "type": "string",
        "value": "0dp"
    },
    "_width_": {
        "type": "string",
        "value": "10%"
    },
    "allboxes": [],
    "autogrowmode": 0,
    "canUpdateUI": true,
    "children": [
        "imgDropdown"
    ],
    "clipbounds": true,
    "containerId": true,
    "containerweight": 100,
    "desktopweb": {
        "psp": {
            "hoverSkin": "s35d4582dd73489e8f08301f68bb1133"
        }
    },
    "disabledSkins": {},
    "enablescrolling": true,
    "id": "flxDropdown",
    "ide_onClick": "AS_FlexContainer_ab5949667f464e659ba9b8ae552e273c",
    "info": null,
    "isvisible": true,
    "kuid": "j6d1c1a8e8974680be8ffbd091f9b01e",
    "layouttype": 3,
    "name": "kony.ui.FlexContainer",
    "parent": "flxSegTransactionRowWrapper",
    "pf": "ICSegTransactionsRowSelectedSavingsMobile",
    "snapgridsize": 10,
    "snaptogrid": true,
    "wType": "FlexContainer",
    "widgetalignment": 1,
    "zindex": 3
}