{
    "@class": "com.kony.gen.viz.model.component.KVizButton",
    "DNDConfig": null,
    "__parentReadjusting__": false,
    "_height_": {
        "type": "string",
        "value": "100%"
    },
    "_left_": {
        "type": "string",
        "value": "0dp"
    },
    "_margin_": [
        6,
        6,
        6,
        6
    ],
    "_padding_": [
        2,
        0,
        2,
        0
    ],
    "_skin_": "s6cc32f783a048e98fcfb83f1b046c84",
    "_text_": "DELETED MESSAGES",
    "_width_": {
        "type": "ref",
        "value": "preferred"
    },
    "accessibilityconfig": {
        "a11yLabel": "Deleted Messages"
    },
    "canUpdateUI": true,
    "centery": {
        "type": "string",
        "value": "50%"
    },
    "containerweight": 100,
    "contentalignment": 5,
    "disabledSkins": {
        "focusSkin": "sf44d06ca8224832827ea7fdff757013"
    },
    "displaytext": true,
    "id": "btnDeletedMessages",
    "info": null,
    "isvisible": true,
    "kuid": "ee99a50d820b479e88d78186da836813",
    "name": "kony.ui.Button",
    "paddinginpixel": false,
    "parent": "flxTabs1",
    "pf": "userwidgetmodel",
    "texti18n": "i18n.AlertsAndMessages.DeletedMessages",
    "tooltip": "Deleted Messages",
    "wType": "Button",
    "zindex": 1
}