{
    "DNDConfig": null,
    "__parentReadjusting__": false,
    "_height_": {
        "type": "ref",
        "value": "preferred"
    },
    "_left_": {
        "type": "string",
        "value": "37.10%"
    },
    "_margin_": [
        0,
        0,
        0,
        0
    ],
    "_orientation_": 6,
    "_padding_": [
        0,
        0,
        0,
        0
    ],
    "_percent_": true,
    "_skin_": "s1220d264bf246cb907eebc534993c48",
    "_top_": {
        "type": "string",
        "value": "48dp"
    },
    "_width_": {
        "type": "string",
        "value": "62.60%"
    },
    "allboxes": [],
    "autogrowmode": 1,
    "canUpdateUI": true,
    "children": [
        "flxMessagesHeader",
        "flxDesktopMessages",
        "flxSeparator2",
        "flxMainMessages",
        "flxReply",
        "flxDeletedMessagesBottom",
        "flxSendMessage"
    ],
    "clipbounds": true,
    "containerweight": 100,
    "enablescrolling": true,
    "id": "flxRightMessages",
    "info": null,
    "isvisible": true,
    "kuid": "i0571790552648469bfacf702cfd5c73",
    "layouttype": 4,
    "name": "kony.ui.FlexContainer",
    "parent": "NotficationsAndMessages",
    "pf": "userwidgetmodel",
    "snapgridsize": 10,
    "snaptogrid": true,
    "wType": "FlexContainer",
    "widgetalignment": 1,
    "zindex": 1
}