{
    "@class": "com.kony.gen.viz.model.container.KVizSegment2",
    "DNDConfig": null,
    "__parentReadjusting__": false,
    "_data_": [],
    "_height_": {
        "type": "ref",
        "value": "preferred"
    },
    "_indicator_": "none",
    "_left_": {
        "type": "string",
        "value": "0dp"
    },
    "_margin_": [
        0,
        0,
        0,
        0
    ],
    "_orientation_": 2,
    "_padding_": [
        0,
        0,
        0,
        0
    ],
    "_top_": {
        "type": "string",
        "value": "0dp"
    },
    "_width_": {
        "type": "string",
        "value": "100%"
    },
    "autogrowmode": 1,
    "canUpdateUI": true,
    "containerweight": 100,
    "counter": "00",
    "desktop": {
        "_data_": [],
        "rowTemplateId": "df2d04979e0c43bcb786c6200c00ea2e",
        "rowtemplate": "flxAddAttachmentMain",
        "widgetdatamap": {
            "flxAddAttachmentMain": "flxAddAttachmentMain",
            "flxAttachmentName": "flxAttachmentName",
            "flxDocAttachment": "flxDocAttachment",
            "flxRemoveAttachment": "flxRemoveAttachment",
            "flxVerticalMiniSeparator": "flxVerticalMiniSeparator",
            "imgPDF": "imgPDF",
            "imgRemoveAttachment": "imgRemoveAttachment",
            "lblDOcName": "lblDOcName",
            "lblDocSize": "lblDocSize"
        }
    },
    "focusedindex": null,
    "focuseditem": null,
    "groupcells": false,
    "hasSections": false,
    "id": "segAttachment",
    "info": null,
    "ipad": {
        "psp": {
            "indicator": "rowselect"
        }
    },
    "iphone": {
        "psp": {
            "indicator": "rowselect"
        }
    },
    "isvisible": true,
    "kuid": "cc409b9315164a0493e07f38a5e5f866",
    "masterdata": {},
    "name": "kony.ui.SegmentedUI2",
    "needpageindicator": true,
    "pageoffdotimage": "pageoffdot.png",
    "pageondotimage": "pageondot.png",
    "paginationconfig": {
        "position": "bottom"
    },
    "parent": "flxDocAttachment",
    "pf": "userwidgetmodel",
    "retainselection": false,
    "rowcounter": 0,
    "rowfocusskin": "s9f69e977910472eb44c62ae28c41fe1",
    "rowskin": "scf5f90f6ac04976ab88b2a4f7153285",
    "rowtemplate": "flxAddAttachmentMain",
    "screenlevelwidget": false,
    "seccounter": 0,
    "sectionheaderskin": "sdc4ff4ed1584272be2ae69045dfb29d",
    "selectedRows": null,
    "selectedState": false,
    "selectedindex": null,
    "selectedindices": null,
    "selecteditems": null,
    "selectedsectionindex": 0,
    "selectionbehavior": "default",
    "separatorcolor": "64646400",
    "separatorrequired": false,
    "separatorthickness": 1,
    "showscrollbars": false,
    "viewtype": "tableview",
    "vizProps": {},
    "wType": "Segment",
    "widgetalignment": 5,
    "widgetdatamap": {
        "flxAddAttachmentMain": "flxAddAttachmentMain",
        "flxAttachmentName": "flxAttachmentName",
        "flxDocAttachment": "flxDocAttachment",
        "flxRemoveAttachment": "flxRemoveAttachment",
        "flxVerticalMiniSeparator": "flxVerticalMiniSeparator",
        "imgPDF": "imgPDF",
        "imgRemoveAttachment": "imgRemoveAttachment",
        "lblDOcName": "lblDOcName",
        "lblDocSize": "lblDocSize"
    },
    "zindex": 1
}