{
    "@class": "com.kony.gen.viz.model.container.KVizSegment2",
    "DNDConfig": null,
    "__parentReadjusting__": false,
    "_data_": [],
    "_height_": {
        "type": "string",
        "value": "510dp"
    },
    "_indicator_": "none",
    "_left_": {
        "type": "string",
        "value": "0dp"
    },
    "_margin_": [
        0,
        0,
        0,
        0
    ],
    "_orientation_": 2,
    "_padding_": [
        0,
        0,
        0,
        0
    ],
    "_top_": {
        "type": "string",
        "value": "132dp"
    },
    "_width_": {
        "type": "string",
        "value": "37%"
    },
    "autogrowmode": 0,
    "canUpdateUI": true,
    "containerweight": 100,
    "counter": "01",
    "desktop": {
        "_data_": [],
        "rowTemplateId": "g0fb21115385449c9279e88aa98e2a11",
        "rowtemplate": "flxNotificationsAndMessages",
        "sectionHeaderTemplateId": null,
        "selectionBehaviorConfig": null,
        "widgetdatamap": {
            "flxNotificationsAndMessages": "flxNotificationsAndMessages",
            "flxSeparator": "flxSeparator",
            "imgAttachment": "imgAttachment",
            "imgBullet": "imgBullet",
            "imgBulletIcon": "imgBulletIcon",
            "imgCurrentOne": "imgCurrentOne",
            "lblArrow": "lblArrow",
            "lblCategoryValue": "lblCategoryValue",
            "lblDateAndTime": "lblDateAndTime",
            "lblRequestIdValue": "lblRequestIdValue",
            "lblRowSeperator": "lblRowSeperator",
            "lblSegDescription": "lblSegDescription",
            "lblSegHeading": "lblSegHeading"
        }
    },
    "focusedindex": null,
    "focuseditem": null,
    "groupcells": false,
    "hasSections": false,
    "id": "segMessageAndNotification",
    "info": null,
    "invokedProperty": "selectedStateImage",
    "ipad": {
        "psp": {
            "indicator": "rowselect"
        }
    },
    "iphone": {
        "psp": {
            "indicator": "rowselect"
        }
    },
    "isvisible": true,
    "kuid": "fab39218c3764738b4fd9d1ea0c0924e",
    "masterdata": {},
    "name": "kony.ui.SegmentedUI2",
    "needpageindicator": true,
    "pageoffdotimage": "pageoffdot.png",
    "pageondotimage": "pageondot.png",
    "paginationconfig": {
        "position": "bottom",
        "vdistance": 1
    },
    "parent": "NotficationsAndMessages",
    "pf": "userwidgetmodel",
    "retainselection": false,
    "rowcounter": 1,
    "rowfocusskin": "s9f69e977910472eb44c62ae28c41fe1",
    "rowskin": "scf5f90f6ac04976ab88b2a4f7153285",
    "rowtemplate": "flxNotificationsAndMessages",
    "screenlevelwidget": false,
    "seccounter": 0,
    "sectionheaderskin": "sdc4ff4ed1584272be2ae69045dfb29d",
    "sectionheadertemplate": "flxNotificationsAndMessages",
    "selectedRows": null,
    "selectedState": false,
    "selectedindex": null,
    "selectedindices": null,
    "selecteditems": null,
    "selectedsectionindex": 0,
    "selectionbehavior": "singleselect",
    "selectionbehaviorconfig": null,
    "separatorcolor": "e3e3e300",
    "separatorrequired": false,
    "separatorthickness": 1,
    "showscrollbars": true,
    "swipeContext": {
        "currentPage": 0,
        "imageWidth": 504,
        "widthRatio": 0
    },
    "viewtype": "tableview",
    "vizProps": {},
    "wType": "Segment",
    "widgetalignment": 5,
    "widgetdatamap": {
        "flxNotificationsAndMessages": "flxNotificationsAndMessages",
        "flxSeparator": "flxSeparator",
        "imgAttachment": "imgAttachment",
        "imgBullet": "imgBullet",
        "imgBulletIcon": "imgBulletIcon",
        "imgCurrentOne": "imgCurrentOne",
        "lblArrow": "lblArrow",
        "lblCategoryValue": "lblCategoryValue",
        "lblDateAndTime": "lblDateAndTime",
        "lblRequestIdValue": "lblRequestIdValue",
        "lblRowSeperator": "lblRowSeperator",
        "lblSegDescription": "lblSegDescription",
        "lblSegHeading": "lblSegHeading"
    },
    "zindex": 1
}