{
    "@class": "com.kony.gen.viz.model.component.KVizTextArea2",
    "DNDConfig": null,
    "__parentReadjusting__": false,
    "_height_": {
        "type": "string",
        "value": "100px"
    },
    "_left_": {
        "type": "string",
        "value": "0%"
    },
    "_margin_": [
        2,
        2,
        2,
        2
    ],
    "_padding_": [
        0,
        1,
        0,
        0
    ],
    "_placeholder_": "",
    "_skin_": "s05dfd4535aa455dbb897079153bab96",
    "_text_": "Hi! You are our priveledged customer. \nYou can now apply for our plantinum credit card. \nYou will get free club membership with annual subscription.\n",
    "_top_": {
        "type": "string",
        "value": "0dp"
    },
    "_width_": {
        "type": "string",
        "value": "72.50%"
    },
	"accessibilityconfig": {
        "a11yLabel": "Hi You are our priveledged customer You can now apply for our plantinum credit card You will get free club membership with annual subscription"
    },
    "autocapitalize": "none",
    "autocomplete": false,
    "autocorrect": false,
    "autofilter": false,
    "canUpdateUI": true,
    "closebuttontext": "",
    "containerheight": "",
    "containerheightmode": 1,
    "containerweight": 100,
    "contentalignment": 1,
    "id": "txtareaNotification",
    "info": null,
    "isvisible": false,
    "keyboardstyle": "A",
    "keyboardtype": "A",
    "kuid": "g4bb6716a85f4e3ebd409cd2bb67c9da",
    "mode": "A",
    "name": "kony.ui.TextArea2",
    "numberofvisiblelines": 3,
    "paddinginpixel": false,
    "parent": "flxMockData",
    "pf": "userwidgetmodel",
    "securetextentry": false,
    "showoprogressindicator": false,
    "showprogressindicator": false,
    "textinputmode": "A",
    "viewtype": "default",
    "wType": "TextArea",
    "zindex": 1
}