{
    "DNDConfig": null,
    "__parentReadjusting__": false,
    "_height_": {
        "type": "string",
        "value": "60dp"
    },
    "_left_": {
        "type": "string",
        "value": "0dp"
    },
    "_margin_": [
        0,
        0,
        0,
        0
    ],
    "_orientation_": 6,
    "_padding_": [
        0,
        0,
        0,
        0
    ],
    "_percent_": true,
    "_skin_": "s2efd12204eb407a9594764c853d6b70",
    "_top_": {
        "type": "string",
        "value": "0dp"
    },
    "_width_": {
        "type": "string",
        "value": "100%"
    },
    "allboxes": [],
    "autogrowmode": 0,
    "canUpdateUI": true,
    "children": [
        "lblHeader"
    ],
    "clipbounds": true,
    "containerweight": 100,
    "enablescrolling": true,
    "id": "flxActivationHedaer",
    "info": null,
    "isvisible": true,
    "kuid": "e48e6f3373b243759fa8b46b796cd36a",
    "layouttype": 2,
    "name": "kony.ui.FlexContainer",
    "parent": "flxActivateMain",
    "pf": "frmBillPayActivation",
    "responsiveData": {
        "b1": {
            "skin": "s24c92fc23b14f5484b693ee9b8a9b35"
        },
        "b4": {
            "skin": "s24c92fc23b14f5484b693ee9b8a9b35"
        }
    },
    "snapgridsize": 10,
    "snaptogrid": true,
    "wType": "FlexContainer",
    "widgetalignment": 1,
    "zindex": 1
}