{
    "DNDConfig": null,
    "_height_": {
        "type": "string",
        "value": "20dp"
    },
    "_left_": {
        "type": "string",
        "value": "0dp"
    },
    "_margin_": [
        0,
        0,
        0,
        0
    ],
    "_orientation_": 6,
    "_padding_": [
        0,
        0,
        0,
        0
    ],
    "_percent_": true,
    "_skin_": "s24c92fc23b14f5484b693ee9b8a9b35",
    "_top_": {
        "type": "string",
        "value": "10dp"
    },
    "_width_": {
        "type": "string",
        "value": "100%"
    },
    "allboxes": [],
    "autogrowmode": 0,
    "canUpdateUI": true,
    "children": [
        "imgBullet",
        "lblService"
    ],
    "clipbounds": true,
    "containerId": true,
    "containerweight": 100,
    "controllerInfo": {
        "default": {
            "channel": "desktop",
            "name": "flxBranchServiceController"
        }
    },
    "enablescrolling": true,
    "friendlyName": "flxBranchService",
    "id": "flxBranchService",
    "info": null,
    "isTemplate": true,
    "isvisible": true,
    "kuid": "d7430d69471645919989a8e16ca57643",
    "layouttype": 2,
    "name": "kony.ui.FlexContainer",
    "parent": "segLoacteUsServices",
    "pf": "segLoacteUsServices",
    "snapgridsize": 10,
    "snaptogrid": true,
    "wType": "FlexContainer",
    "widgetalignment": 1,
    "zindex": 1
}