{
    "@class": "com.kony.gen.viz.model.component.KVizButton",
    "DNDConfig": null,
    "_height_": {
        "type": "ref",
        "value": "preferred"
    },
    "_left_": {
        "type": "string",
        "value": "17%"
    },
    "_margin_": [
        6,
        6,
        6,
        6
    ],
    "_padding_": [
        0,
        0,
        0,
        0
    ],
    "_skin_": "s3021025a4d84849b74912d5215d6f23",
    "_text_": "Make Transfer",
    "_top_": {
        "type": "string",
        "value": "14dp"
    },
    "_width_": {
        "type": "ref",
        "value": "preferred"
    },
    "canUpdateUI": true,
    "centerx": {
        "type": "number",
        "value": ""
    },
    "centery": {
        "type": "number",
        "value": ""
    },
    "containerweight": 100,
    "contentalignment": 5,
    "displaytext": true,
    "focusskin": "sd64e7ae327e4c3b9c7bf6cfedcd5352",
    "id": "btnAction1",
    "info": null,
    "iscustomlayout": false,
    "isvisible": true,
    "kuid": "eb239b3ac91a4e4d86e139febffb0c13",
    "name": "kony.ui.Button",
    "parent": "flxBtnContainer",
    "pf": "userwidgetmodel",
    "responsiveData": {
        "b1": {
            "centerX": {
                "type": "string",
                "value": "25%"
            },
            "focusSkin": "s241845062b64669a255a49971be6320",
            "height": {
                "type": "string",
                "value": "21dp"
            },
            "isVisible": true,
            "left": {
                "type": "string",
                "value": ""
            },
            "skin": "s241845062b64669a255a49971be6320",
            "text": "Make Transfer",
            "top": {
                "type": "string",
                "value": "9dp"
            },
            "width": {
                "type": "ref",
                "value": "preferred"
            }
        },
        "b2": {
            "centerX": {
                "type": "string",
                "value": "25%"
            },
            "centerY": {
                "type": "string",
                "value": ""
            },
            "height": {
                "type": "ref",
                "value": "preferred"
            },
            "isVisible": true,
            "left": {
                "type": "string",
                "value": ""
            },
            "skin": "s241845062b64669a255a49971be6320",
            "text": "Make Transfer",
            "top": {
                "type": "string",
                "value": "10dp"
            },
            "width": {
                "type": "ref",
                "value": "preferred"
            }
        },
        "b3": {
            "centerX": {
                "type": "string",
                "value": "25%"
            },
            "focusSkin": "saa300a3c9204d3eb8e9a37f0a791d8f",
            "height": {
                "type": "ref",
                "value": "preferred"
            },
            "isVisible": true,
            "left": {
                "type": "string",
                "value": ""
            },
            "skin": "saa300a3c9204d3eb8e9a37f0a791d8f",
            "text": "Make Transfer",
            "top": {
                "type": "string",
                "value": "12dp"
            },
            "width": {
                "type": "ref",
                "value": "preferred"
            }
        },
        "b4": {
            "centerX": {
                "type": "string",
                "value": "25%"
            },
            "height": {
                "type": "string",
                "value": "21dp"
            },
            "left": {
                "type": "string",
                "value": ""
            },
            "skin": "s241845062b64669a255a49971be6320",
            "text": "Make Transfer",
            "top": {
                "type": "string",
                "value": "9dp"
            }
        }
    },
    "retaincontentalignment": false,
    "retainflexpositionproperties": false,
    "wType": "Button",
    "zindex": 1
}