{
    "@class": "com.kony.gen.viz.model.component.KVizLabel",
    "DNDConfig": null,
    "_height_": {
        "type": "ref",
        "value": "preferred"
    },
    "_left_": {
        "type": "string",
        "value": "21dp"
    },
    "_margin_": [
        1,
        1,
        1,
        1
    ],
    "_padding_": [
        0,
        0,
        0,
        0
    ],
    "_right_": {
        "type": "string",
        "value": "75dp"
    },
    "_skin_": "s1bed7abc71b47a3a6ce17eddf8c90d6",
    "_text_": "Transfer between your own accounts or other accounts in the same bank…",
    "_top_": {
        "type": "string",
        "value": "0dp"
    },
    "_width_": {
        "type": "ref",
        "value": "preferred"
    },
    "_wrapping_": 2,
    "android": {
        "textStyle": {
            "letterSpacing": 0,
            "strikeThrough": false
        }
    },
    "canUpdateUI": true,
    "containerweight": 100,
    "contentalignment": 4,
    "id": "transactionDescription",
    "info": null,
    "ipad": {
        "psp": {
            "wrapping": 2
        }
    },
    "iphone": {
        "psp": {
            "wrapping": 2
        }
    },
    "iscustomlayout": false,
    "isvisible": false,
    "kuid": "f8e1e07753ab44b3b072f6d32106d1be",
    "name": "kony.ui.Label",
    "parent": "flxDescription",
    "pf": "userwidgetmodel",
    "responsiveData": {
        "b1": {
            "contentAlignment": 5,
            "isVisible": false,
            "left": {
                "type": "string",
                "value": "120dp"
            },
            "skin": "se86916c40c2424ab258b8871ef00e14",
            "text": "Transfer between your own accounts or other accounts in the same bank.",
            "top": {
                "type": "string",
                "value": "0dp"
            },
            "width": {
                "type": "string",
                "value": "311dp"
            }
        },
        "b2": {
            "contentAlignment": 2,
            "isVisible": false,
            "left": {
                "type": "string",
                "value": "77dp"
            },
            "skin": "s51efb5c44054187961c569a0f5bb89d",
            "text": "Transfer between your own accounts or other accounts..",
            "top": {
                "type": "number",
                "value": "0"
            },
            "width": {
                "type": "string",
                "value": "171dp"
            }
        },
        "b3": {
            "contentAlignment": 5,
            "isVisible": false,
            "left": {
                "type": "string",
                "value": "7dp"
            },
            "right": {
                "type": "string",
                "value": "13dp"
            },
            "skin": "s51efb5c44054187961c569a0f5bb89d",
            "text": "Transfer between your own accounts or other accounts in the same bank. Transfer between your own accounts or other accounts in the same bank.",
            "top": {
                "type": "string",
                "value": "0dp"
            }
        },
        "b4": {
            "skin": "se86916c40c2424ab258b8871ef00e14"
        }
    },
    "retaincontentalignment": false,
    "retainflexpositionproperties": false,
    "textstyle": {},
    "tooltip": "",
    "wType": "Label",
    "zindex": 1
}