{
    "@class": "com.kony.gen.viz.model.component.KVizButton",
    "DNDConfig": null,
    "_height_": {
        "type": "ref",
        "value": "preferred"
    },
    "_left_": {
        "type": "string",
        "value": "0dp"
    },
    "_margin_": [
        6,
        6,
        6,
        6
    ],
    "_padding_": [
        0,
        0,
        0,
        0
    ],
    "_skin_": "se4cbdf6e51f48eda9966caa941c6a19",
    "_text_": "CANCEL CARD",
    "_top_": {
        "type": "string",
        "value": "13dp"
    },
    "_width_": {
        "type": "string",
        "value": "110px"
    },
    "accessibilityconfig": {
        "a11yLabel": "CANCEL CARD"
    },
    "canUpdateUI": true,
    "containerweight": 100,
    "contentalignment": 4,
    "disabledSkins": {
        "focusSkin": "sf44d06ca8224832827ea7fdff757013"
    },
    "displaytext": true,
    "id": "btnAction5",
    "info": null,
    "isvisible": true,
    "kuid": "je07c9bb880941c4afb309a943e5f980",
    "name": "kony.ui.Button",
    "parent": "flxActionsContainer",
    "pf": "segMyCardsExpandedNew",
    "wType": "Button",
    "zindex": 1
}