{
    "DNDConfig": null,
    "_bottom_": {
        "type": "string",
        "value": "0px"
    },
    "_height_": {
        "type": "ref",
        "value": "preferred"
    },
    "_left_": {
        "type": "string",
        "value": "10%"
    },
    "_margin_": [
        0,
        0,
        0,
        0
    ],
    "_orientation_": 6,
    "_padding_": [
        0,
        0,
        0,
        0
    ],
    "_percent_": true,
    "_right_": {
        "type": "string",
        "value": "10%"
    },
    "_skin_": "s24c92fc23b14f5484b693ee9b8a9b35",
    "_top_": {
        "type": "string",
        "value": "0dp"
    },
    "allboxes": [],
    "autogrowmode": 1,
    "canUpdateUI": true,
    "centerx": {
        "type": "string",
        "value": "50%"
    },
    "children": [
        "btnAction1",
        "btnAction2",
        "btnAction3",
        "btnAction4",
        "btnAction5",
        "btnAction6",
        "btnAction7",
        "btnAction8",
        "flxBlankSpace2"
    ],
    "clipbounds": true,
    "containerweight": 100,
    "enablescrolling": true,
    "id": "flxActionsContainer",
    "info": null,
    "isvisible": true,
    "kuid": "b02b8ce6502e41cbba5026574479e736",
    "layouttype": 4,
    "name": "kony.ui.FlexContainer",
    "parent": "flxActions",
    "pf": "segMyCardsExpandedNew",
    "snapgridsize": 10,
    "snaptogrid": true,
    "wType": "FlexContainer",
    "widgetalignment": 1,
    "zindex": 1
}