{
    "DNDConfig": null,
    "_height_": {
        "type": "string",
        "value": "20px"
    },
    "_left_": {
        "type": "string",
        "value": "10dp"
    },
    "_margin_": [
        0,
        0,
        0,
        0
    ],
    "_orientation_": 6,
    "_padding_": [
        0,
        0,
        0,
        0
    ],
    "_percent_": true,
    "_skin_": "sec33ce747114bec824bad2508e6968f",
    "_width_": {
        "type": "string",
        "value": "25px"
    },
    "allboxes": [],
    "autogrowmode": 0,
    "canUpdateUI": true,
    "centery": {
        "type": "string",
        "value": "50%"
    },
    "children": [
        "imgCollapse"
    ],
    "clipbounds": true,
    "containerweight": 100,
    "enablescrolling": true,
    "id": "flxCollapse",
    "info": null,
    "isvisible": true,
    "kuid": "bead6c437b844f43a57efe5f17b23c5b",
    "layouttype": 2,
    "name": "kony.ui.FlexContainer",
    "parent": "flxCardHeader",
    "pf": "segMyCardsExpandedNew",
    "snapgridsize": 10,
    "snaptogrid": true,
    "wType": "FlexContainer",
    "widgetalignment": 1,
    "zindex": 2
}