{
    "DNDConfig": null,
    "_height_": {
        "type": "ref",
        "value": "preferred"
    },
    "_margin_": [
        0,
        0,
        0,
        0
    ],
    "_orientation_": 6,
    "_padding_": [
        0,
        0,
        0,
        0
    ],
    "_percent_": true,
    "_skin_": "s24c92fc23b14f5484b693ee9b8a9b35",
    "allboxes": [],
    "autogrowmode": 1,
    "canUpdateUI": true,
    "children": [
        "flxCardcontent",
        "flxGap"
    ],
    "clipbounds": true,
    "containerId": true,
    "containerweight": 100,
    "controllerInfo": {
        "default": {
            "channel": "desktop",
            "name": "flxMyCardsExpandedNewController"
        }
    },
    "enablescrolling": true,
    "id": "flxMyCardsExpandedNew",
    "info": null,
    "isvisible": true,
    "kuid": "e47a229230de48cf9663976826626df1",
    "layouttype": 4,
    "name": "kony.ui.FlexContainer",
    "parent": "segMyCardsExpandedNew",
    "pf": "segMyCardsExpandedNew",
    "snapgridsize": 10,
    "snaptogrid": true,
    "wType": "FlexContainer",
    "widgetalignment": 1
}