{
    "@class": "com.kony.gen.viz.model.component.KVizUserWidget",
    "DNDConfig": null,
    "_children_": [],
    "_height_": {
        "type": "string",
        "value": "268px"
    },
    "_left_": {
        "type": "string",
        "value": "0dp"
    },
    "_margin_": [
        0,
        0,
        0,
        0
    ],
    "_orientation_": 1,
    "_padding_": [
        0,
        0,
        0,
        0
    ],
    "_percent_": true,
    "_render_": true,
    "_skin_": "s701065f11074080832b59947e731160",
    "_top_": {
        "type": "string",
        "value": "300dp"
    },
    "_width_": {
        "type": "string",
        "value": "44.30%"
    },
    "android": {},
    "androidwearos": {},
    "areflexpropsreferenced": false,
    "autogrowmode": 1,
    "canUpdateUI": true,
    "centerx": {
        "type": "string",
        "value": "50.00%"
    },
    "centery": {
        "type": "string",
        "value": ""
    },
    "clipbounds": false,
    "containerweight": 0,
    "dataDiffs": {
        "CustomPopup": {
            "__events__": {},
            "__info__": {
                "isRoot": true,
                "kuid": "c4cef43e665140eab4b44ac5cfd2c095",
                "srcKUID": "eb2d311dcb4744a7b05aa4f5428a6c53",
                "wType": "FlexContainer"
            },
            "autogrowMode": {
                "Default": 1
            },
            "bottom": {},
            "centerX": {
                "Default": {
                    "type": "string",
                    "value": "50.00%"
                }
            },
            "centerY": {
                "Default": {
                    "type": "string",
                    "value": ""
                }
            },
            "height": {
                "Default": {
                    "type": "string",
                    "value": "268px"
                }
            },
            "left": {},
            "responsiveData": {
                "b2": {
                    "isVisible": true,
                    "width": {
                        "type": "string",
                        "value": "75%"
                    }
                },
                "b3": {
                    "bottom": {
                        "type": "string",
                        "value": ""
                    },
                    "height": {
                        "type": "ref",
                        "value": "preferred"
                    },
                    "left": {
                        "type": "string",
                        "value": "15dp"
                    },
                    "right": {
                        "type": "string",
                        "value": "15dp"
                    },
                    "top": {
                        "type": "string",
                        "value": "300dp"
                    },
                    "width": {
                        "type": "string",
                        "value": "75%"
                    }
                }
            },
            "right": {},
            "top": {
                "Default": {
                    "type": "string",
                    "value": "300dp"
                }
            },
            "width": {
                "Default": {
                    "type": "string",
                    "value": "44.30%"
                }
            },
            "zIndex": {
                "Default": 1100
            }
        },
        "btnNo": {
            "__events__": {},
            "__info__": {
                "kuid": "c931c9a0465b4973890acdc806e297d0",
                "srcKUID": "h61577b4448c4e22a2636221e8fe0d6d",
                "wType": "Button"
            },
            "bottom": {},
            "left": {},
            "responsiveData": {
                "b2": {
                    "bottom": {
                        "type": "string",
                        "value": "20dp"
                    },
                    "top": {
                        "type": "string",
                        "value": "158px"
                    }
                },
                "b3": {
                    "bottom": {
                        "type": "string",
                        "value": "30dp"
                    },
                    "left": {
                        "type": "string",
                        "value": "10dp"
                    },
                    "right": {
                        "type": "string",
                        "value": ""
                    },
                    "top": {
                        "type": "string",
                        "value": "150dp"
                    },
                    "width": {
                        "type": "string",
                        "value": "40%"
                    }
                }
            },
            "right": {
                "Default": {
                    "type": "string",
                    "value": "41%"
                }
            },
            "top": {},
            "width": {
                "Default": {
                    "type": "string",
                    "value": "30%"
                }
            }
        },
        "btnYes": {
            "__events__": {},
            "__info__": {
                "kuid": "f3fd8208ec804bfd9e5c778bfd3c35ae",
                "srcKUID": "e1c11d09edb846848d4aaf921cb1e5a0",
                "wType": "Button"
            },
            "bottom": {},
            "left": {},
            "responsiveData": {
                "b2": {
                    "bottom": {
                        "type": "string",
                        "value": "20dp"
                    },
                    "top": {
                        "type": "string",
                        "value": "158px"
                    }
                },
                "b3": {
                    "bottom": {
                        "type": "string",
                        "value": "30dp"
                    },
                    "left": {
                        "type": "string",
                        "value": ""
                    },
                    "right": {
                        "type": "string",
                        "value": "10dp"
                    },
                    "top": {
                        "type": "string",
                        "value": "150dp"
                    },
                    "width": {
                        "type": "string",
                        "value": "40%"
                    }
                }
            },
            "right": {
                "Default": {
                    "type": "string",
                    "value": "5%"
                }
            },
            "top": {},
            "width": {
                "Default": {
                    "type": "string",
                    "value": "30%"
                }
            }
        },
        "flxCross": {
            "__events__": {},
            "__info__": {
                "kuid": "b0bccff6dff54d57820fcb9d243242c1",
                "srcKUID": "e896a8d6e1244397be41e1011101c6ec",
                "wType": "FlexContainer"
            },
            "responsiveData": {
                "b2": {
                    "right": {
                        "type": "string",
                        "value": "5%"
                    }
                },
                "b3": {
                    "right": {
                        "type": "string",
                        "value": "10dp"
                    }
                }
            },
            "right": {}
        },
        "flxHeader": {
            "__events__": {},
            "__info__": {
                "kuid": "e6a454c5cbb14755b0ed8ed5960a0693",
                "srcKUID": "b6d465d7232a428eba11c466c6843856",
                "wType": "FlexContainer"
            }
        },
        "flxSeperator": {
            "__events__": {},
            "__info__": {
                "kuid": "c29cc3ce84c94abb84672e74f826b07f",
                "srcKUID": "b469cc45156e429d8fa47b9786168d10",
                "wType": "FlexContainer"
            }
        },
        "flxSeperator2": {
            "__events__": {},
            "__info__": {
                "kuid": "eb9cb75af6a34c1490ab8a4678a05a1c",
                "srcKUID": "e909e4e4b4a145b1aa92b22ece7050d3",
                "wType": "FlexContainer"
            },
            "left": {},
            "responsiveData": {
                "b2": {
                    "left": {
                        "type": "string",
                        "value": "0dp"
                    },
                    "width": {
                        "type": "string",
                        "value": "100%"
                    }
                },
                "b3": {
                    "isVisible": false
                }
            },
            "top": {
                "Default": {
                    "type": "string",
                    "value": "158dp"
                }
            },
            "width": {}
        },
        "imgCross": {
            "__events__": {},
            "__info__": {
                "kuid": "c2012949d68241aea27241cfecbb8d37",
                "srcKUID": "ja13bba308404016b1cd223dbcdf01ae",
                "wType": "Image"
            },
            "height": {
                "Default": {
                    "type": "string",
                    "value": "15dp"
                }
            },
            "src": "bbcloseicon.png"
        },
        "lblHeading": {
            "__events__": {},
            "__info__": {
                "kuid": "b16b4ea7fd0f4f63b910dd3436445b9e",
                "srcKUID": "f97c1408984847af9f3cd9984a260c74",
                "wType": "Label"
            },
            "left": {},
            "responsiveData": {
                "b3": {
                    "left": {
                        "type": "string",
                        "value": "10dp"
                    }
                }
            }
        },
        "lblPopupMessage": {
            "__events__": {},
            "__info__": {
                "kuid": "j3fcfb47996b496487692b35801c3173",
                "srcKUID": "f7c7509dccf24b88aeb13dc3d34fcc6b",
                "wType": "Label"
            },
            "left": {},
            "responsiveData": {
                "b3": {
                    "left": {
                        "type": "string",
                        "value": "10dp"
                    }
                }
            }
        },
        "lblcross": {
            "__events__": {},
            "__info__": {
                "kuid": "a5b37a20214549d399524d4fb79222cf",
                "srcKUID": "fd30aa3a9d8f4077b98f3053f04a091b",
                "wType": "Label"
            }
        }
    },
    "desktopweb": {},
    "id": "CustomPopup",
    "info": null,
    "ipad": {},
    "iphone": {},
    "isdatareferenced": false,
    "isvisible": true,
    "kiosk": {},
    "kuid": "c4cef43e665140eab4b44ac5cfd2c095",
    "layouttype": 2,
    "masterType": 0,
    "name": "kony.ui.UserWidgetInstance",
    "parent": "flxLogout",
    "pf": "frmP2PDeactivate",
    "responsiveData": {
        "b2": {
            "isVisible": true,
            "width": {
                "type": "string",
                "value": "75%"
            }
        },
        "b3": {
            "bottom": {
                "type": "string",
                "value": ""
            },
            "height": {
                "type": "ref",
                "value": "preferred"
            },
            "left": {
                "type": "string",
                "value": "15dp"
            },
            "right": {
                "type": "string",
                "value": "15dp"
            },
            "top": {
                "type": "string",
                "value": "300dp"
            },
            "width": {
                "type": "string",
                "value": "75%"
            }
        }
    },
    "snaptogrid": true,
    "sourceUserWidget": "eb2d311dcb4744a7b05aa4f5428a6c53",
    "spa": {},
    "spaan": {},
    "spaandroidtablet": {},
    "spabb": {},
    "spaip": {},
    "spaipad": {},
    "spamobile": {},
    "spatablet": {},
    "spawindowstablet": {},
    "spawinphone8": {},
    "tabrcandroid": {},
    "vizProps": {
        "hidewidgethierarchy": false
    },
    "vizprops": {
        "hidewidgethierarchy": false
    },
    "wType": "UserWidgetInstance",
    "windows10": {},
    "windows8": {},
    "winphone10": {},
    "winphone8": {},
    "zindex": 1100
}