{
    "@class": "com.kony.gen.viz.model.component.KVizTextBox2",
    "DNDConfig": null,
    "_height_": {
        "type": "string",
        "value": "100%"
    },
    "_left_": {
        "type": "string",
        "value": "0dp"
    },
    "_margin_": [
        0,
        0,
        0,
        0
    ],
    "_padding_": [
        3,
        0,
        0,
        0
    ],
    "_placeholder_": "Placeholder",
    "_skin_": "sfdf4cc9b1d14c629ef22618b2720b7c",
    "_text_": "",
    "_top_": {
        "type": "string",
        "value": "0dp"
    },
    "_width_": {
        "type": "string",
        "value": "100%"
    },
    "autocapitalize": "none",
    "autocomplete": false,
    "autocorrect": false,
    "autofilter": false,
    "canUpdateUI": true,
    "containerheight": "",
    "containerheightmode": 1,
    "containerweight": 100,
    "contentalignment": 4,
    "desktopweb": {
        "placeholderSkin": "s2064239626e43828a7c50699e03514e"
    },
    "focusskin": "se0420338aba4e54b244ab023988d29a",
    "id": "txtBox",
    "info": null,
    "iscustomlayout": false,
    "isvisible": true,
    "keyboardtype": "A",
    "kuid": "cc9d3f18ee584b359a400d361579d52f",
    "mode": "A",
    "name": "kony.ui.TextBox2",
    "parent": "flxTextBox",
    "pf": "userwidgetmodel",
    "placeholderskin": "s2064239626e43828a7c50699e03514e",
    "responsiveData": {
        "b1": {
            "desktopweb": {},
            "skin": "sfe85de2573444b7be7e6705a1d4bba6"
        },
        "b2": {
            "desktopweb": {},
            "skin": "sfe85de2573444b7be7e6705a1d4bba6"
        },
        "b3": {
            "desktopweb": {
                "placeholderSkin": "s2064239626e43828a7c50699e03514e"
            },
            "placeholderSkin": "s2064239626e43828a7c50699e03514e",
            "skin": "sb021b3c543e46a390813a6f2a926649"
        },
        "b4": {
            "desktopweb": {},
            "skin": "sfe85de2573444b7be7e6705a1d4bba6"
        }
    },
    "retaincontentalignment": false,
    "retainflexpositionproperties": false,
    "securetextentry": false,
    "textinputmode": "A",
    "tooltip": "",
    "viewtype": "default",
    "wType": "TextField",
    "zindex": 1
}