{
    "DNDConfig": null,
    "_height_": {
        "type": "string",
        "value": "340dp"
    },
    "_margin_": [
        0,
        0,
        0,
        0
    ],
    "_orientation_": 6,
    "_padding_": [
        0,
        0,
        0,
        0
    ],
    "_percent_": true,
    "_skin_": "scbd4cac3526468089bf3013adff0549",
    "allboxes": [],
    "autogrowmode": 0,
    "canUpdateUI": true,
    "children": [
        "flxAccountListItemWrapper"
    ],
    "clipbounds": false,
    "containerId": true,
    "containerweight": 100,
    "controllerInfo": {
        "default": {
            "channel": "desktop",
            "name": "flxAccountRowTabletController"
        }
    },
    "enablescrolling": true,
    "friendlyName": "flxAccountRowTablet",
    "id": "flxAccountRowTablet",
    "info": null,
    "isTemplate": true,
    "isvisible": true,
    "kuid": "e3a622b04cd645c297db5e226c545646",
    "layouttype": 4,
    "name": "kony.ui.FlexContainer",
    "parent": "segProfileManagementAccountsTablet",
    "pf": "segProfileManagementAccountsTablet",
    "snapgridsize": 10,
    "snaptogrid": true,
    "wType": "FlexContainer",
    "widgetalignment": 1
}