{
    "DNDConfig": null,
    "_height_": {
        "type": "string",
        "value": "220dp"
    },
    "_left_": {
        "type": "string",
        "value": "7dp"
    },
    "_margin_": [
        0,
        0,
        0,
        0
    ],
    "_orientation_": 6,
    "_padding_": [
        0,
        0,
        0,
        0
    ],
    "_percent_": true,
    "_skin_": "s24c92fc23b14f5484b693ee9b8a9b35",
    "_top_": {
        "type": "string",
        "value": "9dp"
    },
    "_width_": {
        "type": "string",
        "value": "100%"
    },
    "allboxes": [],
    "canUpdateUI": true,
    "children": [
        "lblReferenceHeader",
        "lblReferenceNumber"
    ],
    "clipbounds": true,
    "containerweight": 100,
    "enablescrolling": true,
    "id": "flxRightHeader",
    "info": null,
    "iscustomlayout": false,
    "isvisible": true,
    "kuid": "c699f01725f44b32ac63bc68868b5420",
    "layouttype": 2,
    "name": "kony.ui.FlexContainer",
    "parent": "flxAcknowledgementHeader",
    "pf": "frmUserCreationSuccess",
    "responsiveData": {
        "b1": {
            "height": {
                "type": "string",
                "value": "100%"
            },
            "left": {
                "type": "string",
                "value": ""
            },
            "top": {
                "type": "string",
                "value": ""
            },
            "width": {
                "type": "string",
                "value": "50%"
            }
        },
        "b2": {
            "height": {
                "type": "string",
                "value": "100%"
            },
            "left": {
                "type": "string",
                "value": ""
            },
            "top": {
                "type": "string",
                "value": ""
            },
            "width": {
                "type": "string",
                "value": "37%"
            }
        },
        "b4": {
            "height": {
                "type": "string",
                "value": "100%"
            },
            "left": {
                "type": "number",
                "value": "0"
            },
            "top": {
                "type": "number",
                "value": "0"
            },
            "width": {
                "type": "string",
                "value": "50%"
            }
        }
    },
    "retaincontentalignment": false,
    "retainflexpositionproperties": false,
    "retainflowhorizontalalignment": false,
    "snapgridsize": 10,
    "snaptogrid": true,
    "wType": "FlexContainer",
    "widgetalignment": 1,
    "zindex": 1
}