{
    "@class": "com.kony.gen.viz.model.component.KVizLabel",
    "DNDConfig": null,
    "_height_": {
        "type": "ref",
        "value": "preferred"
    },
    "_left_": {
        "type": "string",
        "value": "0dp"
    },
    "_margin_": [
        1,
        1,
        1,
        1
    ],
    "_padding_": [
        0,
        0,
        2,
        0
    ],
    "_skin_": "sb57ddd930ef42d5b307efc805cba3d6",
    "_text_": "Note: Login details are sent to provided user email address above",
    "_top_": {
        "type": "string",
        "value": "0dp"
    },
    "_width_": {
        "type": "ref",
        "value": "preferred"
    },
    "_wrapping_": 2,
    "accessibilityconfig": {
        "a11yLabel": "Account Nickname"
    },
    "android": {
        "textStyle": {
            "letterSpacing": 0,
            "strikeThrough": false
        }
    },
    "canUpdateUI": true,
    "containerweight": 100,
    "contentalignment": 4,
    "id": "lblCreateRole",
    "info": null,
    "ipad": {
        "psp": {
            "wrapping": 2
        }
    },
    "iphone": {
        "psp": {
            "wrapping": 2
        }
    },
    "isvisible": true,
    "kuid": "a643c00b52c24d509fcc2c2f62d7c9dd",
    "name": "kony.ui.Label",
    "paddinginpixel": false,
    "parent": "flxCreateRole",
    "pf": "frmUserCreationSuccess",
    "responsiveData": {
        "b1": {
            "skin": "sc6128501fe0421b999197bb6ca83714",
            "text": ""
        },
        "b2": {
            "skin": "sc6128501fe0421b999197bb6ca83714",
            "text": ""
        },
        "b4": {
            "skin": "sc6128501fe0421b999197bb6ca83714",
            "text": ""
        }
    },
    "texti18n": "i18n.UserManagement.createRoleFromUser",
    "tooltip": "",
    "wType": "Label",
    "zindex": 1
}