{
    "@class": "com.kony.gen.viz.model.component.KVizLabel",
    "DNDConfig": null,
    "_height_": {
        "type": "ref",
        "value": "preferred"
    },
    "_left_": {
        "type": "string",
        "value": "0dp"
    },
    "_margin_": [
        1,
        1,
        1,
        1
    ],
    "_padding_": [
        0,
        0,
        0,
        0
    ],
    "_right_": {
        "type": "number",
        "value": ""
    },
    "_skin_": "sf157f0304064266b44fffd9ad1c8b7f",
    "_text_": "",
    "_top_": {
        "type": "number",
        "value": ""
    },
    "_width_": {
        "type": "ref",
        "value": "preferred"
    },
    "_wrapping_": 2,
    "android": {
        "textStyle": {
            "letterSpacing": 0,
            "strikeThrough": false
        }
    },
    "canUpdateUI": true,
    "centery": {
        "type": "string",
        "value": "50%"
    },
    "containerweight": 100,
    "contentalignment": 4,
    "id": "lblEmail",
    "info": null,
    "ipad": {
        "psp": {
            "wrapping": 2
        }
    },
    "iphone": {
        "psp": {
            "wrapping": 2
        }
    },
    "iscustomlayout": false,
    "isvisible": false,
    "kuid": "f5361835c0db49d49f7318657b26f214",
    "name": "kony.ui.Label",
    "parent": "flxContentHeader",
    "pf": "frmUserCreationSuccess",
    "responsiveData": {
        "b1": {
            "centerY": {
                "type": "string",
                "value": "75%"
            },
            "left": {
                "type": "string",
                "value": "79%"
            },
            "right": {
                "type": "string",
                "value": "1%"
            },
            "text": "JefferyBallard@yahoo.com"
        },
        "b2": {
            "centerY": {
                "type": "string",
                "value": "75%"
            },
            "contentAlignment": 6,
            "height": {
                "type": "ref",
                "value": "preferred"
            },
            "isVisible": false,
            "left": {
                "type": "string",
                "value": "75%"
            },
            "right": {
                "type": "string",
                "value": "2%"
            },
            "skin": "sf0cb6e968274aa389aafbf14ff806fd",
            "text": "freddie_hirthe@yahoo.com",
            "top": {
                "type": "string",
                "value": ""
            }
        },
        "b4": {
            "centerY": {
                "type": "string",
                "value": "75%"
            },
            "left": {
                "type": "string",
                "value": "84%"
            },
            "right": {
                "type": "string",
                "value": "1%"
            },
            "skin": "sf0cb6e968274aa389aafbf14ff806fd",
            "text": "jeffery.ballard@yahoo.com"
        }
    },
    "retaincontentalignment": false,
    "retainflexpositionproperties": false,
    "tooltip": "",
    "wType": "Label",
    "zindex": 1
}