{
    "@class": "com.kony.gen.viz.model.component.KVizLabel",
    "DNDConfig": null,
    "_height_": {
        "type": "ref",
        "value": "preferred"
    },
    "_left_": {
        "type": "string",
        "value": "67%"
    },
    "_margin_": [
        1,
        1,
        1,
        1
    ],
    "_padding_": [
        0,
        0,
        0,
        0
    ],
    "_skin_": "sb57ddd930ef42d5b307efc805cba3d6",
    "_text_": ":",
    "_top_": {
        "type": "string",
        "value": "0dp"
    },
    "_width_": {
        "type": "ref",
        "value": "preferred"
    },
    "_wrapping_": 2,
    "accessibilityconfig": {
        "a11yLabel": ":"
    },
    "android": {
        "textStyle": {
            "letterSpacing": 0,
            "strikeThrough": false
        }
    },
    "canUpdateUI": true,
    "containerweight": 100,
    "contentalignment": 4,
    "id": "lblsemicolon7",
    "info": null,
    "ipad": {
        "psp": {
            "wrapping": 2
        }
    },
    "iphone": {
        "psp": {
            "wrapping": 2
        }
    },
    "isvisible": true,
    "kuid": "e7aeadf0ea0d412bb9547b5c1646715d",
    "name": "kony.ui.Label",
    "parent": "flxDriverLicenceNumber",
    "pf": "frmUserCreationSuccess",
    "responsiveData": {
        "b1": {
            "left": {
                "type": "string",
                "value": "0%"
            }
        },
        "b2": {
            "left": {
                "type": "string",
                "value": "0%"
            }
        },
        "b3": {
            "isVisible": true
        },
        "b4": {
            "left": {
                "type": "string",
                "value": "54%"
            }
        }
    },
    "tooltip": "",
    "wType": "Label",
    "zindex": 5
}