{
    "@class": "com.kony.gen.viz.model.component.KVizButton",
    "DNDConfig": null,
    "__parentReadjusting__": false,
    "_height_": {
        "type": "ref",
        "value": "preferred"
    },
    "_left_": {
        "type": "string",
        "value": "83.40%"
    },
    "_margin_": [
        6,
        6,
        6,
        6
    ],
    "_padding_": [
        0,
        0,
        0,
        0
    ],
    "_right_": {
        "type": "string",
        "value": "0dp"
    },
    "_skin_": "se4cbdf6e51f48eda9966caa941c6a19",
    "_text_": "Cancel Occurrence",
    "_top_": {
        "type": "string",
        "value": "0dp"
    },
    "_width_": {
        "type": "ref",
        "value": "preferred"
    },
    "accessibilityconfig": {
        "a11yLabel": "Cancel this Occurrence"
    },
    "canUpdateUI": true,
    "containerId": true,
    "containerweight": 100,
    "contentalignment": 4,
    "desktopweb": {
        "psp": {}
    },
    "disabledSkins": {
        "focusSkin": "sf44d06ca8224832827ea7fdff757013"
    },
    "displaytext": true,
    "id": "btnCancelThisOccurence",
    "ide_onClick": "AS_Button_e25f352776d34f628be4ee70c85c25e0",
    "info": null,
    "isvisible": true,
    "kuid": "f3b17cebb7824a9bad9529e286b2ef82",
    "name": "kony.ui.Button",
    "parent": "flxRowOne",
    "pf": "segScheduledTransfersSelected",
    "tooltip": "REPEAT",
    "wType": "Button",
    "zindex": 1
}