{
    "@class": "com.kony.gen.viz.model.component.KVizUserWidget",
    "DNDConfig": null,
    "__parentReadjusting__": false,
    "_android_": {},
    "_androidwearos_": {},
    "_children_": [],
    "_desktopweb_": {},
    "_height_": {
        "type": "ref",
        "value": "preferred"
    },
    "_ipad_": {},
    "_iphone_": {},
    "_kiosk_": {},
    "_left_": {
        "type": "string",
        "value": "1dp"
    },
    "_margin_": [
        0,
        0,
        0,
        0
    ],
    "_orientation_": 1,
    "_padding_": [
        0,
        0,
        0,
        0
    ],
    "_percent_": true,
    "_render_": true,
    "_responsiveData_": {},
    "_skin_": "sdc143f0e5b64ae3a3f155f691c73fa7",
    "_spa_": {},
    "_spaan_": {},
    "_spaandroidtablet_": {},
    "_spabb_": {},
    "_spaip_": {},
    "_spaipad_": {},
    "_spamobile_": {},
    "_spatablet_": {},
    "_spawindowstablet_": {},
    "_spawinphone8_": {},
    "_tabrcandroid_": {},
    "_top_": "0dp",
    "_vizProps_": {
        "hidewidgethierarchy": false
    },
    "_width_": {
        "type": "string",
        "value": "100%"
    },
    "_windows10_": {},
    "_windows8_": {},
    "_winphone10_": {},
    "_winphone8_": {},
    "areflexpropsreferenced": false,
    "autogrowmode": 1,
    "canUpdateUI": true,
    "clipbounds": false,
    "containerweight": 0,
    "dataDiffs": {
        "AnswerSecurityQuestionsModule": {
            "__events__": {},
            "__info__": {
                "isRoot": true,
                "kuid": "dc9ffccf7a7b415ea7ea99e4d2184c36",
                "srcKUID": "ef14bbca92cd43968b962726c867a178",
                "wType": "FlexContainer"
            }
        },
        "btnCancel": {
            "__events__": {},
            "__info__": {
                "kuid": "a4170dc597454ec4aa155494d047c33a",
                "srcKUID": "e09169027c584fa58a7050a22b0b60fc",
                "wType": "Button"
            },
            "height": {
                "Default": {
                    "type": "string",
                    "value": "40dp"
                }
            },
            "i18n_text": "i18n.transfers.Cancel",
            "responsiveData": {
                "b3": {
                    "right": {
                        "type": "string",
                        "value": "5%"
                    },
                    "top": {
                        "type": "string",
                        "value": "10dp"
                    },
                    "width": {
                        "type": "string",
                        "value": "90%"
                    }
                }
            },
            "right": {},
            "top": {},
            "width": {}
        },
        "btnProceed": {
            "__events__": {},
            "__info__": {
                "kuid": "f86bc5c3dda44c91a7af56316bf4f453",
                "srcKUID": "f66c5e1240774a71a6efa7aac96dc83b",
                "wType": "Button"
            },
            "height": {
                "Default": {
                    "type": "string",
                    "value": "40dp"
                }
            },
            "i18n_text": "i18n.common.proceed",
            "left": {
                "Default": {
                    "type": "string",
                    "value": "76.8%"
                }
            },
            "responsiveData": {
                "b3": {
                    "left": {
                        "type": "string",
                        "value": "5%"
                    },
                    "top": {
                        "type": "string",
                        "value": "20dp"
                    },
                    "width": {
                        "type": "string",
                        "value": "90%"
                    }
                },
                "b4": {
                    "left": {
                        "type": "string",
                        "value": ""
                    },
                    "right": {
                        "type": "string",
                        "value": "20dp"
                    }
                }
            },
            "right": {},
            "top": {},
            "width": {}
        },
        "flxActions": {
            "__events__": {},
            "__info__": {
                "kuid": "a5b4f1fed73d441eac1d3bfd75ad1d35",
                "srcKUID": "bb03c7e29b534be38d4d610666713e07",
                "wType": "FlexContainer"
            },
            "autogrowMode": {
                "Default": 0
            },
            "height": {},
            "responsiveData": {
                "b3": {
                    "height": {
                        "type": "string",
                        "value": "150dp"
                    },
                    "layoutType": 4
                }
            }
        },
        "flxAnswerSecurityQuestions": {
            "__events__": {},
            "__info__": {
                "kuid": "i17a7e2a37af4fc5bc74d88e7950c814",
                "srcKUID": "a9d2c0a5eedc4ecaa1419c072ac34e31",
                "wType": "FlexContainer"
            }
        },
        "flxAnswerSecurityQuestionsQASet1": {
            "__events__": {},
            "__info__": {
                "kuid": "cffee2f0a79c4f498a69ba045c9be689",
                "srcKUID": "j0f9fb943e204afabc21192d424dfd37",
                "wType": "FlexContainer"
            }
        },
        "flxAnswerSecurityQuestionsQASet2": {
            "__events__": {},
            "__info__": {
                "kuid": "fb0293f9473e4c8784b418c28983d29a",
                "srcKUID": "h5da2c54a542453db315861ede052b0e",
                "wType": "FlexContainer"
            },
            "left": {
                "Default": {
                    "type": "string",
                    "value": "2.29%"
                }
            }
        },
        "flxHeader": {
            "__events__": {},
            "__info__": {
                "kuid": "d1badcbbc8ec429e8dabd3a523110e3e",
                "srcKUID": "da42b088c374429693e78275c5caecc0",
                "wType": "FlexContainer"
            }
        },
        "flxSeparator": {
            "__events__": {},
            "__info__": {
                "kuid": "ddd2f05b2a234f50b438af0447b6c4ae",
                "srcKUID": "e98d0d4265e6434682879632b2d35ad1",
                "wType": "FlexContainer"
            }
        },
        "flxSeparator2": {
            "__events__": {},
            "__info__": {
                "kuid": "g5dcb34d589142e1b8e843fbe132afff",
                "srcKUID": "a459ada44577453e9db596eaf717333c",
                "wType": "FlexContainer"
            }
        },
        "flxWarningSecurityQuestions": {
            "__events__": {},
            "__info__": {
                "kuid": "d55c0d600909405db6e8a97fdd0d7f01",
                "srcKUID": "cc24c270fe1943c7944d29c91bb26831",
                "wType": "FlexContainer"
            }
        },
        "imgWarningSecurityQuestions": {
            "__events__": {},
            "__info__": {
                "kuid": "f2fc56e40396437e907157500b741b56",
                "srcKUID": "jc943da044f04bc68a11e32ee6889d0e",
                "wType": "Image"
            },
            "src": "error_yellow.png"
        },
        "lblAnswerSecurityQuestion1": {
            "__events__": {},
            "__info__": {
                "kuid": "dddae4a98b4843659a223e02bbd197f0",
                "srcKUID": "fbd29941bb5c4b2eb58c8471ef66234d",
                "wType": "Label"
            }
        },
        "lblAnswerSecurityQuestion2": {
            "__events__": {},
            "__info__": {
                "kuid": "e34dec0566534c0d93a95e2901c514b2",
                "srcKUID": "he14f38fd34f47c1ba6d5d3af0fec4d4",
                "wType": "Label"
            }
        },
        "lblAnswers1": {
            "__events__": {},
            "__info__": {
                "kuid": "a7b6efa801d7491b9052aa58a31e87c7",
                "srcKUID": "a139706dae6f4e3191c83267aea4f8c6",
                "wType": "Label"
            },
            "i18n_text": "i18n.ProfileManagement.Answer"
        },
        "lblAnswers2": {
            "__events__": {},
            "__info__": {
                "kuid": "ie965085de24479ca189ff59a8692caa",
                "srcKUID": "feb323d1c7a3405f93aa659c3f3099e7",
                "wType": "Label"
            },
            "i18n_text": "i18n.ProfileManagement.Answer"
        },
        "lblHeader": {
            "__events__": {},
            "__info__": {
                "kuid": "g9c018b80ad546c99d393b5b67834503",
                "srcKUID": "f70576e27c484b40855fff52fe5311f4",
                "wType": "Label"
            }
        },
        "lblHeading2": {
            "__events__": {},
            "__info__": {
                "kuid": "c0385ba4d9bc470297d1e82bba932115",
                "srcKUID": "id31f8362a7c4c8e921571f556a8e018",
                "wType": "Label"
            }
        },
        "lblNoteAnswerSecurityQuestions": {
            "__events__": {},
            "__info__": {
                "kuid": "b898d0c98ebd45cf88debc5582913dc8",
                "srcKUID": "e47cb60faf4843f39bd4203727340f79",
                "wType": "Label"
            }
        },
        "lblQuestions1": {
            "__events__": {},
            "__info__": {
                "kuid": "a2364924ef3f4d33a445e6f4f196a28e",
                "srcKUID": "a6ee69e945084a16b00e097bbf39d4d8",
                "wType": "Label"
            },
            "i18n_text": "i18n.MFA.Question1"
        },
        "lblQuestions2": {
            "__events__": {},
            "__info__": {
                "kuid": "ace0f5992ef1403389f1bd247b6e8e11",
                "srcKUID": "bd2520a1000e46b7af5170c8dc3386c4",
                "wType": "Label"
            },
            "i18n_text": "i18n.MFA.Question2"
        },
        "lblWarningSecurityQuestions": {
            "__events__": {},
            "__info__": {
                "kuid": "d2a828c911374e3885b7d585e1b3b156",
                "srcKUID": "d58fb3ba98b44e24a90f16881cd2d168",
                "wType": "Label"
            }
        },
        "tbxAnswers1": {
            "__events__": {
                "desktopweb": {
                    "ide_onEndEditing": "AS_TextField_f4a97ba83dad4449a5b06a9cab771b2c",
                    "ide_onKeyUp": "AS_TextField_g69571ded423405b9dc951ca48f115e1"
                }
            },
            "__info__": {
                "kuid": "b3a5a0abb55a484c8a64a6e541c97288",
                "srcKUID": "b8aeac8162874ed5887297d03e10217c",
                "wType": "TextField"
            },
            "i18n_placeholder": "i18n.MFA.TypeYourAnswerHere"
        },
        "tbxAnswers2": {
            "__events__": {
                "desktopweb": {
                    "ide_onEndEditing": "AS_TextField_e078a62143e14ffa9b70000f80946fa6",
                    "ide_onKeyUp": "AS_TextField_c2223a86ea724db7a29054904f7e4c0e"
                }
            },
            "__info__": {
                "kuid": "f7437ba6352e49e09291d74042b8db66",
                "srcKUID": "haf5e68e293748f996dd381dbb02f6b6",
                "wType": "TextField"
            },
            "i18n_placeholder": "i18n.MFA.TypeYourAnswerHere"
        }
    },
    "id": "AnswerSecurityQuestionsModule",
    "info": null,
    "isdatareferenced": false,
    "isvisible": true,
    "kuid": "a9154481b41c418c900aabdbfdc36acd",
    "layouttype": 4,
    "masterType": 0,
    "name": "kony.ui.UserWidgetInstance",
    "parent": "flxAnswerSecurityQuestions",
    "pf": "frmPayAPerson",
    "snaptogrid": true,
    "sourceUserWidget": "ef14bbca92cd43968b962726c867a178",
    "vizprops": {
        "hidewidgethierarchy": false
    },
    "wType": "UserWidgetInstance"
}