{
    "@class": "com.kony.gen.viz.model.component.KVizUserWidget",
    "DNDConfig": null,
    "__parentReadjusting__": false,
    "_android_": {},
    "_androidwearos_": {},
    "_children_": [],
    "_desktopweb_": {},
    "_height_": {
        "type": "ref",
        "value": "preferred"
    },
    "_ipad_": {},
    "_iphone_": {},
    "_kiosk_": {},
    "_left_": {
        "type": "string",
        "value": "0dp"
    },
    "_margin_": [
        0,
        0,
        0,
        0
    ],
    "_orientation_": 1,
    "_padding_": [
        0,
        0,
        0,
        0
    ],
    "_percent_": true,
    "_render_": true,
    "_responsiveData_": {},
    "_skin_": "s24c92fc23b14f5484b693ee9b8a9b35",
    "_spa_": {},
    "_spaan_": {},
    "_spaandroidtablet_": {},
    "_spabb_": {},
    "_spaip_": {},
    "_spaipad_": {},
    "_spamobile_": {},
    "_spatablet_": {},
    "_spawindowstablet_": {},
    "_spawinphone8_": {},
    "_tabrcandroid_": {},
    "_top_": {
        "type": "string",
        "value": "0dp"
    },
    "_vizProps_": {
        "hidewidgethierarchy": false
    },
    "_width_": {
        "type": "string",
        "value": "100%"
    },
    "_windows10_": {},
    "_windows8_": {},
    "_winphone10_": {},
    "_winphone8_": {},
    "areflexpropsreferenced": false,
    "autogrowmode": 1,
    "canUpdateUI": true,
    "clipbounds": true,
    "containerweight": 100,
    "dataDiffs": {
        "CopyRichText0fee490a2f4b34f": {
            "__events__": {},
            "__info__": {
                "kuid": "a464bdc97f0c4e73afa1f9af180a71ab",
                "srcKUID": "f0f58040d10d4da18c9f378d00ae464b",
                "wType": "RichText"
            }
        },
        "CopyflxKey0db6fd2a4f90a45": {
            "__events__": {},
            "__info__": {
                "kuid": "f5819d546f474b238b8e32a42b947579",
                "srcKUID": "dffb3887303a46df920035f3816260f9",
                "wType": "FlexContainer"
            },
            "left": {},
            "responsiveData": {
                "b3": {
                    "left": {
                        "type": "string",
                        "value": "2.50%"
                    },
                    "top": {
                        "type": "string",
                        "value": "0dp"
                    },
                    "width": {
                        "type": "string",
                        "value": "95%"
                    }
                }
            },
            "top": {},
            "width": {}
        },
        "CopyflxValue0a4ce9f2cb86d40": {
            "__events__": {},
            "__info__": {
                "kuid": "bf26f3890cab4c2a88145d1b893b0439",
                "srcKUID": "ce5112f134e144d19094ac2046b6cba9",
                "wType": "FlexContainer"
            },
            "left": {},
            "responsiveData": {
                "b3": {
                    "left": {
                        "type": "string",
                        "value": "2.50%"
                    },
                    "top": {
                        "type": "string",
                        "value": "10dp"
                    },
                    "width": {
                        "type": "string",
                        "value": "95%"
                    }
                }
            },
            "top": {},
            "width": {}
        },
        "CopylblColon0gef0ff4aa79145": {
            "__events__": {},
            "__info__": {
                "kuid": "b54ddb3cc0b04dc78b1e314e15866ea0",
                "srcKUID": "bbf00e45242640878e27976ae4744b6f",
                "wType": "Label"
            },
            "isVisible": true,
            "left": {},
            "responsiveData": {
                "b3": {
                    "isVisible": false,
                    "left": {
                        "type": "string",
                        "value": "52%"
                    }
                }
            }
        },
        "CopylblKey0h2615496b9514c": {
            "__events__": {},
            "__info__": {
                "kuid": "h35c52dbd5654b18a5f5bfd3ad034417",
                "srcKUID": "f7e56ab44c254085a1761810c5c789af",
                "wType": "Label"
            }
        },
        "FlexContainer0c5d4e4c6c34241": {
            "__events__": {},
            "__info__": {
                "kuid": "a37d0904602f46c385d0c51d8c90bd96",
                "srcKUID": "e3c3566971ab4902b281be870e077d52",
                "wType": "FlexContainer"
            },
            "responsiveData": {
                "b3": {
                    "layoutType": 4
                }
            }
        },
        "RichText0bfcfe81705e240": {
            "__events__": {},
            "__info__": {
                "kuid": "cc0e982412014a8a9b7ce3dbe800e090",
                "srcKUID": "gdb56b42aebf4b84b64df28682de03dc",
                "wType": "RichText"
            },
            "left": {},
            "responsiveData": {
                "b3": {
                    "left": {
                        "type": "string",
                        "value": "0dp"
                    },
                    "top": {
                        "type": "string",
                        "value": "0dp"
                    }
                }
            },
            "top": {}
        },
        "btnTermsAndConditions": {
            "__events__": {},
            "__info__": {
                "kuid": "fd7869aeb9594911897b12c4c9866433",
                "srcKUID": "ic6154b591344e6e9d16ac0e3551de09",
                "wType": "Button"
            }
        },
        "confirmButtons": {
            "__events__": {},
            "__info__": {
                "kuid": "d38ceb13932c4cdab0c300fec4e425ae",
                "srcKUID": "fc779fd4abea48fbb5638b6f5baf28dc",
                "wType": "UserWidgetInstance"
            },
            "autogrowMode": {
                "Default": 0
            },
            "height": {},
            "responsiveData": {
                "b3": {
                    "height": {
                        "type": "string",
                        "value": "200px"
                    }
                }
            }
        },
        "confirmButtons.btnCancel": {
            "__events__": {},
            "__info__": {
                "kuid": "e7915cc615884f0292c5f1f5da1b5598",
                "srcKUID": "d5bd1c2bcca14fc193947d9746200d19",
                "wType": "Button"
            },
            "bottom": {},
            "centerY": {},
            "left": {},
            "responsiveData": {
                "b3": {
                    "bottom": {
                        "type": "string",
                        "value": ""
                    },
                    "centerY": {
                        "type": "string",
                        "value": ""
                    },
                    "left": {
                        "type": "string",
                        "value": "2.50%"
                    },
                    "right": {
                        "type": "string",
                        "value": ""
                    },
                    "top": {
                        "type": "string",
                        "value": "140dp"
                    },
                    "width": {
                        "type": "string",
                        "value": "95%"
                    }
                }
            },
            "right": {},
            "top": {},
            "width": {}
        },
        "confirmButtons.btnConfirm": {
            "__events__": {},
            "__info__": {
                "kuid": "gf5b54ec158c4385833b282d755d337a",
                "srcKUID": "ff6236d646b0453dbf1d03be3e64c021",
                "wType": "Button"
            },
            "centerY": {},
            "left": {},
            "responsiveData": {
                "b3": {
                    "centerY": {
                        "type": "string",
                        "value": ""
                    },
                    "left": {
                        "type": "string",
                        "value": "2.50%"
                    },
                    "right": {
                        "type": "string",
                        "value": ""
                    },
                    "top": {
                        "type": "string",
                        "value": "20dp"
                    },
                    "width": {
                        "type": "string",
                        "value": "95%"
                    }
                }
            },
            "right": {},
            "top": {},
            "width": {}
        },
        "confirmButtons.btnModify": {
            "__events__": {},
            "__info__": {
                "kuid": "d891fc40ae994805a96d0877086476a7",
                "srcKUID": "eee9c5115dd345948883fde9d40a7500",
                "wType": "Button"
            },
            "centerY": {},
            "left": {},
            "responsiveData": {
                "b3": {
                    "centerY": {
                        "type": "string",
                        "value": ""
                    },
                    "left": {
                        "type": "string",
                        "value": "2.50%"
                    },
                    "right": {
                        "type": "string",
                        "value": ""
                    },
                    "top": {
                        "type": "string",
                        "value": "80dp"
                    },
                    "width": {
                        "type": "string",
                        "value": "95%"
                    }
                }
            },
            "right": {},
            "top": {},
            "width": {}
        },
        "confirmButtons.flxHorizontalLine": {
            "__events__": {},
            "__info__": {
                "kuid": "c233b2aa897448969270e2ba4cb8e3b0",
                "srcKUID": "d4755adee65e4d059baa4d0670f16bda",
                "wType": "FlexContainer"
            },
            "left": {},
            "responsiveData": {
                "b3": {
                    "left": {
                        "type": "string",
                        "value": "2.50%"
                    },
                    "right": {
                        "type": "string",
                        "value": "10px"
                    },
                    "width": {
                        "type": "string",
                        "value": "95%"
                    }
                }
            },
            "right": {},
            "width": {}
        },
        "confirmHeaders": {
            "__events__": {},
            "__info__": {
                "kuid": "d72423d260e645938e4becc0e5341078",
                "srcKUID": "84902121825e48d79cbb1e55cc5c4363",
                "wType": "UserWidgetInstance"
            }
        },
        "confirmHeaders.flxHeader": {
            "__events__": {},
            "__info__": {
                "kuid": "fc4266643f2043f489573781939ba27b",
                "srcKUID": "bfbfb9f59a6f415880f5ba35fbddd249",
                "wType": "FlexContainer"
            }
        },
        "confirmHeaders.lblHeading": {
            "__events__": {},
            "__info__": {
                "kuid": "dd501043c8c446908d1230dc7181df3b",
                "srcKUID": "b632c5d3e7934929bf29a1aa5ab625f2",
                "wType": "Label"
            }
        },
        "confirmation": {
            "__events__": {},
            "__info__": {
                "isRoot": true,
                "kuid": "gdc6f04ec97b42a8ae43f5d976c2f900",
                "srcKUID": "3e5591b0260a4c6984cf86ade4731a06",
                "wType": "FlexContainer"
            }
        },
        "flxCheckBox": {
            "__events__": {},
            "__info__": {
                "kuid": "he9000cb8a8841399fed39c6668d2576",
                "srcKUID": "d55063f86aaf4e09a4feed1142c07d90",
                "wType": "FlexContainer"
            }
        },
        "flxContainer": {
            "__events__": {},
            "__info__": {
                "kuid": "g1feae738b2f4d06b21c6891cbfbeda8",
                "srcKUID": "ca45c4549ec043328f4b5ee02a71ef11",
                "wType": "FlexContainer"
            },
            "responsiveData": {
                "b3": {
                    "layoutType": 4
                }
            }
        },
        "flxContainerEmails": {
            "__events__": {},
            "__info__": {
                "kuid": "b8e4c24d0a6a4bd7807df925e814b78f",
                "srcKUID": "f81f87ce7d144b66b272ac651f7bd067",
                "wType": "FlexContainer"
            }
        },
        "flxFees": {
            "__events__": {},
            "__info__": {
                "kuid": "j9d0b9f5fdcf4dbb80bac81171fb6657",
                "srcKUID": "c7fc772d4a1b4a0ca79b0bfb694845f2",
                "wType": "FlexContainer"
            }
        },
        "flxHorizontalLine": {
            "__events__": {},
            "__info__": {
                "kuid": "f8efc40ecf324395a41c83824f7a9ee1",
                "srcKUID": "37dac431cb7d4a3cb11adac981e0f6c7",
                "wType": "FlexContainer"
            }
        },
        "flxKey": {
            "__events__": {},
            "__info__": {
                "kuid": "acd2bcc8784f4a998a736189c4f89705",
                "srcKUID": "d01f286bf2f44a03ad337ef81d221558",
                "wType": "FlexContainer"
            },
            "left": {},
            "responsiveData": {
                "b3": {
                    "left": {
                        "type": "string",
                        "value": "2.50%"
                    },
                    "width": {
                        "type": "string",
                        "value": "95%"
                    }
                }
            },
            "width": {}
        },
        "flxKeyPrimaryContact": {
            "__events__": {},
            "__info__": {
                "kuid": "g7e824b2730c419d87ccd6a711c3a620",
                "srcKUID": "ga2c668d7328443995bc186584d9f880",
                "wType": "FlexContainer"
            },
            "centerY": {
                "Default": {
                    "type": "string",
                    "value": "33%"
                }
            },
            "responsiveData": {
                "b3": {
                    "centerY": {
                        "type": "string",
                        "value": ""
                    },
                    "layoutType": 4,
                    "top": {
                        "type": "number",
                        "value": "20"
                    },
                    "width": {
                        "type": "string",
                        "value": "95%"
                    }
                }
            },
            "top": {},
            "width": {}
        },
        "flxKeyValues": {
            "__events__": {},
            "__info__": {
                "kuid": "b3e69e28e69b4ea1a113ca313438519e",
                "srcKUID": "d8991e8947ca4bd39d9b4efca3c6a3e4",
                "wType": "FlexContainer"
            },
            "responsiveData": {
                "b4": {
                    "top": {
                        "type": "string",
                        "value": "25dp"
                    }
                }
            },
            "top": {}
        },
        "flxMain": {
            "__events__": {},
            "__info__": {
                "kuid": "efb590da52e94e43968565b573d7f3d0",
                "srcKUID": "3762f4077b21413891a911c5ee43aae7",
                "wType": "FlexContainer"
            }
        },
        "flxPhones": {
            "__events__": {},
            "__info__": {
                "kuid": "a7143086e2d1449092ae577d65a870e4",
                "srcKUID": "f3294aa975d34db9beb50340162dac5c",
                "wType": "FlexContainer"
            },
            "responsiveData": {
                "b3": {
                    "layoutType": 4
                }
            }
        },
        "flxPrimaryContact": {
            "__events__": {},
            "__info__": {
                "kuid": "de33b0485a4e4f1f914443daf08bf412",
                "srcKUID": "f90d1093a76741d4ac36dbc53d798d16",
                "wType": "FlexContainer"
            },
            "autogrowMode": {
                "Default": 0
            },
            "height": {
                "Default": {
                    "type": "string",
                    "value": "50dp"
                }
            },
            "isVisible": true,
            "layoutType": 2,
            "responsiveData": {
                "b3": {
                    "layoutType": 4
                }
            },
            "top": {
                "Default": {
                    "type": "string",
                    "value": "7dp"
                }
            },
            "width": {
                "Default": {
                    "type": "string",
                    "value": "100%"
                }
            }
        },
        "flxTotal": {
            "__events__": {},
            "__info__": {
                "kuid": "ae799a8131a543f9b8143afd8432e2ed",
                "srcKUID": "e158f981651c4adf8b2f81b9bd623631",
                "wType": "FlexContainer"
            },
            "left": {
                "Default": {
                    "type": "string",
                    "value": "1.46%"
                }
            },
            "responsiveData": {
                "b3": {
                    "top": {
                        "type": "string",
                        "value": "70dp"
                    }
                }
            },
            "top": {}
        },
        "flxTotalAmount": {
            "__events__": {},
            "__info__": {
                "kuid": "d1694cb939e04de5ab6975218c1deced",
                "srcKUID": "iaab73047f7546828c18c48ab4836be3",
                "wType": "FlexContainer"
            }
        },
        "flxValue": {
            "__events__": {},
            "__info__": {
                "kuid": "i89b368050154a4b97fa59482587b2dc",
                "srcKUID": "d258504dc97a4c77a70ad1a17c82cb53",
                "wType": "FlexContainer"
            },
            "left": {},
            "responsiveData": {
                "b3": {
                    "left": {
                        "type": "string",
                        "value": "2.50%"
                    },
                    "top": {
                        "type": "string",
                        "value": "10dp"
                    },
                    "width": {
                        "type": "string",
                        "value": "95%"
                    }
                }
            },
            "top": {},
            "width": {}
        },
        "flxValuePrimaryContact": {
            "__events__": {},
            "__info__": {
                "kuid": "c998c7334a0545279496e772efbde708",
                "srcKUID": "j956a2c880b3469784b134e4a1baf369",
                "wType": "FlexContainer"
            },
            "centerY": {},
            "left": {},
            "responsiveData": {
                "b3": {
                    "centerY": {
                        "type": "string",
                        "value": "-120%"
                    },
                    "left": {
                        "type": "string",
                        "value": "2.50%"
                    },
                    "top": {
                        "type": "string",
                        "value": "0dp"
                    }
                }
            },
            "top": {}
        },
        "flximgInfoIcon": {
            "__events__": {
                "ide_onClick": "AS_FlexContainer_e2dd270f119e4cb2a19cbbc6d761ffd5"
            },
            "__info__": {
                "kuid": "hdd044da219c46efa1750aa820a63282",
                "srcKUID": "cccc4426b21c4bdead2339bcb8a49587",
                "wType": "FlexContainer"
            },
            "left": {},
            "responsiveData": {
                "b3": {
                    "left": {
                        "type": "string",
                        "value": "50px"
                    }
                },
                "b4": {
                    "left": {
                        "type": "string",
                        "value": "6%"
                    }
                }
            }
        },
        "imgCheckBox": {
            "__events__": {},
            "__info__": {
                "kuid": "c705b18ccbea481fab37967cccb77430",
                "srcKUID": "e551e0711a204411bfce12290d0944e3",
                "wType": "Image"
            },
            "src": "unchecked_box.png"
        },
        "imgInfoIcon": {
            "__events__": {},
            "__info__": {
                "kuid": "ab0ab95a75ea41f4a62bacb410684366",
                "srcKUID": "f2fa5fcca6804eb3845c57d0a849186e",
                "wType": "Image"
            },
            "left": {
                "Default": {
                    "type": "string",
                    "value": "0%"
                }
            },
            "responsiveData": {
                "b3": {}
            },
            "src": "info_large.png"
        },
        "keyValueFees": {
            "__events__": {},
            "__info__": {
                "kuid": "e9f3b39f4c9e4915992112fd7d4007df",
                "srcKUID": "c0fa28a1643d48c09e444290365ff762",
                "wType": "UserWidgetInstance"
            }
        },
        "keyValueFees.flxContainer": {
            "__events__": {},
            "__info__": {
                "kuid": "dcd31a897e35463baef34809b9a35d34",
                "srcKUID": "b4621b0244784d35a148bd7cfe19e61c",
                "wType": "FlexContainer"
            }
        },
        "keyValueFees.flxInfo": {
            "__events__": {},
            "__info__": {
                "kuid": "dcec0008c87a4e2db687956e1f4a6b5b",
                "srcKUID": "ebf9fa6f73c84de2b2e2738a17a769a4",
                "wType": "FlexContainer"
            }
        },
        "keyValueFees.flxKey": {
            "__events__": {},
            "__info__": {
                "kuid": "fa94167eb27843e29395d50c6eb2415a",
                "srcKUID": "cecc55e73d3f4d9f87b1735c9c6a3f7f",
                "wType": "FlexContainer"
            }
        },
        "keyValueFees.flxValue": {
            "__events__": {},
            "__info__": {
                "kuid": "cd78a9ddece74d25a923b0899b2914fc",
                "srcKUID": "e5f07b8abdc3475fb57885c95a3ec4b5",
                "wType": "FlexContainer"
            }
        },
        "keyValueFees.imgWhatIsSSN": {
            "__events__": {},
            "__info__": {
                "kuid": "eb724544f12247a3a403cb7870ac9c77",
                "srcKUID": "ib30c1c3465b42c28ae89b2e63aeb310",
                "wType": "Image"
            },
            "src": "info_grey.png"
        },
        "keyValueFees.lblColon": {
            "__events__": {},
            "__info__": {
                "kuid": "edf4c93846e14da4b720a953ab0526f7",
                "srcKUID": "gfe3473e057f4ea8a192cf4b17a27144",
                "wType": "Label"
            }
        },
        "keyValueFees.lblKey": {
            "__events__": {},
            "__info__": {
                "kuid": "a4d470c2394346858631892024c907c6",
                "srcKUID": "h675d0cff7064c599c85418b3dade063",
                "wType": "Label"
            }
        },
        "keyValueFees.lblValue": {
            "__events__": {},
            "__info__": {
                "kuid": "ed3a56acedc745ffbea589fa99e260a0",
                "srcKUID": "d498ef1aceaf47448dae0f1037fd3d28",
                "wType": "Label"
            }
        },
        "keyValueFive": {
            "__events__": {},
            "__info__": {
                "kuid": "bc168192dfa34a5da7b6f3faf4539886",
                "srcKUID": "272bf51fbe3348ed95141bb9aacac286",
                "wType": "UserWidgetInstance"
            },
            "isVisible": false,
            "layoutType": 2,
            "responsiveData": {
                "b3": {
                    "isVisible": false
                }
            }
        },
        "keyValueFive.flxContainer": {
            "__events__": {},
            "__info__": {
                "kuid": "b626e30cdcc245488760119e21ffeaba",
                "srcKUID": "j74614aa15cc4db6999e6d2c15609e78",
                "wType": "FlexContainer"
            },
            "responsiveData": {
                "b3": {
                    "layoutType": 4
                }
            }
        },
        "keyValueFive.flxInfo": {
            "__events__": {},
            "__info__": {
                "kuid": "bd1b3aa6b5b94c92a160e3bf5774fd11",
                "srcKUID": "c1ea158f85dd4aa49d26ec7e6dbb6707",
                "wType": "FlexContainer"
            }
        },
        "keyValueFive.flxKey": {
            "__events__": {},
            "__info__": {
                "kuid": "e3870d40c4df45bd90a51bf5b86e36b7",
                "srcKUID": "f374dc441a404515ab5051723c0188c0",
                "wType": "FlexContainer"
            },
            "left": {},
            "responsiveData": {
                "b3": {
                    "left": {
                        "type": "string",
                        "value": "2.50%"
                    },
                    "width": {
                        "type": "string",
                        "value": "95%"
                    }
                }
            },
            "width": {}
        },
        "keyValueFive.flxValue": {
            "__events__": {},
            "__info__": {
                "kuid": "c886ccb237c043eea9063cf5ce09bb7f",
                "srcKUID": "bd213eae1f4d4d0abd7a16f5d3173ff2",
                "wType": "FlexContainer"
            },
            "left": {},
            "responsiveData": {
                "b3": {
                    "left": {
                        "type": "string",
                        "value": "2.50%"
                    },
                    "top": {
                        "type": "string",
                        "value": "10dp"
                    },
                    "width": {
                        "type": "string",
                        "value": "95%"
                    }
                }
            },
            "top": {},
            "width": {}
        },
        "keyValueFive.imgWhatIsSSN": {
            "__events__": {},
            "__info__": {
                "kuid": "gc95723a0f0b4a1587ee7ca578cd9875",
                "srcKUID": "i270e57b3c0a4da6a3468dbcb60f9dd2",
                "wType": "Image"
            },
            "src": "info_grey.png"
        },
        "keyValueFive.lblColon": {
            "__events__": {},
            "__info__": {
                "kuid": "f6477cf2495c475cae75a38bae787d3c",
                "srcKUID": "fa90b350854d4abe9c9884c287e46b96",
                "wType": "Label"
            },
            "left": {},
            "responsiveData": {
                "b3": {
                    "isVisible": false,
                    "left": {
                        "type": "string",
                        "value": "52%"
                    }
                }
            }
        },
        "keyValueFive.lblKey": {
            "__events__": {},
            "__info__": {
                "kuid": "h8b1ff1bf5654577bdcc23d171e1f2b4",
                "srcKUID": "f0e5e85aff794be58f1b7ad56bc81f55",
                "wType": "Label"
            }
        },
        "keyValueFive.lblValue": {
            "__events__": {},
            "__info__": {
                "kuid": "e8762c654ca84bceb2763a4e5dd6e3f5",
                "srcKUID": "f46828a9f46849059b6de0028baf1204",
                "wType": "Label"
            }
        },
        "keyValueOne": {
            "__events__": {},
            "__info__": {
                "kuid": "f7331edf7efa4861bf77fc7f01e27d54",
                "srcKUID": "85add4e8a89a449aaa4d47572a4f5c7b",
                "wType": "UserWidgetInstance"
            }
        },
        "keyValueOne.flxContainer": {
            "__events__": {},
            "__info__": {
                "kuid": "h75101f04a424963a504165bb9d5f4f5",
                "srcKUID": "jd432dfdfc0b451f867a6e81a88ab3ef",
                "wType": "FlexContainer"
            },
            "responsiveData": {
                "b3": {
                    "layoutType": 4,
                    "top": {
                        "type": "string",
                        "value": "0dp"
                    }
                }
            },
            "top": {}
        },
        "keyValueOne.flxInfo": {
            "__events__": {},
            "__info__": {
                "kuid": "a4a5f1c6238b4a269af1afa321c6c66b",
                "srcKUID": "e9aa998bc20c4df6820c75a9f8720e9d",
                "wType": "FlexContainer"
            }
        },
        "keyValueOne.flxKey": {
            "__events__": {},
            "__info__": {
                "kuid": "aeb4ca0032eb47c79bc62b790c623cfa",
                "srcKUID": "h030e296a6c645a79297344d087f25a3",
                "wType": "FlexContainer"
            },
            "left": {
                "Default": {
                    "type": "string",
                    "value": "2.20%"
                }
            },
            "responsiveData": {
                "b3": {
                    "left": {
                        "type": "string",
                        "value": "0%"
                    },
                    "width": {
                        "type": "string",
                        "value": "95%"
                    }
                }
            },
            "width": {}
        },
        "keyValueOne.flxValue": {
            "__events__": {},
            "__info__": {
                "kuid": "i64db52e1cd74095a3fab69ca7e86901",
                "srcKUID": "ae79f8e8316445aba5bd28b06b6a8d93",
                "wType": "FlexContainer"
            },
            "left": {},
            "responsiveData": {
                "b3": {
                    "left": {
                        "type": "string",
                        "value": "2.50%"
                    },
                    "top": {
                        "type": "string",
                        "value": "10dp"
                    },
                    "width": {
                        "type": "string",
                        "value": "95%"
                    }
                }
            },
            "top": {},
            "width": {}
        },
        "keyValueOne.imgWhatIsSSN": {
            "__events__": {},
            "__info__": {
                "kuid": "hed00b37f59641169488cc1a58f623a1",
                "srcKUID": "j49178c1575e4d86b6aec3c73512296f",
                "wType": "Image"
            },
            "src": "info_grey.png"
        },
        "keyValueOne.lblColon": {
            "__events__": {},
            "__info__": {
                "kuid": "e1e678d75848498f99437f6e74f44af0",
                "srcKUID": "d4dacccfb4004c58b2457d8a06161e50",
                "wType": "Label"
            },
            "isVisible": true,
            "left": {},
            "responsiveData": {
                "b3": {
                    "isVisible": false,
                    "left": {
                        "type": "string",
                        "value": "52%"
                    }
                }
            }
        },
        "keyValueOne.lblKey": {
            "__events__": {},
            "__info__": {
                "kuid": "e857e1863d934047b10978f512f59c73",
                "srcKUID": "i34d73c4e37f49a1bb4f813daa30c5f9",
                "wType": "Label"
            },
            "left": {},
            "responsiveData": {
                "b3": {
                    "left": {
                        "type": "string",
                        "value": "2.50%"
                    },
                    "width": {
                        "type": "string",
                        "value": "95%"
                    }
                }
            },
            "width": {}
        },
        "keyValueOne.lblValue": {
            "__events__": {},
            "__info__": {
                "kuid": "idab3811cea44d049f63694e5ad91715",
                "srcKUID": "a99f9ed0ea2b428795df4903550bf413",
                "wType": "Label"
            },
            "height": {},
            "left": {},
            "responsiveData": {
                "b2": {},
                "b3": {
                    "height": {
                        "type": "string",
                        "value": "20dp"
                    },
                    "left": {
                        "type": "string",
                        "value": "0dp"
                    },
                    "top": {
                        "type": "string",
                        "value": "0dp"
                    }
                }
            },
            "top": {},
            "width": {
                "Default": {
                    "type": "string",
                    "value": "100%"
                }
            }
        },
        "keyValueSix": {
            "__events__": {},
            "__info__": {
                "kuid": "g9547622f79c4015a7f53771b0752f30",
                "srcKUID": "f2c09eb18157495d81321f78389cebf6",
                "wType": "UserWidgetInstance"
            },
            "isVisible": false,
            "responsiveData": {}
        },
        "keyValueSix.flxContainer": {
            "__events__": {},
            "__info__": {
                "kuid": "a93ae7c89e1f4151a3e7331d1846b2da",
                "srcKUID": "ebd92e789cd14f5da7dba4302bf53208",
                "wType": "FlexContainer"
            },
            "responsiveData": {
                "b3": {
                    "layoutType": 4
                }
            }
        },
        "keyValueSix.flxInfo": {
            "__events__": {},
            "__info__": {
                "kuid": "ca5007e30e164794babcfcb0ae4efac0",
                "srcKUID": "b22f1fd0b89f4a739cfccd984c576274",
                "wType": "FlexContainer"
            }
        },
        "keyValueSix.flxKey": {
            "__events__": {},
            "__info__": {
                "kuid": "j9c2b27cea5c43caa22eb60216f9599d",
                "srcKUID": "i2a8de41f3274c02b62a5883891b197a",
                "wType": "FlexContainer"
            },
            "left": {},
            "responsiveData": {
                "b3": {
                    "left": {
                        "type": "string",
                        "value": "2.50%"
                    },
                    "width": {
                        "type": "string",
                        "value": "95%"
                    }
                }
            },
            "width": {}
        },
        "keyValueSix.flxValue": {
            "__events__": {},
            "__info__": {
                "kuid": "g58201b2179846068c3d3799851a68aa",
                "srcKUID": "b35011913fb34d72b53cd658e52224cc",
                "wType": "FlexContainer"
            },
            "left": {},
            "responsiveData": {
                "b3": {
                    "left": {
                        "type": "string",
                        "value": "2.50%"
                    },
                    "top": {
                        "type": "string",
                        "value": "10dp"
                    },
                    "width": {
                        "type": "string",
                        "value": "95%"
                    }
                }
            },
            "top": {},
            "width": {}
        },
        "keyValueSix.imgWhatIsSSN": {
            "__events__": {},
            "__info__": {
                "kuid": "j7fe402a0b4845a48437bf20973f8a6c",
                "srcKUID": "a247a5e707c94d18b1a72b499bc0f067",
                "wType": "Image"
            },
            "src": "info_grey.png"
        },
        "keyValueSix.lblColon": {
            "__events__": {},
            "__info__": {
                "kuid": "g517b8a908d942249fe57c0033e38187",
                "srcKUID": "g0b898339cbb4a27a205bf0deff84c0f",
                "wType": "Label"
            },
            "left": {},
            "responsiveData": {
                "b3": {
                    "isVisible": false,
                    "left": {
                        "type": "string",
                        "value": "52%"
                    }
                }
            }
        },
        "keyValueSix.lblKey": {
            "__events__": {},
            "__info__": {
                "kuid": "jb7473321f504a1a8d87b289aae2f7f3",
                "srcKUID": "fcb6080abf574b0599cbe35f59d8a052",
                "wType": "Label"
            }
        },
        "keyValueSix.lblValue": {
            "__events__": {},
            "__info__": {
                "kuid": "c2e6fe19daf64132a78f9374c25e1e4f",
                "srcKUID": "be6bc5de68994c2b990722555f9138b5",
                "wType": "Label"
            },
            "height": {},
            "responsiveData": {
                "b3": {
                    "height": {
                        "type": "string",
                        "value": "20dp"
                    },
                    "top": {
                        "type": "string",
                        "value": "0dp"
                    }
                }
            },
            "top": {}
        },
        "keyValueTotal": {
            "__events__": {},
            "__info__": {
                "kuid": "eb290764c3bc4deea698c1c510930689",
                "srcKUID": "j46d3b936cd64f36b0d68f15f8c6ed4d",
                "wType": "UserWidgetInstance"
            }
        },
        "keyValueTotal.flxContainer": {
            "__events__": {},
            "__info__": {
                "kuid": "ea9f3d4c164f43baa8f27a12bdf6f8e2",
                "srcKUID": "j38e6e9cd56c48d5bae5c441193ba2c3",
                "wType": "FlexContainer"
            }
        },
        "keyValueTotal.flxInfo": {
            "__events__": {},
            "__info__": {
                "kuid": "c06dcb9e78bf43b2bdc0f7717534159c",
                "srcKUID": "i024e7e703014fec8abce93a422d0907",
                "wType": "FlexContainer"
            }
        },
        "keyValueTotal.flxKey": {
            "__events__": {},
            "__info__": {
                "kuid": "f425443bfa1a4c20a3bd8f42acc47ce2",
                "srcKUID": "ff46145d9c0b4033baf4b71a3cf5b957",
                "wType": "FlexContainer"
            }
        },
        "keyValueTotal.flxValue": {
            "__events__": {},
            "__info__": {
                "kuid": "b1ea4749e3904b8ab9c584de6545192c",
                "srcKUID": "ed3395760b5a4e3c8020f496b92fd5c4",
                "wType": "FlexContainer"
            }
        },
        "keyValueTotal.imgWhatIsSSN": {
            "__events__": {},
            "__info__": {
                "kuid": "d0a45ece88f445e8848859d4934935fa",
                "srcKUID": "c231a134efaa45caa4b5392936e7239a",
                "wType": "Image"
            },
            "src": "info_grey.png"
        },
        "keyValueTotal.lblColon": {
            "__events__": {},
            "__info__": {
                "kuid": "fdedc801a0ba40ba8b639607c86ca072",
                "srcKUID": "ced988296fad4dd0baa345efbd4b52b8",
                "wType": "Label"
            }
        },
        "keyValueTotal.lblKey": {
            "__events__": {},
            "__info__": {
                "kuid": "f8c00a7a8bb8481a90ce401cff5d2047",
                "srcKUID": "f9f467d23f194eb9a2a033639dfe362d",
                "wType": "Label"
            }
        },
        "keyValueTotal.lblValue": {
            "__events__": {},
            "__info__": {
                "kuid": "i4d16e3585494d4fba15e78877d07579",
                "srcKUID": "e06f8e5c4bc3448786c86179479a3653",
                "wType": "Label"
            }
        },
        "keyValueTwo": {
            "__events__": {},
            "__info__": {
                "kuid": "aa7a74314c0a47508265bc19652611df",
                "srcKUID": "d97d7a710d4b49f180078f1399b028f7",
                "wType": "UserWidgetInstance"
            },
            "responsiveData": {
                "b3": {
                    "top": {
                        "type": "string",
                        "value": "0dp"
                    }
                }
            },
            "top": {}
        },
        "keyValueTwo.flxContainer": {
            "__events__": {},
            "__info__": {
                "kuid": "f3c6201e978b4cb0a7092f1a9212ef32",
                "srcKUID": "db1c085cd54a488eb71ff6014d727d4e",
                "wType": "FlexContainer"
            },
            "responsiveData": {
                "b3": {
                    "layoutType": 4,
                    "top": {
                        "type": "string",
                        "value": "20dp"
                    }
                }
            },
            "top": {}
        },
        "keyValueTwo.flxInfo": {
            "__events__": {},
            "__info__": {
                "kuid": "d9cbfdf5d4ee41a18af7bb3e9c741cb7",
                "srcKUID": "e270884db1ac4ae0bb8ebfa1fe0dd11a",
                "wType": "FlexContainer"
            }
        },
        "keyValueTwo.flxKey": {
            "__events__": {},
            "__info__": {
                "kuid": "ja0ee1aa07ce4039a96a5ed1ec48dd97",
                "srcKUID": "i7841148f42e473ebcc9582fd0303795",
                "wType": "FlexContainer"
            },
            "left": {},
            "responsiveData": {
                "b3": {
                    "left": {
                        "type": "string",
                        "value": "2.50%"
                    },
                    "width": {
                        "type": "string",
                        "value": "95%"
                    }
                }
            },
            "width": {}
        },
        "keyValueTwo.flxValue": {
            "__events__": {},
            "__info__": {
                "kuid": "a58c010f2f024c3da6da68a9eda35a4e",
                "srcKUID": "je1f9e5d4fc6471a96d14efbae447d13",
                "wType": "FlexContainer"
            },
            "left": {},
            "responsiveData": {
                "b3": {
                    "left": {
                        "type": "string",
                        "value": "2.50%"
                    },
                    "top": {
                        "type": "string",
                        "value": "10dp"
                    },
                    "width": {
                        "type": "string",
                        "value": "95%"
                    }
                }
            },
            "top": {},
            "width": {}
        },
        "keyValueTwo.imgWhatIsSSN": {
            "__events__": {},
            "__info__": {
                "kuid": "e5e1db1eaaf84a4587d302f833571dde",
                "srcKUID": "fda0e463282a4987945330ba51e52dcf",
                "wType": "Image"
            },
            "src": "info_grey.png"
        },
        "keyValueTwo.lblColon": {
            "__events__": {},
            "__info__": {
                "kuid": "h06f104e226747428b557781fc7ec4cd",
                "srcKUID": "e58a376304794228994ac4144df597bf",
                "wType": "Label"
            },
            "left": {},
            "responsiveData": {
                "b3": {
                    "isVisible": false,
                    "left": {
                        "type": "string",
                        "value": "52%"
                    }
                }
            }
        },
        "keyValueTwo.lblKey": {
            "__events__": {},
            "__info__": {
                "kuid": "e42ce44bf1fa4b82b3421fe6f41fea61",
                "srcKUID": "hcd00c49c7694043971dc5bbdb4ec9bc",
                "wType": "Label"
            }
        },
        "keyValueTwo.lblValue": {
            "__events__": {},
            "__info__": {
                "kuid": "efff281cec2d41d4a2ca993904fd5d77",
                "srcKUID": "c766f445ec4a44ae93b0435f04ff3209",
                "wType": "Label"
            },
            "height": {},
            "left": {},
            "responsiveData": {
                "b3": {
                    "height": {
                        "type": "string",
                        "value": "20dp"
                    },
                    "left": {
                        "type": "string",
                        "value": "0dp"
                    },
                    "top": {
                        "type": "string",
                        "value": "0dp"
                    }
                }
            },
            "top": {}
        },
        "lblAccept": {
            "__events__": {},
            "__info__": {
                "kuid": "b9ea3b551a5b4db39f7b3d0ae267f323",
                "srcKUID": "a505a073ce774721961a80540b012b6d",
                "wType": "Label"
            },
            "responsiveData": {},
            "text": "I accept to the"
        },
        "lblCheckBoxIcon": {
            "__events__": {},
            "__info__": {
                "kuid": "e436e95eaba24fcf902d62ca4e792b9d",
                "srcKUID": "f6a87be70ce0410fb1d060871e0c0375",
                "wType": "Label"
            },
            "height": {},
            "responsiveData": {
                "b3": {
                    "height": {
                        "type": "string",
                        "value": "28dp"
                    }
                }
            }
        },
        "lblColon": {
            "__events__": {},
            "__info__": {
                "kuid": "a6bf64e4c5094556a4ad5e846404a4cd",
                "srcKUID": "caa592a0eefe49a2ae1701e46bddb856",
                "wType": "Label"
            },
            "left": {},
            "responsiveData": {
                "b3": {
                    "isVisible": false,
                    "left": {
                        "type": "string",
                        "value": "52%"
                    }
                }
            }
        },
        "lblColonPrimaryContact": {
            "__events__": {},
            "__info__": {
                "kuid": "cf695cdc28dd40b491a229f0b2d93bd3",
                "srcKUID": "b85c7435ddb6411eb4e358d17dd9cd01",
                "wType": "Label"
            },
            "left": {},
            "responsiveData": {
                "b3": {
                    "isVisible": false,
                    "left": {
                        "type": "string",
                        "value": "52%"
                    }
                }
            }
        },
        "lblKey": {
            "__events__": {},
            "__info__": {
                "kuid": "cb8d5800496642058a902eb5d465867a",
                "srcKUID": "c1287c3ab5cb498f8f0d5e980f228f65",
                "wType": "Label"
            }
        },
        "lblKeyPrimaryContact": {
            "__events__": {},
            "__info__": {
                "kuid": "g00bed43cfe246a9bb8d926f4ff5ee24",
                "srcKUID": "c5c5489e46d24e2bac56e0a860f34559",
                "wType": "Label"
            },
            "centerY": {},
            "responsiveData": {
                "b3": {
                    "centerY": {
                        "type": "string",
                        "value": "50%"
                    },
                    "width": {
                        "type": "string",
                        "value": "95%"
                    }
                }
            },
            "width": {}
        },
        "lblValuePrimaryContact": {
            "__events__": {},
            "__info__": {
                "kuid": "hc30fc71a15b4486b1d953b451464daf",
                "srcKUID": "if2e3e5a9af24044aed87b0afaf1db0f",
                "wType": "Label"
            },
            "isVisible": true,
            "responsiveData": {}
        },
        "lbxPrimaryContact": {
            "__events__": {},
            "__info__": {
                "kuid": "b74240972462481abd141fee71d1a8ce",
                "srcKUID": "c6deece21c4646e9b0bf4657f42201bb",
                "wType": "ListBox"
            },
            "isVisible": false,
            "responsiveData": {
                "b3": {
                    "isVisible": false
                }
            }
        }
    },
    "id": "confirmation",
    "info": null,
    "isdatareferenced": false,
    "isvisible": true,
    "kuid": "gdc6f04ec97b42a8ae43f5d976c2f900",
    "layouttype": 2,
    "masterType": 0,
    "name": "kony.ui.UserWidgetInstance",
    "parent": "flxConfirmation",
    "pf": "frmPayAPerson",
    "snaptogrid": true,
    "sourceUserWidget": "3e5591b0260a4c6984cf86ade4731a06",
    "vizprops": {
        "hidewidgethierarchy": false
    },
    "wType": "UserWidgetInstance"
}