{
    "@class": "com.kony.gen.viz.model.component.KVizUserWidget",
    "DNDConfig": null,
    "__parentReadjusting__": false,
    "_android_": {},
    "_androidwearos_": {},
    "_children_": [],
    "_desktopweb_": {},
    "_height_": {
        "type": "string",
        "value": "100%"
    },
    "_ipad_": {},
    "_iphone_": {},
    "_kiosk_": {},
    "_left_": {
        "type": "string",
        "value": "0dp"
    },
    "_margin_": [
        0,
        0,
        0,
        0
    ],
    "_orientation_": 1,
    "_padding_": [
        0,
        0,
        0,
        0
    ],
    "_percent_": true,
    "_render_": true,
    "_responsiveData_": {},
    "_skin_": "s9a1dc0ac9264301bf992c3c356d2f12",
    "_spa_": {},
    "_spaan_": {},
    "_spaandroidtablet_": {},
    "_spabb_": {},
    "_spaip_": {},
    "_spaipad_": {},
    "_spamobile_": {},
    "_spatablet_": {},
    "_spawindowstablet_": {},
    "_spawinphone8_": {},
    "_tabrcandroid_": {},
    "_top_": {
        "type": "string",
        "value": "0dp"
    },
    "_vizProps_": {
        "hidewidgethierarchy": false
    },
    "_width_": {
        "type": "string",
        "value": "100%"
    },
    "_windows10_": {},
    "_windows8_": {},
    "_winphone10_": {},
    "_winphone8_": {},
    "areflexpropsreferenced": false,
    "autogrowmode": 0,
    "canUpdateUI": true,
    "clipbounds": true,
    "containerweight": 0,
    "dataDiffs": {
        "btnAddRecipient": {
            "__events__": {
                "ide_onClick": "AS_Button_d7c58f00bfd7410494adb15272b5df34"
            },
            "__info__": {
                "kuid": "je6c409271bb43bf97f3fb8159303fad",
                "srcKUID": "b4bab9db747d40b7a557c1d1376e7425",
                "wType": "Button"
            },
            "height": {
                "Default": {
                    "type": "string",
                    "value": "40dp"
                }
            },
            "i18n_text": "i18n.PayAPerson.AddRecipient",
            "left": {
                "Default": {
                    "type": "string",
                    "value": "35%"
                }
            },
            "responsiveData": {
                "b3": {
                    "left": {
                        "type": "string",
                        "value": "2%"
                    },
                    "top": {
                        "type": "string",
                        "value": "80px"
                    },
                    "width": {
                        "type": "string",
                        "value": "96%"
                    }
                }
            },
            "top": {},
            "width": {}
        },
        "btnRequestMoney": {
            "__events__": {
                "ide_onClick": "AS_Button_g40cd76140124e21ad8c1265e49260a6"
            },
            "__info__": {
                "kuid": "cef970e1dfa940fcbb4f29ceafe6f3df",
                "srcKUID": "aeac4f62c72049a9b49565e38d5431cc",
                "wType": "Button"
            },
            "height": {
                "Default": {
                    "type": "string",
                    "value": "40dp"
                }
            },
            "isVisible": false,
            "left": {},
            "responsiveData": {
                "b3": {
                    "isVisible": false,
                    "left": {
                        "type": "string",
                        "value": "2%"
                    },
                    "top": {
                        "type": "string",
                        "value": "140px"
                    },
                    "width": {
                        "type": "string",
                        "value": "96%"
                    }
                }
            },
            "top": {},
            "width": {}
        },
        "btnSendMoney": {
            "__events__": {
                "ide_onClick": "AS_Button_b05e0e2be56d495689746791cc29250d"
            },
            "__info__": {
                "kuid": "j0f7d8d9b0024f2c87e6291c94928ea7",
                "srcKUID": "idef1ad5217c423e8c7dc2e86f54e6c6",
                "wType": "Button"
            },
            "height": {
                "Default": {
                    "type": "string",
                    "value": "40dp"
                }
            },
            "i18n_text": "i18n.Pay.SendMoney",
            "left": {},
            "responsiveData": {
                "b3": {
                    "left": {
                        "type": "string",
                        "value": "2%"
                    },
                    "right": {
                        "type": "string",
                        "value": "2%"
                    },
                    "top": {
                        "type": "string",
                        "value": "20px"
                    },
                    "width": {
                        "type": "string",
                        "value": "96%"
                    }
                }
            },
            "right": {},
            "top": {},
            "width": {}
        },
        "flxButtons": {
            "__events__": {},
            "__info__": {
                "kuid": "a50caccc8a9f4a7ebacab4a6dc0ba41a",
                "srcKUID": "f836f923f2f84447a20da7ba85078324",
                "wType": "FlexContainer"
            },
            "autogrowMode": {
                "Default": 0
            },
            "height": {},
            "responsiveData": {
                "b3": {
                    "height": {
                        "type": "string",
                        "value": "200px"
                    },
                    "layoutType": 2
                }
            }
        },
        "flxDetails": {
            "__events__": {},
            "__info__": {
                "kuid": "ea603b1b29cc46fca172c17b83a42a0c",
                "srcKUID": "de4c48053c1d4c3e9d7466c9f89ed7d0",
                "wType": "FlexContainer"
            }
        },
        "flxHeader": {
            "__events__": {},
            "__info__": {
                "kuid": "i897ffe3c18c4a079c88807bd3724ff9",
                "srcKUID": "dd669544ff02403891f9e453db455b47",
                "wType": "FlexContainer"
            }
        },
        "flxMain": {
            "__events__": {},
            "__info__": {
                "kuid": "cdd7ec2dff664b0692f49ec0d260278d",
                "srcKUID": "b51ff4f299314890bca9e3e25c383944",
                "wType": "FlexContainer"
            },
            "autogrowMode": {
                "Default": 0
            },
            "height": {},
            "responsiveData": {
                "b3": {
                    "height": {
                        "type": "string",
                        "value": "633dp"
                    }
                }
            }
        },
        "flxMessage": {
            "__events__": {},
            "__info__": {
                "kuid": "c782ed5e1ef9429ab2296f59d778ce57",
                "srcKUID": "bfb445c586054ebb87648f17ede49abb",
                "wType": "FlexContainer"
            }
        },
        "flxSeperator": {
            "__events__": {},
            "__info__": {
                "kuid": "e27da05299a3479898a498af11745e30",
                "srcKUID": "b6c2dc5fa6e446a18c4a78c2932ead8a",
                "wType": "FlexContainer"
            }
        },
        "flxSeperator2": {
            "__events__": {},
            "__info__": {
                "kuid": "b52fa025a6f94e929de869d2dc43375c",
                "srcKUID": "afa4c979bcea4167b84126cc251d9ddb",
                "wType": "FlexContainer"
            }
        },
        "imgError": {
            "__events__": {},
            "__info__": {
                "kuid": "dbb99e92bbf842beabbb73921f861d01",
                "srcKUID": "cf1bf9daaa0643288882dd39dcceba77",
                "wType": "Image"
            },
            "src": "error_yellow.png"
        },
        "lblHeader": {
            "__events__": {},
            "__info__": {
                "kuid": "h981295437814939a16e97bf9f91a423",
                "srcKUID": "ddb9b35f501a49a8b676587d697f1ae8",
                "wType": "Label"
            },
            "i18n_text": "i18n.p2p.PayAPerson"
        },
        "lblNoRecipientsWarning": {
            "__events__": {},
            "__info__": {
                "kuid": "j38279e5ca964008be42c7c97031a9bf",
                "srcKUID": "bee3658a54fb47c39c9ed8ad7d39edb2",
                "wType": "Label"
            },
            "i18n_text": "i18n.Transfers.Youdonothaveanyaccountsaddedinthiscategory"
        },
        "noRecipients": {
            "__events__": {},
            "__info__": {
                "isRoot": true,
                "kuid": "c12268fdb5804355928b19d9ea13f0fc",
                "srcKUID": "i8e8582709d24069b964c8dd410ce170",
                "wType": "FlexContainer"
            },
            "left": {
                "Default": {
                    "type": "string",
                    "value": "0dp"
                }
            },
            "top": {
                "Default": {
                    "type": "string",
                    "value": "0dp"
                }
            },
            "width": {
                "Default": {
                    "type": "string",
                    "value": "100%"
                }
            }
        }
    },
    "id": "noRecipients",
    "info": null,
    "isdatareferenced": false,
    "isvisible": true,
    "kuid": "c12268fdb5804355928b19d9ea13f0fc",
    "layouttype": 2,
    "masterType": 0,
    "name": "kony.ui.UserWidgetInstance",
    "parent": "flxNoRecipient",
    "pf": "frmPayAPerson",
    "snaptogrid": true,
    "sourceUserWidget": "i8e8582709d24069b964c8dd410ce170",
    "vizprops": {
        "hidewidgethierarchy": false
    },
    "wType": "UserWidgetInstance"
}