{
    "@class": "com.kony.gen.viz.model.component.KVizLabel",
    "DNDConfig": null,
    "_height_": {
        "type": "ref",
        "value": "preferred"
    },
    "_left_": {
        "type": "string",
        "value": "84dp"
    },
    "_margin_": [
        1,
        1,
        1,
        1
    ],
    "_padding_": [
        0,
        0,
        0,
        0
    ],
    "_skin_": "s18d3552bc4143560f6e4fdb2ed4fea0",
    "_text_": "Add New Account - Confirmation",
    "_top_": {
        "type": "string",
        "value": "3dp"
    },
    "_width_": {
        "type": "ref",
        "value": "preferred"
    },
    "_wrapping_": 2,
    "android": {
        "textStyle": {
            "letterSpacing": 0,
            "strikeThrough": false
        }
    },
    "canUpdateUI": true,
    "containerweight": 100,
    "contentalignment": 4,
    "id": "lblHeader",
    "info": null,
    "ipad": {
        "psp": {
            "wrapping": 2
        }
    },
    "iphone": {
        "psp": {
            "wrapping": 2
        }
    },
    "iscustomlayout": false,
    "isvisible": true,
    "kuid": "a273836f569c42a1aea9dfb9dbe75e73",
    "name": "kony.ui.Label",
    "parent": "flxMain",
    "pf": "frmDomesticAddBeneficiaryConfirm",
    "responsiveData": {
        "b1": {
            "left": {
                "type": "string",
                "value": "85dp"
            },
            "top": {
                "type": "string",
                "value": "25dp"
            }
        },
        "b2": {
            "left": {
                "type": "string",
                "value": "24dp"
            },
            "top": {
                "type": "string",
                "value": "25dp"
            }
        },
        "b3": {
            "isVisible": false
        },
        "b4": {
            "left": {
                "type": "string",
                "value": "85dp"
            },
            "top": {
                "type": "string",
                "value": "25dp"
            }
        }
    },
    "retaincontentalignment": false,
    "retainflexpositionproperties": false,
    "tooltip": "",
    "wType": "Label",
    "zindex": 1
}