{
    "AS_Button_d88e9a43d629408fb1faf42f0c936df8": {
        "id": "AS_Button_d88e9a43d629408fb1faf42f0c936df8",
        "type": "ACTION_SEQUENCE",
        "params": [{
            "datatype": "collection",
            "name": "eventobject"
        }, {
            "datatype": "collection",
            "name": "context"
        }],
        "contextObj": {
            "name": "segBillPayManagePayeesEditMobile",
            "type": "templates",
            "platform": null,
            "KUID": "da93af0e649d4856a5382acb6ce3c363"
        },
        "language": "js",
        "actions": [{
            "id": "ADD_SNIPPET_ide_onClick_ia65e0f391f64c9f9dc3e9da16efa055",
            "type": "ADD_SNIPPET",
            "codeSnippet": "kony.print(\"Cancel clicked\");",
            "callbackType": null
        }]
    }
}