{
    "AS_Button_e478105bcc6d4ae48763cdf7b74fdc64": {
        "id": "AS_Button_e478105bcc6d4ae48763cdf7b74fdc64",
        "type": "ACTION_SEQUENCE",
        "params": [{
            "datatype": "collection",
            "name": "eventobject"
        }, {
            "datatype": "collection",
            "name": "context"
        }],
        "contextObj": {
            "name": "segSendRequest",
            "type": "templates",
            "platform": "",
            "KUID": "ebca1cd8c322497fb0217d088b56bc03"
        },
        "language": "js",
        "actions": [{
            "id": "ADD_SNIPPET__e83508ab7ef4478684a9c52f73244dcb",
            "type": "ADD_SNIPPET",
            "codeSnippet": "this.showSendMoney();",
            "parentId": null,
            "callbackType": null
        }]
    }
}