{
    "AS_Button_f3b78f099c974dad89d9829fab7fbaf4": {
        "id": "AS_Button_f3b78f099c974dad89d9829fab7fbaf4",
        "type": "ACTION_SEQUENCE",
        "params": [{
            "datatype": "collection",
            "name": "eventobject"
        }],
        "contextObj": {
            "name": "frmBillPay",
            "type": "forms",
            "platform": "",
            "KUID": "h754f638fe6d4c56aac376a2f3adf18b"
        },
        "language": "js",
        "actions": [{
            "id": "ADD_SNIPPET__e1408355a71f461ca37ca4f3420abcc3",
            "type": "ADD_SNIPPET",
            "codeSnippet": "this.view.payABill.setVisibility(false);\nthis.view.tableView.setVisibility(true);",
            "parentId": null,
            "callbackType": null
        }]
    }
}