{
    "AS_Button_he890d20f30c47dea2541042350ee0d2": {
        "id": "AS_Button_he890d20f30c47dea2541042350ee0d2",
        "type": "ACTION_SEQUENCE",
        "params": [{
            "datatype": "collection",
            "name": "eventobject"
        }, {
            "datatype": "collection",
            "name": "context"
        }],
        "language": "js",
        "actions": [{
            "id": "ADD_SNIPPET_ide_onClick_d56e6879fdbf420e925d82a2d674a681",
            "type": "ADD_SNIPPET",
            "codeSnippet": "this.MakeTransferAction();",
            "callbackType": null
        }]
    }
}