{
    "AS_Button_j29f1d9ee1e144f3b5ca078e8be011b0": {
        "id": "AS_Button_j29f1d9ee1e144f3b5ca078e8be011b0",
        "type": "ACTION_SEQUENCE",
        "params": [{
            "datatype": "collection",
            "name": "eventobject"
        }, {
            "datatype": "collection",
            "name": "context"
        }],
        "contextObj": {
            "name": "segManageRecipientSelectedMobileP2P",
            "type": "templates",
            "platform": null,
            "KUID": "da40e430558e4935911fa90b49b1cad4"
        },
        "language": "js",
        "actions": [{
            "id": "ADD_SNIPPET_ide_onClick_f6a4bc4b0524478491cb15deecf6330e",
            "type": "ADD_SNIPPET",
            "codeSnippet": "//adding this comment due to platform bug.",
            "callbackType": null
        }]
    }
}