{
    "AS_Button_bc9ce113cc5441418e419f3346a5a8b0": {
        "id": "AS_Button_bc9ce113cc5441418e419f3346a5a8b0",
        "type": "ACTION_SEQUENCE",
        "params": [{
            "datatype": "collection",
            "name": "eventobject"
        }],
        "contextObj": {
            "name": "frmPayAPerson",
            "type": "forms",
            "platform": "",
            "KUID": "b19e9f55ebab4254b5eadf20d2a4c409"
        },
        "language": "js",
        "actions": [{
            "id": "ADD_SNIPPET__d4cb7d9c117142e787a88314362609c0",
            "type": "ADD_SNIPPET",
            "codeSnippet": "this.presenter.loadPayAPersonflx();",
            "parentId": null,
            "callbackType": null
        }]
    }
}