{
    "AS_Button_cd5e1fa2c1264f24b53ed40f3f16d3bc": {
        "id": "AS_Button_cd5e1fa2c1264f24b53ed40f3f16d3bc",
        "type": "ACTION_SEQUENCE",
        "params": [{
            "datatype": "collection",
            "name": "eventobject"
        }],
        "contextObj": {
            "name": "frmCustomerFeedback",
            "type": "forms",
            "platform": "",
            "KUID": "f9a0e499fabf424ba4982ce72ecd3bd2"
        },
        "language": "js",
        "actions": [{
            "id": "ADD_SNIPPET__f3a4271bc3fd4ecf826a00086b5e7f7e",
            "type": "ADD_SNIPPET",
            "codeSnippet": "this.addCancelAction();",
            "parentId": null,
            "callbackType": null
        }]
    }
}