{
    "AS_Button_aba627d5b73a4d8996bbbeb38ad992a9": {
        "id": "AS_Button_aba627d5b73a4d8996bbbeb38ad992a9",
        "type": "ACTION_SEQUENCE",
        "params": [{
            "datatype": "collection",
            "name": "eventobject"
        }, {
            "datatype": "collection",
            "name": "context"
        }],
        "language": "js",
        "actions": [{
            "id": "ADD_SNIPPET_ide_onClick_b441a97dbde94ddebc9a13adafe2a810",
            "type": "ADD_SNIPPET",
            "codeSnippet": "//adding this comment due to platform bug.",
            "callbackType": null
        }]
    }
}