{
    "AS_Button_c8c6fc3a0dc64df48e8e5a01c3b4f103": {
        "id": "AS_Button_c8c6fc3a0dc64df48e8e5a01c3b4f103",
        "type": "ACTION_SEQUENCE",
        "params": [{
            "datatype": "collection",
            "name": "eventobject"
        }],
        "contextObj": {
            "name": "frmAccountsDetails",
            "type": "forms",
            "platform": "",
            "KUID": "f22d64f7cb454ad980b530de61c4240a"
        },
        "language": "js",
        "actions": [{
            "id": "ADD_SNIPPET__j739012e824544679378444c225c01f8",
            "type": "ADD_SNIPPET",
            "codeSnippet": "this.toggleSearchResults();",
            "parentId": null,
            "callbackType": null
        }]
    }
}