{
    "AS_Button_j5fcc52bd7a8438ab3c5fec1945cd17b": {
        "id": "AS_Button_j5fcc52bd7a8438ab3c5fec1945cd17b",
        "type": "ACTION_SEQUENCE",
        "params": [{
            "datatype": "collection",
            "name": "eventobject"
        }],
        "contextObj": {
            "name": "frmNotificationsAndMessages",
            "type": "forms",
            "platform": "",
            "KUID": "a83a23bb52bc4894a44b027a89964c1b"
        },
        "language": "js",
        "actions": [{
            "id": "ADD_SNIPPET__ja295fb88e4144ada90c8c3adb9e6275",
            "type": "ADD_SNIPPET",
            "codeSnippet": "this.SortAnimate();",
            "parentId": null,
            "callbackType": null
        }]
    }
}