{
    "AS_Button_gfff62553f6b4fbfbe5a909dbc35f8c5": {
        "id": "AS_Button_gfff62553f6b4fbfbe5a909dbc35f8c5",
        "type": "ACTION_SEQUENCE",
        "params": [{
            "datatype": "collection",
            "name": "eventobject"
        }],
        "contextObj": {
            "name": "frmCustomerFeedback",
            "type": "forms",
            "platform": "",
            "KUID": "f9a0e499fabf424ba4982ce72ecd3bd2"
        },
        "language": "js",
        "actions": [{
            "id": "ADD_SNIPPET__f5f7f6a384f54655b385a5ba588cc053",
            "type": "ADD_SNIPPET",
            "codeSnippet": "this.addSubmitAction();",
            "parentId": null,
            "callbackType": null
        }]
    }
}