{
    "AS_Button_f04d450f44a640cb92c6e2b6616e6651": {
        "id": "AS_Button_f04d450f44a640cb92c6e2b6616e6651",
        "type": "ACTION_SEQUENCE",
        "params": [{
            "datatype": "collection",
            "name": "eventobject"
        }],
        "contextObj": {
            "name": "frmProfileManagement",
            "type": "forms",
            "platform": "",
            "KUID": "e136103788ec406cab0b1d0f2087f12b"
        },
        "language": "js",
        "actions": [{
            "id": "INVOKE_FUNCTION___b7de196433d142848aa9406f141c9bfb",
            "type": "INVOKE_FUNCTION",
            "sequenceKUID": "showPhoneNumbers",
            "display": "showPhoneNumbers",
            "inputparams": [],
            "parentId": null,
            "callbackType": null,
            "disabled": null,
            "source": "controller"
        }]
    }
}