{
    "AS_Button_g2c9b83b8a254cfcbf89ef3b3610d22e": {
        "id": "AS_Button_g2c9b83b8a254cfcbf89ef3b3610d22e",
        "type": "ACTION_SEQUENCE",
        "params": [{
            "datatype": "collection",
            "name": "eventobject"
        }],
        "contextObj": {
            "name": "frmAddInternalAccountEur",
            "type": "forms",
            "platform": null,
            "KUID": "f6d47ee3559a49b9a84a9fcd7d6fce64"
        },
        "language": "js",
        "actions": [{
            "id": "ADD_SNIPPET_ide_onClick_a54536b822ea4c5fb6e68fb8d147f6e0",
            "type": "ADD_SNIPPET",
            "codeSnippet": "this.showPrivacyPolicyPage();",
            "callbackType": null
        }]
    }
}