{
    "AS_Button_a57c53e7484549f1ae02291750bd5997": {
        "id": "AS_Button_a57c53e7484549f1ae02291750bd5997",
        "type": "ACTION_SEQUENCE",
        "params": [{
            "datatype": "collection",
            "name": "eventobject"
        }],
        "contextObj": {
            "name": "frmAddInternalAccountEur",
            "type": "forms",
            "platform": null,
            "KUID": "f6d47ee3559a49b9a84a9fcd7d6fce64"
        },
        "language": "js",
        "actions": [{
            "id": "ADD_SNIPPET_ide_onClick_g3715f0576094378b95f19c1aacb1825",
            "type": "ADD_SNIPPET",
            "codeSnippet": "this.showFAQs();",
            "callbackType": null
        }]
    }
}