{
    "AS_Button_g4938c49386f4a188a0717ce2d4b874c": {
        "id": "AS_Button_g4938c49386f4a188a0717ce2d4b874c",
        "type": "ACTION_SEQUENCE",
        "params": [{
            "datatype": "collection",
            "name": "eventobject"
        }],
        "contextObj": {
            "name": "frmMFATransactions",
            "type": "forms",
            "platform": "",
            "KUID": "ed262e310404497fa20d94e4a05c5085"
        },
        "language": "js",
        "actions": []
    }
}