{
    "AS_Button_ab4bde1d6283404f93f34a6576b18779": {
        "id": "AS_Button_ab4bde1d6283404f93f34a6576b18779",
        "type": "ACTION_SEQUENCE",
        "params": [{
            "datatype": "collection",
            "name": "eventobject"
        }],
        "contextObj": {
            "name": "frmAddInternalAccount",
            "type": "forms",
            "platform": "",
            "KUID": "i0c7320b49fe40e1a3a168c136395e15"
        },
        "language": "js",
        "actions": [{
            "id": "ADD_SNIPPET__aa55b7493b3f4e35b32066e5b4584357",
            "type": "ADD_SNIPPET",
            "codeSnippet": "var transferModule = kony.mvc.MDAApplication.getSharedInstance().getModuleManager().getModule(\"TransferModule\");\ntransferModule.presentationController.cancelTransaction();",
            "parentId": null,
            "callbackType": null
        }]
    }
}