{
    "AS_Button_gef28f83bc474a4e8195a79b3d57c4c0": {
        "id": "AS_Button_gef28f83bc474a4e8195a79b3d57c4c0",
        "type": "ACTION_SEQUENCE",
        "params": [{
            "datatype": "collection",
            "name": "eventobject"
        }, {
            "datatype": "collection",
            "name": "context"
        }],
        "language": "js",
        "actions": [{
            "id": "ADD_SNIPPET_ide_onClick_g4364a3ba4564fb2a0bb1b3c3c6536f3",
            "type": "ADD_SNIPPET",
            "codeSnippet": "this.MakeTransferAction();",
            "callbackType": null
        }]
    }
}