{
    "AS_Button_bbc32bf4bd7a4c3f86e8d9ef66d31371": {
        "id": "AS_Button_bbc32bf4bd7a4c3f86e8d9ef66d31371",
        "type": "ACTION_SEQUENCE",
        "params": [{
            "datatype": "collection",
            "name": "eventobject"
        }],
        "contextObj": {
            "name": "frmEnrollNow",
            "type": "forms",
            "platform": null,
            "KUID": "bd78051f2239477699cd5b3d036cf72a"
        },
        "language": "js",
        "actions": [{
            "id": "ADD_SNIPPET_ide_onClick_e2aac70994074b9f8de748e74d6a9486",
            "type": "ADD_SNIPPET",
            "codeSnippet": "this.useCVVForReset();",
            "callbackType": null
        }]
    }
}