{
    "AS_Button_g8a734511755499cb473c3ed750c71aa": {
        "id": "AS_Button_g8a734511755499cb473c3ed750c71aa",
        "type": "ACTION_SEQUENCE",
        "params": [{
            "datatype": "collection",
            "name": "eventobject"
        }],
        "contextObj": {
            "name": "frmAddExternalAccountEur",
            "type": "forms",
            "platform": null,
            "KUID": "b4d3cf5fda1141e78858debbef0eb064"
        },
        "language": "js",
        "actions": [{
            "id": "ADD_SNIPPET_ide_onClick_e50b2f67273842478d47f845b3ebbe0c",
            "type": "ADD_SNIPPET",
            "codeSnippet": "this.showLocateUsPage();",
            "callbackType": null
        }]
    }
}