{
    "AS_Button_g73456bd9d9547079e1c558e28a4caae": {
        "id": "AS_Button_g73456bd9d9547079e1c558e28a4caae",
        "type": "ACTION_SEQUENCE",
        "params": [{
            "datatype": "collection",
            "name": "eventobject"
        }],
        "contextObj": {
            "name": "frmEnrollNow",
            "type": "forms",
            "platform": null,
            "KUID": "bd78051f2239477699cd5b3d036cf72a"
        },
        "language": "js",
        "actions": [{
            "id": "ADD_SNIPPET_ide_onClick_j589049d9e714423852abffdf7759e94",
            "type": "ADD_SNIPPET",
            "codeSnippet": "this.showEnterOTPPage();",
            "callbackType": null
        }]
    }
}