{
    "AS_Button_b1c7912eecea44b3a715bbf59d966e2f": {
        "id": "AS_Button_b1c7912eecea44b3a715bbf59d966e2f",
        "type": "ACTION_SEQUENCE",
        "params": [{
            "datatype": "collection",
            "name": "eventobject"
        }],
        "contextObj": {
            "name": "frmLogin",
            "type": "forms",
            "platform": "",
            "KUID": "j0329c6c64654440bf366abc8de81b74"
        },
        "language": "js",
        "actions": [{
            "id": "ADD_SNIPPET__a1713b6cc8ec4239815b4cde8b122da9",
            "type": "ADD_SNIPPET",
            "codeSnippet": "this.login();",
            "parentId": null,
            "callbackType": null
        }]
    }
}