{
    "AS_Button_j21fb5485217473cb1ca5ad1b1df393e": {
        "id": "AS_Button_j21fb5485217473cb1ca5ad1b1df393e",
        "type": "ACTION_SEQUENCE",
        "params": [{
            "datatype": "collection",
            "name": "eventobject"
        }],
        "contextObj": {
            "name": "CopyfrmLogin",
            "type": "forms",
            "platform": null,
            "KUID": "d6328cf267c248a6b559c500d837ea14"
        },
        "language": "js",
        "actions": [{
            "id": "ADD_SNIPPET_ide_onClick_hd9199d3edd34905a5d45dad537e2248",
            "type": "ADD_SNIPPET",
            "codeSnippet": "this.isOTPCorrect();",
            "callbackType": null
        }]
    }
}