{
    "AS_Button_ea80a74cca2c4e8298dc099a909c7d46": {
        "id": "AS_Button_ea80a74cca2c4e8298dc099a909c7d46",
        "type": "ACTION_SEQUENCE",
        "params": [{
            "datatype": "collection",
            "name": "eventobject"
        }],
        "contextObj": {
            "name": "frmBillPay",
            "type": "forms",
            "platform": "",
            "KUID": "h754f638fe6d4c56aac376a2f3adf18b"
        },
        "language": "js",
        "actions": [{
            "id": "ADD_SNIPPET__cdd6cc5f927b4bf39475adaa7f2f3f32",
            "type": "ADD_SNIPPET",
            "codeSnippet": "this.setAllPayeesSegmentData();",
            "parentId": null,
            "callbackType": null
        }]
    }
}