{
    "AS_Button_g163911b088649da9d02abd363b1fb35": {
        "id": "AS_Button_g163911b088649da9d02abd363b1fb35",
        "type": "ACTION_SEQUENCE",
        "params": [{
            "datatype": "collection",
            "name": "eventobject"
        }],
        "contextObj": {
            "name": "frmLogin",
            "type": "forms",
            "platform": "",
            "KUID": "j0329c6c64654440bf366abc8de81b74"
        },
        "language": "js",
        "actions": [{
            "id": "ADD_SNIPPET__a855fd87c52b4f0e9aefe97043f03ccc",
            "type": "ADD_SNIPPET",
            "codeSnippet": "this.login();",
            "parentId": null,
            "callbackType": null
        }]
    }
}