{
    "AS_Button_e403fbfc62a94641bc327871cd4e89c8": {
        "id": "AS_Button_e403fbfc62a94641bc327871cd4e89c8",
        "type": "ACTION_SEQUENCE",
        "params": [{
            "datatype": "collection",
            "name": "eventobject"
        }],
        "contextObj": {
            "name": "frmBillPay",
            "type": "forms",
            "platform": "",
            "KUID": "h754f638fe6d4c56aac376a2f3adf18b"
        },
        "language": "js",
        "actions": [{
            "id": "ADD_SNIPPET_ide_onClick_a6fc9bfbcdfa4f99899d8e5e8344b265",
            "type": "ADD_SNIPPET",
            "codeSnippet": "",
            "callbackType": null
        }]
    }
}