{
    "AS_Button_eced57896362414484d96e9292f373b1": {
        "id": "AS_Button_eced57896362414484d96e9292f373b1",
        "type": "ACTION_SEQUENCE",
        "params": [{
            "datatype": "collection",
            "name": "eventobject"
        }],
        "language": "js",
        "actions": [{
            "id": "ADD_SNIPPET_ide_onClick_he9012a23299414c9e806133609ecb9d",
            "type": "ADD_SNIPPET",
            "codeSnippet": "this.showFlxAddPayeeAck();",
            "callbackType": null
        }]
    }
}