{
    "AS_Button_g287639d2bf6431bb6ee735832178a67": {
        "id": "AS_Button_g287639d2bf6431bb6ee735832178a67",
        "type": "ACTION_SEQUENCE",
        "params": [{
            "datatype": "collection",
            "name": "eventobject"
        }, {
            "datatype": "collection",
            "name": "context"
        }],
        "language": "js",
        "actions": [{
            "id": "ADD_SNIPPET_ide_onClick_a90d81c0fe214fabbd14a7cc72c05436",
            "type": "ADD_SNIPPET",
            "codeSnippet": "this.DeleteAction();",
            "callbackType": null
        }]
    }
}