{
    "AS_Button_e77b16ed0b3c4bdc8e16829452579a01": {
        "id": "AS_Button_e77b16ed0b3c4bdc8e16829452579a01",
        "type": "ACTION_SEQUENCE",
        "params": [{
            "datatype": "collection",
            "name": "eventobject"
        }, {
            "datatype": "collection",
            "name": "context"
        }],
        "contextObj": {
            "name": "segBillPayAllPayeesMobile",
            "type": "templates",
            "platform": null,
            "KUID": "ca19227e83fb4b3a8eac3e9cef824d34"
        },
        "language": "js",
        "actions": [{
            "id": "ADD_SNIPPET_ide_onClick_d8fe2ebdf00449489ba08c2af66b52b2",
            "type": "ADD_SNIPPET",
            "codeSnippet": "this.executeOnParent(\"activateEBill\");",
            "callbackType": null
        }]
    }
}