{
    "AS_Button_c9bcc39fccc3473d93e8cadc91e1c20d": {
        "id": "AS_Button_c9bcc39fccc3473d93e8cadc91e1c20d",
        "type": "ACTION_SEQUENCE",
        "params": [{
            "datatype": "collection",
            "name": "eventobject"
        }],
        "contextObj": {
            "name": "frmConfirmEur",
            "type": "forms",
            "platform": null,
            "KUID": "bd60bcd5cc2045c0b96a76158d5137ff"
        },
        "language": "js",
        "actions": [{
            "id": "ADD_SNIPPET_ide_onClick_dfb0788a21bd4f47a14e1169c01f35fe",
            "type": "ADD_SNIPPET",
            "codeSnippet": "this.showFAQs();",
            "callbackType": null
        }]
    }
}