{
    "AS_Button_ffd066fc1e5d45e8b5fddc4ab74d9119": {
        "id": "AS_Button_ffd066fc1e5d45e8b5fddc4ab74d9119",
        "type": "ACTION_SEQUENCE",
        "params": [{
            "datatype": "collection",
            "name": "eventobject"
        }, {
            "datatype": "collection",
            "name": "context"
        }],
        "contextObj": {
            "name": "segMakeTransferWireTransfersSelected",
            "type": "templates",
            "platform": "",
            "KUID": "be5e79c772964b6aa7a4b49263e527d0"
        },
        "language": "js",
        "actions": [{
            "id": "ADD_SNIPPET__f51326729034461d966c6a0b7cda1a7e",
            "type": "ADD_SNIPPET",
            "codeSnippet": "this.MakeTransferAction();",
            "parentId": null,
            "callbackType": null
        }]
    }
}