{
    "AS_Button_cc3f77ea225848dea64bb69dba4453f4": {
        "id": "AS_Button_cc3f77ea225848dea64bb69dba4453f4",
        "type": "ACTION_SEQUENCE",
        "params": [{
            "datatype": "collection",
            "name": "eventobject"
        }],
        "contextObj": {
            "KUID": "c9a13767ee7a429e97af03e1f3a4ca84",
            "name": "frmBBUsersDashboard",
            "platform": "",
            "type": "forms"
        },
        "language": "js",
        "actions": [{
            "id": "ADD_SNIPPET__eab4751d92ef43ca8ee7d0c14f54f636",
            "type": "ADD_SNIPPET",
            "codeSnippet": "this.hideApprovalRequestPopup();",
            "parentId": null,
            "callbackType": null
        }]
    }
}