{
    "AS_Button_ea4cbdc4491248859c837b9c1acf0baa": {
        "id": "AS_Button_ea4cbdc4491248859c837b9c1acf0baa",
        "type": "ACTION_SEQUENCE",
        "params": [{
            "datatype": "collection",
            "name": "eventobject"
        }, {
            "datatype": "collection",
            "name": "context"
        }],
        "contextObj": {
            "name": "segSendRequestSelected",
            "type": "templates",
            "platform": "",
            "KUID": "h6f637e9455f4e19b766fbc2ebe8c496"
        },
        "language": "js",
        "actions": [{
            "id": "ADD_SNIPPET__b3a6b5043ba845ea9bd3755c30b9d83a",
            "type": "ADD_SNIPPET",
            "codeSnippet": "this.showRequestMoney();",
            "parentId": null,
            "callbackType": null
        }]
    }
}