{
    "AS_Button_d3cdb7d2263e4ccfab57243a8af2e55b": {
        "id": "AS_Button_d3cdb7d2263e4ccfab57243a8af2e55b",
        "type": "ACTION_SEQUENCE",
        "params": [{
            "datatype": "collection",
            "name": "eventobject"
        }],
        "contextObj": {
            "name": "frmNotificationsAndMessages",
            "type": "forms",
            "platform": "",
            "KUID": "a83a23bb52bc4894a44b027a89964c1b"
        },
        "language": "js",
        "actions": [{
            "id": "ADD_SNIPPET__c435d8e5b75242558ddbacd9fc556857",
            "type": "ADD_SNIPPET",
            "codeSnippet": "this.setDeletedMessagesSegmentData();",
            "parentId": null,
            "callbackType": null
        }]
    }
}