{
    "AS_Button_d035b4021f2d422fbdc1410deeff8386": {
        "id": "AS_Button_d035b4021f2d422fbdc1410deeff8386",
        "type": "ACTION_SEQUENCE",
        "params": [{
            "datatype": "collection",
            "name": "eventobject"
        }, {
            "datatype": "collection",
            "name": "context"
        }],
        "language": "js",
        "actions": [{
            "id": "ADD_SNIPPET_ide_onClick_g53212b8494241e3b983db09fde32e27",
            "type": "ADD_SNIPPET",
            "codeSnippet": "//",
            "callbackType": null
        }]
    }
}