{
    "AS_Button_g82be354e5924affb695be07efc6c517": {
        "id": "AS_Button_g82be354e5924affb695be07efc6c517",
        "type": "ACTION_SEQUENCE",
        "params": [{
            "datatype": "collection",
            "name": "eventobject"
        }],
        "contextObj": {
            "name": "frmTransfersEur",
            "type": "forms",
            "platform": null,
            "KUID": "ce91c8ed58094b46825ffa2ecbf979d7"
        },
        "language": "js",
        "actions": [{
            "id": "ADD_SNIPPET_ide_onClick_a8de291d47c14b6fbd10e1dedd30b595",
            "type": "ADD_SNIPPET",
            "codeSnippet": "this.showFAQs();",
            "callbackType": null
        }]
    }
}