{
    "AS_Button_ccb80f3ec04d4bcfb0f5ebc6ab201305": {
        "id": "AS_Button_ccb80f3ec04d4bcfb0f5ebc6ab201305",
        "type": "ACTION_SEQUENCE",
        "name": "AS_Button_cf45d0af4ef64eb4b1e88f8ea5b792ed",
        "params": [{
            "datatype": "collection",
            "name": "eventobject"
        }],
        "contextObj": {
            "name": "frmBillPay",
            "type": "forms",
            "platform": "",
            "KUID": "h754f638fe6d4c56aac376a2f3adf18b"
        },
        "language": "js",
        "actions": [{
            "id": "ADD_SNIPPET__c6129c63194145df918008061deecf3d",
            "type": "ADD_SNIPPET",
            "codeSnippet": "this.setManagePayeesSegmentData();",
            "parentId": null,
            "callbackType": null
        }]
    }
}