{
    "AS_Button_dbde2a0598bf421fb52da8a663db7e5c": {
        "id": "AS_Button_dbde2a0598bf421fb52da8a663db7e5c",
        "type": "ACTION_SEQUENCE",
        "params": [{
            "datatype": "collection",
            "name": "eventobject"
        }],
        "contextObj": {
            "name": "frmConfirmAccount",
            "type": "forms",
            "platform": "",
            "KUID": "fa720a3845e84444a32d1129de3a2f6b"
        },
        "language": "js",
        "actions": [{
            "id": "ADD_SNIPPET__e5f63dae0cb44250a2abef566eac8c6f",
            "type": "ADD_SNIPPET",
            "codeSnippet": "var transferModule = kony.mvc.MDAApplication.getSharedInstance().getModuleManager().getModule(\"TransferModule\");\ntransferModule.presentationController.modifyAccountInfo();",
            "parentId": null,
            "callbackType": null
        }]
    }
}