{
    "AS_Button_i87958957ad14f06a17b8c76c814d327": {
        "id": "AS_Button_i87958957ad14f06a17b8c76c814d327",
        "type": "ACTION_SEQUENCE",
        "params": [{
            "datatype": "collection",
            "name": "eventobject"
        }],
        "contextObj": {
            "name": "frmPayAPerson",
            "type": "forms",
            "platform": "",
            "KUID": "b19e9f55ebab4254b5eadf20d2a4c409"
        },
        "language": "js",
        "actions": [{
            "id": "ADD_SNIPPET__a5ef866c815843f49266c78978e71fe7",
            "type": "ADD_SNIPPET",
            "codeSnippet": "this.showConfirmationAddReceipient();",
            "parentId": null,
            "callbackType": null
        }]
    }
}