{
    "AS_Button_b9c5c67b25744ccca6955e79546464b5": {
        "id": "AS_Button_b9c5c67b25744ccca6955e79546464b5",
        "type": "ACTION_SEQUENCE",
        "params": [{
            "datatype": "collection",
            "name": "eventobject"
        }],
        "contextObj": {
            "name": "frmAccountsLanding",
            "type": "forms",
            "platform": "",
            "KUID": "c0567b2e5ece4b0cbbe1b35e3c8f3103"
        },
        "language": "js",
        "actions": [{
            "id": "NAVIGATE_TO_FORM___g1082412cd1149009e55be79c806c59a",
            "type": "NAVIGATE_TO_FORM",
            "formId": "frmP2PSendMoney",
            "friendlyName": "frmP2PSendMoney",
            "formKUID": "g5f140022172483bab1cccd6202ddc65",
            "mappings": {},
            "mappingsOrder": [],
            "parentId": "",
            "enableMappingEditor": true,
            "package": "PayAPersonModuleNew",
            "isCustomInput": false
        }]
    }
}