{
    "AS_Button_ga3b76143e334adfb07ce21237208572": {
        "id": "AS_Button_ga3b76143e334adfb07ce21237208572",
        "type": "ACTION_SEQUENCE",
        "params": [{
            "datatype": "collection",
            "name": "eventobject"
        }, {
            "datatype": "collection",
            "name": "context"
        }],
        "language": "js",
        "actions": [{
            "id": "ADD_SNIPPET_ide_onClick_f6e230c21be2410aa8381717634e580b",
            "type": "ADD_SNIPPET",
            "codeSnippet": "this.viewactivitypopup();",
            "callbackType": null
        }]
    }
}