{
    "AS_Button_dabb83e63b6f4fc0a794fd14e6ab2383": {
        "id": "AS_Button_dabb83e63b6f4fc0a794fd14e6ab2383",
        "type": "ACTION_SEQUENCE",
        "params": [{
            "datatype": "collection",
            "name": "eventobject"
        }, {
            "datatype": "collection",
            "name": "context"
        }],
        "language": "js",
        "actions": [{
            "id": "ADD_SNIPPET_ide_onClick_dcafad08a3f643e5914f24026a53c631",
            "type": "ADD_SNIPPET",
            "codeSnippet": "this.showEditRule();",
            "callbackType": null
        }]
    }
}