{
    "AS_Button_c97e7874dd484872912a1c50211678cb": {
        "id": "AS_Button_c97e7874dd484872912a1c50211678cb",
        "type": "ACTION_SEQUENCE",
        "params": [{
            "datatype": "collection",
            "name": "eventobject"
        }],
        "contextObj": {
            "name": "frmPayDueAmount",
            "type": "forms",
            "platform": "",
            "KUID": "ba0b4f38b88d4ad7a2c69bb7d0d38c44"
        },
        "language": "js",
        "actions": [{
            "id": "ADD_SNIPPET__i3490f1b49b841d7beae974e26147d48",
            "type": "ADD_SNIPPET",
            "codeSnippet": "this.cancelPayDueAmount();",
            "parentId": null,
            "callbackType": null
        }]
    }
}