{
    "AS_Button_hde1d52fd5874c028798ea0a87432258": {
        "id": "AS_Button_hde1d52fd5874c028798ea0a87432258",
        "type": "ACTION_SEQUENCE",
        "params": [{
            "datatype": "collection",
            "name": "eventobject"
        }],
        "contextObj": {
            "name": "frmEnrollNow",
            "type": "forms",
            "platform": "",
            "KUID": "bd78051f2239477699cd5b3d036cf72a"
        },
        "language": "js",
        "actions": [{
            "id": "ADD_SNIPPET__i0b707a9615042d489e50667ada66f41",
            "type": "ADD_SNIPPET",
            "codeSnippet": "this.goToLogin();",
            "parentId": null,
            "callbackType": null
        }]
    }
}