{
    "AS_Button_h2dd44b258e748fa92f01ef4a32f31e8": {
        "id": "AS_Button_h2dd44b258e748fa92f01ef4a32f31e8",
        "type": "ACTION_SEQUENCE",
        "params": [{
            "datatype": "collection",
            "name": "eventobject"
        }],
        "language": "js",
        "actions": [{
            "id": "ADD_SNIPPET_ide_onClick_gfda042b8dc746b9a19fae30fd8b7313",
            "type": "ADD_SNIPPET",
            "codeSnippet": "this.showAddRecipient();",
            "callbackType": null
        }]
    }
}