{
    "AS_Button_c96b7bf2562645de8e17400ddbf0d2e2": {
        "id": "AS_Button_c96b7bf2562645de8e17400ddbf0d2e2",
        "type": "ACTION_SEQUENCE",
        "name": "AS_Button_d085657f6eaa43a2bbeee87a454c56a2",
        "params": [{
            "datatype": "collection",
            "name": "eventobject"
        }],
        "contextObj": {
            "name": "frmBillPay",
            "type": "forms",
            "platform": "",
            "KUID": "h754f638fe6d4c56aac376a2f3adf18b"
        },
        "language": "js",
        "actions": [{
            "id": "ADD_SNIPPET__e46ff98e2c3744b0b0b32946a1fd7fac",
            "type": "ADD_SNIPPET",
            "codeSnippet": "this.setPaymentDueSegmentData();",
            "parentId": null,
            "callbackType": null
        }]
    }
}