{
    "AS_Button_b93968ffe2ee4497adffbc2d223f526b": {
        "id": "AS_Button_b93968ffe2ee4497adffbc2d223f526b",
        "type": "ACTION_SEQUENCE",
        "params": [{
            "datatype": "collection",
            "name": "eventobject"
        }],
        "contextObj": {
            "name": "frmAddExternalAccountEur",
            "type": "forms",
            "platform": null,
            "KUID": "b4d3cf5fda1141e78858debbef0eb064"
        },
        "language": "js",
        "actions": [{
            "id": "ADD_SNIPPET_ide_onClick_j663f77c6c4e48d298ae17bd9e03c8b8",
            "type": "ADD_SNIPPET",
            "codeSnippet": "var transferModule = kony.mvc.MDAApplication.getSharedInstance().getModuleManager().getModule(\"TransferModule\");\ntransferModule.presentationController.cancelTransaction();",
            "callbackType": null
        }]
    }
}