{
    "AS_Button_ac13ef4c4026493c95c7d96fc379579f": {
        "id": "AS_Button_ac13ef4c4026493c95c7d96fc379579f",
        "type": "ACTION_SEQUENCE",
        "params": [{
            "datatype": "collection",
            "name": "eventobject"
        }, {
            "datatype": "collection",
            "name": "context"
        }],
        "contextObj": {
            "name": "segBillPayManagePayeesEditMobile",
            "type": "templates",
            "platform": null,
            "KUID": "da93af0e649d4856a5382acb6ce3c363"
        },
        "language": "js",
        "actions": [{
            "id": "ADD_SNIPPET_ide_onClick_b7a3c3c591bf40acacd0548ed0263947",
            "type": "ADD_SNIPPET",
            "codeSnippet": "this.showPayABill();",
            "callbackType": null
        }]
    }
}