{
    "AS_Button_e4bed968b34641e7ab839b69b400edfe": {
        "id": "AS_Button_e4bed968b34641e7ab839b69b400edfe",
        "type": "ACTION_SEQUENCE",
        "params": [{
            "datatype": "collection",
            "name": "eventobject"
        }],
        "contextObj": {
            "name": "frmAddExternalAccount",
            "type": "forms",
            "platform": "",
            "KUID": "g44e89ee0cb445b982945b6b358d77eb"
        },
        "language": "js",
        "actions": [{
            "id": "ADD_SNIPPET__a0e92379a90b4c5ab450a0652becdd92",
            "type": "ADD_SNIPPET",
            "codeSnippet": "var transferModule = kony.mvc.MDAApplication.getSharedInstance().getModuleManager().getModule(\"TransferModule\");\ntransferModule.presentationController.cancelTransaction();",
            "parentId": null,
            "callbackType": null
        }]
    }
}