{
    "AS_Button_icbd37161311418db78ee0e2410f0c99": {
        "id": "AS_Button_icbd37161311418db78ee0e2410f0c99",
        "type": "ACTION_SEQUENCE",
        "params": [{
            "datatype": "collection",
            "name": "eventobject"
        }],
        "contextObj": {
            "name": "frmNotificationsAndMessages",
            "type": "forms",
            "platform": "",
            "KUID": "a83a23bb52bc4894a44b027a89964c1b"
        },
        "language": "js",
        "actions": [{
            "id": "ADD_SNIPPET__f2c4120991a140ce970a98112b23ffa5",
            "type": "ADD_SNIPPET",
            "codeSnippet": "this.setMessagesSegmentData();",
            "parentId": null,
            "callbackType": null
        }]
    }
}