{
    "AS_Button_h3561348da50440db56e8505fa310354": {
        "id": "AS_Button_h3561348da50440db56e8505fa310354",
        "type": "ACTION_SEQUENCE",
        "name": "AS_Button_b4ab0f793b104d3e9fbdea0082d35a0a",
        "params": [{
            "datatype": "collection",
            "name": "eventobject"
        }],
        "contextObj": {
            "name": "frmBillPay",
            "type": "forms",
            "platform": "",
            "KUID": "h754f638fe6d4c56aac376a2f3adf18b"
        },
        "language": "js",
        "actions": [{
            "id": "ADD_SNIPPET__b4f08e426bd44d9bb89963d53fa2c336",
            "type": "ADD_SNIPPET",
            "codeSnippet": "this.setManagePayeesSegmentData();",
            "parentId": null,
            "callbackType": null
        }]
    }
}