{
    "AS_Button_ca8741c3755e4eb8ab4db784853557f2": {
        "id": "AS_Button_ca8741c3755e4eb8ab4db784853557f2",
        "type": "ACTION_SEQUENCE",
        "params": [{
            "datatype": "collection",
            "name": "eventobject"
        }],
        "contextObj": {
            "name": "frmEnrollNow",
            "type": "forms",
            "platform": "",
            "KUID": "bd78051f2239477699cd5b3d036cf72a"
        },
        "language": "js",
        "actions": [{
            "id": "ADD_SNIPPET__g2b260b258134ef0a3174afa379a645f",
            "type": "ADD_SNIPPET",
            "codeSnippet": "this.useCVVForReset();",
            "parentId": null,
            "callbackType": null
        }]
    }
}