{
    "AS_Button_c51f0f5be05b4ce8a8f5cb03f4e025ed": {
        "id": "AS_Button_c51f0f5be05b4ce8a8f5cb03f4e025ed",
        "type": "ACTION_SEQUENCE",
        "params": [{
            "datatype": "collection",
            "name": "eventobject"
        }],
        "language": "js",
        "actions": [{
            "id": "ADD_SNIPPET_ide_onClick_ed889c0cb2bb467eafafedd1cccc0c2a",
            "type": "ADD_SNIPPET",
            "codeSnippet": "this.showAddRecipient();",
            "callbackType": null
        }]
    }
}