{
    "AS_Button_cfe41502db464a89b7150c7d9eb5c98e": {
        "id": "AS_Button_cfe41502db464a89b7150c7d9eb5c98e",
        "type": "ACTION_SEQUENCE",
        "params": [{
            "datatype": "collection",
            "name": "eventobject"
        }],
        "contextObj": {
            "name": "frmP2PSendMoney",
            "type": "forms",
            "platform": null,
            "KUID": "g5f140022172483bab1cccd6202ddc65"
        },
        "language": "js",
        "actions": [{
            "id": "ADD_SNIPPET_ide_onClick_d31e554297c84d55a05ffe6d34c5ddaf",
            "type": "ADD_SNIPPET",
            "codeSnippet": "this.showAddRecipient();",
            "callbackType": null
        }]
    }
}