{
    "AS_Button_ea16de84649b4a0d880eeab903accae7": {
        "id": "AS_Button_ea16de84649b4a0d880eeab903accae7",
        "type": "ACTION_SEQUENCE",
        "params": [{
            "datatype": "collection",
            "name": "eventobject"
        }],
        "contextObj": {
            "name": "frmConfirmAccount",
            "type": "forms",
            "platform": "",
            "KUID": "fa720a3845e84444a32d1129de3a2f6b"
        },
        "language": "js",
        "actions": [{
            "id": "ADD_SNIPPET__be35e032f5e043aa85849d01fd25392d",
            "type": "ADD_SNIPPET",
            "codeSnippet": "this.addAccount();",
            "parentId": null,
            "callbackType": null
        }]
    }
}