{
    "AS_Button_i308e9c076b84fba9a39f94d07e16a58": {
        "id": "AS_Button_i308e9c076b84fba9a39f94d07e16a58",
        "type": "ACTION_SEQUENCE",
        "params": [{
            "datatype": "collection",
            "name": "eventobject"
        }, {
            "datatype": "collection",
            "name": "context"
        }],
        "contextObj": {
            "name": "segBillPayManagePayeesSelected",
            "type": "templates",
            "platform": "",
            "KUID": "i6b4ba8f0c5e418e8f5082c832ec6a6a"
        },
        "language": "js",
        "actions": [{
            "id": "ADD_SNIPPET__c0a45078efa34d0e8871a1190e7134af",
            "type": "ADD_SNIPPET",
            "codeSnippet": "this.showPayABill();",
            "parentId": null,
            "callbackType": null
        }]
    }
}