{
    "AS_Button_ja501d39d23e4bfa9ccdf205286f5a94": {
        "id": "AS_Button_ja501d39d23e4bfa9ccdf205286f5a94",
        "type": "ACTION_SEQUENCE",
        "params": [{
            "datatype": "collection",
            "name": "eventobject"
        }],
        "contextObj": {
            "name": "frmNotificationsAndMessages",
            "type": "forms",
            "platform": "",
            "KUID": "a83a23bb52bc4894a44b027a89964c1b"
        },
        "language": "js",
        "actions": [{
            "id": "ADD_SNIPPET__d7d869ecc0b542eda228a840c85b579e",
            "type": "ADD_SNIPPET",
            "codeSnippet": "this.setNotificationSegmentData();",
            "parentId": null,
            "callbackType": null
        }]
    }
}