{
    "AS_Button_b05e0e2be56d495689746791cc29250d": {
        "id": "AS_Button_b05e0e2be56d495689746791cc29250d",
        "type": "ACTION_SEQUENCE",
        "params": [{
            "datatype": "collection",
            "name": "eventobject"
        }],
        "contextObj": {
            "name": "frmPayAPerson",
            "type": "forms",
            "platform": "",
            "KUID": "b19e9f55ebab4254b5eadf20d2a4c409"
        },
        "language": "js",
        "actions": [{
            "id": "ADD_SNIPPET__ad1f8790f43a47f7b90c68d68f83ac0c",
            "type": "ADD_SNIPPET",
            "codeSnippet": "this.showSendMoney();",
            "parentId": null,
            "callbackType": null
        }]
    }
}