{
    "AS_Button_d25db8ab598849c38f0b2800ac747ae5": {
        "id": "AS_Button_d25db8ab598849c38f0b2800ac747ae5",
        "type": "ACTION_SEQUENCE",
        "params": [{
            "datatype": "collection",
            "name": "eventobject"
        }],
        "contextObj": {
            "name": "frmTransfers",
            "type": "forms",
            "platform": "",
            "KUID": "e9f47be88ab64765a96b1fae7d2a7720"
        },
        "language": "js",
        "actions": [{
            "id": "ADD_SNIPPET__hfa18bd7bce64cb8a611668b141c4466",
            "type": "ADD_SNIPPET",
            "codeSnippet": "this.getUserScheduledTransactions();",
            "parentId": null,
            "callbackType": null
        }]
    }
}