{
    "AS_Button_i54db45a1af241148141bac268ffd09a": {
        "id": "AS_Button_i54db45a1af241148141bac268ffd09a",
        "type": "ACTION_SEQUENCE",
        "params": [{
            "datatype": "collection",
            "name": "eventobject"
        }],
        "contextObj": {
            "name": "frmP2PSentTab",
            "type": "forms",
            "platform": null,
            "KUID": "e39ad7675eb9437cb4f5f828e777ae94"
        },
        "language": "js",
        "actions": [{
            "id": "ADD_SNIPPET_ide_onClick_d67c37651f674209bcf526fc61a9c87e",
            "type": "ADD_SNIPPET",
            "codeSnippet": "this.showAddRecipient();",
            "callbackType": null
        }]
    }
}