{
    "AS_Button_e897fd1022f548038411374e6508650d": {
        "id": "AS_Button_e897fd1022f548038411374e6508650d",
        "type": "ACTION_SEQUENCE",
        "params": [{
            "datatype": "collection",
            "name": "eventobject"
        }],
        "contextObj": {
            "name": "frmAddPayee",
            "type": "forms",
            "platform": "",
            "KUID": "a6f26a85f86b40cca7b9347666e596a5"
        },
        "language": "js",
        "actions": [{
            "id": "ADD_SNIPPET__ab92f1cdff5f4d4f8e69af063be2280e",
            "type": "ADD_SNIPPET",
            "codeSnippet": "this.showFlxVerifyPayeeInformation();",
            "parentId": null,
            "callbackType": null
        }]
    }
}