{
    "AS_Button_ge658c9ceaba4cd5ac7eb2928e8fe612": {
        "id": "AS_Button_ge658c9ceaba4cd5ac7eb2928e8fe612",
        "type": "ACTION_SEQUENCE",
        "params": [{
            "datatype": "collection",
            "name": "eventobject"
        }],
        "contextObj": {
            "name": "frmAddExternalAccountEur",
            "type": "forms",
            "platform": null,
            "KUID": "b4d3cf5fda1141e78858debbef0eb064"
        },
        "language": "js",
        "actions": [{
            "id": "ADD_SNIPPET_ide_onClick_a19999e0e0fb416aa1ad4f7d3e2e5078",
            "type": "ADD_SNIPPET",
            "codeSnippet": "this.addDomesticAccount();",
            "callbackType": null
        }]
    }
}