{
    "AS_Button_eae68c227ec64bba8bb57c06aa0db02d": {
        "id": "AS_Button_eae68c227ec64bba8bb57c06aa0db02d",
        "type": "ACTION_SEQUENCE",
        "params": [{
            "datatype": "collection",
            "name": "eventobject"
        }],
        "contextObj": {
            "name": "frmNotificationsAndMessages",
            "type": "forms",
            "platform": "",
            "KUID": "a83a23bb52bc4894a44b027a89964c1b"
        },
        "language": "js",
        "actions": [{
            "id": "ADD_SNIPPET__dccd2f61231e41b4b9fad09a389c0ef6",
            "type": "ADD_SNIPPET",
            "codeSnippet": "this.DismissNo();",
            "parentId": null,
            "callbackType": null
        }]
    }
}