{
    "AS_Button_j949d51f19d9483983477d652074833c": {
        "id": "AS_Button_j949d51f19d9483983477d652074833c",
        "type": "ACTION_SEQUENCE",
        "params": [{
            "datatype": "collection",
            "name": "eventobject"
        }],
        "contextObj": {
            "name": "CopyfrmLogin",
            "type": "forms",
            "platform": null,
            "KUID": "d6328cf267c248a6b559c500d837ea14"
        },
        "language": "js",
        "actions": [{
            "id": "ADD_SNIPPET_ide_onClick_ifc4f264a9c5401e8c86840f66aa5bed",
            "type": "ADD_SNIPPET",
            "codeSnippet": "this.useOTPForReset();",
            "callbackType": null
        }]
    }
}