{
    "AS_Button_a8cbd225a8c24429a1ccf087db634970": {
        "id": "AS_Button_a8cbd225a8c24429a1ccf087db634970",
        "type": "ACTION_SEQUENCE",
        "params": [{
            "datatype": "collection",
            "name": "eventobject"
        }, {
            "datatype": "collection",
            "name": "context"
        }],
        "contextObj": {
            "name": "segExternalAccountsTransfersSelected",
            "type": "templates",
            "platform": "",
            "KUID": "fe5456b065724018ae2969ab450fb1ca"
        },
        "language": "js",
        "actions": [{
            "id": "ADD_SNIPPET__c12c222edf604a01810ce404a8c97732",
            "type": "ADD_SNIPPET",
            "codeSnippet": "this.viewactivitypopup();",
            "parentId": null,
            "callbackType": null
        }]
    }
}