{
    "AS_Button_bea80a9d7ceb41c789879e78f31768db": {
        "id": "AS_Button_bea80a9d7ceb41c789879e78f31768db",
        "type": "ACTION_SEQUENCE",
        "params": [{
            "datatype": "collection",
            "name": "eventobject"
        }, {
            "datatype": "collection",
            "name": "context"
        }],
        "contextObj": {
            "name": "segMyRequests",
            "type": "templates",
            "platform": "",
            "KUID": "g1e7b8341c7d4941bc41216380772a54"
        },
        "language": "js",
        "actions": [{
            "id": "ADD_SNIPPET__a584f3b940694b9d81719bdf1143b768",
            "type": "ADD_SNIPPET",
            "codeSnippet": "this.showSendReminder();",
            "parentId": null,
            "callbackType": null
        }]
    }
}