{
    "AS_Button_gcd9fd3b162a4ab284c8fb12095fe64a": {
        "id": "AS_Button_gcd9fd3b162a4ab284c8fb12095fe64a",
        "type": "ACTION_SEQUENCE",
        "params": [{
            "datatype": "collection",
            "name": "eventobject"
        }],
        "contextObj": {
            "name": "CopyfrmLogin",
            "type": "forms",
            "platform": null,
            "KUID": "d6328cf267c248a6b559c500d837ea14"
        },
        "language": "js",
        "actions": [{
            "id": "ADD_SNIPPET_ide_onClick_ca20b154ba5f4804bc017130febde686",
            "type": "ADD_SNIPPET",
            "codeSnippet": "this.showResetConfirmationPage();",
            "callbackType": null
        }]
    }
}