{
    "AS_Button_jbf72d4cc14b4d448109b35a0392faa6": {
        "id": "AS_Button_jbf72d4cc14b4d448109b35a0392faa6",
        "type": "ACTION_SEQUENCE",
        "params": [{
            "datatype": "collection",
            "name": "eventobject"
        }],
        "language": "js",
        "actions": [{
            "id": "ADD_SNIPPET_ide_onClick_f72fc4b5298944d6a0b82efd31aa70f8",
            "type": "ADD_SNIPPET",
            "codeSnippet": "this.navigatetofrmtransfers();",
            "callbackType": null
        }]
    }
}