{
    "AS_Button_dd831c6802fd4329b57882908fd96ff5": {
        "id": "AS_Button_dd831c6802fd4329b57882908fd96ff5",
        "type": "ACTION_SEQUENCE",
        "params": [{
            "datatype": "collection",
            "name": "eventobject"
        }, {
            "datatype": "collection",
            "name": "context"
        }],
        "contextObj": {
            "name": "segMyRequestsSelected",
            "type": "templates",
            "platform": "",
            "KUID": "da819036eee74f1e96b4e0ccf5ac98bf"
        },
        "language": "js",
        "actions": [{
            "id": "ADD_SNIPPET__c75661c90b3846c782067bf5a71b6bf4",
            "type": "ADD_SNIPPET",
            "codeSnippet": "this.showSendReminder();",
            "parentId": null,
            "callbackType": null
        }]
    }
}