{
    "AS_Button_f27e7f3d43d04eeeba1ec4d0459893fa": {
        "id": "AS_Button_f27e7f3d43d04eeeba1ec4d0459893fa",
        "type": "ACTION_SEQUENCE",
        "params": [{
            "datatype": "collection",
            "name": "eventobject"
        }, {
            "datatype": "collection",
            "name": "context"
        }],
        "contextObj": {
            "name": "segSendRequestMobile",
            "type": "templates",
            "platform": null,
            "KUID": "ab5ec2abc8f44003ace543808af99e6f"
        },
        "language": "js",
        "actions": [{
            "id": "ADD_SNIPPET_ide_onClick_d0277661e2274ef29fa8805cc4be08a1",
            "type": "ADD_SNIPPET",
            "codeSnippet": "this.showSendMoney();",
            "callbackType": null
        }]
    }
}