{
    "AS_Button_c8501a56b0ee410e9342f332af04abe6": {
        "id": "AS_Button_c8501a56b0ee410e9342f332af04abe6",
        "type": "ACTION_SEQUENCE",
        "params": [{
            "datatype": "collection",
            "name": "eventobject"
        }, {
            "datatype": "collection",
            "name": "context"
        }],
        "contextObj": {
            "name": "segSent",
            "type": "templates",
            "platform": "",
            "KUID": "ae2d0e6583074a748f4d66a4e981e4fb"
        },
        "language": "js",
        "actions": [{
            "id": "ADD_SNIPPET__f0cd23ec959347daad6acee6c70797b1",
            "type": "ADD_SNIPPET",
            "codeSnippet": "this.showSendMoney();",
            "parentId": null,
            "callbackType": null
        }]
    }
}