{
    "AS_Button_d7d40a6c49a74592a945eda6b585ada7": {
        "id": "AS_Button_d7d40a6c49a74592a945eda6b585ada7",
        "type": "ACTION_SEQUENCE",
        "params": [{
            "datatype": "collection",
            "name": "eventobject"
        }],
        "contextObj": {
            "name": "frmAcknowledgementEur",
            "type": "forms",
            "platform": null,
            "KUID": "a6931f4472b444e19ecff6cf00252086"
        },
        "language": "js",
        "actions": [{
            "id": "ADD_SNIPPET_ide_onClick_e9452982008c4c45a6867e37b6f66638",
            "type": "ADD_SNIPPET",
            "codeSnippet": "this.showTermsAndConditions();",
            "callbackType": null
        }]
    }
}