{
    "AS_Button_bf0f3768a0d24144a464fc0acb275149": {
        "id": "AS_Button_bf0f3768a0d24144a464fc0acb275149",
        "type": "ACTION_SEQUENCE",
        "params": [{
            "datatype": "collection",
            "name": "eventobject"
        }],
        "contextObj": {
            "name": "frmNotificationsAndMessages",
            "type": "forms",
            "platform": null,
            "KUID": "a83a23bb52bc4894a44b027a89964c1b"
        },
        "language": "js",
        "actions": [{
            "id": "ADD_SNIPPET_ide_onClick_j165c3781794420385bdb7c6737976e1",
            "type": "ADD_SNIPPET",
            "codeSnippet": "this.QuitNo();",
            "callbackType": null
        }]
    }
}