{
    "AS_Button_c4527f22edb54397b7bb4143b92bde65": {
        "id": "AS_Button_c4527f22edb54397b7bb4143b92bde65",
        "type": "ACTION_SEQUENCE",
        "params": [{
            "datatype": "collection",
            "name": "eventobject"
        }],
        "contextObj": {
            "name": "frmProfileManagement",
            "type": "forms",
            "platform": "",
            "KUID": "e136103788ec406cab0b1d0f2087f12b"
        },
        "language": "js",
        "actions": []
    }
}