{
    "AS_Button_d44878810c1141e98ef4a1f39371bbc7": {
        "id": "AS_Button_d44878810c1141e98ef4a1f39371bbc7",
        "type": "ACTION_SEQUENCE",
        "params": [{
            "datatype": "collection",
            "name": "eventobject"
        }],
        "contextObj": {
            "name": "frmCustomerFeedback",
            "type": "forms",
            "platform": "",
            "KUID": "f9a0e499fabf424ba4982ce72ecd3bd2"
        },
        "language": "js",
        "actions": [{
            "id": "ADD_SNIPPET__i8363faf89de4052b8312f82f00b462e",
            "type": "ADD_SNIPPET",
            "codeSnippet": "this.addSubmitAction();",
            "parentId": null,
            "callbackType": null
        }]
    }
}