{
    "AS_Button_e59f97f0f88147f1a0a8b41b56fa5edc": {
        "id": "AS_Button_e59f97f0f88147f1a0a8b41b56fa5edc",
        "type": "ACTION_SEQUENCE",
        "params": [{
            "datatype": "collection",
            "name": "eventobject"
        }, {
            "datatype": "collection",
            "name": "context"
        }],
        "contextObj": {
            "type": "templates",
            "platform": "",
            "KUID": "f64697f671be4a3f8636c4d0f78359ee"
        },
        "language": "js",
        "actions": [{
            "id": "ADD_SNIPPET__ie59bcfa0d364b9fa16c2b64024e898a",
            "type": "ADD_SNIPPET",
            "codeSnippet": "this.showEditPhoneNumber();",
            "parentId": null,
            "callbackType": null
        }]
    }
}