{
    "AS_Button_i8d6f24c8acb4667aa070bb12201b52a": {
        "id": "AS_Button_i8d6f24c8acb4667aa070bb12201b52a",
        "type": "ACTION_SEQUENCE",
        "params": [{
            "datatype": "collection",
            "name": "eventobject"
        }, {
            "datatype": "collection",
            "name": "context"
        }],
        "language": "js",
        "actions": [{
            "id": "ADD_SNIPPET_ide_onClick_a1c69af0872e4b12ad608618dff58f5e",
            "type": "ADD_SNIPPET",
            "codeSnippet": "this.showEditRule();",
            "callbackType": null
        }]
    }
}