{
    "AS_Button_i91806b5df694193bf95cb0f3fe02c9e": {
        "id": "AS_Button_i91806b5df694193bf95cb0f3fe02c9e",
        "type": "ACTION_SEQUENCE",
        "params": [{
            "datatype": "collection",
            "name": "eventobject"
        }],
        "contextObj": {
            "name": "frmAccountsLanding",
            "type": "forms",
            "platform": "",
            "KUID": "c0567b2e5ece4b0cbbe1b35e3c8f3103"
        },
        "language": "js",
        "actions": [{
            "id": "ADD_SNIPPET__i23b770ed2674c95b61923916588baef",
            "type": "ADD_SNIPPET",
            "codeSnippet": "this.showAllAccounts();",
            "parentId": null,
            "callbackType": null
        }]
    }
}