{
    "AS_Button_faefc7d49e5a45bdb599f9c57f5daf60": {
        "id": "AS_Button_faefc7d49e5a45bdb599f9c57f5daf60",
        "type": "ACTION_SEQUENCE",
        "params": [{
            "datatype": "collection",
            "name": "eventobject"
        }],
        "contextObj": {
            "name": "frmAccountsDetails",
            "type": "forms",
            "platform": "",
            "KUID": "f22d64f7cb454ad980b530de61c4240a"
        },
        "language": "js",
        "actions": [{
            "id": "ADD_SNIPPET__cd2d03012d7f4b18b75a070c78d20090",
            "type": "ADD_SNIPPET",
            "codeSnippet": "this.presenter.Transactions.showChecks();",
            "parentId": null,
            "callbackType": null
        }]
    }
}