{
    "AS_Button_b4be11605a3e415385dafe02c09a0a37": {
        "id": "AS_Button_b4be11605a3e415385dafe02c09a0a37",
        "type": "ACTION_SEQUENCE",
        "params": [{
            "datatype": "collection",
            "name": "eventobject"
        }],
        "contextObj": {
            "name": "frmAccountsDetails",
            "type": "forms",
            "platform": "",
            "KUID": "f22d64f7cb454ad980b530de61c4240a"
        },
        "language": "js",
        "actions": [{
            "id": "ADD_SNIPPET__e11abec77f9d40b6ad7a13a1d534df75",
            "type": "ADD_SNIPPET",
            "codeSnippet": null,
            "parentId": null,
            "callbackType": null
        }, {
            "id": "ADD_SNIPPET__fa716ed7806445ff8427de3cc3206251",
            "type": "ADD_SNIPPET",
            "codeSnippet": "kony.print(\"logout popup\");\nthis.popupLogout();",
            "parentId": null,
            "callbackType": null
        }]
    }
}