{
    "AS_Button_gb9e289b163d4d2aa439ca0ee0f8dede": {
        "id": "AS_Button_gb9e289b163d4d2aa439ca0ee0f8dede",
        "type": "ACTION_SEQUENCE",
        "params": [{
            "datatype": "collection",
            "name": "eventobject"
        }, {
            "datatype": "collection",
            "name": "context"
        }],
        "language": "js",
        "actions": [{
            "id": "ADD_SNIPPET_ide_onClick_a75a5124cee14e64b254f2d9bca5ce98",
            "type": "ADD_SNIPPET",
            "codeSnippet": "this.showPayABill();",
            "callbackType": null
        }]
    }
}