{
    "AS_Button_e3926b54292940f59754151d984a71b9": {
        "id": "AS_Button_e3926b54292940f59754151d984a71b9",
        "type": "ACTION_SEQUENCE",
        "params": [{
            "datatype": "collection",
            "name": "eventobject"
        }],
        "contextObj": {
            "name": "frmCustomerFeedbackSurvey",
            "type": "forms",
            "platform": "",
            "KUID": "ad9d39604a4348e1b3724c4bc446e1b4"
        },
        "language": "js",
        "actions": [{
            "id": "ADD_SNIPPET__d503dbc3db7d494a888fc17cc661c905",
            "type": "ADD_SNIPPET",
            "codeSnippet": "this.btnCancelAction();",
            "parentId": null,
            "callbackType": null
        }]
    }
}