{
    "AS_Button_d47c0c589c664eeb9f2cf28bf1d3dbc7": {
        "id": "AS_Button_d47c0c589c664eeb9f2cf28bf1d3dbc7",
        "type": "ACTION_SEQUENCE",
        "params": [{
            "datatype": "collection",
            "name": "eventobject"
        }],
        "contextObj": {
            "name": "frmLogin",
            "type": "forms",
            "platform": "",
            "KUID": "j0329c6c64654440bf366abc8de81b74"
        },
        "language": "js",
        "actions": [{
            "id": "ADD_SNIPPET__d5820825b9224929ba3bce2fb6dcccef",
            "type": "ADD_SNIPPET",
            "codeSnippet": "this.login();",
            "parentId": null,
            "callbackType": null
        }]
    }
}