{
    "AS_Button_hd8223fdcb9547588abf2c9b59cd88d2": {
        "id": "AS_Button_hd8223fdcb9547588abf2c9b59cd88d2",
        "type": "ACTION_SEQUENCE",
        "params": [{
            "datatype": "collection",
            "name": "eventobject"
        }],
        "contextObj": {
            "name": "frmVerifyAccountEur",
            "type": "forms",
            "platform": null,
            "KUID": "e4fe1a12814546a2a3fe8fae1a02d68d"
        },
        "language": "js",
        "actions": [{
            "id": "ADD_SNIPPET_ide_onClick_h3beb6d23dd44663825a227103abbc21",
            "type": "ADD_SNIPPET",
            "codeSnippet": "this.showPrivacyPolicyPage();",
            "callbackType": null
        }]
    }
}