{
    "AS_Button_efb9aa1bb08141baafda15abd7affe9b": {
        "id": "AS_Button_efb9aa1bb08141baafda15abd7affe9b",
        "type": "ACTION_SEQUENCE",
        "params": [{
            "datatype": "collection",
            "name": "eventobject"
        }, {
            "datatype": "collection",
            "name": "context"
        }],
        "language": "js",
        "actions": [{
            "id": "ADD_SNIPPET_ide_onClick_f9baacbf33d041d4a728bb13b25b4d40",
            "type": "ADD_SNIPPET",
            "codeSnippet": "this.executeOnParent(\"repeatTransaction\");",
            "callbackType": null
        }]
    }
}