{
    "AS_Button_if5868c5ee864aeca26abe8391a7d88c": {
        "id": "AS_Button_if5868c5ee864aeca26abe8391a7d88c",
        "type": "ACTION_SEQUENCE",
        "params": [{
            "datatype": "collection",
            "name": "eventobject"
        }, {
            "datatype": "collection",
            "name": "context"
        }],
        "contextObj": {
            "name": "segSendRequestSelectedMobile",
            "type": "templates",
            "platform": null,
            "KUID": "b3b5f3b44aeb4744bed03c3d1850eb08"
        },
        "language": "js",
        "actions": [{
            "id": "ADD_SNIPPET_ide_onClick_e86cd45b13b546b1b4132dc9d7d671f6",
            "type": "ADD_SNIPPET",
            "codeSnippet": "this.showRequestMoney();",
            "callbackType": null
        }]
    }
}