{
    "AS_Button_d4a26e18c1b1437989b94577fe5aac08": {
        "id": "AS_Button_d4a26e18c1b1437989b94577fe5aac08",
        "type": "ACTION_SEQUENCE",
        "params": [{
            "datatype": "collection",
            "name": "eventobject"
        }],
        "contextObj": {
            "name": "CopyfrmFastTransfersActivites",
            "type": "forms",
            "platform": null,
            "KUID": "cdf13e1b9b934ebf9498f344e35d2817"
        },
        "language": "js",
        "actions": [{
            "id": "ADD_SNIPPET_ide_onClick_f29158a286dc43ae842c90f7e2841b7a",
            "type": "ADD_SNIPPET",
            "codeSnippet": "this.showLocateUsPage();",
            "callbackType": null
        }]
    }
}