{
    "AS_Button_d155313733504dc8bc634411d31be44c": {
        "id": "AS_Button_d155313733504dc8bc634411d31be44c",
        "type": "ACTION_SEQUENCE",
        "params": [{
            "datatype": "collection",
            "name": "eventobject"
        }],
        "contextObj": {
            "name": "frmTransfers",
            "type": "forms",
            "platform": "",
            "KUID": "e9f47be88ab64765a96b1fae7d2a7720"
        },
        "language": "js",
        "actions": [{
            "id": "ADD_SNIPPET__dcbb2e0b365a4519bfc840cf4cd0b694",
            "type": "ADD_SNIPPET",
            "codeSnippet": " this.getUserScheduledTransactions();",
            "parentId": null,
            "callbackType": null
        }]
    }
}