{
    "AS_Button_h25961fffb6b4d569599d0d8f171551b": {
        "id": "AS_Button_h25961fffb6b4d569599d0d8f171551b",
        "type": "ACTION_SEQUENCE",
        "params": [{
            "datatype": "collection",
            "name": "eventobject"
        }, {
            "datatype": "collection",
            "name": "context"
        }],
        "contextObj": {
            "name": "segRecentTransfers",
            "type": "templates",
            "platform": "",
            "KUID": "ed5a7e30f33d4793b95c969aca19d5ff"
        },
        "language": "js",
        "actions": [{
            "id": "ADD_SNIPPET__hd91953dd96f4736b71e3a465ff3cab6",
            "type": "ADD_SNIPPET",
            "codeSnippet": "//this.navigateToInternalAccount();\nthis.viewReport();\n",
            "parentId": null,
            "callbackType": null
        }]
    }
}