{
    "AS_Button_hf679d20cb8e42039f7ee9a4c5041eac": {
        "id": "AS_Button_hf679d20cb8e42039f7ee9a4c5041eac",
        "type": "ACTION_SEQUENCE",
        "params": [{
            "datatype": "collection",
            "name": "eventobject"
        }, {
            "datatype": "collection",
            "name": "context"
        }],
        "language": "js",
        "actions": [{
            "id": "ADD_SNIPPET_ide_onClick_iaac318148a9429dac5b59171e9789de",
            "type": "ADD_SNIPPET",
            "codeSnippet": "this.viewEBill();",
            "callbackType": null
        }]
    }
}