{
    "AS_Button_ifa9faa5d69b4f9ea9e05621e63b247c": {
        "id": "AS_Button_ifa9faa5d69b4f9ea9e05621e63b247c",
        "type": "ACTION_SEQUENCE",
        "params": [{
            "datatype": "collection",
            "name": "eventobject"
        }],
        "contextObj": {
            "name": "frmEnrollNow",
            "type": "forms",
            "platform": null,
            "KUID": "bd78051f2239477699cd5b3d036cf72a"
        },
        "language": "js",
        "actions": [{
            "id": "ADD_SNIPPET_ide_onClick_cac80b2505ba44dbaf1a699af0eda967",
            "type": "ADD_SNIPPET",
            "codeSnippet": "this.verifyUser();",
            "callbackType": null
        }]
    }
}