{
    "AS_Button_a679d64bf185408688492f94aa1f7ee7": {
        "id": "AS_Button_a679d64bf185408688492f94aa1f7ee7",
        "type": "ACTION_SEQUENCE",
        "params": [{
            "datatype": "collection",
            "name": "eventobject"
        }, {
            "datatype": "collection",
            "name": "context"
        }],
        "language": "js",
        "actions": [{
            "id": "ADD_SNIPPET_ide_onClick_h762ed7cb31b48378cea71c46eafbbeb",
            "type": "ADD_SNIPPET",
            "codeSnippet": "this.executeOnParent(\"activateEBill\");",
            "callbackType": null
        }]
    }
}