{
    "AS_Button_b423912027564b4d82e65bca872d5ec0": {
        "id": "AS_Button_b423912027564b4d82e65bca872d5ec0",
        "type": "ACTION_SEQUENCE",
        "params": [{
            "datatype": "collection",
            "name": "eventobject"
        }],
        "contextObj": {
            "name": "frmBillPay",
            "type": "forms",
            "platform": "",
            "KUID": "h754f638fe6d4c56aac376a2f3adf18b"
        },
        "language": "js",
        "actions": [{
            "id": "ADD_SNIPPET__a4c1f7fb64644ee9ae3383d7bcf4ca96",
            "type": "ADD_SNIPPET",
            "codeSnippet": "this.setManagePayeesSegmentData();",
            "parentId": null,
            "callbackType": null
        }]
    }
}