{
    "AS_Button_faf64605d02a4e8f8295cc296131c2ba": {
        "id": "AS_Button_faf64605d02a4e8f8295cc296131c2ba",
        "type": "ACTION_SEQUENCE",
        "params": [{
            "datatype": "collection",
            "name": "eventobject"
        }, {
            "datatype": "collection",
            "name": "context"
        }],
        "contextObj": {
            "name": "segSentMobile",
            "type": "templates",
            "platform": null,
            "KUID": "ee566a7156a64950bc75541eb3849bfc"
        },
        "language": "js",
        "actions": [{
            "id": "ADD_SNIPPET_ide_onClick_c3d1c7e12541433680d44ffea1556fbc",
            "type": "ADD_SNIPPET",
            "codeSnippet": "this.showSendMoney();",
            "callbackType": null
        }]
    }
}