{
    "AS_Button_g9b1648fcec946958edfabcb3909f957": {
        "id": "AS_Button_g9b1648fcec946958edfabcb3909f957",
        "type": "ACTION_SEQUENCE",
        "params": [{
            "datatype": "collection",
            "name": "eventobject"
        }, {
            "datatype": "collection",
            "name": "context"
        }],
        "contextObj": {
            "name": "segBillPayAllPayeesSelected",
            "type": "templates",
            "platform": "",
            "KUID": "aa5112e31eab49b59336be8157829851"
        },
        "language": "js",
        "actions": [{
            "id": "ADD_SNIPPET__af632524ff3e4229b32db9cb82217956",
            "type": "ADD_SNIPPET",
            "codeSnippet": "//test",
            "parentId": null,
            "callbackType": null
        }]
    }
}