{
    "AS_Button_h38d49ddfeeb4bff8f4ca26a0259876f": {
        "id": "AS_Button_h38d49ddfeeb4bff8f4ca26a0259876f",
        "type": "ACTION_SEQUENCE",
        "params": [{
            "datatype": "collection",
            "name": "eventobject"
        }],
        "contextObj": {
            "name": "frmBillPay",
            "type": "forms",
            "platform": "",
            "KUID": "h754f638fe6d4c56aac376a2f3adf18b"
        },
        "language": "js",
        "actions": [{
            "id": "ADD_SNIPPET__b325f9a0a4e645588cc47623ab773702",
            "type": "ADD_SNIPPET",
            "codeSnippet": "this.setScheduledFlex();",
            "parentId": null,
            "callbackType": null
        }]
    }
}