{
    "AS_Button_ff7a2d85fe75422eb7e1ef3be95c6d3b": {
        "id": "AS_Button_ff7a2d85fe75422eb7e1ef3be95c6d3b",
        "type": "ACTION_SEQUENCE",
        "params": [{
            "datatype": "collection",
            "name": "eventobject"
        }],
        "contextObj": {
            "name": "frmBillPay",
            "type": "forms",
            "platform": "",
            "KUID": "h754f638fe6d4c56aac376a2f3adf18b"
        },
        "language": "js",
        "actions": [{
            "id": "ADD_SNIPPET__c127d2e20c554ae592a89efb762b4a38",
            "type": "ADD_SNIPPET",
            "codeSnippet": "this.openAddPayeeForm();",
            "parentId": null,
            "callbackType": null
        }]
    }
}