{
    "AS_Button_def90096ce974f84aac11ec33f3f589c": {
        "id": "AS_Button_def90096ce974f84aac11ec33f3f589c",
        "type": "ACTION_SEQUENCE",
        "params": [{
            "datatype": "collection",
            "name": "eventobject"
        }],
        "contextObj": {
            "name": "frmPayAPerson",
            "type": "forms",
            "platform": "",
            "KUID": "b19e9f55ebab4254b5eadf20d2a4c409"
        },
        "language": "js",
        "actions": [{
            "id": "ADD_SNIPPET__add3f7bb66b24374bf6b4a65f9e39600",
            "type": "ADD_SNIPPET",
            "codeSnippet": "//this.showBillPay();\nthis.setSendRequestSegmentData();",
            "parentId": null,
            "callbackType": null
        }]
    }
}