{
    "AS_Button_d7bf61587cdb4f7b86633164ca31a900": {
        "id": "AS_Button_d7bf61587cdb4f7b86633164ca31a900",
        "type": "ACTION_SEQUENCE",
        "params": [{
            "datatype": "collection",
            "name": "eventobject"
        }],
        "contextObj": {
            "name": "frmNotificationsAndMessages",
            "type": "forms",
            "platform": "",
            "KUID": "a83a23bb52bc4894a44b027a89964c1b"
        },
        "language": "js",
        "actions": [{
            "id": "ADD_SNIPPET__bb064364901047069a1f05d5ab5731bb",
            "type": "ADD_SNIPPET",
            "codeSnippet": "this.NewMessage();",
            "parentId": null,
            "callbackType": null
        }]
    }
}