{
    "AS_Button_aeaf0c105d824e328612d154b3106a4a": {
        "id": "AS_Button_aeaf0c105d824e328612d154b3106a4a",
        "type": "ACTION_SEQUENCE",
        "params": [{
            "datatype": "collection",
            "name": "eventobject"
        }, {
            "datatype": "collection",
            "name": "context"
        }],
        "contextObj": {
            "name": "segScheduledTransfersSelected",
            "type": "templates",
            "platform": null,
            "KUID": "c70ad3a06819491e8c0e4d0f94fa5075"
        },
        "language": "js",
        "actions": [{
            "id": "ADD_SNIPPET_ide_onClick_ed281c2ea0a64e70885a17a4c232632a",
            "type": "ADD_SNIPPET",
            "codeSnippet": "this.executeOnParent(\"repeatTransaction\");",
            "callbackType": null
        }]
    }
}