{
    "AS_Button_e40a436d9862448caf7420bba661782e": {
        "id": "AS_Button_e40a436d9862448caf7420bba661782e",
        "type": "ACTION_SEQUENCE",
        "params": [{
            "datatype": "collection",
            "name": "eventobject"
        }],
        "contextObj": {
            "name": "frmVerifyAccountEur",
            "type": "forms",
            "platform": null,
            "KUID": "e4fe1a12814546a2a3fe8fae1a02d68d"
        },
        "language": "js",
        "actions": [{
            "id": "ADD_SNIPPET_ide_onClick_iab7bb07502040d8b9bfee5cc26fa5b1",
            "type": "ADD_SNIPPET",
            "codeSnippet": "this.showFAQs();",
            "callbackType": null
        }]
    }
}