{
    "AS_Button_a2ed6920c99e4e7cb9700ef1081aceee": {
        "id": "AS_Button_a2ed6920c99e4e7cb9700ef1081aceee",
        "type": "ACTION_SEQUENCE",
        "params": [{
            "datatype": "collection",
            "name": "eventobject"
        }],
        "contextObj": {
            "name": "frmVerifyAccountEur",
            "type": "forms",
            "platform": null,
            "KUID": "e4fe1a12814546a2a3fe8fae1a02d68d"
        },
        "language": "js",
        "actions": [{
            "id": "ADD_SNIPPET_ide_onClick_e624db191ac14f4fbeb5ca93f4c6b27f",
            "type": "ADD_SNIPPET",
            "codeSnippet": "this.showTermsAndConditions();",
            "callbackType": null
        }]
    }
}