{
    "AS_Button_dd2e41576ff94b32ae871aefda7791a7": {
        "id": "AS_Button_dd2e41576ff94b32ae871aefda7791a7",
        "type": "ACTION_SEQUENCE",
        "params": [{
            "datatype": "collection",
            "name": "eventobject"
        }],
        "contextObj": {
            "name": "frmAccountsDetails",
            "type": "forms",
            "platform": "",
            "KUID": "f22d64f7cb454ad980b530de61c4240a"
        },
        "language": "js",
        "actions": [{
            "id": "ADD_SNIPPET__jd154ebcd85845f0a39295257a9f0824",
            "type": "ADD_SNIPPET",
            "codeSnippet": "this.toggleSearchResults();",
            "parentId": null,
            "callbackType": null
        }]
    }
}