{
    "AS_Button_c7ef1018250a48edafd8de38d0633e09": {
        "id": "AS_Button_c7ef1018250a48edafd8de38d0633e09",
        "type": "ACTION_SEQUENCE",
        "params": [{
            "datatype": "collection",
            "name": "eventobject"
        }, {
            "datatype": "collection",
            "name": "context"
        }],
        "contextObj": {
            "name": "segManageRecipientSelectedMobile",
            "type": "templates",
            "platform": null,
            "KUID": "i8808782f80f40558e5dfa3578785ec9"
        },
        "language": "js",
        "actions": [{
            "id": "ADD_SNIPPET_ide_onClick_ef1f5675ef9b4019ab8c22cff2a9cd30",
            "type": "ADD_SNIPPET",
            "codeSnippet": "//adding this comment due to platform bug.",
            "callbackType": null
        }]
    }
}