{
    "AS_Button_g39d46a9e39f4d1198151c565de38a80": {
        "id": "AS_Button_g39d46a9e39f4d1198151c565de38a80",
        "type": "ACTION_SEQUENCE",
        "params": [{
            "datatype": "collection",
            "name": "eventobject"
        }],
        "contextObj": {
            "name": "frmNotificationsAndMessages",
            "type": "forms",
            "platform": "",
            "KUID": "a83a23bb52bc4894a44b027a89964c1b"
        },
        "language": "js",
        "actions": [{
            "id": "ADD_SNIPPET__if4c8c0d93e647c7b72edad66c483496",
            "type": "ADD_SNIPPET",
            "codeSnippet": "this.NewMessage();",
            "parentId": null,
            "callbackType": null
        }]
    }
}