{
    "AS_Button_dfe30e62018f4fb8bfa4ec803f51440a": {
        "id": "AS_Button_dfe30e62018f4fb8bfa4ec803f51440a",
        "type": "ACTION_SEQUENCE",
        "params": [{
            "datatype": "collection",
            "name": "eventobject"
        }],
        "contextObj": {
            "name": "frmAcknowledgementEur",
            "type": "forms",
            "platform": null,
            "KUID": "a6931f4472b444e19ecff6cf00252086"
        },
        "language": "js",
        "actions": [{
            "id": "ADD_SNIPPET_ide_onClick_d7442c5f419c4e808d885d3a93fee9e5",
            "type": "ADD_SNIPPET",
            "codeSnippet": "this.showContactUsPage();",
            "callbackType": null
        }]
    }
}