{
    "AS_Button_f0a258f1b6144d89950055a642846df7": {
        "id": "AS_Button_f0a258f1b6144d89950055a642846df7",
        "type": "ACTION_SEQUENCE",
        "params": [{
            "datatype": "collection",
            "name": "eventobject"
        }],
        "contextObj": {
            "name": "frmAcknowledgementEur",
            "type": "forms",
            "platform": null,
            "KUID": "a6931f4472b444e19ecff6cf00252086"
        },
        "language": "js",
        "actions": [{
            "id": "ADD_SNIPPET_ide_onClick_d0737278dd21408fb40f611affdcf035",
            "type": "ADD_SNIPPET",
            "codeSnippet": "this.showPrivacyPolicyPage();",
            "callbackType": null
        }]
    }
}