{
    "AS_Button_f2355a3518b94e3bbeab743e2aa3c495": {
        "id": "AS_Button_f2355a3518b94e3bbeab743e2aa3c495",
        "type": "ACTION_SEQUENCE",
        "params": [{
            "datatype": "collection",
            "name": "eventobject"
        }],
        "contextObj": {
            "name": "frmAddExternalAccountEur",
            "type": "forms",
            "platform": null,
            "KUID": "b4d3cf5fda1141e78858debbef0eb064"
        },
        "language": "js",
        "actions": [{
            "id": "ADD_SNIPPET_ide_onClick_j446fdf071bd4329813a647d166da7b2",
            "type": "ADD_SNIPPET",
            "codeSnippet": "this.showContactUsPage();",
            "callbackType": null
        }]
    }
}