{
    "AS_Button_bc85717b509e4024be651f7e19e71443": {
        "id": "AS_Button_bc85717b509e4024be651f7e19e71443",
        "type": "ACTION_SEQUENCE",
        "params": [{
            "datatype": "collection",
            "name": "eventobject"
        }, {
            "datatype": "collection",
            "name": "context"
        }],
        "language": "js",
        "actions": [{
            "id": "ADD_SNIPPET_ide_onClick_c93b0e16103249d4874b5f84635d377b",
            "type": "ADD_SNIPPET",
            "codeSnippet": "this.viewEBill();",
            "callbackType": null
        }]
    }
}