{
    "AS_Button_d0dc6481fd56457dbe634c8e6d0611c4": {
        "id": "AS_Button_d0dc6481fd56457dbe634c8e6d0611c4",
        "type": "ACTION_SEQUENCE",
        "params": [{
            "datatype": "collection",
            "name": "eventobject"
        }],
        "contextObj": {
            "type": "forms",
            "platform": null,
            "KUID": "fefecc2daf7b46699434d209b330569d"
        },
        "language": "js",
        "actions": [{
            "id": "ADD_SNIPPET_ide_onClick_b9f255255c0545c9919221ec495391fd",
            "type": "ADD_SNIPPET",
            "codeSnippet": "this.PayAmountButton();",
            "callbackType": null
        }]
    }
}