{
    "AS_Button_c6fbc6532a7c4e008f8a6ea2e44a8812": {
        "id": "AS_Button_c6fbc6532a7c4e008f8a6ea2e44a8812",
        "type": "ACTION_SEQUENCE",
        "params": [{
            "datatype": "collection",
            "name": "eventobject"
        }],
        "contextObj": {
            "name": "frmTransfers",
            "type": "forms",
            "platform": "",
            "KUID": "e9f47be88ab64765a96b1fae7d2a7720"
        },
        "language": "js",
        "actions": [{
            "id": "ADD_SNIPPET__d76fc91cf94c48b088e45a0ad99fbe45",
            "type": "ADD_SNIPPET",
            "codeSnippet": "this.view.flxTransferManagePayeeActivity.setVisibility(false);\nthis.view.forceLayout();",
            "parentId": null,
            "callbackType": null
        }]
    }
}