{
    "AS_Button_d82f8f610cfe4d2ab3287afe0f935c22": {
        "id": "AS_Button_d82f8f610cfe4d2ab3287afe0f935c22",
        "type": "ACTION_SEQUENCE",
        "params": [{
            "datatype": "collection",
            "name": "eventobject"
        }],
        "contextObj": {
            "name": "frmBillPay",
            "type": "forms",
            "platform": "",
            "KUID": "h754f638fe6d4c56aac376a2f3adf18b"
        },
        "language": "js",
        "actions": [{
            "id": "ADD_SNIPPET__e09bb53cd81a45fdaa28d4bf75f5df43",
            "type": "ADD_SNIPPET",
            "codeSnippet": "this.setPaymentDueSegmentData();",
            "parentId": null,
            "callbackType": null
        }]
    }
}