{
    "AS_Calendar_a5716141d97f4a5d835aa5ca084b0b8f": {
        "id": "AS_Calendar_a5716141d97f4a5d835aa5ca084b0b8f",
        "type": "ACTION_SEQUENCE",
        "params": [{
            "datatype": "collection",
            "name": "eventobject"
        }, {
            "datatype": "boolean",
            "name": "isValidDateSelected"
        }],
        "contextObj": {
            "name": "frmPayDueAmount",
            "type": "forms",
            "platform": "",
            "KUID": "ba0b4f38b88d4ad7a2c69bb7d0d38c44"
        },
        "language": "js",
        "actions": [{
            "id": "ADD_SNIPPET__a5bf9af01f0e483aa3677040804c6137",
            "type": "ADD_SNIPPET",
            "codeSnippet": "this.calenderDueDateInfo();",
            "parentId": null,
            "callbackType": null
        }]
    }
}