{
    "AS_Calendar_j23e374e7f534ecc8318f80f37b4ea0d": {
        "id": "AS_Calendar_j23e374e7f534ecc8318f80f37b4ea0d",
        "type": "ACTION_SEQUENCE",
        "params": [{
            "datatype": "collection",
            "name": "eventobject"
        }, {
            "datatype": "boolean",
            "name": "isValidDateSelected"
        }],
        "contextObj": {
            "name": "frmPayDueAmount",
            "type": "forms",
            "platform": "",
            "KUID": "ba0b4f38b88d4ad7a2c69bb7d0d38c44"
        },
        "language": "js",
        "actions": [{
            "id": "ADD_SNIPPET__f2bfe78ada0e457992b3c7b664edbdba",
            "type": "ADD_SNIPPET",
            "codeSnippet": "this.calenderDueDateInfo();",
            "parentId": null,
            "callbackType": null
        }]
    }
}