{
    "AS_FlexContainer_e0044c0bd34e4ce880f2bdce2bcacfe7": {
        "id": "AS_FlexContainer_e0044c0bd34e4ce880f2bdce2bcacfe7",
        "type": "ACTION_SEQUENCE",
        "params": [{
            "datatype": "collection",
            "name": "eventobject"
        }, {
            "datatype": "collection",
            "name": "context"
        }],
        "contextObj": {
            "name": "segAttachmentsListTransfers",
            "type": "templates",
            "platform": null,
            "KUID": "c4386a06ccb640ecbcc6cf6778029d62"
        },
        "language": "js",
        "actions": [{
            "id": "INVOKE_FUNCTION__ge0101b73cb542d58dc4c271de9d31be",
            "type": "INVOKE_FUNCTION",
            "sequenceKUID": "removeClickedInTransfers",
            "display": "removeClickedInTransfers",
            "inputparams": [],
            "parentId": null,
            "callbackType": null,
            "disabled": null,
            "source": "controller"
        }]
    }
}