{
    "AS_FlexContainer_f5ae0312909c4c5c8e45c3697d1970ad": {
        "id": "AS_FlexContainer_f5ae0312909c4c5c8e45c3697d1970ad",
        "type": "ACTION_SEQUENCE",
        "params": [{
            "datatype": "collection",
            "name": "eventobject"
        }, {
            "datatype": "string",
            "name": "x"
        }, {
            "datatype": "string",
            "name": "y"
        }],
        "contextObj": {
            "name": "frmAcknowledgementEur",
            "type": "forms",
            "platform": null,
            "KUID": "a6931f4472b444e19ecff6cf00252086"
        },
        "language": "js",
        "actions": [{
            "id": "ADD_SNIPPET_ide_onTouchEnd_if82305fee5b4398b11905a9e669ace8",
            "type": "ADD_SNIPPET",
            "codeSnippet": "this.view.flxContextualMenu.setVisibility(false);",
            "callbackType": null
        }]
    }
}