{
    "AS_FlexContainer_ee0e911757844dde875bc202e35ebe7d": {
        "id": "AS_FlexContainer_ee0e911757844dde875bc202e35ebe7d",
        "type": "ACTION_SEQUENCE",
        "params": [{
            "datatype": "collection",
            "name": "eventobject"
        }, {
            "datatype": "collection",
            "name": "context"
        }],
        "contextObj": {
            "name": "segConsolidatedSectionHeaderMobile",
            "type": "templates",
            "platform": "",
            "KUID": "h2397c284bd54ca781f670e2ca7f04bb"
        },
        "language": "js",
        "actions": [{
            "id": "ADD_SNIPPET_b391f2dccff44c3c89aa7ed9815b4691",
            "type": "ADD_SNIPPET",
            "codeSnippet": "this.toggleCheckBox(eventobject, context);",
            "parentId": null
        }]
    }
}