{
    "AS_FlexContainer_cff920382e1e477ab3b92c9f4b59d7fc": {
        "id": "AS_FlexContainer_cff920382e1e477ab3b92c9f4b59d7fc",
        "type": "ACTION_SEQUENCE",
        "params": [{
            "datatype": "collection",
            "name": "eventobject"
        }],
        "contextObj": {
            "name": "frmProfileManagement",
            "type": "forms",
            "platform": "",
            "KUID": "e136103788ec406cab0b1d0f2087f12b"
        },
        "language": "js",
        "actions": [{
            "id": "ADD_SNIPPET__bea8081b5a5c40109a8d5b446c25ad4b",
            "type": "ADD_SNIPPET",
            "codeSnippet": "this.CloseTermsAndConditions();",
            "parentId": null,
            "callbackType": null
        }]
    }
}