{
    "AS_Form_d2baa7b9bd9c4e01a01e8b02692117c2": {
        "id": "AS_Form_d2baa7b9bd9c4e01a01e8b02692117c2",
        "type": "ACTION_SEQUENCE",
        "params": [{
            "datatype": "collection",
            "name": "eventobject"
        }],
        "contextObj": {
            "name": "frmFastVerifyAccount",
            "type": "forms",
            "platform": "",
            "KUID": "b2044ed587064e0597bed610baf43b92"
        },
        "language": "js",
        "actions": [{
            "id": "ADD_SNIPPET__d91cc813058e4609af9d693feff0ca2a",
            "type": "ADD_SNIPPET",
            "codeSnippet": "applicationManager.getNavigationManager().applyUpdates(this);",
            "parentId": null,
            "callbackType": null
        }]
    }
}