{
    "AS_FlexContainer_ccbc7b44394c469d84275743462a8827": {
        "id": "AS_FlexContainer_ccbc7b44394c469d84275743462a8827",
        "type": "ACTION_SEQUENCE",
        "params": [{
            "datatype": "collection",
            "name": "eventobject"
        }, {
            "datatype": "collection",
            "name": "context"
        }],
        "contextObj": {
            "name": "segManageRecipientsWireTransfersNewSelected",
            "type": "templates",
            "platform": "",
            "KUID": "e91816ab65f9402195181b14271ec23c"
        },
        "language": "js",
        "actions": [{
            "id": "ADD_SNIPPET__ifa1f7e33eec41ca8d43ef7b04a9d186",
            "type": "ADD_SNIPPET",
            "codeSnippet": "this. showSelectedRow();",
            "parentId": null
        }]
    }
}