{
    "AS_FlexContainer_gba6aeda871c40e49b55a9f14fef3ea3": {
        "id": "AS_FlexContainer_gba6aeda871c40e49b55a9f14fef3ea3",
        "type": "ACTION_SEQUENCE",
        "params": [{
            "datatype": "collection",
            "name": "eventobject"
        }],
        "contextObj": {
            "name": "frmEnrollNow",
            "type": "forms",
            "platform": null,
            "KUID": "bd78051f2239477699cd5b3d036cf72a"
        },
        "language": "js",
        "actions": [{
            "id": "ADD_SNIPPET_ide_onClick_g4529ba32fe846d7b85051b70dfe67e4",
            "type": "ADD_SNIPPET",
            "codeSnippet": "this.showLanguageOptions();",
            "callbackType": null
        }]
    }
}