{
    "AS_Form_hdee13fd5b7f41d68197107965934dd6": {
        "id": "AS_Form_hdee13fd5b7f41d68197107965934dd6",
        "type": "ACTION_SEQUENCE",
        "params": [{
            "datatype": "collection",
            "name": "eventobject"
        }],
        "contextObj": {
            "name": "frmSameBankTransfer",
            "type": "forms",
            "platform": "",
            "KUID": "f8d20205066648e996b4b31d99911398"
        },
        "language": "js",
        "actions": []
    }
}