{
    "AS_FlexContainer_a3b8b9f7c77a40bfaaf9a429dc8afd5a": {
        "id": "AS_FlexContainer_a3b8b9f7c77a40bfaaf9a429dc8afd5a",
        "type": "ACTION_SEQUENCE",
        "params": [{
            "datatype": "collection",
            "name": "eventobject"
        }, {
            "datatype": "collection",
            "name": "context"
        }],
        "contextObj": {
            "name": "segAccountListItemMobile",
            "type": "templates",
            "platform": null,
            "KUID": "d6b7f503e0954286bfbdc57e5b3b80e2"
        },
        "language": "js",
        "actions": [{
            "id": "ADD_SNIPPET_ide_onClick_f09e23c5aa6f40aca3d44260bbcb05ca",
            "type": "ADD_SNIPPET",
            "codeSnippet": "this.imgPressed();",
            "callbackType": null
        }]
    }
}