{
    "AS_FlexContainer_ba64e331a88f44b981cf6bbaa418c4ca": {
        "id": "AS_FlexContainer_ba64e331a88f44b981cf6bbaa418c4ca",
        "type": "ACTION_SEQUENCE",
        "params": [{
            "datatype": "collection",
            "name": "eventobject"
        }, {
            "datatype": "collection",
            "name": "context"
        }],
        "contextObj": {
            "name": "segACHMyApprovalsRowMobileTemplate",
            "type": "templates",
            "platform": "",
            "KUID": "abc6fb6f9f184a6abed55cd82ec8e1bd"
        },
        "language": "js",
        "actions": [{
            "id": "ADD_SNIPPET__a150c34399b64d46a8a8e746079665f5",
            "type": "ADD_SNIPPET",
            "codeSnippet": "this.showDetails(eventobject, context)",
            "parentId": null,
            "callbackType": null
        }]
    }
}