{
    "AS_FlexContainer_c724b29a4a224132b33cbed263c03526": {
        "id": "AS_FlexContainer_c724b29a4a224132b33cbed263c03526",
        "type": "ACTION_SEQUENCE",
        "params": [{
            "datatype": "collection",
            "name": "eventobject"
        }, {
            "datatype": "string",
            "name": "x"
        }, {
            "datatype": "string",
            "name": "y"
        }],
        "contextObj": {
            "name": "frmAddInternalAccountEur",
            "type": "forms",
            "platform": null,
            "KUID": "f6d47ee3559a49b9a84a9fcd7d6fce64"
        },
        "language": "js",
        "actions": [{
            "id": "ADD_SNIPPET_ide_onTouchEnd_b9c21022de0041eb87e8281669d745ba",
            "type": "ADD_SNIPPET",
            "codeSnippet": "this.view.flxContextualMenu.setVisibility(false);",
            "callbackType": null
        }]
    }
}