{
    "AS_Form_fdaf900620f94258abafdaeb2a81a44f": {
        "id": "AS_Form_fdaf900620f94258abafdaeb2a81a44f",
        "type": "ACTION_SEQUENCE",
        "params": [{
            "datatype": "collection",
            "name": "eventobject"
        }],
        "contextObj": {
            "name": "CopyfrmFastActiveRecipient",
            "type": "forms",
            "platform": null,
            "KUID": "b0706403e9c64a0098a2192c453890a7"
        },
        "language": "js",
        "actions": [{
            "id": "ADD_SNIPPET_ide_postShow_e6ce495f172c4a9d9732847f3aa8846b",
            "type": "ADD_SNIPPET",
            "codeSnippet": "this.postShowActive();",
            "callbackType": null
        }]
    }
}