{
    "AS_Form_de9da0ea103a46da873e1cf7ebd94620": {
        "id": "AS_Form_de9da0ea103a46da873e1cf7ebd94620",
        "type": "ACTION_SEQUENCE",
        "params": [{
            "datatype": "collection",
            "name": "eventobject"
        }],
        "contextObj": {
            "name": "frmP2PSettingsEdit",
            "type": "forms",
            "platform": null,
            "KUID": "hf11f84fd5ca4bb38ccb7db032ee4912"
        },
        "language": "js",
        "actions": [{
            "id": "INVOKE_FUNCTION__ide_init_a3decdf62ada477d96b1349ac7b1cd47",
            "type": "INVOKE_FUNCTION",
            "sequenceKUID": "init",
            "display": "init",
            "inputparams": [],
            "callbackType": null,
            "disabled": null,
            "source": "controller"
        }]
    }
}