{
    "AS_FlexContainer_e87c0e7df5b24800bb04c7a98792bf7a": {
        "id": "AS_FlexContainer_e87c0e7df5b24800bb04c7a98792bf7a",
        "type": "ACTION_SEQUENCE",
        "params": [{
            "datatype": "collection",
            "name": "eventobject"
        }, {
            "datatype": "collection",
            "name": "context"
        }],
        "contextObj": {
            "name": "segSurveyQuestion1",
            "type": "templates",
            "platform": "",
            "KUID": "a19ed45f43da40b49afef12af7b0aa60"
        },
        "language": "js",
        "actions": [{
            "id": "ADD_SNIPPET__b35253a7e7f640ec9f3e85fb09c100ac",
            "type": "ADD_SNIPPET",
            "codeSnippet": "this.showRatingActionCircle(1);",
            "parentId": null,
            "callbackType": null
        }]
    }
}