{
    "AS_FlexContainer_c678e3c0f0b74f3aa32019daeeb4a2d1": {
        "id": "AS_FlexContainer_c678e3c0f0b74f3aa32019daeeb4a2d1",
        "type": "ACTION_SEQUENCE",
        "params": [{
            "datatype": "collection",
            "name": "eventobject"
        }, {
            "datatype": "collection",
            "name": "context"
        }],
        "contextObj": {
            "name": "segRecentTransfersNewSelected",
            "type": "templates",
            "platform": "",
            "KUID": "adac25e7b5784b0c98b1fc6e22a104c3"
        },
        "language": "js",
        "actions": [{
            "id": "ADD_SNIPPET__acf3067428b546aeaffa12d9b8495d9f",
            "type": "ADD_SNIPPET",
            "codeSnippet": "this.showSelectedRow();",
            "parentId": null
        }]
    }
}