{
    "AS_Form_ec42c34be3684279bf4df78761980842": {
        "id": "AS_Form_ec42c34be3684279bf4df78761980842",
        "type": "ACTION_SEQUENCE",
        "params": [{
            "datatype": "collection",
            "name": "eventobject"
        }],
        "contextObj": {
            "name": "frmCardManagementCreateTravelPlan",
            "type": "forms",
            "platform": "",
            "KUID": "i1f3606ae207491bbd6cc44791e70a43"
        },
        "language": "js",
        "actions": [{
            "id": "ADD_SNIPPET_i7b17aff3eb04c2fabd5fcddc4e95c40",
            "type": "ADD_SNIPPET",
            "codeSnippet": "this.init();",
            "parentId": null
        }]
    }
}