{
    "AS_FlexContainer_fe11ac828e0342069d0ef20f5e4a5522": {
        "id": "AS_FlexContainer_fe11ac828e0342069d0ef20f5e4a5522",
        "type": "ACTION_SEQUENCE",
        "params": [{
            "datatype": "collection",
            "name": "eventobject"
        }, {
            "datatype": "collection",
            "name": "context"
        }],
        "contextObj": {
            "name": "segApprovalHistoryRowTemplate",
            "type": "templates",
            "platform": "",
            "KUID": "baaa351e1f7b40929a92a827d6f40fd1"
        },
        "language": "js",
        "actions": [{
            "id": "ADD_SNIPPET_e065b1e79dda4b32a0455598eb726d87",
            "type": "ADD_SNIPPET",
            "codeSnippet": "this.showDetails(eventobject, context);",
            "parentId": null
        }]
    }
}