{
    "AS_Form_f32c2981c60e4308aa2e1c76ff80ed6f": {
        "id": "AS_Form_f32c2981c60e4308aa2e1c76ff80ed6f",
        "type": "ACTION_SEQUENCE",
        "params": [{
            "datatype": "collection",
            "name": "eventobject"
        }],
        "contextObj": {
            "name": "frmCardManagementTravelNotification",
            "type": "forms",
            "platform": "",
            "KUID": "a780718fc3844046820ab219bd392c33"
        },
        "language": "js",
        "actions": [{
            "id": "ADD_SNIPPET_d93ce477edb6428db00271bef48f94a5",
            "type": "ADD_SNIPPET",
            "codeSnippet": "this.init();",
            "parentId": null
        }]
    }
}