{
    "AS_Form_dc81ebef90c34c0ba11e9dbdc8d7c87e": {
        "id": "AS_Form_dc81ebef90c34c0ba11e9dbdc8d7c87e",
        "type": "ACTION_SEQUENCE",
        "params": [{
            "datatype": "collection",
            "name": "eventobject"
        }],
        "contextObj": {
            "name": "frmCardManagementVerificationOptions",
            "type": "forms",
            "platform": "",
            "KUID": "h9fbf23bc18c49f797851fd768474156"
        },
        "language": "js",
        "actions": [{
            "id": "ADD_SNIPPET_jc8e26b8407749fdab16a35dae9748ec",
            "type": "ADD_SNIPPET",
            "codeSnippet": "this.init();",
            "parentId": null
        }]
    }
}