{
    "AS_FlexContainer_bd0f94251e2d4df89b668e799fb0e75d": {
        "id": "AS_FlexContainer_bd0f94251e2d4df89b668e799fb0e75d",
        "type": "ACTION_SEQUENCE",
        "params": [{
            "datatype": "collection",
            "name": "eventobject"
        }],
        "language": "js",
        "actions": [{
            "id": "ADD_SNIPPET_ide_onClick_f0027b9f50404de1a47a0c7bbb9c5df7",
            "type": "ADD_SNIPPET",
            "codeSnippet": "this.toggle(this.view.flxTransfersSubMenu);",
            "callbackType": null
        }]
    }
}