{
    "AS_FlexContainer_h3008a9cd9724030911c58712f40b347": {
        "id": "AS_FlexContainer_h3008a9cd9724030911c58712f40b347",
        "type": "ACTION_SEQUENCE",
        "params": [{
            "datatype": "collection",
            "name": "eventobject"
        }, {
            "datatype": "collection",
            "name": "context"
        }],
        "contextObj": {
            "name": "segAccountsRowTemplateMobile",
            "type": "templates",
            "platform": "",
            "KUID": "b3231cedd0fa4966935344ab5986fa77"
        },
        "language": "js",
        "actions": [{
            "id": "ADD_SNIPPET_g3724c779edf472ab6c1794d48d58428",
            "type": "ADD_SNIPPET",
            "codeSnippet": "this.imgPressed();",
            "parentId": null
        }]
    }
}