{
    "AS_FlexContainer_ab5949667f464e659ba9b8ae552e273c": {
        "id": "AS_FlexContainer_ab5949667f464e659ba9b8ae552e273c",
        "type": "ACTION_SEQUENCE",
        "params": [{
            "datatype": "collection",
            "name": "eventobject"
        }, {
            "datatype": "collection",
            "name": "context"
        }],
        "language": "js",
        "actions": [{
            "id": "ADD_SNIPPET_ide_onClick_jeb463485f5e44fa8a3e267fe61c0f2c",
            "type": "ADD_SNIPPET",
            "codeSnippet": "this.showSelectedRow();",
            "callbackType": null
        }]
    }
}