{
    "AS_FlexContainer_b8df2fcea65d496c9d360827b6330129": {
        "id": "AS_FlexContainer_b8df2fcea65d496c9d360827b6330129",
        "type": "ACTION_SEQUENCE",
        "params": [{
            "datatype": "collection",
            "name": "eventobject"
        }, {
            "datatype": "collection",
            "name": "context"
        }],
        "contextObj": {
            "name": "segMyRequests",
            "type": "templates",
            "platform": "",
            "KUID": "g1e7b8341c7d4941bc41216380772a54"
        },
        "language": "js",
        "actions": [{
            "id": "ADD_SNIPPET__f141ba16e6674ef2bed02e22baa0c18f",
            "type": "ADD_SNIPPET",
            "codeSnippet": "this.showSelectedRow();",
            "parentId": null,
            "callbackType": null
        }]
    }
}