{
    "AS_FlexContainer_e680236ecf284cc98c662b86614e338d": {
        "id": "AS_FlexContainer_e680236ecf284cc98c662b86614e338d",
        "type": "ACTION_SEQUENCE",
        "params": [{
            "datatype": "collection",
            "name": "eventobject"
        }, {
            "datatype": "string",
            "name": "x"
        }, {
            "datatype": "string",
            "name": "y"
        }],
        "contextObj": {
            "name": "frmAccountsDetails",
            "type": "forms",
            "platform": "",
            "KUID": "f22d64f7cb454ad980b530de61c4240a"
        },
        "language": "js",
        "actions": [{
            "id": "ADD_SNIPPET__a81cff0e58234439bd47fc4d4a0f78b0",
            "type": "ADD_SNIPPET",
            "codeSnippet": "this.toggleSearch();",
            "parentId": null,
            "callbackType": null
        }]
    }
}