{
    "AS_Form_dfe0627d3a4a4e49b630064c7a57efc8": {
        "id": "AS_Form_dfe0627d3a4a4e49b630064c7a57efc8",
        "type": "ACTION_SEQUENCE",
        "params": [{
            "datatype": "collection",
            "name": "eventobject"
        }],
        "contextObj": {
            "name": "frmFastAddInternationalAccount",
            "type": "forms",
            "platform": "",
            "KUID": "c8df149cfa204d7993ef52a08f140db1"
        },
        "language": "js",
        "actions": []
    }
}