{
    "AS_FlexContainer_da077e67abf5429f9f716d16a161b11a": {
        "id": "AS_FlexContainer_da077e67abf5429f9f716d16a161b11a",
        "type": "ACTION_SEQUENCE",
        "params": [{
            "datatype": "collection",
            "name": "eventobject"
        }, {
            "datatype": "collection",
            "name": "context"
        }],
        "contextObj": {
            "KUID": "jd3c14343dd9454fb4715f31ca9d6d10",
            "name": "segBBAccountAccessHeader",
            "platform": "",
            "type": "templates"
        },
        "language": "js",
        "actions": [{
            "id": "ADD_SNIPPET__j5a4024d9c2a48338635c8784463473f",
            "type": "ADD_SNIPPET",
            "codeSnippet": "this.executeOnParent(\"checkUncheckViewAccess\");",
            "parentId": null,
            "callbackType": null
        }]
    }
}