{
    "AS_Form_aace90c997ae4ca7a2790ed268940ae8": {
        "id": "AS_Form_aace90c997ae4ca7a2790ed268940ae8",
        "type": "ACTION_SEQUENCE",
        "params": [{
            "datatype": "collection",
            "name": "eventobject"
        }],
        "contextObj": {
            "name": "frmFastManagePayee",
            "type": "forms",
            "platform": "",
            "KUID": "c8f34682fbe74ec48394c2e19f654eca"
        },
        "language": "js",
        "actions": [{
            "id": "ADD_SNIPPET__aae5d5eea502441b95030207ac85e369",
            "type": "ADD_SNIPPET",
            "codeSnippet": "this.preShowActions();",
            "parentId": null,
            "callbackType": null
        }]
    }
}