{
    "AS_Form_eec09aa800ea4436ad1c29ff2814db18": {
        "id": "AS_Form_eec09aa800ea4436ad1c29ff2814db18",
        "type": "ACTION_SEQUENCE",
        "params": [{
            "datatype": "collection",
            "name": "eventobject"
        }],
        "contextObj": {
            "name": "frmMakeBulkTransfer",
            "type": "forms",
            "platform": "",
            "KUID": "f8bf1aa3a6ad42a09ed35765a93a9088"
        },
        "language": "js",
        "actions": [{
            "id": "ADD_SNIPPET__c16475aa3a0f47ce9660d7aca0a36102",
            "type": "ADD_SNIPPET",
            "codeSnippet": "this.init();",
            "parentId": null
        }]
    }
}