{
    "AS_Form_c3ba9435f751460a9db3346daf50c19d": {
        "id": "AS_Form_c3ba9435f751460a9db3346daf50c19d",
        "type": "ACTION_SEQUENCE",
        "params": [{
            "datatype": "collection",
            "name": "eventobject"
        }],
        "contextObj": {
            "name": "frmWireTransfer",
            "type": "forms",
            "platform": "",
            "KUID": "g6761289d328438db40a889bdbda5720"
        },
        "language": "js",
        "actions": [{
            "id": "ADD_SNIPPET__c7e034a463434025b084af562984f582",
            "type": "ADD_SNIPPET",
            "codeSnippet": "this.formPreshow();",
            "parentId": null,
            "callbackType": null
        }]
    }
}