{
    "AS_FlexContainer_cd0b51a0ad2845ac8b89fa535b9be9ba": {
        "id": "AS_FlexContainer_cd0b51a0ad2845ac8b89fa535b9be9ba",
        "type": "ACTION_SEQUENCE",
        "params": [{
            "datatype": "collection",
            "name": "eventobject"
        }, {
            "datatype": "string",
            "name": "x"
        }, {
            "datatype": "string",
            "name": "y"
        }],
        "contextObj": {
            "name": "segBillPayAllPayees",
            "type": "templates",
            "platform": "",
            "KUID": "j3b42045f1fa401dbfd2614d5accb518"
        },
        "language": "js",
        "actions": []
    }
}