{
    "AS_FlexContainer_j818ebb666d34b95959696b7d50c1e0e": {
        "id": "AS_FlexContainer_j818ebb666d34b95959696b7d50c1e0e",
        "type": "ACTION_SEQUENCE",
        "params": [{
            "datatype": "collection",
            "name": "eventobject"
        }, {
            "datatype": "collection",
            "name": "context"
        }],
        "language": "js",
        "actions": [{
            "id": "ADD_SNIPPET_ide_onClick_e113348d41484e45bb3b185b488fa29f",
            "type": "ADD_SNIPPET",
            "codeSnippet": "this.showSelectedRow();",
            "callbackType": null
        }]
    }
}