{
    "AS_Form_a64e96edede64e1d99848b55dcf24c53": {
        "id": "AS_Form_a64e96edede64e1d99848b55dcf24c53",
        "type": "ACTION_SEQUENCE",
        "params": [{
            "datatype": "collection",
            "name": "eventobject"
        }],
        "contextObj": {
            "name": "frmFastDeActiveRecipient",
            "type": "forms",
            "platform": "",
            "KUID": "iee4992cc6814cb59c37543686c9343e"
        },
        "language": "js",
        "actions": []
    }
}