{
    "AS_Form_c1265919a0cc4ff5b63cafba3a4ee5da": {
        "id": "AS_Form_c1265919a0cc4ff5b63cafba3a4ee5da",
        "type": "ACTION_SEQUENCE",
        "params": [{
            "datatype": "collection",
            "name": "eventobject"
        }],
        "contextObj": {
            "name": "frmViewApprovalMatrix",
            "type": "forms",
            "platform": "",
            "KUID": "f59ffcd2a74041579306137a010148c0"
        },
        "language": "js",
        "actions": [{
            "id": "INVOKE_FUNCTION__a734248f19664325b4c6b340eb51f5f2",
            "type": "INVOKE_FUNCTION",
            "sequenceKUID": "doInit",
            "display": "doInit",
            "inputparams": [],
            "parentId": null,
            "callbackType": null,
            "disabled": null,
            "source": "controller"
        }]
    }
}