{
    "AS_Form_acfdbbf030ba478789ed69e88c9c5647": {
        "id": "AS_Form_acfdbbf030ba478789ed69e88c9c5647",
        "type": "ACTION_SEQUENCE",
        "params": [{
            "datatype": "collection",
            "name": "eventobject"
        }],
        "contextObj": {
            "name": "frmConsolidatedStatements",
            "type": "forms",
            "platform": "",
            "KUID": "cbd1540e6e1b474aa5da2373890f1fc8"
        },
        "language": "js",
        "actions": [{
            "id": "ADD_SNIPPET_b9e9ccf29b5f413a9e45a2bc886bd035",
            "type": "ADD_SNIPPET",
            "codeSnippet": "this.init();",
            "parentId": null,
            "callbackType": null
        }]
    }
}