{
    "AS_FlexContainer_e92cfc31ff6c49e09f03f8fcf22218af": {
        "id": "AS_FlexContainer_e92cfc31ff6c49e09f03f8fcf22218af",
        "type": "ACTION_SEQUENCE",
        "params": [{
            "datatype": "collection",
            "name": "eventobject"
        }, {
            "datatype": "collection",
            "name": "context"
        }],
        "language": "js",
        "actions": [{
            "id": "ADD_SNIPPET_ide_onClick_b8b72874ee4543c3af66128c1ca96acd",
            "type": "ADD_SNIPPET",
            "codeSnippet": "//this.pendingRowOnClick();",
            "callbackType": null
        }]
    }
}