{
    "AS_FlexContainer_e61660320e9f462ba9f8044a91ed192d": {
        "id": "AS_FlexContainer_e61660320e9f462ba9f8044a91ed192d",
        "type": "ACTION_SEQUENCE",
        "params": [{
            "datatype": "collection",
            "name": "eventobject"
        }, {
            "datatype": "collection",
            "name": "context"
        }],
        "contextObj": {
            "name": "segUserManagementNonAccountTablet",
            "type": "templates",
            "platform": "",
            "KUID": "e274ce6c6813497db5db3e45c51d7286"
        },
        "language": "js",
        "actions": [{
            "id": "ADD_SNIPPET_id4665b1639a4a2eb32965c8fdd50bbd",
            "type": "ADD_SNIPPET",
            "codeSnippet": "this.selectOrUnselectParentFeature(eventobject, context);",
            "parentId": null
        }]
    }
}