{
    "AS_Form_df43ccd6b28c4fe1b5bcdc8ec02d8393": {
        "id": "AS_Form_df43ccd6b28c4fe1b5bcdc8ec02d8393",
        "type": "ACTION_SEQUENCE",
        "params": [{
            "datatype": "collection",
            "name": "eventobject"
        }],
        "contextObj": {
            "type": "forms",
            "platform": null,
            "KUID": "facfc322ea404076bc84c058159f1ba7"
        },
        "language": "js",
        "actions": [{
            "id": "ADD_SNIPPET__a5b9b874974f480d86018ab2bba5234b",
            "type": "ADD_SNIPPET",
            "codeSnippet": "var authModule=kony.mvc.MDAApplication.getSharedInstance().getModuleManager().getModule(\"AuthModule\");\nauthModule.presentationController.showLoginScreen();",
            "parentId": null,
            "callbackType": null
        }]
    }
}