{
    "AS_FlexContainer_c88e895a86ea472295423e6b33e2aac3": {
        "id": "AS_FlexContainer_c88e895a86ea472295423e6b33e2aac3",
        "type": "ACTION_SEQUENCE",
        "params": [{
            "datatype": "collection",
            "name": "eventobject"
        }, {
            "datatype": "collection",
            "name": "context"
        }],
        "contextObj": {
            "name": "segBillPaymentAllPayeesSelected",
            "type": "templates",
            "platform": null,
            "KUID": "h53f89bc1edb469b8fd61888c99c9944"
        },
        "language": "js",
        "actions": [{
            "id": "ADD_SNIPPET_ide_onClick_a3797492d43e457ca10c127b1811e2a3",
            "type": "ADD_SNIPPET",
            "codeSnippet": "this.showUnselectedRow();",
            "callbackType": null
        }]
    }
}