{
    "AS_FlexContainer_e1cda2cec1144ce9981daa50335b68f6": {
        "id": "AS_FlexContainer_e1cda2cec1144ce9981daa50335b68f6",
        "type": "ACTION_SEQUENCE",
        "params": [{
            "datatype": "collection",
            "name": "eventobject"
        }, {
            "datatype": "collection",
            "name": "context"
        }],
        "language": "js",
        "actions": [{
            "id": "ADD_SNIPPET_ide_onClick_bab9b8a3cca645e3bad154ad99230c0f",
            "type": "ADD_SNIPPET",
            "codeSnippet": "this.showSelectedRow();",
            "callbackType": null
        }]
    }
}