{
    "AS_FlexContainer_b910c43175364f36839cb24b2fe9bf1c": {
        "id": "AS_FlexContainer_b910c43175364f36839cb24b2fe9bf1c",
        "type": "ACTION_SEQUENCE",
        "params": [{
            "datatype": "collection",
            "name": "eventobject"
        }, {
            "datatype": "collection",
            "name": "context"
        }],
        "contextObj": {
            "name": "segUserManagementNonAccountTablet",
            "type": "templates",
            "platform": "",
            "KUID": "e274ce6c6813497db5db3e45c51d7286"
        },
        "language": "js",
        "actions": [{
            "id": "ADD_SNIPPET_dc75a563f0aa43bf9f142d6b68084b4e",
            "type": "ADD_SNIPPET",
            "codeSnippet": "this.selectOrUnselectParentFeature(eventobject, context);",
            "parentId": null
        }]
    }
}