{
    "AS_Form_a3f85960f6584452949f79666367e4e9": {
        "id": "AS_Form_a3f85960f6584452949f79666367e4e9",
        "type": "ACTION_SEQUENCE",
        "params": [{
            "datatype": "collection",
            "name": "eventobject"
        }, {
            "datatype": "string",
            "name": "x"
        }, {
            "datatype": "string",
            "name": "y"
        }],
        "contextObj": {
            "name": "frmWireTransfer",
            "type": "forms",
            "platform": "",
            "KUID": "g6761289d328438db40a889bdbda5720"
        },
        "language": "js",
        "actions": [{
            "id": "ADD_SNIPPET__eea8865a66b14451a9cfbf4e03b5448c",
            "type": "ADD_SNIPPET",
            "codeSnippet": "hidePopups();",
            "parentId": null,
            "callbackType": null
        }]
    }
}