{
    "AS_Form_abc813bfe35a41a5a568586d181a193f": {
        "id": "AS_Form_abc813bfe35a41a5a568586d181a193f",
        "type": "ACTION_SEQUENCE",
        "name": "AS_Form_b0f59e4a663c47d9be1e139f0779f7f3",
        "params": [{
            "datatype": "collection",
            "name": "eventobject"
        }],
        "contextObj": {
            "name": "frmBillPay",
            "type": "forms",
            "platform": "",
            "KUID": "h754f638fe6d4c56aac376a2f3adf18b"
        },
        "language": "js",
        "actions": []
    }
}