{
    "AS_Form_hda5f441c800482c93af08f048fda03a": {
        "id": "AS_Form_hda5f441c800482c93af08f048fda03a",
        "type": "ACTION_SEQUENCE",
        "name": "AS_Form_e64d6248c11f49e1a18f93c32d11be53",
        "params": [{
            "datatype": "collection",
            "name": "eventobject"
        }, {
            "datatype": "string",
            "name": "x"
        }, {
            "datatype": "string",
            "name": "y"
        }],
        "contextObj": {
            "name": "frmAddInternalAccount",
            "type": "forms",
            "platform": "",
            "KUID": "i0c7320b49fe40e1a3a168c136395e15"
        },
        "language": "js",
        "actions": [{
            "id": "ADD_SNIPPET__ed93e0de1bb84ecd8dd64863589c6131",
            "type": "ADD_SNIPPET",
            "codeSnippet": "hidePopups();",
            "parentId": null,
            "callbackType": null
        }]
    }
}