{
    "AS_FlexContainer_b03e83291fa244aca71c54ce6cea3a66": {
        "id": "AS_FlexContainer_b03e83291fa244aca71c54ce6cea3a66",
        "type": "ACTION_SEQUENCE",
        "params": [{
            "datatype": "collection",
            "name": "eventobject"
        }, {
            "datatype": "collection",
            "name": "context"
        }],
        "contextObj": {
            "name": "segPFMTransactionsMainSelectedMobile",
            "type": "templates",
            "platform": "",
            "KUID": "c4c1f1afc7024a40af3d00f9efd6b698"
        },
        "language": "js",
        "actions": [{
            "id": "ADD_SNIPPET__cf2a9bfd396440d68f315592f6e24827",
            "type": "ADD_SNIPPET",
            "codeSnippet": "this.showSelectedRow();",
            "parentId": null,
            "callbackType": null
        }]
    }
}