{
    "AS_Form_jbbee176eac746ea8828f2c2beedd5b9": {
        "id": "AS_Form_jbbee176eac746ea8828f2c2beedd5b9",
        "type": "ACTION_SEQUENCE",
        "params": [{
            "datatype": "collection",
            "name": "eventobject"
        }],
        "contextObj": {
            "type": "forms",
            "platform": null,
            "KUID": "h76e5b804db249f3bed8bdb45f507766"
        },
        "language": "js",
        "actions": [{
            "id": "ADD_SNIPPET_ide_preShow_ea6902171d8c4280bb6a55cb30ada416",
            "type": "ADD_SNIPPET",
            "codeSnippet": "this.frmBillPayPreShow();",
            "callbackType": null
        }]
    }
}