{
    "AS_FlexContainer_ab184e78c3e641fb94a6ec3d3561a90b": {
        "id": "AS_FlexContainer_ab184e78c3e641fb94a6ec3d3561a90b",
        "type": "ACTION_SEQUENCE",
        "params": [{
            "datatype": "collection",
            "name": "eventobject"
        }, {
            "datatype": "collection",
            "name": "context"
        }],
        "contextObj": {
            "name": "segSurveyQuestion1Mobile",
            "type": "templates",
            "platform": null,
            "KUID": "fa14e57878544cf3bbac482f63f38c55"
        },
        "language": "js",
        "actions": [{
            "id": "ADD_SNIPPET_ide_onClick_d373a316cc0f4cb6bf38f43346ec724c",
            "type": "ADD_SNIPPET",
            "codeSnippet": "this.showRatingActionCircle(4);",
            "callbackType": null
        }]
    }
}