{
    "AS_FlexContainer_c806c429834b4339ada2c31c2b80945b": {
        "id": "AS_FlexContainer_c806c429834b4339ada2c31c2b80945b",
        "type": "ACTION_SEQUENCE",
        "params": [{
            "datatype": "collection",
            "name": "eventobject"
        }, {
            "datatype": "collection",
            "name": "context"
        }],
        "contextObj": {
            "name": "segMakeTransferWireTransfersNewSelected",
            "type": "templates",
            "platform": "",
            "KUID": "d63b96752f614fd58dd19e036d22ac19"
        },
        "language": "js",
        "actions": [{
            "id": "ADD_SNIPPET__d52deff7552046d39c6b95f0fea57349",
            "type": "ADD_SNIPPET",
            "codeSnippet": "this.showSelectedRow();",
            "parentId": null
        }]
    }
}