{
    "AS_FlexContainer_c85ea4e2a7674b3dad323f47f457ca8e": {
        "id": "AS_FlexContainer_c85ea4e2a7674b3dad323f47f457ca8e",
        "type": "ACTION_SEQUENCE",
        "params": [{
            "datatype": "collection",
            "name": "eventobject"
        }, {
            "datatype": "string",
            "name": "x"
        }, {
            "datatype": "string",
            "name": "y"
        }, {
            "datatype": "collection",
            "name": "context"
        }],
        "contextObj": {
            "name": "segAccountsRowTemplateMobile",
            "type": "templates",
            "platform": "",
            "KUID": "b3231cedd0fa4966935344ab5986fa77"
        },
        "language": "js",
        "actions": [{
            "id": "ADD_SNIPPET_fbbe5ae277e94965bcbe3e231253cd04",
            "type": "ADD_SNIPPET",
            "codeSnippet": "this.accountPressed(context);",
            "parentId": null
        }]
    }
}