{
    "AS_FlexContainer_ce5f6b7d06004369b30e8c959f4c44a0": {
        "id": "AS_FlexContainer_ce5f6b7d06004369b30e8c959f4c44a0",
        "type": "ACTION_SEQUENCE",
        "params": [{
            "datatype": "collection",
            "name": "eventobject"
        }, {
            "datatype": "collection",
            "name": "context"
        }],
        "contextObj": {
            "name": "segUserManagementFeaturePermissionsTablet",
            "type": "templates",
            "platform": "",
            "KUID": "d5da1ba04a1c4e3696de8119289e2ba2"
        },
        "language": "js",
        "actions": [{
            "id": "INVOKE_FUNCTION__d34b8cff1e0241fe8adfb22057112f9e",
            "type": "INVOKE_FUNCTION",
            "sequenceKUID": "selectOrUnselectParentFeature",
            "display": "selectOrUnselectParentFeature",
            "inputparams": [{
                "name": "eventobject"
            }, {
                "name": "context"
            }],
            "parentId": null,
            "callbackType": null,
            "disabled": null,
            "source": "controller"
        }]
    }
}