{
    "AS_FlexContainer_fa8c9987411b4d7e9c611d22060754ef": {
        "id": "AS_FlexContainer_fa8c9987411b4d7e9c611d22060754ef",
        "type": "ACTION_SEQUENCE",
        "params": [{
            "datatype": "collection",
            "name": "eventobject"
        }, {
            "datatype": "collection",
            "name": "context"
        }],
        "contextObj": {
            "name": "segUserManagementFeaturePermissionsTablet",
            "type": "templates",
            "platform": "",
            "KUID": "d5da1ba04a1c4e3696de8119289e2ba2"
        },
        "language": "js",
        "actions": [{
            "id": "ADD_SNIPPET_acf7e9b6be664135b0ee4b4b69c0fa00",
            "type": "ADD_SNIPPET",
            "codeSnippet": "this.selectOrUnselectParentFeature(eventobject, context);",
            "parentId": null
        }]
    }
}