{
    "AS_FlexContainer_c8a6db06ee144a399da63a6319004e0b": {
        "id": "AS_FlexContainer_c8a6db06ee144a399da63a6319004e0b",
        "type": "ACTION_SEQUENCE",
        "params": [{
            "datatype": "collection",
            "name": "eventobject"
        }, {
            "datatype": "collection",
            "name": "context"
        }],
        "language": "js",
        "actions": [{
            "id": "ADD_SNIPPET_ide_onClick_f15ea29203ec48f28ad87e64c9e19a05",
            "type": "ADD_SNIPPET",
            "codeSnippet": "this.segmentHistoryRowClick();",
            "callbackType": null
        }]
    }
}