{
    "AS_FlexContainer_f865986d51964f27bd7392f3334bc1ee": {
        "id": "AS_FlexContainer_f865986d51964f27bd7392f3334bc1ee",
        "type": "ACTION_SEQUENCE",
        "params": [{
            "datatype": "collection",
            "name": "eventobject"
        }],
        "contextObj": {
            "name": "frmCustomerFeedbackSurvey",
            "type": "forms",
            "platform": "",
            "KUID": "ad9d39604a4348e1b3724c4bc446e1b4"
        },
        "language": "js",
        "actions": [{
            "id": "ADD_SNIPPET__d7280f137a2f414597d6d67d2036d2a4",
            "type": "ADD_SNIPPET",
            "codeSnippet": "this.toggleCheckBox(this.view.FeedbackSurvey.imgcheckbox2);",
            "parentId": null,
            "callbackType": null
        }]
    }
}