{
    "AS_Form_d6771f2e9bbc4ea2b755ce3c8a178070": {
        "id": "AS_Form_d6771f2e9bbc4ea2b755ce3c8a178070",
        "type": "ACTION_SEQUENCE",
        "params": [{
            "datatype": "collection",
            "name": "eventobject"
        }, {
            "datatype": "number",
            "name": "breakpoint"
        }],
        "contextObj": {
            "name": "frmAccountsDetails",
            "type": "forms",
            "platform": "",
            "KUID": "f22d64f7cb454ad980b530de61c4240a"
        },
        "language": "js",
        "actions": [{
            "id": "ADD_SNIPPET__ha85fccec85a483380d026079ac21fbe",
            "type": "ADD_SNIPPET",
            "codeSnippet": "this.onBreakpointChange(breakpoint);",
            "parentId": null,
            "callbackType": null
        }]
    }
}