{
    "AS_Form_d488fdb57d2b4d1ca8fca33da61f24a0": {
        "id": "AS_Form_d488fdb57d2b4d1ca8fca33da61f24a0",
        "type": "ACTION_SEQUENCE",
        "params": [{
            "datatype": "collection",
            "name": "eventobject"
        }],
        "contextObj": {
            "name": "frmNewMessages",
            "type": "forms",
            "platform": "",
            "KUID": "b39b43c7faa2447abeae5e91bebb682b"
        },
        "language": "js",
        "actions": [{
            "id": "ADD_SNIPPET_e16cdf4c9c5f49f39da429863d5a34f9",
            "type": "ADD_SNIPPET",
            "codeSnippet": "this.frmPostShow();",
            "parentId": null
        }]
    }
}