{
    "AS_Form_b719e37e59a2412fbfafb4b56d17a5d9": {
        "id": "AS_Form_b719e37e59a2412fbfafb4b56d17a5d9",
        "type": "ACTION_SEQUENCE",
        "params": [{
            "datatype": "collection",
            "name": "eventobject"
        }],
        "contextObj": {
            "name": "frmConfirmAccount",
            "type": "forms",
            "platform": "",
            "KUID": "fa720a3845e84444a32d1129de3a2f6b"
        },
        "language": "js",
        "actions": [{
            "id": "ADD_SNIPPET__f2ea1cdc8c594d9194295052240314ef",
            "type": "ADD_SNIPPET",
            "codeSnippet": "//Need to Consolidate\nkony.print(\"Back button pressed\");",
            "parentId": null,
            "callbackType": null
        }]
    }
}