{
    "AS_FlexContainer_e986845eb762471fae3f4b896a73332e": {
        "id": "AS_FlexContainer_e986845eb762471fae3f4b896a73332e",
        "type": "ACTION_SEQUENCE",
        "params": [{
            "datatype": "collection",
            "name": "eventobject"
        }, {
            "datatype": "collection",
            "name": "context"
        }],
        "contextObj": {
            "name": "segBillPayAllPayeesSelectedTemp",
            "type": "templates",
            "platform": null,
            "KUID": "a61e589a733144de9a44be464472b707"
        },
        "language": "js",
        "actions": [{
            "id": "ADD_SNIPPET_ide_onClick_c8aef05b8c714360b05010453bee459e",
            "type": "ADD_SNIPPET",
            "codeSnippet": "this.segmentAllPayeesRowClick();",
            "callbackType": null
        }]
    }
}