{
    "AS_FlexContainer_ccd6bd464747493794c07b25d2599cdc": {
        "id": "AS_FlexContainer_ccd6bd464747493794c07b25d2599cdc",
        "type": "ACTION_SEQUENCE",
        "params": [{
            "datatype": "collection",
            "name": "eventobject"
        }],
        "contextObj": {
            "name": "CopyfrmFastActiveRecipient",
            "type": "forms",
            "platform": null,
            "KUID": "b0706403e9c64a0098a2192c453890a7"
        },
        "language": "js",
        "actions": [{
            "id": "ADD_SNIPPET_ide_onClick_b401177e3a9e45a69476ca4438e6141f",
            "type": "ADD_SNIPPET",
            "codeSnippet": "this.setTCcheckBoxState();",
            "callbackType": null
        }]
    }
}