{
    "AS_Form_i184d858ce154317947ea16e34e4d1da": {
        "id": "AS_Form_i184d858ce154317947ea16e34e4d1da",
        "type": "ACTION_SEQUENCE",
        "params": [{
            "datatype": "collection",
            "name": "eventobject"
        }],
        "contextObj": {
            "name": "frmP2PActivate",
            "type": "forms",
            "platform": null,
            "KUID": "e3855154b06d4639b4fcbed73b7bf0aa"
        },
        "language": "js",
        "actions": [{
            "id": "INVOKE_FUNCTION__ide_init_a4316f5272d64d2eb44dce0a75090a79",
            "type": "INVOKE_FUNCTION",
            "sequenceKUID": "init",
            "display": "init",
            "inputparams": [],
            "callbackType": null,
            "disabled": null,
            "source": "controller"
        }]
    }
}