{
    "AS_FlexContainer_d6f080e237c741fcbd4255e5901b5790": {
        "id": "AS_FlexContainer_d6f080e237c741fcbd4255e5901b5790",
        "type": "ACTION_SEQUENCE",
        "params": [{
            "datatype": "collection",
            "name": "eventobject"
        }, {
            "datatype": "collection",
            "name": "context"
        }],
        "contextObj": {
            "name": "segBillPayScheduledMobile",
            "type": "templates",
            "platform": null,
            "KUID": "d21886e8f49d4b4e8a6e5f1038e3241b"
        },
        "language": "js",
        "actions": [{
            "id": "ADD_SNIPPET_ide_onClick_j5b4d2d50d62422ca21fc30d681abf58",
            "type": "ADD_SNIPPET",
            "codeSnippet": "this.segmentHistoryRowClick();",
            "callbackType": null
        }]
    }
}