{
    "AS_Form_d366c36537dd41778b825ab8f10d506f": {
        "id": "AS_Form_d366c36537dd41778b825ab8f10d506f",
        "type": "ACTION_SEQUENCE",
        "params": [{
            "datatype": "collection",
            "name": "eventobject"
        }, {
            "datatype": "string",
            "name": "x"
        }, {
            "datatype": "string",
            "name": "y"
        }],
        "contextObj": {
            "name": "frmProfileManagement",
            "type": "forms",
            "platform": "",
            "KUID": "e136103788ec406cab0b1d0f2087f12b"
        },
        "language": "js",
        "actions": [{
            "id": "ADD_SNIPPET__h035e5509bcc4849975351cbee266310",
            "type": "ADD_SNIPPET",
            "codeSnippet": "hidePopups();",
            "parentId": null,
            "callbackType": null
        }]
    }
}