{
    "AS_Form_ea047d0120aa454bbf780d34437bf52f": {
        "id": "AS_Form_ea047d0120aa454bbf780d34437bf52f",
        "type": "ACTION_SEQUENCE",
        "params": [{
            "datatype": "collection",
            "name": "eventobject"
        }],
        "contextObj": {
            "name": "frmInternationalTransfer",
            "type": "forms",
            "platform": "",
            "KUID": "eaf0df39996e4f93801d2a12eb5dd20c"
        },
        "language": "js",
        "actions": [{
            "id": "ADD_SNIPPET_ff12061945084792bc258fa05717b87d",
            "type": "ADD_SNIPPET",
            "codeSnippet": "this.preshow();",
            "parentId": null
        }]
    }
}