{
    "AS_FlexContainer_a0fb94becf6c4faa95757e575d7ae6b3": {
        "id": "AS_FlexContainer_a0fb94becf6c4faa95757e575d7ae6b3",
        "type": "ACTION_SEQUENCE",
        "params": [{
            "datatype": "collection",
            "name": "eventobject"
        }, {
            "datatype": "collection",
            "name": "context"
        }],
        "contextObj": {
            "name": "segSentP2P",
            "type": "templates",
            "platform": null,
            "KUID": "j036672a7ebc48c5872c5df5b5643e42"
        },
        "language": "js",
        "actions": [{
            "id": "ADD_SNIPPET_ide_onClick_ecc4e1bc3b5d489197961496ff75e77c",
            "type": "ADD_SNIPPET",
            "codeSnippet": "this.showSelectedRow();",
            "callbackType": null
        }]
    }
}