{
    "AS_Form_c8e617d1061d44848b27329e7d19cbac": {
        "id": "AS_Form_c8e617d1061d44848b27329e7d19cbac",
        "type": "ACTION_SEQUENCE",
        "params": [{
            "datatype": "collection",
            "name": "eventobject"
        }],
        "contextObj": {
            "name": "frmP2PSendMoney",
            "type": "forms",
            "platform": null,
            "KUID": "g5f140022172483bab1cccd6202ddc65"
        },
        "language": "js",
        "actions": [{
            "id": "INVOKE_FUNCTION__ide_init_da618f58e1db42ff988012ba854bf988",
            "type": "INVOKE_FUNCTION",
            "sequenceKUID": "init",
            "display": "init",
            "inputparams": [],
            "callbackType": null,
            "disabled": null,
            "source": "controller"
        }]
    }
}