{
    "AS_FlexContainer_d2fd18c8d2ba4c75944a3cfcd5a2b73a": {
        "id": "AS_FlexContainer_d2fd18c8d2ba4c75944a3cfcd5a2b73a",
        "type": "ACTION_SEQUENCE",
        "params": [{
            "datatype": "collection",
            "name": "eventobject"
        }, {
            "datatype": "collection",
            "name": "context"
        }],
        "language": "js",
        "actions": [{
            "id": "ADD_SNIPPET_ide_onClick_ce13a65719d249c29a515efab80a8773",
            "type": "ADD_SNIPPET",
            "codeSnippet": "this.showSelectedRow();",
            "callbackType": null
        }]
    }
}