{
    "AS_Form_g4f57f598ab34e358b6b3294048f52f5": {
        "id": "AS_Form_g4f57f598ab34e358b6b3294048f52f5",
        "type": "ACTION_SEQUENCE",
        "params": [{
            "datatype": "collection",
            "name": "eventobject"
        }],
        "contextObj": {
            "name": "frmPayDueAmount",
            "type": "forms",
            "platform": "",
            "KUID": "ba0b4f38b88d4ad7a2c69bb7d0d38c44"
        },
        "language": "js",
        "actions": [{
            "id": "ADD_SNIPPET__e1d627a192f94e169820ee32ad3737f2",
            "type": "ADD_SNIPPET",
            "codeSnippet": "this.frmPayDueAmountPreShow();",
            "parentId": null,
            "callbackType": null
        }]
    }
}