{
    "AS_Form_d66f8d075c174058815ac981b47e699d": {
        "id": "AS_Form_d66f8d075c174058815ac981b47e699d",
        "type": "ACTION_SEQUENCE",
        "params": [{
            "datatype": "collection",
            "name": "eventobject"
        }],
        "contextObj": {
            "name": "frmResetPassword",
            "type": "forms",
            "platform": "",
            "KUID": "b92f930311ee4fe3897dd1220843382c"
        },
        "language": "js",
        "actions": [{
            "id": "ADD_SNIPPET__cbcaf2bbb201494a97f15d38210cfd88",
            "type": "ADD_SNIPPET",
            "codeSnippet": "this.preShow();",
            "parentId": null,
            "callbackType": null
        }]
    }
}