{
    "AS_FlexContainer_c76c718bcb934f8690568e8f1c9a6483": {
        "id": "AS_FlexContainer_c76c718bcb934f8690568e8f1c9a6483",
        "type": "ACTION_SEQUENCE",
        "params": [{
            "datatype": "collection",
            "name": "eventobject"
        }, {
            "datatype": "collection",
            "name": "context"
        }],
        "contextObj": {
            "name": "segDownloadAttachments",
            "type": "templates",
            "platform": "",
            "KUID": "gbd349af2f714eab8c5adb5faecf9593"
        },
        "language": "js",
        "actions": [{
            "id": "INVOKE_FUNCTION__ad73f3e9189d4d6db5562a31243ff75d",
            "type": "INVOKE_FUNCTION",
            "sequenceKUID": "downloadSingleFile",
            "display": "downloadSingleFile",
            "inputparams": [],
            "parentId": null,
            "callbackType": null,
            "disabled": null,
            "source": "controller"
        }]
    }
}