{
    "AS_Form_j55a0e01009f45c2bacdc0a24f84d3bd": {
        "id": "AS_Form_j55a0e01009f45c2bacdc0a24f84d3bd",
        "type": "ACTION_SEQUENCE",
        "params": [{
            "datatype": "collection",
            "name": "eventobject"
        }],
        "contextObj": {
            "name": "frmConfirmAccount",
            "type": "forms",
            "platform": "",
            "KUID": "fa720a3845e84444a32d1129de3a2f6b"
        },
        "language": "js",
        "actions": [{
            "id": "ADD_SNIPPET__bf4ffdadd92a4794b99a65751002911d",
            "type": "ADD_SNIPPET",
            "codeSnippet": "this.preShowfrmConfirmAccount();\n\n",
            "parentId": null,
            "callbackType": null
        }]
    }
}