{
    "AS_FlexContainer_b9e8258dcda841ba87a087290d91c793": {
        "id": "AS_FlexContainer_b9e8258dcda841ba87a087290d91c793",
        "type": "ACTION_SEQUENCE",
        "params": [{
            "datatype": "collection",
            "name": "eventobject"
        }, {
            "datatype": "collection",
            "name": "context"
        }],
        "contextObj": {
            "KUID": "a97a46aca477492b9658f26019055a52",
            "name": "CopysegBBAccountAccessHeader",
            "platform": "",
            "type": "templates"
        },
        "language": "js",
        "actions": [{
            "id": "ADD_SNIPPET__b686061ba58f4be9879878c36f482add",
            "type": "ADD_SNIPPET",
            "codeSnippet": "this.executeOnParent(\"checkUncheckTransactionAccess\");",
            "parentId": null,
            "callbackType": null
        }]
    }
}