{
    "AS_FlexContainer_f000869b60f04214812bd2515a9e869e": {
        "id": "AS_FlexContainer_f000869b60f04214812bd2515a9e869e",
        "type": "ACTION_SEQUENCE",
        "params": [{
            "datatype": "collection",
            "name": "eventobject"
        }, {
            "datatype": "collection",
            "name": "context"
        }],
        "contextObj": {
            "name": "segUserManagementFeaturePermissionsDesktop",
            "type": "templates",
            "platform": "",
            "KUID": "e96c23d4262a4fdcad68c44d85793905"
        },
        "language": "js",
        "actions": [{
            "id": "ADD_SNIPPET_gc4062097500480380a24eeb3b54d33e",
            "type": "ADD_SNIPPET",
            "codeSnippet": "this.selectOrUnselectParentFeature(eventobject, context);",
            "parentId": null
        }]
    }
}