{
    "AS_FlexContainer_ga80ad3345c748699845a6c7b6fcd24f": {
        "id": "AS_FlexContainer_ga80ad3345c748699845a6c7b6fcd24f",
        "type": "ACTION_SEQUENCE",
        "params": [{
            "datatype": "collection",
            "name": "eventobject"
        }, {
            "datatype": "collection",
            "name": "context"
        }],
        "contextObj": {
            "name": "segUserManagementFeaturePermissionsTablet",
            "type": "templates",
            "platform": "",
            "KUID": "d5da1ba04a1c4e3696de8119289e2ba2"
        },
        "language": "js",
        "actions": [{
            "id": "ADD_SNIPPET_f41abdae5a804f6fb5a80046c1f753a0",
            "type": "ADD_SNIPPET",
            "codeSnippet": "this.selectOrUnselectParentFeature(eventobject, context);",
            "parentId": null
        }]
    }
}