{
    "AS_Form_ea0676b6305641d4848f2e4157c16c3b": {
        "id": "AS_Form_ea0676b6305641d4848f2e4157c16c3b",
        "type": "ACTION_SEQUENCE",
        "params": [{
            "datatype": "collection",
            "name": "eventobject"
        }],
        "contextObj": {
            "KUID": "c2ba18e95cc34afb9afdd6df8130ae80",
            "name": "frmACHDashboard",
            "platform": "",
            "type": "forms"
        },
        "language": "js",
        "actions": [{
            "id": "ADD_SNIPPET__acc8fa2056cd4750ac8ae314dce731c7",
            "type": "ADD_SNIPPET",
            "codeSnippet": "this.onPreShow();",
            "parentId": null,
            "callbackType": null
        }]
    }
}