{
    "AS_Form_e38076ca9e8e4849b18c43d97bbca57a": {
        "id": "AS_Form_e38076ca9e8e4849b18c43d97bbca57a",
        "type": "ACTION_SEQUENCE",
        "params": [{
            "datatype": "collection",
            "name": "eventobject"
        }],
        "contextObj": {
            "name": "frmP2PTransferConfirmation",
            "type": "forms",
            "platform": "",
            "KUID": "jbf2c4b74fb24c5a92022dcc80330bf6"
        },
        "language": "js",
        "actions": [{
            "id": "ADD_SNIPPET_f8ee24cf511c4b2f99f9a08e670f676d",
            "type": "ADD_SNIPPET",
            "codeSnippet": "kony.print(\"Back Navigation Disabled\");",
            "parentId": null
        }]
    }
}