{
    "AS_FlexContainer_gab7364de434456eadd489e0f596ae55": {
        "id": "AS_FlexContainer_gab7364de434456eadd489e0f596ae55",
        "type": "ACTION_SEQUENCE",
        "params": [{
            "datatype": "collection",
            "name": "eventobject"
        }, {
            "datatype": "collection",
            "name": "context"
        }],
        "contextObj": {
            "name": "segBillPaymentScheduledSelectedMobile",
            "type": "templates",
            "platform": null,
            "KUID": "i15d929a30cf46e092f4d1d44ca71d5e"
        },
        "language": "js",
        "actions": [{
            "id": "ADD_SNIPPET_ide_onClick_g07950c5e7ac47f9996eef1880050657",
            "type": "ADD_SNIPPET",
            "codeSnippet": "this.showUnselectedRow();",
            "callbackType": null
        }]
    }
}