{
    "AS_FlexContainer_ae200879727f489586890a8cc090f599": {
        "id": "AS_FlexContainer_ae200879727f489586890a8cc090f599",
        "type": "ACTION_SEQUENCE",
        "params": [{
            "datatype": "collection",
            "name": "eventobject"
        }, {
            "datatype": "collection",
            "name": "context"
        }],
        "contextObj": {
            "name": "segMakeTransferWireTransfersMobileSelectedNew",
            "type": "templates",
            "platform": "",
            "KUID": "c4996b095c994a30bda7ba16a52a9b6a"
        },
        "language": "js",
        "actions": [{
            "id": "ADD_SNIPPET__f8612add557841b3ba9e2fe2456da333",
            "type": "ADD_SNIPPET",
            "codeSnippet": "this.showSelectedRow();",
            "parentId": null
        }]
    }
}