{
    "AS_FlexContainer_e0c0ffb4a68b4aae95ebd2a3da365821": {
        "id": "AS_FlexContainer_e0c0ffb4a68b4aae95ebd2a3da365821",
        "type": "ACTION_SEQUENCE",
        "params": [{
            "datatype": "collection",
            "name": "eventobject"
        }],
        "contextObj": {
            "name": "frmEnrollNow",
            "type": "forms",
            "platform": null,
            "KUID": "bd78051f2239477699cd5b3d036cf72a"
        },
        "language": "js",
        "actions": [{
            "id": "ADD_SNIPPET_ide_onClick_i05a23027c2b402bb0fda46bfb721601",
            "type": "ADD_SNIPPET",
            "codeSnippet": "this.rememberMe();",
            "callbackType": null
        }]
    }
}