{
    "AS_FlexContainer_ebc6d57cf91d422bb925d4c68776bfec": {
        "id": "AS_FlexContainer_ebc6d57cf91d422bb925d4c68776bfec",
        "type": "ACTION_SEQUENCE",
        "params": [{
            "datatype": "collection",
            "name": "eventobject"
        }, {
            "datatype": "collection",
            "name": "context"
        }],
        "contextObj": {
            "name": "segChequeManagementSelectedWrapper",
            "type": "templates",
            "platform": "",
            "KUID": "cc6ff3f40f6a48e1aa725c3d6e009e17"
        },
        "language": "js",
        "actions": [{
            "id": "ADD_SNIPPET_de1bc1311e1f4eddbdedd789b8991168",
            "type": "ADD_SNIPPET",
            "codeSnippet": " \tthis.showSelectedRow();",
            "parentId": null,
            "callbackType": null
        }]
    }
}