{
    "AS_Form_f7edb8fb4d39471db4ccf4edca2ecd3f": {
        "id": "AS_Form_f7edb8fb4d39471db4ccf4edca2ecd3f",
        "type": "ACTION_SEQUENCE",
        "params": [{
            "datatype": "collection",
            "name": "eventobject"
        }],
        "contextObj": {
            "name": "frmStopPayments",
            "type": "forms",
            "platform": "",
            "KUID": "j941f5bc18824d7e9acdc6046ef3b0b0"
        },
        "language": "js",
        "actions": [{
            "id": "ADD_SNIPPET__ebba95aa039f4b769700021f4dddb710",
            "type": "ADD_SNIPPET",
            "codeSnippet": "this.preShowStopPayments();",
            "parentId": null,
            "callbackType": null
        }]
    }
}