{
    "AS_FlexContainer_bfea247d8a004387bfe48f58d235738b": {
        "id": "AS_FlexContainer_bfea247d8a004387bfe48f58d235738b",
        "type": "ACTION_SEQUENCE",
        "params": [{
            "datatype": "collection",
            "name": "eventobject"
        }, {
            "datatype": "collection",
            "name": "context"
        }],
        "contextObj": {
            "name": "segUserManagementFeaturePermissionsTablet",
            "type": "templates",
            "platform": "",
            "KUID": "d5da1ba04a1c4e3696de8119289e2ba2"
        },
        "language": "js",
        "actions": [{
            "id": "ADD_SNIPPET_g39cc4887de84c7e8af4e51f1e4f6950",
            "type": "ADD_SNIPPET",
            "codeSnippet": "this.selectOrUnselectParentFeature(eventobject, context);",
            "parentId": null
        }]
    }
}