{
    "AS_Form_c317558baf4548f3805abbd7dc564608": {
        "id": "AS_Form_c317558baf4548f3805abbd7dc564608",
        "type": "ACTION_SEQUENCE",
        "params": [{
            "datatype": "collection",
            "name": "eventobject"
        }],
        "contextObj": {
            "name": "frmFastManagePayee",
            "type": "forms",
            "platform": "",
            "KUID": "c8f34682fbe74ec48394c2e19f654eca"
        },
        "language": "js",
        "actions": [{
            "id": "ADD_SNIPPET__hb0b104190114ccfb62248acfb1ed8db",
            "type": "ADD_SNIPPET",
            "codeSnippet": "this.initActions();",
            "parentId": null,
            "callbackType": null
        }]
    }
}