{
    "AS_Form_fab048301e074c60bf2feb723719953e": {
        "id": "AS_Form_fab048301e074c60bf2feb723719953e",
        "type": "ACTION_SEQUENCE",
        "params": [{
            "datatype": "collection",
            "name": "eventobject"
        }],
        "contextObj": {
            "name": "frmLocateUsBranchTab",
            "type": "forms",
            "platform": "",
            "KUID": "b0896e9b938040419c0938d72a1e63ab"
        },
        "language": "js",
        "actions": [{
            "id": "ADD_SNIPPET_a24e36ae18de4954a922c863ffa37ee5",
            "type": "ADD_SNIPPET",
            "codeSnippet": "this.init();",
            "parentId": null
        }]
    }
}