{
    "AS_FlexContainer_he6cbadba84141398ade6f381480438e": {
        "id": "AS_FlexContainer_he6cbadba84141398ade6f381480438e",
        "type": "ACTION_SEQUENCE",
        "params": [{
            "datatype": "collection",
            "name": "eventobject"
        }, {
            "datatype": "collection",
            "name": "context"
        }],
        "contextObj": {
            "name": "segAccountsRowTemplate",
            "type": "templates",
            "platform": "",
            "KUID": "be4a8effaf974437a65287c72b6945bd"
        },
        "language": "js",
        "actions": [{
            "id": "ADD_SNIPPET_e8e9e53987a549f5a136a36a03fdfecd",
            "type": "ADD_SNIPPET",
            "codeSnippet": "this.accountPressed();",
            "parentId": null,
            "callbackType": null
        }]
    }
}