{
    "AS_FlexContainer_c84d0f4f1fd447b5bbea92af489b9486": {
        "id": "AS_FlexContainer_c84d0f4f1fd447b5bbea92af489b9486",
        "type": "ACTION_SEQUENCE",
        "params": [{
            "datatype": "collection",
            "name": "eventobject"
        }, {
            "datatype": "collection",
            "name": "context"
        }],
        "language": "js",
        "actions": [{
            "id": "ADD_SNIPPET_ide_onClick_b9d34052823a44eb8161522cb298f9df",
            "type": "ADD_SNIPPET",
            "codeSnippet": "this.showSelectedRow();",
            "callbackType": null
        }]
    }
}