{
    "AS_Form_cd44f3472d0a4aa9b9f0f4e1eecc1b8b": {
        "id": "AS_Form_cd44f3472d0a4aa9b9f0f4e1eecc1b8b",
        "type": "ACTION_SEQUENCE",
        "params": [{
            "datatype": "collection",
            "name": "eventobject"
        }],
        "contextObj": {
            "name": "frmFastDeActiveRecipient",
            "type": "forms",
            "platform": "",
            "KUID": "iee4992cc6814cb59c37543686c9343e"
        },
        "language": "js",
        "actions": [{
            "id": "ADD_SNIPPET__j8a95ce7866f43a9b6ba40bbcba45606",
            "type": "ADD_SNIPPET",
            "codeSnippet": "this.postShowDeActive();",
            "parentId": null,
            "callbackType": null
        }]
    }
}