{
    "AS_FlexContainer_eab495aec177480582ce9fe2049e1072": {
        "id": "AS_FlexContainer_eab495aec177480582ce9fe2049e1072",
        "type": "ACTION_SEQUENCE",
        "params": [{
            "datatype": "collection",
            "name": "eventobject"
        }, {
            "datatype": "collection",
            "name": "context"
        }],
        "contextObj": {
            "KUID": "ac4ae63b70b8405995352b8a57fb1dbf",
            "name": "CopysegBBAccountAccessLimit",
            "platform": "",
            "type": "templates"
        },
        "language": "js",
        "actions": [{
            "id": "ADD_SNIPPET__d393127da5764238bdfc70fa91a3909b",
            "type": "ADD_SNIPPET",
            "codeSnippet": "this.executeOnParent(\"checkUncheckAccountPermission\");",
            "parentId": null,
            "callbackType": null
        }]
    }
}