{
    "AS_FlexContainer_de417ac23c6a43559f42bcba49ae9a50": {
        "id": "AS_FlexContainer_de417ac23c6a43559f42bcba49ae9a50",
        "type": "ACTION_SEQUENCE",
        "params": [{
            "datatype": "collection",
            "name": "eventobject"
        }, {
            "datatype": "collection",
            "name": "context"
        }],
        "contextObj": {
            "type": "templates",
            "platform": null,
            "KUID": "fbb29b451d084a7ab306ff33fe6e1d85"
        },
        "language": "js",
        "actions": [{
            "id": "ADD_SNIPPET_ide_onClick_i1185b9b87e54d4582eb2a09a687dd55",
            "type": "ADD_SNIPPET",
            "codeSnippet": "// var ntf = new kony.mvc.Navigation(\"frmAccountsDetails\");\n// ntf.navigate();\nthis.accountPressed();",
            "callbackType": null
        }]
    }
}