{
    "AS_Form_e6da823cdc264fb7945bb9272152d72c": {
        "id": "AS_Form_e6da823cdc264fb7945bb9272152d72c",
        "type": "ACTION_SEQUENCE",
        "params": [{
            "datatype": "collection",
            "name": "eventobject"
        }],
        "contextObj": {
            "name": "frmACHDashboard",
            "type": "forms",
            "platform": "",
            "KUID": "c2ba18e95cc34afb9afdd6df8130ae80"
        },
        "language": "js",
        "actions": [{
            "id": "INVOKE_FUNCTION___hb06c9c2c37344c5a01176bc195ef657",
            "type": "INVOKE_FUNCTION",
            "sequenceKUID": "onPreShow",
            "display": "onPreShow",
            "inputparams": [],
            "parentId": null,
            "callbackType": null,
            "disabled": null,
            "source": "controller"
        }]
    }
}