{
    "AS_Form_f493eba66bf642399ed25db4c080425a": {
        "id": "AS_Form_f493eba66bf642399ed25db4c080425a",
        "type": "ACTION_SEQUENCE",
        "params": [{
            "datatype": "collection",
            "name": "eventobject"
        }],
        "contextObj": {
            "type": "forms",
            "platform": null,
            "KUID": "af67dc960e4944c7b60872042c8ee3a9"
        },
        "language": "js",
        "actions": [{
            "id": "ADD_SNIPPET_ide_preShow_e3770a73e5d945cc9c6b7a64a7461bd8",
            "type": "ADD_SNIPPET",
            "codeSnippet": "this.onPreShow();",
            "callbackType": null
        }]
    }
}