{
    "AS_FlexContainer_b344e0c445db4832ab07f1e5484f4179": {
        "id": "AS_FlexContainer_b344e0c445db4832ab07f1e5484f4179",
        "type": "ACTION_SEQUENCE",
        "params": [{
            "datatype": "collection",
            "name": "eventobject"
        }],
        "contextObj": {
            "name": "CopyfrmFastTransfersActivites",
            "type": "forms",
            "platform": null,
            "KUID": "cdf13e1b9b934ebf9498f344e35d2817"
        },
        "language": "js",
        "actions": [{
            "id": "ADD_SNIPPET_ide_onClick_df08073e559a42d2872d593be3ee88bd",
            "type": "ADD_SNIPPET",
            "codeSnippet": "this.showUserActions();",
            "callbackType": null
        }]
    }
}