{
    "AS_Form_f72b4190d92c4539a0ddde4bfa559352": {
        "id": "AS_Form_f72b4190d92c4539a0ddde4bfa559352",
        "type": "ACTION_SEQUENCE",
        "params": [{
            "datatype": "collection",
            "name": "eventobject"
        }],
        "contextObj": {
            "name": "frmStopPayments",
            "type": "forms",
            "platform": null,
            "KUID": "j941f5bc18824d7e9acdc6046ef3b0b0"
        },
        "language": "js",
        "actions": [{
            "id": "ADD_SNIPPET__a54845c5049f4ba982a402a070d0a157",
            "type": "ADD_SNIPPET",
            "codeSnippet": "this.postShowfrmStopCheckPayments();",
            "parentId": null,
            "callbackType": null
        }]
    }
}