{
    "AS_Form_gb5fca29a6684569be0023be22b5f8d0": {
        "id": "AS_Form_gb5fca29a6684569be0023be22b5f8d0",
        "type": "ACTION_SEQUENCE",
        "params": [{
            "datatype": "collection",
            "name": "eventobject"
        }],
        "contextObj": {
            "name": "frmFastAddRecipient",
            "type": "forms",
            "platform": "",
            "KUID": "bf44df939a7c4ba8bf121881be0fbd59"
        },
        "language": "js",
        "actions": [{
            "id": "ADD_SNIPPET__bd748ffcae8a4c57b700d281205e4877",
            "type": "ADD_SNIPPET",
            "codeSnippet": "this.postShowAddRecipient();",
            "parentId": null,
            "callbackType": null
        }]
    }
}