{
    "AS_FlexContainer_jb03ef87c9bf4658b4c1cf2d68ca6422": {
        "id": "AS_FlexContainer_jb03ef87c9bf4658b4c1cf2d68ca6422",
        "type": "ACTION_SEQUENCE",
        "params": [{
            "datatype": "collection",
            "name": "eventobject"
        }, {
            "datatype": "string",
            "name": "x"
        }, {
            "datatype": "string",
            "name": "y"
        }],
        "contextObj": {
            "name": "segCustomListBox",
            "type": "templates",
            "KUID": "f9974c2797cb4a9bb46f8d3ff8f6bc6a"
        },
        "language": "js",
        "actions": []
    }
}