{
    "AS_Form_f08124bb5c17467cadf8be4c900593bd": {
        "id": "AS_Form_f08124bb5c17467cadf8be4c900593bd",
        "type": "ACTION_SEQUENCE",
        "params": [{
            "datatype": "collection",
            "name": "eventobject"
        }],
        "contextObj": {
            "name": "frmEnrollNowBusiness",
            "type": "forms",
            "platform": null,
            "KUID": "c34b0397365a4e57a311fd6ef8e410ce"
        },
        "language": "js",
        "actions": [{
            "id": "ADD_SNIPPET_ide_preShow_g57855a322ff466a972e165503d3f310",
            "type": "ADD_SNIPPET",
            "codeSnippet": "this.preShow();",
            "callbackType": null
        }]
    }
}