{
    "AS_Form_a8c91357f04e4bbfa169a1ed661928b9": {
        "id": "AS_Form_a8c91357f04e4bbfa169a1ed661928b9",
        "type": "ACTION_SEQUENCE",
        "params": [{
            "datatype": "collection",
            "name": "eventobject"
        }],
        "contextObj": {
            "name": "frmFastActiveRecipient",
            "type": "forms",
            "platform": "",
            "KUID": "f280d3f60b9c4ad0a278ff87ee48f676"
        },
        "language": "js",
        "actions": [{
            "id": "ADD_SNIPPET__fc34a33d75aa4d65ba42c66aab339070",
            "type": "ADD_SNIPPET",
            "codeSnippet": "this.initActions();",
            "parentId": null,
            "callbackType": null
        }]
    }
}