{
    "AS_FlexContainer_a272ee6884654bb18b36bb34dd44900e": {
        "id": "AS_FlexContainer_a272ee6884654bb18b36bb34dd44900e",
        "type": "ACTION_SEQUENCE",
        "params": [{
            "datatype": "collection",
            "name": "eventobject"
        }, {
            "datatype": "collection",
            "name": "context"
        }],
        "contextObj": {
            "name": "segSurveyQuestion2",
            "type": "templates",
            "platform": "",
            "KUID": "a8117dcfdf714dafbc6437eb5acb6e3f"
        },
        "language": "js",
        "actions": [{
            "id": "ADD_SNIPPET__bda8e97fd60749bbaebc7afaa66871b8",
            "type": "ADD_SNIPPET",
            "codeSnippet": "this.toggleSurveyQuestionTransfersCheckBox();",
            "parentId": null,
            "callbackType": null
        }]
    }
}