{
    "AS_FlexContainer_i1ad69843f924101a065ce3845c5ab2b": {
        "id": "AS_FlexContainer_i1ad69843f924101a065ce3845c5ab2b",
        "type": "ACTION_SEQUENCE",
        "params": [{
            "datatype": "collection",
            "name": "eventobject"
        }, {
            "datatype": "collection",
            "name": "context"
        }],
        "contextObj": {
            "name": "segChequeManagementSelectedTablet",
            "type": "templates",
            "platform": "",
            "KUID": "g4f55d730e514e0398ee08d818de87b3"
        },
        "language": "js",
        "actions": [{
            "id": "ADD_SNIPPET_hd5395b6b7de4545bbfc6f30bd34b61c",
            "type": "ADD_SNIPPET",
            "codeSnippet": "this.showSelectedRow();",
            "parentId": null
        }]
    }
}