{
    "AS_Form_h5873d8114a44ef4a2d91f29507df0fc": {
        "id": "AS_Form_h5873d8114a44ef4a2d91f29507df0fc",
        "type": "ACTION_SEQUENCE",
        "params": [{
            "datatype": "collection",
            "name": "eventobject"
        }],
        "contextObj": {
            "name": "frmAddExternalAccount",
            "type": "forms",
            "platform": "",
            "KUID": "g44e89ee0cb445b982945b6b358d77eb"
        },
        "language": "js",
        "actions": [{
            "id": "ADD_SNIPPET__hf4594be9547462d984150e947999778",
            "type": "ADD_SNIPPET",
            "codeSnippet": "//Have to Consolidate\nkony.print(\"Back Button Pressed\");",
            "parentId": null,
            "callbackType": null
        }]
    }
}