{
    "AS_FlexContainer_he1f9a91ed2f463082f40c607c7297e7": {
        "id": "AS_FlexContainer_he1f9a91ed2f463082f40c607c7297e7",
        "type": "ACTION_SEQUENCE",
        "params": [{
            "datatype": "collection",
            "name": "eventobject"
        }, {
            "datatype": "collection",
            "name": "context"
        }],
        "contextObj": {
            "name": "segFeaturePermissionsTablet",
            "type": "templates",
            "platform": "",
            "KUID": "jec723efe539441dba60bb351fc8fd1f"
        },
        "language": "js",
        "actions": [{
            "id": "INVOKE_FUNCTION___ia7e7a9a4da74e788237e6f6f4872c76",
            "type": "INVOKE_FUNCTION",
            "sequenceKUID": "selectOrUnselectParentFeature",
            "display": "selectOrUnselectParentFeature",
            "inputparams": [{
                "name": "eventobject",
                "value": " eventobject"
            }, {
                "name": "context",
                "value": " context"
            }],
            "parentId": null,
            "callbackType": null,
            "disabled": null,
            "source": "controller"
        }]
    }
}