{
    "AS_FlexContainer_j68e1e4184f9457dae4a73b672400fa8": {
        "id": "AS_FlexContainer_j68e1e4184f9457dae4a73b672400fa8",
        "type": "ACTION_SEQUENCE",
        "params": [{
            "datatype": "collection",
            "name": "eventobject"
        }, {
            "datatype": "collection",
            "name": "context"
        }],
        "contextObj": {
            "name": "segAccountsRowTemplate",
            "type": "templates",
            "platform": "",
            "KUID": "be4a8effaf974437a65287c72b6945bd"
        },
        "language": "js",
        "actions": [{
            "id": "ADD_SNIPPET_ac67768b0b3e49c4af022e276bd6b930",
            "type": "ADD_SNIPPET",
            "codeSnippet": "this.menuPressed();",
            "parentId": null,
            "callbackType": null
        }]
    }
}