{
    "AS_Form_babaa2960cb546ea9d6a112d27a0389a": {
        "id": "AS_Form_babaa2960cb546ea9d6a112d27a0389a",
        "type": "ACTION_SEQUENCE",
        "params": [{
            "datatype": "collection",
            "name": "eventobject"
        }],
        "contextObj": {
            "name": "CopyfrmBBApprovalHistory",
            "type": "forms",
            "platform": null,
            "KUID": "f8f89be47e6b4a799a514e6370f815dd"
        },
        "language": "js",
        "actions": [{
            "id": "ADD_SNIPPET_ide_preShow_e1353915fd2b4af7a7f1f37e4d60fee1",
            "type": "ADD_SNIPPET",
            "codeSnippet": "this.onPreShow();",
            "callbackType": null
        }]
    }
}