{
    "AS_FlexContainer_c715f29dbf3045aa8e97e8a5baaf3579": {
        "id": "AS_FlexContainer_c715f29dbf3045aa8e97e8a5baaf3579",
        "type": "ACTION_SEQUENCE",
        "params": [{
            "datatype": "collection",
            "name": "eventobject"
        }, {
            "datatype": "collection",
            "name": "context"
        }],
        "contextObj": {
            "name": "segUserManagementNonAccountTablet",
            "type": "templates",
            "platform": "",
            "KUID": "e274ce6c6813497db5db3e45c51d7286"
        },
        "language": "js",
        "actions": [{
            "id": "ADD_SNIPPET_a009ed35f77c4e5aa867a9e8fe0ac5dd",
            "type": "ADD_SNIPPET",
            "codeSnippet": "this.selectOrUnselectParentFeature(eventobject, context);",
            "parentId": null
        }]
    }
}