{
    "AS_Form_b7b4d384166e4c168c5651b714b239fe": {
        "id": "AS_Form_b7b4d384166e4c168c5651b714b239fe",
        "type": "ACTION_SEQUENCE",
        "params": [{
            "datatype": "collection",
            "name": "eventobject"
        }],
        "contextObj": {
            "name": "frmProfileManagement",
            "type": "forms",
            "platform": "",
            "KUID": "e136103788ec406cab0b1d0f2087f12b"
        },
        "language": "js",
        "actions": [{
            "id": "ADD_SNIPPET__id01a05dd1534e16a047dc4818acd33c",
            "type": "ADD_SNIPPET",
            "codeSnippet": "this.postShowProfileManagement();",
            "parentId": null,
            "callbackType": null
        }]
    }
}