{
    "AS_Form_bcc29ebd7cf9499190aea85e4cff895a": {
        "id": "AS_Form_bcc29ebd7cf9499190aea85e4cff895a",
        "type": "ACTION_SEQUENCE",
        "params": [{
            "datatype": "collection",
            "name": "eventobject"
        }],
        "contextObj": {
            "name": "CopyfrmAccountsLanding",
            "type": "forms",
            "platform": null,
            "KUID": "bf91e396313e4705bf48003c6c6efcf0"
        },
        "language": "js",
        "actions": [{
            "id": "ADD_SNIPPET_ide_postShow_ea9e77123cb7474fa7fa211b1517fa58",
            "type": "ADD_SNIPPET",
            "codeSnippet": "this.onLoadChangePointer();\nthis.postShow();\nthis.setContextualMenuLeft();\n",
            "callbackType": null
        }]
    }
}