{
    "AS_FlexContainer_fe56bbc447b34c84a09bd24f2e29478f": {
        "id": "AS_FlexContainer_fe56bbc447b34c84a09bd24f2e29478f",
        "type": "ACTION_SEQUENCE",
        "params": [{
            "datatype": "collection",
            "name": "eventobject"
        }, {
            "datatype": "collection",
            "name": "context"
        }],
        "contextObj": {
            "name": "segBillPaymentScheduledSelected",
            "type": "templates",
            "platform": null,
            "KUID": "gd92f5b8860c49bb9573fbc72dcdac52"
        },
        "language": "js",
        "actions": [{
            "id": "ADD_SNIPPET_ide_onClick_d75533fd5fe34346a6317f9989a3688c",
            "type": "ADD_SNIPPET",
            "codeSnippet": "this.showUnselectedRow();",
            "callbackType": null
        }]
    }
}