{
    "AS_FlexContainer_dddb1baf6d3b425d8fc41bfcaf9ea87f": {
        "id": "AS_FlexContainer_dddb1baf6d3b425d8fc41bfcaf9ea87f",
        "type": "ACTION_SEQUENCE",
        "params": [{
            "datatype": "collection",
            "name": "eventobject"
        }, {
            "datatype": "collection",
            "name": "context"
        }],
        "contextObj": {
            "name": "segScheduledTransfers",
            "type": "templates",
            "platform": null,
            "KUID": "c1daedd6a1644593b6b75e54025cd8c1"
        },
        "language": "js",
        "actions": [{
            "id": "ADD_SNIPPET_ide_onClick_fd97eef443bf4d4ca5479f6e76adacca",
            "type": "ADD_SNIPPET",
            "codeSnippet": "this.showUnselectedRow();",
            "callbackType": null
        }]
    }
}