{
    "AS_FlexContainer_g413a34d7f784f5a8c13986eb7da8b26": {
        "id": "AS_FlexContainer_g413a34d7f784f5a8c13986eb7da8b26",
        "type": "ACTION_SEQUENCE",
        "params": [{
            "datatype": "collection",
            "name": "eventobject"
        }, {
            "datatype": "collection",
            "name": "context"
        }],
        "contextObj": {
            "name": "segBillPayAllPayeesSelected",
            "type": "templates",
            "platform": "",
            "KUID": "aa5112e31eab49b59336be8157829851"
        },
        "language": "js",
        "actions": [{
            "id": "ADD_SNIPPET__d048208d9af3461b9319345e9cbeeee4",
            "type": "ADD_SNIPPET",
            "codeSnippet": "this.segmentAllPayeesRowClick();",
            "parentId": null,
            "callbackType": null
        }]
    }
}