{
    "AS_FlexContainer_e130c8ed886647429ad45943dbb01282": {
        "id": "AS_FlexContainer_e130c8ed886647429ad45943dbb01282",
        "type": "ACTION_SEQUENCE",
        "params": [{
            "datatype": "collection",
            "name": "eventobject"
        }, {
            "datatype": "collection",
            "name": "context"
        }],
        "contextObj": {
            "name": "segAccountsPhoneNumbers",
            "type": "templates",
            "platform": "",
            "KUID": "a2a68f1b8fbf49739ddcb1574f5a876e"
        },
        "language": "js",
        "actions": [{
            "id": "ADD_SNIPPET__a149dc80dea8441f8fd4f384193b793b",
            "type": "ADD_SNIPPET",
            "codeSnippet": "this.toggleCheckBox();",
            "parentId": null,
            "callbackType": null
        }]
    }
}