{
    "AS_Form_c24cbf3939a344f0a45c323200e29e36": {
        "id": "AS_Form_c24cbf3939a344f0a45c323200e29e36",
        "type": "ACTION_SEQUENCE",
        "params": [{
            "datatype": "collection",
            "name": "eventobject"
        }],
        "contextObj": {
            "name": "frmWireTransferViewActivity",
            "type": "forms",
            "platform": "",
            "KUID": "cae85a14b75a4756aec161105d9852a7"
        },
        "language": "js",
        "actions": [{
            "id": "ADD_SNIPPET__b88413dffde34c15868ba1211b406754",
            "type": "ADD_SNIPPET",
            "codeSnippet": "this.init();",
            "parentId": null
        }]
    }
}