{
    "AS_Form_ga1a58f839974b30b16c59183007162b": {
        "id": "AS_Form_ga1a58f839974b30b16c59183007162b",
        "type": "ACTION_SEQUENCE",
        "params": [{
            "datatype": "collection",
            "name": "eventobject"
        }],
        "contextObj": {
            "name": "frmBBCreateCustomRole",
            "type": "forms",
            "platform": "",
            "KUID": "hb3836501f9147b18e175cb07b5e2e54"
        },
        "language": "js",
        "actions": [{
            "id": "ADD_SNIPPET_df19cc2015be4f66b7a9e291694db444",
            "type": "ADD_SNIPPET",
            "codeSnippet": "this.initActions();",
            "parentId": null
        }]
    }
}