{
    "AS_Form_f362fa24f0aa432ba66e2e5ee44649a1": {
        "id": "AS_Form_f362fa24f0aa432ba66e2e5ee44649a1",
        "type": "ACTION_SEQUENCE",
        "params": [{
            "datatype": "collection",
            "name": "eventobject"
        }],
        "contextObj": {
            "name": "frmBWTemplateConfirmTransfer",
            "type": "forms",
            "platform": null,
            "KUID": "d59c1ed70f204d1280f181150019d838"
        },
        "language": "js",
        "actions": [{
            "id": "ADD_SNIPPET_ide_postShow_b97f77eab02e4405aecbc271fc352105",
            "type": "ADD_SNIPPET",
            "codeSnippet": "self. postShowConfirmBulkWireTransfer();",
            "callbackType": null
        }]
    }
}