{
    "AS_Form_g0c28f60382743b481572b721f5583eb": {
        "id": "AS_Form_g0c28f60382743b481572b721f5583eb",
        "type": "ACTION_SEQUENCE",
        "params": [{
            "datatype": "collection",
            "name": "eventobject"
        }],
        "contextObj": {
            "name": "CopyfrmBBMyApprovals",
            "type": "forms",
            "platform": null,
            "KUID": "fc06a723c5364d18bf3a40538ed736d5"
        },
        "language": "js",
        "actions": [{
            "id": "ADD_SNIPPET_ide_init_a9f7fc7de69e4c4ca6937fc7a37cd2b1",
            "type": "ADD_SNIPPET",
            "codeSnippet": "this.onInit();",
            "callbackType": null
        }]
    }
}