{
    "AS_FlexContainer_be5eeb309f5c4587b6f7f712ac282909": {
        "id": "AS_FlexContainer_be5eeb309f5c4587b6f7f712ac282909",
        "type": "ACTION_SEQUENCE",
        "params": [{
            "datatype": "collection",
            "name": "eventobject"
        }],
        "contextObj": {
            "name": "CopyfrmAddPayee1",
            "type": "forms",
            "platform": null,
            "KUID": "e3156ddd0243498ab3842669c7088601"
        },
        "language": "js",
        "actions": [{
            "id": "ADD_SNIPPET_ide_onClick_ae80973b0fc542b784ec2bba1bb831a6",
            "type": "ADD_SNIPPET",
            "codeSnippet": "this.hideCancelPopup();",
            "callbackType": null
        }]
    }
}