{
    "AS_Form_acf21d16c8c54d019b3ee4589a2b4c93": {
        "id": "AS_Form_acf21d16c8c54d019b3ee4589a2b4c93",
        "type": "ACTION_SEQUENCE",
        "params": [{
            "datatype": "collection",
            "name": "eventobject"
        }],
        "contextObj": {
            "name": "frmSameBankTransferConfirmation",
            "type": "forms",
            "platform": "",
            "KUID": "b93ea55cec544de3a6d30c6c62bb5b0a"
        },
        "language": "js",
        "actions": [{
            "id": "ADD_SNIPPET_eadaac30d02d432c8fbfea42781b9a64",
            "type": "ADD_SNIPPET",
            "codeSnippet": "kony.print(\"Back Navigation Disabled\");",
            "parentId": null
        }]
    }
}