{
    "AS_Form_dd93f599a9684059a04d01a647335301": {
        "id": "AS_Form_dd93f599a9684059a04d01a647335301",
        "type": "ACTION_SEQUENCE",
        "params": [{
            "datatype": "collection",
            "name": "eventobject"
        }],
        "contextObj": {
            "name": "frmConfirmAndAck",
            "type": "forms",
            "platform": "",
            "KUID": "cf7f6e4d80cb4330b5ce7c714ea08715"
        },
        "language": "js",
        "actions": [{
            "id": "ADD_SNIPPET_a4e4043dff7841d3b9db6ab5e937dd39",
            "type": "ADD_SNIPPET",
            "codeSnippet": "this.postShow();",
            "parentId": null
        }]
    }
}