{
    "AS_Form_i8cb2cc535d44f9fa0f693cb50aa802d": {
        "id": "AS_Form_i8cb2cc535d44f9fa0f693cb50aa802d",
        "type": "ACTION_SEQUENCE",
        "params": [{
            "datatype": "collection",
            "name": "eventobject"
        }],
        "contextObj": {
            "name": "frmSavePayeeforOTT",
            "type": "forms",
            "platform": "",
            "KUID": "h4267ca5f82d45d786d5153286623ed3"
        },
        "language": "js",
        "actions": [{
            "id": "ADD_SNIPPET_g5c53a80f5564365a4e0970069d6ba84",
            "type": "ADD_SNIPPET",
            "codeSnippet": "kony.print(\"Back Navigation Disabled\");",
            "parentId": null
        }]
    }
}