{
    "AS_Form_a0d20dcc2bd74e16a7c0a0c80ffcae0d": {
        "id": "AS_Form_a0d20dcc2bd74e16a7c0a0c80ffcae0d",
        "type": "ACTION_SEQUENCE",
        "params": [{
            "datatype": "collection",
            "name": "eventobject"
        }],
        "contextObj": {
            "name": "frmBBAccountsLanding",
            "type": "forms",
            "platform": "",
            "KUID": "edc0be9ced2e48b7919dffec197e5bae"
        },
        "language": "js",
        "actions": [{
            "id": "ADD_SNIPPET__ec6a9b2831f649eeb0698f98b1c61354",
            "type": "ADD_SNIPPET",
            "codeSnippet": "this.initializeAccountsDashboard();",
            "parentId": null
        }]
    }
}