{
    "AS_Form_fcea3dcbde2540c497e2382a174e0bae": {
        "id": "AS_Form_fcea3dcbde2540c497e2382a174e0bae",
        "type": "ACTION_SEQUENCE",
        "params": [{
            "datatype": "collection",
            "name": "eventobject"
        }],
        "contextObj": {
            "name": "CopyfrmFastActiveRecipient",
            "type": "forms",
            "platform": null,
            "KUID": "b0706403e9c64a0098a2192c453890a7"
        },
        "language": "js",
        "actions": [{
            "id": "ADD_SNIPPET_ide_preShow_ad7a4b93425c4206b4b7d21549b43729",
            "type": "ADD_SNIPPET",
            "codeSnippet": "this.preShowActive();",
            "callbackType": null
        }]
    }
}