{
    "AS_FlexContainer_d5240ffe33a8453283208df900c38461": {
        "id": "AS_FlexContainer_d5240ffe33a8453283208df900c38461",
        "type": "ACTION_SEQUENCE",
        "params": [{
            "datatype": "collection",
            "name": "eventobject"
        }, {
            "datatype": "collection",
            "name": "context"
        }],
        "contextObj": {
            "name": "segProfileManagementAccounts",
            "type": "templates",
            "platform": null,
            "KUID": "b7b49663a590477097ec0ee49abb866b"
        },
        "language": "js",
        "actions": [{
            "id": "ADD_SNIPPET_ide_onClick_a3542dda5973415bbd645528e758759f",
            "type": "ADD_SNIPPET",
            "codeSnippet": "this.menuPressed();",
            "callbackType": null
        }]
    }
}