{
    "AS_FlexContainer_ed3953c561f14c6091a356321fc66406": {
        "id": "AS_FlexContainer_ed3953c561f14c6091a356321fc66406",
        "type": "ACTION_SEQUENCE",
        "params": [{
            "datatype": "collection",
            "name": "eventobject"
        }],
        "contextObj": {
            "name": "frmAddExternalAccountEur",
            "type": "forms",
            "platform": null,
            "KUID": "b4d3cf5fda1141e78858debbef0eb064"
        },
        "language": "js",
        "actions": [{
            "id": "ADD_SNIPPET_ide_onClick_b4b8b6f38b8447e1b831119687816d49",
            "type": "ADD_SNIPPET",
            "codeSnippet": "this.checkboxActionDomestic();",
            "callbackType": null
        }]
    }
}