{
    "AS_FlexContainer_e23aac8fc9f643aca6ab58db88277436": {
        "id": "AS_FlexContainer_e23aac8fc9f643aca6ab58db88277436",
        "type": "ACTION_SEQUENCE",
        "params": [{
            "datatype": "collection",
            "name": "eventobject"
        }, {
            "datatype": "collection",
            "name": "context"
        }],
        "contextObj": {
            "name": "segFeaturePermissionsTablet",
            "type": "templates",
            "platform": "",
            "KUID": "jec723efe539441dba60bb351fc8fd1f"
        },
        "language": "js",
        "actions": [{
            "id": "INVOKE_FUNCTION___e529ec316d734c9f9b2e75c39230120b",
            "type": "INVOKE_FUNCTION",
            "sequenceKUID": "selectOrUnselectParentFeature",
            "display": "selectOrUnselectParentFeature",
            "inputparams": [{
                "name": "eventobject",
                "value": " eventobject"
            }, {
                "name": "context",
                "value": " context"
            }],
            "parentId": null,
            "callbackType": null,
            "disabled": null,
            "source": "controller"
        }]
    }
}