{
    "AS_Form_c5070c9c7e7346fbb216b1f7adac61e1": {
        "id": "AS_Form_c5070c9c7e7346fbb216b1f7adac61e1",
        "type": "ACTION_SEQUENCE",
        "params": [{
            "datatype": "collection",
            "name": "eventobject"
        }],
        "contextObj": {
            "name": "frmVerifyAccount",
            "type": "forms",
            "platform": null,
            "KUID": "cd9d334f742c4ef3addf06485fd42e4c"
        },
        "language": "js",
        "actions": [{
            "id": "ADD_SNIPPET_ide_postShow_e23e5eb9bebb44ed92809caca5b5be00",
            "type": "ADD_SNIPPET",
            "codeSnippet": "this.postShowFrmConfirm();",
            "callbackType": null
        }]
    }
}