{
    "AS_FlexContainer_a259a7d58cff4ffa9532a6f7520d3870": {
        "id": "AS_FlexContainer_a259a7d58cff4ffa9532a6f7520d3870",
        "type": "ACTION_SEQUENCE",
        "params": [{
            "datatype": "collection",
            "name": "eventobject"
        }],
        "contextObj": {
            "name": "frmAddInternalAccountEur",
            "type": "forms",
            "platform": null,
            "KUID": "f6d47ee3559a49b9a84a9fcd7d6fce64"
        },
        "language": "js",
        "actions": [{
            "id": "ADD_SNIPPET_ide_onClick_gb549614a09747d5917704f694b936c0",
            "type": "ADD_SNIPPET",
            "codeSnippet": "this.showUserActions();",
            "callbackType": null
        }]
    }
}