{
    "AS_FlexContainer_c04e1bf78dad4c149538d8b2dbc5eafa": {
        "id": "AS_FlexContainer_c04e1bf78dad4c149538d8b2dbc5eafa",
        "type": "ACTION_SEQUENCE",
        "params": [{
            "datatype": "collection",
            "name": "eventobject"
        }, {
            "datatype": "collection",
            "name": "context"
        }],
        "contextObj": {
            "name": "segFeaturePermissions",
            "type": "templates",
            "platform": "",
            "KUID": "f0b706cc9ea7461cbd75bd9ee8a67c31"
        },
        "language": "js",
        "actions": [{
            "id": "INVOKE_FUNCTION___d8b8a4bac7e94a7da235c42325739c1a",
            "type": "INVOKE_FUNCTION",
            "sequenceKUID": "selectOrUnselectParentFeature",
            "display": "selectOrUnselectParentFeature",
            "inputparams": [{
                "name": "eventobject",
                "value": " eventobject"
            }, {
                "name": "context",
                "value": " context"
            }],
            "parentId": null,
            "callbackType": null,
            "disabled": null,
            "source": "controller"
        }]
    }
}