{
    "AS_FlexContainer_e0cf991b251f4d94bb05a199b8d004cc": {
        "id": "AS_FlexContainer_e0cf991b251f4d94bb05a199b8d004cc",
        "type": "ACTION_SEQUENCE",
        "params": [{
            "datatype": "collection",
            "name": "eventobject"
        }, {
            "datatype": "collection",
            "name": "context"
        }],
        "contextObj": {
            "name": "segUserManagementFeaturePermissionsDesktop",
            "type": "templates",
            "platform": "",
            "KUID": "e96c23d4262a4fdcad68c44d85793905"
        },
        "language": "js",
        "actions": [{
            "id": "ADD_SNIPPET_dee5edafd6e2461cb6d77ab2ecac2386",
            "type": "ADD_SNIPPET",
            "codeSnippet": "this.selectOrUnselectParentFeature(eventobject, context);",
            "parentId": null
        }]
    }
}