{
    "AS_Form_aa60ab2bffac452c8c59984a23bb09bf": {
        "id": "AS_Form_aa60ab2bffac452c8c59984a23bb09bf",
        "type": "ACTION_SEQUENCE",
        "name": "AS_Form_fbe681adc965436385a380f11d9b0b53",
        "params": [{
            "datatype": "collection",
            "name": "eventobject"
        }, {
            "datatype": "string",
            "name": "x"
        }, {
            "datatype": "string",
            "name": "y"
        }],
        "contextObj": {
            "name": "frmAccountsLanding",
            "type": "forms",
            "platform": "",
            "KUID": "c0567b2e5ece4b0cbbe1b35e3c8f3103"
        },
        "language": "js",
        "actions": []
    }
}