{
    "AS_FlexContainer_cd0c81f568fb4eb6bd520c3917230242": {
        "id": "AS_FlexContainer_cd0c81f568fb4eb6bd520c3917230242",
        "type": "ACTION_SEQUENCE",
        "params": [{
            "datatype": "collection",
            "name": "eventobject"
        }, {
            "datatype": "collection",
            "name": "context"
        }],
        "language": "js",
        "actions": [{
            "id": "ADD_SNIPPET_ide_onClick_dc972753ae0346bf8d9213873d8ad2ba",
            "type": "ADD_SNIPPET",
            "codeSnippet": "this.showSelectedRow();",
            "callbackType": null
        }]
    }
}