{
    "AS_FlexContainer_d23d12f26e8546faadd05e5c18521b10": {
        "id": "AS_FlexContainer_d23d12f26e8546faadd05e5c18521b10",
        "type": "ACTION_SEQUENCE",
        "params": [{
            "datatype": "collection",
            "name": "eventobject"
        }, {
            "datatype": "collection",
            "name": "context"
        }],
        "contextObj": {
            "KUID": "ac160f75bdcc40718dd679bdf760e029",
            "name": "CopysegBBAccountsCheckable",
            "platform": "",
            "type": "templates"
        },
        "language": "js",
        "actions": [{
            "id": "ADD_SNIPPET_ide_onClick_fd37cd46d47943ed89fc3a65869c919d",
            "type": "ADD_SNIPPET",
            "codeSnippet": "this.executeOnParent(\"checkUnCheckAccountAccess\");",
            "callbackType": null
        }]
    }
}