{
    "AS_FlexContainer_b132af6fa2784c989212ef1375f351f3": {
        "id": "AS_FlexContainer_b132af6fa2784c989212ef1375f351f3",
        "type": "ACTION_SEQUENCE",
        "params": [{
            "datatype": "collection",
            "name": "eventobject"
        }, {
            "datatype": "collection",
            "name": "context"
        }],
        "contextObj": {
            "name": "segUserManagementFeaturePermissionsDesktop",
            "type": "templates",
            "platform": "",
            "KUID": "e96c23d4262a4fdcad68c44d85793905"
        },
        "language": "js",
        "actions": [{
            "id": "ADD_SNIPPET_f8094a755e844529aec950436e68bb53",
            "type": "ADD_SNIPPET",
            "codeSnippet": "this.selectOrUnselectParentFeature(eventobject, context);",
            "parentId": null
        }]
    }
}