{
    "AS_FlexContainer_bc9d4ad42aae46498ca9afcf40c1fc2c": {
        "id": "AS_FlexContainer_bc9d4ad42aae46498ca9afcf40c1fc2c",
        "type": "ACTION_SEQUENCE",
        "params": [{
            "datatype": "collection",
            "name": "eventobject"
        }, {
            "datatype": "collection",
            "name": "context"
        }],
        "contextObj": {
            "name": "segFastScheduledTransfers",
            "type": "templates",
            "platform": "",
            "KUID": "baea7887b610468892e2b6990484f636"
        },
        "language": "js",
        "actions": [{
            "id": "ADD_SNIPPET__jbe4873fc003413bb909a2cf72ed995a",
            "type": "ADD_SNIPPET",
            "codeSnippet": "this.showSelectedRow();",
            "parentId": null,
            "callbackType": null
        }]
    }
}