{
    "AS_Form_f87a73c8b80b471e80b739157dde3622": {
        "id": "AS_Form_f87a73c8b80b471e80b739157dde3622",
        "type": "ACTION_SEQUENCE",
        "params": [{
            "datatype": "collection",
            "name": "eventobject"
        }, {
            "datatype": "string",
            "name": "x"
        }, {
            "datatype": "string",
            "name": "y"
        }],
        "contextObj": {
            "name": "frmPayDueAmount",
            "type": "forms",
            "platform": null,
            "KUID": "ba0b4f38b88d4ad7a2c69bb7d0d38c44"
        },
        "language": "js",
        "actions": [{
            "id": "ADD_SNIPPET_ide_onTouchEnd_fe84b534a9604e84af8d91b612eee372",
            "type": "ADD_SNIPPET",
            "codeSnippet": "hidePopups();",
            "callbackType": null
        }]
    }
}