{
    "AS_FlexContainer_hf021f59b524435d9b0c357136a0a2f2": {
        "id": "AS_FlexContainer_hf021f59b524435d9b0c357136a0a2f2",
        "type": "ACTION_SEQUENCE",
        "params": [{
            "datatype": "collection",
            "name": "eventobject"
        }, {
            "datatype": "collection",
            "name": "context"
        }],
        "contextObj": {
            "name": "segSendRequest",
            "type": "templates",
            "platform": "",
            "KUID": "ebca1cd8c322497fb0217d088b56bc03"
        },
        "language": "js",
        "actions": [{
            "id": "ADD_SNIPPET__b3b52e2d90f44578a4a12b4c6d328515",
            "type": "ADD_SNIPPET",
            "codeSnippet": "this.showSelectedRow();",
            "parentId": null,
            "callbackType": null
        }]
    }
}