{
    "AS_FlexContainer_c40efc4770434654bb1c09a85f93f262": {
        "id": "AS_FlexContainer_c40efc4770434654bb1c09a85f93f262",
        "type": "ACTION_SEQUENCE",
        "params": [{
            "datatype": "collection",
            "name": "eventobject"
        }, {
            "datatype": "string",
            "name": "x"
        }, {
            "datatype": "string",
            "name": "y"
        }],
        "contextObj": {
            "name": "frmLogin",
            "type": "forms",
            "platform": "",
            "KUID": "j0329c6c64654440bf366abc8de81b74"
        },
        "language": "js",
        "actions": [{
            "id": "ADD_SNIPPET__a7c8a1f151e846d2bf2dab73c32e8db3",
            "type": "ADD_SNIPPET",
            "codeSnippet": "this.showUserNameSuggestions();",
            "parentId": null,
            "callbackType": null
        }]
    }
}