{
    "AS_FlexContainer_i9ea79e99ea542dd93359a98d3507447": {
        "id": "AS_FlexContainer_i9ea79e99ea542dd93359a98d3507447",
        "type": "ACTION_SEQUENCE",
        "params": [{
            "datatype": "collection",
            "name": "eventobject"
        }, {
            "datatype": "collection",
            "name": "context"
        }],
        "contextObj": {
            "name": "segProfileManagementAccounts",
            "type": "templates",
            "platform": "",
            "KUID": "b7b49663a590477097ec0ee49abb866b"
        },
        "language": "js",
        "actions": [{
            "id": "ADD_SNIPPET__ia822bb2c09a4eb9a61e58eed4c40cbc",
            "type": "ADD_SNIPPET",
            "codeSnippet": null,
            "parentId": null,
            "callbackType": null
        }]
    }
}