{
    "AS_Form_fe7351d0425a4478a2a582d7478edefb": {
        "id": "AS_Form_fe7351d0425a4478a2a582d7478edefb",
        "type": "ACTION_SEQUENCE",
        "params": [{
            "datatype": "collection",
            "name": "eventobject"
        }, {
            "datatype": "number",
            "name": "breakpoint"
        }],
        "contextObj": {
            "name": "CopyfrmNonAccountLevelFeature",
            "type": "forms",
            "platform": null,
            "KUID": "h581675949054eaeb79dae15ee59454c"
        },
        "language": "js",
        "actions": [{
            "id": "INVOKE_FUNCTION__ide_onBreakpointChange_fa0a1b72043f404d9d52d5b298a3452e",
            "type": "INVOKE_FUNCTION",
            "sequenceKUID": "onBreakpointChange",
            "display": "onBreakpointChange",
            "inputparams": [{
                "name": "width",
                "value": " breakpoint"
            }],
            "callbackType": null,
            "disabled": null,
            "source": "controller"
        }]
    }
}