{
    "AS_FlexContainer_cf2b18e33e634229831f7d60dedf6c46": {
        "id": "AS_FlexContainer_cf2b18e33e634229831f7d60dedf6c46",
        "type": "ACTION_SEQUENCE",
        "params": [{
            "datatype": "collection",
            "name": "eventobject"
        }, {
            "datatype": "collection",
            "name": "context"
        }],
        "language": "js",
        "actions": [{
            "id": "ADD_SNIPPET_ide_onClick_a25580d8e1b0495593f2f6b0aa23e197",
            "type": "ADD_SNIPPET",
            "codeSnippet": "this.showSelectedRow();",
            "callbackType": null
        }]
    }
}