{
    "AS_FlexContainer_ead196aa0dfc47279646011ab1b818fe": {
        "id": "AS_FlexContainer_ead196aa0dfc47279646011ab1b818fe",
        "type": "ACTION_SEQUENCE",
        "params": [{
            "datatype": "collection",
            "name": "eventobject"
        }, {
            "datatype": "collection",
            "name": "context"
        }],
        "contextObj": {
            "name": "segFeaturePermissionsTablet",
            "type": "templates",
            "platform": "",
            "KUID": "jec723efe539441dba60bb351fc8fd1f"
        },
        "language": "js",
        "actions": [{
            "id": "INVOKE_FUNCTION___bb21d9d2a65e40e19e4f15614a9cf797",
            "type": "INVOKE_FUNCTION",
            "sequenceKUID": "selectOrUnselectParentFeature",
            "display": "selectOrUnselectParentFeature",
            "inputparams": [{
                "name": "eventobject",
                "value": " eventobject"
            }, {
                "name": "context",
                "value": " context"
            }],
            "parentId": null,
            "callbackType": null,
            "disabled": null,
            "source": "controller"
        }]
    }
}