{
    "AS_FlexContainer_d82ea47c2ef14de9aa314a6d92c5c949": {
        "id": "AS_FlexContainer_d82ea47c2ef14de9aa314a6d92c5c949",
        "type": "ACTION_SEQUENCE",
        "params": [{
            "datatype": "collection",
            "name": "eventobject"
        }, {
            "datatype": "collection",
            "name": "context"
        }],
        "contextObj": {
            "name": "segTransactionsRowSelectedSavingsMobile",
            "type": "templates",
            "platform": null,
            "KUID": "bd249f4211e64f559001aeff9817d904"
        },
        "language": "js",
        "actions": [{
            "id": "ADD_SNIPPET_ide_onClick_c53b6b21e25d4f3cb31b88741deb54e1",
            "type": "ADD_SNIPPET",
            "codeSnippet": "this.rememberCategory();",
            "callbackType": null
        }]
    }
}