{
    "AS_FlexContainer_dd1259ed31c44c9ca451566656049a34": {
        "id": "AS_FlexContainer_dd1259ed31c44c9ca451566656049a34",
        "type": "ACTION_SEQUENCE",
        "params": [{
            "datatype": "collection",
            "name": "eventobject"
        }],
        "contextObj": {
            "name": "frmLogin",
            "type": "forms",
            "platform": "",
            "KUID": "j0329c6c64654440bf366abc8de81b74"
        },
        "language": "js",
        "actions": [{
            "id": "ADD_SNIPPET__f587b68a49d7403bbb667c932aaccffc",
            "type": "ADD_SNIPPET",
            "codeSnippet": "this.showLanguageOptions();",
            "parentId": null,
            "callbackType": null
        }]
    }
}