{
    "AS_FlexContainer_jfcd5b0997904edf8a5dc28f2e7dea3a": {
        "id": "AS_FlexContainer_jfcd5b0997904edf8a5dc28f2e7dea3a",
        "type": "ACTION_SEQUENCE",
        "params": [{
            "datatype": "collection",
            "name": "eventobject"
        }, {
            "datatype": "collection",
            "name": "context"
        }],
        "contextObj": {
            "name": "segWatchlistExtended",
            "type": "templates",
            "platform": "",
            "KUID": "b2a14d7b767b4989809f554ec8819271"
        },
        "language": "js",
        "actions": [{
            "id": "ADD_SNIPPET_e24d644ac4cb4d609846b05e3a7cf765",
            "type": "ADD_SNIPPET",
            "codeSnippet": "this.menuPressed();",
            "parentId": null,
            "callbackType": null
        }]
    }
}