{
    "AS_Form_ad5ef411261f4fedb9f01c1cee73409d": {
        "id": "AS_Form_ad5ef411261f4fedb9f01c1cee73409d",
        "type": "ACTION_SEQUENCE",
        "params": [{
            "datatype": "collection",
            "name": "eventobject"
        }, {
            "datatype": "number",
            "name": "breakpoint"
        }],
        "contextObj": {
            "type": "forms",
            "platform": "",
            "KUID": "j5009d8a779a4a488549baef06b2b2f8"
        },
        "language": "js",
        "actions": [{
            "id": "INVOKE_FUNCTION__j2492febdb84478ba7eae8f0e7e34ddd",
            "type": "INVOKE_FUNCTION",
            "sequenceKUID": "onBreakpointChange",
            "display": "onBreakpointChange",
            "inputparams": [{
                "name": "form"
            }, {
                "name": "width"
            }],
            "parentId": null,
            "callbackType": null,
            "disabled": null,
            "source": "controller"
        }]
    }
}