{
    "AS_FlexContainer_a38e0e1ce52448669051a44fce8f5403": {
        "id": "AS_FlexContainer_a38e0e1ce52448669051a44fce8f5403",
        "type": "ACTION_SEQUENCE",
        "params": [{
            "datatype": "collection",
            "name": "eventobject"
        }, {
            "datatype": "collection",
            "name": "context"
        }],
        "contextObj": {
            "name": "segSent",
            "type": "templates",
            "platform": "",
            "KUID": "ae2d0e6583074a748f4d66a4e981e4fb"
        },
        "language": "js",
        "actions": [{
            "id": "ADD_SNIPPET__h5a1e899620249c7889245aa93d16ecb",
            "type": "ADD_SNIPPET",
            "codeSnippet": "this.showSelectedRow();",
            "parentId": null,
            "callbackType": null
        }]
    }
}