{
    "AS_FlexContainer_abe7c6f998fc4b6a97467d3cb41d75f2": {
        "id": "AS_FlexContainer_abe7c6f998fc4b6a97467d3cb41d75f2",
        "type": "ACTION_SEQUENCE",
        "params": [{
            "datatype": "collection",
            "name": "eventobject"
        }],
        "contextObj": {
            "name": "frmConfirmEur",
            "type": "forms",
            "platform": null,
            "KUID": "bd60bcd5cc2045c0b96a76158d5137ff"
        },
        "language": "js",
        "actions": [{
            "id": "ADD_SNIPPET_ide_onClick_iff03919fe69401b96bf26e7c33cdf50",
            "type": "ADD_SNIPPET",
            "codeSnippet": "this.showUserActions();",
            "callbackType": null
        }]
    }
}