{
    "AS_FlexContainer_g238d5aef63548f086d5275d950c995b": {
        "id": "AS_FlexContainer_g238d5aef63548f086d5275d950c995b",
        "type": "ACTION_SEQUENCE",
        "params": [{
            "datatype": "collection",
            "name": "eventobject"
        }, {
            "datatype": "collection",
            "name": "context"
        }],
        "contextObj": {
            "name": "segUserManagementNonAccountTablet",
            "type": "templates",
            "platform": "",
            "KUID": "e274ce6c6813497db5db3e45c51d7286"
        },
        "language": "js",
        "actions": [{
            "id": "ADD_SNIPPET_dd9c73c35ae048a3b9685507664f7482",
            "type": "ADD_SNIPPET",
            "codeSnippet": "this.selectOrUnselectParentFeature(eventobject, context);",
            "parentId": null
        }]
    }
}