{
    "AS_Form_ca9884dcd2e1466698e0e8c1d104ff40": {
        "id": "AS_Form_ca9884dcd2e1466698e0e8c1d104ff40",
        "type": "ACTION_SEQUENCE",
        "params": [{
            "datatype": "collection",
            "name": "eventobject"
        }],
        "contextObj": {
            "name": "frmFastActiveRecipient",
            "type": "forms",
            "platform": "",
            "KUID": "f280d3f60b9c4ad0a278ff87ee48f676"
        },
        "language": "js",
        "actions": [{
            "id": "ADD_SNIPPET__gc8c58138a074a279c08fdeb9e4e620d",
            "type": "ADD_SNIPPET",
            "codeSnippet": "this.preShowActions();",
            "parentId": null,
            "callbackType": null
        }]
    }
}