{
    "AS_Form_ce8cbe4067d4480ea97f686e39ba8705": {
        "id": "AS_Form_ce8cbe4067d4480ea97f686e39ba8705",
        "type": "ACTION_SEQUENCE",
        "params": [{
            "datatype": "collection",
            "name": "eventobject"
        }],
        "contextObj": {
            "name": "frmVerifyAccount",
            "type": "forms",
            "platform": "",
            "KUID": "cd9d334f742c4ef3addf06485fd42e4c"
        },
        "language": "js",
        "actions": [{
            "id": "ADD_SNIPPET__cbbf1715d7ec4d1a9b4b02c341605693",
            "type": "ADD_SNIPPET",
            "codeSnippet": "this.preshowfrmVerifyAccount();",
            "parentId": null,
            "callbackType": null
        }]
    }
}