{
    "AS_FlexContainer_db4d6602c4ba4d0384bad7e34504c74b": {
        "id": "AS_FlexContainer_db4d6602c4ba4d0384bad7e34504c74b",
        "type": "ACTION_SEQUENCE",
        "params": [{
            "datatype": "collection",
            "name": "eventobject"
        }],
        "contextObj": {
            "name": "frmAccountsLanding",
            "type": "forms",
            "platform": "",
            "KUID": "c0567b2e5ece4b0cbbe1b35e3c8f3103"
        },
        "language": "js",
        "actions": [{
            "id": "NAVIGATE_TO_FORM___aa1ce58b1ef5439ebc17827cfa25b47e",
            "type": "NAVIGATE_TO_FORM",
            "formId": "frmBillPay",
            "friendlyName": "frmBillPay",
            "formKUID": "h754f638fe6d4c56aac376a2f3adf18b",
            "mappings": {},
            "mappingsOrder": [],
            "parentId": "",
            "callbackType": null,
            "enableMappingEditor": true,
            "package": "BillPayModule",
            "isCustomInput": false
        }]
    }
}