{
    "AS_Form_a9b44bbdcde74e61aa1cc479ec66074d": {
        "id": "AS_Form_a9b44bbdcde74e61aa1cc479ec66074d",
        "type": "ACTION_SEQUENCE",
        "params": [{
            "datatype": "collection",
            "name": "eventobject"
        }],
        "contextObj": {
            "name": "frmProfileManagement",
            "type": "forms",
            "platform": "",
            "KUID": "e136103788ec406cab0b1d0f2087f12b"
        },
        "language": "js",
        "actions": [{
            "id": "ADD_SNIPPET__da4f773c697d4418b418288204c3a841",
            "type": "ADD_SNIPPET",
            "codeSnippet": "this.preShowProfileManagement();",
            "parentId": null,
            "callbackType": null
        }]
    }
}