{
    "AS_FlexContainer_fed10f5ed39c4090bceb353a3aeb2e1c": {
        "id": "AS_FlexContainer_fed10f5ed39c4090bceb353a3aeb2e1c",
        "type": "ACTION_SEQUENCE",
        "params": [{
            "datatype": "collection",
            "name": "eventobject"
        }, {
            "datatype": "collection",
            "name": "context"
        }],
        "contextObj": {
            "name": "segFeaturePermissionsTablet",
            "type": "templates",
            "platform": "",
            "KUID": "jec723efe539441dba60bb351fc8fd1f"
        },
        "language": "js",
        "actions": [{
            "id": "INVOKE_FUNCTION___da608d8a361146e39fd9a488f8afae24",
            "type": "INVOKE_FUNCTION",
            "sequenceKUID": "selectOrUnselectParentFeature",
            "display": "selectOrUnselectParentFeature",
            "inputparams": [{
                "name": "eventobject",
                "value": " eventobject"
            }, {
                "name": "context",
                "value": " context"
            }],
            "parentId": null,
            "callbackType": null,
            "disabled": null,
            "source": "controller"
        }]
    }
}