{
    "AS_FlexContainer_db51ea62ccca463f88eb56f33df6459e": {
        "id": "AS_FlexContainer_db51ea62ccca463f88eb56f33df6459e",
        "type": "ACTION_SEQUENCE",
        "params": [{
            "datatype": "collection",
            "name": "eventobject"
        }, {
            "datatype": "collection",
            "name": "context"
        }],
        "contextObj": {
            "name": "segDisputedTransactionsSelectedWrapperMobile",
            "type": "templates",
            "platform": "",
            "KUID": "g6c02b9f0fde4f8d8bcd7a06655dd39e"
        },
        "language": "js",
        "actions": [{
            "id": "ADD_SNIPPET_eab7a21110974cca993eac7692905f86",
            "type": "ADD_SNIPPET",
            "codeSnippet": "this.showSelectedRow();",
            "parentId": null
        }]
    }
}