{
    "AS_FlexContainer_ac49307b8edf4d79a813d822538ede66": {
        "id": "AS_FlexContainer_ac49307b8edf4d79a813d822538ede66",
        "type": "ACTION_SEQUENCE",
        "params": [{
            "datatype": "collection",
            "name": "eventobject"
        }, {
            "datatype": "collection",
            "name": "context"
        }],
        "language": "js",
        "actions": [{
            "id": "ADD_SNIPPET_ide_onClick_f179dd4d34394432b8c6bcd2412dc915",
            "type": "ADD_SNIPPET",
            "codeSnippet": "this.executeOnParent(\"checkUnCheckTransferAccess\");",
            "callbackType": null
        }]
    }
}