{
    "AS_Form_ic723dab44b8417badd1000b2378f4ba": {
        "id": "AS_Form_ic723dab44b8417badd1000b2378f4ba",
        "type": "ACTION_SEQUENCE",
        "params": [{
            "datatype": "collection",
            "name": "eventobject"
        }],
        "contextObj": {
            "name": "frmApprovalMatrixAccountLevel",
            "type": "forms",
            "platform": "",
            "KUID": "f8610831402f418a87b47513b4b0b16f"
        },
        "language": "js",
        "actions": [{
            "id": "ADD_SNIPPET_fa1bbb4e64ae4c6396c98dccf5527ef5",
            "type": "ADD_SNIPPET",
            "codeSnippet": "this.postShow();",
            "parentId": null
        }]
    }
}