{
    "AS_FlexContainer_bcfefea69fb9457c8b73752269d87a09": {
        "id": "AS_FlexContainer_bcfefea69fb9457c8b73752269d87a09",
        "type": "ACTION_SEQUENCE",
        "params": [{
            "datatype": "collection",
            "name": "eventobject"
        }],
        "contextObj": {
            "name": "frmCustomerFeedbackSurvey",
            "type": "forms",
            "platform": "",
            "KUID": "ad9d39604a4348e1b3724c4bc446e1b4"
        },
        "language": "js",
        "actions": [{
            "id": "ADD_SNIPPET__f929f7c730564c05b92d8fbb46b19a69",
            "type": "ADD_SNIPPET",
            "codeSnippet": "this.toggleCheckBox(this.view.FeedbackSurvey.imgcheckbox4);",
            "parentId": null,
            "callbackType": null
        }]
    }
}