{
    "AS_Form_dd9e90b05fcf48d08c845fc5fca9847e": {
        "id": "AS_Form_dd9e90b05fcf48d08c845fc5fca9847e",
        "type": "ACTION_SEQUENCE",
        "params": [{
            "datatype": "collection",
            "name": "eventobject"
        }],
        "contextObj": {
            "name": "frmDirectDebitsEur",
            "type": "forms",
            "platform": "",
            "KUID": "c74ce310262e4e16967ad831993b8019"
        },
        "language": "js",
        "actions": [{
            "id": "ADD_SNIPPET_a934c92cb0fe44e6a61e4d61e3f3e1dc",
            "type": "ADD_SNIPPET",
            "codeSnippet": "this.init();",
            "parentId": null
        }]
    }
}