{
    "AS_FlexContainer_h1926a587dfa4cd8bdc2049b086719e8": {
        "id": "AS_FlexContainer_h1926a587dfa4cd8bdc2049b086719e8",
        "type": "ACTION_SEQUENCE",
        "params": [{
            "datatype": "collection",
            "name": "eventobject"
        }],
        "contextObj": {
            "name": "frmCustomerFeedbackSurvey",
            "type": "forms",
            "platform": "",
            "KUID": "ad9d39604a4348e1b3724c4bc446e1b4"
        },
        "language": "js",
        "actions": [{
            "id": "ADD_SNIPPET__b05ea54a802d4094951094153ab77af8",
            "type": "ADD_SNIPPET",
            "codeSnippet": "this.showRatingAction(1);",
            "parentId": null,
            "callbackType": null
        }]
    }
}