{
    "AS_Image_f4f87f7afc67486b9c49422761c3193b": {
        "id": "AS_Image_f4f87f7afc67486b9c49422761c3193b",
        "type": "ACTION_SEQUENCE",
        "params": [{
            "datatype": "collection",
            "name": "eventobject"
        }, {
            "datatype": "string",
            "name": "x"
        }, {
            "datatype": "string",
            "name": "y"
        }],
        "contextObj": {
            "name": "frmNotificationsAndMessages",
            "type": "forms",
            "platform": null,
            "KUID": "a83a23bb52bc4894a44b027a89964c1b"
        },
        "language": "js",
        "actions": [{
            "id": "ADD_SNIPPET_ide_onTouchEnd_e65de25bb33c49efbb51b6d7cf6680ca",
            "type": "ADD_SNIPPET",
            "codeSnippet": "this.imgToggle(\"Due\");",
            "callbackType": null
        }]
    }
}