{
    "AS_Image_d4d8751ebea84c11865a4b30215df6a8": {
        "id": "AS_Image_d4d8751ebea84c11865a4b30215df6a8",
        "type": "ACTION_SEQUENCE",
        "params": [{
            "datatype": "collection",
            "name": "eventobject"
        }, {
            "datatype": "string",
            "name": "x"
        }, {
            "datatype": "string",
            "name": "y"
        }],
        "contextObj": {
            "name": "frmNotificationsAndMessages",
            "type": "forms",
            "platform": "",
            "KUID": "a83a23bb52bc4894a44b027a89964c1b"
        },
        "language": "js",
        "actions": [{
            "id": "ADD_SNIPPET__ga9fefd96c834f639f4b2ecb60a885c2",
            "type": "ADD_SNIPPET",
            "codeSnippet": "this.SearchAnimate();",
            "parentId": null,
            "callbackType": null
        }]
    }
}