{
    "AS_Image_fd08ca4c74b94e93b7bf00984af3b4f3": {
        "id": "AS_Image_fd08ca4c74b94e93b7bf00984af3b4f3",
        "type": "ACTION_SEQUENCE",
        "params": [{
            "datatype": "collection",
            "name": "eventobject"
        }, {
            "datatype": "string",
            "name": "x"
        }, {
            "datatype": "string",
            "name": "y"
        }],
        "contextObj": {
            "name": "frmLogin",
            "type": "forms",
            "platform": "",
            "KUID": "j0329c6c64654440bf366abc8de81b74"
        },
        "language": "js",
        "actions": [{
            "id": "ADD_SNIPPET__ib417627d2144101a39ae4cc43a7a659",
            "type": "ADD_SNIPPET",
            "codeSnippet": "this.showPassword();",
            "parentId": null,
            "callbackType": null
        }]
    }
}