{
    "AS_Image_fc82fc3f3d264775a6f1a67594990bce": {
        "id": "AS_Image_fc82fc3f3d264775a6f1a67594990bce",
        "type": "ACTION_SEQUENCE",
        "params": [{
            "datatype": "collection",
            "name": "eventobject"
        }, {
            "datatype": "string",
            "name": "x"
        }, {
            "datatype": "string",
            "name": "y"
        }],
        "contextObj": {
            "name": "frmPayDueAmount",
            "type": "forms",
            "platform": "",
            "KUID": "ba0b4f38b88d4ad7a2c69bb7d0d38c44"
        },
        "language": "js",
        "actions": [{
            "id": "ADD_SNIPPET__bc5ccc60722a41c4a6dd31aae242b378",
            "type": "ADD_SNIPPET",
            "codeSnippet": "this.imgToggle();",
            "parentId": null,
            "callbackType": null
        }]
    }
}