{
    "AS_Image_gc1058e9bb3749faa447a48f525e8029": {
        "id": "AS_Image_gc1058e9bb3749faa447a48f525e8029",
        "type": "ACTION_SEQUENCE",
        "params": [{
            "datatype": "collection",
            "name": "eventobject"
        }, {
            "datatype": "string",
            "name": "x"
        }, {
            "datatype": "string",
            "name": "y"
        }],
        "contextObj": {
            "name": "frmEnrollNow",
            "type": "forms",
            "platform": "",
            "KUID": "bd78051f2239477699cd5b3d036cf72a"
        },
        "language": "js",
        "actions": [{
            "id": "ADD_SNIPPET__gdd12e559aa5427fb7af898fa0089f5c",
            "type": "ADD_SNIPPET",
            "codeSnippet": "this.showCVV();",
            "parentId": null,
            "callbackType": null
        }]
    }
}