{
    "AS_Image_e5307a279867438fad05b43b325a8087": {
        "id": "AS_Image_e5307a279867438fad05b43b325a8087",
        "type": "ACTION_SEQUENCE",
        "params": [{
            "datatype": "collection",
            "name": "eventobject"
        }, {
            "datatype": "string",
            "name": "x"
        }, {
            "datatype": "string",
            "name": "y"
        }],
        "contextObj": {
            "name": "frmConsolidatedStatements",
            "type": "forms",
            "platform": "",
            "KUID": "cbd1540e6e1b474aa5da2373890f1fc8"
        },
        "language": "js",
        "actions": [{
            "id": "ADD_SNIPPET_d98893529520444daeddb18f15e5611c",
            "type": "ADD_SNIPPET",
            "codeSnippet": "this.view.flxGenerateStatementsPopup.setVisibility(false);",
            "parentId": null,
            "callbackType": null
        }]
    }
}