{
    "AS_Image_gf3d36b9e6284e3c9a130f073a3de5ef": {
        "id": "AS_Image_gf3d36b9e6284e3c9a130f073a3de5ef",
        "type": "ACTION_SEQUENCE",
        "params": [{
            "datatype": "collection",
            "name": "eventobject"
        }, {
            "datatype": "string",
            "name": "x"
        }, {
            "datatype": "string",
            "name": "y"
        }],
        "contextObj": {
            "name": "CopyfrmLogin",
            "type": "forms",
            "platform": null,
            "KUID": "d6328cf267c248a6b559c500d837ea14"
        },
        "language": "js",
        "actions": [{
            "id": "ADD_SNIPPET_ide_onTouchStart_fd3db7403f664aa79c57819a96218247",
            "type": "ADD_SNIPPET",
            "codeSnippet": "this.showOTP();",
            "callbackType": null
        }]
    }
}