{
    "AS_Image_f8547832354a419fa5cac4e1eb2a4efe": {
        "id": "AS_Image_f8547832354a419fa5cac4e1eb2a4efe",
        "type": "ACTION_SEQUENCE",
        "params": [{
            "datatype": "collection",
            "name": "eventobject"
        }, {
            "datatype": "string",
            "name": "x"
        }, {
            "datatype": "string",
            "name": "y"
        }],
        "contextObj": {
            "name": "frmNotificationsAndMessages",
            "type": "forms",
            "platform": "",
            "KUID": "a83a23bb52bc4894a44b027a89964c1b"
        },
        "language": "js",
        "actions": [{
            "id": "MOVE_ACTION____gab7ac3b7295408fb8cf043bd8046fb3",
            "type": "MOVE_ACTION",
            "itemType": "FORM",
            "itemId": "frmNotificationsAndMessages",
            "itemKUID": "a83a23bb52bc4894a44b027a89964c1b",
            "widgetKUID": "d1e286bdc8b64636bb9f0fec7aa636d7",
            "wType": "FlexContainer",
            "animationObject": {
                "left": "0%",
                "anchorPoint": {},
                "stepConfig": {
                    "timingFunction": "kony.anim.EASE"
                },
                "rectified": true
            },
            "config": {
                "delay": "0",
                "iterationCount": 1,
                "fillMode": "kony.anim.FILL_MODE_FORWARDS",
                "duration": "250"
            },
            "start": "Immediately",
            "animationId": "MOVE_ACTION____gab7ac3b7295408fb8cf043bd8046fb3",
            "displayAnimationId": "MOVE_ACTION____gab7ac3b7295408fb8cf043bd8046fb3",
            "forkedPlatform": "all",
            "parentId": null,
            "callbackType": null
        }]
    }
}