{
    "AS_Image_f59b86c066f24479bf595388ffd334ed": {
        "id": "AS_Image_f59b86c066f24479bf595388ffd334ed",
        "type": "ACTION_SEQUENCE",
        "params": [{
            "datatype": "collection",
            "name": "eventobject"
        }, {
            "datatype": "string",
            "name": "x"
        }, {
            "datatype": "string",
            "name": "y"
        }],
        "contextObj": {
            "type": "forms",
            "platform": null,
            "KUID": "fefecc2daf7b46699434d209b330569d"
        },
        "language": "js",
        "actions": [{
            "id": "ADD_SNIPPET_ide_onTouchEnd_d2ef43f42497456d8ab8d5c10d08cd4f",
            "type": "ADD_SNIPPET",
            "codeSnippet": "this.imgToggle(\"Other\");",
            "callbackType": null
        }]
    }
}