{
    "AS_Image_a6a76bd83fde4ca19e156879dc136997": {
        "id": "AS_Image_a6a76bd83fde4ca19e156879dc136997",
        "type": "ACTION_SEQUENCE",
        "params": [{
            "datatype": "collection",
            "name": "eventobject"
        }, {
            "datatype": "string",
            "name": "x"
        }, {
            "datatype": "string",
            "name": "y"
        }],
        "contextObj": {
            "name": "frmPayDueAmount",
            "type": "forms",
            "platform": "",
            "KUID": "ba0b4f38b88d4ad7a2c69bb7d0d38c44"
        },
        "language": "js",
        "actions": [{
            "id": "ADD_SNIPPET__d607270f901a423ab458dddc9389695a",
            "type": "ADD_SNIPPET",
            "codeSnippet": "this.imgToggle(\"Due\");",
            "parentId": null,
            "callbackType": null
        }]
    }
}