{
    "AS_Image_a1dd0ac5390146dabba56222e26dded5": {
        "id": "AS_Image_a1dd0ac5390146dabba56222e26dded5",
        "type": "ACTION_SEQUENCE",
        "params": [{
            "datatype": "collection",
            "name": "eventobject"
        }, {
            "datatype": "string",
            "name": "imagesrc"
        }, {
            "datatype": "boolean",
            "name": "issuccess"
        }],
        "contextObj": {
            "name": "frmNotificationsAndMessages",
            "type": "forms",
            "platform": "",
            "KUID": "a83a23bb52bc4894a44b027a89964c1b"
        },
        "language": "js",
        "actions": [{
            "id": "ADD_SNIPPET__abd7c5716eff4d16b6d1622ec8e44b67",
            "type": "ADD_SNIPPET",
            "codeSnippet": "this.SearchAnimate();",
            "parentId": null,
            "callbackType": null
        }]
    }
}