{
    "AS_Image_b510cce0051e42c8a7974ba079789a93": {
        "id": "AS_Image_b510cce0051e42c8a7974ba079789a93",
        "type": "ACTION_SEQUENCE",
        "params": [{
            "datatype": "collection",
            "name": "eventobject"
        }, {
            "datatype": "string",
            "name": "x"
        }, {
            "datatype": "string",
            "name": "y"
        }],
        "contextObj": {
            "name": "frmTransfersEur",
            "type": "forms",
            "platform": null,
            "KUID": "ce91c8ed58094b46825ffa2ecbf979d7"
        },
        "language": "js",
        "actions": [{
            "id": "ADD_SNIPPET_ide_onTouchStart_b8746fb4a9a54ca2a4b1615d20dacc1e",
            "type": "ADD_SNIPPET",
            "codeSnippet": "this.showPassword();",
            "callbackType": null
        }]
    }
}