{
    "AS_ListBox_dfaf77cb47fb42ca8d2224eb56d46a2d": {
        "id": "AS_ListBox_dfaf77cb47fb42ca8d2224eb56d46a2d",
        "type": "ACTION_SEQUENCE",
        "params": [{
            "datatype": "collection",
            "name": "eventobject"
        }],
        "contextObj": {
            "name": "CopyfrmLogin",
            "type": "forms",
            "platform": null,
            "KUID": "d6328cf267c248a6b559c500d837ea14"
        },
        "language": "js",
        "actions": [{
            "id": "ADD_SNIPPET_ide_onSelection_ac0c8b262f98427fba75bf3158ab2dc7",
            "type": "ADD_SNIPPET",
            "codeSnippet": "this.allFieldsCheck();",
            "callbackType": null
        }]
    }
}