{
    "AS_Label_j9378bf664b247fe8b7cf818c861ffb5": {
        "id": "AS_Label_j9378bf664b247fe8b7cf818c861ffb5",
        "type": "ACTION_SEQUENCE",
        "params": [{
            "datatype": "collection",
            "name": "eventobject"
        }, {
            "datatype": "string",
            "name": "x"
        }, {
            "datatype": "string",
            "name": "y"
        }],
        "contextObj": {
            "name": "frmAccountsLanding",
            "type": "forms",
            "platform": "",
            "KUID": "c0567b2e5ece4b0cbbe1b35e3c8f3103"
        },
        "language": "js",
        "actions": [{
            "id": "ADD_SNIPPET__a4a76d25d8f246a280ff12aec8cb0d9f",
            "type": "ADD_SNIPPET",
            "codeSnippet": "this.showAllAccounts();",
            "parentId": null,
            "callbackType": null
        }]
    }
}