{
    "AS_Label_e5dcc1b25d164dabb45451da089e107f": {
        "id": "AS_Label_e5dcc1b25d164dabb45451da089e107f",
        "type": "ACTION_SEQUENCE",
        "params": [{
            "datatype": "collection",
            "name": "eventobject"
        }, {
            "datatype": "string",
            "name": "x"
        }, {
            "datatype": "string",
            "name": "y"
        }],
        "contextObj": {
            "name": "frmLogin",
            "type": "forms",
            "platform": "",
            "KUID": "j0329c6c64654440bf366abc8de81b74"
        },
        "language": "js",
        "actions": [{
            "id": "ADD_SNIPPET__c0a96c66924a4353bd3826ab41ae2454",
            "type": "ADD_SNIPPET",
            "codeSnippet": "this.showLanguageOptions();",
            "parentId": null,
            "callbackType": null
        }]
    }
}