{
    "AS_ListBox_a245bbb34be24f6c8f8aba177aa34d6f": {
        "id": "AS_ListBox_a245bbb34be24f6c8f8aba177aa34d6f",
        "type": "ACTION_SEQUENCE",
        "params": [{
            "datatype": "collection",
            "name": "eventobject"
        }],
        "contextObj": {
            "name": "CopyfrmLogin",
            "type": "forms",
            "platform": null,
            "KUID": "d6328cf267c248a6b559c500d837ea14"
        },
        "language": "js",
        "actions": [{
            "id": "ADD_SNIPPET_ide_onSelection_cdd9b4e0aa714798882f3c63961ff259",
            "type": "ADD_SNIPPET",
            "codeSnippet": "this.allFieldsCheck();",
            "callbackType": null
        }]
    }
}