{
    "AS_Label_b19c2d2fdac147db9d8d84ac5d072072": {
        "id": "AS_Label_b19c2d2fdac147db9d8d84ac5d072072",
        "type": "ACTION_SEQUENCE",
        "params": [{
            "datatype": "collection",
            "name": "eventobject"
        }, {
            "datatype": "string",
            "name": "x"
        }, {
            "datatype": "string",
            "name": "y"
        }, {
            "datatype": "collection",
            "name": "context"
        }],
        "contextObj": {
            "name": "segAccountsConsolidatedSectionHeader",
            "type": "templates",
            "platform": "",
            "KUID": "dd754b57d2484770a04392e5c61e8c80"
        },
        "language": "js",
        "actions": [{
            "id": "ADD_SNIPPET_i1f15a5d7d32459fa9a7c03dd37f87b7",
            "type": "ADD_SNIPPET",
            "codeSnippet": "this.toggleSegment(eventobject, context)",
            "parentId": null
        }]
    }
}