{
    "AS_ListBox_da4aa769efde4cae831ff98d643f6b1e": {
        "id": "AS_ListBox_da4aa769efde4cae831ff98d643f6b1e",
        "type": "ACTION_SEQUENCE",
        "params": [{
            "datatype": "collection",
            "name": "eventobject"
        }],
        "language": "js",
        "actions": [{
            "id": "ADD_SNIPPET_ide_onSelection_a700da1d00bf42a7ab5e03410a894cac",
            "type": "ADD_SNIPPET",
            "codeSnippet": "this.setNoOfDays();",
            "callbackType": null
        }]
    }
}