{
    "AS_Label_e3f657ebddaa46e6882041f9508058ca": {
        "id": "AS_Label_e3f657ebddaa46e6882041f9508058ca",
        "type": "ACTION_SEQUENCE",
        "params": [{
            "datatype": "collection",
            "name": "eventobject"
        }, {
            "datatype": "string",
            "name": "x"
        }, {
            "datatype": "string",
            "name": "y"
        }, {
            "datatype": "collection",
            "name": "context"
        }],
        "contextObj": {
            "name": "segConsolidatedSectionHeaderMobile",
            "type": "templates",
            "platform": null,
            "KUID": "h2397c284bd54ca781f670e2ca7f04bb"
        },
        "language": "js",
        "actions": [{
            "id": "ADD_SNIPPET_ide_onTouchStart_he8fa8fcb09a4c17bf399f583d0cf357",
            "type": "ADD_SNIPPET",
            "codeSnippet": "this.toggleCheckBox(eventobject,context);"
        }]
    }
}