{
    "AS_Label_i3aafe47e5e54dad9fe4f6d620d879bf": {
        "id": "AS_Label_i3aafe47e5e54dad9fe4f6d620d879bf",
        "type": "ACTION_SEQUENCE",
        "params": [{
            "datatype": "collection",
            "name": "eventobject"
        }, {
            "datatype": "string",
            "name": "x"
        }, {
            "datatype": "string",
            "name": "y"
        }],
        "contextObj": {
            "name": "frmAccountsLanding",
            "type": "forms",
            "platform": "",
            "KUID": "c0567b2e5ece4b0cbbe1b35e3c8f3103"
        },
        "language": "js",
        "actions": [{
            "id": "NAVIGATE_TO_FORM___af24cccc288342d3b65f6c22d93acc0e",
            "type": "NAVIGATE_TO_FORM",
            "formId": "frmTransfers",
            "friendlyName": "frmTransfers",
            "formKUID": "e9f47be88ab64765a96b1fae7d2a7720",
            "mappings": {},
            "mappingsOrder": [],
            "parentId": "",
            "callbackType": null,
            "enableMappingEditor": true,
            "package": "TransferModule",
            "isCustomInput": false
        }]
    }
}