{
    "AS_Label_a69d5a14225d477db8550dc42daf3b04": {
        "id": "AS_Label_a69d5a14225d477db8550dc42daf3b04",
        "type": "ACTION_SEQUENCE",
        "params": [{
            "datatype": "collection",
            "name": "eventobject"
        }, {
            "datatype": "string",
            "name": "x"
        }, {
            "datatype": "string",
            "name": "y"
        }],
        "contextObj": {
            "name": "frmFastTransfers",
            "type": "forms",
            "platform": "",
            "KUID": "dafe58294c114b15bb1f0099cc24b9a8"
        },
        "language": "js",
        "actions": [{
            "id": "ADD_SNIPPET__jaefde59d2bc4ab78251e5ffdfd9305c",
            "type": "ADD_SNIPPET",
            "codeSnippet": "kony.mvc.MDAApplication.getSharedInstance().getModuleManager().getModule(\"TransferFastModule\").presentationController.showTransferScreen({showRecipientGateway:true}); \n",
            "parentId": null,
            "callbackType": null
        }]
    }
}