{
    "AS_Label_bc8ec096a97d4fa8864e233e441c5bbb": {
        "id": "AS_Label_bc8ec096a97d4fa8864e233e441c5bbb",
        "type": "ACTION_SEQUENCE",
        "params": [{
            "datatype": "collection",
            "name": "eventobject"
        }, {
            "datatype": "string",
            "name": "x"
        }, {
            "datatype": "string",
            "name": "y"
        }],
        "contextObj": {
            "name": "frmVerifyAccount",
            "type": "forms",
            "platform": "",
            "KUID": "cd9d334f742c4ef3addf06485fd42e4c"
        },
        "language": "js",
        "actions": [{
            "id": "ADD_SNIPPET__cf6a0ebcfcba438ca24b89879e5238d5",
            "type": "ADD_SNIPPET",
            "codeSnippet": "this.setActionsOnTrialDeposit();",
            "parentId": null,
            "callbackType": null
        }]
    }
}