{
    "AS_Label_j5b39c34c8204a5ebd1035e0693b86da": {
        "id": "AS_Label_j5b39c34c8204a5ebd1035e0693b86da",
        "type": "ACTION_SEQUENCE",
        "params": [{
            "datatype": "collection",
            "name": "eventobject"
        }, {
            "datatype": "string",
            "name": "x"
        }, {
            "datatype": "string",
            "name": "y"
        }],
        "contextObj": {
            "name": "frmVerifyAccountEur",
            "type": "forms",
            "platform": null,
            "KUID": "e4fe1a12814546a2a3fe8fae1a02d68d"
        },
        "language": "js",
        "actions": [{
            "id": "ADD_SNIPPET_ide_onTouchEnd_j5be1521c16c437587f63165179128ec",
            "type": "ADD_SNIPPET",
            "codeSnippet": null,
            "callbackType": null
        }, {
            "id": "ADD_SNIPPET_ide_onTouchEnd_bf1f8cc193ff4306b3fe6775cc5db87e",
            "type": "ADD_SNIPPET",
            "codeSnippet": "this.setActionsOnCredential();",
            "callbackType": null
        }]
    }
}