{
    "AS_Label_b5563097299542fa9bdc5f6b1f48a503": {
        "id": "AS_Label_b5563097299542fa9bdc5f6b1f48a503",
        "type": "ACTION_SEQUENCE",
        "params": [{
            "datatype": "collection",
            "name": "eventobject"
        }, {
            "datatype": "string",
            "name": "x"
        }, {
            "datatype": "string",
            "name": "y"
        }],
        "contextObj": {
            "name": "frmLogin",
            "type": "forms",
            "platform": "",
            "KUID": "j0329c6c64654440bf366abc8de81b74"
        },
        "language": "js",
        "actions": [{
            "id": "ADD_SNIPPET__bf80d5deb66a48009b2662f700b1132a",
            "type": "ADD_SNIPPET",
            "codeSnippet": "this.verifyUser();",
            "parentId": null,
            "callbackType": null
        }]
    }
}