{
    "AS_Segment_cd96269bd2ad4cebb2f002c4f4d33056": {
        "id": "AS_Segment_cd96269bd2ad4cebb2f002c4f4d33056",
        "type": "ACTION_SEQUENCE",
        "params": [{
            "datatype": "collection",
            "name": "eventobject"
        }, {
            "datatype": "number",
            "name": "sectionNumber"
        }, {
            "datatype": "number",
            "name": "rowNumber"
        }],
        "contextObj": {
            "name": "frmLogin",
            "type": "forms",
            "platform": "",
            "KUID": "j0329c6c64654440bf366abc8de81b74"
        },
        "language": "js",
        "actions": [{
            "id": "ADD_SNIPPET__de42a85ad0054e26a5c9cd8e38f9e829",
            "type": "ADD_SNIPPET",
            "codeSnippet": "this.selectUserName();",
            "parentId": null,
            "callbackType": null
        }]
    }
}