{
    "AS_Segment_gb0041a2978843328432497339e25cb7": {
        "id": "AS_Segment_gb0041a2978843328432497339e25cb7",
        "type": "ACTION_SEQUENCE",
        "params": [{
            "datatype": "collection",
            "name": "eventobject"
        }, {
            "datatype": "number",
            "name": "sectionNumber"
        }, {
            "datatype": "number",
            "name": "rowNumber"
        }],
        "contextObj": {
            "name": "frmLogin",
            "type": "forms",
            "platform": "",
            "KUID": "j0329c6c64654440bf366abc8de81b74"
        },
        "language": "js",
        "actions": [{
            "id": "ADD_SNIPPET__jfe1b892b1644de594a58c7f038a0ef5",
            "type": "ADD_SNIPPET",
            "codeSnippet": "this.selectYourLanguage();",
            "parentId": null,
            "callbackType": null
        }]
    }
}