{
    "AS_Segment_h1f15ccba9814a90a453ee738f964d52": {
        "id": "AS_Segment_h1f15ccba9814a90a453ee738f964d52",
        "type": "ACTION_SEQUENCE",
        "params": [{
            "datatype": "collection",
            "name": "eventobject"
        }, {
            "datatype": "number",
            "name": "sectionNumber"
        }, {
            "datatype": "number",
            "name": "rowNumber"
        }],
        "contextObj": {
            "name": "frmAccountsDetails",
            "type": "forms",
            "platform": "",
            "KUID": "f22d64f7cb454ad980b530de61c4240a"
        },
        "language": "js",
        "actions": [{
            "id": "ADD_SNIPPET__c74a0404541844a39c8b61b514afd21f",
            "type": "ADD_SNIPPET",
            "codeSnippet": "this.transactionsSegmentRowClick();",
            "parentId": null,
            "callbackType": null
        }]
    }
}