{
    "AS_Segment_jcf2d672c9234286ad71d8679b154a1a": {
        "id": "AS_Segment_jcf2d672c9234286ad71d8679b154a1a",
        "type": "ACTION_SEQUENCE",
        "params": [{
            "datatype": "collection",
            "name": "eventobject"
        }, {
            "datatype": "number",
            "name": "sectionNumber"
        }, {
            "datatype": "number",
            "name": "rowNumber"
        }],
        "contextObj": {
            "name": "frmLogin",
            "type": "forms",
            "platform": "",
            "KUID": "j0329c6c64654440bf366abc8de81b74"
        },
        "language": "js",
        "actions": [{
            "id": "ADD_SNIPPET__d25e785762234bc78aba673e6d31d8e5",
            "type": "ADD_SNIPPET",
            "codeSnippet": "this.selectYourLanguage();",
            "parentId": null,
            "callbackType": null
        }]
    }
}