{
    "AS_Segment_da6d5b45bd7f46afba2893554d5769dd": {
        "id": "AS_Segment_da6d5b45bd7f46afba2893554d5769dd",
        "type": "ACTION_SEQUENCE",
        "params": [{
            "datatype": "collection",
            "name": "eventobject"
        }, {
            "datatype": "number",
            "name": "sectionNumber"
        }, {
            "datatype": "number",
            "name": "rowNumber"
        }],
        "contextObj": {
            "name": "frmAccountsDetails",
            "type": "forms",
            "platform": "",
            "KUID": "f22d64f7cb454ad980b530de61c4240a"
        },
        "language": "js",
        "actions": [{
            "id": "ADD_SNIPPET__gb6dfff21c204b71bc3c85ae856764cb",
            "type": "ADD_SNIPPET",
            "codeSnippet": "this.transactionsSegmentRowClick();",
            "parentId": null,
            "callbackType": null
        }]
    }
}