{
    "AS_Segment_f046b0f118e34232a7e462f1fbf1ce4b": {
        "id": "AS_Segment_f046b0f118e34232a7e462f1fbf1ce4b",
        "type": "ACTION_SEQUENCE",
        "params": [{
            "datatype": "collection",
            "name": "eventobject"
        }, {
            "datatype": "number",
            "name": "sectionNumber"
        }, {
            "datatype": "number",
            "name": "rowNumber"
        }],
        "contextObj": {
            "name": "frmLogin",
            "type": "forms",
            "platform": "",
            "KUID": "j0329c6c64654440bf366abc8de81b74"
        },
        "language": "js",
        "actions": [{
            "id": "ADD_SNIPPET__a6f94cb9a8d845e8801935a15ae7f452",
            "type": "ADD_SNIPPET",
            "codeSnippet": "this.selectUserName();",
            "parentId": null,
            "callbackType": null
        }]
    }
}