{
    "AS_Segment_f88207cf1ffd4732a114ef664d9c4b1b": {
        "id": "AS_Segment_f88207cf1ffd4732a114ef664d9c4b1b",
        "type": "ACTION_SEQUENCE",
        "params": [{
            "datatype": "collection",
            "name": "eventobject"
        }, {
            "datatype": "number",
            "name": "sectionNumber"
        }, {
            "datatype": "number",
            "name": "rowNumber"
        }],
        "contextObj": {
            "name": "CopyfrmLogin",
            "type": "forms",
            "platform": null,
            "KUID": "d6328cf267c248a6b559c500d837ea14"
        },
        "language": "js",
        "actions": [{
            "id": "ADD_SNIPPET_ide_onRowClick_a9ffce8ae8e04a95a1fcdd1c9c7d030f",
            "type": "ADD_SNIPPET",
            "codeSnippet": "this.selectYourLanguage();",
            "callbackType": null
        }]
    }
}