{
    "AS_TextField_j8dbb0b50d4544349f97d6cd19c389d2": {
        "id": "AS_TextField_j8dbb0b50d4544349f97d6cd19c389d2",
        "type": "ACTION_SEQUENCE",
        "params": [{
            "datatype": "collection",
            "name": "eventobject"
        }],
        "contextObj": {
            "name": "frmLogin",
            "type": "forms",
            "platform": "",
            "KUID": "j0329c6c64654440bf366abc8de81b74"
        },
        "language": "js",
        "actions": [{
            "id": "ADD_SNIPPET__ff921dcfa0e14bd4945cf8cc6074f668",
            "type": "ADD_SNIPPET",
            "codeSnippet": "if (this.view.newpasswordsetting.tbxMatchPassword.text !== \"\")\nthis.validateConfirmPassword(this.view.newpasswordsetting.tbxMatchPassword.text);",
            "parentId": null,
            "callbackType": null
        }]
    }
}