{
    "AS_TextField_f2083d635fe04799aee41e35847cbdd1": {
        "id": "AS_TextField_f2083d635fe04799aee41e35847cbdd1",
        "type": "ACTION_SEQUENCE",
        "params": [{
            "datatype": "collection",
            "name": "eventobject"
        }, {
            "datatype": "string",
            "name": "changedtext"
        }],
        "contextObj": {
            "name": "frmEnrollNow",
            "type": "forms",
            "platform": null,
            "KUID": "bd78051f2239477699cd5b3d036cf72a"
        },
        "language": "js",
        "actions": [{
            "id": "ADD_SNIPPET_ide_onBeginEditing_a0f5c25962664beea5886d15f204ceb3",
            "type": "ADD_SNIPPET",
            "codeSnippet": "if(this.view.newpasswordsetting.lblErrorInfo.isVisible){\n  this.reEnterNewPassword;\n}",
            "callbackType": null
        }]
    }
}