{
    "AS_TextField_ee6c70e08f494c27a91422902bb2f7cd": {
        "id": "AS_TextField_ee6c70e08f494c27a91422902bb2f7cd",
        "type": "ACTION_SEQUENCE",
        "params": [{
            "datatype": "collection",
            "name": "eventobject"
        }, {
            "datatype": "string",
            "name": "changedtext"
        }],
        "contextObj": {
            "name": "frmNotificationsAndMessages",
            "type": "forms",
            "platform": null,
            "KUID": "a83a23bb52bc4894a44b027a89964c1b"
        },
        "language": "js",
        "actions": [{
            "id": "ADD_SNIPPET_ide_onDone_aa5e5c4f639143daa8e37300975ce7b5",
            "type": "ADD_SNIPPET",
            "codeSnippet": "this.textboxAmount();",
            "callbackType": null
        }]
    }
}