{
    "AS_TextField_d9b67bfa972042e1a451082012be9677": {
        "id": "AS_TextField_d9b67bfa972042e1a451082012be9677",
        "type": "ACTION_SEQUENCE",
        "params": [{
            "datatype": "collection",
            "name": "eventobject"
        }, {
            "datatype": "string",
            "name": "changedtext"
        }],
        "contextObj": {
            "name": "CopyfrmLogin",
            "type": "forms",
            "platform": null,
            "KUID": "d6328cf267c248a6b559c500d837ea14"
        },
        "language": "js",
        "actions": [{
            "id": "ADD_SNIPPET_ide_onDone_a001fc20cd794ed78f4411145e32a497",
            "type": "ADD_SNIPPET",
            "codeSnippet": "this.toEnableOrDisableLogin();",
            "callbackType": null
        }]
    }
}