{
    "AS_TextField_c1d4b27ce9d04854aaeb56914a43133c": {
        "id": "AS_TextField_c1d4b27ce9d04854aaeb56914a43133c",
        "type": "ACTION_SEQUENCE",
        "params": [{
            "datatype": "collection",
            "name": "eventobject"
        }, {
            "datatype": "collection",
            "name": "context"
        }],
        "contextObj": {
            "name": "segAdvanceTransLimitRowTab",
            "type": "templates",
            "platform": null,
            "KUID": "c67f22ad8de14a5fbc647fd7989208ff"
        },
        "language": "js",
        "actions": [{
            "id": "ADD_SNIPPET_ide_onKeyUp_ca9ffb23b2c646a98dd8ff42e358a069",
            "type": "ADD_SNIPPET",
            "codeSnippet": "var self = this;\nreturn self.validateTransactionLimits.call(this, eventobject, context);",
            "callbackType": null
        }]
    }
}