{
    "AS_TextField_e93c2707b28445b0a93fd5d9e9126bab": {
        "id": "AS_TextField_e93c2707b28445b0a93fd5d9e9126bab",
        "type": "ACTION_SEQUENCE",
        "params": [{
            "datatype": "collection",
            "name": "eventobject"
        }, {
            "datatype": "string",
            "name": "changedtext"
        }],
        "contextObj": {
            "name": "frmVerifyAccount",
            "type": "forms",
            "platform": "",
            "KUID": "cd9d334f742c4ef3addf06485fd42e4c"
        },
        "language": "js",
        "actions": [{
            "id": "ADD_SNIPPET__cdd9e7e34f60431cb10c1e9a95cd1e0a",
            "type": "ADD_SNIPPET",
            "codeSnippet": "this.checkSkin();",
            "parentId": null,
            "callbackType": null
        }]
    }
}