{
    "AS_TextField_c7d83e6be32c47d59225e8aaa5f391b4": {
        "id": "AS_TextField_c7d83e6be32c47d59225e8aaa5f391b4",
        "type": "ACTION_SEQUENCE",
        "params": [{
            "datatype": "collection",
            "name": "eventobject"
        }, {
            "datatype": "string",
            "name": "changedtext"
        }],
        "contextObj": {
            "name": "frmProfileManagement",
            "type": "forms",
            "platform": "",
            "KUID": "e136103788ec406cab0b1d0f2087f12b"
        },
        "language": "js",
        "actions": [{
            "id": "ADD_SNIPPET__ic08808df7064b70b138009ae6381af9",
            "type": "ADD_SNIPPET",
            "codeSnippet": "this.checkUsername();",
            "parentId": null,
            "callbackType": null
        }]
    }
}