{
    "AS_TextField_a83fe26b8380494bb5b33bf6c77f7871": {
        "id": "AS_TextField_a83fe26b8380494bb5b33bf6c77f7871",
        "type": "ACTION_SEQUENCE",
        "params": [{
            "datatype": "collection",
            "name": "eventobject"
        }],
        "contextObj": {
            "name": "CopyfrmLogin",
            "type": "forms",
            "platform": null,
            "KUID": "d6328cf267c248a6b559c500d837ea14"
        },
        "language": "js",
        "actions": []
    }
}