{
    "AS_TextField_d78df21bab3d47c7ac2d165914a4af02": {
        "id": "AS_TextField_d78df21bab3d47c7ac2d165914a4af02",
        "type": "ACTION_SEQUENCE",
        "params": [{
            "datatype": "collection",
            "name": "eventobject"
        }],
        "contextObj": {
            "name": "frmProfileManagement",
            "type": "forms",
            "platform": "",
            "KUID": "e136103788ec406cab0b1d0f2087f12b"
        },
        "language": "js",
        "actions": [{
            "id": "ADD_SNIPPET__c07e6f98623e43e0b6bff59b36e0420b",
            "type": "ADD_SNIPPET",
            "codeSnippet": "this.enableSecurityQuestions(this.view.settings.tbxAnswer1.text,this.view.settings.tbxAnswer2.text,this.view.settings.tbxAnswer3.text,this.view.settings.tbxAnswer4.text,this.view.settings.tbxAnswer5.text); ",
            "parentId": null,
            "callbackType": null
        }]
    }
}