{
    "AS_TextField_a4df2f702e2b41469192171af404200e": {
        "id": "AS_TextField_a4df2f702e2b41469192171af404200e",
        "type": "ACTION_SEQUENCE",
        "params": [{
            "datatype": "collection",
            "name": "eventobject"
        }, {
            "datatype": "string",
            "name": "changedtext"
        }],
        "contextObj": {
            "name": "frmProfileManagement",
            "type": "forms",
            "platform": "",
            "KUID": "e136103788ec406cab0b1d0f2087f12b"
        },
        "language": "js",
        "actions": [{
            "id": "ADD_SNIPPET__f6e5ca29f5614188b8b6d96dd7d5c12c",
            "type": "ADD_SNIPPET",
            "codeSnippet": "this.onEditingAnswer3(); ",
            "parentId": null,
            "callbackType": null
        }]
    }
}