{
    "AS_TextField_b96c069819854b16ad6371610db5956f": {
        "id": "AS_TextField_b96c069819854b16ad6371610db5956f",
        "type": "ACTION_SEQUENCE",
        "params": [{
            "datatype": "collection",
            "name": "eventobject"
        }, {
            "datatype": "collection",
            "name": "context"
        }],
        "contextObj": {
            "name": "segAdvanceTransLimitRowTab",
            "type": "templates",
            "platform": null,
            "KUID": "c67f22ad8de14a5fbc647fd7989208ff"
        },
        "language": "js",
        "actions": [{
            "id": "ADD_SNIPPET_ide_onKeyUp_ibf37bf8ca00417a98968fdd897a1737",
            "type": "ADD_SNIPPET",
            "codeSnippet": "var self = this;\nreturn self.validateTransactionLimits.call(this, eventobject, context);"
        }]
    }
}