{
    "AS_TextField_a1a07778dca5440684cf29a8b1ebf395": {
        "id": "AS_TextField_a1a07778dca5440684cf29a8b1ebf395",
        "type": "ACTION_SEQUENCE",
        "params": [{
            "datatype": "collection",
            "name": "eventobject"
        }],
        "contextObj": {
            "name": "frmProfileManagement",
            "type": "forms",
            "platform": "",
            "KUID": "e136103788ec406cab0b1d0f2087f12b"
        },
        "language": "js",
        "actions": [{
            "id": "ADD_SNIPPET__ife6ab9e903942858b5f440dc6ae28ca",
            "type": "ADD_SNIPPET",
            "codeSnippet": "this.ValidatePassword();",
            "parentId": null,
            "callbackType": null
        }]
    }
}