{
    "AS_TextField_ab17a9c16f904957a77f63587ad18f4d": {
        "id": "AS_TextField_ab17a9c16f904957a77f63587ad18f4d",
        "type": "ACTION_SEQUENCE",
        "params": [{
            "datatype": "collection",
            "name": "eventobject"
        }, {
            "datatype": "string",
            "name": "changedtext"
        }],
        "contextObj": {
            "name": "frmVerifyAccountEur",
            "type": "forms",
            "platform": null,
            "KUID": "e4fe1a12814546a2a3fe8fae1a02d68d"
        },
        "language": "js",
        "actions": [{
            "id": "ADD_SNIPPET_ide_onTextChange_jf6a6c1667b74a459171481b55437bb9",
            "type": "ADD_SNIPPET",
            "codeSnippet": "this.checkSkin();",
            "callbackType": null
        }]
    }
}