{
    "AS_TextField_c235f9cb7e904be6b53c0f9cec227fa6": {
        "id": "AS_TextField_c235f9cb7e904be6b53c0f9cec227fa6",
        "type": "ACTION_SEQUENCE",
        "params": [{
            "datatype": "collection",
            "name": "eventobject"
        }, {
            "datatype": "string",
            "name": "changedtext"
        }],
        "contextObj": {
            "name": "CopyfrmLogin",
            "type": "forms",
            "platform": null,
            "KUID": "d6328cf267c248a6b559c500d837ea14"
        },
        "language": "js",
        "actions": [{
            "id": "ADD_SNIPPET_ide_onKeyUp_cb4b540f8f994d2e91565cb1dcbf2cdb",
            "type": "ADD_SNIPPET",
            "codeSnippet": "this.allFieldsCheck();",
            "callbackType": null
        }]
    }
}