{
    "AS_TextField_aa46014b7f0141e4abab4630112edb12": {
        "id": "AS_TextField_aa46014b7f0141e4abab4630112edb12",
        "type": "ACTION_SEQUENCE",
        "params": [{
            "datatype": "collection",
            "name": "eventobject"
        }],
        "contextObj": {
            "name": "frmAddExternalAccountEur",
            "type": "forms",
            "platform": null,
            "KUID": "b4d3cf5fda1141e78858debbef0eb064"
        },
        "language": "js",
        "actions": [{
            "id": "ADD_SNIPPET_ide_onKeyUp_hf36aabe056a4f10874c766688bf425b",
            "type": "ADD_SNIPPET",
            "codeSnippet": "this.validateInternationalFields();",
            "callbackType": null
        }]
    }
}