{
    "AS_TextField_i50ec5d467a84160bc82f71db9be599f": {
        "id": "AS_TextField_i50ec5d467a84160bc82f71db9be599f",
        "type": "ACTION_SEQUENCE",
        "params": [{
            "datatype": "collection",
            "name": "eventobject"
        }],
        "contextObj": {
            "name": "CopyfrmLogin",
            "type": "forms",
            "platform": null,
            "KUID": "d6328cf267c248a6b559c500d837ea14"
        },
        "language": "js",
        "actions": [{
            "id": "ADD_SNIPPET_ide_onKeyUp_ecc5d7570e7945ef8131834a47fd44f0",
            "type": "ADD_SNIPPET",
            "codeSnippet": "this.checkifUserNameContainsMaskCharacter();",
            "callbackType": null
        }]
    }
}