{
    "AS_TextField_d56707e983a742218dc842c29adb51da": {
        "id": "AS_TextField_d56707e983a742218dc842c29adb51da",
        "type": "ACTION_SEQUENCE",
        "params": [{
            "datatype": "collection",
            "name": "eventobject"
        }],
        "contextObj": {
            "name": "frmFastAddRecipient",
            "type": "forms",
            "platform": "",
            "KUID": "bf44df939a7c4ba8bf121881be0fbd59"
        },
        "language": "js",
        "actions": [{
            "id": "ADD_SNIPPET__fb57fb80f15b4889aafcd0ffde7e3574",
            "type": "ADD_SNIPPET",
            "codeSnippet": "this.checkIsValidInput();",
            "parentId": null,
            "callbackType": null
        }]
    }
}