{
    "AS_TextField_a40dc43ccbb34773b9112b9921c38ba8": {
        "id": "AS_TextField_a40dc43ccbb34773b9112b9921c38ba8",
        "type": "ACTION_SEQUENCE",
        "params": [{
            "datatype": "collection",
            "name": "eventobject"
        }, {
            "datatype": "string",
            "name": "x"
        }, {
            "datatype": "string",
            "name": "y"
        }],
        "contextObj": {
            "name": "frmEnrollNow",
            "type": "forms",
            "platform": "",
            "KUID": "bd78051f2239477699cd5b3d036cf72a"
        },
        "language": "js",
        "actions": [{
            "id": "ADD_SNIPPET__j30655a3969643c8a3cbbf5498b5e90d",
            "type": "ADD_SNIPPET",
            "codeSnippet": "this.showRulesUsername();",
            "parentId": null,
            "callbackType": null
        }]
    }
}