{
    "AS_TextField_ab76f135a75f4e1abe897045645771f4": {
        "id": "AS_TextField_ab76f135a75f4e1abe897045645771f4",
        "type": "ACTION_SEQUENCE",
        "params": [{
            "datatype": "collection",
            "name": "eventobject"
        }, {
            "datatype": "string",
            "name": "changedtext"
        }],
        "contextObj": {
            "name": "frmTransfers",
            "type": "forms",
            "platform": "",
            "KUID": "e9f47be88ab64765a96b1fae7d2a7720"
        },
        "language": "js",
        "actions": [{
            "id": "ADD_SNIPPET__g25cac5e912e48af8d8f8dba2a4792d0",
            "type": "ADD_SNIPPET",
            "codeSnippet": "this.checkValidityMakeTransferForm();",
            "parentId": null,
            "callbackType": null
        }]
    }
}