{
    "AS_TextField_c326bd7eeaa241faa3eb9deda42f8534": {
        "id": "AS_TextField_c326bd7eeaa241faa3eb9deda42f8534",
        "type": "ACTION_SEQUENCE",
        "params": [{
            "datatype": "collection",
            "name": "eventobject"
        }, {
            "datatype": "string",
            "name": "changedtext"
        }],
        "contextObj": {
            "name": "frmLogin",
            "type": "forms",
            "platform": "",
            "KUID": "j0329c6c64654440bf366abc8de81b74"
        },
        "language": "js",
        "actions": [{
            "id": "ADD_SNIPPET__d3401340d35f4575bf067144f656d2c0",
            "type": "ADD_SNIPPET",
            "codeSnippet": "if(this.view.main.tbxUserName.text){\n  this.hideUserNameSuggestions();\n}\n",
            "parentId": null,
            "callbackType": null
        }]
    }
}