{
    "AS_TextField_b687e077f34147e892bb2500848742e0": {
        "id": "AS_TextField_b687e077f34147e892bb2500848742e0",
        "type": "ACTION_SEQUENCE",
        "params": [{
            "datatype": "collection",
            "name": "eventobject"
        }, {
            "datatype": "string",
            "name": "changedtext"
        }],
        "contextObj": {
            "name": "CopyfrmLogin",
            "type": "forms",
            "platform": null,
            "KUID": "d6328cf267c248a6b559c500d837ea14"
        },
        "language": "js",
        "actions": [{
            "id": "ADD_SNIPPET_ide_onBeginEditing_e1d209de057b497a903935217af52682",
            "type": "ADD_SNIPPET",
            "codeSnippet": "if(this.view.main.flxPassword.skin ==\"sknBorderFF0101\"){\nthis.credentialsMissingUIChangesAnti(); \n}",
            "callbackType": null
        }]
    }
}