{
    "AS_TextField_d77c5570ec704f9aaf224eb0ffc7a092": {
        "id": "AS_TextField_d77c5570ec704f9aaf224eb0ffc7a092",
        "type": "ACTION_SEQUENCE",
        "params": [{
            "datatype": "collection",
            "name": "eventobject"
        }, {
            "datatype": "collection",
            "name": "context"
        }],
        "contextObj": {
            "name": "frmUserManagement",
            "type": "forms",
            "platform": "",
            "KUID": "e89ee03e0666491aa06b82437adfbcbd"
        },
        "language": "js",
        "actions": [{
            "id": "ADD_SNIPPET_ide_onKeyUp_df2aaf14dc28415f87d177e4b3b8ec85",
            "type": "ADD_SNIPPET",
            "codeSnippet": "var self = this;\nreturn self.validateTransactionLimits.call(this, eventobject, context);",
            "callbackType": null
        }]
    }
}