{
    "AS_TextField_ge8f1bcb4380458badeeb1fba3aa9669": {
        "id": "AS_TextField_ge8f1bcb4380458badeeb1fba3aa9669",
        "type": "ACTION_SEQUENCE",
        "params": [{
            "datatype": "collection",
            "name": "eventobject"
        }, {
            "datatype": "string",
            "name": "x"
        }, {
            "datatype": "string",
            "name": "y"
        }],
        "contextObj": {
            "name": "frmLogin",
            "type": "forms",
            "platform": "",
            "KUID": "j0329c6c64654440bf366abc8de81b74"
        },
        "language": "js",
        "actions": [{
            "id": "ADD_SNIPPET__b2581d7fccb34d16a9933f58452404ce",
            "type": "ADD_SNIPPET",
            "codeSnippet": "if(this.view.main.flxPassword.skin ==\"sknBorderFF0101\"){\n this.refreshLoginPage(); \n}",
            "parentId": null,
            "callbackType": null
        }]
    }
}