{
    "AS_TextField_eb0be78cde034519ab140aacd6882aae": {
        "id": "AS_TextField_eb0be78cde034519ab140aacd6882aae",
        "type": "ACTION_SEQUENCE",
        "params": [{
            "datatype": "collection",
            "name": "eventobject"
        }],
        "contextObj": {
            "name": "frmEnrollNow",
            "type": "forms",
            "platform": "",
            "KUID": "bd78051f2239477699cd5b3d036cf72a"
        },
        "language": "js",
        "actions": [{
            "id": "ADD_SNIPPET__e5976f4a24bb40569e97fa335f465ac3",
            "type": "ADD_SNIPPET",
            "codeSnippet": "this.validateNewPassword(this.view.newUsernamepasswordsetting.tbxNewPassword.text);\n",
            "parentId": null,
            "callbackType": null
        }]
    }
}