{
    "AS_TextField_hcf022a1184b4356a82afaaa5b1cfbad": {
        "id": "AS_TextField_hcf022a1184b4356a82afaaa5b1cfbad",
        "type": "ACTION_SEQUENCE",
        "params": [{
            "datatype": "collection",
            "name": "eventobject"
        }, {
            "datatype": "string",
            "name": "changedtext"
        }],
        "contextObj": {
            "name": "frmEnrollNow",
            "type": "forms",
            "platform": "",
            "KUID": "bd78051f2239477699cd5b3d036cf72a"
        },
        "language": "js",
        "actions": [{
            "id": "ADD_SNIPPET__e4014079130640baa4f1a3a504eaae6a",
            "type": "ADD_SNIPPET",
            "codeSnippet": "this.showRulesUsername();",
            "parentId": null,
            "callbackType": null
        }]
    }
}