{
    "AS_TextField_caf047ac640a431589abd3267f5ec9eb": {
        "id": "AS_TextField_caf047ac640a431589abd3267f5ec9eb",
        "type": "ACTION_SEQUENCE",
        "params": [{
            "datatype": "collection",
            "name": "eventobject"
        }],
        "language": "js",
        "actions": []
    }
}