{
    "AS_TextField_g5c4623ac856423aa1e68ed73f266cc0": {
        "id": "AS_TextField_g5c4623ac856423aa1e68ed73f266cc0",
        "type": "ACTION_SEQUENCE",
        "params": [{
            "datatype": "collection",
            "name": "eventobject"
        }, {
            "datatype": "string",
            "name": "changedtext"
        }],
        "contextObj": {
            "name": "frmProfileManagement",
            "type": "forms",
            "platform": "",
            "KUID": "e136103788ec406cab0b1d0f2087f12b"
        },
        "language": "js",
        "actions": [{
            "id": "ADD_SNIPPET__g3dc6d265fb440c293ac8109c23023a9",
            "type": "ADD_SNIPPET",
            "codeSnippet": "this.enableSecurityQuestions(this.view.settings.tbxAnswer1.text,this.view.settings.tbxAnswer2.text,this.view.settings.tbxAnswer3.text,this.view.settings.tbxAnswer4.text,this.view.settings.tbxAnswer5.text); ",
            "parentId": null,
            "callbackType": null
        }]
    }
}