{
    "AS_TextField_bf1b30895f084aac8bf67af83c1df1b7": {
        "id": "AS_TextField_bf1b30895f084aac8bf67af83c1df1b7",
        "type": "ACTION_SEQUENCE",
        "params": [{
            "datatype": "collection",
            "name": "eventobject"
        }],
        "contextObj": {
            "name": "frmAddExternalAccountEur",
            "type": "forms",
            "platform": null,
            "KUID": "b4d3cf5fda1141e78858debbef0eb064"
        },
        "language": "js",
        "actions": [{
            "id": "ADD_SNIPPET_ide_onKeyUp_b794c5b8b6334bcf8ff6b88606d54446",
            "type": "ADD_SNIPPET",
            "codeSnippet": "this.validateInternationalFields();",
            "callbackType": null
        }]
    }
}