{
    "AS_TextField_f03761efb5a949af973d3d0dcb80868c": {
        "id": "AS_TextField_f03761efb5a949af973d3d0dcb80868c",
        "type": "ACTION_SEQUENCE",
        "params": [{
            "datatype": "collection",
            "name": "eventobject"
        }, {
            "datatype": "string",
            "name": "changedtext"
        }, {
            "datatype": "collection",
            "name": "context"
        }],
        "contextObj": {
            "name": "segAdvanceTransLimitRowTab",
            "type": "templates",
            "platform": "",
            "KUID": "c67f22ad8de14a5fbc647fd7989208ff"
        },
        "language": "js",
        "actions": [{
            "id": "INVOKE_FUNCTION__ecd9c687ca9e483aac364c3f75aeacfe",
            "type": "INVOKE_FUNCTION",
            "sequenceKUID": "onLimitChanged",
            "display": "onLimitChanged",
            "inputparams": [{
                "name": "eventobject",
                "value": " eventobject"
            }, {
                "name": "context",
                "value": " context"
            }],
            "parentId": null,
            "callbackType": null,
            "disabled": null,
            "source": "controller"
        }]
    }
}