{
    "AS_TextField_e0821e9cf3b14e53a0445e7941d20f64": {
        "id": "AS_TextField_e0821e9cf3b14e53a0445e7941d20f64",
        "type": "ACTION_SEQUENCE",
        "params": [{
            "datatype": "collection",
            "name": "eventobject"
        }, {
            "datatype": "string",
            "name": "changedtext"
        }, {
            "datatype": "collection",
            "name": "context"
        }],
        "contextObj": {
            "name": "segUserManagementTransactionLimits",
            "type": "templates",
            "platform": "",
            "KUID": "a256cfbda47e416a8ef1b8429934ddac"
        },
        "language": "js",
        "actions": [{
            "id": "INVOKE_FUNCTION__i99613574d564edb8d54f44fcb073ad1",
            "type": "INVOKE_FUNCTION",
            "sequenceKUID": "onLimitChanged",
            "display": "onLimitChanged",
            "inputparams": [{
                "name": "eventobject",
                "value": " eventobject"
            }, {
                "name": "context",
                "value": " context"
            }],
            "parentId": null,
            "callbackType": null,
            "disabled": null,
            "source": "controller"
        }]
    }
}