{
    "AS_TextField_fc472f391a6b413481b7b5ef2c3ac57a": {
        "id": "AS_TextField_fc472f391a6b413481b7b5ef2c3ac57a",
        "type": "ACTION_SEQUENCE",
        "params": [{
            "datatype": "collection",
            "name": "eventobject"
        }, {
            "datatype": "string",
            "name": "changedtext"
        }],
        "contextObj": {
            "name": "frmPayDueAmount",
            "type": "forms",
            "platform": "",
            "KUID": "ba0b4f38b88d4ad7a2c69bb7d0d38c44"
        },
        "language": "js",
        "actions": [{
            "id": "ADD_SNIPPET__d2974057c50a4ce7af65477865089648",
            "type": "ADD_SNIPPET",
            "codeSnippet": "this.textboxAmount();",
            "parentId": null,
            "callbackType": null
        }]
    }
}