{
    "AS_TextField_d15e5ed8817a47989832c7f76487c1de": {
        "id": "AS_TextField_d15e5ed8817a47989832c7f76487c1de",
        "type": "ACTION_SEQUENCE",
        "params": [{
            "datatype": "collection",
            "name": "eventobject"
        }],
        "contextObj": {
            "name": "frmAddInternalAccountEur",
            "type": "forms",
            "platform": null,
            "KUID": "f6d47ee3559a49b9a84a9fcd7d6fce64"
        },
        "language": "js",
        "actions": [{
            "id": "ADD_SNIPPET_ide_onKeyUp_b84d8f372a324098aeef47a9aa68c893",
            "type": "ADD_SNIPPET",
            "codeSnippet": "this.validateInternalError();",
            "callbackType": null
        }]
    }
}