{
    "AS_TextField_c9b02cc37fc546d789d828fbd4bf0dee": {
        "id": "AS_TextField_c9b02cc37fc546d789d828fbd4bf0dee",
        "type": "ACTION_SEQUENCE",
        "params": [{
            "datatype": "collection",
            "name": "eventobject"
        }, {
            "datatype": "collection",
            "name": "context"
        }],
        "contextObj": {
            "name": "segACHTemplateRecordDetails",
            "type": "templates",
            "platform": "",
            "KUID": "d15540d3c1d24cbba1434dfb4e00f4b2"
        },
        "language": "js",
        "actions": [{
            "id": "INVOKE_FUNCTION___e9d6a45702324759b94d5a156878e679",
            "type": "INVOKE_FUNCTION",
            "sequenceKUID": "enableOrDisableProceed",
            "display": "enableOrDisableProceed",
            "inputparams": [],
            "parentId": null,
            "callbackType": null,
            "disabled": null,
            "source": "controller"
        }]
    }
}