{
    "AS_TextField_i83824a08330483da682ed6a3d291496": {
        "id": "AS_TextField_i83824a08330483da682ed6a3d291496",
        "type": "ACTION_SEQUENCE",
        "params": [{
            "datatype": "collection",
            "name": "eventobject"
        }, {
            "datatype": "string",
            "name": "changedtext"
        }],
        "contextObj": {
            "name": "frmVerifyAccountEur",
            "type": "forms",
            "platform": null,
            "KUID": "e4fe1a12814546a2a3fe8fae1a02d68d"
        },
        "language": "js",
        "actions": [{
            "id": "ADD_SNIPPET_ide_onTextChange_f0d17272bcd3464f98f24b417f189bf0",
            "type": "ADD_SNIPPET",
            "codeSnippet": "this.checkSkin();",
            "callbackType": null
        }]
    }
}