{
    "AS_TextField_j0b1001c55794fccad8936286df0f8cd": {
        "id": "AS_TextField_j0b1001c55794fccad8936286df0f8cd",
        "type": "ACTION_SEQUENCE",
        "params": [{
            "datatype": "collection",
            "name": "eventobject"
        }, {
            "datatype": "collection",
            "name": "context"
        }],
        "contextObj": {
            "name": "segAdvanceTransLimitRowTab",
            "type": "templates",
            "platform": null,
            "KUID": "c67f22ad8de14a5fbc647fd7989208ff"
        },
        "language": "js",
        "actions": [{
            "id": "ADD_SNIPPET_ide_onKeyUp_ad71f767703b42e59415bf14c4e967ce",
            "type": "ADD_SNIPPET",
            "codeSnippet": "var self = this;\nreturn self.validateTransactionLimits.call(this, eventobject, context);"
        }]
    }
}