{
    "AS_UWI_f125a5227c4d4a1f9bc811e85bebb792": {
        "id": "AS_UWI_f125a5227c4d4a1f9bc811e85bebb792",
        "type": "ACTION_SEQUENCE",
        "params": [{
            "name": "response",
            "datatype": "collection"
        }],
        "contextObj": {
            "name": "frmLogin",
            "type": "forms",
            "platform": "",
            "KUID": "j0329c6c64654440bf366abc8de81b74"
        },
        "language": "js",
        "actions": [{
            "id": "INVOKE_FUNCTION__a03325c5bd53488ba07e339ced220ea3",
            "type": "INVOKE_FUNCTION",
            "sequenceKUID": "showLoginError",
            "display": "showLoginError",
            "inputparams": [{
                "name": "response",
                "value": "response"
            }],
            "parentId": null,
            "callbackType": null,
            "disabled": null,
            "source": "controller"
        }]
    }
}