{
    "AS_UWI_a6a93a90cdc747a8a69d537e7d10fcc3": {
        "id": "AS_UWI_a6a93a90cdc747a8a69d537e7d10fcc3",
        "type": "ACTION_SEQUENCE",
        "params": [{
            "name": "errorMessage",
            "datatype": "collection"
        }],
        "contextObj": {
            "name": "frmLogin",
            "type": "forms",
            "platform": "",
            "KUID": "j0329c6c64654440bf366abc8de81b74"
        },
        "language": "js",
        "actions": [{
            "id": "INVOKE_FUNCTION__a0d6ff28fde14aab92d34cdff23aaf24",
            "type": "INVOKE_FUNCTION",
            "sequenceKUID": "resetToLoginScreen",
            "display": "resetToLoginScreen",
            "inputparams": [{
                "name": "errorMessage",
                "value": " errorMessage"
            }],
            "parentId": null,
            "callbackType": null,
            "disabled": null,
            "source": "controller"
        }]
    }
}