{
    "AS_UWI_ff341a99cf844eb1ab147fac091aa716": {
        "id": "AS_UWI_ff341a99cf844eb1ab147fac091aa716",
        "type": "ACTION_SEQUENCE",
        "params": [{
            "name": "response",
            "datatype": "collection"
        }],
        "contextObj": {
            "name": "frmLogin",
            "type": "forms",
            "platform": "",
            "KUID": "j0329c6c64654440bf366abc8de81b74"
        },
        "language": "js",
        "actions": [{
            "id": "INVOKE_FUNCTION__e74a62d4eacb4f8fb930d08c967c16c2",
            "type": "INVOKE_FUNCTION",
            "sequenceKUID": "postMFAAuthentication",
            "display": "postMFAAuthentication",
            "inputparams": [{
                "name": "response",
                "value": "response"
            }],
            "parentId": null,
            "callbackType": null,
            "disabled": null,
            "source": "controller"
        }]
    }
}