{
    "AS_UWI_hfcc88dfc1c04e96916b7ff9cde565c0": {
        "id": "AS_UWI_hfcc88dfc1c04e96916b7ff9cde565c0",
        "type": "ACTION_SEQUENCE",
        "params": [{
            "name": "response",
            "datatype": "collection"
        }],
        "contextObj": {
            "name": "frmLogin",
            "type": "forms",
            "platform": "",
            "KUID": "j0329c6c64654440bf366abc8de81b74"
        },
        "language": "js",
        "actions": [{
            "id": "INVOKE_FUNCTION__e91a400505ec42148b838308d9ba28fd",
            "type": "INVOKE_FUNCTION",
            "sequenceKUID": "MFANavigation",
            "display": "MFANavigation",
            "inputparams": [{
                "name": "response",
                "value": "response"
            }],
            "parentId": null,
            "callbackType": null,
            "disabled": null,
            "source": "controller"
        }]
    }
}