{
    "AS_UWI_a989004aa53b4c788ba500bbb45d3bb5": {
        "id": "AS_UWI_a989004aa53b4c788ba500bbb45d3bb5",
        "type": "ACTION_SEQUENCE",
        "params": [{
            "datatype": "collection",
            "name": "eventobject"
        }],
        "contextObj": {
            "name": "frmProfileManagement",
            "type": "forms",
            "platform": "",
            "KUID": "e136103788ec406cab0b1d0f2087f12b"
        },
        "language": "js",
        "actions": []
    }
}