{
    "AS_UWI_hdc630e43d2e49e3b04de842f781e184": {
        "id": "AS_UWI_hdc630e43d2e49e3b04de842f781e184",
        "type": "ACTION_SEQUENCE",
        "params": [{
            "datatype": "collection",
            "name": "eventobject"
        }, {
            "datatype": "string",
            "name": "x"
        }, {
            "datatype": "string",
            "name": "y"
        }],
        "contextObj": {
            "name": "frmLogin",
            "type": "forms",
            "platform": "",
            "KUID": "j0329c6c64654440bf366abc8de81b74"
        },
        "language": "js",
        "actions": [{
            "id": "ADD_SNIPPET__a0f1047be0e34b26ab6774c5df459a02",
            "type": "ADD_SNIPPET",
            "codeSnippet": "this.goToResetUsingOTP();",
            "parentId": null,
            "callbackType": null
        }]
    }
}