{
    "AS_UWI_c280b391643943ed854d22dbefe2f74c": {
        "id": "AS_UWI_c280b391643943ed854d22dbefe2f74c",
        "type": "ACTION_SEQUENCE",
        "params": [{
            "datatype": "collection",
            "name": "eventobject"
        }, {
            "datatype": "string",
            "name": "x"
        }, {
            "datatype": "string",
            "name": "y"
        }],
        "contextObj": {
            "name": "frmLogin",
            "type": "forms",
            "platform": "",
            "KUID": "j0329c6c64654440bf366abc8de81b74"
        },
        "language": "js",
        "actions": [{
            "id": "ADD_SNIPPET__b0a07bfbf2b141fc9631bfe923d8ab72",
            "type": "ADD_SNIPPET",
            "codeSnippet": "this.loginWithVerifiedUserName();",
            "parentId": null,
            "callbackType": null
        }]
    }
}