{
    "AS_UWI_b67c437eb65743e087b39ea57a272307": {
        "id": "AS_UWI_b67c437eb65743e087b39ea57a272307",
        "type": "ACTION_SEQUENCE",
        "params": [{
            "name": "filter",
            "datatype": "collection"
        }],
        "language": "js",
        "actions": [{
            "id": "INVOKE_FUNCTION__ide_onFilterChanged_ibe8f6b8f00a40d793913fe1708d338f",
            "type": "INVOKE_FUNCTION",
            "sequenceKUID": "onFilterChanged",
            "display": "onFilterChanged",
            "inputparams": [{
                "name": "filter",
                "value": "filter"
            }],
            "callbackType": null,
            "disabled": null,
            "source": "controller"
        }]
    }
}