{
    "AS_UWI_fd39dfb069ef4c3fac0a78e7e394eda0": {
        "id": "AS_UWI_fd39dfb069ef4c3fac0a78e7e394eda0",
        "type": "ACTION_SEQUENCE",
        "params": [],
        "contextObj": {
            "name": "frmLogin",
            "type": "forms",
            "platform": "",
            "KUID": "j0329c6c64654440bf366abc8de81b74"
        },
        "language": "js",
        "actions": [{
            "id": "ADD_SNIPPET_i79e3e0d8acf4cbc8e4249433516ea0f",
            "type": "ADD_SNIPPET",
            "codeSnippet": "self.view.forceLayout();",
            "parentId": null
        }]
    }
}