{
    "AS_UWI_dc92e1bdd05e454fbee0d8695a2b3c9e": {
        "id": "AS_UWI_dc92e1bdd05e454fbee0d8695a2b3c9e",
        "type": "ACTION_SEQUENCE",
        "params": [{
            "datatype": "collection",
            "name": "eventobject"
        }, {
            "datatype": "string",
            "name": "x"
        }, {
            "datatype": "string",
            "name": "y"
        }],
        "contextObj": {
            "name": "CopyfrmLogin",
            "type": "forms",
            "platform": null,
            "KUID": "d6328cf267c248a6b559c500d837ea14"
        },
        "language": "js",
        "actions": [{
            "id": "ADD_SNIPPET_ide_onTouchStart_b7ef82fa988b42908cd2e8eaf739c925",
            "type": "ADD_SNIPPET",
            "codeSnippet": "this.showEnterCVVPage();",
            "callbackType": null
        }]
    }
}