{
    "DNDConfig": null,
    "__parentReadjusting__": false,
    "_height_": {
        "type": "ref",
        "value": "preferred"
    },
    "_left_": {
        "type": "string",
        "value": "0dp"
    },
    "_margin_": [
        0,
        0,
        0,
        0
    ],
    "_orientation_": 6,
    "_padding_": [
        0,
        0,
        0,
        0
    ],
    "_percent_": true,
    "_skin_": "sf052fd82d224fc1a020a88977067dd5",
    "_top_": {
        "type": "string",
        "value": "0dp"
    },
    "_width_": {
        "type": "string",
        "value": "100%"
    },
    "allboxes": [],
    "autogrowmode": 1,
    "canUpdateUI": true,
    "children": [
        "confirmHeaders",
        "flxHorizontalLine",
        "keyValueBankName",
        "keyValueCountryName",
        "keyValueAccountType",
        "keyValueAccountNumber",
        "keyValueRoutingNumber",
        "keyValueBenificiaryName",
        "keyValueSupportingDocuments",
        "keyValueAccountNickName",
        "flxDileveryBy",
        "flxDescription",
        "keyValue",
        "keyValue1",
        "keyValue2",
        "flxTransactionFee",
        "confirmButtons"
    ],
    "clipbounds": true,
    "containerweight": 100,
    "enablescrolling": true,
    "id": "flxMain",
    "info": null,
    "isvisible": true,
    "kuid": "4f1556f9dade42888f6b9e24f4f3c7a2",
    "layouttype": 4,
    "name": "kony.ui.FlexContainer",
    "parent": "confirmDialogAccounts",
    "pf": "userwidgetmodel",
    "snapgridsize": 10,
    "snaptogrid": true,
    "wType": "FlexContainer",
    "widgetalignment": 1,
    "zindex": 1
}