{
    "@class": "com.kony.gen.viz.model.component.KVizButton",
    "DNDConfig": null,
    "__parentReadjusting__": false,
    "_height_": {
        "type": "string",
        "value": "20dp"
    },
    "_left_": {
        "type": "string",
        "value": "46%"
    },
    "_margin_": [
        6,
        6,
        6,
        6
    ],
    "_padding_": [
        2,
        0,
        2,
        0
    ],
    "_skin_": "se4cbdf6e51f48eda9966caa941c6a19",
    "_text_": "Add Range",
    "_top_": {
        "type": "string",
        "value": "0dp"
    },
    "_width_": {
        "type": "ref",
        "value": "preferred"
    },
    "accessibilityconfig": {
        "a11yLabel": "CLEAR SEARCH"
    },
    "canUpdateUI": true,
    "centery": {
        "type": "string",
        "value": "50%"
    },
    "containerweight": 100,
    "contentalignment": 5,
    "disabledSkins": {
        "focusSkin": "sf44d06ca8224832827ea7fdff757013"
    },
    "displaytext": true,
    "id": "btnChequeRemoveRange",
    "info": null,
    "isvisible": false,
    "kuid": "a8930cf0ef864eccb50504d30e4a245d",
    "name": "kony.ui.Button",
    "paddinginpixel": false,
    "parent": "flxChequeNumberandRemove",
    "pf": "userwidgetmodel",
    "texti18n": "i18n.ChequeSearch.removeRange",
    "tooltip": "Clear Search",
    "wType": "Button",
    "zindex": 1
}