{
    "@class": "com.kony.gen.viz.model.component.KVizTextBox2",
    "DNDConfig": null,
    "__parentReadjusting__": false,
    "_height_": {
        "type": "string",
        "value": "40dp"
    },
    "_left_": {
        "type": "string",
        "value": "5dp"
    },
    "_margin_": [
        0,
        0,
        0,
        0
    ],
    "_padding_": [
        3,
        0,
        0,
        0
    ],
    "_placeholder_": "Cheque Number",
    "_skin_": "sd91788aa8ad4f3ea57365241c5a4711",
    "_text_": "",
    "_top_": {
        "type": "string",
        "value": "0dp"
    },
    "_width_": {
        "type": "string",
        "value": "80%"
    },
    "accessibilityconfig": {
        "a11yLabel": "Check Number"
    },
    "autocapitalize": "none",
    "autocomplete": false,
    "autocorrect": false,
    "autofilter": false,
    "canUpdateUI": true,
    "containerheight": "",
    "containerheightmode": 1,
    "containerweight": 100,
    "contentalignment": 4,
    "desktopweb": {
        "placeholderSkin": "s38834f7b6374aa597f26c3d9367ae84"
    },
    "disabledSkins": {},
    "focusskin": "s80a8c5539a441ee9b9b49917cc45cc2",
    "id": "txtCheckNumberTo",
    "info": null,
    "isvisible": true,
    "keyboardtype": "A",
    "kiosk": {
        "psp": {
            "toolTip": "To"
        }
    },
    "kuid": "j7596b47c07e45399104dd24cad771d9",
    "mode": "A",
    "name": "kony.ui.TextBox2",
    "parent": "flxChequeNumberRange",
    "pf": "userwidgetmodel",
    "placeholderskin": "s38834f7b6374aa597f26c3d9367ae84",
    "securetextentry": false,
    "textinputmode": "A",
    "viewtype": "default",
    "wType": "TextField",
    "zindex": 1
}