{
    "@class": "com.kony.gen.viz.model.component.KVizUserWidget",
    "DNDConfig": null,
    "_bottom_": {
        "type": "string",
        "value": "20dp"
    },
    "_children_": [],
    "_height_": {
        "type": "ref",
        "value": "preferred"
    },
    "_left_": {
        "type": "string",
        "value": "2.50%"
    },
    "_margin_": [
        0,
        0,
        0,
        0
    ],
    "_orientation_": 1,
    "_padding_": [
        0,
        0,
        0,
        0
    ],
    "_percent_": true,
    "_skin_": "sdc143f0e5b64ae3a3f155f691c73fa7",
    "_top_": {
        "type": "string",
        "value": "20dp"
    },
    "_width_": {
        "type": "string",
        "value": "95%"
    },
    "areflexpropsreferenced": false,
    "autogrowmode": 1,
    "canUpdateUI": true,
    "centerx": {
        "type": "number",
        "value": ""
    },
    "clipbounds": false,
    "containerweight": 0,
    "dataDiffs": {
        "btnCancel": {
            "__events__": {},
            "__info__": {
                "kuid": "c2defc653ecf48b48b329d9fdfcf56af",
                "srcKUID": "ecd0607348d748f28f12896837d00a25",
                "wType": "Button"
            }
        },
        "btnConfirm": {
            "__events__": {},
            "__info__": {
                "kuid": "b8fce3a8b9314004af22b047e840b4a7",
                "srcKUID": "dcd36efb35a441039c806e99232d6d16",
                "wType": "Button"
            }
        },
        "btnModify": {
            "__events__": {},
            "__info__": {
                "kuid": "i98140b0995b475db97363f77f47ce27",
                "srcKUID": "a00e6e7537d64f76ba9647b17438995b",
                "wType": "Button"
            }
        },
        "confirmation": {
            "__events__": {},
            "__info__": {
                "isRoot": true,
                "kuid": "a109470c64b14f78a932dd42c7d322a4",
                "srcKUID": "e7357ed2b0ec4256ac45d95aa7acc575",
                "wType": "FlexContainer"
            }
        },
        "flxButtons": {
            "__events__": {},
            "__info__": {
                "kuid": "ebb0a0f48bd14700b489290061da69a7",
                "srcKUID": "d5e3b5354ed64ee2b442347c3867e826",
                "wType": "FlexContainer"
            }
        },
        "flxConfirmDetail0": {
            "__events__": {},
            "__info__": {
                "kuid": "h74fd62fb33b431ea312c2b578085bcb",
                "srcKUID": "a431d62478824c74a4efcc2a17c4c78e",
                "wType": "FlexContainer"
            }
        },
        "flxConfirmDetail1": {
            "__events__": {},
            "__info__": {
                "kuid": "eab57687b90f4b8ca0ef5bfc8bb99935",
                "srcKUID": "f096865595e54d3c8b791cc5fd74ae29",
                "wType": "FlexContainer"
            }
        },
        "flxConfirmDetail2": {
            "__events__": {},
            "__info__": {
                "kuid": "e922635eeaee45a3afce19d6b03d0c9c",
                "srcKUID": "ha2d35f35c4347a28fd7ebe11debc2af",
                "wType": "FlexContainer"
            }
        },
        "flxConfirmDetail3": {
            "__events__": {},
            "__info__": {
                "kuid": "ee512b41494946f49c631f27dae728b6",
                "srcKUID": "f1dcd336db874389a172dc6e20d8cb05",
                "wType": "FlexContainer"
            }
        },
        "flxConfirmDetail33": {
            "__events__": {},
            "__info__": {
                "kuid": "c62961de784249b6ba9dda494bd3bf7a",
                "srcKUID": "c4ac8336511d4a08ba7cc62b7fe0611e",
                "wType": "FlexContainer"
            }
        },
        "flxConfirmDetail4": {
            "__events__": {},
            "__info__": {
                "kuid": "e3dc4f0eda5f4e2e93deb5cb2c937f3a",
                "srcKUID": "i59bc73aa77743e395fc6b75d6e62608",
                "wType": "FlexContainer"
            }
        },
        "flxConfirmDetail44": {
            "__events__": {},
            "__info__": {
                "kuid": "h19704d8d2764321a6252e9b052c12a0",
                "srcKUID": "bcd4ee2c56d94e30893bce420d1c8c37",
                "wType": "FlexContainer"
            }
        },
        "flxConfirmDetail5": {
            "__events__": {},
            "__info__": {
                "kuid": "e0f6677f3a614c139af18aecd8b71c1a",
                "srcKUID": "g2e7cd89afb049ee9f38fd785bbc2e2a",
                "wType": "FlexContainer"
            }
        },
        "flxConfirmDetail6": {
            "__events__": {},
            "__info__": {
                "kuid": "c3b9e58a247148c898feb77fa95dfd9a",
                "srcKUID": "b71b2a92c2554a1f8981ac879183e1e6",
                "wType": "FlexContainer"
            },
            "isVisible": false,
            "responsiveData": {
                "b3": {}
            }
        },
        "flxConfirmDetail7": {
            "__events__": {},
            "__info__": {
                "kuid": "d39d6f41d866415bb15dd902dbbe8db7",
                "srcKUID": "debddb11442f4feb920522381a132962",
                "wType": "FlexContainer"
            },
            "isVisible": false,
            "responsiveData": {
                "b3": {}
            }
        },
        "flxConfirmDetail8": {
            "__events__": {},
            "__info__": {
                "kuid": "ec534bb3d9814d1e8bda63c44c87000f",
                "srcKUID": "c9660e62809c4b63a01f910e70472274",
                "wType": "FlexContainer"
            },
            "isVisible": false,
            "responsiveData": {
                "b3": {}
            }
        },
        "flxConfirmKey0": {
            "__events__": {},
            "__info__": {
                "kuid": "cf287190904243488560e14ca4034b46",
                "srcKUID": "h53fbe527e824973a7137b2ac9e23a05",
                "wType": "FlexContainer"
            }
        },
        "flxConfirmKey1": {
            "__events__": {},
            "__info__": {
                "kuid": "hb9e28b058ff44f19f55a26249010f42",
                "srcKUID": "a5d5bba7a4334ffb8d956f4e3aa81852",
                "wType": "FlexContainer"
            }
        },
        "flxConfirmKey2": {
            "__events__": {},
            "__info__": {
                "kuid": "h7d577569ba943a788586a83f3a0cfc0",
                "srcKUID": "c76dae79d8074d54b7eb04c0e84b61dd",
                "wType": "FlexContainer"
            }
        },
        "flxConfirmKey3": {
            "__events__": {},
            "__info__": {
                "kuid": "ifce785779d84984a70f9a1be2f24c61",
                "srcKUID": "f193727a150a428fa592831b009ce704",
                "wType": "FlexContainer"
            }
        },
        "flxConfirmKey33": {
            "__events__": {},
            "__info__": {
                "kuid": "a5759b5eaa7a47f0958a2c5efd36a838",
                "srcKUID": "d9dd1032c1164cc6bffba0d731b0ae71",
                "wType": "FlexContainer"
            }
        },
        "flxConfirmKey4": {
            "__events__": {},
            "__info__": {
                "kuid": "i5ca157f7ebb4c7981da5cb1ae8faca7",
                "srcKUID": "f938804eedff4236969d3e998b59230c",
                "wType": "FlexContainer"
            }
        },
        "flxConfirmKey44": {
            "__events__": {},
            "__info__": {
                "kuid": "c33a4224014b4dfa853af21672a0981c",
                "srcKUID": "b0e172071e364d10afc1a1896dd87c0a",
                "wType": "FlexContainer"
            }
        },
        "flxConfirmKey5": {
            "__events__": {},
            "__info__": {
                "kuid": "b81ae1d804d34c329a07c54b7eec0a15",
                "srcKUID": "j239943a5b1a4c3cabc6a32929f92c51",
                "wType": "FlexContainer"
            }
        },
        "flxConfirmKey6": {
            "__events__": {},
            "__info__": {
                "kuid": "ic53eccb05db472897a2f57f2fb90c37",
                "srcKUID": "gc3038e8e1414b80a33d55634b4d9e94",
                "wType": "FlexContainer"
            }
        },
        "flxConfirmKey7": {
            "__events__": {},
            "__info__": {
                "kuid": "h9fee6437b2d41069fcc4902da0b9a7b",
                "srcKUID": "jd2c922ab12248cfb2801d244727f56a",
                "wType": "FlexContainer"
            }
        },
        "flxConfirmKey8": {
            "__events__": {},
            "__info__": {
                "kuid": "d9fb25e8f73b40bdb451f99c22835c4f",
                "srcKUID": "d51d1009944241f09dcd29d0d245ac6e",
                "wType": "FlexContainer"
            }
        },
        "flxConfirmValue0": {
            "__events__": {},
            "__info__": {
                "kuid": "hab3fe7aaacd43f7afaa5f5e7ec1f432",
                "srcKUID": "dfa5e63291784585a5fce9f4c71bba8b",
                "wType": "FlexContainer"
            }
        },
        "flxConfirmValue1": {
            "__events__": {},
            "__info__": {
                "kuid": "eb8b81baf4e4416bbe31789de3e0a79c",
                "srcKUID": "h580ff7eac2e4f00bb62d2b2809416de",
                "wType": "FlexContainer"
            }
        },
        "flxConfirmValue2": {
            "__events__": {},
            "__info__": {
                "kuid": "bb31fc9797db492a916cffea2cf6ba2c",
                "srcKUID": "fea6ac63cf334758bc584d9ed3f28e5f",
                "wType": "FlexContainer"
            }
        },
        "flxConfirmValue3": {
            "__events__": {},
            "__info__": {
                "kuid": "hda217209014486d8692f3b59af7b404",
                "srcKUID": "ee71a9f88951434e888748c7350f8741",
                "wType": "FlexContainer"
            }
        },
        "flxConfirmValue33": {
            "__events__": {},
            "__info__": {
                "kuid": "de1e03a78ff249dd9a0dca7a254e69e0",
                "srcKUID": "bcc511c5d3ae44ea84c467d44754402e",
                "wType": "FlexContainer"
            }
        },
        "flxConfirmValue4": {
            "__events__": {},
            "__info__": {
                "kuid": "ib465ecb09954e40a709ad1456192f28",
                "srcKUID": "i494eb71954b444f975c2ba640e90d09",
                "wType": "FlexContainer"
            }
        },
        "flxConfirmValue44": {
            "__events__": {},
            "__info__": {
                "kuid": "fbbd3f7ed4e3467a839b956226313e9b",
                "srcKUID": "db1e1d80d9744fdf958592caf11b1a4f",
                "wType": "FlexContainer"
            }
        },
        "flxConfirmValue5": {
            "__events__": {},
            "__info__": {
                "kuid": "e9e7f37f0e4b4bb39b4e82d3a4a06efc",
                "srcKUID": "i8b0acb5f2504e61b79e75746c70ea42",
                "wType": "FlexContainer"
            }
        },
        "flxConfirmValue6": {
            "__events__": {},
            "__info__": {
                "kuid": "c9f7af327f9a42eba81c72b9231abab2",
                "srcKUID": "ea4e9b74bc9e455482bebd3d63c7de15",
                "wType": "FlexContainer"
            }
        },
        "flxConfirmValue7": {
            "__events__": {},
            "__info__": {
                "kuid": "g3a335542ce842439eba7720598975df",
                "srcKUID": "d5280089e5664b13ae01252159149157",
                "wType": "FlexContainer"
            }
        },
        "flxConfirmValue8": {
            "__events__": {},
            "__info__": {
                "kuid": "c61f45dadfb1430683b2154d9aa7cd93",
                "srcKUID": "f80f5a9d1e8e4d32874ddd67358d8aa5",
                "wType": "FlexContainer"
            }
        },
        "flxHorizontalLine": {
            "__events__": {},
            "__info__": {
                "kuid": "j9359a578de2406a85adce4288c05777",
                "srcKUID": "i3a387bfda03449f8384be272407eb3b",
                "wType": "FlexContainer"
            }
        },
        "flxIcon": {
            "__events__": {},
            "__info__": {
                "kuid": "bf42e340d0a84342869c9a31a3cb3084",
                "srcKUID": "ff4eef3ae2f44ceab9e6add210769da0",
                "wType": "FlexContainer"
            }
        },
        "flxSeparator": {
            "__events__": {},
            "__info__": {
                "kuid": "edd6ff951c3f486ba3541ea254d08954",
                "srcKUID": "f34a7f8008484847867e84d226e59e96",
                "wType": "FlexContainer"
            },
            "responsiveData": {
                "b2": {
                    "top": null
                },
                "b3": {}
            },
            "top": {
                "Default": {
                    "type": "string",
                    "value": "30dp"
                }
            }
        },
        "flxSeparator2": {
            "__events__": {},
            "__info__": {
                "kuid": "a3e82aaa641744a18bc61db7023129c8",
                "srcKUID": "h85eed4d35b949238aac9e2b7b33c48d",
                "wType": "FlexContainer"
            }
        },
        "flxSubHeader": {
            "__events__": {},
            "__info__": {
                "kuid": "id9e1d69a76247a4aa1140a3fa29d29d",
                "srcKUID": "b529726d76c246f59258164b20641e6e",
                "wType": "FlexContainer"
            }
        },
        "lblConfirmKey0": {
            "__events__": {},
            "__info__": {
                "kuid": "ea35731b4ee94992a85e3fd8abefe5fa",
                "srcKUID": "d689fb845dbb4819a3170c5763c71813",
                "wType": "Label"
            }
        },
        "lblConfirmKey1": {
            "__events__": {},
            "__info__": {
                "kuid": "g20bb242fb4d442482f6b6648ebc26f6",
                "srcKUID": "d6f6d3b2f6a9475fa68d74779c82ebed",
                "wType": "Label"
            }
        },
        "lblConfirmKey2": {
            "__events__": {},
            "__info__": {
                "kuid": "e2e2ec6ea43d448c88d5c18b725bfc56",
                "srcKUID": "bd0f495be28c4e2a9a68013c111bd295",
                "wType": "Label"
            }
        },
        "lblConfirmKey3": {
            "__events__": {},
            "__info__": {
                "kuid": "fc04cf8e68ed426b8d11c1016c3c3d73",
                "srcKUID": "d63306f69b454ee3952a90110cceb70e",
                "wType": "Label"
            }
        },
        "lblConfirmKey33": {
            "__events__": {},
            "__info__": {
                "kuid": "cf28aa13464042438756800e8f8617de",
                "srcKUID": "ga8e1b17dcb34daeb3f10a205cced868",
                "wType": "Label"
            }
        },
        "lblConfirmKey4": {
            "__events__": {},
            "__info__": {
                "kuid": "gbc71e7a484f474db3cb77a9d25d38af",
                "srcKUID": "f769ecb78adb480e94b595ae7ff75a00",
                "wType": "Label"
            }
        },
        "lblConfirmKey44": {
            "__events__": {},
            "__info__": {
                "kuid": "b48c914a66bf48d08650b389a0da89f7",
                "srcKUID": "e037c2440a9f43ff83d6404d222dcd82",
                "wType": "Label"
            }
        },
        "lblConfirmKey5": {
            "__events__": {},
            "__info__": {
                "kuid": "i5ab4cd664f24efaa68463e5fe2fdfe7",
                "srcKUID": "e03d3c04d2e24506acddec6fa6fdcc2b",
                "wType": "Label"
            }
        },
        "lblConfirmKey6": {
            "__events__": {},
            "__info__": {
                "kuid": "ebf6431a72344c759abdaea89d11bc28",
                "srcKUID": "c88ac8a75e5b42c1822dbd7b028f1e2f",
                "wType": "Label"
            }
        },
        "lblConfirmKey7": {
            "__events__": {},
            "__info__": {
                "kuid": "af680484386840bca4a815f92ef8aae8",
                "srcKUID": "a0ac438fe2d341f09640771d2d6a2a09",
                "wType": "Label"
            }
        },
        "lblConfirmKey8": {
            "__events__": {},
            "__info__": {
                "kuid": "fa3683e724804f279745b25e8d55cdca",
                "srcKUID": "d61af3521e7a4b67ab4c65995e923fd3",
                "wType": "Label"
            }
        },
        "lblConfirmValue0": {
            "__events__": {},
            "__info__": {
                "kuid": "d800353b30af4437b758eeaaf3836c8a",
                "srcKUID": "c78b0588b456469f96ce53add73cd945",
                "wType": "Label"
            }
        },
        "lblConfirmValue1": {
            "__events__": {},
            "__info__": {
                "kuid": "f50304fb7aeb42d6b7e03dfc0df94ebe",
                "srcKUID": "a933ff27ac9e4c7583929688d11f159e",
                "wType": "Label"
            }
        },
        "lblConfirmValue2": {
            "__events__": {},
            "__info__": {
                "kuid": "j665a13ed5644f86a432d9aabe53d191",
                "srcKUID": "h167149e16594258bdd5ad22b6691701",
                "wType": "Label"
            }
        },
        "lblConfirmValue3": {
            "__events__": {},
            "__info__": {
                "kuid": "b0aa9d522b194bb88ea63fc263729169",
                "srcKUID": "h8c236bf7994467298b57e1907476831",
                "wType": "Label"
            }
        },
        "lblConfirmValue33": {
            "__events__": {},
            "__info__": {
                "kuid": "d66f188800424aa59005c0b084f9c31f",
                "srcKUID": "f3014659880b49ce9b7e5af5777c43e6",
                "wType": "Label"
            }
        },
        "lblConfirmValue4": {
            "__events__": {},
            "__info__": {
                "kuid": "cf33b151056b47b6908fca3a1a5ee6bc",
                "srcKUID": "d7f88cfe667a41beb4fbcc55ba6d6f8e",
                "wType": "Label"
            }
        },
        "lblConfirmValue44": {
            "__events__": {},
            "__info__": {
                "kuid": "b144c4b8e16f415cbce6f2c2df7d24cc",
                "srcKUID": "f1aa91b64ac2444c9dac2d227591f2c1",
                "wType": "Label"
            }
        },
        "lblConfirmValue5": {
            "__events__": {},
            "__info__": {
                "kuid": "eeaf3dc150c04a24a4b2502fcc5c36f7",
                "srcKUID": "f1cdbfa192bc49e9aab118fbabbe469d",
                "wType": "Label"
            }
        },
        "lblConfirmValue6": {
            "__events__": {},
            "__info__": {
                "kuid": "i9bbe14b08cb4a26a09d2fb4fd9220e2",
                "srcKUID": "fb46a0c823c044a08e7a31c48e795b28",
                "wType": "Label"
            }
        },
        "lblConfirmValue7": {
            "__events__": {},
            "__info__": {
                "kuid": "f62f7aec66fb4536b6786502e792660b",
                "srcKUID": "daecf9c3b99447c590425fafd391db71",
                "wType": "Label"
            }
        },
        "lblConfirmValue8": {
            "__events__": {},
            "__info__": {
                "kuid": "i02c2d42b6b541d6aefcee3a3568dba1",
                "srcKUID": "g683627296964773b105747fde8e4a24",
                "wType": "Label"
            }
        },
        "lblHeading": {
            "__events__": {},
            "__info__": {
                "kuid": "a1cfcc93a5784a9badab8fc9a6ffdee5",
                "srcKUID": "e06d7e5ded4b4105b63d27e475d924ea",
                "wType": "Label"
            }
        },
        "lblIcon": {
            "__events__": {},
            "__info__": {
                "kuid": "a1f5ecf5d19e4ef9bc56a2018ded5221",
                "srcKUID": "a6f5487adb4548919b0fd05c62767df1",
                "wType": "Label"
            }
        }
    },
    "enablescrolling": true,
    "id": "confirmation",
    "info": null,
    "iscustomlayout": false,
    "isdatareferenced": false,
    "isvisible": true,
    "kuid": "a109470c64b14f78a932dd42c7d322a4",
    "layouttype": 4,
    "masterType": 0,
    "minheight": {
        "type": "string",
        "value": "440dp"
    },
    "name": "kony.ui.UserWidgetInstance",
    "parent": "flxMain",
    "pf": "frmFundGoalConfirm",
    "retaincontentalignment": false,
    "retainflexpositionproperties": false,
    "retainflowhorizontalalignment": false,
    "snapgridsize": 10,
    "snaptogrid": true,
    "sourceUserWidget": "e7357ed2b0ec4256ac45d95aa7acc575",
    "wType": "UserWidgetInstance",
    "zindex": 1
}