{
    "@class": "com.kony.gen.viz.model.component.KVizUserWidget",
    "DNDConfig": null,
    "__parentReadjusting__": false,
    "_children_": [],
    "_height_": {
        "type": "ref",
        "value": "preferred"
    },
    "_left_": {
        "type": "string",
        "value": "0dp"
    },
    "_margin_": [
        0,
        0,
        0,
        0
    ],
    "_orientation_": 1,
    "_padding_": [
        0,
        0,
        0,
        0
    ],
    "_percent_": true,
    "_render_": true,
    "_skin_": "s4d6392bface4761840338d65d827a61",
    "_top_": {
        "type": "string",
        "value": "0dp"
    },
    "_width_": {
        "type": "string",
        "value": "100%"
    },
    "areflexpropsreferenced": false,
    "autogrowmode": 1,
    "canUpdateUI": true,
    "clipbounds": true,
    "containerweight": 0,
    "dataDiffs": {
        "confirmButtons": {
            "__events__": {},
            "__info__": {
                "kuid": "fa8afbcb24404de994b380a68a3371ee",
                "srcKUID": "46405f5ce2fc4e9288872a67ffedc4e6",
                "wType": "UserWidgetInstance"
            },
            "autogrowMode": {
                "Default": 0
            },
            "height": {},
            "responsiveData": {
                "b1": {
                    "height": {
                        "type": "string",
                        "value": "103px"
                    }
                },
                "b2": {
                    "top": {
                        "type": "string",
                        "value": "30dp"
                    }
                },
                "b3": {
                    "height": {
                        "type": "ref",
                        "value": "preferred"
                    }
                }
            },
            "top": {}
        },
        "confirmButtons.btnCancel": {
            "__events__": {
                "ide_onClick": "AS_Button_d366ebe6ea4343b585ce38de07a2574f"
            },
            "__info__": {
                "kuid": "d7886a9be19b4d88bacc1b78748ee194",
                "srcKUID": "c69dd70537134dca91d79ecfae2ab801",
                "wType": "Button"
            },
            "bottom": {},
            "centerX": {},
            "centerY": {},
            "left": {},
            "responsiveData": {
                "b2": {
                    "right": {
                        "type": "string",
                        "value": "51.60%"
                    },
                    "width": {
                        "type": "string",
                        "value": "20.92%"
                    }
                },
                "b3": {
                    "bottom": {
                        "type": "string",
                        "value": "20dp"
                    },
                    "centerX": {
                        "type": "string",
                        "value": "50%"
                    },
                    "centerY": {
                        "type": "string",
                        "value": ""
                    },
                    "left": {
                        "type": "string",
                        "value": "15dp"
                    },
                    "right": {
                        "type": "string",
                        "value": "15dp"
                    },
                    "top": {
                        "type": "string",
                        "value": "140dp"
                    },
                    "width": {
                        "type": "string",
                        "value": ""
                    }
                }
            },
            "right": {},
            "top": {},
            "width": {}
        },
        "confirmButtons.btnConfirm": {
            "__events__": {
                "ide_onClick": "AS_Button_ea16de84649b4a0d880eeab903accae7"
            },
            "__info__": {
                "kuid": "a1550491727542139d131e35579a9e2e",
                "srcKUID": "id4ed79fda4946d7b788005be824b480",
                "wType": "Button"
            },
            "centerX": {},
            "centerY": {},
            "i18n_text": "i18n.transfers.Confirm",
            "left": {},
            "responsiveData": {
                "b2": {
                    "right": {
                        "type": "string",
                        "value": "30dp"
                    },
                    "width": {
                        "type": "string",
                        "value": "20.92%"
                    }
                },
                "b3": {
                    "centerX": {
                        "type": "string",
                        "value": "50%"
                    },
                    "centerY": {
                        "type": "string",
                        "value": ""
                    },
                    "left": {
                        "type": "string",
                        "value": "15dp"
                    },
                    "right": {
                        "type": "string",
                        "value": "15dp"
                    },
                    "top": {
                        "type": "string",
                        "value": "20dp"
                    },
                    "width": {
                        "type": "string",
                        "value": ""
                    }
                }
            },
            "right": {},
            "top": {},
            "width": {}
        },
        "confirmButtons.btnModify": {
            "__events__": {
                "ide_onClick": "AS_Button_dbde2a0598bf421fb52da8a663db7e5c"
            },
            "__info__": {
                "kuid": "e32faac976e5474fa5b1327a2d5eb43c",
                "srcKUID": "ib356fc7a2664bdfa2d82ba1e6d9bf5a",
                "wType": "Button"
            },
            "centerX": {},
            "centerY": {},
            "i18n_text": "i18n.transfers.Modify",
            "left": {},
            "responsiveData": {
                "b2": {
                    "right": {
                        "type": "string",
                        "value": "27.89%"
                    },
                    "width": {
                        "type": "string",
                        "value": "20.92%"
                    }
                },
                "b3": {
                    "centerX": {
                        "type": "string",
                        "value": "50%"
                    },
                    "centerY": {
                        "type": "string",
                        "value": ""
                    },
                    "left": {
                        "type": "string",
                        "value": "15dp"
                    },
                    "right": {
                        "type": "string",
                        "value": "15dp"
                    },
                    "top": {
                        "type": "string",
                        "value": "80dp"
                    },
                    "width": {
                        "type": "string",
                        "value": ""
                    }
                }
            },
            "right": {},
            "top": {},
            "width": {}
        },
        "confirmButtons.flxHorizontalLine": {
            "__events__": {},
            "__info__": {
                "kuid": "e39b0160fd3c412aba2aa1ec115b3acb",
                "srcKUID": "daa090bb00594a999e8dd106a8d4f9ec",
                "wType": "FlexContainer"
            },
            "left": {},
            "responsiveData": {
                "b3": {
                    "isVisible": true,
                    "left": {
                        "type": "string",
                        "value": "0dp"
                    },
                    "right": {
                        "type": "string",
                        "value": "0dp"
                    },
                    "width": {
                        "type": "string",
                        "value": ""
                    }
                }
            },
            "right": {},
            "width": {}
        },
        "confirmDialogAccounts": {
            "__events__": {},
            "__info__": {
                "isRoot": true,
                "kuid": "je3722c2aeea4b0ea7cad33c579607f5",
                "srcKUID": "19af251ce6a24651a06e6dc65b2303e6",
                "wType": "FlexContainer"
            },
            "autogrowMode": {
                "Default": 1
            },
            "height": {
                "Default": {
                    "type": "ref",
                    "value": "preferred"
                }
            },
            "responsiveData": {},
            "top": {
                "Default": {
                    "type": "string",
                    "value": "0dp"
                }
            }
        },
        "confirmHeaders": {
            "__events__": {},
            "__info__": {
                "kuid": "j9725da6b6704b85aa8e101dfc135026",
                "srcKUID": "e84b5f5e33ca4e73aea45a50013ee6fd",
                "wType": "UserWidgetInstance"
            }
        },
        "confirmHeaders.flxHeader": {
            "__events__": {},
            "__info__": {
                "kuid": "c66b5f79d55f495993892836c873e64f",
                "srcKUID": "bfbfb9f59a6f415880f5ba35fbddd249",
                "wType": "FlexContainer"
            }
        },
        "confirmHeaders.lblHeading": {
            "__events__": {},
            "__info__": {
                "kuid": "g665518d1f344796a4e06e0d999aa784",
                "srcKUID": "b632c5d3e7934929bf29a1aa5ab625f2",
                "wType": "Label"
            },
            "left": {},
            "responsiveData": {
                "b2": {
                    "left": {
                        "type": "string",
                        "value": "30px"
                    }
                }
            }
        },
        "flxDescription": {
            "__events__": {},
            "__info__": {
                "kuid": "a4d3d76da9944fc3b20e35ad80a537ae",
                "srcKUID": "faa3f0e4ee5147b8ac07b4edde700b04",
                "wType": "UserWidgetInstance"
            },
            "responsiveData": {
                "b2": {
                    "isVisible": false
                }
            }
        },
        "flxDescription.flxContainer": {
            "__events__": {},
            "__info__": {
                "kuid": "d46c6e4a72bc44838c800e9acd82f262",
                "srcKUID": "ff49ff9bb4ee45b2b5821234424992a0",
                "wType": "FlexContainer"
            },
            "left": {},
            "responsiveData": {
                "b2": {
                    "left": {
                        "type": "string",
                        "value": "0dp"
                    }
                }
            }
        },
        "flxDescription.flxInfo": {
            "__events__": {},
            "__info__": {
                "kuid": "a39de569709b41bebff35a3511855acc",
                "srcKUID": "f66a96908d9c4b95a3b2ff67d602b1f4",
                "wType": "FlexContainer"
            }
        },
        "flxDescription.flxKey": {
            "__events__": {},
            "__info__": {
                "kuid": "d46090506b6e4b3a82e18f354a2f4360",
                "srcKUID": "ceece66d7a6e45bb984bbb91d3102c81",
                "wType": "FlexContainer"
            },
            "left": {},
            "responsiveData": {
                "b2": {
                    "left": {
                        "type": "string",
                        "value": "30px"
                    },
                    "width": {
                        "type": "string",
                        "value": "22%"
                    }
                }
            },
            "width": {}
        },
        "flxDescription.flxValue": {
            "__events__": {},
            "__info__": {
                "kuid": "e546a90b4a2c47098b701abb0d004408",
                "srcKUID": "e3c0db4830384087aa0a62ffa4fcfd83",
                "wType": "FlexContainer"
            },
            "left": {},
            "responsiveData": {
                "b2": {
                    "left": {
                        "type": "string",
                        "value": "32%"
                    }
                }
            }
        },
        "flxDescription.imgWhatIsSSN": {
            "__events__": {},
            "__info__": {
                "kuid": "a41800fe404e44bfab3d78a9b3131f69",
                "srcKUID": "g4087562aa2f49a5855a4c4e0b260c44",
                "wType": "Image"
            },
            "src": "info_grey.png"
        },
        "flxDescription.lblColon": {
            "__events__": {},
            "__info__": {
                "kuid": "ea4310df41e34b35bcb6327e3e3a3da4",
                "srcKUID": "ed65bccd1dec4b4180178b9fa508a942",
                "wType": "Label"
            },
            "left": {},
            "responsiveData": {
                "b2": {
                    "left": {
                        "type": "string",
                        "value": "30%"
                    }
                }
            }
        },
        "flxDescription.lblKey": {
            "__events__": {},
            "__info__": {
                "kuid": "ec39b4c9c66f434781f792579b2ef0c0",
                "srcKUID": "dd25a77e56bf49808fc369fe29bba72a",
                "wType": "Label"
            },
            "i18n_text": "i18n.StopPayments.Description"
        },
        "flxDescription.lblValue": {
            "__events__": {},
            "__info__": {
                "kuid": "hc6e667a940e40558d4249ebc73b3397",
                "srcKUID": "a900a811f5ef4f3cbcfc21f94bf06e28",
                "wType": "Label"
            }
        },
        "flxDileveryBy": {
            "__events__": {},
            "__info__": {
                "kuid": "f89df0b58939484491b57ed5464f76e5",
                "srcKUID": "df93703431024637940cde8b56f3db6d",
                "wType": "UserWidgetInstance"
            },
            "responsiveData": {
                "b3": {
                    "isVisible": false
                }
            }
        },
        "flxDileveryBy.flxContainer": {
            "__events__": {},
            "__info__": {
                "kuid": "c5a1b1396f3f4844839ddc26a2c5bba7",
                "srcKUID": "cbe312400bd04e07b5b5bca70c37beb6",
                "wType": "FlexContainer"
            }
        },
        "flxDileveryBy.flxInfo": {
            "__events__": {},
            "__info__": {
                "kuid": "b6293739a95b49fabff44a1c2d534fb8",
                "srcKUID": "a3b70dd23fc34e66a24bc73c733f793a",
                "wType": "FlexContainer"
            }
        },
        "flxDileveryBy.flxKey": {
            "__events__": {},
            "__info__": {
                "kuid": "j2cc20c2e9554cff956b8abe9ad0b359",
                "srcKUID": "c888755c3588439e9c7de8a15697b9ad",
                "wType": "FlexContainer"
            },
            "left": {},
            "responsiveData": {
                "b2": {
                    "left": {
                        "type": "string",
                        "value": "30px"
                    },
                    "width": {
                        "type": "string",
                        "value": "22%"
                    }
                }
            },
            "width": {}
        },
        "flxDileveryBy.flxValue": {
            "__events__": {},
            "__info__": {
                "kuid": "ef9eb3316c324789b7ef01097b583533",
                "srcKUID": "be3ff2d9e32d4932839d3dab378d8aab",
                "wType": "FlexContainer"
            },
            "left": {},
            "responsiveData": {
                "b2": {
                    "left": {
                        "type": "string",
                        "value": "32%"
                    }
                }
            }
        },
        "flxDileveryBy.imgWhatIsSSN": {
            "__events__": {},
            "__info__": {
                "kuid": "c28ef1b9b82e4bd0a94d5e60dd3c32c2",
                "srcKUID": "cd51bd079c3f4124933d782ea15a9f10",
                "wType": "Image"
            },
            "src": "info_grey.png"
        },
        "flxDileveryBy.lblColon": {
            "__events__": {},
            "__info__": {
                "kuid": "ie946f92f1204d019a254efa373f6fc7",
                "srcKUID": "g1eae0a7a05d4a038cdc8a40c63ab0e3",
                "wType": "Label"
            },
            "left": {},
            "responsiveData": {
                "b2": {
                    "left": {
                        "type": "string",
                        "value": "30%"
                    }
                }
            }
        },
        "flxDileveryBy.lblKey": {
            "__events__": {},
            "__info__": {
                "kuid": "fcb459692f63421c9bbae9c3c3a5e7f4",
                "srcKUID": "e185e8c6d2a34988abf144769cb9c4f9",
                "wType": "Label"
            }
        },
        "flxDileveryBy.lblValue": {
            "__events__": {},
            "__info__": {
                "kuid": "ae154a6a0300472ba60b0f3194da726d",
                "srcKUID": "bdded94f213d41719766dfa89abcba22",
                "wType": "Label"
            }
        },
        "flxHorizontalLine": {
            "__events__": {},
            "__info__": {
                "kuid": "bd739f2904a54a5a808719a72782bea6",
                "srcKUID": "9d6cf38f2ade4c17886307b58e8e1acb",
                "wType": "FlexContainer"
            }
        },
        "flxMain": {
            "__events__": {},
            "__info__": {
                "kuid": "bc0580c9cebe49a1972b26785db39235",
                "srcKUID": "4f1556f9dade42888f6b9e24f4f3c7a2",
                "wType": "FlexContainer"
            }
        },
        "flxSeperator": {
            "__events__": {},
            "__info__": {
                "kuid": "abac633cf7b9429d96749d3a730e85aa",
                "srcKUID": "a4fbd55ad4b74278a72c2916b45f48b5",
                "wType": "FlexContainer"
            },
            "left": {},
            "responsiveData": {
                "b3": {
                    "left": {
                        "type": "string",
                        "value": "0dp"
                    },
                    "right": {
                        "type": "string",
                        "value": "0dp"
                    },
                    "width": {
                        "type": "string",
                        "value": ""
                    }
                }
            },
            "right": {},
            "width": {}
        },
        "keyValueAccountNickName": {
            "__events__": {},
            "__info__": {
                "kuid": "d55ef38e2b4946749732e6a2b826b85c",
                "srcKUID": "9a1e2df7e9834c56bd09b307616d66d3",
                "wType": "UserWidgetInstance"
            },
            "responsiveData": {
                "b3": {
                    "isVisible": false
                }
            }
        },
        "keyValueAccountNickName.flxContainer": {
            "__events__": {},
            "__info__": {
                "kuid": "a2fa7f59695049dd9b51685524627141",
                "srcKUID": "af841be489334f9fbdd6c62a307b69e8",
                "wType": "FlexContainer"
            }
        },
        "keyValueAccountNickName.flxInfo": {
            "__events__": {},
            "__info__": {
                "kuid": "dbaef82f67fc453b95d6f3e8af632ccb",
                "srcKUID": "c57c174ff76246f889b219bec6c0dea0",
                "wType": "FlexContainer"
            }
        },
        "keyValueAccountNickName.flxKey": {
            "__events__": {},
            "__info__": {
                "kuid": "d66c5a34cd4b424781db389b17b43317",
                "srcKUID": "c15f3713024d45169c5f40e8ba5e3f93",
                "wType": "FlexContainer"
            },
            "left": {},
            "responsiveData": {
                "b2": {
                    "left": {
                        "type": "string",
                        "value": "30px"
                    },
                    "width": {
                        "type": "string",
                        "value": "22%"
                    }
                }
            },
            "width": {}
        },
        "keyValueAccountNickName.flxValue": {
            "__events__": {},
            "__info__": {
                "kuid": "f83b9203747d437dbc4282fdef5eeb66",
                "srcKUID": "fc0f3d103da0487cbcd65392cd00ae1a",
                "wType": "FlexContainer"
            },
            "left": {},
            "responsiveData": {
                "b2": {
                    "left": {
                        "type": "string",
                        "value": "32%"
                    }
                }
            }
        },
        "keyValueAccountNickName.imgWhatIsSSN": {
            "__events__": {},
            "__info__": {
                "kuid": "ba510a710de84fd48292a0d8836863b7",
                "srcKUID": "ecfb02fa255148c698dc1145472a3810",
                "wType": "Image"
            },
            "src": "info_grey.png"
        },
        "keyValueAccountNickName.lblColon": {
            "__events__": {},
            "__info__": {
                "kuid": "e73e2df54bf848558d53639a68125bb2",
                "srcKUID": "gca0e285f2d143f8b78f03d9a9afc045",
                "wType": "Label"
            },
            "left": {},
            "responsiveData": {
                "b2": {
                    "left": {
                        "type": "string",
                        "value": "30%"
                    }
                }
            }
        },
        "keyValueAccountNickName.lblKey": {
            "__events__": {},
            "__info__": {
                "kuid": "ab5d9ffff5404348a454b9e8626263d8",
                "srcKUID": "f48d5d4a29694cfe8cb09dcad61dc38e",
                "wType": "Label"
            }
        },
        "keyValueAccountNickName.lblValue": {
            "__events__": {},
            "__info__": {
                "kuid": "ec045fe43fa54c3e86048aae2270bd5a",
                "srcKUID": "fea597d5c1854bd8b06382314bea3d7e",
                "wType": "Label"
            }
        },
        "keyValueAccountNumber": {
            "__events__": {},
            "__info__": {
                "kuid": "aad75277ff3d4f1e9d254097c9df9890",
                "srcKUID": "22ed949384d444f9a88a5cbfffd216ad",
                "wType": "UserWidgetInstance"
            },
            "responsiveData": {
                "b3": {
                    "top": {
                        "type": "string",
                        "value": "20dp"
                    }
                }
            },
            "top": {}
        },
        "keyValueAccountNumber.flxContainer": {
            "__events__": {},
            "__info__": {
                "kuid": "bbeda6b91e1f4d32a57dfe672e8f2326",
                "srcKUID": "d62e8bcd90d6424cb416e9cae13213b9",
                "wType": "FlexContainer"
            },
            "responsiveData": {
                "b3": {
                    "layoutType": 4
                }
            }
        },
        "keyValueAccountNumber.flxInfo": {
            "__events__": {},
            "__info__": {
                "kuid": "g5bd4ce955a54e9089145fa910bbb598",
                "srcKUID": "ae76bb317f914fbd8892e888dcf890a0",
                "wType": "FlexContainer"
            }
        },
        "keyValueAccountNumber.flxKey": {
            "__events__": {},
            "__info__": {
                "kuid": "d6ae316d837b427fa4a5e9bddd670744",
                "srcKUID": "d9683bd46fab45fa8f75f920b65133f3",
                "wType": "FlexContainer"
            },
            "left": {},
            "responsiveData": {
                "b2": {
                    "left": {
                        "type": "string",
                        "value": "30px"
                    },
                    "width": {
                        "type": "string",
                        "value": "22%"
                    }
                },
                "b3": {
                    "left": {
                        "type": "string",
                        "value": "15dp"
                    },
                    "width": {
                        "type": "string",
                        "value": "42%"
                    }
                }
            },
            "width": {}
        },
        "keyValueAccountNumber.flxValue": {
            "__events__": {},
            "__info__": {
                "kuid": "e192f7db35d4483aa9125605050d170c",
                "srcKUID": "jba60477ef8e4d1f8381865bdca7138f",
                "wType": "FlexContainer"
            },
            "left": {},
            "responsiveData": {
                "b2": {
                    "left": {
                        "type": "string",
                        "value": "32%"
                    }
                },
                "b3": {
                    "left": {
                        "type": "string",
                        "value": "15dp"
                    },
                    "top": {
                        "type": "string",
                        "value": "5dp"
                    }
                }
            },
            "top": {}
        },
        "keyValueAccountNumber.imgWhatIsSSN": {
            "__events__": {},
            "__info__": {
                "kuid": "e2fff60e8aa540b2aba64eb4e3135121",
                "srcKUID": "b3abb15e8a234ee79bcf345e5d63528d",
                "wType": "Image"
            },
            "src": "info_grey.png"
        },
        "keyValueAccountNumber.lblColon": {
            "__events__": {},
            "__info__": {
                "kuid": "e0cb8d873fdd4e94afda2d22671ba7f7",
                "srcKUID": "df5e94d112b3438ebdb06511cdbdee99",
                "wType": "Label"
            },
            "left": {},
            "responsiveData": {
                "b2": {
                    "left": {
                        "type": "string",
                        "value": "30%"
                    }
                },
                "b3": {
                    "isVisible": false
                }
            }
        },
        "keyValueAccountNumber.lblKey": {
            "__events__": {},
            "__info__": {
                "kuid": "b4387ee347384107b344fbb812cab1b4",
                "srcKUID": "be177026f995496bb8364e59c77966f3",
                "wType": "Label"
            }
        },
        "keyValueAccountNumber.lblValue": {
            "__events__": {},
            "__info__": {
                "kuid": "df07039c35a84c178908c8ef62035062",
                "srcKUID": "cbabed6cdde34c7b9fc687dc7eeba7d0",
                "wType": "Label"
            }
        },
        "keyValueAccountType": {
            "__events__": {},
            "__info__": {
                "kuid": "i614e5fa58f844809e29df4e6ca3bc6b",
                "srcKUID": "6c0f371ccb1c4b5ca7fc9b907232b033",
                "wType": "UserWidgetInstance"
            },
            "responsiveData": {
                "b3": {
                    "top": {
                        "type": "string",
                        "value": "20dp"
                    }
                }
            },
            "top": {}
        },
        "keyValueAccountType.flxContainer": {
            "__events__": {},
            "__info__": {
                "kuid": "d7a5dace039a48a09c25412649d9d3e3",
                "srcKUID": "d567ce646fe94ac79399b9416191cd69",
                "wType": "FlexContainer"
            },
            "responsiveData": {
                "b3": {
                    "layoutType": 4
                }
            }
        },
        "keyValueAccountType.flxInfo": {
            "__events__": {},
            "__info__": {
                "kuid": "e4248307f7d541bb9650e4f8ae2ff2c2",
                "srcKUID": "eb46f56c32384c9ab5e9127311390428",
                "wType": "FlexContainer"
            }
        },
        "keyValueAccountType.flxKey": {
            "__events__": {},
            "__info__": {
                "kuid": "b50e2f60a63b4575a6a96eaa50d2d109",
                "srcKUID": "j7cae37097ce4cbd92f2f138209130c5",
                "wType": "FlexContainer"
            },
            "left": {},
            "responsiveData": {
                "b2": {
                    "left": {
                        "type": "string",
                        "value": "30px"
                    },
                    "width": {
                        "type": "string",
                        "value": "22%"
                    }
                },
                "b3": {
                    "left": {
                        "type": "string",
                        "value": "15dp"
                    },
                    "width": {
                        "type": "string",
                        "value": "42%"
                    }
                }
            },
            "width": {}
        },
        "keyValueAccountType.flxValue": {
            "__events__": {},
            "__info__": {
                "kuid": "da0730ed53144804b95ea7a52e51bb85",
                "srcKUID": "e97c170540e54f9384a5791e431054fd",
                "wType": "FlexContainer"
            },
            "left": {},
            "responsiveData": {
                "b2": {
                    "left": {
                        "type": "string",
                        "value": "32%"
                    }
                },
                "b3": {
                    "left": {
                        "type": "string",
                        "value": "15dp"
                    },
                    "top": {
                        "type": "string",
                        "value": "5dp"
                    }
                }
            },
            "top": {}
        },
        "keyValueAccountType.imgWhatIsSSN": {
            "__events__": {},
            "__info__": {
                "kuid": "h190994e6d744908a8dff9955c780975",
                "srcKUID": "f4c2c5c1d4ea4f91b96e0e0f8310cbb5",
                "wType": "Image"
            },
            "src": "info_grey.png"
        },
        "keyValueAccountType.lblColon": {
            "__events__": {},
            "__info__": {
                "kuid": "ja06959e46754867bdd73a894b1b4bd6",
                "srcKUID": "ae64cdfeff7441f0ba7f265bed03ad70",
                "wType": "Label"
            },
            "left": {},
            "responsiveData": {
                "b2": {
                    "left": {
                        "type": "string",
                        "value": "30%"
                    }
                },
                "b3": {
                    "isVisible": false
                }
            }
        },
        "keyValueAccountType.lblKey": {
            "__events__": {},
            "__info__": {
                "kuid": "ja0af96a5a9f4baba48b5ef1939276eb",
                "srcKUID": "ed5099b3c381499497e1773aabd83685",
                "wType": "Label"
            }
        },
        "keyValueAccountType.lblValue": {
            "__events__": {},
            "__info__": {
                "kuid": "e0d594840e2c40e18313d248a9d89523",
                "srcKUID": "d86215b98d5b455ebaedde9ce960a851",
                "wType": "Label"
            }
        },
        "keyValueBankName": {
            "__events__": {},
            "__info__": {
                "kuid": "d46d2e9b09404fcd89d50d1487f21f9c",
                "srcKUID": "08248eb44d834289aec120be1d98585b",
                "wType": "UserWidgetInstance"
            }
        },
        "keyValueBankName.flxContainer": {
            "__events__": {},
            "__info__": {
                "kuid": "f9f495e338d84a78aea089cf623907a6",
                "srcKUID": "df3fca97b5944da4b71458a9d4d38f93",
                "wType": "FlexContainer"
            },
            "responsiveData": {
                "b3": {
                    "layoutType": 4
                }
            }
        },
        "keyValueBankName.flxInfo": {
            "__events__": {},
            "__info__": {
                "kuid": "ea276d793fe4491698c7aa40352baaea",
                "srcKUID": "b5005032891f4a8d8d7c4b48f2f69e6c",
                "wType": "FlexContainer"
            }
        },
        "keyValueBankName.flxKey": {
            "__events__": {},
            "__info__": {
                "kuid": "d669e92e86c5496d825dfa685f916f0e",
                "srcKUID": "g687cdaed4554bf2b79243ba15955a74",
                "wType": "FlexContainer"
            },
            "left": {},
            "responsiveData": {
                "b2": {
                    "left": {
                        "type": "string",
                        "value": "30px"
                    },
                    "width": {
                        "type": "string",
                        "value": "22%"
                    }
                },
                "b3": {
                    "left": {
                        "type": "string",
                        "value": "15dp"
                    },
                    "width": {
                        "type": "string",
                        "value": "42%"
                    }
                }
            },
            "width": {}
        },
        "keyValueBankName.flxValue": {
            "__events__": {},
            "__info__": {
                "kuid": "j3d997322e294ee881b68aed1cfdf7e4",
                "srcKUID": "e780c25af1b54a5e939437c8e4c160c2",
                "wType": "FlexContainer"
            },
            "left": {},
            "responsiveData": {
                "b2": {
                    "left": {
                        "type": "string",
                        "value": "32%"
                    }
                },
                "b3": {
                    "left": {
                        "type": "string",
                        "value": "15dp"
                    },
                    "top": {
                        "type": "string",
                        "value": "5dp"
                    }
                }
            },
            "top": {}
        },
        "keyValueBankName.imgWhatIsSSN": {
            "__events__": {},
            "__info__": {
                "kuid": "dcd235cbee6246c0a93e70eb5ff34657",
                "srcKUID": "be6aa40039c543119065ed28b4f1f68d",
                "wType": "Image"
            },
            "src": "info_grey.png"
        },
        "keyValueBankName.lblColon": {
            "__events__": {},
            "__info__": {
                "kuid": "de68fe03520644e8ac9b92e962270e22",
                "srcKUID": "a41e6919283d4ac1bb48812352fa06da",
                "wType": "Label"
            },
            "left": {},
            "responsiveData": {
                "b2": {
                    "left": {
                        "type": "string",
                        "value": "30%"
                    }
                },
                "b3": {
                    "isVisible": false
                }
            }
        },
        "keyValueBankName.lblKey": {
            "__events__": {},
            "__info__": {
                "kuid": "c160745271e4483a931a29971772e346",
                "srcKUID": "e7c0d7a6cb4d4361bd846506a78769e8",
                "wType": "Label"
            }
        },
        "keyValueBankName.lblValue": {
            "__events__": {},
            "__info__": {
                "kuid": "ga18c62aae71479cb436e2d1c04e9c7f",
                "srcKUID": "ebcad4cf1d2b4537bf7359be280b2a58",
                "wType": "Label"
            }
        },
        "keyValueBenificiaryName": {
            "__events__": {},
            "__info__": {
                "kuid": "d7ed16cdbfd140a6a232b08d2815cd08",
                "srcKUID": "2757a58421984b6d94ee6a54bc45ab53",
                "wType": "UserWidgetInstance"
            },
            "responsiveData": {
                "b3": {
                    "top": {
                        "type": "string",
                        "value": "20dp"
                    }
                }
            },
            "top": {}
        },
        "keyValueBenificiaryName.flxContainer": {
            "__events__": {},
            "__info__": {
                "kuid": "a7e51440f0924cc5ad8e46e89d3eeb6b",
                "srcKUID": "d1571b44b2784eedb7e7935427fda840",
                "wType": "FlexContainer"
            },
            "responsiveData": {
                "b3": {
                    "layoutType": 4
                }
            }
        },
        "keyValueBenificiaryName.flxInfo": {
            "__events__": {},
            "__info__": {
                "kuid": "d4d6fc49a3f8405badbfee142e444c02",
                "srcKUID": "ab89a37495f24793925db2b4cddc4f57",
                "wType": "FlexContainer"
            }
        },
        "keyValueBenificiaryName.flxKey": {
            "__events__": {},
            "__info__": {
                "kuid": "ada949864ee94c3186207834588f7101",
                "srcKUID": "he5904cc80124f4497e795e561055b03",
                "wType": "FlexContainer"
            },
            "left": {},
            "responsiveData": {
                "b2": {
                    "left": {
                        "type": "string",
                        "value": "30px"
                    },
                    "width": {
                        "type": "string",
                        "value": "22%"
                    }
                },
                "b3": {
                    "left": {
                        "type": "string",
                        "value": "15dp"
                    },
                    "width": {
                        "type": "string",
                        "value": "42%"
                    }
                }
            },
            "width": {}
        },
        "keyValueBenificiaryName.flxValue": {
            "__events__": {},
            "__info__": {
                "kuid": "f199f190358d487086afae6f923af4ab",
                "srcKUID": "b4110976647f4b378d88aa133e0187bd",
                "wType": "FlexContainer"
            },
            "left": {},
            "responsiveData": {
                "b2": {
                    "left": {
                        "type": "string",
                        "value": "32%"
                    }
                },
                "b3": {
                    "left": {
                        "type": "string",
                        "value": "15dp"
                    },
                    "top": {
                        "type": "string",
                        "value": "5dp"
                    }
                }
            },
            "top": {}
        },
        "keyValueBenificiaryName.imgWhatIsSSN": {
            "__events__": {},
            "__info__": {
                "kuid": "fbf8481469584c47944b1bc70a89c0d3",
                "srcKUID": "d92f1ad94b324210a78bc529fb7fdc06",
                "wType": "Image"
            },
            "src": "info_grey.png"
        },
        "keyValueBenificiaryName.lblColon": {
            "__events__": {},
            "__info__": {
                "kuid": "a8ec8478960946fe9b26a2bf09f0d157",
                "srcKUID": "e857a4e72f574bdf98bfe99848b9251a",
                "wType": "Label"
            },
            "left": {},
            "responsiveData": {
                "b2": {
                    "left": {
                        "type": "string",
                        "value": "30%"
                    }
                },
                "b3": {
                    "isVisible": false
                }
            }
        },
        "keyValueBenificiaryName.lblKey": {
            "__events__": {},
            "__info__": {
                "kuid": "g25f2daf5330452b89cb0c46c201ffff",
                "srcKUID": "i4c0053e0b084e51b4a862ee7657ded7",
                "wType": "Label"
            }
        },
        "keyValueBenificiaryName.lblValue": {
            "__events__": {},
            "__info__": {
                "kuid": "j8e75a75f11f4ef68815aebbbf4a91fe",
                "srcKUID": "j248fb9d8f934312b23c7149863f9d34",
                "wType": "Label"
            }
        },
        "keyValueCountryName": {
            "__events__": {},
            "__info__": {
                "kuid": "f4c1ae0ddc0f497d964fab06438c9421",
                "srcKUID": "47eb916454504d7085c0a963cbc72b69",
                "wType": "UserWidgetInstance"
            },
            "responsiveData": {
                "b3": {
                    "top": {
                        "type": "string",
                        "value": "20dp"
                    }
                }
            },
            "top": {}
        },
        "keyValueCountryName.flxContainer": {
            "__events__": {},
            "__info__": {
                "kuid": "ec27339eebc1421a99774ea606e91078",
                "srcKUID": "aad170df77c24b4baeddece37f872410",
                "wType": "FlexContainer"
            },
            "responsiveData": {
                "b3": {
                    "layoutType": 4
                }
            }
        },
        "keyValueCountryName.flxInfo": {
            "__events__": {},
            "__info__": {
                "kuid": "ae55fa3a8c52402b841bd636747576bc",
                "srcKUID": "caba69c85de94b9aad24fccd6d01c6a9",
                "wType": "FlexContainer"
            }
        },
        "keyValueCountryName.flxKey": {
            "__events__": {},
            "__info__": {
                "kuid": "e9ed46c87cbb4a5796780430595d958e",
                "srcKUID": "eb47a14df1c84c9cb7be416f721dccb5",
                "wType": "FlexContainer"
            },
            "left": {},
            "responsiveData": {
                "b2": {
                    "left": {
                        "type": "string",
                        "value": "30px"
                    },
                    "width": {
                        "type": "string",
                        "value": "22%"
                    }
                },
                "b3": {
                    "left": {
                        "type": "string",
                        "value": "15dp"
                    },
                    "width": {
                        "type": "string",
                        "value": "42%"
                    }
                }
            },
            "width": {}
        },
        "keyValueCountryName.flxValue": {
            "__events__": {},
            "__info__": {
                "kuid": "efc209b33e8e48279fdb8c9a09bd5132",
                "srcKUID": "be1a0d4555974b449edbd55ac7e205e3",
                "wType": "FlexContainer"
            },
            "left": {},
            "responsiveData": {
                "b2": {
                    "left": {
                        "type": "string",
                        "value": "32%"
                    }
                },
                "b3": {
                    "left": {
                        "type": "string",
                        "value": "15dp"
                    },
                    "top": {
                        "type": "string",
                        "value": "5dp"
                    }
                }
            },
            "top": {}
        },
        "keyValueCountryName.imgWhatIsSSN": {
            "__events__": {},
            "__info__": {
                "kuid": "g89d4a57f3e147788b315d3c48f4bdec",
                "srcKUID": "d93d575ae36b43aeb51f7fd0b9ebd5f7",
                "wType": "Image"
            },
            "src": "info_grey.png"
        },
        "keyValueCountryName.lblColon": {
            "__events__": {},
            "__info__": {
                "kuid": "g59b48606e594b60ab9c7667fab2f342",
                "srcKUID": "dc01b1cc73274c119369c0e1fc5f2637",
                "wType": "Label"
            },
            "left": {},
            "responsiveData": {
                "b2": {
                    "left": {
                        "type": "string",
                        "value": "30%"
                    }
                },
                "b3": {
                    "isVisible": false
                }
            }
        },
        "keyValueCountryName.lblKey": {
            "__events__": {},
            "__info__": {
                "kuid": "fdfe148f235744c4a9da1a61362c8c9c",
                "srcKUID": "fc30ea9c1a6545ada1a75b911f32d41a",
                "wType": "Label"
            }
        },
        "keyValueCountryName.lblValue": {
            "__events__": {},
            "__info__": {
                "kuid": "c9f8167556bc476eb0bd8fa6c141c832",
                "srcKUID": "jb025dc5e04645cc86095ca034d911bf",
                "wType": "Label"
            },
            "left": {},
            "responsiveData": {
                "b2": {
                    "left": {
                        "type": "string",
                        "value": "0dp"
                    }
                }
            }
        },
        "keyValueRoutingNumber": {
            "__events__": {},
            "__info__": {
                "kuid": "acbcab4f31834e50a2d62025e8e23e6b",
                "srcKUID": "g5fac4670c1840f6a7ff7aea344b3941",
                "wType": "UserWidgetInstance"
            },
            "responsiveData": {
                "b3": {
                    "top": {
                        "type": "string",
                        "value": "20dp"
                    }
                }
            },
            "top": {}
        },
        "keyValueRoutingNumber.flxContainer": {
            "__events__": {},
            "__info__": {
                "kuid": "f99a79a5f53949c898db4e01fd9c24f4",
                "srcKUID": "e028deccdbcd4205994ec664d8273ef3",
                "wType": "FlexContainer"
            },
            "responsiveData": {
                "b3": {
                    "layoutType": 4
                }
            }
        },
        "keyValueRoutingNumber.flxInfo": {
            "__events__": {},
            "__info__": {
                "kuid": "ce425f8cdbf04d38a93fd0cb77fc0c76",
                "srcKUID": "i1a1592208a846878a0f99bbeacfe023",
                "wType": "FlexContainer"
            }
        },
        "keyValueRoutingNumber.flxKey": {
            "__events__": {},
            "__info__": {
                "kuid": "ecf872933c04457ab54ded0853e0a520",
                "srcKUID": "d3d267b58ad54ea5ba4c0a5b6e3d1b82",
                "wType": "FlexContainer"
            },
            "left": {},
            "responsiveData": {
                "b2": {
                    "left": {
                        "type": "string",
                        "value": "30px"
                    },
                    "width": {
                        "type": "string",
                        "value": "22%"
                    }
                },
                "b3": {
                    "left": {
                        "type": "string",
                        "value": "15dp"
                    },
                    "width": {
                        "type": "string",
                        "value": "42%"
                    }
                }
            },
            "width": {}
        },
        "keyValueRoutingNumber.flxValue": {
            "__events__": {},
            "__info__": {
                "kuid": "gaf3a8ab9bbb41a991b007c3a60a9255",
                "srcKUID": "a058dc5d249940b095daaf4689719315",
                "wType": "FlexContainer"
            },
            "left": {},
            "responsiveData": {
                "b2": {
                    "left": {
                        "type": "string",
                        "value": "32%"
                    }
                },
                "b3": {
                    "left": {
                        "type": "string",
                        "value": "15dp"
                    },
                    "top": {
                        "type": "string",
                        "value": "5dp"
                    }
                }
            },
            "top": {}
        },
        "keyValueRoutingNumber.imgWhatIsSSN": {
            "__events__": {},
            "__info__": {
                "kuid": "b85608ae5feb4a028283b4b73787166c",
                "srcKUID": "d8b25e1cf40a449598a27c71f313a872",
                "wType": "Image"
            },
            "src": "info_grey.png"
        },
        "keyValueRoutingNumber.lblColon": {
            "__events__": {},
            "__info__": {
                "kuid": "e2a30050cb0f4c86854514023a0064b8",
                "srcKUID": "g6a424524d5e4f21b7b5b6316ce0e6c2",
                "wType": "Label"
            },
            "left": {},
            "responsiveData": {
                "b2": {
                    "left": {
                        "type": "string",
                        "value": "30%"
                    }
                },
                "b3": {
                    "isVisible": false
                }
            }
        },
        "keyValueRoutingNumber.lblKey": {
            "__events__": {},
            "__info__": {
                "kuid": "ab9f8a7f5587498891bc7b822c858896",
                "srcKUID": "c07f66d6e9a045388605ebe992b3399e",
                "wType": "Label"
            },
            "i18n_text": "i18n.accounts.routingNumber"
        },
        "keyValueRoutingNumber.lblValue": {
            "__events__": {},
            "__info__": {
                "kuid": "cda5dec71d6d449c98c271b7d85a4df9",
                "srcKUID": "f41ba9cf3ab540fd9ec24f64d78cf29f",
                "wType": "Label"
            }
        }
    },
    "id": "confirmDialogAccounts",
    "info": null,
    "isdatareferenced": false,
    "isvisible": true,
    "kuid": "je3722c2aeea4b0ea7cad33c579607f5",
    "layouttype": 2,
    "masterType": 0,
    "name": "kony.ui.UserWidgetInstance",
    "parent": "flxConfirmContainer",
    "pf": "frmConfirmAccount",
    "snaptogrid": true,
    "sourceUserWidget": "19af251ce6a24651a06e6dc65b2303e6",
    "vizprops": {
        "hidewidgethierarchy": false
    },
    "wType": "UserWidgetInstance"
}