{
    "DNDConfig": null,
    "_height_": {
        "type": "string",
        "value": "42dp"
    },
    "_left_": {
        "type": "string",
        "value": "0dp"
    },
    "_margin_": [
        0,
        0,
        0,
        0
    ],
    "_orientation_": 6,
    "_padding_": [
        0,
        0,
        0,
        0
    ],
    "_percent_": true,
    "_skin_": "s95fd99e541f4cf3bc9b2e65903187ac",
    "_top_": {
        "type": "string",
        "value": "0dp"
    },
    "_width_": {
        "type": "string",
        "value": "1210dp"
    },
    "allboxes": [],
    "canUpdateUI": true,
    "children": [
        "flxCurrencyTabletHeading",
        "flxLatestTabletHeading",
        "flxChangeTabletHeading",
        "flxDateTimeTabletHeading",
        "flxBidTabletHeading",
        "flxAskTabletHeading",
        "flxVolumeTabletHeading",
        "flxDotsTabletHeading"
    ],
    "clipbounds": true,
    "containerweight": 100,
    "enablescrolling": true,
    "id": "flxHeadingTabletRemaining",
    "info": null,
    "iscustomlayout": false,
    "isvisible": true,
    "kuid": "bb7704bba43644afa13661bf2a24a998",
    "layouttype": 3,
    "name": "kony.ui.FlexContainer",
    "parent": "flxRemaining",
    "pf": "userwidgetmodel",
    "retaincontentalignment": false,
    "retainflexpositionproperties": false,
    "retainflowhorizontalalignment": false,
    "snapgridsize": 10,
    "snaptogrid": true,
    "wType": "FlexContainer",
    "widgetalignment": 1,
    "zindex": 1
}