{
	 "@class": "com.kony.gen.viz.model.component.KVizImage2",
	 "DNDConfig": null,
	 "__parentReadjusting__": false,
	 "_base64_": null,
	 "_height_": {
		 "type": "string",
		 "value": "30dp"
	},
	 "_left_": {
		 "type": "string",
		 "value": "12dp"
	},
	 "_margin_": [
		 0,
		 0,
		 0,
		 0
	],
	 "_padding_": [
		 0,
		 0,
		 0,
		 0
	],
	 "_skin_": "s78a5f26c9f14cec9ebed1bb46098f80",
	 "_src_": "info_icon_blue.png",
	 "_width_": {
		 "type": "string",
		 "value": "30dp"
	},
	 "canUpdateUI": true,
	 "centery": {
		 "type": "string",
		 "value": "50%"
	},
	 "containerweight": 100,
	 "context": {
		 "channel": "desktop",
		 "formID": "uwue24285e5eb446828074d76445a1cb8e",
		 "platform": "kiosk",
		 "templateType": "userwidgets",
		 "topLevelBox": null
	},
	 "id": "imgAlertsWarningImage",
	 "imagescalemode": 1,
	 "info": null,
	 "iscustomlayout": false,
	 "isvisible": true,
	 "kuid": "fcd0a4b426354d5f97ab91a72e6913fc",
	 "name": "kony.ui.Image2",
	 "parent": "flxAlertsWarningWrapper",
	 "pf": "userwidgetmodel",
	 "retaincontentalignment": false,
	 "retainflexpositionproperties": false,
	 "srcType": 1,
	 "wType": "Image",
	 "widgetalignment": 5,
	 "zindex": 1,
	 "accessibilityconfig": {
		 "a11yLabel": "Info",
		 "a11yValue": ""
	}
}