{
    "@class": "com.kony.gen.viz.model.component.KVizUserWidget",
    "DNDConfig": null,
    "__parentReadjusting__": false,
    "_children_": [],
    "_height_": {
        "type": "string",
        "value": "60dp"
    },
    "_left_": {
        "type": "string",
        "value": "0dp"
    },
    "_margin_": [
        0,
        0,
        0,
        0
    ],
    "_orientation_": 1,
    "_padding_": [
        0,
        0,
        0,
        0
    ],
    "_percent_": true,
    "_render_": true,
    "_skin_": "s576844bc0e148a9a02e6171eac305ac",
    "_top_": {
        "type": "string",
        "value": "0dp"
    },
    "_width_": {
        "type": "string",
        "value": "100%"
    },
    "areflexpropsreferenced": false,
    "canUpdateUI": true,
    "clipbounds": true,
    "containerweight": 0,
    "dataDiffs": {
        "confirmHeaders": {
            "__events__": {},
            "__info__": {
                "isRoot": true,
                "kuid": "d66a477274164caa967417883a19a66c",
                "srcKUID": "bfa374b04e3743cf981eb31d77ebf746",
                "wType": "FlexContainer"
            },
            "left": {
                "Default": {
                    "type": "string",
                    "value": "0dp"
                }
            },
            "top": {
                "Default": {
                    "type": "string",
                    "value": "0dp"
                }
            },
            "zIndex": {
                "Default": 1
            }
        },
        "flxHeader": {
            "__events__": {},
            "__info__": {
                "kuid": "bac8cf2b91b04f2d941ac658dc0a8e7c",
                "srcKUID": "ge4b975c1527467a9bc1b610e3dcf02e",
                "wType": "FlexContainer"
            }
        },
        "lblHeading": {
            "__events__": {},
            "__info__": {
                "kuid": "d1384389f8364efa899c5b3c6197271c",
                "srcKUID": "e48654a7e4ae4428b39557093fea9b39",
                "wType": "Label"
            },
            "i18n_text": "i18n.chequeBookReq.chequeBookRequestDetails",
            "left": {
                "Default": {
                    "type": "string",
                    "value": "2.10%"
                }
            }
        }
    },
    "id": "confirmHeaders",
    "info": null,
    "isdatareferenced": false,
    "isvisible": true,
    "kuid": "d66a477274164caa967417883a19a66c",
    "layouttype": 2,
    "masterType": 0,
    "name": "kony.ui.UserWidgetInstance",
    "parent": "flxMain",
    "pf": "userwidgetmodel",
    "snaptogrid": true,
    "sourceUserWidget": "bfa374b04e3743cf981eb31d77ebf746",
    "vizprops": {
        "hidewidgethierarchy": false
    },
    "wType": "UserWidgetInstance",
    "zindex": 1
}