{
    "@class": "com.kony.gen.viz.model.component.KVizTextBox2",
    "DNDConfig": null,
    "__parentReadjusting__": false,
    "_bottom_": {
        "type": "string",
        "value": "0dp"
    },
    "_height_": {
        "type": "string",
        "value": "100%"
    },
    "_left_": {
        "type": "string",
        "value": "0dp"
    },
    "_margin_": [
        0,
        0,
        0,
        0
    ],
    "_padding_": [
        0,
        0,
        0,
        0
    ],
    "_placeholder_": "",
    "_right_": {
        "type": "string",
        "value": "0dp"
    },
    "_skin_": "s83ea86b61c743488f38ac8ae8f3bc25",
    "_text_": "",
    "autocapitalize": "none",
    "autocomplete": false,
    "autocorrect": false,
    "autofilter": false,
    "canUpdateUI": true,
    "containerheight": "",
    "containerheightmode": 1,
    "containerweight": 100,
    "contentalignment": 4,
    "desktopweb": {
        "placeholderSkin": "s0a3cf5beb7548398fd3736b4e96b5b0"
    },
    "disabledSkins": {},
    "focusskin": "safeb55858da4bed97de7213cf1acafb",
    "id": "tbxDateInputKA",
    "info": null,
    "iscustomlayout": false,
    "isvisible": true,
    "keyboardtype": "A",
    "kuid": "ua167bdfa44848cda3236be3fe498b92",
    "mode": "A",
    "name": "kony.ui.TextBox2",
    "parent": "DateInputContainer",
    "pf": "userwidgetmodel",
    "placeholderskin": "s0a3cf5beb7548398fd3736b4e96b5b0",
    "retaincontentalignment": false,
    "retainflexpositionproperties": false,
    "securetextentry": false,
    "textinputmode": "A",
    "tooltip": "",
    "viewtype": "default",
    "wType": "TextField",
    "zindex": 1
}