{
    "@class": "com.kony.gen.viz.model.component.KVizLabel",
    "DNDConfig": null,
    "_height_": {
        "type": "ref",
        "value": "preferred"
    },
    "_left_": {
        "type": "string",
        "value": "8.33%"
    },
    "_margin_": [
        1,
        1,
        1,
        1
    ],
    "_padding_": [
        0,
        0,
        0,
        0
    ],
    "_skin_": "s1af4004be374a1cbf307cfbb14c6278",
    "_text_": "Transaction was  cancelled successfully",
    "_top_": {
        "type": "string",
        "value": "10dp"
    },
    "_width_": {
        "type": "ref",
        "value": "preferred"
    },
    "_wrapping_": 2,
    "accessibilityconfig": {
        "a11yLabel": "Success! You have paid your bills."
    },
    "android": {
        "textStyle": {
            "letterSpacing": 0,
            "strikeThrough": false
        }
    },
    "canUpdateUI": true,
    "containerweight": 100,
    "contentalignment": 4,
    "id": "lblSuccessAcknowledgement",
    "info": null,
    "ipad": {
        "psp": {
            "wrapping": 2
        }
    },
    "iphone": {
        "psp": {
            "wrapping": 2
        }
    },
    "isvisible": true,
    "kuid": "h69266aacea04afb9743887ca38a01de",
    "name": "kony.ui.Label",
    "parent": "flxMessage",
    "pf": "frmPastPaymentsEurNew",
    "responsiveData": {
        "b2": {},
        "b3": {
            "left": {
                "type": "string",
                "value": "7%"
            }
        }
    },
    "tooltip": "",
    "wType": "Label",
    "zindex": 1
}