{
    "@class": "com.kony.gen.viz.model.component.KVizButton",
    "DNDConfig": null,
    "__parentReadjusting__": false,
    "_height_": {
        "type": "string",
        "value": "25dp"
    },
    "_margin_": [
        6,
        6,
        6,
        6
    ],
    "_padding_": [
        0,
        0,
        0,
        0
    ],
    "_right_": {
        "type": "string",
        "value": "0dp"
    },
    "_skin_": "sf6ca31ec68641e5a2df8232c58cd39a",
    "_text_": "SEND",
    "_top_": {
        "type": "string",
        "value": "13px"
    },
    "_width_": {
        "type": "ref",
        "value": "preferred"
    },
    "canUpdateUI": true,
    "containerId": true,
    "containerweight": 100,
    "contentalignment": 5,
    "desktopweb": {
        "psp": {
            "hoverSkin": "s4285319e4d34ae1b45e5ef82d61be6b"
        }
    },
    "disabledSkins": {
        "focusSkin": "sf44d06ca8224832827ea7fdff757013"
    },
    "displaytext": true,
    "id": "btnSend",
    "ide_onClick": "AS_Button_a8141ef3c6054c819ac6e7ba5bc99b22",
    "info": null,
    "isvisible": true,
    "kuid": "b936531fff6a4195b83b4705bc24aa5f",
    "name": "kony.ui.Button",
    "parent": "flxSendAction",
    "pf": "segSendRequestSelectedMobile",
    "wType": "Button",
    "zindex": 1,
    "accessibilityconfig": {
        "a11yLabel": "SEND"
    }
}