{
    "DNDConfig": null,
    "_height_": {
        "type": "ref",
        "value": "preferred"
    },
    "_margin_": [
        0,
        0,
        0,
        0
    ],
    "_orientation_": 6,
    "_padding_": [
        0,
        0,
        0,
        0
    ],
    "_percent_": true,
    "_skin_": "s32db308af9e4770a9ccf700cbe81176",
    "allboxes": [],
    "autogrowmode": 1,
    "canUpdateUI": true,
    "children": [
        "flxIdentifier",
        "flxSelectedRowWrapper",
        "flxBottomSeperator"
    ],
    "clipbounds": true,
    "containerId": true,
    "containerweight": 100,
    "controllerInfo": {
        "default": {
            "channel": "desktop",
            "name": "flxSendRequestSelectedMobileController"
        }
    },
    "enablescrolling": true,
    "id": "flxSendRequestSelectedMobile",
    "info": null,
    "isvisible": true,
    "kuid": "b9a7d9b35bca49d69c4b1bbd64421c7c",
    "layouttype": 3,
    "name": "kony.ui.FlexContainer",
    "parent": "segSendRequestSelectedMobile",
    "pf": "segSendRequestSelectedMobile",
    "snapgridsize": 10,
    "snaptogrid": true,
    "wType": "FlexContainer",
    "widgetalignment": 1
}