{
    "DNDConfig": null,
    "_height_": {
        "type": "ref",
        "value": "preferred"
    },
    "_left_": {
        "type": "string",
        "value": "2.51%"
    },
    "_margin_": [
        0,
        0,
        0,
        0
    ],
    "_orientation_": 6,
    "_padding_": [
        0,
        0,
        0,
        0
    ],
    "_percent_": true,
    "_skin_": "sfb6f68b71484e008daa306a1c7200b7",
    "_top_": {
        "type": "string",
        "value": "17dp"
    },
    "_width_": {
        "type": "string",
        "value": "100%"
    },
    "allboxes": [],
    "autogrowmode": 1,
    "canUpdateUI": true,
    "children": [
        "segBWTEditRecipientFileUnselectedWrapper",
        "segCompanyNames"
    ],
    "clipbounds": false,
    "containerweight": 100,
    "enablescrolling": true,
    "id": "CopyflxRoleRightContainer0h9c5af22a4004e",
    "info": null,
    "iscustomlayout": false,
    "isvisible": true,
    "kuid": "ead22dc235b94c1a97b876096e3f4a1b",
    "layouttype": 2,
    "name": "kony.ui.FlexContainer",
    "parent": "flxRightContainer",
    "pf": "frmBBAccountAccessAndRole",
    "responsiveData": {
        "b1": {
            "left": {
                "type": "string",
                "value": "0%"
            },
            "top": {
                "type": "string",
                "value": "10dp"
            }
        },
        "b2": {
            "layoutType": 4,
            "left": {
                "type": "string",
                "value": "0%"
            },
            "top": {
                "type": "string",
                "value": "52dp"
            }
        },
        "b3": {},
        "b4": {
            "left": {
                "type": "string",
                "value": "0%"
            },
            "top": {
                "type": "string",
                "value": "0dp"
            }
        }
    },
    "retaincontentalignment": false,
    "retainflexpositionproperties": false,
    "snapgridsize": 10,
    "snaptogrid": true,
    "wType": "FlexContainer",
    "widgetalignment": 1,
    "zindex": 2
}