{
    "DNDConfig": null,
    "_height_": {
        "type": "string",
        "value": "42dp"
    },
    "_left_": {
        "type": "string",
        "value": "0dp"
    },
    "_margin_": [
        0,
        0,
        0,
        0
    ],
    "_orientation_": 6,
    "_padding_": [
        0,
        0,
        0,
        0
    ],
    "_percent_": true,
    "_skin_": "s4b5ad27f86e4f7c8aaa9a78bf7cc838",
    "_top_": {
        "type": "string",
        "value": "0dp"
    },
    "_width_": {
        "type": "string",
        "value": "100%"
    },
    "allboxes": [],
    "canUpdateUI": true,
    "children": [
        "CopylblRightSubMainHeader0d8e47bdde80444"
    ],
    "clipbounds": true,
    "containerweight": 100,
    "enablescrolling": true,
    "id": "CopyflxRightSubMainHeader0a676aaa3ba4745",
    "info": null,
    "isvisible": true,
    "kuid": "feac37101faa4dd497e8961c65e86e75",
    "layouttype": 2,
    "name": "kony.ui.FlexContainer",
    "parent": "flxRightContainer",
    "pf": "frmBBAccountAccessAndRole",
    "responsiveData": {
        "b1": {
            "height": {
                "type": "string",
                "value": "52dp"
            }
        },
        "b2": {
            "height": {
                "type": "string",
                "value": "50dp"
            },
            "isVisible": true
        },
        "b4": {
            "height": {
                "type": "string",
                "value": "52dp"
            }
        }
    },
    "snapgridsize": 10,
    "snaptogrid": true,
    "wType": "FlexContainer",
    "widgetalignment": 1,
    "zindex": 1
}