{
    "DNDConfig": null,
    "_height_": {
        "type": "ref",
        "value": "preferred"
    },
    "_left_": {
        "type": "string",
        "value": "0dp"
    },
    "_margin_": [
        0,
        0,
        0,
        0
    ],
    "_orientation_": 6,
    "_padding_": [
        0,
        0,
        0,
        0
    ],
    "_percent_": true,
    "_skin_": "s344174b66d24a22be7a954acfcdefc5",
    "_top_": {
        "type": "string",
        "value": "0dp"
    },
    "_width_": {
        "type": "string",
        "value": "100%"
    },
    "allboxes": [],
    "autogrowmode": 1,
    "canUpdateUI": true,
    "children": [
        "lblAccountLevelAccess",
        "CopyflxSeparatorSort0ja33acf2f8e840",
        "flxAccountsName",
        "flxAutoAcess",
        "flxSearch",
        "flxResetToDefault"
    ],
    "clipbounds": true,
    "containerweight": 100,
    "enablescrolling": true,
    "id": "flxSubMainHeader",
    "info": null,
    "isvisible": true,
    "kuid": "d6c66ee2faa74911b598216cad508d5d",
    "layouttype": 2,
    "name": "kony.ui.FlexContainer",
    "parent": "flxRoleLeftContainer",
    "pf": "frmBBAccountAccessAndRole",
    "responsiveData": {
        "b1": {
            "isVisible": true,
            "layoutType": 4
        },
        "b2": {
            "isVisible": true,
            "layoutType": 4,
            "left": {
                "type": "string",
                "value": ""
            },
            "skin": "s9f0c4bc0cd8418da924fd6b0065e2a7",
            "top": {
                "type": "string",
                "value": ""
            }
        },
        "b4": {
            "layoutType": 4
        }
    },
    "snapgridsize": 10,
    "snaptogrid": true,
    "wType": "FlexContainer",
    "widgetalignment": 1,
    "zindex": 1
}