{
    "DNDConfig": null,
    "_height_": {
        "type": "string",
        "value": "41dp"
    },
    "_left_": {
        "type": "string",
        "value": "0%"
    },
    "_margin_": [
        0,
        0,
        0,
        0
    ],
    "_orientation_": 6,
    "_padding_": [
        0,
        0,
        0,
        0
    ],
    "_percent_": true,
    "_skin_": "sd4663f96be8467082ba5a0769f03a93",
    "_top_": {
        "type": "string",
        "value": "0dp"
    },
    "_width_": {
        "type": "string",
        "value": "101%"
    },
    "allboxes": [],
    "canUpdateUI": true,
    "children": [
        "flxAccountName",
        "flxSelectAll"
    ],
    "clipbounds": true,
    "containerweight": 100,
    "enablescrolling": true,
    "id": "flxSort",
    "info": null,
    "isvisible": true,
    "kuid": "d7ed8fc67d6f4612ac84e89bbc878aa2",
    "layouttype": 3,
    "name": "kony.ui.FlexContainer",
    "parent": "flxRoleLeftContainer",
    "pf": "frmBBAccountAccessAndRole",
    "responsiveData": {
        "b1": {
            "layoutType": 3,
            "width": {
                "type": "string",
                "value": "100%"
            }
        },
        "b2": {
            "layoutType": 2,
            "width": {
                "type": "string",
                "value": "100%"
            }
        },
        "b3": {
            "isVisible": false
        },
        "b4": {
            "width": {
                "type": "string",
                "value": "100%"
            }
        }
    },
    "snapgridsize": 10,
    "snaptogrid": true,
    "wType": "FlexContainer",
    "widgetalignment": 1,
    "zindex": 1
}