{
    "@class": "com.kony.gen.viz.model.component.KVizLabel",
    "DNDConfig": null,
    "_height_": {
        "type": "ref",
        "value": "preferred"
    },
    "_left_": {
        "type": "string",
        "value": "0"
    },
    "_margin_": [
        1,
        1,
        1,
        1
    ],
    "_padding_": [
        0,
        0,
        0,
        0
    ],
    "_skin_": "sc39b68cb14e457b9b79ba3c8c3b88d1",
    "_text_": "Label",
    "_top_": {
        "type": "string",
        "value": "0"
    },
    "_width_": {
        "type": "ref",
        "value": "preferred"
    },
    "_wrapping_": 2,
    "android": {
        "textStyle": {
            "letterSpacing": 0,
            "strikeThrough": false
        }
    },
    "canUpdateUI": true,
    "containerweight": 100,
    "contentalignment": 4,
    "id": "lblNoRecordRole",
    "info": null,
    "ipad": {
        "psp": {
            "wrapping": 2
        }
    },
    "iphone": {
        "psp": {
            "wrapping": 2
        }
    },
    "iscustomlayout": false,
    "isvisible": true,
    "kuid": "fd7b5f7f72a142f5a74fb4ede870eebf",
    "name": "kony.ui.Label",
    "parent": "flxRoleLeftContainer",
    "pf": "frmBBAccountAccessAndRole",
    "responsiveData": {
        "b1": {
            "isVisible": false,
            "left": {
                "type": "string",
                "value": "20dp"
            },
            "skin": "sd58e7dec3cf45cfb721a7ac97d2837a",
            "text": "fgbfgbfb",
            "top": {
                "type": "string",
                "value": "16dp"
            },
            "width": {
                "type": "string",
                "value": "90%"
            }
        },
        "b2": {
            "isVisible": false,
            "left": {
                "type": "string",
                "value": "15px"
            },
            "skin": "s63e81af6a184e7e8e891b0dbbe7895c",
            "text": "",
            "top": {
                "type": "string",
                "value": "15px"
            },
            "width": {
                "type": "string",
                "value": "90%"
            }
        },
        "b4": {
            "isVisible": false
        }
    },
    "retaincontentalignment": false,
    "retainflexpositionproperties": false,
    "texti18n": "konybb.i18n.accountLevelAccess",
    "tooltip": "",
    "wType": "Label"
}