{
    "DNDConfig": null,
    "_height_": {
        "type": "string",
        "value": "60dp"
    },
    "_left_": {
        "type": "string",
        "value": "20dp"
    },
    "_margin_": [
        0,
        0,
        0,
        0
    ],
    "_orientation_": 6,
    "_padding_": [
        0,
        0,
        0,
        0
    ],
    "_percent_": true,
    "_skin_": "s2f1930e68bc4b258cfe821e7f0122cd",
    "_top_": {
        "type": "string",
        "value": "0dp"
    },
    "_width_": {
        "type": "string",
        "value": "95%"
    },
    "allboxes": [],
    "autogrowmode": 0,
    "canUpdateUI": true,
    "children": [
        "flxWrapper"
    ],
    "clipbounds": true,
    "containerweight": 100,
    "enablescrolling": true,
    "id": "segBWTEditRecipientFileUnselectedWrapper",
    "info": null,
    "isvisible": true,
    "kuid": "d071682c9b3b40d995c02eb5f6f1546c",
    "layouttype": 3,
    "name": "kony.ui.FlexContainer",
    "parent": "CopyflxRoleRightContainer0h9c5af22a4004e",
    "pf": "frmBBAccountAccessAndRole",
    "responsiveData": {
        "b1": {
            "height": {
                "type": "string",
                "value": "80dp"
            },
            "width": {
                "type": "string",
                "value": "94%"
            }
        },
        "b2": {
            "height": {
                "type": "string",
                "value": "80dp"
            },
            "width": {
                "type": "string",
                "value": "94%"
            }
        },
        "b4": {
            "height": {
                "type": "string",
                "value": "80dp"
            },
            "width": {
                "type": "string",
                "value": "94%"
            }
        }
    },
    "snapgridsize": 10,
    "snaptogrid": true,
    "wType": "FlexContainer",
    "widgetalignment": 1,
    "zindex": 1
}