{
    "@class": "com.kony.gen.viz.model.container.KVizSegment2",
    "DNDConfig": null,
    "_bottom_": {
        "type": "number",
        "value": ""
    },
    "_data_": [
        {
            "ListBox1": {
                "@class": "com.viz.ide.model.segment.CheckableSegmentData",
                "masterData": []
            },
            "imgArrow": {
                "@class": "com.viz.ide.model.segment.ImageSegmentData",
                "src": ""
            },
            "lblAccountsSelected": {
                "@class": "com.viz.ide.model.segment.SimpleTextSegmentData",
                "text": ""
            },
            "lblAccountsSelectedType": {
                "@class": "com.viz.ide.model.segment.SimpleTextSegmentData",
                "text": ""
            },
            "lblAccountsValue": {
                "@class": "com.viz.ide.model.segment.SimpleTextSegmentData",
                "text": ""
            },
            "lblDropdown": {
                "@class": "com.viz.ide.model.segment.SimpleTextSegmentData",
                "text": ""
            },
            "lblRecipientName": {
                "@class": "com.viz.ide.model.segment.SimpleTextSegmentData",
                "text": ""
            },
            "lblSeparator": {
                "@class": "com.viz.ide.model.segment.SimpleTextSegmentData",
                "text": ""
            },
            "lblUserRoleLabel": {
                "@class": "com.viz.ide.model.segment.SimpleTextSegmentData",
                "text": ""
            }
        }
    ],
    "_height_": {
        "type": "ref",
        "value": "preferred"
    },
    "_indicator_": "none",
    "_left_": {
        "type": "string",
        "value": "20dp"
    },
    "_margin_": [
        0,
        0,
        0,
        0
    ],
    "_orientation_": 2,
    "_padding_": [
        0,
        0,
        0,
        0
    ],
    "_right_": {
        "type": "number",
        "value": ""
    },
    "_top_": {
        "type": "string",
        "value": "72dp"
    },
    "_width_": {
        "type": "string",
        "value": "95%"
    },
    "autogrowmode": 1,
    "canUpdateUI": true,
    "containerweight": 100,
    "counter": "00",
    "focusedindex": null,
    "focuseditem": null,
    "groupcells": false,
    "hasSections": false,
    "id": "segCompanyNames",
    "info": null,
    "invokedProperty": "selectedStateImage",
    "ipad": {
        "psp": {
            "indicator": "rowselect"
        }
    },
    "iphone": {
        "psp": {
            "indicator": "rowselect"
        }
    },
    "iscustomlayout": false,
    "isvisible": true,
    "kuid": "fd22a915fa4341878fb086d1c9ecdc3e",
    "masterdata": {},
    "maxheight": {
        "type": "number",
        "value": ""
    },
    "name": "kony.ui.SegmentedUI2",
    "needpageindicator": true,
    "pageoffdotimage": "pageoffdot.png",
    "pageondotimage": "pageondot.png",
    "paginationconfig": {
        "position": "bottom"
    },
    "parent": "CopyflxRoleRightContainer0h9c5af22a4004e",
    "pf": "frmBBAccountAccessAndRole",
    "responsiveData": {
        "b1": {
            "maxHeight": {
                "type": "string",
                "value": ""
            },
            "top": {
                "type": "string",
                "value": "92dp"
            },
            "width": {
                "type": "string",
                "value": "96%"
            }
        },
        "b2": {
            "bottom": {
                "type": "string",
                "value": "0dp"
            },
            "height": {
                "type": "ref",
                "value": "preferred"
            },
            "maxHeight": {
                "type": "string",
                "value": ""
            },
            "top": {
                "type": "string",
                "value": "30dp"
            },
            "width": {
                "type": "string",
                "value": "96%"
            }
        },
        "b3": {
            "maxHeight": {
                "type": "string",
                "value": ""
            }
        },
        "b4": {
            "top": {
                "type": "string",
                "value": "92dp"
            },
            "width": {
                "type": "string",
                "value": "96%"
            }
        }
    },
    "retaincontentalignment": false,
    "retainflexpositionproperties": false,
    "retainselection": false,
    "rowTemplateId": "j7bc232e681f4c498e5528386e6dd127",
    "rowcounter": 0,
    "rowfocusskin": "scd5ddf27b94412ebe4ef9ea7757c89d",
    "rowskin": "scf5f90f6ac04976ab88b2a4f7153285",
    "rowtemplate": "flxUserManagementSelectCompanyNames",
    "screenlevelwidget": false,
    "seccounter": 0,
    "sectionHeaderTemplateId": null,
    "sectionheaderskin": "sdc4ff4ed1584272be2ae69045dfb29d",
    "selectedRows": null,
    "selectedState": false,
    "selectedindex": null,
    "selectedindices": null,
    "selecteditems": null,
    "selectedsectionindex": 0,
    "selectionbehavior": "singleselect",
    "selectionbehaviorconfig": {},
    "separatorcolor": "ffffff00",
    "separatorrequired": true,
    "separatorthickness": 10,
    "showscrollbars": false,
    "viewtype": "tableview",
    "vizProps": {},
    "wType": "Segment",
    "widgetalignment": 5,
    "widgetdatamap": {
        "ListBox1": "ListBox1",
        "flxAccountPage": "flxAccountPage",
        "flxDropdown": "flxDropdown",
        "flxListBox": "flxListBox",
        "flxRecipientName": "flxRecipientName",
        "flxRow": "flxRow",
        "flxUserManagementSelectCompanyNames": "flxUserManagementSelectCompanyNames",
        "flxWrapper": "flxWrapper",
        "imgArrow": "imgArrow",
        "lblAccountsSelected": "lblAccountsSelected",
        "lblAccountsSelectedType": "lblAccountsSelectedType",
        "lblAccountsValue": "lblAccountsValue",
        "lblDropdown": "lblDropdown",
        "lblRecipientName": "lblRecipientName",
        "lblSeparator": "lblSeparator",
        "lblUserRoleLabel": "lblUserRoleLabel",
        "segBWTEditRecipientFileUnselectedWrapper": "segBWTEditRecipientFileUnselectedWrapper"
    },
    "zindex": 1
}