{
    "DNDConfig": null,
    "_height_": {
        "type": "string",
        "value": "60dp"
    },
    "_margin_": [
        0,
        0,
        0,
        0
    ],
    "_orientation_": 6,
    "_padding_": [
        0,
        0,
        0,
        0
    ],
    "_percent_": true,
    "_skin_": "s24c92fc23b14f5484b693ee9b8a9b35",
    "_top_": {
        "type": "string",
        "value": "0dp"
    },
    "_width_": {
        "type": "string",
        "value": "1200dp"
    },
    "allboxes": [],
    "canUpdateUI": true,
    "centerx": {
        "type": "string",
        "value": "50%"
    },
    "children": [
        "imgBack",
        "lblBack"
    ],
    "clipbounds": true,
    "containerweight": 100,
    "enablescrolling": true,
    "id": "flxBack",
    "info": null,
    "iscustomlayout": false,
    "isvisible": true,
    "kuid": "b1e91867a1354befb4f7ee0fbf958585",
    "layouttype": 3,
    "name": "kony.ui.FlexContainer",
    "parent": "flxMainWrapper",
    "pf": "frmWatchlist",
    "responsiveData": {
        "b1": {
            "height": {
                "type": "string",
                "value": "38dp"
            }
        },
        "b2": {
            "height": {
                "type": "string",
                "value": "38dp"
            },
            "width": {
                "type": "string",
                "value": "95%"
            }
        },
        "b3": {},
        "b4": {
            "height": {
                "type": "string",
                "value": "38dp"
            }
        }
    },
    "retaincontentalignment": false,
    "retainflexpositionproperties": false,
    "retainflowhorizontalalignment": false,
    "snapgridsize": 10,
    "snaptogrid": true,
    "wType": "FlexContainer",
    "widgetalignment": 1,
    "zindex": 1
}