{
    "@class": "com.kony.gen.viz.model.component.KVizImage2",
    "DNDConfig": null,
    "_base64_": null,
    "_height_": {
        "type": "string",
        "value": "15dp"
    },
    "_left_": {
        "type": "string",
        "value": "0dp"
    },
    "_margin_": [
        0,
        0,
        0,
        0
    ],
    "_padding_": [
        0,
        0,
        0,
        0
    ],
    "_skin_": "s78a5f26c9f14cec9ebed1bb46098f80",
    "_src_": "back_icon_blue.png",
    "_top_": {
        "type": "number",
        "value": ""
    },
    "_width_": {
        "type": "string",
        "value": "15dp"
    },
    "canUpdateUI": true,
    "centery": {
        "type": "string",
        "value": "50%"
    },
    "containerweight": 100,
    "id": "imgBack",
    "imagescalemode": 1,
    "info": null,
    "invokedProperty": "src",
    "iscustomlayout": false,
    "isvisible": true,
    "kuid": "d891d4edcb3e4290b16a62b9e80cd3dc",
    "name": "kony.ui.Image2",
    "parent": "flxBack",
    "pf": "frmWatchlist",
    "responsiveData": {
        "b1": {
            "centerY": {
                "type": "string",
                "value": ""
            },
            "top": {
                "type": "string",
                "value": "22dp"
            }
        },
        "b2": {
            "centerY": {
                "type": "string",
                "value": ""
            },
            "top": {
                "type": "string",
                "value": "22dp"
            }
        },
        "b4": {
            "centerY": {
                "type": "string",
                "value": ""
            },
            "top": {
                "type": "string",
                "value": "22dp"
            }
        }
    },
    "retaincontentalignment": false,
    "retainflexpositionproperties": false,
    "srcType": 1,
    "wType": "Image",
    "widgetalignment": 5,
    "zindex": 1
}