{
    "customComponent": {
        "i18nSupported": true,
        "id": "cwj94033164b744959a7db6565c27b35ee",
        "isOverride": false,
        "konyWrapperFiles": [
            "resources/thirdpartywidgets/widgetwrapper/tp-cust2-wrapper.js"
        ],
        "libraryFiles": [],
        "libraryName": "",
        "marginSupported": true,
        "name": "cust2",
        "paddingSupported": true,
        "platformID": "0",
        "property": [
            {
                "categoryType": "Custom",
                "defaultValue": "0",
                "exclude": false,
                "name": "percentage",
                "propertySelection": false,
                "type": "String",
                "uniqueID": "cwpa9ffc4e749dd401f83c38855e42d53c4",
                "value": "0"
            }
        ]
    }
}