{
    "@class": "com.kony.gen.viz.model.component.KVizButton",
    "DNDConfig": null,
    "__parentReadjusting__": false,
    "_height_": {
        "type": "ref",
        "value": "preferred"
    },
    "_margin_": [
        6,
        6,
        6,
        6
    ],
    "_padding_": [
        0,
        0,
        0,
        0
    ],
    "_right_": {
        "type": "string",
        "value": "30dp"
    },
    "_skin_": "s10249450ae343e287df151956456024",
    "_text_": "Edit",
    "_top_": {
        "type": "string",
        "value": "18dp"
    },
    "_width_": {
        "type": "ref",
        "value": "preferred"
    },
    "canUpdateUI": true,
    "containerweight": 100,
    "contentalignment": 5,
    "desktopweb": {
        "psp": {
            "hoverSkin": "s10249450ae343e287df151956456024"
        }
    },
    "disabledSkins": {
        "focusSkin": "sf44d06ca8224832827ea7fdff757013"
    },
    "displaytext": true,
    "id": "btnEditUserRoles",
    "info": null,
    "iscustomlayout": false,
    "isvisible": false,
    "kuid": "ac059cb1ef0241978b2e771bbb47104e",
    "name": "kony.ui.Button",
    "parent": "flxRoleDetails",
    "pf": "frmBBUsersDashboard",
    "retaincontentalignment": false,
    "retainflexpositionproperties": false,
    "texti18n": "i18n.billPay.Edit",
    "wType": "Button",
    "zindex": 1
}