{
    "@class": "com.kony.gen.viz.model.component.KVizButton",
    "DNDConfig": null,
    "__parentReadjusting__": false,
    "_height_": {
        "type": "ref",
        "value": "preferred"
    },
    "_margin_": [
        6,
        6,
        6,
        6
    ],
    "_padding_": [
        0,
        0,
        0,
        0
    ],
    "_right_": {
        "type": "string",
        "value": "30dp"
    },
    "_skin_": "s10249450ae343e287df151956456024",
    "_text_": "Edit",
    "_width_": {
        "type": "ref",
        "value": "preferred"
    },
    "canUpdateUI": true,
    "centery": {
        "type": "string",
        "value": "11.70%"
    },
    "containerweight": 100,
    "contentalignment": 6,
    "desktopweb": {
        "psp": {
            "hoverSkin": "s10249450ae343e287df151956456024"
        }
    },
    "disabledSkins": {},
    "displaytext": true,
    "focusskin": "s10249450ae343e287df151956456024",
    "id": "btnEdit",
    "info": null,
    "iscustomlayout": false,
    "isvisible": false,
    "kuid": "b039bfb48f624d40869fcfb928d11445",
    "name": "kony.ui.Button",
    "parent": "flxUserDetail",
    "pf": "frmBBUsersDashboard",
    "responsiveData": {
        "b3": {
            "centerY": {
                "type": "string",
                "value": ""
            },
            "isVisible": true,
            "top": {
                "type": "string",
                "value": "16dp"
            }
        }
    },
    "retaincontentalignment": false,
    "retainflexpositionproperties": false,
    "wType": "Button",
    "zindex": 1
}