{
    "DNDConfig": null,
    "__parentReadjusting__": false,
    "_height_": {
        "type": "string",
        "value": "100%"
    },
    "_left_": {
        "type": "string",
        "value": "0"
    },
    "_margin_": [
        0,
        0,
        0,
        0
    ],
    "_orientation_": 6,
    "_padding_": [
        0,
        0,
        0,
        0
    ],
    "_percent_": true,
    "_skin_": "s46c2f35679e49558df61053d316fc4b",
    "_top_": {
        "type": "string",
        "value": "0"
    },
    "_width_": {
        "type": "string",
        "value": "100%"
    },
    "allboxes": [],
    "autogrowmode": 0,
    "canUpdateUI": true,
    "children": [
        "PopupHeaderUM"
    ],
    "clipbounds": true,
    "containerweight": 100,
    "disabledSkins": {
        "focusSkin": "s24c92fc23b14f5484b693ee9b8a9b35"
    },
    "enablescrolling": true,
    "id": "flxPopupConfirmation",
    "info": null,
    "iscustomlayout": false,
    "isvisible": false,
    "kuid": "aa07f9cb9f9d471db2dbfb4cb481fab8",
    "layouttype": 2,
    "name": "kony.ui.FlexContainer",
    "parent": "frmBBUsersDashboard",
    "pf": "frmBBUsersDashboard",
    "responsiveData": {
        "b1": {
            "isVisible": false
        },
        "b2": {
            "isVisible": false
        },
        "b4": {
            "isVisible": false
        }
    },
    "retaincontentalignment": false,
    "retainflexpositionproperties": false,
    "snapgridsize": 10,
    "snaptogrid": true,
    "wType": "FlexContainer",
    "widgetalignment": 1,
    "zindex": 1000
}