{
    "DNDConfig": null,
    "__parentReadjusting__": false,
    "_height_": {
        "type": "string",
        "value": "1dp"
    },
    "_left_": {
        "type": "string",
        "value": "1.46%"
    },
    "_margin_": [
        0,
        0,
        0,
        0
    ],
    "_orientation_": 6,
    "_padding_": [
        0,
        0,
        0,
        0
    ],
    "_percent_": true,
    "_skin_": "s20af796b4a64882b1637df7ce394327",
    "_top_": {
        "type": "string",
        "value": "460dp"
    },
    "_width_": {
        "type": "string",
        "value": "96.92%"
    },
    "allboxes": [],
    "autogrowmode": 0,
    "canUpdateUI": true,
    "centerx": {
        "type": "string",
        "value": "50%"
    },
    "children": [],
    "clipbounds": true,
    "containerweight": 100,
    "enablescrolling": true,
    "id": "flxSeparator10",
    "info": null,
    "iscustomlayout": false,
    "isvisible": true,
    "kuid": "ee78633a6d36405e841a8901068ef1f9",
    "layouttype": 2,
    "name": "kony.ui.FlexContainer",
    "parent": "flxUserAdministration",
    "pf": "frmBBUsersDashboard",
    "retaincontentalignment": false,
    "retainflexpositionproperties": false,
    "snapgridsize": 10,
    "snaptogrid": true,
    "wType": "FlexContainer",
    "widgetalignment": 1,
    "zindex": 1
}