{
    "@class": "com.kony.gen.viz.model.component.KVizLabel",
    "DNDConfig": null,
    "__parentReadjusting__": false,
    "_height_": {
        "type": "ref",
        "value": "preferred"
    },
    "_left_": {
        "type": "string",
        "value": "65%"
    },
    "_margin_": [
        1,
        1,
        1,
        1
    ],
    "_padding_": [
        0,
        0,
        0,
        0
    ],
    "_skin_": "s338778bbeec47cca5ddbc652ada21c3",
    "_text_": "John",
    "_top_": {
        "type": "string",
        "value": "136dp"
    },
    "_width_": {
        "type": "ref",
        "value": "preferred"
    },
    "_wrapping_": 2,
    "android": {
        "textStyle": {
            "letterSpacing": 0,
            "strikeThrough": false
        }
    },
    "canUpdateUI": true,
    "containerweight": 100,
    "contentalignment": 4,
    "id": "lblUserNameValue",
    "info": null,
    "ipad": {
        "psp": {
            "wrapping": 2
        }
    },
    "iphone": {
        "psp": {
            "wrapping": 2
        }
    },
    "iscustomlayout": false,
    "isvisible": true,
    "kuid": "g409a74f65e946628a70daabd2cc7452",
    "name": "kony.ui.Label",
    "parent": "flxUserDetail",
    "pf": "frmBBUsersDashboard",
    "responsiveData": {
        "b2": {
            "left": {
                "type": "string",
                "value": "75%"
            }
        },
        "b3": {
            "left": {
                "type": "string",
                "value": "20dp"
            },
            "top": {
                "type": "string",
                "value": "405dp"
            }
        }
    },
    "retaincontentalignment": false,
    "retainflexpositionproperties": false,
    "tooltip": "",
    "wType": "Label",
    "zindex": 1
}