{
    "@class": "com.kony.gen.viz.model.component.KVizUserWidget",
    "DNDConfig": null,
    "__parentReadjusting__": false,
    "_android_": {},
    "_androidwearos_": {},
    "_children_": [],
    "_desktopweb_": {},
    "_height_": {
        "type": "ref",
        "value": "preferred"
    },
    "_ipad_": {},
    "_iphone_": {},
    "_kiosk_": {},
    "_left_": {
        "type": "string",
        "value": "0dp"
    },
    "_margin_": [
        0,
        0,
        0,
        0
    ],
    "_orientation_": 1,
    "_padding_": [
        0,
        0,
        0,
        0
    ],
    "_percent_": true,
    "_responsiveData_": {},
    "_skin_": "sdc143f0e5b64ae3a3f155f691c73fa7",
    "_spa_": {},
    "_spaan_": {},
    "_spaandroidtablet_": {},
    "_spabb_": {},
    "_spaip_": {},
    "_spaipad_": {},
    "_spamobile_": {},
    "_spatablet_": {},
    "_spawindowstablet_": {},
    "_spawinphone8_": {},
    "_tabrcandroid_": {},
    "_top_": {
        "type": "string",
        "value": "0dp"
    },
    "_vizProps_": {
        "hidewidgethierarchy": false
    },
    "_width_": {
        "type": "string",
        "value": "100%"
    },
    "_windows10_": {},
    "_windows8_": {},
    "_winphone10_": {},
    "_winphone8_": {},
    "areflexpropsreferenced": false,
    "autogrowmode": 1,
    "canUpdateUI": true,
    "clipbounds": false,
    "containerweight": 0,
    "dataDiffs": {
        "CopyflxTitleSeparator0bdbc19527e804c": {
            "__events__": {},
            "__info__": {
                "kuid": "ja4f31d8909645a6b876cb72e8b46c74",
                "srcKUID": "u7d1041dd29041719463389f9dc0195f",
                "wType": "FlexContainer"
            }
        },
        "accountList": {
            "__events__": {},
            "__info__": {
                "isRoot": true,
                "kuid": "ibced4683c7941afa6390d5dbd098b4f",
                "srcKUID": "uc62b19b3fa4423d8f7e6b82f8a3b83b",
                "wType": "FlexContainer"
            }
        },
        "btnShowAllAccounts": {
            "__events__": {},
            "__info__": {
                "kuid": "c73e9ad67c25415b92325af2e4b148f7",
                "srcKUID": "ua2491b0efdf4a9dac2b6e07e0de1192",
                "wType": "Label"
            }
        },
        "flxAccountsHeader": {
            "__events__": {},
            "__info__": {
                "kuid": "f3aa8c4accb74bfdb33861e55f8c8465",
                "srcKUID": "u396622db8ed4c19a72ee1e242bc5b9f",
                "wType": "FlexContainer"
            }
        },
        "flxAccountsHeaderWrapper": {
            "__events__": {},
            "__info__": {
                "kuid": "a17692fdd36c4c47a82475567569b35c",
                "srcKUID": "uca917ad4ccd4d18bddd125a7a5c82e9",
                "wType": "FlexContainer"
            },
            "left": {
                "Default": {
                    "type": "string",
                    "value": "15dp"
                }
            },
            "responsiveData": {}
        },
        "flxAccountsRightContainer": {
            "__events__": {},
            "__info__": {
                "kuid": "iabf619333074eed96504790411d2aed",
                "srcKUID": "ub04f662f228448bbcd5ca37cadbf584",
                "wType": "FlexContainer"
            }
        },
        "flxAccountsSegments": {
            "__events__": {},
            "__info__": {
                "kuid": "bc50741d3894493e94d98a2572f6d16c",
                "srcKUID": "u7ced38f7d4c416bbce2ec4050b7cd7d",
                "wType": "FlexContainer"
            }
        },
        "flxDropDown": {
            "__events__": {},
            "__info__": {
                "kuid": "abeabbee4d3e45a0aef4d7b0196f5a7d",
                "srcKUID": "u5759be8024d43a1a03942e9ccf6e088",
                "wType": "FlexContainer"
            },
            "responsiveData": {
                "b3": {
                    "right": {
                        "type": "string",
                        "value": "10dp"
                    }
                }
            },
            "right": {}
        },
        "flxHolisticAccountsHeader": {
            "__events__": {},
            "__info__": {
                "kuid": "c821ce556aae49f89c988f96fb7e07d1",
                "srcKUID": "uc942036b4f84141b1d340bf69f6c691",
                "wType": "FlexContainer"
            }
        },
        "flxHolisticAccountsHeaderWrapper": {
            "__events__": {},
            "__info__": {
                "kuid": "fddcfdada4a84b708de54314881ac57d",
                "srcKUID": "u4584cfe90cf410dac30069d1b2f4b0d",
                "wType": "FlexContainer"
            }
        },
        "flxHolisticAccountsSegments": {
            "__events__": {},
            "__info__": {
                "kuid": "cc619443ff45412bbcd71771eb89ce21",
                "srcKUID": "ue4f2b6c50ee44a3833374c1a9d3f8da",
                "wType": "FlexContainer"
            }
        },
        "flxTitleSeparator": {
            "__events__": {},
            "__info__": {
                "kuid": "g378e058deee48baaab3d87967862879",
                "srcKUID": "u477b0d0303f43ce82f5f4bf2e7f16d3",
                "wType": "FlexContainer"
            }
        },
        "imgAccountsHeader": {
            "__events__": {},
            "__info__": {
                "kuid": "f543f0eab35341d7946e1836e27653da",
                "srcKUID": "u96ef3583ad443659a0bebc8d7300b83",
                "wType": "Label"
            }
        },
        "imgHolisticAccountsHeader": {
            "__events__": {},
            "__info__": {
                "kuid": "bb42ed5c42cc47ed94a6cbe973c3dea6",
                "srcKUID": "u240d0451fa0458898456c9ed03eb1ca",
                "wType": "Image"
            }
        },
        "lblAccountsHeader": {
            "__events__": {},
            "__info__": {
                "kuid": "a05e19a163414aac97f2257f33d85a54",
                "srcKUID": "u566e5d1a5604502a382a15d715066ea",
                "wType": "Label"
            }
        },
        "lblHolisticAccountsHeader": {
            "__events__": {},
            "__info__": {
                "kuid": "cce558c801484241879b641d0df265f6",
                "srcKUID": "u9afee2d40384345bc28f0befcf931a6",
                "wType": "Label"
            }
        },
        "lblImgDropdown": {
            "__events__": {},
            "__info__": {
                "kuid": "ie145edf2ccc4b03a857d3e129f81d3b",
                "srcKUID": "u7885198021b4693ae82dc0fab26d8c0",
                "wType": "Label"
            }
        },
        "segAccounts": {
            "__events__": {},
            "__info__": {
                "kuid": "affb45253f1f4dde8a54d547b182ffb9",
                "srcKUID": "uca89a47c20a46a8860352451b502a90",
                "wType": "Segment"
            },
            "data": {
                "desktop": [
                    [{
                            "lblAccountItemHeader": {
                                "@class": "com.viz.ide.model.segment.SimpleTextSegmentData",
                                "text": ""
                            },
                            "lblTotalSumTitle": {
                                "@class": "com.viz.ide.model.segment.SimpleTextSegmentData",
                                "text": ""
                            },
                            "lblTotalSumValue": {
                                "@class": "com.viz.ide.model.segment.SimpleTextSegmentData",
                                "text": ""
                            }
                        },
                        [{
                            "CopyimgMenu0a97e7ab1e83140": {
                                "@class": "com.viz.ide.model.segment.ImageSegmentData",
                                "src": ""
                            },
                            "CopyimgThreeDotIcon0eac906fccd3d43": {
                                "@class": "com.viz.ide.model.segment.SimpleTextSegmentData",
                                "text": ""
                            },
                            "btn": {
                                "@class": "com.viz.ide.model.segment.SimpleTextSegmentData",
                                "text": ""
                            },
                            "imgBankName": {
                                "@class": "com.viz.ide.model.segment.ImageSegmentData",
                                "src": ""
                            },
                            "imgFavourite": {
                                "@class": "com.viz.ide.model.segment.ImageSegmentData",
                                "src": ""
                            },
                            "imgIdentifier": {
                                "@class": "com.viz.ide.model.segment.ImageSegmentData",
                                "src": ""
                            },
                            "imgInfo": {
                                "@class": "com.viz.ide.model.segment.ImageSegmentData",
                                "src": ""
                            },
                            "imgMenu": {
                                "@class": "com.viz.ide.model.segment.ImageSegmentData",
                                "src": ""
                            },
                            "imgStarIcon": {
                                "@class": "com.viz.ide.model.segment.SimpleTextSegmentData",
                                "text": ""
                            },
                            "imgThreeDotIcon": {
                                "@class": "com.viz.ide.model.segment.SimpleTextSegmentData",
                                "text": ""
                            },
                            "imgWarning": {
                                "@class": "com.viz.ide.model.segment.ImageSegmentData",
                                "src": ""
                            },
                            "lblAccountName": {
                                "@class": "com.viz.ide.model.segment.SimpleTextSegmentData",
                                "text": ""
                            },
                            "lblAccountNumber": {
                                "@class": "com.viz.ide.model.segment.SimpleTextSegmentData",
                                "text": ""
                            },
                            "lblAvailableBalanceTitle": {
                                "@class": "com.viz.ide.model.segment.SimpleTextSegmentData",
                                "text": ""
                            },
                            "lblAvailableBalanceValue": {
                                "@class": "com.viz.ide.model.segment.SimpleTextSegmentData",
                                "text": ""
                            }
                        }]
                    ]
                ]
            }
        },
        "segHolisticAccounts": {
            "__events__": {},
            "__info__": {
                "kuid": "d0eabf4a76744464976a311add727d4d",
                "srcKUID": "u253107907b4405ea035112ab1f8db91",
                "wType": "Segment"
            }
        }
    },
    "enablescrolling": true,
    "id": "accountList",
    "info": null,
    "isdatareferenced": false,
    "isvisible": true,
    "kuid": "ibced4683c7941afa6390d5dbd098b4f",
    "layouttype": 4,
    "masterType": 0,
    "name": "kony.ui.UserWidgetInstance",
    "parent": "flxLeftContainer",
    "pf": "frmBBAccountsLanding",
    "snapgridsize": 10,
    "snaptogrid": true,
    "sourceUserWidget": "uc62b19b3fa4423d8f7e6b82f8a3b83b",
    "wType": "UserWidgetInstance"
}