{
    "@class": "com.kony.gen.viz.model.component.KVizUserWidget",
    "DNDConfig": null,
    "__parentReadjusting__": false,
    "_children_": [],
    "_desktopweb_": {},
    "_height_": {
        "type": "ref",
        "value": "preferred"
    },
    "_kiosk_": {},
    "_left_": {
        "type": "string",
        "value": "0dp"
    },
    "_margin_": [
        0,
        0,
        0,
        0
    ],
    "_orientation_": 1,
    "_padding_": [
        0,
        0,
        0,
        0
    ],
    "_percent_": true,
    "_render_": true,
    "_responsiveData_": {
        "b2": {
            "isVisible": false,
            "left": {
                "type": "string",
                "value": ""
            },
            "right": {
                "type": "string",
                "value": "24dp"
            },
            "top": {
                "type": "string",
                "value": "150dp"
            }
        },
        "b3": {
            "isVisible": false,
            "left": {
                "type": "string",
                "value": ""
            },
            "right": {
                "type": "string",
                "value": "10dp"
            },
            "top": {
                "type": "string",
                "value": "140dp"
            }
        },
        "b4": {
            "isVisible": false
        }
    },
    "_skin_": "s24c92fc23b14f5484b693ee9b8a9b35",
    "_top_": {
        "type": "string",
        "value": "0dp"
    },
    "_vizProps_": {
        "hidewidgethierarchy": false
    },
    "_width_": {
        "type": "string",
        "value": "100%"
    },
    "android": {},
    "androidwearos": {},
    "areflexpropsreferenced": false,
    "autogrowmode": 1,
    "canUpdateUI": true,
    "clipbounds": false,
    "containerweight": 0,
    "dataDiffs": {
        "accountListMenu": {
            "__events__": {},
            "__info__": {
                "isRoot": true,
                "kuid": "ed5b634f9a44436890a86da11f5c7172",
                "srcKUID": "a9e8d2d74b7e4799b12f10bbd1a59d47",
                "wType": "FlexContainer"
            },
            "isVisible": true,
            "left": {
                "Default": {
                    "type": "string",
                    "value": "0dp"
                }
            },
            "responsiveData": {
                "b2": {
                    "right": {
                        "type": "string",
                        "value": "24dp"
                    }
                },
                "b3": {
                    "right": {
                        "type": "string",
                        "value": "10dp"
                    }
                },
                "b4": {}
            },
            "right": {},
            "top": {
                "Default": {
                    "type": "string",
                    "value": "0dp"
                }
            },
            "width": {
                "Default": {
                    "type": "string",
                    "value": "100%"
                }
            },
            "zIndex": {
                "Default": 100
            }
        },
        "flxAccountListActionsSegment": {
            "__events__": {},
            "__info__": {
                "kuid": "d1caea5dc82b48fb9a0cc6f41c818ea0",
                "srcKUID": "17b103c9bdd04b699f2ca8d9a364ff58",
                "wType": "FlexContainer"
            },
            "responsiveData": {},
            "top": {
                "Default": {
                    "type": "string",
                    "value": "-5dp"
                }
            }
        },
        "flxIdentifier": {
            "__events__": {},
            "__info__": {
                "kuid": "bd2568b4b8aa4c69875d86c8de6bfe68",
                "srcKUID": "b9a5b101961042a68f521a7006d76389",
                "wType": "FlexContainer"
            },
            "responsiveData": {
                "b2": {
                    "isVisible": false
                }
            }
        },
        "imgToolTip": {
            "__events__": {},
            "__info__": {
                "kuid": "e8a102d044544d83bf5ad44e820cb594",
                "srcKUID": "d0ba5194e4f24248bf5413068763f5eb",
                "wType": "Image"
            },
            "responsiveData": {},
            "right": {
                "Default": {
                    "type": "string",
                    "value": "4%"
                }
            },
            "src": "tool_tip.png"
        },
        "segAccountListActions": {
            "__events__": {},
            "__info__": {
                "kuid": "ee8c158d69e54b77998e37184d49f6ef",
                "srcKUID": "1769d0906ad44599b4a1ff123d691027",
                "wType": "Segment"
            },
            "data": {
                "desktop": [{
                    "lblSeparator": {
                        "@class": "com.viz.ide.model.segment.SimpleTextSegmentData",
                        "text": ""
                    },
                    "lblUsers": {
                        "@class": "com.viz.ide.model.segment.SimpleTextSegmentData",
                        "text": ""
                    }
                }]
            }
        }
    },
    "desktopweb": {},
    "id": "durationListMenu",
    "info": null,
    "ipad": {},
    "iphone": {},
    "isdatareferenced": false,
    "issegmentchild": false,
    "isvisible": true,
    "kiosk": {},
    "kuid": "ed5b634f9a44436890a86da11f5c7172",
    "layouttype": 4,
    "masterType": 0,
    "name": "kony.ui.UserWidgetInstance",
    "parent": "flxDurationList",
    "pf": "frmBBAccountsLanding",
    "responsiveData": {
        "b2": {
            "right": {
                "type": "string",
                "value": "24dp"
            }
        },
        "b3": {
            "right": {
                "type": "string",
                "value": "10dp"
            }
        },
        "b4": {}
    },
    "snaptogrid": true,
    "sourceUserWidget": "a9e8d2d74b7e4799b12f10bbd1a59d47",
    "spa": {},
    "spaan": {},
    "spaandroidtablet": {},
    "spabb": {},
    "spaip": {},
    "spaipad": {},
    "spamobile": {},
    "spatablet": {},
    "spawindowstablet": {},
    "spawinphone8": {},
    "tabrcandroid": {},
    "vizProps": {
        "hidewidgethierarchy": false
    },
    "vizprops": {
        "hidewidgethierarchy": false
    },
    "wType": "UserWidgetInstance",
    "windows10": {},
    "windows8": {},
    "winphone10": {},
    "winphone8": {},
    "zindex": 100
}