{
    "DNDConfig": null,
    "__parentReadjusting__": false,
    "_height_": {
        "type": "string",
        "value": "420dp"
    },
    "_left_": {
        "type": "string",
        "value": "383dp"
    },
    "_margin_": [
        0,
        0,
        0,
        0
    ],
    "_orientation_": 6,
    "_padding_": [
        0,
        0,
        0,
        0
    ],
    "_percent_": true,
    "_right_": {
        "type": "number",
        "value": ""
    },
    "_skin_": "sdc143f0e5b64ae3a3f155f691c73fa7",
    "_top_": {
        "type": "string",
        "value": "1305dp"
    },
    "_width_": {
        "type": "string",
        "value": "100%"
    },
    "allboxes": [],
    "canUpdateUI": true,
    "children": [
        "imgBannerMobile"
    ],
    "clipbounds": false,
    "containerweight": 100,
    "enablescrolling": true,
    "id": "flxBannerContainerMobile",
    "info": null,
    "iscustomlayout": false,
    "isvisible": false,
    "kuid": "b2dc897bef3248319a58ae899e116afb",
    "layouttype": 2,
    "name": "kony.ui.FlexContainer",
    "parent": "flxSecondaryDetails",
    "pf": "frmBBAccountsLanding",
    "responsiveData": {
        "b1": {},
        "b2": {
            "height": {
                "type": "string",
                "value": "413dp"
            },
            "left": {
                "type": "string",
                "value": ""
            },
            "right": {
                "type": "string",
                "value": "24dp"
            },
            "top": {
                "type": "string",
                "value": "432dp"
            },
            "width": {
                "type": "string",
                "value": "45.50%"
            }
        },
        "b3": {
            "height": {
                "type": "string",
                "value": "170dp"
            },
            "left": {
                "type": "string",
                "value": "10dp"
            },
            "right": {
                "type": "string",
                "value": "10dp"
            },
            "top": {
                "type": "string",
                "value": "1310dp"
            },
            "width": {
                "type": "string",
                "value": ""
            }
        },
        "b4": {
            "top": {
                "type": "string",
                "value": "0dp"
            }
        }
    },
    "retaincontentalignment": false,
    "retainflexpositionproperties": false,
    "snapgridsize": 10,
    "snaptogrid": true,
    "wType": "FlexContainer",
    "widgetalignment": 1,
    "zindex": 1
}