{
    "DNDConfig": null,
    "__parentReadjusting__": false,
    "_height_": {
        "type": "ref",
        "value": "preferred"
    },
    "_left_": {
        "type": "string",
        "value": "58%"
    },
    "_margin_": [
        0,
        0,
        0,
        0
    ],
    "_orientation_": 6,
    "_padding_": [
        0,
        0,
        0,
        0
    ],
    "_percent_": true,
    "_skin_": "s24c92fc23b14f5484b693ee9b8a9b35",
    "_top_": {
        "type": "string",
        "value": "30px"
    },
    "_width_": {
        "type": "string",
        "value": "180px"
    },
    "allboxes": [],
    "autogrowmode": 1,
    "canUpdateUI": true,
    "children": [
        "durationListMenu"
    ],
    "clipbounds": false,
    "containerweight": 100,
    "enablescrolling": true,
    "id": "flxDurationList",
    "info": null,
    "iscustomlayout": false,
    "isvisible": false,
    "kuid": "ad6e92b5ad4e460fbec42e63e00f581f",
    "layouttype": 2,
    "name": "kony.ui.FlexContainer",
    "parent": "flxMyCashPosition",
    "pf": "frmBBAccountsLanding",
    "responsiveData": {
        "b3": {
            "isVisible": false,
            "left": {
                "type": "string",
                "value": "30dp"
            },
            "top": {
                "type": "string",
                "value": "91px"
            }
        }
    },
    "retaincontentalignment": false,
    "retainflexpositionproperties": false,
    "snapgridsize": 10,
    "snaptogrid": true,
    "wType": "FlexContainer",
    "widgetalignment": 1,
    "zindex": 100
}