{
    "@class": "com.kony.gen.viz.model.component.KVizUserWidget",
    "DNDConfig": null,
    "__parentReadjusting__": false,
    "_children_": [],
    "_height_": {
        "type": "ref",
        "value": "preferred"
    },
    "_margin_": [
        0,
        0,
        0,
        0
    ],
    "_orientation_": 1,
    "_padding_": [
        0,
        0,
        0,
        0
    ],
    "_percent_": true,
    "_render_": true,
    "_skin_": "sdc143f0e5b64ae3a3f155f691c73fa7",
    "_width_": {
        "type": "string",
        "value": "100%"
    },
    "canUpdateUI": true,
    "containerweight": 0,
    "data": {},
    "id": "myRequests",
    "info": null,
    "iscustomlayout": false,
    "issegmentchild": false,
    "isvisible": true,
    "kuid": "ge8e744ef6514edd94fa08f419c4641a",
    "masterType": 1,
    "name": "kony.ui.UserWidgetInstance",
    "parent": "flxMyRequests",
    "pf": "frmBBAccountsLanding",
    "retaincontentalignment": false,
    "retainflexpositionproperties": false,
    "sourceUserWidget": "fe0c9cbb682b4b119cc44550e3796f7e",
    "wType": "UserWidgetInstance"
}