{
    "@class": "com.kony.gen.viz.model.component.KVizUserWidget",
    "DNDConfig": null,
    "_children_": [],
    "_height_": {
        "type": "ref",
        "value": "preferred"
    },
    "_margin_": [
        0,
        0,
        0,
        0
    ],
    "_orientation_": 1,
    "_padding_": [
        0,
        0,
        0,
        0
    ],
    "_percent_": true,
    "_right_": {
        "type": "string",
        "value": "43%"
    },
    "_skin_": "s24c92fc23b14f5484b693ee9b8a9b35",
    "_top_": {
        "type": "string",
        "value": "75dp"
    },
    "_width_": {
        "type": "string",
        "value": "160dp"
    },
    "areflexpropsreferenced": false,
    "autogrowmode": 1,
    "canUpdateUI": true,
    "clipbounds": false,
    "containerweight": 0,
    "dataDiffs": {
        "flxWatchlistActionsSegment": {
            "__events__": {},
            "__info__": {
                "kuid": "g991ff41ba084a70bc9fe4bdb8825b7e",
                "srcKUID": "i2cefef5dfcf4345ac7203ca11373558",
                "wType": "FlexContainer"
            }
        },
        "segWatchlistActionsMenu": {
            "__events__": {},
            "__info__": {
                "kuid": "a1fd08293ef54904af333079e58a45b1",
                "srcKUID": "bea4ef2c563f4c35b9118f6311e2012d",
                "wType": "Segment"
            },
            "data": {
                "desktop": [
                    {
                        "lblAction": {
                            "@class": "com.viz.ide.model.segment.SimpleTextSegmentData",
                            "text": "Transfer Cash"
                        },
                        "lblSeparator": {
                            "@class": "com.viz.ide.model.segment.SimpleTextSegmentData",
                            "text": "Separator"
                        }
                    },
                    {
                        "lblAction": {
                            "@class": "com.viz.ide.model.segment.SimpleTextSegmentData",
                            "text": "Convert Currency"
                        },
                        "lblSeparator": {
                            "@class": "com.viz.ide.model.segment.SimpleTextSegmentData",
                            "text": "Separator"
                        }
                    }
                ]
            }
        },
        "watchlistActionsMenu": {
            "__events__": {},
            "__info__": {
                "isRoot": true,
                "kuid": "h6b8f614f1eb49d6becdf1961ff65e58",
                "srcKUID": "e61d92e197c84457ad8d3d5fad376e76",
                "wType": "FlexContainer"
            },
            "isVisible": false,
            "left": {
                "Default": {
                    "type": "string",
                    "value": ""
                }
            },
            "responsiveData": {
                "b2": {
                    "right": {
                        "type": "string",
                        "value": "13%"
                    }
                }
            },
            "right": {
                "Default": {
                    "type": "string",
                    "value": "43%"
                }
            },
            "top": {
                "Default": {
                    "type": "string",
                    "value": "75dp"
                }
            },
            "width": {
                "Default": {
                    "type": "string",
                    "value": "160dp"
                }
            }
        }
    },
    "enablescrolling": true,
    "id": "accountActionsMenu",
    "info": null,
    "iscustomlayout": false,
    "isdatareferenced": false,
    "isvisible": false,
    "kuid": "h6b8f614f1eb49d6becdf1961ff65e58",
    "layouttype": 4,
    "masterType": 0,
    "name": "kony.ui.UserWidgetInstance",
    "parent": "flxPlaceOrderContainer",
    "pf": "frmPlaceOrder",
    "retaincontentalignment": false,
    "retainflexpositionproperties": false,
    "retainflowhorizontalalignment": false,
    "snapgridsize": 10,
    "snaptogrid": true,
    "sourceUserWidget": "e61d92e197c84457ad8d3d5fad376e76",
    "wType": "UserWidgetInstance"
}