{
    "DNDConfig": null,
    "_height_": {
        "type": "string",
        "value": "600dp"
    },
    "_left_": {
        "type": "string",
        "value": "0%"
    },
    "_margin_": [
        0,
        0,
        0,
        0
    ],
    "_orientation_": 6,
    "_padding_": [
        0,
        0,
        0,
        0
    ],
    "_percent_": true,
    "_skin_": "sb75f187c17c456fb0450d66550451bb",
    "_top_": {
        "type": "string",
        "value": "20dp"
    },
    "_width_": {
        "type": "string",
        "value": "100%"
    },
    "allboxes": [],
    "canUpdateUI": true,
    "centerx": {
        "type": "string",
        "value": "50%"
    },
    "children": [
        "flxAcknowledgementMain",
        "flxTransactionDetails",
        "btnCancelTransfer",
        "btnViewOrder",
        "flxSpace"
    ],
    "clipbounds": false,
    "containerweight": 100,
    "enablescrolling": true,
    "id": "flxAcknowledgement",
    "info": null,
    "isvisible": false,
    "kuid": "jd7b73bde0664bcc987c0e9b557cb7b0",
    "layouttype": 2,
    "name": "kony.ui.FlexContainer",
    "parent": "flxMain",
    "pf": "frmPlaceOrder",
    "responsiveData": {
        "b1": {
            "skin": "sb75f187c17c456fb0450d66550451bb"
        },
        "b2": {
            "height": {
                "type": "string",
                "value": "960dp"
            },
            "skin": "sb75f187c17c456fb0450d66550451bb"
        },
        "b3": {
            "height": {
                "type": "string",
                "value": "1000dp"
            },
            "skin": "sb75f187c17c456fb0450d66550451bb"
        }
    },
    "snapgridsize": 10,
    "snaptogrid": true,
    "wType": "FlexContainer",
    "widgetalignment": 1,
    "zindex": 1
}