{
    "DNDConfig": null,
    "_height_": {
        "type": "string",
        "value": "65dp"
    },
    "_left_": {
        "type": "string",
        "value": ""
    },
    "_margin_": [
        0,
        0,
        0,
        0
    ],
    "_orientation_": 6,
    "_padding_": [
        0,
        0,
        0,
        0
    ],
    "_percent_": true,
    "_right_": {
        "type": "string",
        "value": "4%"
    },
    "_skin_": "s24c92fc23b14f5484b693ee9b8a9b35",
    "_top_": {
        "type": "string",
        "value": "0dp"
    },
    "_width_": {
        "type": "string",
        "value": "45%"
    },
    "allboxes": [],
    "canUpdateUI": true,
    "children": [
        "flxStopLimitPriceHeading",
        "flxStopLimitPriceVal"
    ],
    "clipbounds": true,
    "containerweight": 100,
    "enablescrolling": true,
    "id": "flxStopLimitPrice",
    "info": null,
    "iscustomlayout": false,
    "isvisible": true,
    "kuid": "i9397526f162482fbd185673344ed27a",
    "layouttype": 2,
    "name": "kony.ui.FlexContainer",
    "parent": "flxRow3",
    "pf": "frmPlaceOrder",
    "responsiveData": {
        "b2": {},
        "b3": {
            "height": {
                "type": "string",
                "value": "70dp"
            },
            "right": {
                "type": "string",
                "value": "4%"
            },
            "top": {
                "type": "string",
                "value": "0dp"
            }
        }
    },
    "retaincontentalignment": false,
    "retainflexpositionproperties": false,
    "retainflowhorizontalalignment": false,
    "snapgridsize": 10,
    "snaptogrid": true,
    "wType": "FlexContainer",
    "widgetalignment": 1,
    "zindex": 1
}