{
    "DNDConfig": null,
    "_bottom_": {
        "type": "string",
        "value": "8dp"
    },
    "_height_": {
        "type": "string",
        "value": "70dp"
    },
    "_left_": {
        "type": "string",
        "value": "3%"
    },
    "_margin_": [
        0,
        0,
        0,
        0
    ],
    "_orientation_": 6,
    "_padding_": [
        0,
        0,
        0,
        0
    ],
    "_percent_": true,
    "_skin_": "s24c92fc23b14f5484b693ee9b8a9b35",
    "_top_": {
        "type": "string",
        "value": "0dp"
    },
    "_width_": {
        "type": "string",
        "value": "46%"
    },
    "allboxes": [],
    "autogrowmode": 0,
    "canUpdateUI": true,
    "centery": {
        "type": "string",
        "value": "50%"
    },
    "children": [
        "lblSelectAccount",
        "flxAccountTypesAndInfo",
        "lbxOrderAccountsList"
    ],
    "clipbounds": true,
    "containerweight": 100,
    "enablescrolling": true,
    "id": "flxSelectAccount",
    "info": null,
    "isvisible": true,
    "kuid": "h3aeba6c73e649288d65cad067cb212b",
    "layouttype": 4,
    "name": "kony.ui.FlexContainer",
    "parent": "flxAccountDetails",
    "pf": "frmPlaceOrder",
    "responsiveData": {
        "b1": {},
        "b2": {},
        "b3": {
            "zIndex": 10
        }
    },
    "snapgridsize": 10,
    "snaptogrid": true,
    "wType": "FlexContainer",
    "widgetalignment": 1,
    "zindex": 1
}