{
    "@class": "com.kony.gen.viz.model.component.KVizImage2",
    "DNDConfig": null,
    "_base64_": null,
    "_height_": {
        "type": "string",
        "value": "16dp"
    },
    "_left_": {
        "type": "string",
        "value": "17.50%"
    },
    "_margin_": [
        0,
        0,
        0,
        0
    ],
    "_padding_": [
        0,
        0,
        0,
        0
    ],
    "_skin_": "s78a5f26c9f14cec9ebed1bb46098f80",
    "_src_": "info_grey.png",
    "_top_": {
        "type": "string",
        "value": "0dp"
    },
    "_width_": {
        "type": "string",
        "value": "16dp"
    },
    "accessibilityconfig": {
        "a11yLabel": "Info",
        "a11yValue": ""
    },
    "canUpdateUI": true,
    "centerx": {
        "type": "string",
        "value": "50%"
    },
    "centery": {
        "type": "string",
        "value": "50%"
    },
    "containerweight": 100,
    "id": "imgInfoIcon",
    "imagescalemode": 1,
    "info": null,
    "invokedProperty": "src",
    "isvisible": true,
    "kuid": "efec1e36d30f4295bd5529e7b1a9d166",
    "name": "kony.ui.Image2",
    "parent": "flxImgInfoIcon",
    "pf": "frmPlaceOrder",
    "srcType": 1,
    "wType": "Image",
    "widgetalignment": 5,
    "zindex": 5
}