{
    "@class": "com.kony.gen.viz.model.component.KVizUserWidget",
    "DNDConfig": null,
    "_children_": [],
    "_height_": {
        "type": "ref",
        "value": "preferred"
    },
    "_left_": {
        "type": "string",
        "value": "0"
    },
    "_margin_": [
        0,
        0,
        0,
        0
    ],
    "_orientation_": 1,
    "_padding_": [
        0,
        0,
        0,
        0
    ],
    "_percent_": true,
    "_skin_": "s24c92fc23b14f5484b693ee9b8a9b35",
    "_top_": {
        "type": "string",
        "value": "0"
    },
    "_width_": {
        "type": "ref",
        "value": "preferred"
    },
    "areflexpropsreferenced": false,
    "autogrowmode": 1,
    "canUpdateUI": true,
    "clipbounds": true,
    "containerweight": 0,
    "dataDiffs": {
        "InfoIconOrderType": {
            "__events__": {},
            "__info__": {
                "isRoot": true,
                "kuid": "dd23ee37cb91427490b8b2287b0dbfdc",
                "srcKUID": "ec05a6109d574a0c846de3894b484346",
                "wType": "FlexContainer"
            },
            "left": {
                "Default": {
                    "type": "string",
                    "value": "0"
                }
            },
            "responsiveData": {},
            "top": {
                "Default": {
                    "type": "string",
                    "value": "0"
                }
            },
            "width": {
                "Default": {
                    "type": "ref",
                    "value": "preferred"
                }
            }
        },
        "RichTextMarket": {
            "__events__": {},
            "__info__": {
                "kuid": "ice6393d67ad424b8f4bebf24129dc14",
                "srcKUID": "afc208c00f0f4450b5cde2f19789242c",
                "wType": "RichText"
            },
            "i18n_text": "i18n.wealth.marketText",
            "responsiveData": {},
            "text": ""
        },
        "flxCross": {
            "__events__": {},
            "__info__": {
                "kuid": "af2e392f4d6e45519abc42e5bb252bb4",
                "srcKUID": "g2d7dc57f11948c6a1a45f06ea284830",
                "wType": "FlexContainer"
            }
        },
        "flxLimit": {
            "__events__": {},
            "__info__": {
                "kuid": "ddd1ca373c274674b6bb5d3e38f4e19a",
                "srcKUID": "ea1dbe298d244b2e9ef59904590362f8",
                "wType": "FlexContainer"
            },
            "autogrowMode": {
                "Default": 0
            },
            "height": {
                "Default": {
                    "type": "string",
                    "value": "20dp"
                }
            },
            "responsiveData": {}
        },
        "flxMarketTitle": {
            "__events__": {},
            "__info__": {
                "kuid": "cd95da0136774b5c86cc2e85c23f9bca",
                "srcKUID": "hdac9994d9884cc89dcb2cd0a16ce217",
                "wType": "FlexContainer"
            },
            "autogrowMode": {
                "Default": 0
            },
            "height": {
                "Default": {
                    "type": "string",
                    "value": "20dp"
                }
            },
            "responsiveData": {}
        },
        "flxOrderType": {
            "__events__": {},
            "__info__": {
                "kuid": "dfeeaa6974d34eaf8533a9adf945a644",
                "srcKUID": "jbf722c5bfae4727bd8e85df47c01f99",
                "wType": "FlexContainer"
            }
        },
        "flxOrderTypeText": {
            "__events__": {},
            "__info__": {
                "kuid": "c9865fd47161403abdbf2f69ba44ee70",
                "srcKUID": "aac89fec15b9437ebab01a81ac80684f",
                "wType": "FlexContainer"
            }
        },
        "flxStopLimit": {
            "__events__": {},
            "__info__": {
                "kuid": "ac617f44f5254101b4effa196a63bc75",
                "srcKUID": "a08c1426e7494517887841756db72a5f",
                "wType": "FlexContainer"
            },
            "autogrowMode": {
                "Default": 0
            },
            "height": {
                "Default": {
                    "type": "string",
                    "value": "20dp"
                }
            },
            "responsiveData": {}
        },
        "flxStopLoss": {
            "__events__": {},
            "__info__": {
                "kuid": "ie33343d39b24b8e8a146959b8a28505",
                "srcKUID": "c6317b6a36d444ec9913a593af6ee1cd",
                "wType": "FlexContainer"
            },
            "autogrowMode": {
                "Default": 0
            },
            "height": {
                "Default": {
                    "type": "string",
                    "value": "20dp"
                }
            },
            "responsiveData": {}
        },
        "flxTypes": {
            "__events__": {},
            "__info__": {
                "kuid": "bdf88e5e61214df3b67c29094ff0dd18",
                "srcKUID": "af4a94591bc44ceaa7362d2d962751bd",
                "wType": "FlexContainer"
            }
        },
        "imgCross": {
            "__events__": {},
            "__info__": {
                "kuid": "dff84d1d7c86415bb8a212135185ce44",
                "srcKUID": "e6f23608943d4174991cedf50c988581",
                "wType": "Image"
            },
            "src": "bbcloseicon.png"
        },
        "imgLimit": {
            "__events__": {},
            "__info__": {
                "kuid": "a132b0b296524fcdbcccc860157d36f4",
                "srcKUID": "f1afb58ac78c4d9fa27417fddfd99ce0",
                "wType": "Image"
            },
            "centerY": {
                "Default": {
                    "type": "string",
                    "value": "50%"
                }
            },
            "responsiveData": {},
            "src": "pageoffdot.png"
        },
        "imgMarket": {
            "__events__": {},
            "__info__": {
                "kuid": "ca2ff407e89e47f48350716e40598ba4",
                "srcKUID": "b7846ecd9c9f441ba1e736790740073b",
                "wType": "Image"
            },
            "centerY": {
                "Default": {
                    "type": "string",
                    "value": "50%"
                }
            },
            "responsiveData": {},
            "src": "pageoffdot.png"
        },
        "imgStopLimit": {
            "__events__": {},
            "__info__": {
                "kuid": "b0c4522b334d4102bbadca635110daed",
                "srcKUID": "i802df32437347e5aa3f02ed310bdf9a",
                "wType": "Image"
            },
            "centerY": {
                "Default": {
                    "type": "string",
                    "value": "50%"
                }
            },
            "responsiveData": {},
            "src": "pageoffdot.png"
        },
        "imgStoploss": {
            "__events__": {},
            "__info__": {
                "kuid": "f694959e5b7a4b4d989cc1d2a24cca4d",
                "srcKUID": "h198111894c548efa64af940305ef0e6",
                "wType": "Image"
            },
            "centerX": {
                "Default": {
                    "type": "string",
                    "value": ""
                }
            },
            "centerY": {
                "Default": {
                    "type": "string",
                    "value": "50%"
                }
            },
            "responsiveData": {},
            "src": "pageoffdot.png"
        },
        "imgToolTip": {
            "__events__": {},
            "__info__": {
                "kuid": "g6bb5a1b580a4a299bfb9c0bd3340cf6",
                "srcKUID": "idd41375848147f485d879af596c7b16",
                "wType": "Image"
            },
            "src": "tool_tip.png"
        },
        "lblLimit": {
            "__events__": {},
            "__info__": {
                "kuid": "fcbdd31505484da5b21d2b1cff7a5764",
                "srcKUID": "ga839e0b01dd4332a7cb585f07278017",
                "wType": "Label"
            },
            "centerY": {
                "Default": {
                    "type": "string",
                    "value": "50%"
                }
            },
            "i18n_text": "i18n.wealth.limit",
            "responsiveData": {}
        },
        "lblMarket": {
            "__events__": {},
            "__info__": {
                "kuid": "g77f183b256044d4990a1f61395aca52",
                "srcKUID": "feeb1d3db11848859b04ba0edfbee0a4",
                "wType": "Label"
            },
            "centerY": {
                "Default": {
                    "type": "string",
                    "value": "50%"
                }
            },
            "i18n_text": "i18n.wealth.market",
            "responsiveData": {},
            "text": ""
        },
        "lblOrderType": {
            "__events__": {},
            "__info__": {
                "kuid": "d09e5fb9aa454cf9acfedb02944f3347",
                "srcKUID": "h11d0ae2375d4193a1289b0ca05cdd38",
                "wType": "Label"
            },
            "i18n_text": "i18n.wealth.infoIcon.orderType",
            "responsiveData": {},
            "text": ""
        },
        "lblSeperator": {
            "__events__": {},
            "__info__": {
                "kuid": "bbb95d5964d54059afcc37c248f5b0ff",
                "srcKUID": "c8582844147b4268a08844dad306b980",
                "wType": "Label"
            }
        },
        "lblStopLimit": {
            "__events__": {},
            "__info__": {
                "kuid": "c107b8d20336453f91027faed3e219f1",
                "srcKUID": "fb8d46c2ea0e49fb843e131c37da6288",
                "wType": "Label"
            },
            "centerY": {
                "Default": {
                    "type": "string",
                    "value": "50%"
                }
            },
            "i18n_text": "i18n.wealth.stopLimit",
            "responsiveData": {},
            "text": ""
        },
        "lblStopLoss": {
            "__events__": {},
            "__info__": {
                "kuid": "ca40e60027024e45b7a424196245e198",
                "srcKUID": "h51fbe73a5ed4c878bac26a3d3fd7e0a",
                "wType": "Label"
            },
            "centerY": {
                "Default": {
                    "type": "string",
                    "value": "50%"
                }
            },
            "i18n_text": "i18n.wealth.stopLoss",
            "responsiveData": {},
            "text": ""
        },
        "richTextLimit": {
            "__events__": {},
            "__info__": {
                "kuid": "e3d38451619a46ef989f046d2d39ff96",
                "srcKUID": "d966ca63b0824f13880cb4e9a0e915d0",
                "wType": "RichText"
            },
            "i18n_text": "i18n.wealth.limitText",
            "responsiveData": {},
            "text": ""
        },
        "richTextStopLimit": {
            "__events__": {},
            "__info__": {
                "kuid": "ad93db26ff004b5db88eb0a803d43b70",
                "srcKUID": "ccddeb76add143daa4fd4d847d358b34",
                "wType": "RichText"
            },
            "i18n_text": "i18n.wealth.stopLimitText",
            "responsiveData": {},
            "text": ""
        },
        "richTextStopLoss": {
            "__events__": {},
            "__info__": {
                "kuid": "haf403997ce54f23979192445752d7fa",
                "srcKUID": "ib14bb3c55fa402fa8b0bd1f09a6d545",
                "wType": "RichText"
            },
            "i18n_text": "i18n.wealth.stopLossText",
            "responsiveData": {},
            "text": ""
        }
    },
    "enablescrolling": true,
    "id": "InfoIconOrderType",
    "info": null,
    "iscustomlayout": false,
    "isdatareferenced": false,
    "isvisible": true,
    "kuid": "dd23ee37cb91427490b8b2287b0dbfdc",
    "layouttype": 4,
    "masterType": 0,
    "name": "kony.ui.UserWidgetInstance",
    "parent": "flxInfoOrderType",
    "pf": "frmPlaceOrder",
    "retaincontentalignment": false,
    "retainflexpositionproperties": false,
    "retainflowhorizontalalignment": false,
    "snapgridsize": 10,
    "snaptogrid": true,
    "sourceUserWidget": "ec05a6109d574a0c846de3894b484346",
    "wType": "UserWidgetInstance",
    "zindex": 1
}