{
    "@class": "com.kony.gen.viz.model.component.KVizLabel",
    "DNDConfig": null,
    "_height_": {
        "type": "string",
        "value": "40dp"
    },
    "_left_": {
        "type": "string",
        "value": "14dp"
    },
    "_margin_": [
        1,
        1,
        1,
        1
    ],
    "_padding_": [
        0,
        0,
        0,
        0
    ],
    "_skin_": "s32668b973c84da39c7ca3b9341e09f6",
    "_text_": "Investment Account...3254",
    "_width_": {
        "type": "ref",
        "value": "preferred"
    },
    "_wrapping_": 2,
    "accessibilityconfig": {
        "a11yLabel": "My Checking Account...3254"
    },
    "canUpdateUI": true,
    "centery": {
        "type": "string",
        "value": "50%"
    },
    "containerweight": 100,
    "contentalignment": 4,
    "id": "lblAccountTypes",
    "info": null,
    "iphone": {
        "psp": {
            "wrapping": 2
        }
    },
    "isvisible": true,
    "kuid": "hfdc27af2e17474c802676ed4e59075c",
    "name": "kony.ui.Label",
    "parent": "flxAccountTypes",
    "pf": "frmPlaceOrder",
    "responsiveData": {
        "b3": {}
    },
    "tooltip": "Account Type",
    "wType": "Label",
    "zindex": 1
}