{
    "@class": "com.kony.gen.viz.model.component.KVizLabel",
    "DNDConfig": null,
    "_bottom_": {
        "type": "string",
        "value": "10dp"
    },
    "_height_": {
        "type": "ref",
        "value": "preferred"
    },
    "_left_": {
        "type": "string",
        "value": "4%"
    },
    "_margin_": [
        1,
        1,
        1,
        1
    ],
    "_padding_": [
        0,
        0,
        2,
        0
    ],
    "_right_": {
        "type": "number",
        "value": ""
    },
    "_skin_": "se56454286124fef97a46e7249497088",
    "_text_": "",
    "_top_": {
        "type": "string",
        "value": "20dp"
    },
    "_width_": {
        "type": "string",
        "value": "88%"
    },
    "_wrapping_": 2,
    "accessibilityconfig": {
        "a11yLabel": "Label"
    },
    "android": {
        "textStyle": {
            "letterSpacing": 0,
            "strikeThrough": false
        }
    },
    "canUpdateUI": true,
    "centerx": {
        "type": "string",
        "value": "50%"
    },
    "containerweight": 100,
    "contentalignment": 4,
    "id": "lblOrderDetails",
    "info": null,
    "ipad": {
        "psp": {
            "wrapping": 2
        }
    },
    "iphone": {
        "psp": {
            "wrapping": 2
        }
    },
    "isvisible": false,
    "kuid": "f0046cda737c4009b703faa7a22b67eb",
    "name": "kony.ui.Label",
    "paddinginpixel": false,
    "parent": "flxLeft",
    "pf": "frmPlaceOrder",
    "responsiveData": {
        "b1": {
            "centerX": {
                "type": "string",
                "value": ""
            }
        },
        "b2": {
            "centerX": {
                "type": "string",
                "value": ""
            }
        },
        "b3": {
            "height": {
                "type": "string",
                "value": "0dp"
            }
        },
        "b4": {
            "centerX": {
                "type": "string",
                "value": ""
            },
            "isVisible": false,
            "left": {
                "type": "string",
                "value": "4%"
            }
        }
    },
    "texti18n": "i18n.wealth.orderDetails",
    "tooltip": "",
    "wType": "Label",
    "zindex": 1
}