{
    "@class": "com.kony.gen.viz.model.component.KVizLabel",
    "DNDConfig": null,
    "_bottom_": {
        "type": "string",
        "value": "8dp"
    },
    "_height_": {
        "type": "ref",
        "value": "preferred"
    },
    "_left_": {
        "type": "string",
        "value": "10dp"
    },
    "_margin_": [
        1,
        1,
        1,
        1
    ],
    "_padding_": [
        0,
        0,
        0,
        0
    ],
    "_right_": {
        "type": "string",
        "value": "50dp"
    },
    "_skin_": "s2d800e3e18244b3b0795e5e5d6a0f77",
    "_text_": "Balance is insufficient to buy these quantities",
    "_top_": {
        "type": "string",
        "value": "8dp"
    },
    "_width_": {
        "type": "string",
        "value": "94%"
    },
    "_wrapping_": 2,
    "accessibilityconfig": {
        "a11yLabel": "One or more of your accounts may be overdrawn once your scheduled transactions are executed. Please make sure your accounts have sufficient funds or reschedule your transactions to avoid overdraft fees."
    },
    "android": {
        "textStyle": {
            "letterSpacing": 0,
            "strikeThrough": false
        }
    },
    "canUpdateUI": true,
    "centery": {
        "type": "string",
        "value": "50%"
    },
    "containerweight": 100,
    "contentalignment": 4,
    "id": "lblOrderWarning",
    "info": null,
    "ipad": {
        "psp": {
            "wrapping": 2
        }
    },
    "iphone": {
        "psp": {
            "wrapping": 2
        }
    },
    "isvisible": true,
    "kuid": "ia52ffd014014a81b2d6a6a95e0871cf",
    "name": "kony.ui.Label",
    "paddinginpixel": false,
    "parent": "flxOrderWarning",
    "pf": "frmPlaceOrder",
    "responsiveData": {
        "b1": {
            "contentAlignment": 4
        },
        "b3": {
            "contentAlignment": 1
        },
        "b4": {}
    },
    "tooltip": "",
    "wType": "Label",
    "zindex": 1
}