{
    "@class": "com.kony.gen.viz.model.component.KVizUserWidget",
    "DNDConfig": null,
    "_children_": [],
    "_height_": {
        "type": "ref",
        "value": "preferred"
    },
    "_left_": {
        "type": "string",
        "value": "0dp"
    },
    "_margin_": [
        0,
        0,
        0,
        0
    ],
    "_orientation_": 1,
    "_padding_": [
        0,
        0,
        0,
        0
    ],
    "_percent_": true,
    "_skin_": "sdc143f0e5b64ae3a3f155f691c73fa7",
    "_top_": {
        "type": "string",
        "value": "0dp"
    },
    "_width_": {
        "type": "string",
        "value": "100%"
    },
    "areflexpropsreferenced": false,
    "autogrowmode": 1,
    "canUpdateUI": true,
    "clipbounds": true,
    "containerweight": 0,
    "dataDiffs": {
        "Buttons": {
            "__events__": {},
            "__info__": {
                "kuid": "b9be1178d3fe47ae80cbef7334fb5c86",
                "srcKUID": "fe305a0aa4434468905217ee32631685",
                "wType": "UserWidgetInstance"
            },
            "autogrowMode": {
                "Default": 0
            },
            "height": {
                "Default": {
                    "type": "string",
                    "value": "103dp"
                }
            },
            "left": {
                "Default": {
                    "type": "string",
                    "value": "0dp"
                }
            },
            "responsiveData": {
                "b2": {
                    "height": null,
                    "left": {
                        "type": "string",
                        "value": "0%"
                    },
                    "right": {
                        "type": "string",
                        "value": ""
                    },
                    "width": {
                        "type": "string",
                        "value": "100%"
                    }
                }
            },
            "right": {
                "Default": {
                    "type": "number",
                    "value": ""
                }
            },
            "width": {
                "Default": {
                    "type": "string",
                    "value": "100%"
                }
            }
        },
        "Buttons.btnCancel": {
            "__events__": {},
            "__info__": {
                "kuid": "ge3bfbe77bb946cca454fc1cb642ec84",
                "srcKUID": "f491bd2734ca48f397089db703068e34",
                "wType": "Button"
            },
            "responsiveData": {
                "b2": {
                    "right": null
                }
            },
            "right": {
                "Default": {
                    "type": "string",
                    "value": "370dp"
                }
            },
            "width": {
                "Default": {
                    "type": "string",
                    "value": "150dp"
                }
            }
        },
        "Buttons.btnConfirm": {
            "__events__": {},
            "__info__": {
                "kuid": "ecedb502ecce425e9268027544199547",
                "srcKUID": "e8046b9013f0459a96c3cfd48f727f13",
                "wType": "Button"
            },
            "responsiveData": {
                "b2": {
                    "right": null
                }
            },
            "right": {
                "Default": {
                    "type": "string",
                    "value": "30dp"
                }
            },
            "width": {
                "Default": {
                    "type": "string",
                    "value": "150dp"
                }
            }
        },
        "Buttons.btnModify": {
            "__events__": {},
            "__info__": {
                "kuid": "dc61fbcce7cf4668a9d8351d45a4c002",
                "srcKUID": "cd52d8f9f9d14566b3911b65578f0f90",
                "wType": "Button"
            },
            "responsiveData": {
                "b2": {
                    "right": null
                }
            },
            "right": {
                "Default": {
                    "type": "string",
                    "value": "200dp"
                }
            },
            "width": {
                "Default": {
                    "type": "string",
                    "value": "150dp"
                }
            }
        },
        "Buttons.flxHorizontalLine": {
            "__events__": {},
            "__info__": {
                "kuid": "j56529d2e2b44e5ea83c94448bd529aa",
                "srcKUID": "fc972b5d7d784600a0c52a2fb1498ffb",
                "wType": "FlexContainer"
            },
            "left": {
                "Default": {
                    "type": "string",
                    "value": "30px"
                }
            },
            "responsiveData": {
                "b2": {
                    "left": {
                        "type": "string",
                        "value": "30dp"
                    },
                    "right": {
                        "type": "string",
                        "value": "30dp"
                    },
                    "width": {
                        "type": "string",
                        "value": ""
                    }
                }
            },
            "right": {
                "Default": {
                    "type": "string",
                    "value": "30px"
                }
            },
            "width": {
                "Default": {
                    "type": "number",
                    "value": ""
                }
            }
        },
        "OrderDetailsConfirmation": {
            "__events__": {},
            "__info__": {
                "isRoot": true,
                "kuid": "c9f2e7179a5b4bfc92cf84f6cea09a8f",
                "srcKUID": "f4ad421013ff41b58ec9909c1d81c2ac",
                "wType": "FlexContainer"
            }
        },
        "flxEstimatedFees": {
            "__events__": {},
            "__info__": {
                "kuid": "dffe80c5cbca4fc2bdf01fabaebeb27c",
                "srcKUID": "c7213086b9734753b8998bb9c285ac06",
                "wType": "FlexContainer"
            }
        },
        "flxIcon": {
            "__events__": {},
            "__info__": {
                "kuid": "dd89022dfbd14ac585e8a7f7e8fdaeb4",
                "srcKUID": "ce29accbc16b45a3b53f6e9a4ee2af31",
                "wType": "FlexContainer"
            }
        },
        "flxLimitPrice": {
            "__events__": {},
            "__info__": {
                "kuid": "edd68722d9164c2cb968eadbcf656580",
                "srcKUID": "ie60760607574d00afad3b3175bb6187",
                "wType": "FlexContainer"
            }
        },
        "flxMainConfirmPage": {
            "__events__": {},
            "__info__": {
                "kuid": "g6fee2a7be324bbea51b3535efd3776c",
                "srcKUID": "aa4e1fec4cb74ccd8385b480924ba75c",
                "wType": "FlexContainer"
            },
            "clipBounds": true
        },
        "flxOrder": {
            "__events__": {},
            "__info__": {
                "kuid": "d6808c2cfe6c43f5be2aaf3b6adad5c5",
                "srcKUID": "cecb120a28ff4f6589346b09b26ca2c4",
                "wType": "FlexContainer"
            }
        },
        "flxOrderType": {
            "__events__": {},
            "__info__": {
                "kuid": "ff0fc2d5dc414e28bd49d5bc86e65b87",
                "srcKUID": "jac9a1b1a5e045a3880c9348b89a801d",
                "wType": "FlexContainer"
            }
        },
        "flxQuantity": {
            "__events__": {},
            "__info__": {
                "kuid": "b75d24d84cbb414295e63b68330fb238",
                "srcKUID": "g2d8d8b260bc47d19da2fe8c47a3e90d",
                "wType": "FlexContainer"
            }
        },
        "flxSeparatorLine1": {
            "__events__": {},
            "__info__": {
                "kuid": "i7bb0c7a23d442d28893e43590968c54",
                "srcKUID": "ge6880686e7648f7a66e988a2d2f72f7",
                "wType": "FlexContainer"
            },
            "autogrowMode": {
                "Default": 0
            },
            "height": {
                "Default": {
                    "type": "string",
                    "value": "1dp"
                }
            },
            "responsiveData": {}
        },
        "flxStopPrice": {
            "__events__": {},
            "__info__": {
                "kuid": "d3f3691974234c84a778b5dea3876389",
                "srcKUID": "a944d03947d644c28fe1b963281cb5bc",
                "wType": "FlexContainer"
            }
        },
        "flxTotalAmountOrder": {
            "__events__": {},
            "__info__": {
                "kuid": "a1813fcb95824147b078546c8a191ade",
                "srcKUID": "c21e34f0d9454e798b861726a21e9a18",
                "wType": "FlexContainer"
            }
        },
        "flxValidity": {
            "__events__": {},
            "__info__": {
                "kuid": "g62a97890f524a6d8fc977034ba5ae5c",
                "srcKUID": "d91ccb413a0043f3b4cc8403cdf1da82",
                "wType": "FlexContainer"
            }
        },
        "imgIcon": {
            "__events__": {},
            "__info__": {
                "kuid": "ee0279f8bb304beda2f69e30ecf351ae",
                "srcKUID": "a48a5bef52944935a53f94ef5d25e30d",
                "wType": "Label"
            }
        },
        "lblEstimatedFees": {
            "__events__": {},
            "__info__": {
                "kuid": "idbbc446feae4c1fa9ec345920fcdfc6",
                "srcKUID": "ad9aac41993e4ca28f2da92b49a260af",
                "wType": "Label"
            }
        },
        "lblEstimatedFeesValue": {
            "__events__": {},
            "__info__": {
                "kuid": "i863d14041104213afa896a2df6b3aa2",
                "srcKUID": "d9a2c7112ac94daf879abb9f89dc4613",
                "wType": "Label"
            }
        },
        "lblLimitPrice": {
            "__events__": {},
            "__info__": {
                "kuid": "d4c6b79b1cd847c3b0ad6056ba6e5e86",
                "srcKUID": "ad36885933884bd59cb6ac4564b1481b",
                "wType": "Label"
            }
        },
        "lblLimitPriceValue": {
            "__events__": {},
            "__info__": {
                "kuid": "ebf0d54774f742a49d0a8e705e311920",
                "srcKUID": "dd106843ade14d359593144210fa2478",
                "wType": "Label"
            }
        },
        "lblOrder": {
            "__events__": {},
            "__info__": {
                "kuid": "a8fd90ecd3ab4e61a81f0b7a17bb9311",
                "srcKUID": "eb42bd33d70c47178e33cee950f9af3f",
                "wType": "Label"
            }
        },
        "lblOrderType": {
            "__events__": {},
            "__info__": {
                "kuid": "eb73b43f91914f31a08fd5b29d4f5e06",
                "srcKUID": "j8dbe55ad81d4bed9012ebc1f067da34",
                "wType": "Label"
            }
        },
        "lblOrderTypeValue": {
            "__events__": {},
            "__info__": {
                "kuid": "iad129e432de40ec951cf1ebfcfe2f67",
                "srcKUID": "fe6e5d7bb91f42ec81b5825ffe313185",
                "wType": "Label"
            }
        },
        "lblOrderValue": {
            "__events__": {},
            "__info__": {
                "kuid": "ee5983672ed743baabb2782f5e799e75",
                "srcKUID": "bf8b54dbfca94d2e976fce4490a705d4",
                "wType": "Label"
            }
        },
        "lblQuantity": {
            "__events__": {},
            "__info__": {
                "kuid": "d3f1373aa19844d9aae52910c7d5b8cd",
                "srcKUID": "hd039f6a6a5a4625a04fce35f6abd949",
                "wType": "Label"
            }
        },
        "lblQuantityValue": {
            "__events__": {},
            "__info__": {
                "kuid": "febd761818f745f39ecff211ea812341",
                "srcKUID": "e05054a20cc547309dd682cf7f491785",
                "wType": "Label"
            }
        },
        "lblStopPrice": {
            "__events__": {},
            "__info__": {
                "kuid": "g2606e703d6f44ff874fd7b6ed73f3c8",
                "srcKUID": "dd0d17e520db46458d337091d7f7ff19",
                "wType": "Label"
            }
        },
        "lblStopPriceValue": {
            "__events__": {},
            "__info__": {
                "kuid": "h14694f4c8be48c690750251c7e6382d",
                "srcKUID": "f38eb9da3f0d4219b957c3f8e8a2e9de",
                "wType": "Label"
            }
        },
        "lblTotalOrderAmount": {
            "__events__": {},
            "__info__": {
                "kuid": "d0fbb2f1444144deb468b07932862626",
                "srcKUID": "f2175fa27d55427f9cdbfb68d308d21d",
                "wType": "Label"
            }
        },
        "lblTotalOrderAmountValue": {
            "__events__": {},
            "__info__": {
                "kuid": "g05afcb1591b4282ab7e0d3735c00e31",
                "srcKUID": "g0d9df47bf2f49648d8906a2f7a96951",
                "wType": "Label"
            }
        },
        "lblValidity": {
            "__events__": {},
            "__info__": {
                "kuid": "a14d41ebde8745ddbcd9c9f6e918e0be",
                "srcKUID": "c933676f1c0347e49f17cef188628ef2",
                "wType": "Label"
            }
        },
        "lblValidityValue": {
            "__events__": {},
            "__info__": {
                "kuid": "ae6dd66b8baa429799f695da29227bb3",
                "srcKUID": "f05e9a13d0a44e81a85a0bdbd46eff17",
                "wType": "Label"
            }
        }
    },
    "enablescrolling": true,
    "id": "OrderDetailsConfirmation",
    "info": null,
    "iscustomlayout": false,
    "isdatareferenced": false,
    "isvisible": true,
    "kuid": "c9f2e7179a5b4bfc92cf84f6cea09a8f",
    "layouttype": 2,
    "masterType": 0,
    "name": "kony.ui.UserWidgetInstance",
    "parent": "flxOrderDetailsConfirmation",
    "pf": "frmPlaceOrder",
    "retaincontentalignment": false,
    "retainflexpositionproperties": false,
    "retainflowhorizontalalignment": false,
    "snapgridsize": 10,
    "snaptogrid": true,
    "sourceUserWidget": "f4ad421013ff41b58ec9909c1d81c2ac",
    "wType": "UserWidgetInstance",
    "zindex": 1
}