{
	 "@class": "com.kony.gen.viz.model.component.KVizLabel",
	 "DNDConfig": null,
	 "__parentReadjusting__": false,
	 "_height_": {
		 "type": "string",
		 "value": "35dp"
	},
	 "_left_": {
		 "type": "string",
		 "value": "1.50%"
	},
	 "_margin_": [
		 1,
		 1,
		 1,
		 1
	],
	 "_padding_": [
		 0,
		 0,
		 0,
		 0
	],
	 "_skin_": "s5507c7b77f346d1a17eb788c1b1ccf1",
	 "_text_": "k",
	 "_top_": {
		 "type": "string",
		 "value": "0dp"
	},
	 "_width_": {
		 "type": "string",
		 "value": "30dp"
	},
	 "_wrapping_": 2,
	 "android": {
		 "textStyle": {
			 "letterSpacing": 0,
			 "strikeThrough": false
		}
	},
	 "canUpdateUI": true,
	 "containerweight": 100,
	 "contentalignment": 4,
	 "id": "imgRating4",
	 "info": null,
	 "ipad": {
		 "psp": {
			 "wrapping": 2
		}
	},
	 "iphone": {
		 "psp": {
			 "wrapping": 2
		}
	},
	 "iscustomlayout": false,
	 "isvisible": true,
	 "kuid": "e1e45eb2c8fe4fea9f136ea93ca08724",
	 "name": "kony.ui.Label",
	 "parent": "flxRatingimg",
	 "pf": "userwidgetmodel",
	 "retaincontentalignment": false,
	 "retainflexpositionproperties": false,
	 "tooltip": "",
	 "wType": "Label",
	 "zindex": 1,
	 "accessibilityconfig": {
		 "a11yLabel": "Star"
	}
}