{
    "@class": "com.kony.gen.viz.model.component.KVizLabel",
    "DNDConfig": null,
    "_height_": {
        "type": "ref",
        "value": "preferred"
    },
    "_left_": {
        "type": "string",
        "value": "0dp"
    },
    "_margin_": [
        1,
        1,
        1,
        1
    ],
    "_padding_": [
        0,
        0,
        0,
        0
    ],
    "_skin_": "sd9fada740124e4a99edc1f0a05ec2d0",
    "_text_": "Status",
    "_width_": {
        "type": "ref",
        "value": "preferred"
    },
    "_wrapping_": 2,
    "accessibilityconfig": {
        "a11yLabel": "Accounts"
    },
    "android": {
        "textStyle": {
            "letterSpacing": 0,
            "strikeThrough": false
        }
    },
    "canUpdateUI": true,
    "centery": {
        "type": "string",
        "value": "50%"
    },
    "containerweight": 100,
    "contentalignment": 4,
    "id": "lblTypeOfAccounts",
    "info": null,
    "ipad": {
        "psp": {
            "wrapping": 2
        }
    },
    "iphone": {
        "psp": {
            "wrapping": 2
        }
    },
    "isvisible": true,
    "kuid": "h3f1898dedcf4e8c895cce1d23d5a924",
    "name": "kony.ui.Label",
    "parent": "flxToaHeaderTitle",
    "pf": "userwidgetmodel",
    "responsiveData": {
        "b1": {
            "accessibilityConfig": {
                "a11yLabel": "Status"
            }
        },
        "b2": {
            "accessibilityConfig": {
                "a11yLabel": "Status"
            }
        },
        "b3": {
            "accessibilityConfig": {
                "a11yLabel": "status"
            }
        }
    },
    "tooltip": "Accounts",
    "wType": "Label",
    "zindex": 1
}