{
    "@class": "com.kony.gen.viz.model.component.KVizButton",
    "DNDConfig": null,
    "__parentReadjusting__": false,
    "_height_": {
        "type": "string",
        "value": "100%"
    },
    "_left_": {
        "type": "string",
        "value": "10dp"
    },
    "_margin_": [
        6,
        6,
        6,
        6
    ],
    "_padding_": [
        2,
        0,
        2,
        0
    ],
    "_skin_": "s7c03a67da7f437395974eb07e972971",
    "_text_": "Search by Company Name",
    "_width_": {
        "type": "ref",
        "value": "preferred"
    },
    "accessibilityconfig": {
        "a11yLabel": "Search by Company Name"
    },
    "canUpdateUI": true,
    "centery": {
        "type": "string",
        "value": "50%"
    },
    "containerweight": 100,
    "contentalignment": 5,
    "desktopweb": {
        "psp": {
            "hoverSkin": "sc75516ecef241ffa1ec2e9f996b0d60"
        }
    },
    "disabledSkins": {
        "focusSkin": "sf44d06ca8224832827ea7fdff757013"
    },
    "displaytext": true,
    "id": "btnSearchPayee",
    "info": null,
    "isvisible": true,
    "kuid": "h8c6a7b9b7cf40efb62df40d56b16613",
    "name": "kony.ui.Button",
    "paddingLocked": false,
    "parent": "flxAddPayeeTabs",
    "pf": "frmAddPayeeInformation",
    "responsiveData": {
        "b3": {}
    },
    "texti18n": "i18n.AddPayee.SearchByCompanyName",
    "tooltip": "Search by Company Name",
    "wType": "Button",
    "zindex": 2
}