{
    "DNDConfig": null,
    "__parentReadjusting__": false,
    "_height_": {
        "type": "string",
        "value": "60dp"
    },
    "_left_": {
        "type": "string",
        "value": "0%"
    },
    "_margin_": [
        0,
        0,
        0,
        0
    ],
    "_orientation_": 6,
    "_padding_": [
        0,
        0,
        0,
        0
    ],
    "_percent_": true,
    "_skin_": "s24c92fc23b14f5484b693ee9b8a9b35",
    "_top_": {
        "type": "string",
        "value": "0dp"
    },
    "_width_": {
        "type": "string",
        "value": "100%"
    },
    "allboxes": [],
    "autogrowmode": 0,
    "canUpdateUI": true,
    "children": [
        "btnSearchPayee",
        "btnEnterPayeeInfo"
    ],
    "clipbounds": false,
    "containerweight": 100,
    "enablescrolling": true,
    "id": "flxAddPayeeTabs",
    "info": null,
    "isvisible": true,
    "kuid": "aa0b5666d31c474abf43b1b38f126abe",
    "layouttype": 3,
    "name": "kony.ui.FlexContainer",
    "parent": "flxLeft",
    "pf": "frmAddPayeeInformation",
    "responsiveData": {
        "b3": {
            "skin": "s1daa9076f304c4bafa48a8d45b4a29b"
        }
    },
    "snapgridsize": 10,
    "snaptogrid": true,
    "wType": "FlexContainer",
    "widgetalignment": 1,
    "zindex": 1
}