{
    "@class": "com.kony.gen.viz.model.component.KVizLabel",
    "DNDConfig": null,
    "__parentReadjusting__": false,
    "_height_": {
        "type": "ref",
        "value": "preferred"
    },
    "_left_": {
        "type": "string",
        "value": "3.77%"
    },
    "_margin_": [
        1,
        1,
        1,
        1
    ],
    "_padding_": [
        0,
        0,
        0,
        0
    ],
    "_skin_": "sd9fada740124e4a99edc1f0a05ec2d0",
    "_text_": "Address",
    "_top_": {
        "type": "string",
        "value": "26dp"
    },
    "_width_": {
        "type": "ref",
        "value": "preferred"
    },
    "_wrapping_": 2,
    "accessibilityconfig": {
        "a11yLabel": "Address"
    },
    "android": {
        "textStyle": {
            "letterSpacing": 0,
            "strikeThrough": false
        }
    },
    "canUpdateUI": true,
    "containerweight": 100,
    "contentalignment": 4,
    "id": "lblEnterAddress",
    "info": null,
    "ipad": {
        "psp": {
            "wrapping": 2
        }
    },
    "iphone": {
        "psp": {
            "wrapping": 2
        }
    },
    "isvisible": true,
    "kuid": "a12056324fc24706ac1bfb8619dcb313",
    "name": "kony.ui.Label",
    "parent": "flxEnterPayeeInfo",
    "pf": "frmAddPayeeInformation",
    "responsiveData": {
        "b1": {
            "top": {
                "type": "string",
                "value": "18dp"
            }
        },
        "b2": {
            "top": {
                "type": "string",
                "value": "18dp"
            }
        },
        "b3": {
            "left": {
                "type": "string",
                "value": "3%"
            },
            "top": {
                "type": "string",
                "value": "18dp"
            },
            "width": {
                "type": "string",
                "value": "94%"
            }
        }
    },
    "texti18n": "i18n.ProfileManagement.Address",
    "tooltip": "",
    "wType": "Label",
    "zindex": 1
}