{
    "DNDConfig": null,
    "__parentReadjusting__": false,
    "_height_": {
        "type": "string",
        "value": "30dp"
    },
    "_left_": {
        "type": "string",
        "value": "2%"
    },
    "_margin_": [
        0,
        0,
        0,
        0
    ],
    "_orientation_": 6,
    "_padding_": [
        0,
        0,
        0,
        0
    ],
    "_percent_": true,
    "_skin_": "sf4c85c506de4687bf0645de2533a314",
    "_top_": {
        "type": "string",
        "value": "0dp"
    },
    "_width_": {
        "type": "string",
        "value": "25dp"
    },
    "allboxes": [],
    "autogrowmode": 0,
    "canUpdateUI": true,
    "children": [
        "imgcheckbox3",
        "lblcheckbox3"
    ],
    "clipbounds": true,
    "containerId": true,
    "containerweight": 100,
    "desktopweb": {
        "psp": {
            "hoverSkin": "sd403771f17f42cbb7aea6cb69a914cc"
        }
    },
    "enablescrolling": true,
    "id": "flxcheckbox3",
    "ide_onClick": "AS_FlexContainer_f9cbd14d4ff8413f8b682a331ad2b5af",
    "info": null,
    "isvisible": true,
    "kuid": "c79e8d2f59cc450f910343e8ac4b6cd1",
    "layouttype": 2,
    "name": "kony.ui.FlexContainer",
    "parent": "flxSecurityQuestionSetting",
    "pf": "segSurveyQuestion2",
    "snapgridsize": 10,
    "snaptogrid": true,
    "wType": "FlexContainer",
    "widgetalignment": 1,
    "zindex": 5
}