{
    "DNDConfig": null,
    "__parentReadjusting__": false,
    "_height_": {
        "type": "string",
        "value": "760dp"
    },
    "_margin_": [
        0,
        0,
        0,
        0
    ],
    "_orientation_": 6,
    "_padding_": [
        0,
        0,
        0,
        0
    ],
    "_percent_": true,
    "_skin_": "s576844bc0e148a9a02e6171eac305ac",
    "_top_": {
        "type": "string",
        "value": "150dp"
    },
    "_width_": {
        "type": "string",
        "value": "795dp"
    },
    "allboxes": [],
    "canUpdateUI": true,
    "centerx": {
        "type": "string",
        "value": "50%"
    },
    "children": [
        "flxTermsAndConditionsHeader",
        "flxSeperator1",
        "flxTCContents",
        "flxScrollDetails",
        "flxTCCheckBox",
        "flxSeperator2",
        "flxContentsButtons"
    ],
    "clipbounds": true,
    "containerweight": 100,
    "enablescrolling": true,
    "id": "flxTC",
    "info": null,
    "isvisible": true,
    "kuid": "e4b2744ec5b745e5bef7d1a3cf702cc6",
    "layouttype": 4,
    "name": "kony.ui.FlexContainer",
    "parent": "flxTermsAndConditionsPopUp",
    "pf": "frmWireTransferOneTimePaymentStep1",
    "responsiveData": {
        "b1": {
            "height": {
                "type": "string",
                "value": "650dp"
            }
        },
        "b2": {
            "height": {
                "type": "string",
                "value": "650dp"
            }
        },
        "b3": {
            "height": {
                "type": "string",
                "value": "650dp"
            },
            "width": {
                "type": "string",
                "value": "90%"
            }
        },
        "b4": {
            "height": {
                "type": "string",
                "value": "650dp"
            },
            "width": {
                "type": "string",
                "value": "80%"
            }
        }
    },
    "snapgridsize": 10,
    "snaptogrid": true,
    "vizProps": {},
    "wType": "FlexContainer",
    "widgetalignment": 1,
    "zindex": 1
}