{
    "@class": "com.kony.gen.viz.model.component.KVizButton",
    "DNDConfig": null,
    "_height_": {
        "type": "ref",
        "value": "preferred"
    },
    "_margin_": [
        6,
        6,
        6,
        6
    ],
    "_padding_": [
        0,
        0,
        0,
        0
    ],
    "_right_": {
        "type": "string",
        "value": "10dp"
    },
    "_skin_": "sf6ca31ec68641e5a2df8232c57be16a",
    "_text_": "Edit",
    "_top_": {
        "type": "string",
        "value": "20dp"
    },
    "_width_": {
        "type": "string",
        "value": "55%"
    },
    "accessibilityconfig": {
        "a11yLabel": "Edit"
    },
    "canUpdateUI": true,
    "centery": {
        "type": "string",
        "value": "50%"
    },
    "containerId": true,
    "containerweight": 100,
    "contentalignment": 6,
    "desktopweb": {
        "psp": {}
    },
    "disabledSkins": {
        "focusSkin": "sf44d06ca8224832827ea7fdff757013"
    },
    "displaytext": true,
    "id": "btn2",
    "info": null,
    "isvisible": true,
    "kuid": "b992afdfc39d4d2790ce2eacd604b994",
    "maxwidth": {
        "type": "string",
        "value": "90%"
    },
    "name": "kony.ui.Button",
    "parent": "flxbtn2",
    "pf": "segTransferActivitiesIC",
    "tooltip": "VIEW ACTIVITY",
    "wType": "Button",
    "zindex": 1
}