{
    "classname": "authValidation",
    "definitions": {
        "apis": {
            "custom": [
                {
                    "group": "General",
                    "kuid": "caef1fd9b86c492e9ca5c4011a13ea1f",
                    "paramList": [
                        {
                            "name": "payload"
                        },
                        {
                            "name": "successCallback"
                        },
                        {
                            "name": "failureCallback"
                        }
                    ],
                    "propertyKey": "sendSCANotificationRequest",
                    "pw": {
                        "displayName": "sendSCANotificationRequest",
                        "uiRepresentation": "Label-Label-Button-Button"
                    },
                    "srcWgtKUID": "df2dafca7f0d4c00981f3114931cfa60",
                    "type": "event"
                }
            ],
            "passthrough": []
        },
        "events": {
            "custom": [
                {
                    "group": "General",
                    "kuid": "c4c8aa5a057f4704b4f02bdc5611db70",
                    "paramList": [],
                    "propertyIndex": 1,
                    "propertyKey": "onSuccessCallback",
                    "pw": {
                        "displayName": "onSuccessCallback",
                        "uiRepresentation": "Label-Label-Button-Button"
                    },
                    "srcWgtKUID": "df2dafca7f0d4c00981f3114931cfa60",
                    "type": "event"
                },
                {
                    "group": "General",
                    "kuid": "b733300ac3044b2abbc99ed08705cefd",
                    "paramList": [],
                    "propertyIndex": 2,
                    "propertyKey": "onFailureCallback",
                    "pw": {
                        "displayName": "onFailureCallback",
                        "uiRepresentation": "Label-Label-Button-Button"
                    },
                    "srcWgtKUID": "df2dafca7f0d4c00981f3114931cfa60",
                    "type": "event"
                },
                {
                    "group": "General",
                    "kuid": "d714b25b3e3945539f5a404badc7d164",
                    "paramList": [],
                    "propertyIndex": 3,
                    "propertyKey": "onCancel",
                    "pw": {
                        "displayName": "onCancel",
                        "uiRepresentation": "Label-Label-Button-Button"
                    },
                    "srcWgtKUID": "df2dafca7f0d4c00981f3114931cfa60",
                    "type": "event"
                }
            ],
            "passthrough": []
        },
        "groups": {
            "apis": [
                "General"
            ],
            "events": [],
            "properties": [
                "Scope Attributes",
                "Skins"
            ],
            "widgets": []
        },
        "properties": {
            "custom": [
                {
                    "access": "Write",
                    "defaultValue": "",
                    "group": "General",
                    "kuid": "eab6de63871040bc9cc95e3053ee0347",
                    "originalPropertyKey": "objSeviceName",
                    "propertyIndex": 1,
                    "propertyKey": "objSeviceName",
                    "pw": {
                        "dependencyConditions": {},
                        "displayName": "Object Sevice Name",
                        "toolTip": "Object Sevice Name",
                        "uiRepresentation": "Label-Textbox"
                    },
                    "srcWgtKUID": "df2dafca7f0d4c00981f3114931cfa60",
                    "type": "string",
                    "value": ""
                },
                {
                    "access": "Write",
                    "defaultValue": "",
                    "group": "General",
                    "kuid": "c4a368509aad418e9a1d3f65d6a6b660",
                    "originalPropertyKey": "objName",
                    "propertyIndex": 2,
                    "propertyKey": "objName",
                    "pw": {
                        "dependencyConditions": {},
                        "displayName": "Object Name",
                        "toolTip": "Object Name",
                        "uiRepresentation": "Label-Textbox"
                    },
                    "srcWgtKUID": "df2dafca7f0d4c00981f3114931cfa60",
                    "type": "string",
                    "value": ""
                },
                {
                    "access": "Write",
                    "defaultValue": "",
                    "group": "General",
                    "kuid": "ib9a7ccc5df04269b3aaca737ad58651",
                    "originalPropertyKey": "operationName",
                    "propertyIndex": 3,
                    "propertyKey": "operationName",
                    "pw": {
                        "dependencyConditions": {},
                        "displayName": "Operation Name",
                        "toolTip": "Operation Name",
                        "uiRepresentation": "Label-Textbox"
                    },
                    "srcWgtKUID": "df2dafca7f0d4c00981f3114931cfa60",
                    "type": "string",
                    "value": ""
                },
                {
                    "access": "Write",
                    "defaultValue": "SCAObjects",
                    "group": "General",
                    "kuid": "h04af56109e44c9d80b11325682ba41a",
                    "originalPropertyKey": "objSeviceName1",
                    "propertyIndex": 4,
                    "propertyKey": "objSeviceName1",
                    "pw": {
                        "dependencyConditions": {},
                        "displayName": "Object Sevice Name 1",
                        "toolTip": "Object Sevice Name 1",
                        "uiRepresentation": "Label-Textbox"
                    },
                    "srcWgtKUID": "df2dafca7f0d4c00981f3114931cfa60",
                    "type": "string",
                    "value": ""
                },
                {
                    "access": "Write",
                    "defaultValue": "AuthStatus",
                    "group": "General",
                    "kuid": "dadd153dfc81447b94d9d3409df053c2",
                    "originalPropertyKey": "objName1",
                    "propertyIndex": 5,
                    "propertyKey": "objName1",
                    "pw": {
                        "dependencyConditions": {},
                        "displayName": "Object Name 1",
                        "toolTip": "Object Name 1",
                        "uiRepresentation": "Label-Textbox"
                    },
                    "srcWgtKUID": "df2dafca7f0d4c00981f3114931cfa60",
                    "type": "string",
                    "value": ""
                },
                {
                    "access": "Write",
                    "defaultValue": "fetch",
                    "group": "General",
                    "kuid": "a1f210db9b6e41c0b80608ed4bd88a63",
                    "originalPropertyKey": "operationName1",
                    "propertyIndex": 6,
                    "propertyKey": "operationName1",
                    "pw": {
                        "dependencyConditions": {},
                        "displayName": "Operation Name 1",
                        "toolTip": "Operation Name 1",
                        "uiRepresentation": "Label-Textbox"
                    },
                    "srcWgtKUID": "df2dafca7f0d4c00981f3114931cfa60",
                    "type": "string",
                    "value": ""
                }
            ],
            "passthrough": []
        },
        "widgets": {
            "expose": [],
            "passthrough": []
        }
    },
    "namespace": "com.temenos.infinity.sca",
    "version": "1.0.0"
}