{
    "DNDConfig": null,
    "_height_": {
        "type": "ref",
        "value": "preferred"
    },
    "_left_": {
        "type": "string",
        "value": "0dp"
    },
    "_margin_": [
        0,
        0,
        0,
        0
    ],
    "_orientation_": 6,
    "_padding_": [
        0,
        0,
        0,
        0
    ],
    "_percent_": true,
    "_skin_": "sdc143f0e5b64ae3a3f155f691c73fa7",
    "_top_": {
        "type": "string",
        "value": "0dp"
    },
    "_width_": {
        "type": "string",
        "value": "66.25%"
    },
    "allboxes": [],
    "autogrowmode": 1,
    "canUpdateUI": true,
    "children": [
        "flxTabContent"
    ],
    "clipbounds": false,
    "containerweight": 100,
    "enablescrolling": true,
    "id": "flxLeftContent",
    "info": null,
    "iscustomlayout": false,
    "isvisible": true,
    "kuid": "g940012faee0469e8ec734a821b1e6e8",
    "layouttype": 4,
    "name": "kony.ui.FlexContainer",
    "parent": "flxPageContent",
    "pf": "frmP2PEditRecipient",
    "responsiveData": {
        "b1": {
            "width": {
                "type": "string",
                "value": "66.25%"
            }
        },
        "b2": {
            "width": {
                "type": "string",
                "value": "100%"
            }
        },
        "b3": {
            "left": {
                "type": "string",
                "value": "3%"
            },
            "width": {
                "type": "string",
                "value": "94%"
            }
        },
        "b4": {
            "width": {
                "type": "string",
                "value": "66.25%"
            }
        }
    },
    "retaincontentalignment": false,
    "retainflexpositionproperties": false,
    "retainflowhorizontalalignment": false,
    "snapgridsize": 10,
    "snaptogrid": true,
    "wType": "FlexContainer",
    "widgetalignment": 1
}