{
    "@class": "com.kony.gen.viz.model.component.KVizUserWidget",
    "DNDConfig": null,
    "_children_": [],
    "_height_": {
        "type": "ref",
        "value": "preferred"
    },
    "_left_": {
        "type": "string",
        "value": "0dp"
    },
    "_margin_": [
        0,
        0,
        0,
        0
    ],
    "_orientation_": 1,
    "_padding_": [
        0,
        0,
        0,
        0
    ],
    "_percent_": true,
    "_render_": true,
    "_skin_": "s1c10698f564431499c2fef2fbd861d4",
    "_top_": {
        "type": "string",
        "value": "0dp"
    },
    "_width_": {
        "type": "string",
        "value": "100%"
    },
    "android": {},
    "androidwearos": {},
    "areflexpropsreferenced": false,
    "autogrowmode": 1,
    "canUpdateUI": true,
    "clipbounds": false,
    "containerweight": 0,
    "dataDiffs": {
        "accountTypesp2p": {
            "__events__": {},
            "__info__": {
                "isRoot": true,
                "kuid": "bf311afa982f4e5e88824028daf0263d",
                "srcKUID": "b3be271e134f42249f74fd6222ae14b3",
                "wType": "FlexContainer"
            },
            "isVisible": false,
            "left": {
                "Default": {
                    "type": "string",
                    "value": "0dp"
                }
            },
            "responsiveData": {},
            "top": {
                "Default": {
                    "type": "string",
                    "value": "0dp"
                }
            },
            "width": {
                "Default": {
                    "type": "string",
                    "value": "100%"
                }
            }
        },
        "flxAccountTypesSegment": {
            "__events__": {},
            "__info__": {
                "kuid": "d1444e7bea034e97870e2d3e05f35deb",
                "srcKUID": "ic7cfc5617094f369519e001907ab7ed",
                "wType": "FlexContainer"
            }
        },
        "imgToolTip": {
            "__events__": {},
            "__info__": {
                "kuid": "fe0d578db49d493b9d1526eb344a4e3a",
                "srcKUID": "iac380e0ad1c4ad7ba456f5ac6ac3ba7",
                "wType": "Image"
            },
            "left": {
                "Default": {
                    "type": "string",
                    "value": "88%"
                }
            },
            "src": "tool_tip.png"
        },
        "segAccountTypes": {
            "__events__": {},
            "__info__": {
                "kuid": "hfd2201411044d2dbd747189c502c568",
                "srcKUID": "h11eef7fc6494f6e918d3be22ccdfda9",
                "wType": "Segment"
            },
            "data": {
                "desktop": [
                    {
                        "lblSeparator": {
                            "@class": "com.viz.ide.model.segment.SimpleTextSegmentData",
                            "text": "lbl"
                        },
                        "lblUsers": {
                            "@class": "com.viz.ide.model.segment.SimpleTextSegmentData",
                            "text": "Deactivate P2P Service"
                        }
                    },
                    {
                        "lblSeparator": {
                            "@class": "com.viz.ide.model.segment.SimpleTextSegmentData",
                            "text": "lbl"
                        },
                        "lblUsers": {
                            "@class": "com.viz.ide.model.segment.SimpleTextSegmentData",
                            "text": "View / Edit my P2P Settings"
                        }
                    }
                ]
            },
            "isVisible": true,
            "maxHeight": {
                "Default": {
                    "type": "string",
                    "value": "105dp"
                }
            }
        }
    },
    "desktopweb": {},
    "id": "secondaryActions",
    "info": null,
    "ipad": {},
    "iphone": {},
    "isdatareferenced": false,
    "isvisible": false,
    "kiosk": {},
    "kuid": "bf311afa982f4e5e88824028daf0263d",
    "layouttype": 4,
    "masterType": 0,
    "name": "kony.ui.UserWidgetInstance",
    "parent": "flxRightWrapper",
    "pf": "frmP2PEditRecipient",
    "responsiveData": {},
    "snaptogrid": true,
    "sourceUserWidget": "b3be271e134f42249f74fd6222ae14b3",
    "spa": {},
    "spaan": {},
    "spaandroidtablet": {},
    "spaip": {},
    "spaipad": {},
    "spamobile": {},
    "spatablet": {},
    "spawindowstablet": {},
    "spawinphone8": {},
    "tabrcandroid": {},
    "vizProps": {
        "hidewidgethierarchy": false
    },
    "vizprops": {
        "hidewidgethierarchy": false
    },
    "wType": "UserWidgetInstance",
    "windows10": {},
    "windows8": {},
    "winphone10": {},
    "winphone8": {}
}