{
    "DNDConfig": null,
    "_height_": {
        "type": "string",
        "value": "73dp"
    },
    "_left_": {
        "type": "string",
        "value": "0dp"
    },
    "_margin_": [
        0,
        0,
        0,
        0
    ],
    "_orientation_": 6,
    "_padding_": [
        0,
        0,
        0,
        0
    ],
    "_percent_": true,
    "_skin_": "s344174b66d24a22be7a954acfcdefc5",
    "_top_": {
        "type": "string",
        "value": "0dp"
    },
    "_width_": {
        "type": "string",
        "value": "100%"
    },
    "allboxes": [],
    "autogrowmode": 0,
    "canUpdateUI": true,
    "children": [
        "flxFrom",
        "flxpaiddate",
        "flxAmount",
        "flxStatus",
        "lblSeparator"
    ],
    "clipbounds": true,
    "containerId": true,
    "containerweight": 100,
    "controllerInfo": {
        "default": {
            "channel": "desktop",
            "name": "flxBillPaymentActivityMobileController"
        }
    },
    "enablescrolling": true,
    "id": "flxBillPaymentActivityMobile",
    "info": null,
    "iscustomlayout": false,
    "isvisible": true,
    "kuid": "b5717b1843ec42b19f87b72ed26983da",
    "layouttype": 2,
    "name": "kony.ui.FlexContainer",
    "parent": "segBillPaymentActivityMobile",
    "pf": "segBillPaymentActivityMobile",
    "retaincontentalignment": false,
    "retainflexpositionproperties": false,
    "snapgridsize": 10,
    "snaptogrid": true,
    "wType": "FlexContainer",
    "widgetalignment": 1
}