{
    "@class": "com.kony.gen.viz.model.container.KVizSegment2",
    "DNDConfig": null,
    "__parentReadjusting__": false,
    "_data_": [],
    "_height_": {
        "type": "ref",
        "value": "preferred"
    },
    "_indicator_": "none",
    "_left_": {
        "type": "string",
        "value": "0dp"
    },
    "_margin_": [
        0,
        0,
        0,
        0
    ],
    "_orientation_": 2,
    "_padding_": [
        0,
        0,
        0,
        0
    ],
    "_top_": {
        "type": "string",
        "value": "0dp"
    },
    "_width_": {
        "type": "string",
        "value": "100%"
    },
    "autogrowmode": 1,
    "canUpdateUI": true,
    "containerweight": 100,
    "counter": "01",
    "desktop": {
        "_data_": [
            [
                {
                    "btnShowAll": {
                        "@class": "com.viz.ide.model.segment.SimpleTextSegmentData",
                        "text": "View All"
                    },
                    "imgApprovals": {
                        "@class": "com.viz.ide.model.segment.SimpleTextSegmentData",
                        "text": "r"
                    },
                    "imgSample": {
                        "@class": "com.viz.ide.model.segment.ImageSegmentData",
                        "src": "imagedrag.png"
                    },
                    "lblWidgetTitle": {
                        "@class": "com.viz.ide.model.segment.SimpleTextSegmentData",
                        "text": "Label"
                    }
                },
                []
            ],
            [
                {
                    "btnShowAll": {
                        "@class": "com.viz.ide.model.segment.SimpleTextSegmentData",
                        "text": "View All"
                    },
                    "imgApprovals": {
                        "@class": "com.viz.ide.model.segment.SimpleTextSegmentData",
                        "text": "r"
                    },
                    "imgSample": {
                        "@class": "com.viz.ide.model.segment.ImageSegmentData",
                        "src": "imagedrag.png"
                    },
                    "lblWidgetTitle": {
                        "@class": "com.viz.ide.model.segment.SimpleTextSegmentData",
                        "text": "Label"
                    }
                },
                []
            ]
        ],
        "rowTemplateId": "bb4190d8214b49cc907b6f09a08a708c",
        "rowtemplate": "flxApprovalsRequestsCountWidgetData",
        "sectionHeaderTemplateId": "c19109a27e7f4996a45f4c693b4ce09a",
        "sectionheadertemplate": "flxApprovalsRequestsCountWidgetHeader",
        "widgetdatamap": {
            "btnShowAll": "btnShowAll",
            "flxApprovalsRequestsCountWidgetData": "flxApprovalsRequestsCountWidgetData",
            "flxApprovalsRequestsCountWidgetHeader": "flxApprovalsRequestsCountWidgetHeader",
            "flxDetailHeader": "flxDetailHeader",
            "flxHeaderName": "flxHeaderName",
            "flxImgApproval": "flxImgApproval",
            "flxOption1": "flxOption1",
            "flxRounded1": "flxRounded1",
            "flxSeperator": "flxSeperator",
            "flxTopSeparator": "flxTopSeparator",
            "imgApprovals": "imgApprovals",
            "imgSample": "imgSample",
            "lblName": "lblName",
            "lblOption1Value": "lblOption1Value",
            "lblWidgetTitle": "lblWidgetTitle"
        }
    },
    "focusedindex": null,
    "focuseditem": null,
    "groupcells": false,
    "hasSections": true,
    "id": "approvalsWidgetSegment",
    "info": null,
    "ipad": {
        "psp": {
            "indicator": "rowselect"
        }
    },
    "iphone": {
        "psp": {
            "indicator": "rowselect"
        }
    },
    "iscustomlayout": false,
    "isvisible": true,
    "kuid": "fdb612ba692643bd97408eeed4e36628",
    "masterdata": {},
    "name": "kony.ui.SegmentedUI2",
    "needpageindicator": true,
    "pageoffdotimage": "pageoffdot.png",
    "pageondotimage": "pageondot.png",
    "paginationconfig": {
        "position": "bottom"
    },
    "parent": "flxMainContent",
    "pf": "userwidgetmodel",
    "retaincontentalignment": false,
    "retainflexpositionproperties": false,
    "retainselection": false,
    "rowTemplateId": "jad4f6896eb5482a860d3ac725dd2a3f",
    "rowcounter": 1,
    "rowfocusskin": "s0f9bf3c1b3e4a7bb6bf9fd18b0211f2",
    "rowskin": "scf5f90f6ac04976ab88b2a4f7153285",
    "rowtemplate": "flxDashBoardWIdgetData",
    "screenlevelwidget": false,
    "seccounter": 0,
    "sectionHeaderTemplateId": "g7bd8e3ec8b548a99f2544a57b57f87a",
    "sectionheaderskin": "sdc4ff4ed1584272be2ae69045dfb29d",
    "sectionheadertemplate": "flxDashBoardWidgetHeader",
    "selectedRows": null,
    "selectedState": false,
    "selectedindex": null,
    "selectedindices": null,
    "selecteditems": null,
    "selectedsectionindex": null,
    "selectionbehavior": "default",
    "separatorcolor": "e3e3e300",
    "separatorrequired": false,
    "separatorthickness": 1,
    "showscrollbars": false,
    "viewtype": "tableview",
    "vizProps": {},
    "wType": "Segment",
    "widgetalignment": 5,
    "widgetdatamap": {
        "btnShowAll": "btnShowAll",
        "flxApprovalsRequestsCountWidgetData": "flxApprovalsRequestsCountWidgetData",
        "flxApprovalsRequestsCountWidgetHeader": "flxApprovalsRequestsCountWidgetHeader",
        "flxDetailHeader": "flxDetailHeader",
        "flxHeaderName": "flxHeaderName",
        "flxImgApproval": "flxImgApproval",
        "flxOption1": "flxOption1",
        "flxRounded1": "flxRounded1",
        "flxSeperator": "flxSeperator",
        "flxTopSeparator": "flxTopSeparator",
        "imgApprovals": "imgApprovals",
        "imgSample": "imgSample",
        "lblName": "lblName",
        "lblOption1Value": "lblOption1Value",
        "lblWidgetTitle": "lblWidgetTitle"
    },
    "zindex": 1
}