{
    "@class": "com.kony.gen.viz.model.component.KVizButton",
    "DNDConfig": null,
    "__parentReadjusting__": false,
    "_height_": {
        "type": "string",
        "value": "40dp"
    },
    "_margin_": [
        6,
        6,
        6,
        6
    ],
    "_padding_": [
        0,
        0,
        0,
        0
    ],
    "_right_": {
        "type": "string",
        "value": "20dp"
    },
    "_skin_": "sdc7361203bc408faf7a175e392acef4",
    "_text_": "ADD",
    "_width_": {
        "type": "string",
        "value": "150dp"
    },
    "accessibilityconfig": {
        "a11yLabel": "Add"
    },
    "canUpdateUI": true,
    "centery": {
        "type": "string",
        "value": "50%"
    },
    "containerweight": 100,
    "contentalignment": 5,
    "desktopweb": {
        "psp": {
            "hoverSkin": "s1adc431d69b4514a216da86d642889f"
        }
    },
    "disabledSkins": {
        "focusSkin": "sf44d06ca8224832827ea7fdff757013"
    },
    "displaytext": true,
    "id": "btnAddNewAddressAdd",
    "info": null,
    "isvisible": true,
    "kuid": "g06053b8c69847f99228afc4764d8588",
    "name": "kony.ui.Button",
    "parent": "flxAddNewAddressButtons",
    "pf": "userwidgetmodel",
    "texti18n": "i18n.ProfileManagement.ADD",
    "tooltip": "Add",
    "wType": "Button",
    "zindex": 1
}