{
    "@class": "com.kony.gen.viz.model.component.KVizButton",
    "DNDConfig": null,
    "__parentReadjusting__": false,
    "_height_": {
        "type": "ref",
        "value": "preferred"
    },
    "_margin_": [
        6,
        6,
        6,
        6
    ],
    "_padding_": [
        0,
        0,
        0,
        0
    ],
    "_right_": {
        "type": "string",
        "value": "7%"
    },
    "_skin_": "sf6ca31ec68641e5a2df8232c58cd39a",
    "_text_": "EDIT",
    "_width_": {
        "type": "ref",
        "value": "preferred"
    },
    "accessibilityconfig": {
        "a11yLabel": "Edit"
    },
    "canUpdateUI": true,
    "centery": {
        "type": "string",
        "value": "50%"
    },
    "containerweight": 100,
    "contentalignment": 5,
    "desktopweb": {
        "psp": {
            "hoverSkin": "s1dc0057078e49bdb8d77631bcfe7caa"
        }
    },
    "disabledSkins": {
        "focusSkin": "sf44d06ca8224832827ea7fdff757013"
    },
    "displaytext": true,
    "id": "btnEdit",
    "ide_onClick": "AS_Button_a9834b6892cc45faa2fbee76734ad9a0",
    "info": null,
    "isvisible": true,
    "kuid": "f3f9b81de23840ffa0b6e3a8e7392cdb",
    "name": "kony.ui.Button",
    "parent": "flxEditPhoneNumberHeading",
    "pf": "userwidgetmodel",
    "texti18n": "i18n.billPay.Edit",
    "tooltip": "Edit",
    "wType": "Button",
    "zindex": 1
}