{
    "@class": "com.kony.gen.viz.model.component.KVizButton",
    "DNDConfig": null,
    "__parentReadjusting__": false,
    "_height_": {
        "type": "ref",
        "value": "preferred"
    },
    "_margin_": [
        6,
        6,
        6,
        6
    ],
    "_padding_": [
        0,
        0,
        0,
        0
    ],
    "_right_": {
        "type": "string",
        "value": "2.18%"
    },
    "_skin_": "s41199c8c0df41048cbf47d26a9026d5",
    "_text_": "ADD NEW E-MAIL",
    "_top_": {
        "type": "string",
        "value": "0dp"
    },
    "_width_": {
        "type": "ref",
        "value": "preferred"
    },
    "accessibilityconfig": {
        "a11yLabel": "Add New Email"
    },
    "canUpdateUI": true,
    "centery": {
        "type": "string",
        "value": "50%"
    },
    "containerweight": 100,
    "contentalignment": 5,
    "disabledSkins": {
        "focusSkin": "sf44d06ca8224832827ea7fdff757013"
    },
    "displaytext": true,
    "focusskin": null,
    "id": "btnEditAddNewEmail",
    "info": null,
    "isvisible": false,
    "kuid": "ha859f73884c468ebc44c67aa6b6b3af",
    "name": "kony.ui.Button",
    "parent": "flxEditEmailHeader",
    "pf": "userwidgetmodel",
    "texti18n": "i18n.ProfileManagement.AddNewEmail",
    "tooltip": "ADD NEW E-MAIL",
    "wType": "Button",
    "zindex": 1
}