{
    "@class": "com.kony.gen.viz.model.component.KVizButton",
    "DNDConfig": null,
    "__parentReadjusting__": false,
    "_height_": {
        "type": "ref",
        "value": "preferred"
    },
    "_left_": {
        "type": "string",
        "value": "106dp"
    },
    "_margin_": [
        6,
        6,
        6,
        6
    ],
    "_padding_": [
        0,
        0,
        0,
        0
    ],
    "_skin_": "se4cbdf6e51f48eda9966caa941c6a19",
    "_text_": "Button",
    "_top_": {
        "type": "string",
        "value": "2dp"
    },
    "_width_": {
        "type": "string",
        "value": "170dp"
    },
    "accessibilityconfig": {
        "a11yLabel": "Terms & Conditions"
    },
    "canUpdateUI": true,
    "containerweight": 100,
    "contentalignment": 4,
    "disabledSkins": {
        "focusSkin": "sf44d06ca8224832827ea7fdff757013"
    },
    "displaytext": true,
    "focusskin": null,
    "id": "btnTermsAndConditions",
    "info": null,
    "isvisible": true,
    "kuid": "f70feb51d5b847ca8ad18b313cb5ac79",
    "name": "kony.ui.Button",
    "parent": "flxTCCheckBox",
    "pf": "userwidgetmodel",
    "texti18n": "i18n.common.TnC",
    "wType": "Button",
    "zindex": 1
}