{
    "@class": "com.kony.gen.viz.model.component.KVizButton",
    "DNDConfig": null,
    "__parentReadjusting__": false,
    "_height_": {
        "type": "string",
        "value": "40dp"
    },
    "_margin_": [
        6,
        6,
        6,
        6
    ],
    "_padding_": [
        0,
        0,
        0,
        0
    ],
    "_right_": {
        "type": "string",
        "value": "20dp"
    },
    "_skin_": "sdc7361203bc408faf7a175e392acef4",
    "_text_": "VERIFY",
    "_top_": {
        "type": "string",
        "value": "20dp"
    },
    "_width_": {
        "type": "string",
        "value": "150dp"
    },
    "accessibilityconfig": {
        "a11yLabel": "Verify"
    },
    "canUpdateUI": true,
    "containerweight": 100,
    "contentalignment": 5,
    "desktopweb": {
        "psp": {
            "hoverSkin": "s1adc431d69b4514a216da86d642889f"
        }
    },
    "disabledSkins": {
        "focusSkin": "saefaf3143da4aabb5f35a6f3fb4e38c"
    },
    "displaytext": true,
    "id": "btnVerifyAnswerSecurityQuestions",
    "info": null,
    "isvisible": true,
    "kuid": "af89ed8093d742b19170f554a680fcbe",
    "name": "kony.ui.Button",
    "parent": "flxAnswerSecurityQuestionsButtons",
    "pf": "userwidgetmodel",
    "texti18n": "i18n.ProfileManagement.Verify",
    "tooltip": "Verify",
    "wType": "Button",
    "zindex": 1
}