{
    "DNDConfig": null,
    "__parentReadjusting__": false,
    "_height_": {
        "type": "string",
        "value": "40dp"
    },
    "_left_": {
        "type": "string",
        "value": "0dp"
    },
    "_margin_": [
        0,
        0,
        0,
        0
    ],
    "_orientation_": 6,
    "_padding_": [
        0,
        0,
        0,
        0
    ],
    "_percent_": true,
    "_skin_": "s9e46d9eb8724a0fbeea504e5b769bbd",
    "_top_": {
        "type": "string",
        "value": "0dp"
    },
    "_width_": {
        "type": "string",
        "value": "100%"
    },
    "allboxes": [],
    "autogrowmode": 0,
    "canUpdateUI": true,
    "children": [
        "imgIndicatorAlertComm",
        "lblAlertComm",
        "flxIndicatorAlertComm",
        "lblReferenceAC"
    ],
    "clipbounds": true,
    "containerweight": 100,
    "desktopweb": {
        "psp": {
            "hoverSkin": "s317a3fcff134946ba713fb8a44f2bd1"
        }
    },
    "disabledSkins": {},
    "enablescrolling": true,
    "id": "flxAlertCommunications",
    "info": null,
    "isvisible": true,
    "kuid": "c2fef937287240b283dac321bfe2ade7",
    "layouttype": 2,
    "name": "kony.ui.FlexContainer",
    "parent": "flxAlertsSubMenu",
    "pf": "userwidgetmodel",
    "snapgridsize": 10,
    "snaptogrid": true,
    "wType": "FlexContainer",
    "widgetalignment": 1,
    "zindex": 1
}