{
    "DNDConfig": null,
    "__parentReadjusting__": false,
    "_height_": {
        "type": "string",
        "value": "46dp"
    },
    "_left_": {
        "type": "string",
        "value": "0%"
    },
    "_margin_": [
        0,
        0,
        0,
        0
    ],
    "_orientation_": 6,
    "_padding_": [
        0,
        0,
        0,
        0
    ],
    "_percent_": true,
    "_skin_": "s2f1930e68bc4b258cfe821e7f0122cd",
    "_top_": {
        "type": "string",
        "value": "10dp"
    },
    "_width_": {
        "type": "string",
        "value": "298dp"
    },
    "allboxes": [],
    "autogrowmode": 0,
    "canUpdateUI": true,
    "children": [
        "imgViewCVV",
        "tbxCVV"
    ],
    "clipbounds": true,
    "containerweight": 100,
    "desktopweb": {
        "psp": {}
    },
    "disabledSkins": {
        "focusSkin": "s3308b031b8e4da8a5965b769840b865",
        "hoverSkin": "s8da4b873a6c42cb9da7a6c855529587"
    },
    "enablescrolling": true,
    "id": "flxCVV",
    "info": null,
    "isvisible": false,
    "kuid": "ed9a9cf3b31e4b17ac3e8f5abb34fe22",
    "layouttype": 2,
    "name": "kony.ui.FlexContainer",
    "parent": "flxUsernameVerification2SendingyoutheOTP",
    "pf": "userwidgetmodel",
    "snapgridsize": 10,
    "snaptogrid": true,
    "wType": "FlexContainer",
    "widgetalignment": 1,
    "zindex": 1
}