{
    "DNDConfig": null,
    "__parentReadjusting__": false,
    "_height_": {
        "type": "string",
        "value": "470px"
    },
    "_left_": {
        "type": "string",
        "value": "2.29%"
    },
    "_margin_": [
        0,
        0,
        0,
        0
    ],
    "_orientation_": 6,
    "_padding_": [
        0,
        0,
        0,
        0
    ],
    "_percent_": true,
    "_skin_": "s24c92fc23b14f5484b693ee9b8a9b35",
    "_top_": {
        "type": "string",
        "value": "0dp"
    },
    "_width_": {
        "type": "string",
        "value": "97.82%"
    },
    "allboxes": [],
    "autogrowmode": 0,
    "canUpdateUI": true,
    "children": [
        "flxErrorEditAddress",
        "lbxEditType",
        "tbxEditAddressLine1",
        "tbxEditAddressLine2",
        "lbxEditCountry",
        "lbxEditState",
        "tbxEditCity",
        "txtEditCity",
        "tbxEditZipcode",
        "flxEditSetAsPreferred"
    ],
    "clipbounds": true,
    "containerweight": 100,
    "enablescrolling": true,
    "id": "flxEditAddress",
    "info": null,
    "isvisible": true,
    "kuid": "j5d8cf677c1f482bbb84298aa64fd82d",
    "layouttype": 4,
    "name": "kony.ui.FlexContainer",
    "parent": "flxEmailAddressContainer",
    "pf": "userwidgetmodel",
    "snapgridsize": 10,
    "snaptogrid": true,
    "wType": "FlexContainer",
    "widgetalignment": 1,
    "zindex": 1
}