{
    "DNDConfig": null,
    "__parentReadjusting__": false,
    "_height_": {
        "type": "string",
        "value": "520dp"
    },
    "_left_": {
        "type": "string",
        "value": "0dp"
    },
    "_margin_": [
        0,
        0,
        0,
        0
    ],
    "_orientation_": 6,
    "_padding_": [
        0,
        0,
        0,
        0
    ],
    "_percent_": true,
    "_skin_": "s282ae8616b74efb83f4abf39f1af7f3",
    "_top_": {
        "type": "string",
        "value": "0dp"
    },
    "_width_": {
        "type": "string",
        "value": "100%"
    },
    "allboxes": [],
    "autogrowmode": 0,
    "canUpdateUI": true,
    "children": [
        "flxErrorEditAccounts",
        "flxAccountNickName",
        "flxFullName",
        "flxAccountType",
        "flxAccountNumber",
        "flxFavoriteAccountCheckBox",
        "flxEnableEStatementsCheckBox",
        "flxPleaseNoteTheFollowingPoints",
        "flxEmailForReceiving"
    ],
    "clipbounds": true,
    "containerweight": 100,
    "enablescrolling": true,
    "id": "flxEditAccounts",
    "info": null,
    "isvisible": true,
    "kuid": "ca7090cc708141f089e64c4e336fcbfa",
    "layouttype": 4,
    "name": "kony.ui.FlexContainer",
    "parent": "flxEditAccountsContainer",
    "pf": "userwidgetmodel",
    "snapgridsize": 10,
    "snaptogrid": true,
    "wType": "FlexContainer",
    "widgetalignment": 1,
    "zindex": 1
}