{
    "DNDConfig": null,
    "__parentReadjusting__": false,
    "_height_": {
        "type": "string",
        "value": "115dp"
    },
    "_left_": {
        "type": "string",
        "value": "0dp"
    },
    "_margin_": [
        0,
        0,
        0,
        0
    ],
    "_orientation_": 6,
    "_padding_": [
        0,
        0,
        0,
        0
    ],
    "_percent_": true,
    "_skin_": "s68cde8c1c40436989962f3559a757ac",
    "_top_": {
        "type": "string",
        "value": "0dp"
    },
    "_width_": {
        "type": "string",
        "value": "100%"
    },
    "allboxes": [],
    "autogrowmode": 0,
    "canUpdateUI": true,
    "children": [
        "flxUsernameVerificationRadiobtnOption2",
        "flxUsernameVerificationverticalseperator2",
        "flxUsernameVerificationphone2",
        "flxUsernameVerificationAnswerSecQue",
        "flxUsernameVerificationAnswerSecurityQuestions2"
    ],
    "clipbounds": true,
    "containerweight": 100,
    "enablescrolling": true,
    "id": "flxUsernameVerificationOption2",
    "info": null,
    "isvisible": true,
    "kuid": "c5d7a4a1b93148b5835721b195528fa4",
    "layouttype": 3,
    "name": "kony.ui.FlexContainer",
    "parent": "flxUsernameVerificationContainer",
    "pf": "userwidgetmodel",
    "snapgridsize": 10,
    "snaptogrid": true,
    "wType": "FlexContainer",
    "widgetalignment": 1,
    "zindex": 1
}