{
    "@class": "com.kony.gen.viz.model.component.KVizLabel",
    "DNDConfig": null,
    "__parentReadjusting__": false,
    "_bottom_": {
        "type": "string",
        "value": "60dp"
    },
    "_height_": {
        "type": "ref",
        "value": "preferred"
    },
    "_left_": {
        "type": "string",
        "value": "3.61%"
    },
    "_margin_": [
        1,
        1,
        1,
        1
    ],
    "_padding_": [
        0,
        0,
        0,
        0
    ],
    "_skin_": "s415be662ebd4bc8b09a3193c2067ba6",
    "_text_": "This number will be used to text you identification codes when we need to confirm your identity (for example, if you forget your password, or you're using a device we don't recognize).",
    "_top_": {
        "type": "string",
        "value": "32dp"
    },
    "_width_": {
        "type": "string",
        "value": "67.10%"
    },
    "_wrapping_": 2,
    "accessibilityconfig": {
        "a11yLabel": "This number will be used to text you secure access codes when we need to confirm your identity. For example, if you forget your password, or youre using a device we dont recognize, well text you a code."
    },
    "android": {
        "textStyle": {
            "letterSpacing": 0,
            "strikeThrough": false
        }
    },
    "canUpdateUI": true,
    "containerweight": 100,
    "contentalignment": 4,
    "id": "lblOption4Description",
    "info": null,
    "ipad": {
        "psp": {
            "wrapping": 2
        }
    },
    "iphone": {
        "psp": {
            "wrapping": 2
        }
    },
    "isvisible": true,
    "kuid": "gb45602053424882baa0054829f53f58",
    "name": "kony.ui.Label",
    "parent": "flxOption4",
    "pf": "userwidgetmodel",
    "texti18n": "i18n.ProfileManagement.ThisNumberWillbe",
    "tooltip": "",
    "wType": "Label",
    "zindex": 1
}