{
    "@class": "com.kony.gen.viz.model.component.KVizLabel",
    "DNDConfig": null,
    "__parentReadjusting__": false,
    "_height_": {
        "type": "ref",
        "value": "preferred"
    },
    "_left_": {
        "type": "string",
        "value": "8%"
    },
    "_margin_": [
        1,
        1,
        1,
        1
    ],
    "_padding_": [
        0,
        0,
        0,
        0
    ],
    "_skin_": "sa966f4c7d974709aa0a733eec853ef7",
    "_text_": "Mark as Primary Email",
    "_width_": {
        "type": "string",
        "value": "85%"
    },
    "_wrapping_": 2,
    "accessibilityconfig": {
        "a11yLabel": "Theres another primary email address. If you continue, this email address will become your primary email address."
    },
    "android": {
        "textStyle": {
            "letterSpacing": 0,
            "strikeThrough": false
        }
    },
    "canUpdateUI": true,
    "centery": {
        "type": "string",
        "value": "50%"
    },
    "containerweight": 100,
    "contentalignment": 4,
    "id": "lblPrimaryNumberexists",
    "info": null,
    "ipad": {
        "psp": {
            "wrapping": 2
        }
    },
    "iphone": {
        "psp": {
            "wrapping": 2
        }
    },
    "isvisible": true,
    "kuid": "fb78dcfbd7f740a2b6990bb06f7e2699",
    "name": "kony.ui.Label",
    "parent": "flxAnotherprimaryNumberExists",
    "pf": "userwidgetmodel",
    "texti18n": "i18n.profile.anotherEmail",
    "tooltip": "",
    "wType": "Label",
    "zindex": 1
}