{
    "@class": "com.kony.gen.viz.model.component.KVizLabel",
    "DNDConfig": null,
    "__parentReadjusting__": false,
    "_height_": {
        "type": "string",
        "value": "36px"
    },
    "_left_": {
        "type": "string",
        "value": "20.71%"
    },
    "_margin_": [
        1,
        1,
        1,
        1
    ],
    "_padding_": [
        0,
        0,
        0,
        0
    ],
    "_skin_": "s6fb3a3aa82a4072b23f94e428a6e0c7",
    "_text_": "We are sending you the OTP on your registered mobile.  You will not be charged for the same.",
    "_top_": {
        "type": "string",
        "value": "49dp"
    },
    "_width_": {
        "type": "string",
        "value": "337px"
    },
    "_wrapping_": 2,
    "accessibilityconfig": {
        "a11yLabel": "We are sending you the OTP on your registered mobile.  You will not be charged for the same."
    },
    "android": {
        "textStyle": {
            "letterSpacing": 0,
            "strikeThrough": false
        }
    },
    "canUpdateUI": true,
    "containerweight": 100,
    "contentalignment": 4,
    "id": "lblSendingOTPMessage",
    "info": null,
    "ipad": {
        "psp": {
            "wrapping": 2
        }
    },
    "iphone": {
        "psp": {
            "wrapping": 2
        }
    },
    "isvisible": true,
    "kuid": "da36fcbbbad74bd394c42e1cebe4a85d",
    "name": "kony.ui.Label",
    "parent": "flxSecuritySettingVerificationBody",
    "pf": "userwidgetmodel",
    "tooltip": "",
    "wType": "Label",
    "zindex": 1
}