{
    "@class": "com.kony.gen.viz.model.container.KVizSegment2",
    "DNDConfig": null,
    "__parentReadjusting__": false,
    "_data_": [],
    "_height_": {
        "type": "ref",
        "value": "preferred"
    },
    "_indicator_": "none",
    "_left_": {
        "type": "string",
        "value": "0dp"
    },
    "_margin_": [
        0,
        0,
        0,
        0
    ],
    "_orientation_": 2,
    "_padding_": [
        0,
        0,
        0,
        0
    ],
    "_top_": {
        "type": "string",
        "value": "0dp"
    },
    "_width_": {
        "type": "string",
        "value": "100%"
    },
    "autogrowmode": 1,
    "canUpdateUI": true,
    "containerweight": 100,
    "counter": "00",
    "desktop": {
        "_data_": [],
        "rowTemplateId": "af668aa724a24c11aa887e2ddd721b4f",
        "rowtemplate": "flxRow",
        "widgetdatamap": {
            "btnDelete": "btnDelete",
            "btnEdit": "btnEdit",
            "flxAddress": "flxAddress",
            "flxAddressWrapper": "flxAddressWrapper",
            "flxCommunicationAddress": "flxCommunicationAddress",
            "flxInfo": "flxInfo",
            "flxRow": "flxRow",
            "imgCommunicationAddressInfo": "imgCommunicationAddressInfo",
            "lblAddessLine2": "lblAddessLine2",
            "lblAddressLine1": "lblAddressLine1",
            "lblAddressLine3": "lblAddressLine3",
            "lblAddressType": "lblAddressType",
            "lblCommunicationAddress": "lblCommunicationAddress",
            "lblSeperator": "lblSeperator",
            "lblSeperatorActions": "lblSeperatorActions"
        }
    },
    "disabledSkins": {
        "rowSkin": "s0351570876a4253ba24549b9e2a8a99"
    },
    "focusedindex": null,
    "focuseditem": null,
    "groupcells": false,
    "hasSections": false,
    "id": "segPersonalAddresses",
    "info": null,
    "ipad": {
        "psp": {
            "indicator": "rowselect"
        }
    },
    "iphone": {
        "psp": {
            "indicator": "rowselect"
        }
    },
    "isvisible": true,
    "kuid": "h2d2bc5293354d8ab0e52edbeda15e75",
    "masterdata": {},
    "name": "kony.ui.SegmentedUI2",
    "needpageindicator": true,
    "pageoffdotimage": "pageoffdot.png",
    "pageondotimage": "pageondot.png",
    "paginationconfig": {
        "position": "bottom"
    },
    "parent": "flxPersonalAddressBody",
    "pf": "userwidgetmodel",
    "retainselection": false,
    "rowcounter": 0,
    "rowfocusskin": "s9f69e977910472eb44c62ae28c41fe1",
    "rowskin": null,
    "rowtemplate": null,
    "screenlevelwidget": false,
    "seccounter": 0,
    "sectionheaderskin": "sdc4ff4ed1584272be2ae69045dfb29d",
    "selectedRows": null,
    "selectedState": false,
    "selectedindex": null,
    "selectedindices": null,
    "selecteditems": null,
    "selectedsectionindex": 0,
    "selectionbehavior": "default",
    "separatorrequired": false,
    "showscrollbars": false,
    "viewtype": "tableview",
    "vizProps": {},
    "wType": "Segment",
    "widgetalignment": 5,
    "widgetdatamap": {
        "btnDelete": "btnDelete",
        "btnEdit": "btnEdit",
        "flxAddress": "flxAddress",
        "flxAddressWrapper": "flxAddressWrapper",
        "flxCommunicationAddress": "flxCommunicationAddress",
        "flxInfo": "flxInfo",
        "flxRow": "flxRow",
        "imgCommunicationAddressInfo": "imgCommunicationAddressInfo",
        "lblAddessLine2": "lblAddessLine2",
        "lblAddressLine1": "lblAddressLine1",
        "lblAddressLine3": "lblAddressLine3",
        "lblAddressType": "lblAddressType",
        "lblCommunicationAddress": "lblCommunicationAddress",
        "lblSeperator": "lblSeperator",
        "lblSeperatorActions": "lblSeperatorActions"
    },
    "widgetskin": "sd0bdf9155e24250b0640117b28d2833",
    "zindex": 1
}