{
    "@class": "com.kony.gen.viz.model.component.KVizRichText",
    "DNDConfig": null,
    "__parentReadjusting__": false,
    "_height_": {
        "type": "string",
        "value": "60dp"
    },
    "_left_": {
        "type": "string",
        "value": "60dp"
    },
    "_margin_": [
        0,
        0,
        0,
        0
    ],
    "_padding_": [
        0,
        0,
        0,
        0
    ],
    "_skin_": "s19145f8ece84f148d16ab75541eb1ea",
    "_text_": "Please go through the following guidelines and bring a copy of any one of the following document as proof. You can also find a PDF form attached below. Please download the same and take a printout of the form. Fill all the necessary details as per the instruction provided in the form and bring the hard copy to our nearest branch to submit the same. We are happy to assist you.",
    "_top_": {
        "type": "string",
        "value": "9dp"
    },
    "_width_": {
        "type": "string",
        "value": "90.60%"
    },
    "_wrapping_": 2,
    "accessibilityconfig": {
        "a11yLabel": "Bring a copy of any one of the following document as proof. You can also find a PDF form attached below. Please download the form, fill in all the necessary details, following the instructions on the form, and bring it to our nearest branch. Need assistance? Well be happy to help!"
    },
    "canUpdateUI": true,
    "containerweight": 100,
    "contentalignment": 4,
    "id": "txtWarning",
    "info": null,
    "isvisible": true,
    "kuid": "b9944ec2945f4e0c862e21013a9352af",
    "name": "kony.ui.RichText",
    "parent": "flxNameChangeRequestWarning",
    "pf": "userwidgetmodel",
    "texti18n": "i18n.ProfileManagement.PleaseGoThrough",
    "wType": "RichText",
    "widgetalignment": 5,
    "zindex": 1
}