{
    "@class": "com.kony.gen.viz.model.component.KVizLabel",
    "DNDConfig": null,
    "_height_": {
        "type": "ref",
        "value": "preferred"
    },
    "_left_": {
        "type": "string",
        "value": "7.69%"
    },
    "_margin_": [
        1,
        1,
        1,
        1
    ],
    "_padding_": [
        0,
        0,
        0,
        0
    ],
    "_skin_": "s2a87b57d4c74bbd9330ca093b513b70",
    "_text_": "Label",
    "_width_": {
        "type": "ref",
        "value": "preferred"
    },
    "_wrapping_": 2,
    "accessibilityconfig": {
        "a11yLabel": "My Previously Owned Cards"
    },
    "android": {
        "textStyle": {
            "letterSpacing": 0,
            "strikeThrough": false
        }
    },
    "canUpdateUI": true,
    "centery": {
        "type": "string",
        "value": "50%"
    },
    "containerweight": 100,
    "contentalignment": 4,
    "id": "lblMyPreviousOwnedCards",
    "info": null,
    "ipad": {
        "psp": {
            "wrapping": 2
        }
    },
    "iphone": {
        "psp": {
            "wrapping": 2
        }
    },
    "isvisible": true,
    "kuid": "i5b56cb38c1d43a89b7f9895dfd4e5e0",
    "name": "kony.ui.Label",
    "parent": "flxMyPreviousOwnedCards",
    "pf": "frmCardManagementMain",
    "texti18n": "i18n.CardManagement.MyPreviousOwnedCards",
    "tooltip": "ADD INTERNATIONAL ACCOUNT",
    "wType": "Label",
    "zindex": 1
}