{
    "@class": "com.kony.gen.viz.model.container.KVizSegment2",
    "DNDConfig": null,
    "_data_": [{},
        {},
        {}
    ],
    "_height_": {
        "type": "ref",
        "value": "preferred"
    },
    "_indicator_": "none",
    "_left_": {
        "type": "string",
        "value": "0dp"
    },
    "_margin_": [
        0,
        0,
        0,
        0
    ],
    "_orientation_": 2,
    "_padding_": [
        0,
        0,
        0,
        0
    ],
    "_top_": {
        "type": "string",
        "value": "0dp"
    },
    "_width_": {
        "type": "string",
        "value": "100%"
    },
    "autogrowmode": 1,
    "canUpdateUI": true,
    "centerx": {
        "type": "number",
        "value": ""
    },
    "containerweight": 100,
    "counter": "02",
    "desktop": {
        "_data_": [{
                "imgBank": {
                    "@class": "com.viz.ide.model.segment.ImageSegmentData",
                    "src": "bank_icon_boa.png"
                },
                "lblSeparator": {
                    "@class": "com.viz.ide.model.segment.SimpleTextSegmentData",
                    "text": "-"
                },
                "lblUsers": {
                    "@class": "com.viz.ide.model.segment.SimpleTextSegmentData",
                    "text": "Bank of America"
                }
            },
            {
                "imgBank": {
                    "@class": "com.viz.ide.model.segment.ImageSegmentData",
                    "src": "bank_icon_citi.png"
                },
                "lblSeparator": {
                    "@class": "com.viz.ide.model.segment.SimpleTextSegmentData",
                    "text": "-"
                },
                "lblUsers": {
                    "@class": "com.viz.ide.model.segment.SimpleTextSegmentData",
                    "text": "CITI Bank"
                }
            },
            {
                "imgBank": {
                    "@class": "com.viz.ide.model.segment.ImageSegmentData",
                    "src": "bank_icon_chase.png"
                },
                "lblSeparator": {
                    "@class": "com.viz.ide.model.segment.SimpleTextSegmentData",
                    "text": "-"
                },
                "lblUsers": {
                    "@class": "com.viz.ide.model.segment.SimpleTextSegmentData",
                    "text": "Chase Bank"
                }
            },
            {
                "imgBank": {
                    "@class": "com.viz.ide.model.segment.ImageSegmentData",
                    "src": "bank_icon_hdfc.png"
                },
                "lblSeparator": {
                    "@class": "com.viz.ide.model.segment.SimpleTextSegmentData",
                    "text": "-"
                },
                "lblUsers": {
                    "@class": "com.viz.ide.model.segment.SimpleTextSegmentData",
                    "text": "HDFC bank"
                }
            },
            {
                "imgBank": {
                    "@class": "com.viz.ide.model.segment.ImageSegmentData",
                    "src": "bank_icon_wf.png"
                },
                "lblSeparator": {
                    "@class": "com.viz.ide.model.segment.SimpleTextSegmentData",
                    "text": "-"
                },
                "lblUsers": {
                    "@class": "com.viz.ide.model.segment.SimpleTextSegmentData",
                    "text": "Wells Fargo"
                }
            }
        ],
        "rowTemplateId": "ab918ad6bb6d47e0a600f424efa853ce",
        "rowtemplate": "flxBankNames",
        "widgetdatamap": {
            "flxBankNames": "flxBankNames",
            "imgBank": "imgBank",
            "lblSeparator": "lblSeparator",
            "lblUsers": "lblUsers"
        }
    },
    "focusedindex": null,
    "focuseditem": null,
    "groupcells": false,
    "hasSections": false,
    "id": "segCardDetails",
    "ide_onRowClick": "AS_Segment_d43ef915b9634f1b84dfaf1d839333d1",
    "info": null,
    "ipad": {
        "psp": {
            "indicator": "rowselect"
        }
    },
    "iphone": {
        "psp": {
            "indicator": "rowselect"
        }
    },
    "isvisible": true,
    "kuid": "d2a3a6ffb24a46d1851595501c8190d2",
    "masterdata": {},
    "name": "kony.ui.SegmentedUI2",
    "needpageindicator": true,
    "pageoffdotimage": "pageoffdot.png",
    "pageondotimage": "pageondot.png",
    "paginationconfig": {
        "position": "bottom"
    },
    "parent": "flxCardDetailsSegment",
    "pf": "frmCardManagementMain",
    "responsiveData": {
        "b3": {
            "centerX": {
                "type": "string",
                "value": "50%"
            },
            "top": {
                "type": "string",
                "value": "0dp"
            },
            "width": {
                "type": "string",
                "value": "100%"
            }
        }
    },
    "retainselection": false,
    "rowTemplateId": "b680ab95dac74c31920f0fed587e2b47",
    "rowcounter": 2,
    "rowfocusskin": "s9f69e977910472eb44c62ae28c41fe1",
    "rowskin": "scf5f90f6ac04976ab88b2a4f7153285",
    "rowtemplate": "flxMyCardsExpandedMobile",
    "screenlevelwidget": false,
    "seccounter": 0,
    "sectionHeaderTemplateId": null,
    "sectionheaderskin": "sdc4ff4ed1584272be2ae69045dfb29d",
    "selectedRows": null,
    "selectedState": false,
    "selectedindex": null,
    "selectedindices": null,
    "selecteditems": null,
    "selectedsectionindex": 0,
    "selectionbehavior": "default",
    "separatorrequired": false,
    "showscrollbars": false,
    "viewtype": "tableview",
    "vizProps": {},
    "wType": "Segment",
    "widgetalignment": 5,
    "widgetdatamap": {
        "btnAction1": "btnAction1",
        "btnAction2": "btnAction2",
        "btnAction3": "btnAction3",
        "btnAction4": "btnAction4",
        "btnAction5": "btnAction5",
        "btnAction6": "btnAction6",
        "btnAction7": "btnAction7",
        "btnAction8": "btnAction8",
        "flxActions": "flxActions",
        "flxActionsContainer": "flxActionsContainer",
        "flxBlankSpace": "flxBlankSpace",
        "flxBlankSpace1": "flxBlankSpace1",
        "flxBlankSpace2": "flxBlankSpace2",
        "flxCardDetails": "flxCardDetails",
        "flxCardHeader": "flxCardHeader",
        "flxDetailsRow1": "flxDetailsRow1",
        "flxDetailsRow10": "flxDetailsRow10",
        "flxDetailsRow2": "flxDetailsRow2",
        "flxDetailsRow3": "flxDetailsRow3",
        "flxDetailsRow4": "flxDetailsRow4",
        "flxDetailsRow5": "flxDetailsRow5",
        "flxDetailsRow6": "flxDetailsRow6",
        "flxDetailsRow7": "flxDetailsRow7",
        "flxDetailsRow8": "flxDetailsRow8",
        "flxDetailsRow9": "flxDetailsRow9",
        "flxMyCards": "flxMyCards",
        "flxMyCardsExpandedMobile": "flxMyCardsExpandedMobile",
        "imgCard": "imgCard",
        "lblCardHeader": "lblCardHeader",
        "lblCardStatus": "lblCardStatus",
        "lblKey1": "lblKey1",
        "lblKey10": "lblKey10",
        "lblKey2": "lblKey2",
        "lblKey3": "lblKey3",
        "lblKey4": "lblKey4",
        "lblKey5": "lblKey5",
        "lblKey6": "lblKey6",
        "lblKey7": "lblKey7",
        "lblKey8": "lblKey8",
        "lblKey9": "lblKey9",
        "lblSeparator1": "lblSeparator1",
        "lblSeparator2": "lblSeparator2",
        "rtxValue1": "rtxValue1",
        "rtxValue10": "rtxValue10",
        "rtxValue2": "rtxValue2",
        "rtxValue3": "rtxValue3",
        "rtxValue4": "rtxValue4",
        "rtxValue5": "rtxValue5",
        "rtxValue6": "rtxValue6",
        "rtxValue7": "rtxValue7",
        "rtxValue8": "rtxValue8",
        "rtxValue9": "rtxValue9"
    },
    "zindex": 1
}