{
    "@class": "com.kony.gen.viz.model.component.KVizButton",
    "DNDConfig": null,
    "__parentReadjusting__": false,
    "_height_": {
        "type": "string",
        "value": "20dp"
    },
    "_left_": {
        "type": "string",
        "value": "15dp"
    },
    "_margin_": [
        6,
        6,
        6,
        6
    ],
    "_padding_": [
        0,
        0,
        0,
        0
    ],
    "_skin_": "sc6cdb14f47b4dc4a58713707ce0c2c4",
    "_text_": "Button",
    "_top_": {
        "type": "string",
        "value": "1px"
    },
    "_width_": {
        "type": "string",
        "value": "40dp"
    },
    "accessibilityconfig": {
        "a11yLabel": "E-Bill"
    },
    "canUpdateUI": true,
    "containerId": true,
    "containerweight": 100,
    "contentalignment": 5,
    "disabledSkins": {
        "focusSkin": "sf44d06ca8224832827ea7fdff757013"
    },
    "displaytext": true,
    "id": "btnEbill",
    "ide_onClick": "AS_Button_a257f0ea121140d597443cc738b82e70",
    "info": null,
    "isvisible": true,
    "kuid": "ca493a20e70a4f0098210014336ce2e6",
    "name": "kony.ui.Button",
    "parent": "flxPayee",
    "pf": "segBillPayManagePayeesSelectedMobile",
    "texti18n": "i18n.billPay.EBill",
    "tooltip": "eBill",
    "wType": "Button",
    "zindex": 5
}