{
    "classname": "updatePassword",
    "definitions": {
        "apis": {
            "custom": [
                {
                    "group": "General",
                    "kuid": "e8527b4550424b46a2207668a6758e80",
                    "paramList": [],
                    "propertyKey": "getPasswordPolicies",
                    "pw": {
                        "displayName": "getPasswordPolicies",
                        "uiRepresentation": "Label-Label-Button-Button"
                    },
                    "srcWgtKUID": "e90273bd5e8b4e1cb04a1a09e685cc6c",
                    "type": "event"
                },
                {
                    "group": "General",
                    "kuid": "e25c98a60abc423bb74092131d851cab",
                    "paramList": [
                        {
                            "name": "errorMessage"
                        }
                    ],
                    "propertyKey": "showErrorMessage",
                    "pw": {
                        "displayName": "showErrorMessage",
                        "uiRepresentation": "Label-Label-Button-Button"
                    },
                    "srcWgtKUID": "e90273bd5e8b4e1cb04a1a09e685cc6c",
                    "type": "event"
                }
            ],
            "passthrough": []
        },
        "events": {
            "custom": [
                {
                    "group": "General",
                    "kuid": "c3c343a8503e4bda9f39c3f3237a8e2e",
                    "paramList": [],
                    "propertyIndex": 1,
                    "propertyKey": "onSuccessCallback",
                    "pw": {
                        "displayName": "onSuccessCallback",
                        "uiRepresentation": "Label-Label-Button-Button"
                    },
                    "srcWgtKUID": "e90273bd5e8b4e1cb04a1a09e685cc6c",
                    "type": "event"
                },
                {
                    "group": "General",
                    "kuid": "e4e3c135e46b4356b60afb5bd49518b1",
                    "paramList": [],
                    "propertyIndex": 2,
                    "propertyKey": "onFailureCallback",
                    "pw": {
                        "displayName": "onFailureCallback",
                        "uiRepresentation": "Label-Label-Button-Button"
                    },
                    "srcWgtKUID": "e90273bd5e8b4e1cb04a1a09e685cc6c",
                    "type": "event"
                },
                {
                    "group": "General",
                    "kuid": "c2d05807afb84ef4ac08f5cfd5c7fba9",
                    "paramList": [],
                    "propertyIndex": 3,
                    "propertyKey": "onCancel",
                    "pw": {
                        "displayName": "onCancel",
                        "uiRepresentation": "Label-Label-Button-Button"
                    },
                    "srcWgtKUID": "e90273bd5e8b4e1cb04a1a09e685cc6c",
                    "type": "event"
                }
            ],
            "passthrough": []
        },
        "groups": {
            "apis": [
                "General"
            ],
            "events": [],
            "properties": [
                "Skins",
                "Object Service Details"
            ],
            "widgets": []
        },
        "properties": {
            "custom": [
                {
                    "access": "Write",
                    "defaultValue": "{\"640\" : {\"normalSkin\": \"sknBtnBlockedSSP0273e313px\", \"hoverSkin\": \"sknBtnBlockedSSP0273e313px\", \"focusSkin\": \"sknBtnBlockedSSP0273e313px\"}, \"768\": {\"normalSkin\": \"sknBtnBlockedSSP0273e313px\", \"hoverSkin\": \"sknBtnBlockedSSP0273e313px\", \"focusSkin\": \"sknBtnBlockedSSP0273e313px\"},\"default\": {\"normalSkin\": \"sknBtnBlockedSSP0273e315px\", \"hoverSkin\": \"sknBtnBlockedSSP0273e315px\", \"focusSkin\": \"sknBtnBlockedSSP0273e315px\"}}",
                    "group": "Skins",
                    "kuid": "ffce2581f8324ee88f0ae3b511a8f39e",
                    "originalPropertyKey": "primaryBtnDisableSkin",
                    "propertyIndex": 1,
                    "propertyKey": "primaryBtnDisableSkin",
                    "pw": {
                        "displayName": "Primary Button Disable Skin",
                        "uiRepresentation": "Label-Textbox"
                    },
                    "srcWgtKUID": "e90273bd5e8b4e1cb04a1a09e685cc6c",
                    "type": "string",
                    "value": ""
                },
                {
                    "access": "Write",
                    "defaultValue": "getPasswordRulesAndPolicy",
                    "group": "Object Service Details",
                    "kuid": "j6c1dd3984ba496d80ec09c1ca17d4e6",
                    "originalPropertyKey": "getPasswordRulesAndPolicy",
                    "propertyIndex": 1,
                    "propertyKey": "getPasswordRulesAndPolicy",
                    "pw": {
                        "displayName": "Fetch Password Rules Operation Name",
                        "uiRepresentation": "Label-Textbox"
                    },
                    "srcWgtKUID": "e90273bd5e8b4e1cb04a1a09e685cc6c",
                    "type": "string",
                    "value": ""
                },
                {
                    "access": "Write",
                    "defaultValue": false,
                    "group": "General",
                    "kuid": "dc39e3fbaf6e443ca5f8d46b3d6b392b",
                    "originalPropertyKey": "isCSRAssit",
                    "propertyIndex": 1,
                    "propertyKey": "isCSRAssit",
                    "pw": {
                        "displayName": "Is CSR Assit",
                        "uiRepresentation": "Label-Radiobuttongroup"
                    },
                    "srcWgtKUID": "e90273bd5e8b4e1cb04a1a09e685cc6c",
                    "type": "boolean",
                    "value": "true/false"
                },
                {
                    "access": "Write",
                    "defaultValue": "{\"640\" : {\"normalSkin\": \"sknBtnNormalSSPFFFFFF13Px\", \"hoverSkin\": \"sknBtnNormalSSPFFFFFFHover13Px\", \"focusSkin\": \"sknBtnNormalSSPFFFFFF13PxFocus\"}, \"768\": {\"normalSkin\": \"sknBtnNormalSSPFFFFFF13Px\", \"hoverSkin\": \"sknBtnNormalSSPFFFFFFHover13Px\", \"focusSkin\": \"sknBtnNormalSSPFFFFFF13PxFocus\"}, \"default\": {\"normalSkin\": \"sknBtnNormalSSPFFFFFF15Px\", \"hoverSkin\": \"sknBtnNormalSSPFFFFFFHover15Px\", \"focusSkin\": \"sknBtnNormalSSPFFFFFF15PxFocus\"}}",
                    "group": "Skins",
                    "kuid": "g749d2091524475e9df308bda3a1ce90",
                    "originalPropertyKey": "primaryBtnEnableSkin",
                    "propertyIndex": 2,
                    "propertyKey": "primaryBtnEnableSkin",
                    "pw": {
                        "displayName": "Primary Button Enable Skin",
                        "uiRepresentation": "Label-Textbox"
                    },
                    "srcWgtKUID": "e90273bd5e8b4e1cb04a1a09e685cc6c",
                    "type": "string",
                    "value": ""
                },
                {
                    "access": "Write",
                    "defaultValue": "User",
                    "group": "Object Service Details",
                    "kuid": "a8a8adc11b6545289d3c6bc7710c4d9f",
                    "originalPropertyKey": "dataModel",
                    "propertyIndex": 2,
                    "propertyKey": "dataModel",
                    "pw": {
                        "displayName": "Data Model Name",
                        "uiRepresentation": "Label-Textbox"
                    },
                    "srcWgtKUID": "e90273bd5e8b4e1cb04a1a09e685cc6c",
                    "type": "string",
                    "value": ""
                },
                {
                    "access": "Write",
                    "defaultValue": "RBObjects",
                    "group": "Object Service Details",
                    "kuid": "abe9700a5d9f4d499c815294197b328d",
                    "originalPropertyKey": "objectService",
                    "propertyIndex": 3,
                    "propertyKey": "objectService",
                    "pw": {
                        "displayName": "Object Service Name",
                        "uiRepresentation": "Label-Textbox"
                    },
                    "srcWgtKUID": "e90273bd5e8b4e1cb04a1a09e685cc6c",
                    "type": "string",
                    "value": ""
                },
                {
                    "access": "Write",
                    "defaultValue": "{\"640\":\"sknTbxSSP42424213PxWithoutBorder\", \"768\":\"sknTbxSSP42424213PxWithoutBorder\", \"1024\":\"sknTbxSSP42424215PxWithoutBorder\", \"default\":\"sknTbxSSP42424215PxWithoutBorder\"}",
                    "group": "Skins",
                    "kuid": "e99e6b381dfa41ffb2524050af177bd4",
                    "originalPropertyKey": "textboxSkins",
                    "propertyIndex": 3,
                    "propertyKey": "textboxSkins",
                    "pw": {
                        "displayName": "Textbox Skins",
                        "uiRepresentation": "Label-Textbox"
                    },
                    "srcWgtKUID": "e90273bd5e8b4e1cb04a1a09e685cc6c",
                    "type": "string",
                    "value": ""
                },
                {
                    "access": "Write",
                    "defaultValue": "updateDBXUserPassword",
                    "group": "Object Service Details",
                    "kuid": "g0b936757b6c444297dbc6dadc8d8880",
                    "originalPropertyKey": "updatePassword",
                    "propertyIndex": 4,
                    "propertyKey": "updatePassword",
                    "pw": {
                        "displayName": "Update Password Operation Name",
                        "uiRepresentation": "Label-Textbox"
                    },
                    "srcWgtKUID": "e90273bd5e8b4e1cb04a1a09e685cc6c",
                    "type": "string",
                    "value": ""
                },
                {
                    "access": "Write",
                    "defaultValue": "{\"normalSkin\": \"sknBorderE3E3E3\", \"focusSkin\": \"sknFlxBorder4A90E23px\", \"errorSkin\": \"sknborderff0000error\"}",
                    "group": "Skins",
                    "kuid": "e7a01833febb4f818cd86fdf0823abd7",
                    "originalPropertyKey": "flexSkins",
                    "propertyIndex": 4,
                    "propertyKey": "flexSkins",
                    "pw": {
                        "displayName": "Flex Skins",
                        "uiRepresentation": "Label-Textbox"
                    },
                    "srcWgtKUID": "e90273bd5e8b4e1cb04a1a09e685cc6c",
                    "type": "string",
                    "value": ""
                },
                {
                    "access": "Write",
                    "defaultValue": "verifyExistingPassword",
                    "group": "Object Service Details",
                    "kuid": "a184339eb7dc4f59b84ab73d8f617418",
                    "originalPropertyKey": "verifyExistingPassword",
                    "propertyIndex": 5,
                    "propertyKey": "verifyExistingPassword",
                    "pw": {
                        "displayName": "Verify Existing Password Operation ",
                        "uiRepresentation": "Label-Textbox"
                    },
                    "srcWgtKUID": "e90273bd5e8b4e1cb04a1a09e685cc6c",
                    "type": "string",
                    "value": ""
                },
                {
                    "access": "Write",
                    "defaultValue": "DbxUser",
                    "group": "Object Service Details",
                    "kuid": "bdd61afaa6434a6484b499745554691e",
                    "originalPropertyKey": "dbxUserDataModel",
                    "propertyIndex": 6,
                    "propertyKey": "dbxUserDataModel",
                    "pw": {
                        "displayName": "User Data Model Name",
                        "uiRepresentation": "Label-Textbox"
                    },
                    "srcWgtKUID": "e90273bd5e8b4e1cb04a1a09e685cc6c",
                    "type": "string",
                    "value": ""
                }
            ],
            "passthrough": []
        },
        "widgets": {
            "expose": [],
            "passthrough": []
        }
    },
    "namespace": "com.temenos.infinity",
    "version": "1.0.0"
}