{
	 "@class": "com.kony.gen.viz.model.component.KVizLabel",
	 "DNDConfig": null,
	 "__parentReadjusting__": false,
	 "_height_": {
		 "type": "string",
		 "value": "1dp"
	},
	 "_margin_": [
		 1,
		 1,
		 1,
		 1
	],
	 "_padding_": [
		 0,
		 0,
		 0,
		 0
	],
	 "_skin_": "s6d03e4149764f9ba44ea8e97ff10698",
	 "_text_": "",
	 "_top_": {
		 "type": "string",
		 "value": "-1dp"
	},
	 "_width_": {
		 "type": "string",
		 "value": "100%"
	},
	 "_wrapping_": 2,
	 "accessibilityconfig": {
		 "a11yLabel": "randomValue",
		 "a11yHidden": true,
		 "a11yARIA": {
			 "tabindex": -1
		}
	},
	 "android": {
		 "textStyle": {
			 "letterSpacing": 0,
			 "strikeThrough": false
		}
	},
	 "canUpdateUI": true,
	 "centerx": {
		 "type": "string",
		 "value": "50%"
	},
	 "containerId": true,
	 "containerweight": 100,
	 "contentalignment": 4,
	 "id": "lblSeperatorone",
	 "info": null,
	 "ipad": {
		 "psp": {
			 "wrapping": 2
		}
	},
	 "iphone": {
		 "psp": {
			 "wrapping": 2
		}
	},
	 "isvisible": true,
	 "kuid": "e7635f399c9941a08d446d8bb6ce2519",
	 "name": "kony.ui.Label",
	 "parent": "flxBottom",
	 "pf": "segBillPayScheduledSelectedMobile",
	 "tooltip": "",
	 "wType": "Label",
	 "zindex": 1
}