{
	 "@class": "com.kony.gen.viz.model.component.KVizImage2",
	 "DNDConfig": null,
	 "__parentReadjusting__": false,
	 "_base64_": null,
	 "_height_": {
		 "type": "string",
		 "value": "15dp"
	},
	 "_left_": {
		 "type": "string",
		 "value": "7dp"
	},
	 "_margin_": [
		 0,
		 0,
		 0,
		 0
	],
	 "_padding_": [
		 0,
		 0,
		 0,
		 0
	],
	 "_skin_": "s8ee487de5774c1eb668e74bf92f5cdd",
	 "_src_": "sorting.png",
	 "_width_": {
		 "type": "string",
		 "value": "12dp"
	},
	 "accessibilityconfig": {
		 "a11yLabel": "Sort",
		 "a11yValue": ""
	},
	 "canUpdateUI": true,
	 "centery": {
		 "type": "string",
		 "value": "50%"
	},
	 "containerweight": 100,
	 "context": {
		 "channel": "desktop",
		 "formID": "uwu3cbe30fca7545b2bc4fc1612342db5a",
		 "platform": "desktopweb",
		 "templateType": "userwidgets",
		 "topLevelBox": null
	},
	 "id": "CopyimgSortPayee0h18cd98de27745",
	 "imagescalemode": 1,
	 "imagewhiledownloading": "img_transparent.png",
	 "info": null,
	 "invokedProperty": "src",
	 "isvisible": true,
	 "kuid": "acb4dda3b7364733bf9b33b40a92f2e9",
	 "name": "kony.ui.Image2",
	 "parent": "CopyflxPayeeWrapper0ja1d65472f5b43",
	 "pf": "userwidgetmodel",
	 "srcType": 1,
	 "tooltip": "Sort By Payee",
	 "wType": "Image",
	 "widgetalignment": 5,
	 "zindex": 1
}