{
	 "@class": "com.kony.gen.viz.model.component.KVizImage2",
	 "DNDConfig": null,
	 "__parentReadjusting__": false,
	 "_base64_": null,
	 "_height_": {
		 "type": "string",
		 "value": "15dp"
	},
	 "_left_": {
		 "type": "string",
		 "value": "7dp"
	},
	 "_margin_": [
		 0,
		 0,
		 0,
		 0
	],
	 "_padding_": [
		 0,
		 0,
		 0,
		 0
	],
	 "_skin_": "s78a5f26c9f14cec9ebed1bb46098f80",
	 "_src_": "sortingfinal.png",
	 "_width_": {
		 "type": "string",
		 "value": "12dp"
	},
	 "accessibilityconfig": {
		 "a11yLabel": "Sort",
		 "a11yValue": ""
	},
	 "canUpdateUI": true,
	 "centery": {
		 "type": "string",
		 "value": "50%"
	},
	 "containerweight": 100,
	 "context": {
		 "channel": "desktop",
		 "formID": "uwu3cbe30fca7545b2bc4fc1612342db5a",
		 "platform": "desktopweb",
		 "templateType": "userwidgets",
		 "topLevelBox": null
	},
	 "id": "CopyimgSortDatee0i6778bd50dbf47",
	 "imagescalemode": 1,
	 "imagewhiledownloading": "img_transparent.png",
	 "info": null,
	 "invokedProperty": "src",
	 "isvisible": true,
	 "kuid": "gcc966f76e47498dab5e6474f367ffca",
	 "name": "kony.ui.Image2",
	 "parent": "CopyflxDate0e9f719bff5034e",
	 "pf": "userwidgetmodel",
	 "srcType": 1,
	 "tooltip": "Sort By Due Date",
	 "wType": "Image",
	 "widgetalignment": 5,
	 "zindex": 1
}