{
    "@class": "com.kony.gen.viz.model.component.KVizUserWidget",
    "DNDConfig": null,
    "__parentReadjusting__": false,
    "_android_": {},
    "_androidwearos_": {},
    "_bottom_": {
        "Default": {
            "type": "string",
            "value": ""
        }
    },
    "_children_": [],
    "_desktopweb_": {},
    "_height_": {
        "type": "string",
        "value": "60dp"
    },
    "_ipad_": {},
    "_iphone_": {},
    "_kiosk_": {},
    "_left_": {
        "Default": {
            "type": "string",
            "value": "0dp"
        }
    },
    "_margin_": [
        0,
        0,
        0,
        0
    ],
    "_orientation_": 1,
    "_padding_": [
        0,
        0,
        0,
        0
    ],
    "_percent_": true,
    "_render_": true,
    "_responsiveData_": {},
    "_skin_": "s24c92fc23b14f5484b693ee9b8a9b35",
    "_spa_": {},
    "_spaan_": {},
    "_spaandroidtablet_": {},
    "_spabb_": {},
    "_spaip_": {},
    "_spaipad_": {},
    "_spamobile_": {},
    "_spatablet_": {},
    "_spawindowstablet_": {},
    "_spawinphone8_": {},
    "_tabrcandroid_": {},
    "_top_": {
        "Default": {
            "type": "string",
            "value": "-40dp"
        }
    },
    "_vizProps_": {
        "hidewidgethierarchy": false
    },
    "_width_": {
        "type": "string",
        "value": "100%"
    },
    "_windows10_": {},
    "_windows8_": {},
    "_winphone10_": {},
    "_winphone8_": {},
    "areflexpropsreferenced": false,
    "canUpdateUI": true,
    "clipbounds": true,
    "containerweight": 0,
    "dataDiffs": {
        "flxPaginationFirst": {
            "__events__": {},
            "__info__": {
                "kuid": "h8a8f74ac06247eaa953da36ac6eb243",
                "srcKUID": "dc5425bcffde40bba077f3ef27070e02",
                "wType": "FlexContainer"
            },
            "isVisible": false,
            "left": {
                "Default": {
                    "Default": {
                        "type": "string",
                        "value": "30dp"
                    }
                }
            },
            "responsiveData": {}
        },
        "flxPaginationLast": {
            "__events__": {},
            "__info__": {
                "kuid": "cd7bc5cd21014d5e8b8d428f91a38f20",
                "srcKUID": "e5732cffb816477cbfc5cacac88a046a",
                "wType": "FlexContainer"
            }
        },
        "flxPaginationNext": {
            "__events__": {},
            "__info__": {
                "kuid": "a4fe40e4bd9047e8a5e2ed9af93a938f",
                "srcKUID": "f98d1324102c48ce890e02e4539c1c49",
                "wType": "FlexContainer"
            }
        },
        "flxPaginationPrevious": {
            "__events__": {},
            "__info__": {
                "kuid": "d617148d05e04a3c8d5590bbc28fa34a",
                "srcKUID": "h7d55c477073421abc369f7b38c6c8ac",
                "wType": "FlexContainer"
            }
        },
        "tablePagination": {
            "__events__": {},
            "__info__": {
                "isRoot": true,
                "kuid": "j890b9db63cc4902a53ea4ed94fa7949",
                "srcKUID": "d0682091242b4be393889732aa217f2b",
                "wType": "FlexContainer"
            },
            "bottom": {
                "Default": {
                    "Default": {
                        "type": "string",
                        "value": ""
                    }
                }
            },
            "isVisible": true,
            "left": {
                "Default": {
                    "Default": {
                        "type": "string",
                        "value": "0dp"
                    }
                }
            },
            "responsiveData": {},
            "top": {
                "Default": {
                    "Default": {
                        "type": "string",
                        "value": "-40dp"
                    }
                }
            }
        }
    },
    "id": "tablePagination",
    "info": null,
    "isdatareferenced": false,
    "isvisible": true,
    "kuid": "j890b9db63cc4902a53ea4ed94fa7949",
    "layouttype": 2,
    "masterType": 0,
    "name": "kony.ui.UserWidgetInstance",
    "parent": "flxSegment",
    "pf": "frmFastViewActivity",
    "snaptogrid": true,
    "sourceUserWidget": "d0682091242b4be393889732aa217f2b",
    "wType": "UserWidgetInstance"
}