{
    "classname": "rememberMe",
    "definitions": {
        "apis": {
            "custom": [
                {
                    "group": "General",
                    "kuid": "c154bd0d0397487bb3f9f5ed4a43c4dc",
                    "paramList": [],
                    "propertyKey": "isRememberMe",
                    "pw": {
                        "displayName": "isRememberMe",
                        "uiRepresentation": "Label-Label-Button-Button"
                    },
                    "srcWgtKUID": "u9d7dcc1566348ce9bd0d1b8620913e0",
                    "type": "event"
                }
            ],
            "passthrough": []
        },
        "events": {
            "custom": [
                {
                    "group": "General",
                    "kuid": "b2c208c034d14b508eb593bca70678b2",
                    "paramList": [],
                    "propertyIndex": 1,
                    "propertyKey": "cantSignIn",
                    "pw": {
                        "displayName": "cantSignIn",
                        "uiRepresentation": "Label-Label-Button-Button"
                    },
                    "srcWgtKUID": "u9d7dcc1566348ce9bd0d1b8620913e0",
                    "type": "event"
                }
            ],
            "passthrough": []
        },
        "groups": {
            "apis": [
                "General"
            ],
            "events": [],
            "properties": [],
            "widgets": []
        },
        "properties": {
            "custom": [],
            "passthrough": []
        },
        "widgets": {
            "expose": [],
            "passthrough": []
        }
    },
    "namespace": "com.temenos.infinity.sca",
    "version": "1.0.0"
}