{
    "@class": "com.kony.gen.viz.model.component.KVizButton",
    "DNDConfig": null,
    "__parentReadjusting__": false,
    "_bottom_": {
        "type": "string",
        "value": "30dp"
    },
    "_height_": {
        "type": "string",
        "value": "40dp"
    },
    "_left_": {
        "type": "number",
        "value": ""
    },
    "_margin_": [
        6,
        6,
        6,
        6
    ],
    "_padding_": [
        5,
        0,
        5,
        0
    ],
    "_right_": {
        "type": "string",
        "value": "3%"
    },
    "_skin_": "sa611611b2f24e93bcfd09e1606c0d86",
    "_text_": "Button",
    "_top_": {
        "type": "string",
        "value": "30dp"
    },
    "_width_": {
        "type": "ref",
        "value": "preferred"
    },
    "canUpdateUI": true,
    "containerweight": 100,
    "contentalignment": 5,
    "desktopweb": {
        "psp": {
            "hoverSkin": "sb6e78b4178d435fa5be5d1f96342e33"
        }
    },
    "disabledSkins": {},
    "displaytext": true,
    "focusskin": "s434743e49c446699565893e4974ec52",
    "hoverskin": "",
    "id": "btnNoThanks",
    "info": null,
    "iscustomlayout": false,
    "isvisible": true,
    "kuid": "f28afd628d8e4d299cdf94219e12b528",
    "name": "kony.ui.Button",
    "paddinginpixel": false,
    "parent": "flxButtons",
    "pf": "frmP2PNotEligible",
    "responsiveData": {
        "b1": {
            "desktopweb": {
                "psp": {}
            },
            "right": {
                "type": "string",
                "value": "35%"
            },
            "width": {
                "type": "string",
                "value": "30%"
            }
        },
        "b2": {
            "right": {
                "type": "string",
                "value": "35%"
            },
            "width": {
                "type": "string",
                "value": "30%"
            }
        },
        "b3": {
            "bottom": {
                "type": "string",
                "value": "20dp"
            },
            "desktopweb": {
                "psp": {}
            },
            "isVisible": true,
            "left": {
                "type": "string",
                "value": "3%"
            },
            "top": {
                "type": "string",
                "value": "80dp"
            }
        },
        "b4": {
            "right": {
                "type": "string",
                "value": "35%"
            },
            "width": {
                "type": "string",
                "value": "30%"
            }
        }
    },
    "retaincontentalignment": false,
    "retainflexpositionproperties": false,
    "texti18n": "i18n.BillPay.NOTHANKS",
    "wType": "Button",
    "zindex": 1
}