{
    "@class": "com.kony.gen.viz.model.component.KVizLabel",
    "DNDConfig": null,
    "_height_": {
        "type": "ref",
        "value": "preferred"
    },
    "_left_": {
        "type": "string",
        "value": "0%"
    },
    "_margin_": [
        1,
        1,
        1,
        1
    ],
    "_padding_": [
        0,
        0,
        0,
        0
    ],
    "_skin_": "sd58e7dec3cf45cfb721a7ac97d2837a",
    "_text_": "Select company to view & edit permissions",
    "_top_": {
        "type": "string",
        "value": "19px"
    },
    "_width_": {
        "type": "ref",
        "value": "preferred"
    },
    "_wrapping_": 2,
    "android": {
        "textStyle": {
            "letterSpacing": 0,
            "strikeThrough": false
        }
    },
    "canUpdateUI": true,
    "containerweight": 100,
    "contentalignment": 4,
    "id": "lblNoRecordRole",
    "info": null,
    "ipad": {
        "psp": {
            "wrapping": 2
        }
    },
    "iphone": {
        "psp": {
            "wrapping": 2
        }
    },
    "iscustomlayout": false,
    "isvisible": true,
    "kuid": "db1fcc769e09438e9cfde40cc826295d",
    "name": "kony.ui.Label",
    "parent": "flxRoleLeftContainer",
    "pf": "frmNonAccountLevelFeature",
    "responsiveData": {
        "b1": {
            "width": {
                "type": "string",
                "value": "90%"
            }
        },
        "b2": {
            "width": {
                "type": "string",
                "value": "90%"
            }
        },
        "b4": {
            "isVisible": true,
            "width": {
                "type": "string",
                "value": "90%"
            }
        }
    },
    "retaincontentalignment": false,
    "retainflexpositionproperties": false,
    "texti18n": "i18n.UserManagement.SelectCompany",
    "tooltip": "",
    "wType": "Label"
}