{
    "@class": "com.kony.gen.viz.model.component.KVizButton",
    "DNDConfig": null,
    "_height_": {
        "type": "ref",
        "value": "preferred"
    },
    "_left_": {
        "type": "string",
        "value": "22%"
    },
    "_margin_": [
        6,
        6,
        6,
        6
    ],
    "_padding_": [
        0,
        0,
        0,
        0
    ],
    "_right_": {
        "type": "number",
        "value": ""
    },
    "_skin_": "s3392ef9d10746188bd552dff50e1b72",
    "_text_": "Edit  Advanced Permissions",
    "_top_": {
        "type": "string",
        "value": "10dp"
    },
    "_width_": {
        "type": "ref",
        "value": "preferred"
    },
    "canUpdateUI": true,
    "centery": {
        "type": "number",
        "value": ""
    },
    "containerweight": 100,
    "contentalignment": 5,
    "displaytext": true,
    "focusskin": "sd3d7d8bf6784b30adadc45c3bbb44e0",
    "id": "btnTransactionLimits",
    "info": null,
    "iscustomlayout": false,
    "isvisible": true,
    "kuid": "f26b642e96d9475493374aa786574a80",
    "name": "kony.ui.Button",
    "parent": "flxLabel1",
    "pf": "frmFeaturePermissions",
    "responsiveData": {
        "b1": {
            "centerY": {
                "type": "string",
                "value": "50%"
            },
            "left": {
                "type": "string",
                "value": "33%"
            },
            "right": {
                "type": "string",
                "value": "3%"
            },
            "skin": "sd3d7d8bf6784b30adadc45c3bbb44e0",
            "top": {
                "type": "number",
                "value": "0"
            }
        },
        "b2": {
            "centerY": {
                "type": "string",
                "value": "25dp"
            },
            "left": {
                "type": "string",
                "value": "16%"
            },
            "skin": "sd3d7d8bf6784b30adadc45c3bbb44e0",
            "top": {
                "type": "string",
                "value": ""
            }
        },
        "b4": {
            "centerY": {
                "type": "string",
                "value": "50%"
            },
            "left": {
                "type": "string",
                "value": "33%"
            },
            "skin": "sd3d7d8bf6784b30adadc45c3bbb44e0"
        }
    },
    "retaincontentalignment": false,
    "retainflexpositionproperties": false,
    "wType": "Button",
    "zindex": 1
}