{
    "@class": "com.kony.gen.viz.model.component.KVizButton",
    "DNDConfig": null,
    "_height_": {
        "type": "ref",
        "value": "preferred"
    },
    "_left_": {
        "type": "string",
        "value": "700dp"
    },
    "_margin_": [
        6,
        6,
        6,
        6
    ],
    "_padding_": [
        0,
        0,
        0,
        0
    ],
    "_right_": {
        "type": "number",
        "value": ""
    },
    "_skin_": "s3392ef9d10746188bd552dff50e1b72",
    "_text_": "Reset to Default",
    "_top_": {
        "type": "string",
        "value": "15%"
    },
    "_width_": {
        "type": "ref",
        "value": "preferred"
    },
    "canUpdateUI": true,
    "centery": {
        "type": "string",
        "value": ""
    },
    "containerweight": 100,
    "contentalignment": 5,
    "displaytext": true,
    "focusskin": "sd3d7d8bf6784b30adadc45c3bbb44e0",
    "id": "btnViewNEdit",
    "info": null,
    "iscustomlayout": false,
    "isvisible": true,
    "kuid": "dd474f68c9a7452e9ba0422a518c8f7f",
    "name": "kony.ui.Button",
    "parent": "flxLabelsHeader",
    "pf": "frmFeaturePermissions",
    "responsiveData": {
        "b1": {
            "right": {
                "type": "string",
                "value": "3%"
            },
            "skin": "sd3d7d8bf6784b30adadc45c3bbb44e0"
        },
        "b2": {
            "left": {
                "type": "string",
                "value": "370dp"
            },
            "skin": "sd3d7d8bf6784b30adadc45c3bbb44e0"
        },
        "b4": {
            "skin": "sd3d7d8bf6784b30adadc45c3bbb44e0"
        }
    },
    "retaincontentalignment": false,
    "retainflexpositionproperties": false,
    "texti18n": "i18n.UserManagement.ResetToDefault",
    "wType": "Button",
    "zindex": 1
}