{
    "DNDConfig": null,
    "_height_": {
        "type": "ref",
        "value": "preferred"
    },
    "_left_": {
        "type": "string",
        "value": "0dp"
    },
    "_margin_": [
        0,
        0,
        0,
        0
    ],
    "_orientation_": 6,
    "_padding_": [
        0,
        0,
        0,
        0
    ],
    "_percent_": true,
    "_skin_": "s8823f92dd17459d8dbd603fe9224e85",
    "_top_": {
        "type": "string",
        "value": "3dp"
    },
    "_width_": {
        "type": "string",
        "value": "100%"
    },
    "allboxes": [],
    "autogrowmode": 1,
    "canUpdateUI": true,
    "children": [
        "segTransactionLimits"
    ],
    "clipbounds": true,
    "containerweight": 100,
    "enablescrolling": true,
    "id": "flxSegTransactionLimits",
    "info": null,
    "iscustomlayout": false,
    "isvisible": true,
    "kuid": "fc3e6ed3f3b546d19a55b64bd330c912",
    "layouttype": 2,
    "minwidth": {
        "type": "number",
        "value": ""
    },
    "name": "kony.ui.FlexContainer",
    "parent": "flxUserRoles",
    "pf": "frmFeaturePermissions",
    "responsiveData": {
        "b1": {
            "minWidth": {
                "type": "string",
                "value": ""
            }
        },
        "b2": {
            "minWidth": {
                "type": "string",
                "value": ""
            },
            "skin": "secff68ee7904525acebc42c36c39094",
            "top": {
                "type": "string",
                "value": "0dp"
            }
        },
        "b4": {
            "minWidth": {
                "type": "string",
                "value": ""
            }
        }
    },
    "retaincontentalignment": false,
    "retainflexpositionproperties": false,
    "retainflowhorizontalalignment": false,
    "snapgridsize": 10,
    "snaptogrid": true,
    "wType": "FlexContainer",
    "widgetalignment": 1
}