{
    "DNDConfig": null,
    "_height_": {
        "type": "ref",
        "value": "preferred"
    },
    "_left_": {
        "type": "string",
        "value": "0dp"
    },
    "_margin_": [
        0,
        0,
        0,
        0
    ],
    "_orientation_": 6,
    "_padding_": [
        0,
        0,
        0,
        0
    ],
    "_percent_": true,
    "_skin_": "s8823f92dd17459d8dbd603fe9224e85",
    "_top_": {
        "type": "string",
        "value": "0dp"
    },
    "_width_": {
        "type": "string",
        "value": "1px"
    },
    "allboxes": [],
    "autogrowmode": 0,
    "canUpdateUI": true,
    "children": [],
    "clipbounds": true,
    "containerweight": 100,
    "enablescrolling": true,
    "id": "flxSideSeparator",
    "info": null,
    "iscustomlayout": false,
    "isvisible": true,
    "kuid": "h796e521263b450b986c0e9149657c44",
    "layouttype": 2,
    "name": "kony.ui.FlexContainer",
    "parent": "flxRoleMainContainer",
    "pf": "frmFeaturePermissions",
    "responsiveData": {
        "b1": {
            "height": {
                "type": "string",
                "value": "900px"
            }
        },
        "b2": {
            "height": {
                "type": "string",
                "value": "900px"
            }
        },
        "b4": {
            "height": {
                "type": "string",
                "value": "900px"
            }
        }
    },
    "retaincontentalignment": false,
    "retainflexpositionproperties": false,
    "snapgridsize": 10,
    "snaptogrid": true,
    "wType": "FlexContainer",
    "widgetalignment": 1,
    "zindex": 1
}