{
    "@class": "com.kony.gen.viz.model.component.KVizImage2",
    "DNDConfig": null,
    "_base64_": null,
    "_height_": {
        "type": "string",
        "value": "75%"
    },
    "_left_": {
        "type": "string",
        "value": "20dp"
    },
    "_margin_": [
        0,
        0,
        0,
        0
    ],
    "_padding_": [
        0,
        0,
        0,
        0
    ],
    "_skin_": "s49ad43497ea44c38956e89cc5a4e654",
    "_src_": "icon_close_grey_2.png",
    "_width_": {
        "type": "string",
        "value": "5%"
    },
    "accessibilityconfig": {
        "a11yLabel": "Close",
        "a11yValue": ""
    },
    "canUpdateUI": true,
    "centery": {
        "type": "string",
        "value": "50%"
    },
    "containerweight": 100,
    "id": "imgCloseDowntimeWarning",
    "imagescalemode": 1,
    "imagewhiledownloading": "img_transparent_2.png",
    "info": null,
    "invokedProperty": "src",
    "isvisible": true,
    "kuid": "j40ecb652a244a1fad3618cb42d24ed9",
    "name": "kony.ui.Image2",
    "parent": "flxDowntimeWarning",
    "pf": "frmFeaturePermissions",
    "srcType": 1,
    "tooltip": "Close",
    "wType": "Image",
    "widgetalignment": 5,
    "zindex": 1
}