{
    "@class": "com.kony.gen.viz.model.component.KVizLabel",
    "DNDConfig": null,
    "_height_": {
        "type": "ref",
        "value": "preferred"
    },
    "_left_": {
        "type": "string",
        "value": "10%"
    },
    "_margin_": [
        0,
        0,
        0,
        0
    ],
    "_padding_": [
        0,
        0,
        0,
        0
    ],
    "_skin_": "s5b5d2802d29421e91f20a1ec11d45e4",
    "_text_": "C",
    "_top_": {
        "type": "string",
        "value": "0dp"
    },
    "_width_": {
        "type": "string",
        "value": "30dp"
    },
    "_wrapping_": 2,
    "accessibilityconfig": {
        "a11yLabel": "Radio Button"
    },
    "android": {
        "textStyle": {
            "letterSpacing": 0,
            "strikeThrough": false
        }
    },
    "canUpdateUI": true,
    "centerx": {
        "type": "string",
        "value": "50%"
    },
    "centery": {
        "type": "string",
        "value": "50%"
    },
    "containerweight": 100,
    "contentalignment": 1,
    "id": "lblCheckBox2",
    "info": null,
    "ipad": {
        "psp": {
            "wrapping": 2
        }
    },
    "iphone": {
        "psp": {
            "wrapping": 2
        }
    },
    "isvisible": true,
    "kuid": "f383a556f052482294c99eabc3114679",
    "name": "kony.ui.Label",
    "parent": "flxCheckBoxes",
    "pf": "frmFeaturePermissions",
    "responsiveData": {
        "b1": {
            "centerX": {
                "type": "string",
                "value": ""
            },
            "skin": "sbf892219fd04dbcae8a4a76f57b2ae0"
        },
        "b2": {
            "centerX": {
                "type": "string",
                "value": "35%"
            },
            "centerY": {
                "type": "string",
                "value": ""
            },
            "contentAlignment": 5,
            "height": {
                "type": "string",
                "value": "30%"
            },
            "left": {
                "type": "string",
                "value": "20%"
            },
            "skin": "sbf892219fd04dbcae8a4a76f57b2ae0",
            "top": {
                "type": "string",
                "value": "2%"
            }
        },
        "b4": {
            "centerX": {
                "type": "string",
                "value": ""
            },
            "contentAlignment": 2,
            "skin": "sbf892219fd04dbcae8a4a76f57b2ae0"
        }
    },
    "tooltip": "",
    "wType": "Label",
    "zindex": 1
}