{
    "@class": "com.kony.gen.viz.model.component.KVizLabel",
    "DNDConfig": null,
    "_height_": {
        "type": "ref",
        "value": "preferred"
    },
    "_left_": {
        "type": "string",
        "value": "2.80%"
    },
    "_margin_": [
        1,
        1,
        1,
        1
    ],
    "_padding_": [
        0,
        0,
        0,
        0
    ],
    "_skin_": "sd58e7dec3cf45cfb721a7ac97d2837a",
    "_text_": "Select company",
    "_width_": {
        "type": "ref",
        "value": "preferred"
    },
    "_wrapping_": 2,
    "accessibilityconfig": {
        "a11yLabel": "Wire Transfer Activity"
    },
    "android": {
        "textStyle": {
            "letterSpacing": 0,
            "strikeThrough": false
        }
    },
    "canUpdateUI": true,
    "centery": {
        "type": "string",
        "value": "50%"
    },
    "containerweight": 100,
    "contentalignment": 4,
    "id": "lblSubMainHeader",
    "info": null,
    "ipad": {
        "psp": {
            "wrapping": 2
        }
    },
    "iphone": {
        "psp": {
            "wrapping": 2
        }
    },
    "isvisible": true,
    "kuid": "e8feb7972f53493f9dc2b0e0a4d03641",
    "name": "kony.ui.Label",
    "parent": "flxSubMainHeader",
    "pf": "frmFeaturePermissions",
    "responsiveData": {
        "b1": {
            "left": {
                "type": "string",
                "value": "22dp"
            }
        },
        "b2": {
            "left": {
                "type": "string",
                "value": "1%"
            }
        },
        "b4": {
            "left": {
                "type": "string",
                "value": "22dp"
            }
        }
    },
    "texti18n": "i18n.userManagement.selectCompanies",
    "tooltip": "",
    "wType": "Label",
    "zindex": 1
}