{
    "DNDConfig": null,
    "_height_": {
        "type": "string",
        "value": "152dp"
    },
    "_left_": {
        "type": "string",
        "value": "0%"
    },
    "_margin_": [
        0,
        0,
        0,
        0
    ],
    "_orientation_": 6,
    "_padding_": [
        0,
        0,
        0,
        0
    ],
    "_percent_": true,
    "_skin_": "se157b646e7444c1bf47ee03edfbb730",
    "_width_": {
        "type": "string",
        "value": "50%"
    },
    "allboxes": [],
    "autogrowmode": 0,
    "canUpdateUI": true,
    "children": [],
    "clipbounds": true,
    "containerweight": 100,
    "enablescrolling": true,
    "id": "sknleftcontainer",
    "info": null,
    "isvisible": true,
    "kuid": "j2b29fadcb8846dcbb23fc05cebd1bda",
    "layouttype": 3,
    "name": "kony.ui.FlexContainer",
    "parent": "flxskncontainer",
    "pf": "frmFeaturePermissions",
    "snapgridsize": 10,
    "snaptogrid": true,
    "wType": "FlexContainer",
    "widgetalignment": 1,
    "zindex": 1
}