{
    "@class": "com.kony.gen.viz.model.component.KVizLabel",
    "DNDConfig": null,
	 "__parentReadjusting__": false,
    "_height_": {
        "type": "string",
        "value": "1px"
    },
    "_left_": {
        "type": "string",
        "value": "30dp"
    },
    "_margin_": [
        1,
        1,
        1,
        1
    ],
    "_padding_": [
        0,
        0,
        0,
        0
    ],
    "_right_": {
        "type": "string",
        "value": "30dp"
    },
    "_skin_": "s284604f72ed4720b0351eff49faadce",
    "_text_": "a",
    "_top_": {
        "type": "string",
        "value": "20dp"
    },
    "_width_": {
        "type": "string",
        "value": "93%"
    },
    "_wrapping_": 2,
    "accessibilityconfig": {
        "a11yARIA": {
            "tabindex": -1
        },
        "a11yHidden": true
    },
    "android": {
        "textStyle": {
            "letterSpacing": 0,
            "strikeThrough": false
        }
    },
    "canUpdateUI": true,
    "containerweight": 100,
    "contentalignment": 4,
    "id": "lblSeparator",
    "info": null,
    "ipad": {
        "psp": {
            "wrapping": 2
        }
    },
    "iphone": {
        "psp": {
            "wrapping": 2
        }
    },
    "isvisible": true,
    "kuid": "d298a6e307f540dca339c8fd08ffdba1",
    "name": "kony.ui.Label",
    "parent": "flxEditPrimaryDetails",
    "pf": "frmCreateTemplatePrimaryDetails",
    "responsiveData": {
        "b2": {
            "top": {
                "type": "string",
                "value": "8dp"
            }
        },
        "b4": {
            "left": {
                "type": "string",
                "value": "18px"
            },
            "top": {
                "type": "string",
                "value": "49px"
            }
        }
    },
    "texti18n": "i18n.NUO.ThisNumberIsAlreadyRegisteredWithCustomer",
    "tooltip": "",
    "wType": "Label",
    "zindex": 1
}