{
    "@class": "com.kony.gen.viz.model.component.KVizButton",
    "DNDConfig": null,
    "__parentReadjusting__": false,
    "_bottom_": {
        "type": "string",
        "value": "30dp"
    },
    "_height_": {
        "type": "string",
        "value": "40dp"
    },
    "_left_": {
        "type": "number",
        "value": ""
    },
    "_margin_": [
        6,
        6,
        6,
        6
    ],
    "_padding_": [
        0,
        0,
        0,
        0
    ],
    "_right_": {
        "type": "string",
        "value": "30%"
    },
    "_skin_": "s95376e131db404ebbe858e3b39046ef",
    "_text_": "Button",
    "_top_": {
        "type": "string",
        "value": "30dp"
    },
    "_width_": {
        "type": "string",
        "value": "25%"
    },
    "canUpdateUI": true,
    "containerweight": 100,
    "contentalignment": 5,
    "desktopweb": {
        "psp": {
            "hoverSkin": "s7ab6326aaf94c28b90b61fcb1b54547"
        }
    },
    "disabledSkins": {},
    "displaytext": true,
    "focusskin": "sfd0ce0d7f454c9f83c7e815a90a8a55",
    "id": "btnAddRecipient",
    "info": null,
    "iscustomlayout": false,
    "isvisible": true,
    "kuid": "f80e1d1fd2a647aea2d889461c136828",
    "name": "kony.ui.Button",
    "paddinginpixel": false,
    "parent": "flxButtons",
    "pf": "frmP2PNoRecipients",
    "responsiveData": {
        "b1": {},
        "b2": {},
        "b3": {
            "bottom": {
                "type": "string",
                "value": "80dp"
            },
            "isVisible": true,
            "left": {
                "type": "string",
                "value": "3%"
            },
            "top": {
                "type": "string",
                "value": ""
            },
            "width": {
                "type": "string",
                "value": "94%"
            }
        },
        "b4": {}
    },
    "retaincontentalignment": false,
    "retainflexpositionproperties": false,
    "texti18n": "i18n.PayAPerson.AddRecipient",
    "wType": "Button",
    "zindex": 1
}