{
    "@class": "com.kony.gen.viz.model.component.KVizUserWidget",
    "DNDConfig": null,
    "__parentReadjusting__": false,
    "_android_": {},
    "_androidwearos_": {},
    "_children_": [],
    "_desktopweb_": {
        "psp": {
            "hoverSkin": "sd9e86844ff84dedabc01afb567d419b"
        }
    },
    "_height_": {
        "type": "string",
        "value": "14%"
    },
    "_ipad_": {},
    "_iphone_": {},
    "_kiosk_": {},
    "_left_": {
        "type": "string",
        "value": "0dp"
    },
    "_margin_": [
        0,
        0,
        0,
        0
    ],
    "_orientation_": 1,
    "_padding_": [
        0,
        0,
        0,
        0
    ],
    "_percent_": true,
    "_render_": true,
    "_responsiveData_": {
        "b1": {
            "height": {
                "type": "string",
                "value": "60dp"
            },
            "top": {
                "type": "string",
                "value": "7.04%"
            },
            "width": {
                "type": "string",
                "value": "88%"
            }
        },
        "b2": {
            "height": {
                "type": "string",
                "value": "60dp"
            },
            "top": {
                "type": "string",
                "value": "1%"
            },
            "width": {
                "type": "string",
                "value": "70%"
            }
        },
        "b3": {
            "height": {
                "type": "string",
                "value": "60dp"
            },
            "top": {
                "type": "string",
                "value": "1dp"
            },
            "width": {
                "type": "string",
                "value": "70%"
            }
        },
        "b4": {
            "height": {
                "type": "string",
                "value": "60dp"
            },
            "top": {
                "type": "string",
                "value": "1%"
            },
            "width": {
                "type": "string",
                "value": "80%"
            }
        }
    },
    "_skin_": "se15a2ce22274d8bafc3956d7d10af30",
    "_spa_": {},
    "_spaan_": {},
    "_spaandroidtablet_": {},
    "_spabb_": {},
    "_spaip_": {},
    "_spaipad_": {},
    "_spamobile_": {},
    "_spatablet_": {},
    "_spawindowstablet_": {},
    "_spawinphone8_": {},
    "_tabrcandroid_": {},
    "_top_": {
        "type": "string",
        "value": "8.80%"
    },
    "_vizProps_": {
        "hidewidgethierarchy": false
    },
    "_width_": {
        "type": "string",
        "value": "85%"
    },
    "_windows10_": {},
    "_windows8_": {},
    "_winphone10_": {},
    "_winphone8_": {},
    "areflexpropsreferenced": false,
    "autogrowmode": 0,
    "canUpdateUI": true,
    "centerx": {
        "type": "string",
        "value": "50.00%"
    },
    "clipbounds": false,
    "containerweight": 0,
    "dataDiffs": {
        "AlterneteActions": {
            "__events__": {
                "ide_onTouchStart": "AS_UWI_cad98eb1a8304f689ee3b40cfa08351f"
            },
            "__info__": {
                "isRoot": true,
                "kuid": "da68977527694960835be10ae73a079c",
                "srcKUID": "ba68e7f06305436fa6ebfcbc05efdfaf",
                "wType": "FlexContainer"
            },
            "autogrowMode": {
                "Default": 0
            },
            "height": {
                "Default": {
                    "type": "string",
                    "value": "14%"
                }
            },
            "responsiveData": {
                "b1": {
                    "height": {
                        "type": "string",
                        "value": "60dp"
                    },
                    "top": {
                        "type": "string",
                        "value": "7.04%"
                    },
                    "width": {
                        "type": "string",
                        "value": "88%"
                    }
                },
                "b2": {
                    "height": {
                        "type": "string",
                        "value": "60dp"
                    },
                    "top": {
                        "type": "string",
                        "value": "1%"
                    },
                    "width": {
                        "type": "string",
                        "value": "70%"
                    }
                },
                "b3": {
                    "height": {
                        "type": "string",
                        "value": "60dp"
                    },
                    "top": {
                        "type": "string",
                        "value": "1dp"
                    },
                    "width": {
                        "type": "string",
                        "value": "70%"
                    }
                },
                "b4": {
                    "height": {
                        "type": "string",
                        "value": "60dp"
                    },
                    "top": {
                        "type": "string",
                        "value": "1%"
                    },
                    "width": {
                        "type": "string",
                        "value": "80%"
                    }
                }
            },
            "top": {
                "Default": {
                    "type": "string",
                    "value": "8.80%"
                }
            },
            "width": {}
        },
        "flcVerticalBar": {
            "__events__": {},
            "__info__": {
                "kuid": "iac72f86bd84437e8ba09969d98c9255",
                "srcKUID": "c1e3a82dec2c494da32fadaf2ab509f8",
                "wType": "FlexContainer"
            }
        },
        "flxImgContainer": {
            "__events__": {},
            "__info__": {
                "kuid": "b790d68eeb9943cb8749d4785877d6d2",
                "srcKUID": "a5b043f56ff04c68b0d8766aeb55b239",
                "wType": "FlexContainer"
            }
        },
        "flxImgMain": {
            "__events__": {},
            "__info__": {
                "kuid": "cb92c51657d34d459bfff8e570c2fad4",
                "srcKUID": "b04cedab42e84d7dae9726a221da10c1",
                "wType": "FlexContainer"
            }
        },
        "fontIconOption": {
            "__events__": {},
            "__info__": {
                "kuid": "g3172b546f484181a444330ae0a42377",
                "srcKUID": "ca39e4c59b8c42d9a5bc72d83c9a2ff8",
                "wType": "Label"
            },
            "height": {},
            "responsiveData": {
                "b1": {
                    "height": {
                        "type": "string",
                        "value": "34dp"
                    },
                    "text": "x",
                    "top": {
                        "type": "string",
                        "value": "14dp"
                    },
                    "width": {
                        "type": "string",
                        "value": "28dp"
                    }
                },
                "b2": {
                    "height": {
                        "type": "string",
                        "value": "36dp"
                    },
                    "width": {
                        "type": "string",
                        "value": "26dp"
                    }
                },
                "b3": {
                    "height": {
                        "type": "string",
                        "value": "34dp"
                    },
                    "width": {
                        "type": "string",
                        "value": "24dp"
                    }
                },
                "b4": {
                    "height": {
                        "type": "string",
                        "value": "34dp"
                    },
                    "width": {
                        "type": "string",
                        "value": "24dp"
                    }
                }
            },
            "text": "x",
            "width": {}
        },
        "imgOptionKA": {
            "__events__": {},
            "__info__": {
                "kuid": "cbc03f6dcdfd4ef78c3eeaf520d4125f",
                "srcKUID": "a1d6b1a537f741ed86fe089d4f49bfdb",
                "wType": "Image"
            },
            "src": "active_cvv_icon.png"
        },
        "imgRightTip": {
            "__events__": {},
            "__info__": {
                "kuid": "b71d4e5335b24a8a8ebc65567a758ab5",
                "srcKUID": "fd6a5a99442143d381c3d4fc2afbaf67",
                "wType": "Image"
            },
            "src": "lefy_arrow_white.png"
        },
        "rtxCVV": {
            "__events__": {},
            "__info__": {
                "kuid": "i8eac2ee7ac44de7a0e5908e7fb533c3",
                "srcKUID": "h34b4091f7d347fcb7805380e64df24f",
                "wType": "RichText"
            },
            "i18n_text": "i18n.login.EnterCvvCodeInfo",
            "left": {
                "Default": {
                    "type": "string",
                    "value": "85dp"
                }
            },
            "responsiveData": {
                "b3": {
                    "left": {
                        "type": "string",
                        "value": "80dp"
                    },
                    "width": {
                        "type": "string",
                        "value": "60%"
                    }
                },
                "b4": {
                    "width": {
                        "type": "string",
                        "value": "65%"
                    }
                }
            },
            "width": {
                "Default": {
                    "type": "string",
                    "value": "61.90%"
                }
            }
        }
    },
    "focusskin": "sf1574277292476397ab9eb9b65c1761",
    "id": "AlterneteActionsEnterCVV",
    "ide_onTouchStart": "AS_UWI_cad98eb1a8304f689ee3b40cfa08351f",
    "info": null,
    "isdatareferenced": false,
    "isvisible": true,
    "kuid": "da68977527694960835be10ae73a079c",
    "layouttype": 2,
    "masterType": 0,
    "name": "kony.ui.UserWidgetInstance",
    "ontouchstart": "AS_UWI_cad98eb1a8304f689ee3b40cfa08351f",
    "parent": "flxEnrollPassBtns",
    "pf": "frmEnrollNow",
    "snapgridsize": 10,
    "snaptogrid": true,
    "sourceUserWidget": "ba68e7f06305436fa6ebfcbc05efdfaf",
    "vizprops": {
        "hidewidgethierarchy": false
    },
    "wType": "UserWidgetInstance"
}