{
    "@class": "com.kony.gen.viz.model.component.KVizButton",
    "DNDConfig": null,
    "__parentReadjusting__": false,
    "_height_": {
        "type": "string",
        "value": "40dp"
    },
    "_left_": {
        "type": "string",
        "value": "595dp"
    },
    "_margin_": [
        6,
        6,
        6,
        6
    ],
    "_padding_": [
        0,
        0,
        0,
        0
    ],
    "_skin_": "s5c7340f5a62449e8338ff3599e5ef84",
    "_text_": "V",
    "_top_": {
        "type": "string",
        "value": "344dp"
    },
    "_width_": {
        "type": "string",
        "value": "130dp"
    },
    "accessibilityconfig": {
        "a11yLabel": "Learn More",
        "allyARIA": {
            "role": "link",
            "tabindex": 0
        }
    },
    "canUpdateUI": true,
    "containerweight": 100,
    "contentalignment": 5,
    "desktopweb": {
        "psp": {}
    },
    "disabledSkins": {},
    "displaytext": true,
    "focusskin": "",
    "hoverskin": "",
    "id": "btnVeiwMore",
    "info": null,
    "iscustomlayout": false,
    "isvisible": true,
    "kuid": "c1977cd2bdce4285853b339882319373",
    "name": "kony.ui.Button",
    "parent": "flxMain",
    "pf": "frmEnrollNow",
    "responsiveData": {
        "b1": {
            "desktopweb": {
                "psp": {
                    "hoverSkin": "sd8cc5432e0d48d4a90605aa9dff9d2b"
                }
            },
            "disabledSkins": {},
            "focusSkin": "s556a2946fce4371948ac109ed2c32b9",
            "left": {
                "type": "string",
                "value": "565dp"
            },
            "skin": "s5c7340f5a62449e8338ff3599e5ef84",
            "top": {
                "type": "string",
                "value": "380dp"
            },
            "width": {
                "type": "string",
                "value": "110dp"
            },
            "zIndex": 20
        },
        "b2": {
            "isVisible": false
        },
        "b3": {
            "isVisible": false
        },
        "b4": {
            "isVisible": false
        }
    },
    "retaincontentalignment": false,
    "retainflexpositionproperties": false,
    "texti18n": "i18n.login.viewMore",
    "wType": "Button",
    "zindex": 20
}