{
    "DNDConfig": null,
    "__parentReadjusting__": false,
    "_blur_": {
        "enabled": false,
        "value": 0
    },
    "_height_": {
        "type": "string",
        "value": "150dp"
    },
    "_left_": {
        "type": "string",
        "value": "0dp"
    },
    "_margin_": [
        0,
        0,
        0,
        0
    ],
    "_orientation_": 6,
    "_padding_": [
        0,
        0,
        0,
        0
    ],
    "_percent_": true,
    "_skin_": "s24c92fc23b14f5484b693ee9b8a9b35",
    "_top_": {
        "type": "string",
        "value": "-30dp"
    },
    "_width_": {
        "type": "string",
        "value": "100%"
    },
    "allboxes": [],
    "canUpdateUI": true,
    "centerx": {
        "type": "number",
        "value": ""
    },
    "children": [
        "flxLetsgetStartedWrapper",
        "lblLetsgetStarted",
        "lblWrongInformation"
    ],
    "clipbounds": true,
    "containerweight": 100,
    "enablescrolling": true,
    "id": "flxLetsgetStarted",
    "info": null,
    "iscustomlayout": false,
    "ismodalcontainer": false,
    "isvisible": true,
    "kuid": "cc3daa1e81fc4692a2b854bcd1d93e6a",
    "layouttype": 2,
    "minheight": {
        "type": "string",
        "value": "125dp"
    },
    "name": "kony.ui.FlexContainer",
    "parent": "flxVerificationBB",
    "pf": "frmEnrollNow",
    "responsiveData": {
        "b1": {
            "height": {
                "type": "string",
                "value": "120dp"
            },
            "layoutType": 2,
            "left": {
                "type": "string",
                "value": "78dp"
            },
            "minHeight": {
                "type": "string",
                "value": "0dp"
            },
            "top": {
                "type": "string",
                "value": "110dp"
            },
            "width": {
                "type": "string",
                "value": "400dp"
            }
        },
        "b2": {
            "top": {
                "type": "string",
                "value": "85dp"
            }
        },
        "b3": {
            "centerX": {
                "type": "string",
                "value": "50%"
            },
            "minHeight": {
                "type": "string",
                "value": ""
            },
            "top": {
                "type": "string",
                "value": "115dp"
            },
            "width": {
                "type": "string",
                "value": "100%"
            }
        },
        "b4": {
            "top": {
                "type": "string",
                "value": "100dp"
            }
        }
    },
    "retaincontentalignment": false,
    "retainflexpositionproperties": false,
    "snapgridsize": 10,
    "snaptogrid": true,
    "wType": "FlexContainer",
    "widgetalignment": 1,
    "zindex": 1
}