{
    "DNDConfig": null,
    "__parentReadjusting__": false,
    "_height_": {
        "type": "string",
        "value": "18dp"
    },
    "_left_": {
        "type": "string",
        "value": "1%"
    },
    "_margin_": [
        0,
        0,
        0,
        0
    ],
    "_orientation_": 6,
    "_padding_": [
        0,
        0,
        0,
        0
    ],
    "_percent_": true,
    "_skin_": "s24c92fc23b14f5484b693ee9b8a9b35",
    "_top_": {
        "type": "string",
        "value": "-1.48%"
    },
    "_width_": {
        "type": "string",
        "value": "18dp"
    },
    "accessibilityconfig": {
        "a11yARIA": {
            "tabindex": 1
        }
    },
    "allboxes": [],
    "autogrowmode": 0,
    "canUpdateUI": true,
    "children": [
        "imgWhatIsSSN",
        "AllFormsBB"
    ],
    "clipbounds": false,
    "containerweight": 100,
    "desktopweb": {
        "psp": {
            "hoverSkin": "s3e0ac30f9774278a868cb7c73908a76"
        }
    },
    "enablescrolling": true,
    "id": "flxWhatIsSSN",
    "info": null,
    "isvisible": true,
    "kuid": "f3e3c222acbc4daa8245689a0cc02c99",
    "layouttype": 2,
    "name": "kony.ui.FlexContainer",
    "parent": "flexSSN",
    "pf": "frmEnrollNow",
    "snapgridsize": 10,
    "snaptogrid": true,
    "wType": "FlexContainer",
    "widgetalignment": 1,
    "zindex": 1
}