{
    "@class": "com.kony.gen.viz.model.component.KVizLabel",
    "DNDConfig": null,
    "__parentReadjusting__": false,
    "_height_": {
        "type": "ref",
        "value": "preferred"
    },
    "_left_": {
        "type": "string",
        "value": "670dp"
    },
    "_margin_": [
        1,
        1,
        1,
        1
    ],
    "_padding_": [
        0,
        0,
        0,
        0
    ],
    "_skin_": "sc39b68cb14e457b9b79ba3c8c3b88d1",
    "_text_": "Label",
    "_top_": {
        "type": "string",
        "value": "421dp"
    },
    "_width_": {
        "type": "ref",
        "value": "preferred"
    },
    "_wrapping_": 2,
    "android": {
        "textStyle": {
            "letterSpacing": 0,
            "strikeThrough": false
        }
    },
    "canUpdateUI": true,
    "centerx": {
        "type": "number",
        "value": ""
    },
    "containerweight": 100,
    "contentalignment": 4,
    "id": "lblChangeLang",
    "info": null,
    "ipad": {
        "psp": {
            "wrapping": 2
        }
    },
    "iphone": {
        "psp": {
            "wrapping": 2
        }
    },
    "iscustomlayout": false,
    "isvisible": true,
    "kuid": "fab41fb4157d42278270ca721cf18bef",
    "name": "kony.ui.Label",
    "parent": "flxLoadingChangeLanguage",
    "pf": "frmEnrollNow",
    "responsiveData": {
        "b1": {
            "centerX": {
                "type": "string",
                "value": "50%"
            },
            "contentAlignment": 5,
            "left": {
                "type": "string",
                "value": ""
            },
            "skin": "s5c11b97da7d40d784eef7b901ac3e96",
            "text": "Updating your preferred language",
            "top": {
                "type": "string",
                "value": "15dp"
            },
            "zIndex": 1000
        },
        "b2": {
            "centerX": {
                "type": "string",
                "value": "50%"
            },
            "contentAlignment": 5,
            "height": {
                "type": "ref",
                "value": "preferred"
            },
            "left": {
                "type": "string",
                "value": ""
            },
            "skin": "s5c11b97da7d40d784eef7b901ac3e96",
            "text": "updating your preferred language",
            "top": {
                "type": "string",
                "value": "15dp"
            },
            "zIndex": 1000
        },
        "b3": {
            "centerX": {
                "type": "string",
                "value": "50%"
            },
            "contentAlignment": 5,
            "left": {
                "type": "string",
                "value": ""
            },
            "skin": "s5c11b97da7d40d784eef7b901ac3e96",
            "text": "Updating your preferred Language",
            "top": {
                "type": "string",
                "value": "420dp"
            }
        },
        "b4": {
            "centerX": {
                "type": "string",
                "value": "50%"
            },
            "contentAlignment": 5,
            "height": {
                "type": "ref",
                "value": "preferred"
            },
            "left": {
                "type": "string",
                "value": ""
            },
            "skin": "s5c11b97da7d40d784eef7b901ac3e96",
            "text": "Updating your preferred Language",
            "top": {
                "type": "string",
                "value": "420dp"
            }
        }
    },
    "retaincontentalignment": false,
    "retainflexpositionproperties": false,
    "texti18n": "i18n.login.lblChangeLang",
    "tooltip": "",
    "wType": "Label",
    "zindex": 1000
}