{
    "@class": "com.kony.gen.viz.model.component.KVizUserWidget",
    "DNDConfig": null,
    "__parentReadjusting__": false,
    "_android_": {},
    "_androidwearos_": {},
    "_children_": [],
    "_desktopweb_": {},
    "_height_": {
        "type": "ref",
        "value": "preferred"
    },
    "_ipad_": {},
    "_iphone_": {},
    "_kiosk_": {},
    "_left_": {
        "type": "string",
        "value": "0dp"
    },
    "_margin_": [
        0,
        0,
        0,
        0
    ],
    "_orientation_": 1,
    "_padding_": [
        0,
        0,
        0,
        0
    ],
    "_percent_": true,
    "_render_": true,
    "_responsiveData_": {
        "b1": {
            "height": {
                "type": "string",
                "value": "100%"
            }
        },
        "b2": {
            "height": {
                "type": "string",
                "value": "100%"
            },
            "isVisible": true
        },
        "b3": {
            "height": {
                "type": "string",
                "value": "100%"
            }
        },
        "b4": {
            "height": {
                "type": "string",
                "value": "100%"
            }
        }
    },
    "_skin_": "s1d5d3417cb74ec9883e5f01b8521945",
    "_spa_": {},
    "_spaan_": {},
    "_spaandroidtablet_": {},
    "_spabb_": {},
    "_spaip_": {},
    "_spaipad_": {},
    "_spamobile_": {},
    "_spatablet_": {},
    "_spawindowstablet_": {},
    "_spawinphone8_": {},
    "_tabrcandroid_": {},
    "_top_": {
        "type": "string",
        "value": "0dp"
    },
    "_vizProps_": {
        "hidewidgethierarchy": false
    },
    "_width_": {
        "type": "string",
        "value": "100%"
    },
    "_windows10_": {},
    "_windows8_": {},
    "_winphone10_": {},
    "_winphone8_": {},
    "areflexpropsreferenced": false,
    "autogrowmode": 0,
    "canUpdateUI": true,
    "clipbounds": false,
    "containerweight": 0,
    "dataDiffs": {
        "btnCreate": {
            "__events__": {},
            "__info__": {
                "kuid": "g418fe0219a9409fa344650e36a381ff",
                "srcKUID": "8dfe40f269c14952a6bdcee461aecae3",
                "wType": "Button"
            },
            "centerX": {},
            "i18n_text": "i18n.common.proceed",
            "responsiveData": {
                "b1": {
                    "centerX": {
                        "type": "string",
                        "value": "50%"
                    },
                    "top": {
                        "type": "string",
                        "value": "20dp"
                    },
                    "width": {
                        "type": "string",
                        "value": "68%"
                    }
                }
            },
            "top": {},
            "width": {}
        },
        "flxImageUser": {
            "__events__": {},
            "__info__": {
                "kuid": "b8826dc5397a42cfaf984a11a2fa1d3e",
                "srcKUID": "702b77f722f042d3a32997a0106c7749",
                "wType": "FlexContainer"
            },
            "centerX": {},
            "left": {},
            "responsiveData": {
                "b1": {
                    "centerX": {
                        "type": "string",
                        "value": ""
                    },
                    "left": {
                        "type": "number",
                        "value": "78"
                    },
                    "top": {
                        "type": "string",
                        "value": ""
                    }
                },
                "b2": {
                    "top": {
                        "type": "string",
                        "value": "0dp"
                    }
                }
            },
            "top": {}
        },
        "flxImgUserNPassword": {
            "__events__": {},
            "__info__": {
                "kuid": "dbbda6ccddb841c0ae4cbdf110f7bc69",
                "srcKUID": "b7b4a7380d344ab9beb33569410d9ad7",
                "wType": "FlexContainer"
            },
            "autogrowMode": {
                "Default": 1
            },
            "bottom": {},
            "height": {},
            "responsiveData": {
                "b1": {
                    "bottom": {
                        "type": "string",
                        "value": ""
                    },
                    "height": {
                        "type": "ref",
                        "value": "preferred"
                    },
                    "top": {
                        "type": "string",
                        "value": "150dp"
                    }
                },
                "b2": {
                    "height": {
                        "type": "ref",
                        "value": "preferred"
                    },
                    "top": {
                        "type": "string",
                        "value": "110dp"
                    }
                },
                "b3": {
                    "height": {
                        "type": "ref",
                        "value": "preferred"
                    },
                    "top": {
                        "type": "string",
                        "value": "110dp"
                    }
                },
                "b4": {
                    "height": {
                        "type": "ref",
                        "value": "preferred"
                    },
                    "top": {
                        "type": "string",
                        "value": "110dp"
                    }
                }
            },
            "top": {}
        },
        "flxMain": {
            "__events__": {},
            "__info__": {
                "kuid": "dc3359775a004ba58f66800720ec350e",
                "srcKUID": "g274d546992a416094a446d90587e57a",
                "wType": "FlexContainer"
            },
            "autogrowMode": {
                "Default": 0
            },
            "height": {
                "Default": {
                    "type": "string",
                    "value": "100%"
                }
            },
            "responsiveData": {
                "b1": {},
                "b2": {},
                "b3": {},
                "b4": {}
            }
        },
        "flxMatchPassword": {
            "__events__": {},
            "__info__": {
                "kuid": "hec8fa7668d54db2981e4235bcca1953",
                "srcKUID": "0cc388b319b04dcd9aa9bbcb9104cf65",
                "wType": "FlexContainer"
            },
            "responsiveData": {
                "b1": {
                    "top": {
                        "type": "string",
                        "value": "20dp"
                    },
                    "width": {
                        "type": "string",
                        "value": "68%"
                    }
                },
                "b2": {
                    "isVisible": true
                }
            },
            "top": {},
            "width": {}
        },
        "flxNewPassword": {
            "__events__": {},
            "__info__": {
                "kuid": "h903ef13fe494569b92ea096a8ab0034",
                "srcKUID": "9e7fc5ef851141e4a6890908196ae41c",
                "wType": "FlexContainer"
            },
            "responsiveData": {
                "b1": {
                    "top": {
                        "type": "string",
                        "value": "20dp"
                    },
                    "width": {
                        "type": "string",
                        "value": "68%"
                    }
                }
            },
            "top": {},
            "width": {}
        },
        "flxNewUserName": {
            "__events__": {},
            "__info__": {
                "kuid": "f9760df8d9c64cd2a52074ade60d653b",
                "srcKUID": "e6e0fdfa6f0c4c75af823412bde04cd0",
                "wType": "FlexContainer"
            },
            "responsiveData": {
                "b1": {
                    "top": {
                        "type": "string",
                        "value": "55dp"
                    },
                    "width": {
                        "type": "string",
                        "value": "68%"
                    }
                },
                "b2": {
                    "top": {
                        "type": "string",
                        "value": "50dp"
                    }
                },
                "b3": {
                    "top": {
                        "type": "string",
                        "value": "50dp"
                    }
                },
                "b4": {
                    "top": {
                        "type": "string",
                        "value": "50dp"
                    }
                }
            },
            "top": {},
            "width": {}
        },
        "flxPasswordRules": {
            "__events__": {},
            "__info__": {
                "kuid": "ad90d043e04b4aaf84d6a0bd958a2f2b",
                "srcKUID": "h3febc03363f4d54baae9c01ce7a9432",
                "wType": "FlexContainer"
            }
        },
        "flxPasswordRulesHeader": {
            "__events__": {},
            "__info__": {
                "kuid": "ia70d3cbeedf4c1698b33e38c555a835",
                "srcKUID": "c1f0ec05427643bab0070ba4a8ca3ef8",
                "wType": "FlexContainer"
            },
            "responsiveData": {
                "b1": {
                    "width": {
                        "type": "string",
                        "value": "100%"
                    }
                }
            },
            "width": {}
        },
        "flxRulesPassword": {
            "__events__": {},
            "__info__": {
                "kuid": "d21f06ffad6e44719093e7dab8b2f36a",
                "srcKUID": "ff8c98039d5346fc9f3a003564b94ad0",
                "wType": "FlexScrollContainer"
            },
            "centerX": {},
            "height": {
                "Default": {
                    "type": "string",
                    "value": "115dp"
                }
            },
            "isVisible": false,
            "responsiveData": {
                "b1": {
                    "centerX": {
                        "type": "string",
                        "value": "50%"
                    },
                    "isVisible": false,
                    "top": {
                        "type": "string",
                        "value": "8dp"
                    },
                    "width": {
                        "type": "string",
                        "value": "68%"
                    }
                },
                "b2": {
                    "centerX": {
                        "type": "string",
                        "value": "50%"
                    },
                    "isVisible": false,
                    "top": {
                        "type": "string",
                        "value": "10dp"
                    },
                    "width": {
                        "type": "string",
                        "value": "85%"
                    }
                },
                "b3": {
                    "centerX": {
                        "type": "string",
                        "value": "50%"
                    },
                    "isVisible": false,
                    "top": {
                        "type": "string",
                        "value": "10dp"
                    },
                    "width": {
                        "type": "string",
                        "value": "85%"
                    }
                },
                "b4": {
                    "centerX": {
                        "type": "string",
                        "value": "50%"
                    },
                    "isVisible": false,
                    "top": {
                        "type": "string",
                        "value": "10dp"
                    },
                    "width": {
                        "type": "string",
                        "value": "85%"
                    }
                }
            },
            "top": {},
            "width": {}
        },
        "flxRulesUsername": {
            "__events__": {},
            "__info__": {
                "kuid": "b0609511816e40358dbc74b0b5336d05",
                "srcKUID": "aa00137e233748ceb9aa2c1059240c1e",
                "wType": "FlexScrollContainer"
            },
            "centerX": {},
            "height": {
                "Default": {
                    "type": "string",
                    "value": "75dp"
                }
            },
            "isVisible": false,
            "minHeight": {
                "type": "string",
                "value": "20dp"
            },
            "responsiveData": {
                "b1": {
                    "centerX": {
                        "type": "string",
                        "value": "50%"
                    },
                    "top": {
                        "type": "string",
                        "value": "8dp"
                    },
                    "width": {
                        "type": "string",
                        "value": "68%"
                    }
                },
                "b2": {
                    "centerX": {
                        "type": "string",
                        "value": "50%"
                    },
                    "top": {
                        "type": "string",
                        "value": "10dp"
                    },
                    "width": {
                        "type": "string",
                        "value": "85%"
                    }
                },
                "b3": {
                    "centerX": {
                        "type": "string",
                        "value": "50%"
                    },
                    "top": {
                        "type": "string",
                        "value": "10dp"
                    },
                    "width": {
                        "type": "string",
                        "value": "85%"
                    }
                },
                "b4": {
                    "centerX": {
                        "type": "string",
                        "value": "50%"
                    },
                    "top": {
                        "type": "string",
                        "value": "10dp"
                    },
                    "width": {
                        "type": "string",
                        "value": "85%"
                    }
                }
            },
            "top": {},
            "width": {}
        },
        "imgCorrectUserName": {
            "__events__": {},
            "__info__": {
                "kuid": "c8417abee77045bead126279194e468e",
                "srcKUID": "a030095cfc894e2995826984a4eedf68",
                "wType": "Image"
            },
            "responsiveData": {
                "b1": {
                    "right": {
                        "type": "string",
                        "value": "8dp"
                    },
                    "width": {
                        "type": "string",
                        "value": "20dp"
                    }
                },
                "b2": {
                    "right": {
                        "type": "string",
                        "value": "3.03%"
                    },
                    "width": {
                        "type": "string",
                        "value": "20dp"
                    }
                },
                "b3": {
                    "right": {
                        "type": "string",
                        "value": "3.03%"
                    },
                    "width": {
                        "type": "string",
                        "value": "20dp"
                    }
                },
                "b4": {
                    "right": {
                        "type": "string",
                        "value": "3.03%"
                    },
                    "width": {
                        "type": "string",
                        "value": "20dp"
                    }
                }
            },
            "right": {},
            "src": "success_green.png",
            "width": {}
        },
        "imgPasswordMatched": {
            "__events__": {},
            "__info__": {
                "kuid": "h6a7ec5f2613487e9459e4f17737c124",
                "srcKUID": "77f832680a5b40e99a8c1b18ee299326",
                "wType": "Image"
            },
            "responsiveData": {
                "b1": {
                    "right": {
                        "type": "string",
                        "value": "8dp"
                    }
                },
                "b2": {
                    "right": {
                        "type": "string",
                        "value": "3.03%"
                    }
                },
                "b3": {
                    "right": {
                        "type": "string",
                        "value": "3.03%"
                    }
                },
                "b4": {
                    "right": {
                        "type": "string",
                        "value": "3.03%"
                    }
                }
            },
            "right": {},
            "src": "success_green.png"
        },
        "imgRules": {
            "__events__": {},
            "__info__": {
                "kuid": "e711b93d133745a3ad1d431a3c6b05a4",
                "srcKUID": "bfc1ed77ea39420ea790d3036d33de57",
                "wType": "Image"
            },
            "left": {},
            "responsiveData": {
                "b1": {
                    "left": {
                        "type": "string",
                        "value": "0dp"
                    }
                },
                "b2": {
                    "left": {
                        "type": "string",
                        "value": "0%"
                    }
                },
                "b3": {
                    "left": {
                        "type": "string",
                        "value": "0%"
                    }
                },
                "b4": {
                    "left": {
                        "type": "string",
                        "value": "0%"
                    }
                }
            },
            "src": "info.png"
        },
        "imgRulesHeader": {
            "__events__": {},
            "__info__": {
                "kuid": "iaa51375608e48d38639053b2acebc59",
                "srcKUID": "a9dd4cbbd67b462b9b4beb3ce33debc2",
                "wType": "Image"
            },
            "left": {},
            "responsiveData": {
                "b1": {
                    "left": {
                        "type": "string",
                        "value": "0%"
                    }
                },
                "b2": {
                    "left": {
                        "type": "string",
                        "value": "0%"
                    }
                },
                "b3": {
                    "left": {
                        "type": "string",
                        "value": "0%"
                    }
                },
                "b4": {
                    "left": {
                        "type": "string",
                        "value": "0%"
                    }
                }
            },
            "src": "info.png"
        },
        "imgUser": {
            "__events__": {},
            "__info__": {
                "kuid": "bf814597a9ea42758444007510b08177",
                "srcKUID": "3ce90095cbb84ba9b084d940263a0cf2",
                "wType": "Image"
            },
            "src": "default_username.png"
        },
        "imgUserOutline": {
            "__events__": {},
            "__info__": {
                "kuid": "d7a8c5a8ec3c47729aa0e14c61db35d1",
                "srcKUID": "f032a67922a446a7a516c02e24451ab5",
                "wType": "Image"
            },
            "src": "user_reset_password_frame.png"
        },
        "imgValidPassword": {
            "__events__": {},
            "__info__": {
                "kuid": "j9d5f8de66954b5789df02260422850f",
                "srcKUID": "5c325f0048e74a73b7d5462d0ccca298",
                "wType": "Image"
            },
            "responsiveData": {
                "b1": {
                    "right": {
                        "type": "string",
                        "value": "8dp"
                    }
                },
                "b2": {
                    "right": {
                        "type": "string",
                        "value": "3.03%"
                    }
                },
                "b3": {
                    "right": {
                        "type": "string",
                        "value": "3.03%"
                    }
                },
                "b4": {
                    "right": {
                        "type": "string",
                        "value": "3.03%"
                    }
                }
            },
            "right": {},
            "src": "success_green.png"
        },
        "lblErrorInfo": {
            "__events__": {},
            "__info__": {
                "kuid": "a2fd42b01f93480ba4a936214f9977d8",
                "srcKUID": "45463e6f789542a1a47064ccd780be76",
                "wType": "Label"
            },
            "centerX": {},
            "left": {},
            "responsiveData": {
                "b1": {
                    "centerX": {
                        "type": "string",
                        "value": "50%"
                    },
                    "isVisible": false,
                    "left": {
                        "type": "number",
                        "value": "61"
                    },
                    "top": {
                        "type": "string",
                        "value": "113dp"
                    },
                    "width": {
                        "type": "string",
                        "value": "68%"
                    }
                },
                "b3": {
                    "centerX": {
                        "type": "string",
                        "value": "50%"
                    },
                    "isVisible": false,
                    "left": {
                        "type": "string",
                        "value": ""
                    }
                }
            },
            "top": {},
            "width": {}
        },
        "lblPasswordDoesnotMatch": {
            "__events__": {},
            "__info__": {
                "kuid": "c903f622361748b6a488c41f424bcb69",
                "srcKUID": "g3ba89a4c1d244a9b7489aa203bb5d28",
                "wType": "Label"
            },
            "bottom": {},
            "centerX": {},
            "left": {},
            "responsiveData": {
                "b1": {
                    "centerX": {
                        "type": "string",
                        "value": ""
                    },
                    "isVisible": false,
                    "left": {
                        "type": "string",
                        "value": "40dp"
                    },
                    "top": {
                        "type": "string",
                        "value": "60dp"
                    },
                    "width": {
                        "type": "string",
                        "value": "81%"
                    }
                },
                "b2": {
                    "bottom": {
                        "type": "string",
                        "value": "5dp"
                    },
                    "isVisible": false,
                    "top": {
                        "type": "string",
                        "value": "85dp"
                    }
                },
                "b3": {
                    "bottom": {
                        "type": "string",
                        "value": "5dp"
                    },
                    "centerX": {
                        "type": "string",
                        "value": "50%"
                    },
                    "isVisible": false,
                    "left": {
                        "type": "string",
                        "value": ""
                    },
                    "top": {
                        "type": "string",
                        "value": "103dp"
                    },
                    "width": {
                        "type": "string",
                        "value": "85%"
                    }
                },
                "b4": {
                    "bottom": {
                        "type": "string",
                        "value": "5dp"
                    },
                    "isVisible": false,
                    "top": {
                        "type": "string",
                        "value": "103dp"
                    },
                    "width": {
                        "type": "string",
                        "value": "90%"
                    }
                }
            },
            "top": {},
            "width": {}
        },
        "lblResetPasswordTitle": {
            "__events__": {},
            "__info__": {
                "kuid": "c41146644ad24e41a1c5de99bc44b691",
                "srcKUID": "38f099b0c5784b3fb764fa6b7b6006dd",
                "wType": "Label"
            },
            "centerX": {},
            "left": {},
            "responsiveData": {
                "b1": {
                    "centerX": {
                        "type": "string",
                        "value": ""
                    },
                    "left": {
                        "type": "string",
                        "value": "140dp"
                    },
                    "top": {
                        "type": "string",
                        "value": "15dp"
                    },
                    "width": {
                        "type": "ref",
                        "value": "preferred"
                    }
                },
                "b2": {
                    "top": {
                        "type": "string",
                        "value": "57dp"
                    }
                },
                "b3": {
                    "top": {
                        "type": "string",
                        "value": "58dp"
                    }
                },
                "b4": {
                    "text": "Enrolling to Online Banking",
                    "top": {
                        "type": "string",
                        "value": "57dp"
                    }
                }
            },
            "top": {},
            "width": {}
        },
        "lblRules": {
            "__events__": {},
            "__info__": {
                "kuid": "b340c215ff6445a6a2013390194aa53e",
                "srcKUID": "b3343d7dd6704fb99c5afb53ef358250",
                "wType": "Label"
            }
        },
        "lblRulesHeader": {
            "__events__": {},
            "__info__": {
                "kuid": "d555f78d30f24720a9ee2239dc8d5a61",
                "srcKUID": "gb1527dc74dd44348bd2086e3c802f9e",
                "wType": "Label"
            },
            "i18n_text": "i18n.NUO.UsernameRules"
        },
        "newUsernamepasswordsetting": {
            "__events__": {},
            "__info__": {
                "isRoot": true,
                "kuid": "e71076bf22e541bb9a3a7266c5dfd825",
                "srcKUID": "284ce23dae4f4c9ab2e0d88b74e172b2",
                "wType": "FlexContainer"
            },
            "autogrowMode": {
                "Default": 0
            },
            "bottom": {},
            "height": {
                "Default": {
                    "type": "ref",
                    "value": "preferred"
                }
            },
            "responsiveData": {
                "b1": {
                    "height": {
                        "type": "string",
                        "value": "100%"
                    }
                },
                "b2": {
                    "height": {
                        "type": "string",
                        "value": "100%"
                    },
                    "isVisible": true
                },
                "b3": {
                    "height": {
                        "type": "string",
                        "value": "100%"
                    }
                },
                "b4": {
                    "height": {
                        "type": "string",
                        "value": "100%"
                    }
                }
            }
        },
        "rtxRulesPassword": {
            "__events__": {},
            "__info__": {
                "kuid": "babbd3b22fbd4d578133b7808bb88bc4",
                "srcKUID": "h092e1d569f64ef78232f2a8ba530def",
                "wType": "RichText"
            },
            "height": {},
            "left": {},
            "responsiveData": {
                "b1": {
                    "height": {
                        "type": "ref",
                        "value": "preferred"
                    },
                    "left": {
                        "type": "string",
                        "value": "5dp"
                    },
                    "top": {
                        "type": "string",
                        "value": "8dp"
                    },
                    "width": {
                        "type": "string",
                        "value": "98%"
                    }
                },
                "b2": {
                    "left": {
                        "type": "string",
                        "value": "2%"
                    },
                    "width": {
                        "type": "string",
                        "value": "98%"
                    }
                },
                "b3": {
                    "left": {
                        "type": "string",
                        "value": "2%"
                    },
                    "width": {
                        "type": "string",
                        "value": "98%"
                    }
                },
                "b4": {
                    "left": {
                        "type": "string",
                        "value": "2%"
                    }
                }
            },
            "top": {},
            "width": {}
        },
        "rtxRulesUsername": {
            "__events__": {},
            "__info__": {
                "kuid": "dfcc21bb447f46c2a79f6958a056685b",
                "srcKUID": "i9143bf05683438bb037d18dba548a46",
                "wType": "RichText"
            },
            "left": {},
            "responsiveData": {
                "b1": {
                    "left": {
                        "type": "string",
                        "value": "5dp"
                    },
                    "top": {
                        "type": "string",
                        "value": "8dp"
                    },
                    "width": {
                        "type": "string",
                        "value": "98%"
                    }
                },
                "b2": {
                    "left": {
                        "type": "string",
                        "value": "2%"
                    }
                },
                "b3": {
                    "left": {
                        "type": "string",
                        "value": "2%"
                    },
                    "width": {
                        "type": "string",
                        "value": "98%"
                    }
                },
                "b4": {
                    "left": {
                        "type": "string",
                        "value": "2%"
                    }
                }
            },
            "top": {},
            "width": {}
        },
        "tbxMatchPassword": {
            "__events__": {},
            "__info__": {
                "kuid": "ib9bddcff55e44c187bc0946b05140d3",
                "srcKUID": "085ea8020b974ea0afa36bf99037affb",
                "wType": "TextField"
            },
            "maxTextLength": 20,
            "secureTextEntry": true
        },
        "tbxNewPassword": {
            "__events__": {},
            "__info__": {
                "kuid": "gfbb914318244525a85d2bb18ff4a48e",
                "srcKUID": "52041ad855684e78bd116c4a8e1d006e",
                "wType": "TextField"
            },
            "maxTextLength": 20,
            "text": ""
        },
        "tbxNewUserName": {
            "__events__": {},
            "__info__": {
                "kuid": "ebbfe265b90e4d6c86120c4b0d18c41f",
                "srcKUID": "7f4616de9ca44e9f8e6d7b11772a06c0",
                "wType": "TextField"
            },
            "maxTextLength": 24,
            "responsiveData": {
                "b1": {}
            }
        }
    },
    "id": "newUsernamepasswordsetting",
    "info": null,
    "isdatareferenced": false,
    "issegmentchild": false,
    "isvisible": true,
    "kuid": "e71076bf22e541bb9a3a7266c5dfd825",
    "layouttype": 4,
    "masterType": 0,
    "name": "kony.ui.UserWidgetInstance",
    "parent": "flxUsernameAndPassword",
    "pf": "frmEnrollNow",
    "snapgridsize": 10,
    "snaptogrid": true,
    "sourceUserWidget": "284ce23dae4f4c9ab2e0d88b74e172b2",
    "vizprops": {
        "hidewidgethierarchy": false
    },
    "wType": "UserWidgetInstance"
}