{
    "@class": "com.kony.gen.viz.model.component.KVizUserWidget",
    "DNDConfig": null,
    "__parentReadjusting__": false,
    "_android_": {},
    "_androidwearos_": {},
    "_children_": [],
    "_desktopweb_": {
        "psp": {
            "hoverSkin": "sd9e86844ff84dedabc01afb567d419b"
        }
    },
    "_height_": {
        "type": "string",
        "value": "14%"
    },
    "_ipad_": {},
    "_iphone_": {},
    "_kiosk_": {},
    "_left_": {
        "type": "string",
        "value": "0dp"
    },
    "_margin_": [
        0,
        0,
        0,
        0
    ],
    "_orientation_": 1,
    "_padding_": [
        0,
        0,
        0,
        0
    ],
    "_percent_": true,
    "_render_": true,
    "_skin_": "se15a2ce22274d8bafc3956d7d10af30",
    "_top_": {
        "type": "string",
        "value": "8.80%"
    },
    "_width_": {
        "type": "string",
        "value": "85%"
    },
    "android": {},
    "androidwearos": {},
    "areflexpropsreferenced": false,
    "canUpdateUI": true,
    "centerx": {
        "type": "string",
        "value": "50.00%"
    },
    "clipbounds": false,
    "containerweight": 0,
    "dataDiffs": {
        "AlterneteActions": {
            "__events__": {
                "ide_onTouchStart": "AS_UWI_cad98eb1a8304f689ee3b40cfa08351f"
            },
            "__info__": {
                "isRoot": true,
                "kuid": "f200e115fddc43d9b442cd3ac4cce089",
                "srcKUID": "ba68e7f06305436fa6ebfcbc05efdfaf",
                "wType": "FlexContainer"
            },
            "autogrowMode": {
                "Default": 0
            },
            "height": {
                "Default": {
                    "type": "string",
                    "value": "14%"
                }
            },
            "responsiveData": {
                "b1": {
                    "height": {
                        "type": "string",
                        "value": "60dp"
                    },
                    "top": {
                        "type": "string",
                        "value": "0.040000000000000036%"
                    },
                    "width": {
                        "type": "string",
                        "value": "88%"
                    }
                },
                "b2": {
                    "height": {
                        "type": "string",
                        "value": "60dp"
                    },
                    "top": {
                        "type": "string",
                        "value": "1%"
                    },
                    "width": {
                        "type": "string",
                        "value": "70%"
                    }
                },
                "b3": {
                    "height": {
                        "type": "string",
                        "value": "60dp"
                    },
                    "top": {
                        "type": "string",
                        "value": "1dp"
                    },
                    "width": {
                        "type": "string",
                        "value": "85%"
                    }
                },
                "b4": {
                    "height": {
                        "type": "string",
                        "value": "60dp"
                    },
                    "top": {
                        "type": "string",
                        "value": "1%"
                    },
                    "width": {
                        "type": "string",
                        "value": "80%"
                    }
                }
            },
            "top": {
                "Default": {
                    "type": "string",
                    "value": "8.80%"
                }
            },
            "width": {}
        },
        "flcVerticalBar": {
            "__events__": {},
            "__info__": {
                "kuid": "he043357a72e40988f4f004332518a43",
                "srcKUID": "c1e3a82dec2c494da32fadaf2ab509f8",
                "wType": "FlexContainer"
            },
            "isVisible": true,
            "responsiveData": {
                "b1": {
                    "isVisible": true
                },
                "b2": {
                    "isVisible": true
                },
                "b3": {
                    "isVisible": true
                },
                "b4": {
                    "isVisible": true
                }
            }
        },
        "flxImgContainer": {
            "__events__": {},
            "__info__": {
                "kuid": "de70fdacbff64196a4fcd2aad7c6b3cf",
                "srcKUID": "a5b043f56ff04c68b0d8766aeb55b239",
                "wType": "FlexContainer"
            },
            "autogrowMode": {
                "Default": 0
            },
            "height": {
                "Default": {
                    "type": "string",
                    "value": "95%"
                }
            },
            "responsiveData": {
                "b1": {
                    "height": {
                        "type": "string",
                        "value": "100%"
                    },
                    "width": {
                        "type": "string",
                        "value": "75dp"
                    }
                },
                "b2": {
                    "height": {
                        "type": "string",
                        "value": "100%"
                    },
                    "width": {
                        "type": "string",
                        "value": "75dp"
                    }
                },
                "b3": {
                    "height": {
                        "type": "string",
                        "value": "100%"
                    },
                    "width": {
                        "type": "string",
                        "value": "75dp"
                    }
                },
                "b4": {
                    "height": {
                        "type": "string",
                        "value": "100%"
                    },
                    "width": {
                        "type": "string",
                        "value": "75dp"
                    }
                }
            },
            "width": {
                "Default": {
                    "type": "string",
                    "value": "110dp"
                }
            }
        },
        "flxImgMain": {
            "__events__": {},
            "__info__": {
                "kuid": "ea8775d235be4837a4c93526923d04e2",
                "srcKUID": "b04cedab42e84d7dae9726a221da10c1",
                "wType": "FlexContainer"
            },
            "autogrowMode": {
                "Default": 0
            },
            "height": {
                "Default": {
                    "type": "string",
                    "value": "100%"
                }
            },
            "responsiveData": {
                "b1": {
                    "width": {
                        "type": "string",
                        "value": "60dp"
                    }
                },
                "b2": {
                    "width": {
                        "type": "string",
                        "value": "60dp"
                    }
                },
                "b3": {
                    "width": {
                        "type": "string",
                        "value": "60dp"
                    }
                },
                "b4": {
                    "width": {
                        "type": "string",
                        "value": "60dp"
                    }
                }
            },
            "width": {
                "Default": {
                    "type": "string",
                    "value": "90%"
                }
            }
        },
        "fontIconOption": {
            "__events__": {},
            "__info__": {
                "kuid": "e28451fbf95e435cbc3397813981051c",
                "srcKUID": "ca39e4c59b8c42d9a5bc72d83c9a2ff8",
                "wType": "Label"
            },
            "centerX": {},
            "centerY": {},
            "height": {},
            "isVisible": false,
            "left": {
                "Default": {
                    "type": "string",
                    "value": ""
                }
            },
            "responsiveData": {
                "b1": {
                    "centerX": {
                        "type": "string",
                        "value": "55%"
                    },
                    "centerY": {
                        "type": "string",
                        "value": "50%"
                    },
                    "height": {
                        "type": "string",
                        "value": "30dp"
                    },
                    "isVisible": true,
                    "text": "c",
                    "width": {
                        "type": "string",
                        "value": "30dp"
                    }
                },
                "b2": {
                    "centerX": {
                        "type": "string",
                        "value": "55%"
                    },
                    "centerY": {
                        "type": "string",
                        "value": "50%"
                    },
                    "isVisible": true,
                    "text": "c"
                },
                "b3": {
                    "centerX": {
                        "type": "string",
                        "value": "55%"
                    },
                    "centerY": {
                        "type": "string",
                        "value": "50%"
                    },
                    "isVisible": true,
                    "text": "c"
                },
                "b4": {
                    "centerX": {
                        "type": "string",
                        "value": "55%"
                    },
                    "centerY": {
                        "type": "string",
                        "value": "50%"
                    },
                    "isVisible": true,
                    "text": "c"
                }
            },
            "right": {
                "Default": {
                    "type": "string",
                    "value": "0dp"
                }
            },
            "text": "L",
            "width": {
                "Default": {
                    "type": "string",
                    "value": "30dp"
                }
            }
        },
        "imgOptionKA": {
            "__events__": {},
            "__info__": {
                "kuid": "dfcc19d60b944c7f8bc9cc21df0dc44d",
                "srcKUID": "a1d6b1a537f741ed86fe089d4f49bfdb",
                "wType": "Image"
            },
            "centerX": {
                "Default": {
                    "type": "string",
                    "value": "50%"
                }
            },
            "centerY": {},
            "height": {},
            "isVisible": false,
            "left": {},
            "responsiveData": {
                "b1": {
                    "centerX": {
                        "type": "string",
                        "value": ""
                    },
                    "centerY": {
                        "type": "string",
                        "value": "55%"
                    },
                    "height": {
                        "type": "string",
                        "value": "15dp"
                    },
                    "isVisible": false,
                    "left": {
                        "type": "string",
                        "value": ""
                    },
                    "right": {
                        "type": "number",
                        "value": "0"
                    },
                    "width": {
                        "type": "string",
                        "value": "30dp"
                    }
                },
                "b2": {
                    "isVisible": false
                },
                "b3": {
                    "centerX": {
                        "type": "string",
                        "value": "50%"
                    },
                    "height": {
                        "type": "string",
                        "value": "21dp"
                    },
                    "isVisible": false,
                    "left": {
                        "type": "string",
                        "value": ""
                    },
                    "right": {
                        "type": "number",
                        "value": "0"
                    },
                    "width": {
                        "type": "string",
                        "value": "21dp"
                    }
                },
                "b4": {
                    "isVisible": false
                }
            },
            "right": {},
            "src": "icon_personalbanking_3x.png",
            "width": {}
        },
        "imgRightTip": {
            "__events__": {},
            "__info__": {
                "kuid": "g2985abeaa604e70b90c3a4540999485",
                "srcKUID": "fd6a5a99442143d381c3d4fc2afbaf67",
                "wType": "Image"
            },
            "isVisible": true,
            "left": {},
            "responsiveData": {
                "b1": {
                    "isVisible": true,
                    "left": {
                        "type": "string",
                        "value": "59dp"
                    }
                },
                "b2": {
                    "isVisible": true,
                    "left": {
                        "type": "string",
                        "value": "59dp"
                    }
                },
                "b3": {
                    "isVisible": true,
                    "left": {
                        "type": "string",
                        "value": "59dp"
                    }
                },
                "b4": {
                    "isVisible": true,
                    "left": {
                        "type": "string",
                        "value": "59dp"
                    }
                }
            },
            "src": "lefy_arrow_white.png"
        },
        "rtxCVV": {
            "__events__": {},
            "__info__": {
                "kuid": "bd86e4c1f2d54526aaaf6b3f8b4dfc26",
                "srcKUID": "h34b4091f7d347fcb7805380e64df24f",
                "wType": "RichText"
            },
            "centerY": {
                "Default": {
                    "type": "string",
                    "value": "50.00%"
                }
            },
            "i18n_text": "i18n.Enroll.PersonalBanking",
            "left": {
                "Default": {
                    "type": "string",
                    "value": "110dp"
                }
            },
            "responsiveData": {
                "b1": {
                    "left": {
                        "type": "string",
                        "value": "80dp"
                    }
                },
                "b2": {
                    "left": {
                        "type": "string",
                        "value": "80dp"
                    }
                },
                "b3": {
                    "left": {
                        "type": "string",
                        "value": "80dp"
                    },
                    "width": {
                        "type": "string",
                        "value": "61.90%"
                    }
                },
                "b4": {
                    "left": {
                        "type": "string",
                        "value": "80dp"
                    }
                }
            },
            "text": "Personal Banking",
            "width": {
                "Default": {
                    "type": "string",
                    "value": "61.90%"
                }
            }
        }
    },
    "desktopweb": {
        "psp": {
            "hoverSkin": "sd9e86844ff84dedabc01afb567d419b"
        }
    },
    "focusskin": "sf1574277292476397ab9eb9b65c1761",
    "id": "PersonalBanking",
    "ide_onTouchStart": "AS_UWI_bd83b55d10a540079acf01fcf82bc5f9",
    "info": null,
    "ipad": {},
    "iphone": {},
    "isdatareferenced": false,
    "issegmentchild": false,
    "isvisible": true,
    "kiosk": {},
    "kuid": "f200e115fddc43d9b442cd3ac4cce089",
    "layouttype": 2,
    "masterType": 0,
    "name": "kony.ui.UserWidgetInstance",
    "ontouchstart": "AS_UWI_cad98eb1a8304f689ee3b40cfa08351f",
    "parent": "flxSelectProductToEnrollForBtns",
    "pf": "frmEnrollNow",
    "responsiveData": {
        "b1": {
            "height": {
                "type": "string",
                "value": "60dp"
            },
            "top": {
                "type": "string",
                "value": "0.040000000000000036%"
            },
            "width": {
                "type": "string",
                "value": "88%"
            }
        },
        "b2": {
            "height": {
                "type": "string",
                "value": "60dp"
            },
            "top": {
                "type": "string",
                "value": "1%"
            },
            "width": {
                "type": "string",
                "value": "70%"
            }
        },
        "b3": {
            "height": {
                "type": "string",
                "value": "60dp"
            },
            "top": {
                "type": "string",
                "value": "1dp"
            },
            "width": {
                "type": "string",
                "value": "85%"
            }
        },
        "b4": {
            "height": {
                "type": "string",
                "value": "60dp"
            },
            "top": {
                "type": "string",
                "value": "1%"
            },
            "width": {
                "type": "string",
                "value": "80%"
            }
        }
    },
    "snapgridsize": 10,
    "snaptogrid": true,
    "sourceUserWidget": "ba68e7f06305436fa6ebfcbc05efdfaf",
    "spa": {},
    "spaan": {},
    "spaandroidtablet": {},
    "spabb": {},
    "spaip": {},
    "spaipad": {},
    "spamobile": {},
    "spatablet": {},
    "spawindowstablet": {},
    "spawinphone8": {},
    "tabrcandroid": {},
    "vizProps": {
        "hidewidgethierarchy": false
    },
    "vizprops": {
        "hidewidgethierarchy": false
    },
    "wType": "UserWidgetInstance",
    "windows10": {},
    "windows8": {},
    "winphone10": {},
    "winphone8": {}
}