{
    "@class": "com.kony.gen.viz.model.component.KVizRichText",
    "DNDConfig": null,
    "__parentReadjusting__": false,
    "_height_": {
        "type": "ref",
        "value": "preferred"
    },
    "_left_": {
        "type": "string",
        "value": "210dp"
    },
    "_margin_": [
        0,
        0,
        0,
        0
    ],
    "_padding_": [
        0,
        0,
        0,
        0
    ],
    "_skin_": "s48cb1e478ec401a98f439f3c904f940",
    "_text_": "Lorem Ipsum fd DolorLorem Ipsum fd Dolor<br>\nLorem Ipsum fd DolorLorem Ipsum fd Dolor\nLorem Ipsum fd DolorLorem Ipsum fd Dolor",
    "_top_": {
        "type": "string",
        "value": "439dp"
    },
    "_width_": {
        "type": "string",
        "value": "75%"
    },
    "_wrapping_": 2,
    "canUpdateUI": true,
    "centerx": {
        "type": "string",
        "value": "50%"
    },
    "containerweight": 100,
    "contentalignment": 1,
    "id": "rtxActivationLinkExpired",
    "info": null,
    "iscustomlayout": false,
    "isvisible": true,
    "kuid": "fdef8b2b725746bbaf0f308189b51fb3",
    "linkskin": "s68be632cc934210829c785f1cfb09f0",
    "name": "kony.ui.RichText",
    "parent": "flxActivationLinkExpired",
    "pf": "frmEnrollNow",
    "retaincontentalignment": false,
    "retainflexpositionproperties": false,
    "wType": "RichText",
    "widgetalignment": 5,
    "zindex": 1
}