{
    "@class": "com.kony.gen.viz.model.component.KVizTextBox2",
    "DNDConfig": null,
    "__parentReadjusting__": false,
    "_height_": {
        "type": "string",
        "value": "40dp"
    },
    "_left_": {
        "type": "string",
        "value": "175dp"
    },
    "_margin_": [
        0,
        0,
        0,
        0
    ],
    "_padding_": [
        3,
        0,
        0,
        0
    ],
    "_placeholder_": "",
    "_skin_": "s11fbb4da52b41d5a7ee2037998772b1",
    "_text_": "",
    "_top_": {
        "type": "string",
        "value": "98dp"
    },
    "_width_": {
        "type": "string",
        "value": "300dp"
    },
    "autocapitalize": "none",
    "autocomplete": false,
    "autocorrect": false,
    "autofilter": false,
    "canUpdateUI": true,
    "containerheight": "",
    "containerheightmode": 1,
    "containerweight": 100,
    "contentalignment": 4,
    "disabledSkins": {},
    "focusskin": "sfee68d81fdb48eeb728bd95aaf1bb75",
    "id": "tbxAutopopulateIssueFix",
    "info": null,
    "iscustomlayout": false,
    "isvisible": true,
    "keyboardtype": "A",
    "kuid": "e97567c9fe5f45ff93d6b392f021e3bf",
    "mode": "A",
    "name": "kony.ui.TextBox2",
    "parent": "frmEnrollNow",
    "pf": "frmEnrollNow",
    "placeholderskin": "s6bef0f091374991a154eb89a7b6eef8",
    "responsiveData": {
        "b1": {
            "disabledSkins": {
                "focusSkin": "sfee68d81fdb48eeb728bd95aaf1bb75"
            },
            "height": {
                "type": "string",
                "value": "10dp"
            },
            "left": {
                "type": "string",
                "value": "5dp"
            },
            "skin": "sdc9e05e88944bac97c028b672755a1b",
            "text": "test",
            "top": {
                "type": "string",
                "value": "5dp"
            },
            "width": {
                "type": "string",
                "value": "50dp"
            }
        },
        "b2": {
            "isVisible": false
        },
        "b3": {
            "isVisible": false
        },
        "b4": {
            "isVisible": false
        }
    },
    "accessibilityconfig": {
        "a11yARIA": {
            "tabindex": -1
        },
        "a11yHidden": true,
        "a11yLabel": ""
    },
    "retaincontentalignment": false,
    "retainflexpositionproperties": false,
    "securetextentry": false,
    "textinputmode": "A",
    "tooltip": "",
    "viewtype": "default",
    "wType": "TextField",
    "zindex": 5
}