{
    "@class": "com.kony.gen.viz.model.component.KVizUserWidget",
    "DNDConfig": null,
    "__parentReadjusting__": false,
    "_android_": {},
    "_androidwearos_": {},
    "_children_": [],
    "_desktopweb_": {},
    "_height_": {
        "type": "ref",
        "value": "preferred"
    },
    "_ipad_": {},
    "_iphone_": {},
    "_kiosk_": {},
    "_left_": {
        "type": "string",
        "value": "0dp"
    },
    "_margin_": [
        0,
        0,
        0,
        0
    ],
    "_orientation_": 1,
    "_padding_": [
        0,
        0,
        0,
        0
    ],
    "_percent_": true,
    "_render_": true,
    "_responsiveData_": {
        "b4": {
            "bottom": {
                "type": "string",
                "value": "5dp"
            },
            "left": {
                "type": "string",
                "value": "0dp"
            },
            "width": {
                "type": "string",
                "value": "100%"
            },
            "zIndex": 100
        }
    },
    "_skin_": "s24c92fc23b14f5484b693ee9b8a9b35",
    "_spa_": {},
    "_spaan_": {},
    "_spaandroidtablet_": {},
    "_spabb_": {},
    "_spaip_": {},
    "_spaipad_": {},
    "_spamobile_": {},
    "_spatablet_": {},
    "_spawindowstablet_": {},
    "_spawinphone8_": {},
    "_tabrcandroid_": {},
    "_top_": {
        "type": "string",
        "value": "0dp"
    },
    "_vizProps_": {
        "hidewidgethierarchy": false
    },
    "_width_": {
        "type": "string",
        "value": "100%"
    },
    "_windows10_": {},
    "_windows8_": {},
    "_winphone10_": {},
    "_winphone8_": {},
    "areflexpropsreferenced": false,
    "autogrowmode": 1,
    "canUpdateUI": true,
    "clipbounds": false,
    "containerweight": 0,
    "dataDiffs": {
        "CategorizedMonthlySpending": {
            "__events__": {},
            "__info__": {
                "isRoot": true,
                "kuid": "e37ad2bfd4724e4193a0b67b68029837",
                "srcKUID": "gbf7a8f695f245cbb5d2f02bf236fb03",
                "wType": "FlexContainer"
            },
            "autogrowMode": {
                "Default": 1
            },
            "bottom": {},
            "height": {
                "Default": {
                    "type": "ref",
                    "value": "preferred"
                }
            },
            "left": {},
            "responsiveData": {
                "b4": {
                    "bottom": {
                        "type": "string",
                        "value": "5dp"
                    },
                    "left": {
                        "type": "string",
                        "value": "0dp"
                    },
                    "width": {
                        "type": "string",
                        "value": "100%"
                    },
                    "zIndex": 100
                }
            },
            "width": {},
            "zIndex": {}
        },
        "CommonHeader": {
            "__events__": {},
            "__info__": {
                "kuid": "ed5e6f052d4e46feb517479e6aa9050e",
                "srcKUID": "e15061722f5445b1b34e2bd34e442a81",
                "wType": "UserWidgetInstance"
            },
            "autogrowMode": {
                "Default": 1
            },
            "height": {
                "Default": {
                    "type": "ref",
                    "value": "preferred"
                }
            },
            "responsiveData": {
                "b1": {
                    "top": {
                        "type": "string",
                        "value": "0dp"
                    }
                },
                "b4": {
                    "top": {
                        "type": "string",
                        "value": "690dp"
                    },
                    "zIndex": 100
                }
            },
            "top": {},
            "zIndex": {}
        },
        "CommonHeader.btnRequest": {
            "__events__": {},
            "__info__": {
                "kuid": "i01bba166d534caab6dcbb46831c9ea6",
                "srcKUID": "g1d5d4f104844985b169a991d909158e",
                "wType": "Button"
            },
            "i18n_text": "i18n.PFM.BulkUpdate",
            "responsiveData": {
                "b4": {
                    "isVisible": false,
                    "right": {
                        "type": "string",
                        "value": "1%"
                    },
                    "zIndex": 100
                }
            },
            "right": {},
            "zIndex": {}
        },
        "CommonHeader.flxHeader": {
            "__events__": {},
            "__info__": {
                "kuid": "hf6438da700b43e5ac5ea4732ee0574a",
                "srcKUID": "f250aff2298c4e74b997e50afa4c1762",
                "wType": "FlexContainer"
            },
            "autogrowMode": {
                "Default": 0
            },
            "height": {
                "Default": {
                    "type": "string",
                    "value": "50px"
                }
            },
            "responsiveData": {
                "b4": {
                    "zIndex": 100
                }
            },
            "zIndex": {}
        },
        "CommonHeader.flxSeperator": {
            "__events__": {},
            "__info__": {
                "kuid": "e3f2e63cd8e841219112f7759a3f5694",
                "srcKUID": "b12acacfa38447049ac86ef026c2f10f",
                "wType": "FlexContainer"
            }
        },
        "CommonHeader.lblHeading": {
            "__events__": {},
            "__info__": {
                "kuid": "a3bfd9179bb94a3781e13f049e5caa1f",
                "srcKUID": "cc3c1b608afc4f8e8e09ceca3b49330f",
                "wType": "Label"
            },
            "i18n_text": "i18n.accounts.categorizedMonthlySpending",
            "left": {
                "Default": {
                    "type": "string",
                    "value": "2.5%"
                }
            },
            "responsiveData": {
                "b1": {
                    "left": {
                        "type": "string",
                        "value": "0%"
                    }
                },
                "b2": {
                    "left": {
                        "type": "string",
                        "value": "0%"
                    }
                },
                "b3": {
                    "left": {
                        "type": "string",
                        "value": "1%"
                    }
                },
                "b4": {
                    "left": {
                        "type": "string",
                        "value": "1%"
                    },
                    "top": {
                        "type": "string",
                        "value": ""
                    }
                }
            },
            "top": {}
        },
        "CommonHeaderTransactions": {
            "__events__": {},
            "__info__": {
                "kuid": "f027811556c6498fa08778713378cb33",
                "srcKUID": "df43af891d2648fa8b2a83011b55c91a",
                "wType": "UserWidgetInstance"
            },
            "responsiveData": {
                "b4": {
                    "isVisible": false
                }
            }
        },
        "CommonHeaderTransactions.btnRequest": {
            "__events__": {},
            "__info__": {
                "kuid": "d70f0027e3444fc2924a9f44765d2c26",
                "srcKUID": "i05ebde1a27440ea8a9fa8c7081eb7d3",
                "wType": "Button"
            },
            "i18n_text": "i18n.PFM.BulkUpdate",
            "responsiveData": {
                "b1": {
                    "right": {
                        "type": "string",
                        "value": "3.50%"
                    }
                },
                "b2": {
                    "right": {
                        "type": "string",
                        "value": "4%"
                    }
                },
                "b3": {
                    "centerY": {
                        "type": "string",
                        "value": "50.00%"
                    },
                    "isVisible": false,
                    "right": {
                        "type": "string",
                        "value": "5%"
                    }
                },
                "b4": {
                    "isVisible": false
                }
            },
            "right": {}
        },
        "CommonHeaderTransactions.flxHeader": {
            "__events__": {},
            "__info__": {
                "kuid": "f2e975e7092a493f94d315df166e09c2",
                "srcKUID": "a1c6031fb98143be91334ba6bc75485f",
                "wType": "FlexContainer"
            },
            "responsiveData": {
                "b4": {
                    "left": {
                        "type": "string",
                        "value": "0dp"
                    },
                    "top": {
                        "type": "string",
                        "value": "0dp"
                    }
                }
            }
        },
        "CommonHeaderTransactions.flxSeperator": {
            "__events__": {},
            "__info__": {
                "kuid": "a2d72e6cd08347f6848c628952dbd10f",
                "srcKUID": "d08f41c8ab9d41c69b2a884740d3f6e1",
                "wType": "FlexContainer"
            }
        },
        "CommonHeaderTransactions.lblHeading": {
            "__events__": {},
            "__info__": {
                "kuid": "b32b768544134fb4ac91fb6e662d375d",
                "srcKUID": "e62304a5543742029bfb0585ee4a8a97",
                "wType": "Label"
            }
        },
        "btnCategorized": {
            "__events__": {},
            "__info__": {
                "kuid": "caec3451c5cc45e78a687e6a699ded70",
                "srcKUID": "d4da6486c6f440b6928ab14d184468da",
                "wType": "Button"
            },
            "left": {},
            "responsiveData": {
                "b4": {
                    "left": {
                        "type": "string",
                        "value": "0%"
                    },
                    "width": {
                        "type": "string",
                        "value": "30%"
                    }
                }
            },
            "width": {}
        },
        "btnLeft": {
            "__events__": {},
            "__info__": {
                "kuid": "c1d7435e0deb4793bdba4471bbf14267",
                "srcKUID": "d619139df1dd4d3b92df9eccb30a4215",
                "wType": "Button"
            }
        },
        "btnUnCategorized": {
            "__events__": {},
            "__info__": {
                "kuid": "a3c28a08a7f0441d9805a4f33043c027",
                "srcKUID": "e965a3182f2d4753afb38dca8360c54d",
                "wType": "Button"
            },
            "centerY": {},
            "left": {},
            "responsiveData": {
                "b1": {},
                "b4": {
                    "centerY": {
                        "type": "string",
                        "value": "50%"
                    },
                    "left": {
                        "type": "string",
                        "value": "0%"
                    },
                    "width": {
                        "type": "string",
                        "value": "40%"
                    }
                }
            },
            "text": "Uncategorized",
            "width": {}
        },
        "flxContainer": {
            "__events__": {},
            "__info__": {
                "kuid": "c3a5a1dff2f141d39c88ab020f7e7dbb",
                "srcKUID": "ccc39b0779c24e38862699e58b237059",
                "wType": "FlexContainer"
            },
            "autogrowMode": {
                "Default": 1
            },
            "bottom": {},
            "height": {
                "Default": {
                    "type": "ref",
                    "value": "preferred"
                }
            },
            "left": {},
            "responsiveData": {
                "b1": {
                    "bottom": {
                        "type": "string",
                        "value": "5dp"
                    },
                    "left": {
                        "type": "string",
                        "value": "0dp"
                    },
                    "top": {
                        "type": "string",
                        "value": "50dp"
                    },
                    "width": {
                        "type": "string",
                        "value": "100%"
                    }
                },
                "b2": {
                    "bottom": {
                        "type": "string",
                        "value": "5dp"
                    },
                    "left": {
                        "type": "string",
                        "value": "5dp"
                    },
                    "top": {
                        "type": "string",
                        "value": "50dp"
                    },
                    "width": {
                        "type": "string",
                        "value": "99%"
                    }
                },
                "b3": {
                    "layoutType": 2
                },
                "b4": {
                    "top": {
                        "type": "string",
                        "value": "0dp"
                    },
                    "width": {
                        "type": "string",
                        "value": "100%"
                    },
                    "zIndex": 1
                }
            },
            "top": {},
            "width": {},
            "zIndex": {}
        },
        "flxDonutChart": {
            "__events__": {},
            "__info__": {
                "kuid": "ae8b8249d028456a99b3139012da415e",
                "srcKUID": "c5f2e03e1d254458b7a5c9526c7675db",
                "wType": "FlexContainer"
            },
            "autogrowMode": {
                "Default": 0
            },
            "height": {},
            "left": {
                "Default": {
                    "type": "string",
                    "value": "0dp"
                }
            },
            "responsiveData": {
                "b3": {
                    "height": {
                        "type": "string",
                        "value": "300dp"
                    },
                    "left": {
                        "type": "string",
                        "value": "46%"
                    },
                    "top": {
                        "type": "string",
                        "value": "0dp"
                    },
                    "width": {
                        "type": "string",
                        "value": "54%"
                    }
                }
            },
            "top": {
                "Default": {
                    "type": "string",
                    "value": "160dp"
                }
            },
            "width": {}
        },
        "flxLastMonthSpending": {
            "__events__": {},
            "__info__": {
                "kuid": "j92afad400a4423caed147220029b7c6",
                "srcKUID": "b0473bb00d2f48b8beb48477e0a55fc0",
                "wType": "FlexContainer"
            },
            "autogrowMode": {
                "Default": 0
            },
            "clipBounds": false,
            "height": {
                "Default": {
                    "type": "string",
                    "value": "662dp"
                }
            },
            "left": {},
            "responsiveData": {
                "b3": {
                    "height": {
                        "type": "string",
                        "value": "372dp"
                    },
                    "left": {
                        "type": "string",
                        "value": "5dp"
                    },
                    "top": {
                        "type": "string",
                        "value": "0dp"
                    },
                    "width": {
                        "type": "string",
                        "value": "98.30%"
                    }
                },
                "b4": {
                    "height": {
                        "type": "string",
                        "value": "622dp"
                    },
                    "left": {
                        "type": "string",
                        "value": "5dp"
                    },
                    "top": {
                        "type": "string",
                        "value": "4dp"
                    },
                    "width": {
                        "type": "string",
                        "value": "98%"
                    }
                }
            },
            "top": {},
            "width": {}
        },
        "flxLeft": {
            "__events__": {},
            "__info__": {
                "kuid": "f1c55a56a9a94ad7bd75fd8a064aff0f",
                "srcKUID": "f6eaca13e74d4e43be1dac964a32a53e",
                "wType": "FlexContainer"
            },
            "responsiveData": {
                "b1": {
                    "width": {
                        "type": "string",
                        "value": "56%"
                    }
                }
            },
            "width": {}
        },
        "flxMySpendingWrapperdataUnavailableSpending": {
            "__events__": {},
            "__info__": {
                "kuid": "b4efaa3a1cbc432483e46f1a64e69755",
                "srcKUID": "id44e5e93cff4180a898191d67a32689",
                "wType": "FlexContainer"
            },
            "autogrowMode": {
                "Default": 0
            },
            "height": {},
            "left": {},
            "responsiveData": {
                "b3": {
                    "height": {
                        "type": "string",
                        "value": "300dp"
                    },
                    "isVisible": false,
                    "left": {
                        "type": "string",
                        "value": "46%"
                    },
                    "top": {
                        "type": "string",
                        "value": "0dp"
                    },
                    "width": {
                        "type": "string",
                        "value": "54%"
                    }
                },
                "b4": {
                    "isVisible": false
                }
            },
            "top": {},
            "width": {}
        },
        "flxNoTransactions": {
            "__events__": {},
            "__info__": {
                "kuid": "de227c22797042f6b0ff535a492273c4",
                "srcKUID": "je35ea3e76e94d37ba54ffc4abbe83b0",
                "wType": "FlexContainer"
            },
            "autogrowMode": {
                "Default": 0
            },
            "height": {},
            "responsiveData": {
                "b4": {
                    "height": {
                        "type": "string",
                        "value": "400dp"
                    },
                    "isVisible": false,
                    "left": {
                        "type": "string",
                        "value": "0dp"
                    },
                    "top": {
                        "type": "string",
                        "value": "0dp"
                    },
                    "width": {
                        "type": "string",
                        "value": "100%"
                    }
                }
            },
            "top": {},
            "width": {}
        },
        "flxNoTransactionsMySpendingUncategorized": {
            "__events__": {},
            "__info__": {
                "kuid": "j3a732591ad1452495a3ea6911dbddc9",
                "srcKUID": "a7be6b2e7aa44513967c9eea81d2cd1f",
                "wType": "FlexContainer"
            },
            "responsiveData": {
                "b3": {
                    "centerX": {
                        "type": "string",
                        "value": "50.00%"
                    },
                    "top": {
                        "type": "string",
                        "value": "50dp"
                    }
                }
            }
        },
        "flxRight": {
            "__events__": {},
            "__info__": {
                "kuid": "ac333456b5984b698c2ddd4fe42e7e6a",
                "srcKUID": "f3854785784140e8b077794e8f0e0f79",
                "wType": "FlexContainer"
            }
        },
        "flxSegmentContainer": {
            "__events__": {},
            "__info__": {
                "kuid": "f72dbf76f50340d0be709cc22e124c34",
                "srcKUID": "f737a2dd7a6646d483a64838243da432",
                "wType": "FlexContainer"
            },
            "responsiveData": {
                "b3": {
                    "width": {
                        "type": "string",
                        "value": "99.50%"
                    }
                },
                "b4": {
                    "isVisible": true,
                    "width": {
                        "type": "string",
                        "value": "99.50%"
                    }
                }
            },
            "width": {}
        },
        "flxSeparatorNoResults": {
            "__events__": {},
            "__info__": {
                "kuid": "a35ca1c75cbf457fb776ca28f89fd386",
                "srcKUID": "ia527fe567ab4918aab5533d7a09d8fc",
                "wType": "FlexContainer"
            },
            "responsiveData": {
                "b4": {
                    "isVisible": true
                }
            }
        },
        "flxSeparatorSort": {
            "__events__": {},
            "__info__": {
                "kuid": "e32ffee3a95b4e5e892747cb6d1c576e",
                "srcKUID": "a6b51feb254740909550742833761b92",
                "wType": "FlexContainer"
            },
            "autogrowMode": {
                "Default": 0
            },
            "height": {
                "Default": {
                    "type": "string",
                    "value": "662dp"
                }
            },
            "left": {},
            "responsiveData": {
                "b1": {
                    "isVisible": true,
                    "left": {
                        "type": "string",
                        "value": "-2dp"
                    },
                    "width": {
                        "type": "string",
                        "value": "1dp"
                    },
                    "zIndex": 10
                },
                "b3": {
                    "height": {
                        "type": "string",
                        "value": "310dp"
                    },
                    "isVisible": true,
                    "left": {
                        "type": "string",
                        "value": "45%"
                    },
                    "top": {
                        "type": "string",
                        "value": "-345dp"
                    },
                    "width": {
                        "type": "string",
                        "value": "1dp"
                    },
                    "zIndex": 10
                },
                "b4": {
                    "isVisible": true
                }
            },
            "top": {},
            "width": {},
            "zIndex": {}
        },
        "flxShadowSort": {
            "__events__": {},
            "__info__": {
                "kuid": "bd83613759e344dfb33f5a62dc94d3d8",
                "srcKUID": "ef459fc6853741c5ac2b2cfaa2752cd1",
                "wType": "FlexContainer"
            }
        },
        "flxSort": {
            "__events__": {},
            "__info__": {
                "kuid": "b3365278b36147c6b9a162a83bb00c81",
                "srcKUID": "i9dd41313dce48a8b5297314fffb1c5b",
                "wType": "FlexContainer"
            },
            "responsiveData": {
                "b1": {
                    "width": {
                        "type": "string",
                        "value": "101%"
                    }
                },
                "b3": {
                    "width": {
                        "type": "string",
                        "value": "99.50%"
                    }
                },
                "b4": {
                    "isVisible": false
                }
            },
            "width": {}
        },
        "flxSortAmount": {
            "__events__": {},
            "__info__": {
                "kuid": "f8ede2825bda4eedbc2e7ba8db886ce2",
                "srcKUID": "bceb4f7aa8a2431a877c060378a7917e",
                "wType": "FlexContainer"
            }
        },
        "flxSortCategory": {
            "__events__": {},
            "__info__": {
                "kuid": "f53389fad1954260937191e2a39e9666",
                "srcKUID": "bf0d5103198f469785d511d74e8190c0",
                "wType": "FlexContainer"
            }
        },
        "flxSortDate": {
            "__events__": {},
            "__info__": {
                "kuid": "c6e9c2e67a624dc281f7906b4845f17e",
                "srcKUID": "fa252d3b90fb46e3a45ead37305d7d95",
                "wType": "FlexContainer"
            }
        },
        "flxSortDescription": {
            "__events__": {},
            "__info__": {
                "kuid": "f5b2e87a168d40ddb15e97cacbe039b7",
                "srcKUID": "id4aae54bc0347439abe92f5490894d0",
                "wType": "FlexContainer"
            }
        },
        "flxSortSixColumn": {
            "__events__": {},
            "__info__": {
                "kuid": "i8245fdded94479ab20733fe14a90565",
                "srcKUID": "c2ef483fd2fa46e29828f75d008e5abf",
                "wType": "FlexContainer"
            }
        },
        "flxTabs": {
            "__events__": {},
            "__info__": {
                "kuid": "e3eb961409154803ac633583b4f7dd89",
                "srcKUID": "h08d0765fcd049a7a2258f98f2bbf766",
                "wType": "FlexContainer"
            },
            "left": {},
            "responsiveData": {
                "b4": {
                    "isVisible": true,
                    "left": {
                        "type": "string",
                        "value": "2dp"
                    },
                    "width": {
                        "type": "string",
                        "value": "99.30%"
                    },
                    "zIndex": 5
                }
            },
            "width": {},
            "zIndex": {}
        },
        "flxTransactions": {
            "__events__": {},
            "__info__": {
                "kuid": "jd54b8bf562d4ff09e90d5372ea95569",
                "srcKUID": "cac03a95cdc541bea9d500e2554e5f79",
                "wType": "FlexContainer"
            },
            "autogrowMode": {
                "Default": 1
            },
            "clipBounds": false,
            "height": {
                "Default": {
                    "type": "ref",
                    "value": "preferred"
                }
            },
            "responsiveData": {
                "b3": {
                    "layoutType": 4
                },
                "b4": {
                    "layoutType": 2
                }
            }
        },
        "flxTransactionsHeader": {
            "__events__": {},
            "__info__": {
                "kuid": "f3fb1405101e42e5988c35a3b23416d6",
                "srcKUID": "dad38b34673c4837b229a8b708599967",
                "wType": "FlexContainer"
            },
            "autogrowMode": {
                "Default": 0
            },
            "bottom": {},
            "clipBounds": false,
            "height": {
                "Default": {
                    "type": "string",
                    "value": "662dp"
                }
            },
            "left": {},
            "responsiveData": {
                "b1": {
                    "left": {
                        "type": "string",
                        "value": "0dp"
                    },
                    "width": {
                        "type": "string",
                        "value": "67%"
                    }
                },
                "b2": {
                    "left": {
                        "type": "string",
                        "value": "-2dp"
                    }
                },
                "b3": {
                    "bottom": {
                        "type": "string",
                        "value": "5dp"
                    },
                    "left": {
                        "type": "string",
                        "value": "5dp"
                    },
                    "top": {
                        "type": "string",
                        "value": "60dp"
                    },
                    "width": {
                        "type": "string",
                        "value": "98.30%"
                    }
                },
                "b4": {
                    "bottom": {
                        "type": "string",
                        "value": "10dp"
                    },
                    "left": {
                        "type": "string",
                        "value": "4dp"
                    },
                    "top": {
                        "type": "string",
                        "value": "740dp"
                    },
                    "width": {
                        "type": "string",
                        "value": "98.30%"
                    }
                }
            },
            "top": {},
            "width": {}
        },
        "imgInfo": {
            "__events__": {},
            "__info__": {
                "kuid": "hdea2f53aad74381ac10d3b4b16e31af",
                "srcKUID": "b20b377cec4f4da4920a3b5c6e4c7d27",
                "wType": "Image"
            },
            "left": {},
            "responsiveData": {
                "b4": {
                    "left": {
                        "type": "string",
                        "value": "43.86%"
                    },
                    "top": {
                        "type": "string",
                        "value": "107dp"
                    }
                }
            }
        },
        "imgInfoMySpendingUncategorized": {
            "__events__": {},
            "__info__": {
                "kuid": "ffccfe785a5a4457829a051b4f58a733",
                "srcKUID": "c460fac6b78942a3bde1fbd769a10540",
                "wType": "Image"
            },
            "responsiveData": {
                "b3": {}
            }
        },
        "imgSortAmount": {
            "__events__": {},
            "__info__": {
                "kuid": "b042aa77fc384f39ba727021dc774d55",
                "srcKUID": "ab39d4665a6848daae30c2f771a1e7b6",
                "wType": "Image"
            },
            "isVisible": false,
            "src": "sorting.png"
        },
        "imgSortDate": {
            "__events__": {},
            "__info__": {
                "kuid": "jde789aa5f6a406fb6bf8c8faa15f1c7",
                "srcKUID": "c7e75911a4394417bc40c2a7f1157891",
                "wType": "Image"
            },
            "isVisible": false,
            "src": "sorting.png"
        },
        "lblImgMySpendingUncategorized": {
            "__events__": {},
            "__info__": {
                "kuid": "d889e5d8a8194f698843badf1fc6b2f5",
                "srcKUID": "i0428c93fad14ad1bbedbd99f2b2e1ad",
                "wType": "Label"
            }
        },
        "lblLastMonthSpending": {
            "__events__": {},
            "__info__": {
                "kuid": "g839df16a178473e8d234c4aeb7e5bcd",
                "srcKUID": "cb2ca7add36c44c08e6c2b6fd77d9174",
                "wType": "Label"
            },
            "left": {},
            "responsiveData": {
                "b3": {
                    "left": {
                        "type": "string",
                        "value": "3.00%"
                    },
                    "top": {
                        "type": "string",
                        "value": "42dp"
                    }
                },
                "b4": {
                    "left": {
                        "type": "string",
                        "value": "2.50%"
                    }
                }
            },
            "top": {}
        },
        "lblMySpendingUncategorized": {
            "__events__": {},
            "__info__": {
                "kuid": "f6e1847ddb29455f9da2ff1584d37584",
                "srcKUID": "e605f51f7c0d41e1a1e74ee04d7110de",
                "wType": "Label"
            },
            "responsiveData": {
                "b3": {}
            }
        },
        "lblOverallSpending": {
            "__events__": {},
            "__info__": {
                "kuid": "f2717f69fe4948fca369f457b6414ffd",
                "srcKUID": "af42ef40fd8e4dcea0a3f022584d2a34",
                "wType": "Label"
            },
            "left": {},
            "responsiveData": {
                "b3": {
                    "left": {
                        "type": "string",
                        "value": "3.00%"
                    },
                    "top": {
                        "type": "string",
                        "value": "160dp"
                    }
                },
                "b4": {
                    "left": {
                        "type": "string",
                        "value": "2.50%"
                    }
                }
            }
        },
        "lblOverallSpendingAmount": {
            "__events__": {},
            "__info__": {
                "kuid": "f623c2cf80754c34ad9d8ee95cad11de",
                "srcKUID": "bac71474443e40bab20901478ea76326",
                "wType": "Label"
            },
            "left": {},
            "responsiveData": {
                "b2": {
                    "right": {
                        "type": "string",
                        "value": "7%"
                    }
                },
                "b3": {
                    "left": {
                        "type": "string",
                        "value": "3%"
                    },
                    "right": {
                        "type": "string",
                        "value": ""
                    },
                    "top": {
                        "type": "string",
                        "value": "200dp"
                    }
                },
                "b4": {
                    "left": {
                        "type": "string",
                        "value": ""
                    },
                    "right": {
                        "type": "string",
                        "value": "2%"
                    },
                    "text": "$3000.00"
                }
            },
            "right": {}
        },
        "lblSortAmount": {
            "__events__": {},
            "__info__": {
                "kuid": "f5dd41f5580d4148a8e88df7b17e25a9",
                "srcKUID": "b2407abb993b4b6a8906c7a5f9b63bc8",
                "wType": "Label"
            }
        },
        "lblSortCategory": {
            "__events__": {},
            "__info__": {
                "kuid": "f0139d88d6274540ba4b4b2a6c431799",
                "srcKUID": "i7c95978da4246f584f224eed58278e5",
                "wType": "Label"
            }
        },
        "lblSortDate": {
            "__events__": {},
            "__info__": {
                "kuid": "e0d5d2b2263641e888b6570d6b12ca5a",
                "srcKUID": "b5d141328b93467aac0db8389ca8c105",
                "wType": "Label"
            }
        },
        "lblSortDescription": {
            "__events__": {},
            "__info__": {
                "kuid": "h16f4694897f4e7387ac46a6d89183d4",
                "srcKUID": "e22e49341e8245edb05b127bbd8fd091",
                "wType": "Label"
            }
        },
        "lstSelectMonth": {
            "__events__": {},
            "__info__": {
                "kuid": "hccddec43d484e2cb5f6bffaf1128797",
                "srcKUID": "a256a0d796ad49e79c57f2e0f96809bc",
                "wType": "ListBox"
            },
            "left": {},
            "responsiveData": {
                "b2": {
                    "left": {
                        "type": "string",
                        "value": "7.50%"
                    }
                },
                "b3": {
                    "left": {
                        "type": "string",
                        "value": "3.00%"
                    },
                    "top": {
                        "type": "string",
                        "value": "75dp"
                    },
                    "width": {
                        "type": "string",
                        "value": "40%"
                    }
                },
                "b4": {
                    "left": {
                        "type": "string",
                        "value": "2.50%"
                    },
                    "width": {
                        "type": "string",
                        "value": "95%"
                    }
                }
            },
            "width": {}
        },
        "rtxNoPaymentMessage": {
            "__events__": {},
            "__info__": {
                "kuid": "j97c4cdca5ea461a924f8cb63e2f14a6",
                "srcKUID": "bd51a54a3e7445aca34014ae14cebd38",
                "wType": "RichText"
            },
            "centerX": {},
            "i18n_text": null,
            "left": {},
            "responsiveData": {
                "b1": {
                    "text": "No Categorized Transactions found"
                },
                "b4": {
                    "centerX": {
                        "type": "string",
                        "value": "50%"
                    },
                    "left": {
                        "type": "string",
                        "value": ""
                    },
                    "top": {
                        "type": "string",
                        "value": "186dp"
                    },
                    "width": {
                        "type": "string",
                        "value": "70%"
                    }
                }
            },
            "width": {}
        },
        "segTransactions": {
            "__events__": {},
            "__info__": {
                "kuid": "g37e943d93dc443a936357145a46d99d",
                "srcKUID": "g5f9bfca5cfc4202902a17b90ef6cff4",
                "wType": "Segment"
            },
            "left": {},
            "responsiveData": {
                "b3": {},
                "b4": {
                    "isVisible": false,
                    "left": {
                        "type": "string",
                        "value": "3dp"
                    },
                    "width": {
                        "type": "string",
                        "value": "100%"
                    }
                }
            },
            "width": {
                "Default": {
                    "type": "string",
                    "value": "100%"
                }
            }
        }
    },
    "id": "CategorizedMonthlySpending",
    "info": null,
    "isdatareferenced": false,
    "issegmentchild": false,
    "isvisible": true,
    "kuid": "b57e3bc0f6e84c1f8301c66141eb52be",
    "layouttype": 2,
    "masterType": 0,
    "name": "kony.ui.UserWidgetInstance",
    "parent": "flexCategorizedMonthlySpending",
    "pf": "frmPersonalFinanceManagement",
    "snaptogrid": true,
    "sourceUserWidget": "gbf7a8f695f245cbb5d2f02bf236fb03",
    "vizprops": {
        "hidewidgethierarchy": false
    },
    "wType": "UserWidgetInstance"
}