{
    "DNDConfig": null,
    "__parentReadjusting__": false,
    "_bottom_": {
        "type": "string",
        "value": "0dp"
    },
    "_height_": {
        "type": "string",
        "value": "500dp"
    },
    "_left_": {
        "type": "string",
        "value": "1.30%"
    },
    "_margin_": [
        0,
        0,
        0,
        0
    ],
    "_orientation_": 6,
    "_padding_": [
        0,
        0,
        0,
        0
    ],
    "_percent_": true,
    "_right_": {
        "type": "string",
        "value": ""
    },
    "_skin_": "sd16ce1e169e41989424e7544cbf4816",
    "_top_": {
        "type": "string",
        "value": "5dp"
    },
    "_width_": {
        "type": "string",
        "value": "48.50%"
    },
    "allboxes": [],
    "autogrowmode": 0,
    "canUpdateUI": true,
    "children": [
        "flxHeaderMySpending",
        "flxSeparatorMySpending",
        "flxMySpendingWrapper",
        "flxSeperatorMySpending"
    ],
    "clipbounds": false,
    "containerweight": 100,
    "enablescrolling": true,
    "id": "flxPFMContainerMySpending",
    "info": null,
    "isvisible": true,
    "kuid": "a5da6d5b9b4c4bf5a18622147b974946",
    "layouttype": 4,
    "name": "kony.ui.FlexContainer",
    "parent": "flxPFMContainer1",
    "pf": "frmPersonalFinanceManagement",
    "responsiveData": {
        "b1": {
            "left": {
                "type": "string",
                "value": "1.60%"
            },
            "skin": "sd16ce1e169e41989424e7544cbf4816",
            "width": {
                "type": "string",
                "value": "49.20%"
            }
        },
        "b2": {
            "left": {
                "type": "string",
                "value": "1.60%"
            },
            "skin": "s5f0c407d8444f60abc4539dd5c7b345",
            "width": {
                "type": "string",
                "value": "49.20%"
            }
        },
        "b3": {
            "left": {
                "type": "string",
                "value": "1.60%"
            },
            "right": {
                "type": "string",
                "value": ""
            }
        },
        "b4": {
            "bottom": {
                "type": "string",
                "value": ""
            },
            "isVisible": true,
            "left": {
                "type": "string",
                "value": "2%"
            },
            "top": {
                "type": "string",
                "value": "20dp"
            },
            "width": {
                "type": "string",
                "value": "96%"
            }
        }
    },
    "snapgridsize": 10,
    "snaptogrid": true,
    "wType": "FlexContainer",
    "widgetalignment": 1,
    "zindex": 1
}