{
    "@class": "com.kony.gen.viz.model.component.KVizLabel",
    "DNDConfig": null,
    "__parentReadjusting__": false,
    "_height_": {
        "type": "ref",
        "value": "preferred"
    },
    "_left_": {
        "type": "string",
        "value": "30dp"
    },
    "_margin_": [
        1,
        1,
        1,
        1
    ],
    "_padding_": [
        0,
        0,
        0,
        0
    ],
    "_skin_": "se56454286124fef97a46e7249497088",
    "_text_": "",
    "_top_": {
        "type": "string",
        "value": "31dp"
    },
    "_width_": {
        "type": "ref",
        "value": "preferred"
    },
    "_wrapping_": 2,
    "accessibilityconfig": {
        "a11yLabel": "Select Period:"
    },
    "android": {
        "textStyle": {
            "letterSpacing": 0,
            "strikeThrough": false
        }
    },
    "canUpdateUI": true,
    "containerweight": 100,
    "contentalignment": 4,
    "id": "lblSelectPeriod",
    "info": null,
    "ipad": {
        "psp": {
            "wrapping": 2
        }
    },
    "iphone": {
        "psp": {
            "wrapping": 2
        }
    },
    "isvisible": true,
    "kuid": "i7e473aca2a84876a569ff0955d79aea",
    "name": "kony.ui.Label",
    "parent": "flxOverallSpendingWrapper",
    "pf": "frmPersonalFinanceManagement",
    "responsiveData": {
        "b2": {
            "left": {
                "type": "string",
                "value": "5.32%"
            }
        },
        "b3": {
            "left": {
                "type": "string",
                "value": "7%"
            }
        }
    },
    "texti18n": "i18n.PFM.SelectPeriod",
    "tooltip": "",
    "wType": "Label",
    "zindex": 1
}