{
    "@class": "com.kony.gen.viz.model.container.KVizSegment2",
    "DNDConfig": null,
    "_data_": [{},
        {},
        {},
        {},
        {},
        {},
        {},
        {},
        {},
        {}
    ],
    "_height_": {
        "type": "ref",
        "value": "preferred"
    },
    "_indicator_": "none",
    "_left_": {
        "type": "string",
        "value": "30dp"
    },
    "_margin_": [
        0,
        0,
        0,
        0
    ],
    "_orientation_": 2,
    "_padding_": [
        0,
        0,
        0,
        0
    ],
    "_top_": {
        "type": "string",
        "value": "0dp"
    },
    "_width_": {
        "type": "string",
        "value": "92%"
    },
    "autogrowmode": 1,
    "canUpdateUI": true,
    "containerweight": 100,
    "counter": "09",
    "focusedindex": null,
    "focuseditem": null,
    "groupcells": false,
    "hasSections": false,
    "id": "segAccounts",
    "info": null,
    "ipad": {
        "psp": {
            "indicator": "rowselect"
        }
    },
    "iphone": {
        "psp": {
            "indicator": "rowselect"
        }
    },
    "isvisible": true,
    "kuid": "aef910497af742999ddf2bb2798c4e43",
    "masterdata": {},
    "maxheight": {
        "type": "string",
        "value": "549dp"
    },
    "name": "kony.ui.SegmentedUI2",
    "needpageindicator": true,
    "pageoffdotimage": "pageoffdot.png",
    "pageondotimage": "pageondot.png",
    "paginationconfig": {
        "position": "bottom"
    },
    "parent": "flxMySpendingWrapperAccounts",
    "pf": "frmPersonalFinanceManagement",
    "responsiveData": {
        "b1": {
            "left": {
                "type": "string",
                "value": "4%"
            },
            "width": {
                "type": "string",
                "value": "96%"
            }
        },
        "b2": {
            "left": {
                "type": "string",
                "value": "5.32%"
            }
        },
        "b3": {
            "left": {
                "type": "string",
                "value": "3%"
            },
            "width": {
                "type": "string",
                "value": "97%"
            }
        },
        "b4": {
            "left": {
                "type": "string",
                "value": "20dp"
            },
            "maxHeight": {
                "type": "string",
                "value": "349dp"
            }
        }
    },
    "retainselection": false,
    "rowTemplateId": "g4156fa1bc1041d897826bcabed7ba72",
    "rowcounter": 9,
    "rowfocusskin": "s9f69e977910472eb44c62ae28c41fe1",
    "rowskin": "scf5f90f6ac04976ab88b2a4f7153285",
    "rowtemplate": "flxPFMAccounts",
    "screenlevelwidget": false,
    "seccounter": 0,
    "sectionHeaderTemplateId": null,
    "sectionheaderskin": "sdc4ff4ed1584272be2ae69045dfb29d",
    "selectedRows": null,
    "selectedState": false,
    "selectedindex": null,
    "selectedindices": null,
    "selecteditems": null,
    "selectedsectionindex": 0,
    "selectionbehavior": "default",
    "separatorrequired": false,
    "showscrollbars": false,
    "viewtype": "tableview",
    "vizProps": {},
    "wType": "Segment",
    "widgetalignment": 5,
    "widgetdatamap": {
        "flPFMAccountListItemWrapper": "flPFMAccountListItemWrapper",
        "flxAccountName": "flxAccountName",
        "flxAvailableBalance": "flxAvailableBalance",
        "flxContent": "flxContent",
        "flxCredit": "flxCredit",
        "flxDebit": "flxDebit",
        "flxPFMAccounts": "flxPFMAccounts",
        "lblAccountName": "lblAccountName",
        "lblAccountNumber": "lblAccountNumber",
        "lblAvailableBalanceTitle": "lblAvailableBalanceTitle",
        "lblAvailableBalanceValue": "lblAvailableBalanceValue",
        "lblCreditKey": "lblCreditKey",
        "lblCreditValue": "lblCreditValue",
        "lblDebitKey": "lblDebitKey",
        "lblDebitValue": "lblDebitValue",
        "lblIdentifier": "lblIdentifier",
        "lblSeparator": "lblSeparator",
        "lblSepeartor2": "lblSepeartor2",
        "lblSeperator3": "lblSeperator3"
    },
    "zindex": 1
}