{
    "@class": "com.kony.gen.viz.model.component.KVizUserWidget",
    "DNDConfig": null,
    "_bottom_": {
        "type": "number",
        "value": ""
    },
    "_children_": [],
    "_height_": {
        "type": "ref",
        "value": "preferred"
    },
    "_left_": {
        "type": "string",
        "value": "83dp"
    },
    "_margin_": [
        0,
        0,
        0,
        0
    ],
    "_orientation_": 1,
    "_padding_": [
        0,
        0,
        0,
        0
    ],
    "_percent_": true,
    "_render_": true,
    "_right_": {
        "type": "string",
        "value": "489dp"
    },
    "_skin_": "sfa77fa8edbe48c0b2a353776df1cb24",
    "_top_": {
        "type": "string",
        "value": "20dp"
    },
    "_width_": {
        "type": "ref",
        "value": "preferred"
    },
    "canUpdateUI": true,
    "containerweight": 0,
    "data": {
        "dvObjName": "{\"New Payee\":\"Transactions\",\"Existing Payee\":\"Transaction\"}",
        "dvObjServiceName": "{\"New Payee\":\"RBObjects\",\"Existing Payee\":\"TransactionObjects\"}",
        "dvOpName": "{\"Existing Payee\":{\"Same Bank Transfer\":{\"default\":\"TransferToOwnAccounts\",\"external\":\"IntraBankAccFundTransfer\",\"credit\":\"createCreditCardTransfer\"},\"Domestic Transfer\":\"InterBankAccFundTransfer\",\"International Transfer\":\"InternationalAccFundTransfer\",\"Pay a Person\":\"\"},\"New Payee\":\"createOneTimeTransfer\"}",
        "feesPaidOption3": "{\"optionValue\":\"{i.i18n.UnifiedTransfer.Shared}\",\"optionSeleted\":false,\"infoIconText\":{\"text\":{\"$.BREAKPTS.BP1\":\"Both (Shared):  The Payer (sender of the payment) will pay all fees charged by the sending bank. The Payee (recipient of the payment) will pay all fees charged by the receiving bank.\",\"default\":\"Both (Shared):  The Payer (sender of the payment) will pay all fees charged by the sending bank. The Payee (recipient of the payment) will pay all fees charged by the receiving bank.\"}}}",
        "frequencyToRemove": "\"\"",
        "fromAccountActionKey": "INTERNATIONAL_ACCOUNT_FUND_TRANSFER_CREATE",
        "lblAddPayeeAddress": "{\"$.BREAKPTS.BP1\":\"{i.i18n.UnifiedTransfer.BeneficiaryAddressDetails}\",\"default\":\"{i.i18n.UnifiedTransfer.BeneficiaryAddressDetails}\"}",
        "lblFrequencyType": "{\"$.BREAKPTS.BP1\":\"{i.i18n.transfers.lblForHowLong}\",\"default\":\"{i.i18n.transfers.lblForHowLong}\"}",
        "lblFromAccount": "{\"$.BREAKPTS.BP1\":\"{i.i18n.UnifiedTransfer.FromAccount}:\",\"default\":\"{i.i18n.UnifiedTransfer.FromAccount}:\"}",
        "lblFromAccountDropdownListField1": "{\"internal\":{\"default\":{\"mapping\":[{\"fieldMap\":\"accountName\",\"format\":{\"truncateLength\":22,\"appendString\":\"....\"}},{\"fieldMap\":\"accountID\",\"format\":{\"sliceLength\":-4}}],\"fieldType\":\"AccountName\"}},\"isMaskingEnabled\":true}",
        "lblNotes": "{\"$.BREAKPTS.BP1\":\"{i.i18n.UnifiedTransfer.PaymentDetailsOptional}\",\"default\":\"{i.i18n.UnifiedTransfer.PaymentDetailsOptional}\"}",
        "lblPayeeDetail1": "{\"$.BREAKPTS.BP1\":\"{i.i18n.UnifiedTransfer.BicSwift}:\",\"default\":\"{i.i18n.UnifiedTransfer.BicSwift}:\"}",
        "lblPayeeDetailField2": "{\"$.BREAKPTS.BP1\":\"{i.i18n.UnifiedTransfer.ClearingCode1}:\",\"default\":\"{i.i18n.UnifiedTransfer.ClearingCode1}:\"}",
        "lblPayeeDetailField3": "{\"$.BREAKPTS.BP1\":\"{i.i18n.UnifiedTransfer.ClearingCode2}:\",\"default\":\"{i.i18n.UnifiedTransfer.ClearingCode2}:\"}",
        "lblPayeeDetailField4": "{\"$.BREAKPTS.BP1\":\"{i.i18n.transfers.bankName}:\",\"default\":\"{i.i18n.transfers.bankName}:\"}",
        "lblSupportingDocuments": "{\"$.BREAKPTS.BP1\":\"{i.i18n.UnifiedTransfer.AttachDocuments}\",\"default\":\"{i.i18n.UnifiedTransfer.AttachDocuments}\"}",
        "lblToAccount": "{\"$.BREAKPTS.BP1\":\"{i.i18n.UnifiedTransfer.ToAccount}:\",\"default\":\"{i.i18n.UnifiedTransfer.ToAccount}:\"}",
        "lblToAccountDropdownField1": "{\"external\":{\"mapping\":[{\"fieldMap\":\"beneficiaryName\",\"format\":{\"truncateLength\":22,\"appendString\":\"....\"}},{\"fieldMap\":\"accountNumber\",\"format\":{\"sliceLength\":-4}}],\"fieldType\":\"AccountName\"},\"isMaskingEnabled\":true}",
        "lblToAccountDropdownField2": "{\"external\":{\"mapping\":[{\"fieldMap\":\"bankName\"}],\"fieldType\":\"Label\"}}",
        "lblToAccountDropdownField3": "",
        "lblToAccountEmptyRecord": "{\"default\":\"No results found. You can transfer to a new account without adding it.\"}",
        "lblTransferCurrency": "{\"$.BREAKPTS.BP1\":\"{i.i18n.WireTransfer.TransferCurrency}:\",\"default\":\"{i.i18n.WireTransfer.TransferCurrency}:\"}",
        "paymentAmountOption1": "",
        "paymentAmountOption2": "",
        "paymentAmountOption3": "",
        "paymentAmountOption4": "",
        "paymentMethodOption1": "",
        "paymentMethodOption2": "",
        "paymentMethodOption3": "",
        "paymentMethodOption4": "",
        "paymentMethodOption5": "",
        "searchField2Label": "{\"$.BREAKPTS.BP1\": \"Branch Name:\",   \"default\": \"Branch Name:\" }",
        "searchField2Value": "{\"mapping\":\"{$.c.branch}\",\"placeHolder\":{\"$.BREAKPTS.BP1\":\"Enter Branch\",\"default\":\"Enter Branch\"},\"Mandatory\" : false,\"maxLength\": \"15\"}",
        "searchField3Label": "{   \"$.BREAKPTS.BP1\": \"Country:\",   \"default\": \"Country:\" }",
        "searchField3Value": "{\"mapping\":\"{$.c.country}\",\"placeHolder\":{\"$.BREAKPTS.BP1\":\"Enter Country\",\"default\":\"Enter Country\"},\"Mandatory\" : true,\"maxLength\": \"15\"}",
        "searchField4Label": "{   \"$.BREAKPTS.BP1\": \"City:\",   \"default\": \"City:\" }",
        "searchField4Value": "{\"mapping\":\"{$.c.city}\",\"placeHolder\":{\"$.BREAKPTS.BP1\":\"Enter City\",\"default\":\"Enter City\"},\"Mandatory\" : true,\"maxLength\": \"15\"}",
        "txtInputE2E": "",
        "txtInputIntermediaryBIC": "{\"mapping\":\"{$.c.intermediaryBic}\",\"placeHolder\":{\"$.BREAKPTS.BP1\":\"Enter Intermediary BIC\",\"default\":\"Enter Intermediary BIC\"},\"maxLength\": \"11\"}",
        "txtInputNewPayeeAccountNumber": "{\"mapping\":\"{$.c.newPayeeAccountNumber}\",\"placeHolder\":{\"$.BREAKPTS.BP1\":\"Enter Account Number\",\"default\":\"Enter Account Number\"},\"isMaskingEnabled\":true,\"infoIconText\":\"\",\"inputMode\":\"ANY\",\"tooltip\":\"Account Number\",\"maxLength\": \"25\"}",
        "txtInputNewPayeeName": "{\"mapping\":\"{$.c.newPayeeName}\",\"placeHolder\":{\"$.BREAKPTS.BP1\":\"Enter Payee Name\",\"default\":\"Enter Payee Name\"},\"maxLength\": \"25\"}",
        "txtInputNotes": "{   \"mapping\": \"{$.c.transactionsNotes}\",   \"placeHolder\": {     \"$.BREAKPTS.BP1\": \"Enter Note\",     \"default\": \"Enter Note\"   } }",
        "txtInputPayeeDetail1": "{\"mapping\":\"{$.c.swiftCode}\",\"placeHolder\":{\"$.BREAKPTS.BP1\":\"Enter BIC / SWIFT\",\"default\":\"Enter BIC / SWIFT\"},\"formatType\":\"Swift\",\"backendMapping\":\"swiftCode\",\"maxLength\":\"15\"}",
        "txtInputPayeeDetail2": "{\"mapping\":\"{$.c.clearingCode1}\",\"placeHolder\":{\"$.BREAKPTS.BP1\":\"Enter Clearing code 1\",\"default\":\"Enter Clearing Code 1\"},\"maxLength\": \"15\"}",
        "txtInputPayeeDetail3": "{\"mapping\":\"{$.c.clearingCode2}\",\"placeHolder\":{\"$.BREAKPTS.BP1\":\"Enter Clearing code 2\",\"default\":\"Enter Clearing Code 2\"},\"maxLength\": \"15\"}",
        "txtInputPayeeDetail4": "{\"mapping\":\"{$.c.bankName}\",\"placeHolder\":{\"$.BREAKPTS.BP1\":\"Enter Bank Name\",\"default\":\"Enter Bank Name\"},\"backendMapping\":\"bankName\",\"maxLength\": \"20\"}",
        "txtInputReenterAccountNumber": "{\"mapping\":\"{$.c.newPayeeAccountNumberReenter}\",\"placeHolder\":{\"$.BREAKPTS.BP1\":\"Re-enter Account Number\",\"default\":\"Re-enter Account Number\"},\"isMaskingEnabled\":false,\"inputMode\":\"ANY\",\"tooltip\":\"Re-enter Account Number\",\"maxLength\": \"25\"}",
        "txtInputTransferAmount": "{\"mapping\":\"{$.c.amount}\",\"placeHolder\":{\"$.BREAKPTS.BP1\":\"0.00\",\"default\":\"0.00\"},\"inputMode\":\"NUMERIC\",\"type\":\"Amount\",\"currencyCode\":\"$.c.transferCurrency\",\"maxLength\":\"10\"}",
        "txtInputfxRateReference": ""
    },
    "id": "unifiedTransfers",
    "info": null,
    "iscustomlayout": false,
    "issegmentchild": false,
    "isvisible": true,
    "kuid": "i4bc3a80c9054e8687a070a6bfddf9df",
    "masterType": 1,
    "name": "kony.ui.UserWidgetInstance",
    "parent": "flxTransferContent",
    "pf": "frmInternationalTransfer",
    "responsiveData": {
        "b1": {
            "bottom": {
                "type": "string",
                "value": "10dp"
            },
            "height": {
                "type": "ref",
                "value": "preferred"
            },
            "left": {
                "type": "string",
                "value": "7dp"
            },
            "right": {
                "type": "string",
                "value": ""
            },
            "top": {
                "type": "string",
                "value": "16dp"
            },
            "width": {
                "type": "string",
                "value": "98%"
            }
        },
        "b2": {
            "height": {
                "type": "ref",
                "value": "preferred"
            },
            "left": {
                "type": "string",
                "value": "7dp"
            },
            "right": {
                "type": "string",
                "value": "7dp"
            },
            "top": {
                "type": "string",
                "value": "16dp"
            },
            "width": {
                "type": "string",
                "value": "98%"
            }
        },
        "b3": {
            "height": {
                "type": "ref",
                "value": "preferred"
            },
            "left": {
                "type": "string",
                "value": "6dp"
            },
            "right": {
                "type": "string",
                "value": "6dp"
            },
            "top": {
                "type": "string",
                "value": "0dp"
            },
            "width": {
                "type": "string",
                "value": "98%"
            }
        },
        "b4": {
            "bottom": {
                "type": "string",
                "value": "10dp"
            },
            "height": {
                "type": "ref",
                "value": "preferred"
            },
            "left": {
                "type": "string",
                "value": "7dp"
            },
            "right": {
                "type": "string",
                "value": ""
            },
            "top": {
                "type": "string",
                "value": "16dp"
            },
            "width": {
                "type": "string",
                "value": "100%"
            }
        }
    },
    "retaincontentalignment": false,
    "retainflexpositionproperties": false,
    "retainflowhorizontalalignment": false,
    "sourceUserWidget": "f14284fe9d2f4e5f98012aac438631bf",
    "wType": "UserWidgetInstance"
}