{
    "@class": "com.kony.gen.viz.model.component.KVizButton",
    "DNDConfig": null,
    "__parentReadjusting__": false,
    "_height_": {
        "type": "ref",
        "value": "preferred"
    },
    "_left_": {
        "type": "string",
        "value": "4dp"
    },
    "_margin_": [
        6,
        6,
        6,
        6
    ],
    "_padding_": [
        0,
        0,
        0,
        0
    ],
    "_skin_": "s611bd2c5d324490aa9f7ed9d412984f",
    "_text_": "Button",
    "_top_": {
        "type": "string",
        "value": "6dp"
    },
    "_width_": {
        "type": "ref",
        "value": "preferred"
    },
    "accessibilityconfig": {
        "a11yLabel": "Log In Later"
    },
    "canUpdateUI": true,
    "containerweight": 100,
    "contentalignment": 5,
    "desktopweb": {
        "psp": {
            "hoverSkin": "s5e6f61094424c1db3d48d9e98b70c45"
        }
    },
    "displaytext": true,
    "focusskin": "sbf72662805b48f3b06b5cd3a5a6fdca",
    "id": "btnLoginLater",
    "info": null,
    "isvisible": true,
    "kuid": "hc8a8e2f83db408d9139bfe9a8c7d6f1",
    "name": "kony.ui.Button",
    "parent": "flxDoneLoginLater",
    "pf": "userwidgetmodel",
    "texti18n": "i18n.login.LoginLater",
    "tooltip": "Sign In Later",
    "wType": "Button",
    "zindex": 1
}