{
    "DNDConfig": null,
    "__parentReadjusting__": false,
    "_height_": {
        "type": "string",
        "value": "54dp"
    },
    "_margin_": [
        0,
        0,
        0,
        0
    ],
    "_orientation_": 6,
    "_padding_": [
        0,
        0,
        0,
        0
    ],
    "_percent_": true,
    "_skin_": "s24c92fc23b14f5484b693ee9b8a9b35",
    "_top_": {
        "type": "string",
        "value": "7.53%"
    },
    "_width_": {
        "type": "string",
        "value": "54dp"
    },
    "allboxes": [],
    "autogrowmode": 0,
    "canUpdateUI": true,
    "centerx": {
        "type": "string",
        "value": "14.809999999999999%"
    },
    "children": [
        "imgUserwithoutTick",
        "imgTickFrame"
    ],
    "clipbounds": true,
    "containerweight": 100,
    "enablescrolling": true,
    "id": "flxUserImagewithTick",
    "info": null,
    "isvisible": true,
    "kuid": "cdd41548c60f43d8b68cd86d703d7337",
    "layouttype": 2,
    "name": "kony.ui.FlexContainer",
    "parent": "flxPasswordSuccess",
    "pf": "userwidgetmodel",
    "snapgridsize": 10,
    "snaptogrid": true,
    "wType": "FlexContainer",
    "widgetalignment": 1,
    "zindex": 1
}