{
    "DNDConfig": null,
    "_bottom_": {
        "type": "number",
        "value": ""
    },
    "_height_": {
        "type": "ref",
        "value": "preferred"
    },
    "_left_": {
        "type": "string",
        "value": "0dp"
    },
    "_margin_": [
        0,
        0,
        0,
        0
    ],
    "_orientation_": 6,
    "_padding_": [
        0,
        0,
        0,
        0
    ],
    "_percent_": true,
    "_skin_": "sdc143f0e5b64ae3a3f155f691c73fa7",
    "_top_": {
        "type": "string",
        "value": "20dp"
    },
    "_width_": {
        "type": "string",
        "value": "87.80%"
    },
    "allboxes": [],
    "autogrowmode": 1,
    "canUpdateUI": true,
    "centerx": {
        "type": "string",
        "value": "50%"
    },
    "children": [
        "lblSavingsPotTypeHeader",
        "flxHorizontalLine",
        "flxContentPotType"
    ],
    "clipbounds": false,
    "containerweight": 100,
    "enablescrolling": true,
    "id": "flxSavingsPotType",
    "info": null,
    "iscustomlayout": false,
    "isvisible": true,
    "kuid": "daa8efc476324d60b821c8d4faa0c474",
    "layouttype": 4,
    "minheight": {
        "type": "string",
        "value": ""
    },
    "name": "kony.ui.FlexContainer",
    "parent": "flxMain",
    "pf": "frmCreateSavingsPot",
    "responsiveData": {
        "b1": {
            "bottom": {
                "type": "string",
                "value": "10dp"
            },
            "left": {
                "type": "string",
                "value": "6.07%"
            },
            "width": {
                "type": "string",
                "value": "87.80%"
            }
        },
        "b2": {
            "centerX": {
                "type": "string",
                "value": "50%"
            },
            "left": {
                "type": "string",
                "value": "2.50%"
            },
            "width": {
                "type": "string",
                "value": "95%"
            }
        },
        "b3": {
            "bottom": {
                "type": "string",
                "value": "10dp"
            },
            "left": {
                "type": "string",
                "value": "4.50%"
            },
            "width": {
                "type": "string",
                "value": "91%"
            }
        },
        "b4": {
            "bottom": {
                "type": "string",
                "value": "10dp"
            },
            "width": {
                "type": "string",
                "value": "1200dp"
            }
        }
    },
    "retaincontentalignment": false,
    "retainflexpositionproperties": false,
    "retainflowhorizontalalignment": false,
    "snapgridsize": 10,
    "snaptogrid": true,
    "wType": "FlexContainer",
    "widgetalignment": 1,
    "zindex": 1
}