{
    "@class": "com.kony.gen.viz.model.component.KVizLabel",
    "DNDConfig": null,
    "__parentReadjusting__": false,
    "_height_": {
        "type": "ref",
        "value": "preferred"
    },
    "_margin_": [
        1,
        1,
        1,
        1
    ],
    "_padding_": [
        0,
        0,
        0,
        0
    ],
    "_right_": {
        "type": "string",
        "value": "15dp"
    },
    "_skin_": "sd3c87f0e7764509b8521cac67e79d26",
    "_text_": "12-09-2019",
    "_top_": {
        "type": "string",
        "value": "43px"
    },
    "_width_": "-27.78%",
    "_wrapping_": 2,
    "accessibilityconfig": {
        "a11yLabel": "12th Feb 2017"
    },
    "android": {
        "textStyle": {
            "letterSpacing": 0,
            "strikeThrough": false
        }
    },
    "canUpdateUI": true,
    "containerId": true,
    "containerweight": 100,
    "contentalignment": 6,
    "id": "lblDater",
    "info": null,
    "ipad": {
        "psp": {
            "wrapping": 2
        }
    },
    "iphone": {
        "psp": {
            "wrapping": 2
        }
    },
    "isvisible": true,
    "kuid": "i34240862c4546cd8e8ee17b4a9fdc01",
    "name": "kony.ui.Label",
    "parent": "flxRight",
    "pf": "segUpcomingTransactionsCombinedAccess",
    "tooltip": "",
    "wType": "Label",
    "zindex": 1
}