{
    "@class": "com.kony.gen.viz.model.component.KVizLabel",
    "DNDConfig": null,
    "__parentReadjusting__": false,
    "_height_": {
        "type": "ref",
        "value": "preferred"
    },
    "_left_": {
        "type": "string",
        "value": "44dp"
    },
    "_margin_": [
        1,
        1,
        1,
        1
    ],
    "_padding_": [
        0,
        0,
        0,
        0
    ],
    "_skin_": "s63e81af6a184e7e8e891b0dbbe7895c",
    "_text_": "AT & T Communication",
    "_top_": {
        "type": "string",
        "value": "15dp"
    },
    "_width_": "-27.78%",
    "_wrapping_": 2,
    "accessibilityconfig": {
        "a11yLabel": "AT & T Communication"
    },
    "android": {
        "textStyle": {
            "letterSpacing": 0,
            "strikeThrough": false
        }
    },
    "canUpdateUI": true,
    "containerId": true,
    "containerweight": 100,
    "contentalignment": 4,
    "id": "lblToValuer",
    "info": null,
    "ipad": {
        "psp": {
            "wrapping": 2
        }
    },
    "iphone": {
        "psp": {
            "wrapping": 2
        }
    },
    "isvisible": true,
    "kuid": "b07db393f24f430ebe14d1ac21d3427e",
    "name": "kony.ui.Label",
    "parent": "flxRight",
    "pf": "segUpcomingTransactionsCombinedAccess",
    "tooltip": "",
    "wType": "Label",
    "zindex": 1
}