{
    "@class": "com.kony.gen.viz.model.component.KVizUserWidget",
    "DNDConfig": null,
    "_children_": [],
    "_height_": {
        "type": "ref",
        "value": "preferred"
    },
    "_left_": {
        "type": "string",
        "value": "80.20%"
    },
    "_margin_": [
        0,
        0,
        0,
        0
    ],
    "_orientation_": 1,
    "_padding_": [
        0,
        0,
        0,
        0
    ],
    "_percent_": true,
    "_render_": true,
    "_skin_": "scbd4cac3526468089bf3013adff0549",
    "_top_": {
        "type": "string",
        "value": "180dp"
    },
    "_width_": {
        "type": "string",
        "value": "250dp"
    },
    "android": {},
    "androidwearos": {},
    "areflexpropsreferenced": false,
    "autogrowmode": 1,
    "canUpdateUI": true,
    "clipbounds": false,
    "containerweight": 0,
    "dataDiffs": {
        "AllForms": {
            "__events__": {},
            "__info__": {
                "isRoot": true,
                "kuid": "a30470ea54a8420e94b7ccab79f942cd",
                "srcKUID": "aef6ac17436948abacbe12ea5a1d5e5b",
                "wType": "FlexContainer"
            },
            "isVisible": false,
            "left": {
                "Default": {
                    "type": "string",
                    "value": "80.20%"
                }
            },
            "responsiveData": {
                "b3": {}
            },
            "top": {
                "Default": {
                    "type": "string",
                    "value": "180dp"
                }
            },
            "width": {
                "Default": {
                    "type": "string",
                    "value": "250dp"
                }
            },
            "zIndex": {
                "Default": 20
            }
        },
        "RichTextInfo": {
            "__events__": {},
            "__info__": {
                "kuid": "cf3e78adad674751929c6d080e3ab5d8",
                "srcKUID": "i86f020750564f6ba173ce46ea601ab5",
                "wType": "RichText"
            },
            "i18n_text": "i18n.AlertsMessages.msgInfo",
            "text": "If you dismiss an alert, it will be removed from your alerts list. This action cannot be reversed. ",
            "width": {
                "Default": {
                    "type": "string",
                    "value": "83%"
                }
            }
        },
        "flxAccountType": {
            "__events__": {},
            "__info__": {
                "kuid": "bf36e0719ade4293bc7b9b3db9540640",
                "srcKUID": "ed52287fd449401ba9a5f005c99e3f35",
                "wType": "FlexContainer"
            }
        },
        "flxCross": {
            "__events__": {},
            "__info__": {
                "kuid": "f6ab2164fa124c089d2a74eabb9426cb",
                "srcKUID": "d452c358ed1445a58e5fdff55685498f",
                "wType": "FlexContainer"
            }
        },
        "flxInformation": {
            "__events__": {},
            "__info__": {
                "kuid": "eb8b4324ddb146fa8a1b7238e2f927e8",
                "srcKUID": "be414255ea60408894eb2a9b719b864e",
                "wType": "FlexContainer"
            }
        },
        "flxInformationText": {
            "__events__": {},
            "__info__": {
                "kuid": "f52d9bb0c8794a1088b996c51da5793f",
                "srcKUID": "fa4dbab87ecf4647a21060118b02bd03",
                "wType": "FlexContainer"
            }
        },
        "imgCross": {
            "__events__": {},
            "__info__": {
                "kuid": "b25860489ae84daa9951b8ce94f7cc90",
                "srcKUID": "d86a08cea857467eae13f42ed033a771",
                "wType": "Image"
            },
            "src": "bbcloseicon.png"
        },
        "imgToolTip": {
            "__events__": {},
            "__info__": {
                "kuid": "i8db85c952584b30b3d412401bd026ec",
                "srcKUID": "f9274528aa6b41bfb057f17c510b73b5",
                "wType": "Image"
            },
            "left": {
                "Default": {
                    "type": "string",
                    "value": "53.50%"
                }
            },
            "src": "tool_tip.png"
        },
        "lblInfo": {
            "__events__": {},
            "__info__": {
                "kuid": "b2a825a458214ac9919b633dde6e063c",
                "srcKUID": "c6ecc9c129c943b396152e99a30763f6",
                "wType": "Label"
            }
        },
        "lblSeperator": {
            "__events__": {},
            "__info__": {
                "kuid": "ad7b0c857c28424d9908ba75362c1551",
                "srcKUID": "f142d5aa44384a3fb94504a874cbbb95",
                "wType": "Label"
            }
        }
    },
    "desktopweb": {},
    "id": "AllForms",
    "info": null,
    "ipad": {},
    "iphone": {},
    "isdatareferenced": false,
    "isvisible": false,
    "kiosk": {},
    "kuid": "a30470ea54a8420e94b7ccab79f942cd",
    "layouttype": 4,
    "masterType": 0,
    "name": "kony.ui.UserWidgetInstance",
    "parent": "flxMain",
    "pf": "frmMyMessages",
    "responsiveData": {
        "b3": {}
    },
    "snaptogrid": true,
    "sourceUserWidget": "aef6ac17436948abacbe12ea5a1d5e5b",
    "spa": {},
    "spaan": {},
    "spaandroidtablet": {},
    "spaip": {},
    "spaipad": {},
    "spamobile": {},
    "spatablet": {},
    "spawindowstablet": {},
    "spawinphone8": {},
    "tabrcandroid": {},
    "vizProps": {
        "hidewidgethierarchy": false
    },
    "vizprops": {
        "hidewidgethierarchy": false
    },
    "wType": "UserWidgetInstance",
    "windows10": {},
    "windows8": {},
    "winphone10": {},
    "winphone8": {},
    "zindex": 20
}