{
    "@class": "com.kony.gen.viz.model.component.KVizButton",
    "DNDConfig": null,
    "_height_": {
        "type": "string",
        "value": "50dp"
    },
    "_margin_": [
        6,
        6,
        6,
        6
    ],
    "_padding_": [
        0,
        0,
        0,
        0
    ],
    "_right_": {
        "type": "string",
        "value": "20dp"
    },
    "_skin_": "s611bd2c5d324490aa9f7ed9d412984f",
    "_text_": "Compose New  Message",
    "_top_": {
        "type": "string",
        "value": "0dp"
    },
    "_width_": {
        "type": "ref",
        "value": "preferred"
    },
    "accessibilityconfig": {
        "a11yLabel": "Compose New"
    },
    "canUpdateUI": true,
    "containerweight": 100,
    "contentalignment": 4,
    "disabledSkins": {},
    "displaytext": true,
    "focusskin": "s611bd2c5d324490aa9f7ed9d412984f",
    "id": "btnNewMessage",
    "ide_onClick": "AS_Button_dfe3235016d14c1eae0f7cc88ac0c5ca",
    "info": null,
    "isvisible": true,
    "kuid": "d80df0f42330432b8eafb5d63af96b4e",
    "name": "kony.ui.Button",
    "parent": "flxMessagesMain",
    "pf": "frmMyMessages",
    "responsiveData": {
        "b3": {
            "isVisible": false
        }
    },
    "tooltip": "New Message",
    "wType": "Button",
    "zindex": 1
}