{
    "DNDConfig": null,
    "_height_": {
        "type": "ref",
        "value": "preferred"
    },
    "_left_": {
        "type": "string",
        "value": "0dp"
    },
    "_margin_": [
        0,
        0,
        0,
        0
    ],
    "_orientation_": 6,
    "_padding_": [
        0,
        0,
        0,
        0
    ],
    "_percent_": true,
    "_right_": {
        "type": "number",
        "value": ""
    },
    "_skin_": "sdc143f0e5b64ae3a3f155f691c73fa7",
    "_top_": {
        "type": "string",
        "value": "65dp"
    },
    "_width_": {
        "type": "string",
        "value": "100%"
    },
    "allboxes": [],
    "autogrowmode": 0,
    "canUpdateUI": true,
    "centerx": {
        "type": "number",
        "value": ""
    },
    "children": [
        "flxTabs",
        "flxSeparator",
        "btnNewMessage",
        "flxSegMessagesContainer",
        "flxVerticalSeparator",
        "flxRightMessages"
    ],
    "clipbounds": false,
    "containerweight": 100,
    "enablescrolling": true,
    "id": "flxMessagesMain",
    "info": null,
    "isvisible": true,
    "kuid": "a8aae17ac41d444a8536054723a731ac",
    "layouttype": 2,
    "minheight": {
        "type": "string",
        "value": "700dp"
    },
    "minwidth": {
        "type": "number",
        "value": ""
    },
    "name": "kony.ui.FlexContainer",
    "parent": "flxContainer",
    "pf": "frmMyMessages",
    "responsiveData": {
        "b1": {
            "centerX": {
                "type": "string",
                "value": "50%"
            },
            "isVisible": true,
            "left": {
                "type": "string",
                "value": ""
            },
            "width": {
                "type": "string",
                "value": "1200dp"
            }
        },
        "b2": {
            "height": {
                "type": "string",
                "value": "700dp"
            },
            "left": {
                "type": "string",
                "value": "0dp"
            },
            "minWidth": {
                "type": "string",
                "value": "100%"
            },
            "right": {
                "type": "string",
                "value": "24dp"
            },
            "width": {
                "type": "string",
                "value": ""
            }
        },
        "b3": {
            "top": {
                "type": "string",
                "value": "0dp"
            },
            "width": {
                "type": "string",
                "value": "100%"
            }
        },
        "b4": {
            "centerX": {
                "type": "string",
                "value": "50%"
            },
            "left": {
                "type": "string",
                "value": ""
            },
            "width": {
                "type": "string",
                "value": "100%"
            }
        }
    },
    "snapgridsize": 10,
    "snaptogrid": true,
    "wType": "FlexContainer",
    "widgetalignment": 1,
    "zindex": 1
}