{
	 "@class": "com.kony.gen.viz.model.component.KVizImage2",
	 "DNDConfig": null,
	 "__parentReadjusting__": false,
	 "_base64_": null,
	 "_height_": {
		 "type": "string",
		 "value": "20dp"
	},
	 "_margin_": [
		 0,
		 0,
		 0,
		 0
	],
	 "_padding_": [
		 0,
		 0,
		 0,
		 0
	],
	 "_right_": {
		 "type": "string",
		 "value": "30dp"
	},
	 "_skin_": "s78a5f26c9f14cec9ebed1bb46098f80",
	 "_src_": "error_yellow.png",
	 "_top_": {
		 "type": "string",
		 "value": "11dp"
	},
	 "_width_": {
		 "type": "string",
		 "value": "20dp"
	},
	 "canUpdateUI": true,
	 "containerId": true,
	 "containerweight": 100,
	 "context": {
		 "channel": "desktop",
		 "formID": "segAccountLandingUpcomingTransactions",
		 "templateType": "segments",
		 "topLevelBox": null
	},
	 "id": "imgWarning",
	 "imagescalemode": 1,
	 "info": null,
	 "iscustomlayout": false,
	 "isvisible": false,
	 "kuid": "f054e7ab0d4e4501b2e8d263b48af570",
	 "name": "kony.ui.Image2",
	 "parent": "flxAccountLandingUpcomingTransactions",
	 "pf": "segAccountLandingUpcomingTransactions",
	 "retaincontentalignment": false,
	 "retainflexpositionproperties": false,
	 "srcType": 1,
	 "wType": "Image",
	 "widgetalignment": 5,
	 "zindex": 1,
	 "accessibilityconfig": {
		 "a11yHidden": true,
		 "a11yARIA": {
			 "tabindex": -1
		},
		 "a11yValue": ""
	}
}