{
    "@class": "com.kony.gen.viz.model.component.KVizButton",
    "DNDConfig": null,
    "_height_": {
        "type": "ref",
        "value": "preferred"
    },
    "_left_": {
        "type": "string",
        "value": "3dp"
    },
    "_margin_": [
        6,
        6,
        6,
        6
    ],
    "_padding_": [
        0,
        0,
        0,
        0
    ],
    "_right_": {
        "type": "string",
        "value": ""
    },
    "_skin_": "sae54276696f477dbbd70e34725a8526",
    "_text_": "advanced settings",
    "_top_": {
        "type": "string",
        "value": "24%"
    },
    "_width_": {
        "type": "ref",
        "value": "preferred"
    },
    "canUpdateUI": true,
    "centery": {
        "type": "number",
        "value": ""
    },
    "containerweight": 100,
    "contentalignment": 5,
    "displaytext": true,
    "focusskin": "s5495bd040c94991a043932d65a33261",
    "id": "btnSettings",
    "info": null,
    "iscustomlayout": false,
    "isvisible": true,
    "kuid": "h4e419d0bdfb4596a680ecc03ca876e4",
    "name": "kony.ui.Button",
    "parent": "flxInfo2",
    "pf": "frmTransactionLimits",
    "responsiveData": {
        "b1": {
            "centerY": {
                "type": "string",
                "value": "50%"
            }
        },
        "b2": {
            "left": {
                "type": "string",
                "value": "5%"
            },
            "top": {
                "type": "string",
                "value": "50%"
            }
        },
        "b4": {
            "centerY": {
                "type": "string",
                "value": "50%"
            }
        }
    },
    "retaincontentalignment": false,
    "retainflexpositionproperties": false,
    "texti18n": "i18n.UserManagement.advancedSettings",
    "wType": "Button",
    "zindex": 1
}