{
    "DNDConfig": null,
    "_height_": {
        "type": "string",
        "value": "1000px"
    },
    "_left_": {
        "type": "string",
        "value": "0px"
    },
    "_margin_": [
        0,
        0,
        0,
        0
    ],
    "_orientation_": 6,
    "_padding_": [
        0,
        0,
        0,
        0
    ],
    "_percent_": true,
    "_skin_": "s91cf6026ea6476bbb6455cefbb8e8f7",
    "_top_": {
        "type": "string",
        "value": "0dp"
    },
    "_width_": {
        "type": "string",
        "value": "100%"
    },
    "allboxes": [],
    "autogrowmode": 0,
    "canUpdateUI": true,
    "children": [
        "flxLoadingWrapper"
    ],
    "clipbounds": true,
    "containerweight": 100,
    "enablescrolling": true,
    "id": "flxLoading",
    "info": null,
    "isvisible": false,
    "kuid": "ca19bf5132ea41f1989181491a2ee8d3",
    "layouttype": 2,
    "name": "kony.ui.FlexContainer",
    "parent": "frmTransactionLimits",
    "pf": "frmTransactionLimits",
    "snapgridsize": 10,
    "snaptogrid": true,
    "wType": "FlexContainer",
    "widgetalignment": 1,
    "zindex": 1000
}