{
    "@class": "com.kony.gen.viz.model.container.KVizSegment2",
    "DNDConfig": null,
    "_data_": [
        [
            {
                "imgInfo": {
                    "@class": "com.viz.ide.model.segment.ImageSegmentData",
                    "src": "info_grey.png"
                },
                "lblRowHeaderTitle": {
                    "@class": "com.viz.ide.model.segment.SimpleTextSegmentData",
                    "text": "Bulk Transaction Limit"
                }
            },
            [
                {
                    "imgInfo": {
                        "@class": "com.viz.ide.model.segment.ImageSegmentData",
                        "src": "info_grey.png"
                    },
                    "lblCurrency": {
                        "@class": "com.viz.ide.model.segment.SimpleTextSegmentData",
                        "text": "$"
                    },
                    "lblCurrency1": {
                        "@class": "com.viz.ide.model.segment.SimpleTextSegmentData",
                        "text": "$"
                    },
                    "lblCurrency2": {
                        "@class": "com.viz.ide.model.segment.SimpleTextSegmentData",
                        "text": "$"
                    },
                    "lblDailyTransactionLimitHeaderTitle": {
                        "@class": "com.viz.ide.model.segment.SimpleTextSegmentData",
                        "text": "Daily Transaction"
                    },
                    "lblPerTransactionLimitHeaderTitle": {
                        "@class": "com.viz.ide.model.segment.SimpleTextSegmentData",
                        "text": "Per Transaction"
                    },
                    "lblRowHeaderTitle": {
                        "@class": "com.viz.ide.model.segment.SimpleTextSegmentData",
                        "text": "Transaction Limit"
                    },
                    "lblWeeklyTransactionLimitHeaderTitle": {
                        "@class": "com.viz.ide.model.segment.SimpleTextSegmentData",
                        "text": "Weekly Transaction"
                    },
                    "tbxDailyTransactionAmt": {
                        "@class": "com.viz.ide.model.segment.ComplexTextSegmentData",
                        "text": ""
                    },
                    "tbxPerTransactionAmt": {
                        "@class": "com.viz.ide.model.segment.ComplexTextSegmentData",
                        "text": ""
                    },
                    "tbxWeeklyTransactionAmt": {
                        "@class": "com.viz.ide.model.segment.ComplexTextSegmentData",
                        "text": ""
                    }
                }
            ]
        ]
    ],
    "_height_": {
        "type": "ref",
        "value": "preferred"
    },
    "_indicator_": "none",
    "_left_": {
        "type": "string",
        "value": "21dp"
    },
    "_margin_": [
        0,
        0,
        0,
        0
    ],
    "_orientation_": 2,
    "_padding_": [
        0,
        0,
        0,
        0
    ],
    "_top_": {
        "type": "string",
        "value": "5dp"
    },
    "_width_": {
        "type": "string",
        "value": "100%"
    },
    "autogrowmode": 1,
    "canUpdateUI": true,
    "containerweight": 100,
    "counter": "00",
    "disabledSkins": {
        "widgetSkin": "scf5f90f6ac04976ab88b2a4f7153285"
    },
    "focusedindex": null,
    "focuseditem": null,
    "groupcells": false,
    "hasSections": true,
    "id": "segBulkTransactionLimits",
    "info": null,
    "ipad": {
        "psp": {
            "indicator": "rowselect"
        }
    },
    "iphone": {
        "psp": {
            "indicator": "rowselect"
        }
    },
    "iscustomlayout": false,
    "isvisible": true,
    "kuid": "b60f1e04a8af49f6b6b397a78e6dfbdf",
    "masterdata": {},
    "name": "kony.ui.SegmentedUI2",
    "needpageindicator": true,
    "pageoffdotimage": "pageoffdot.png",
    "pageondotimage": "pageondot.png",
    "paginationconfig": {
        "position": "bottom"
    },
    "parent": "flxUserRoles",
    "pf": "frmTransactionLimits",
    "responsiveData": {
        "b1": {
            "left": {
                "type": "string",
                "value": "0dp"
            }
        },
        "b2": {
            "left": {
                "type": "string",
                "value": "0dp"
            }
        },
        "b3": {},
        "b4": {
            "left": {
                "type": "string",
                "value": "0dp"
            },
            "width": {
                "type": "string",
                "value": "99%"
            }
        }
    },
    "retaincontentalignment": false,
    "retainflexpositionproperties": false,
    "retainselection": false,
    "rowTemplateId": "a256cfbda47e416a8ef1b8429934ddac",
    "rowcounter": 0,
    "rowfocusskin": "s0f9bf3c1b3e4a7bb6bf9fd18b0211f2",
    "rowskin": "scf5f90f6ac04976ab88b2a4f7153285",
    "rowtemplate": "flxUserManagementTransactionLimits",
    "screenlevelwidget": false,
    "seccounter": 0,
    "sectionHeaderTemplateId": "a6591b8b412344e09cf3bd19b8d9bae3",
    "sectionheaderskin": "sdc4ff4ed1584272be2ae69045dfb29d",
    "sectionheadertemplate": "flxUserManagementTransactionLimitsHeader",
    "selectedRows": null,
    "selectedState": false,
    "selectedindex": null,
    "selectedindices": null,
    "selecteditems": null,
    "selectedsectionindex": 0,
    "selectionbehavior": "default",
    "separatorrequired": false,
    "showscrollbars": false,
    "viewtype": "tableview",
    "vizProps": {},
    "wType": "Segment",
    "widgetalignment": 5,
    "widgetdatamap": {
        "flxDailyTransactioEnterAmount": "flxDailyTransactioEnterAmount",
        "flxDailyTransactionCurrency": "flxDailyTransactionCurrency",
        "flxDailyTransactionLimit": "flxDailyTransactionLimit",
        "flxDailyTrnasactionAmount": "flxDailyTrnasactionAmount",
        "flxGroupHeaderComp": "flxGroupHeaderComp",
        "flxPerTransactioEnterAmount": "flxPerTransactioEnterAmount",
        "flxPerTransactionCurrency": "flxPerTransactionCurrency",
        "flxPerTransactionLimit": "flxPerTransactionLimit",
        "flxPerTrnasactionAmount": "flxPerTrnasactionAmount",
        "flxTransactionLimitValues": "flxTransactionLimitValues",
        "flxUserManagementTransactionLimits": "flxUserManagementTransactionLimits",
        "flxUserManagementTransactionLimitsHeader": "flxUserManagementTransactionLimitsHeader",
        "flxWeeklyTransactioEnterAmount": "flxWeeklyTransactioEnterAmount",
        "flxWeeklyTransactionCurrency": "flxWeeklyTransactionCurrency",
        "flxWeeklyTransactionLimit": "flxWeeklyTransactionLimit",
        "flxWeeklyTrnasactionAmount": "flxWeeklyTrnasactionAmount",
        "imgInfo": "imgInfo",
        "lblCurrency": "lblCurrency",
        "lblCurrency1": "lblCurrency1",
        "lblCurrency2": "lblCurrency2",
        "lblDailyTransactionLimitHeaderTitle": "lblDailyTransactionLimitHeaderTitle",
        "lblPerTransactionLimitHeaderTitle": "lblPerTransactionLimitHeaderTitle",
        "lblRowHeaderTitle": "lblRowHeaderTitle",
        "lblWeeklyTransactionLimitHeaderTitle": "lblWeeklyTransactionLimitHeaderTitle",
        "tbxDailyTransactionAmt": "tbxDailyTransactionAmt",
        "tbxPerTransactionAmt": "tbxPerTransactionAmt",
        "tbxWeeklyTransactionAmt": "tbxWeeklyTransactionAmt"
    },
    "zindex": 1
}