{
    "@class": "com.kony.gen.viz.model.component.KVizButton",
    "DNDConfig": null,
    "_height_": {
        "type": "string",
        "value": "40dp"
    },
    "_margin_": [
        6,
        6,
        6,
        6
    ],
    "_padding_": [
        0,
        0,
        0,
        0
    ],
    "_right_": {
        "type": "string",
        "value": "304dp"
    },
    "_skin_": "s53f35797e894740848702af91fb98cb",
    "_text_": "Cancel",
    "_width_": {
        "type": "string",
        "value": "40%"
    },
    "accessibilityconfig": {
        "a11yLabel": "Cancel"
    },
    "canUpdateUI": true,
    "centery": {
        "type": "string",
        "value": "50%"
    },
    "containerweight": 100,
    "contentalignment": 5,
    "desktopweb": {
        "psp": {
            "hoverSkin": "s83729feaa224e359d660d5af05c4bac"
        }
    },
    "disabledSkins": {
        "focusSkin": "s9bab51a80b3480ebfb0d224c086873e"
    },
    "displaytext": true,
    "id": "btnCancel",
    "ide_onClick": "AS_Button_i8d6b75c37914ddcb6232819aa9f546b",
    "info": null,
    "isvisible": true,
    "kuid": "c9c52ff9e4f54d0eb3138d8ec9280bad",
    "name": "kony.ui.Button",
    "parent": "flxButtons",
    "pf": "frmConsolidatedStatements",
    "responsiveData": {
        "b1": {
            "right": {
                "type": "string",
                "value": "180dp"
            },
            "width": {
                "type": "string",
                "value": "150dp"
            }
        },
        "b2": {
            "height": {
                "type": "string",
                "value": "40px"
            },
            "right": {
                "type": "string",
                "value": "180px"
            },
            "width": {
                "type": "string",
                "value": "150px"
            }
        },
        "b3": {
            "height": {
                "type": "string",
                "value": "40dp"
            },
            "right": {
                "type": "string",
                "value": "54%"
            },
            "width": {
                "type": "string",
                "value": "40%"
            }
        },
        "b4": {
            "right": {
                "type": "string",
                "value": "180px"
            },
            "width": {
                "type": "string",
                "value": "150px"
            }
        }
    },
    "texti18n": "i18n.transfers.Cancel",
    "tooltip": "Cancel",
    "wType": "Button",
    "zindex": 1
}