{
    "@class": "com.kony.gen.viz.model.component.KVizImage2",
    "DNDConfig": null,
    "_base64_": null,
    "_height_": {
        "type": "string",
        "value": "15dp"
    },
    "_left_": {
        "type": "string",
        "value": "94.71%"
    },
    "_margin_": [
        0,
        0,
        0,
        0
    ],
    "_padding_": [
        0,
        0,
        0,
        0
    ],
    "_right_": {
        "type": "string",
        "value": "2.51%"
    },
    "_skin_": "s8ee487de5774c1eb668e74bf92f5cdd",
    "_src_": "icon_close_grey.png",
    "_width_": {
        "type": "string",
        "value": "15px"
    },
    "accessibilityconfig": {
        "a11yLabel": "Close",
        "a11yValue": ""
    },
    "canUpdateUI": true,
    "centery": {
        "type": "string",
        "value": "50%"
    },
    "containerweight": 100,
    "id": "imgClose",
    "ide_onTouchStart": "AS_Image_g4313f2274164a2c99ab2e10b38c997b",
    "imagescalemode": 1,
    "imagewhiledownloading": "img_transparent.png",
    "info": null,
    "invokedProperty": "src",
    "isvisible": true,
    "kuid": "b1179eec7d2f4122bc1c87a3b7c06b31",
    "name": "kony.ui.Image2",
    "parent": "flxHeader",
    "pf": "frmConsolidatedStatements",
    "responsiveData": {
        "b1": {
            "left": {
                "type": "string",
                "value": ""
            },
            "right": {
                "type": "string",
                "value": "20dp"
            },
            "src": "closeicon.png"
        },
        "b2": {
            "left": {
                "type": "string",
                "value": ""
            },
            "right": {
                "type": "string",
                "value": "20dp"
            },
            "src": "closeicon.png"
        },
        "b3": {
            "left": {
                "type": "string",
                "value": ""
            },
            "right": {
                "type": "string",
                "value": "6.21%"
            },
            "src": "closeicon.png"
        },
        "b4": {
            "left": {
                "type": "string",
                "value": ""
            },
            "right": {
                "type": "string",
                "value": "20px"
            },
            "src": "closeicon.png"
        }
    },
    "srcType": 1,
    "wType": "Image",
    "widgetalignment": 5,
    "zindex": 1
}