{
    "@class": "com.kony.gen.viz.model.container.KVizSegment2",
    "DNDConfig": null,
    "_data_": [
        {
            "lblFilterValue": {
                "@class": "com.viz.ide.model.segment.SimpleTextSegmentData",
                "i18nkey": "i18N.common.pdf",
                "text": "PDF"
            }
        },
        {
            "lblFilterValue": {
                "@class": "com.viz.ide.model.segment.SimpleTextSegmentData",
                "i18nkey": "i18N.common.Excel",
                "text": "Excel"
            }
        },
        {
            "lblFilterValue": {
                "@class": "com.viz.ide.model.segment.SimpleTextSegmentData",
                "i18nkey": "i18N.common.csv",
                "text": "CSV"
            }
        }
    ],
    "_height_": {
        "type": "ref",
        "value": "preferred"
    },
    "_indicator_": "none",
    "_left_": {
        "type": "string",
        "value": "0dp"
    },
    "_margin_": [
        0,
        0,
        0,
        0
    ],
    "_orientation_": 2,
    "_padding_": [
        0,
        0,
        0,
        0
    ],
    "_top_": {
        "type": "string",
        "value": "5dp"
    },
    "_width_": {
        "type": "string",
        "value": "100%"
    },
    "autogrowmode": 1,
    "canUpdateUI": true,
    "containerweight": 100,
    "counter": "02",
    "focusedindex": null,
    "focuseditem": null,
    "groupcells": false,
    "hasSections": false,
    "id": "segFileFilters",
    "ide_onRowClick": "AS_Segment_i7c6e45efa254151bd096cede0565f42",
    "info": null,
    "ipad": {
        "psp": {
            "indicator": "rowselect"
        }
    },
    "iphone": {
        "psp": {
            "indicator": "rowselect"
        }
    },
    "iscustomlayout": false,
    "isvisible": true,
    "kuid": "iff015161af74ff287cd702d702f45d5",
    "masterdata": {},
    "name": "kony.ui.SegmentedUI2",
    "needpageindicator": true,
    "pageoffdotimage": "pageoffdot.png",
    "pageondotimage": "pageondot.png",
    "paginationconfig": {
        "position": "bottom"
    },
    "parent": "flxDefaultFiltersWrapper",
    "pf": "frmConsolidatedStatements",
    "responsiveData": {
        "b3": {
            "top": {
                "type": "string",
                "value": "0dp"
            }
        }
    },
    "retaincontentalignment": false,
    "retainflexpositionproperties": false,
    "retainselection": false,
    "rowTemplateId": "g3f7a99ac06f459281dc036c40007db4",
    "rowcounter": 2,
    "rowfocusskin": "s0f9bf3c1b3e4a7bb6bf9fd18b0211f2",
    "rowskin": "scf5f90f6ac04976ab88b2a4f7153285",
    "rowtemplate": "flxFileFilter",
    "screenlevelwidget": false,
    "seccounter": 0,
    "sectionheaderskin": "sdc4ff4ed1584272be2ae69045dfb29d",
    "selectedRows": null,
    "selectedState": false,
    "selectedindex": null,
    "selectedindices": null,
    "selecteditems": null,
    "selectedsectionindex": 0,
    "selectionbehavior": "default",
    "separatorcolor": "aaaaaa00",
    "separatorrequired": true,
    "separatorthickness": 0,
    "showscrollbars": false,
    "viewtype": "tableview",
    "vizProps": {},
    "wType": "Segment",
    "widgetalignment": 5,
    "widgetdatamap": {
        "flxFileFilter": "flxFileFilter",
        "lblFilterValue": "lblFilterValue"
    },
    "zindex": 30
}