{
    "@class": "com.kony.gen.viz.model.component.KVizButton",
    "DNDConfig": null,
    "__parentReadjusting__": false,
    "_height_": {
        "type": "string",
        "value": "40dp"
    },
    "_left_": {
        "type": "string",
        "value": "2%"
    },
    "_margin_": [
        6,
        6,
        6,
        6
    ],
    "_padding_": [
        0,
        0,
        0,
        0
    ],
    "_skin_": "s96d426915e4423b805b179b835d800e",
    "_text_": "Advanced Search",
    "_width_": {
        "type": "string",
        "value": "21.42%"
    },
    "canUpdateUI": true,
    "centery": {
        "type": "string",
        "value": "47.50%"
    },
    "containerweight": 100,
    "contentalignment": 5,
    "displaytext": true,
    "focusskin": null,
    "id": "btnAdvancedSearch",
    "info": null,
    "iscustomlayout": false,
    "isvisible": false,
    "kuid": "c37544c4e8fa49e1901714d57084015c",
    "name": "kony.ui.Button",
    "parent": "flxSearch",
    "pf": "userwidgetmodel",
    "retaincontentalignment": false,
    "retainflexpositionproperties": false,
    "wType": "Button",
    "zindex": 1
}