{
    "@class": "com.kony.gen.viz.model.component.KVizRadio",
    "DNDConfig": null,
    "__parentReadjusting__": false,
    "_height_": {
        "type": "string",
        "value": "27dp"
    },
    "_left_": {
        "type": "string",
        "value": "10%"
    },
    "_margin_": [
        0,
        0,
        0,
        0
    ],
    "_padding_": [
        0,
        0,
        0,
        0
    ],
    "_skin_": "s70d7994fccc4384bbb2ddca64dbd48c",
    "_width_": {
        "type": "string",
        "value": "90%"
    },
    "android": {
        "psp": {
            "viewType": 0
        }
    },
    "canUpdateUI": true,
    "centerx": {
        "type": "string",
        "value": "50%"
    },
    "centery": {
        "type": "string",
        "value": "47.50%"
    },
    "containerweight": 100,
    "groupcells": false,
    "id": "RadioButtonGroup0e9b89fa4f5e74c",
    "info": null,
    "ipad": {
        "psp": {
            "viewType": 0
        }
    },
    "iphone": {
        "psp": {
            "viewType": 0
        }
    },
    "iscustomlayout": false,
    "isvisible": false,
    "itemorientation": "horizontal",
    "kuid": "gc00f643bfb84650b9fcddfc23ec2e16",
    "masterdata": [
        [
            "Pending",
            "View Pending Requests"
        ],
        [
            "Rejected",
            "View Rejected Requests "
        ]
    ],
    "name": "kony.ui.RadioButtonGroup",
    "parent": "flxOptions",
    "pf": "userwidgetmodel",
    "retaincontentalignment": false,
    "retainflexpositionproperties": false,
    "selectedkey": "Pending",
    "selectedkeyvalue": [
        "Pending",
        "View Pending Requests"
    ],
    "size": 18,
    "viewconfig": {
        "toggleViewConfig": {
            "viewStyle": 0
        }
    },
    "viewtype": 0,
    "wType": "RadioButtonGroup",
    "widgetalignment": 5,
    "zindex": 1
}