{
    "@class": "com.kony.gen.viz.model.component.KVizButton",
    "DNDConfig": null,
    "_height_": {
        "type": "string",
        "value": "100%"
    },
    "_left_": {
        "type": "string",
        "value": "15dp"
    },
    "_margin_": [
        6,
        6,
        6,
        6
    ],
    "_padding_": [
        1,
        0,
        1,
        0
    ],
    "_skin_": "s6fd52bc149841159699ddc28fc1818d",
    "_text_": "All",
    "_top_": {
        "type": "string",
        "value": "-1dp"
    },
    "_width_": {
        "type": "ref",
        "value": "preferred"
    },
    "accessibilityconfig": {
        "a11yLabel": "All"
    },
    "canUpdateUI": true,
    "containerweight": 100,
    "contentalignment": 5,
    "desktopweb": {
        "psp": {}
    },
    "disabledSkins": {
        "hoverSkin": "sc00e69bcc754e6789e0cb7ca01c2727"
    },
    "displaytext": true,
    "focusskin": "s6fd52bc149841159699ddc28fc1818d",
    "id": "btnAllMobile",
    "info": null,
    "isvisible": true,
    "kuid": "d26e25233da44bf48cd7d9f8a45f7e05",
    "name": "kony.ui.Button",
    "paddinginpixel": false,
    "parent": "flxFiltersScroll",
    "pf": "userwidgetmodel",
    "responsiveData": {
        "b3": {
            "left": {
                "type": "string",
                "value": "15dp"
            }
        }
    },
    "tooltip": "",
    "wType": "Button",
    "zindex": 1
}