{
    "@class": "com.kony.gen.viz.model.component.KVizButton",
    "DNDConfig": null,
    "_height_": {
        "type": "string",
        "value": "100%"
    },
    "_left_": {
        "type": "string",
        "value": "27dp"
    },
    "_margin_": [
        6,
        6,
        6,
        6
    ],
    "_padding_": [
        0,
        0,
        0,
        0
    ],
    "_right_": {
        "type": "number",
        "value": ""
    },
    "_skin_": "s23d59913f0d49299d01cf786c902e68",
    "_text_": "Search",
    "_top_": {
        "type": "string",
        "value": "0dp"
    },
    "_width_": {
        "type": "string",
        "value": "40%"
    },
    "accessibilityconfig": {
        "a11yLabel": "Search"
    },
    "canUpdateUI": true,
    "containerweight": 100,
    "contentalignment": 5,
    "desktopweb": {
        "psp": {
            "hoverSkin": "se73cefc0b5d4c718fd3b2c39445f76e"
        }
    },
    "disabledSkins": {},
    "displaytext": true,
    "focusskin": "sd679110400b46f0a2b99b4fecabcc15",
    "id": "btnSearch",
    "info": null,
    "isvisible": true,
    "kuid": "u29a20f9a9bd4faab062ac8c66532743",
    "name": "kony.ui.Button",
    "parent": "flxActions",
    "pf": "userwidgetmodel",
    "responsiveData": {
        "b1": {
			"focusSkin": "s839831735634f08a6896756b5791181",
            "left": {
                "type": "string",
                "value": ""
            },
            "right": {
                "type": "string",
                "value": "0dp"
            },
            "skin": "s839831735634f08a6896756b5791181",
            "width": {
                "type": "string",
                "value": "150dp"
            }
        },
        "b2": {
            "left": {
                "type": "string",
                "value": ""
            },
            "right": {
                "type": "string",
                "value": "0dp"
            },
            "width": {
                "type": "string",
                "value": "150dp"
            }
        },
        "b3": {
            "height": {
                "type": "string",
                "value": "40dp"
            },
            "left": {
                "type": "string",
                "value": "2.50%"
            },
            "width": {
                "type": "string",
                "value": "95%"
            }
        }
    },
    "tooltip": "Search",
    "wType": "Button",
    "zindex": 1
}