{
    "DNDConfig": null,
    "_height_": {
        "type": "string",
        "value": "100%"
    },
    "_left_": {
        "type": "string",
        "value": "0%"
    },
    "_margin_": [
        0,
        0,
        0,
        0
    ],
    "_orientation_": 6,
    "_padding_": [
        0,
        0,
        0,
        0
    ],
    "_percent_": true,
    "_skin_": "s24c92fc23b14f5484b693ee9b8a9b35",
    "_top_": {
        "type": "string",
        "value": "0dp"
    },
    "_width_": {
        "type": "string",
        "value": "140dp"
    },
    "allboxes": [],
    "autogrowmode": 0,
    "canUpdateUI": true,
    "children": [
        "imgColumn1Left",
        "lblColumn1",
        "imgColumn1Right"
    ],
    "clipbounds": true,
    "containerweight": 100,
    "enablescrolling": true,
    "id": "flxColumn1",
    "info": null,
    "isvisible": true,
    "kuid": "ue91dfd92f5e42b68ebad7e7cdebeba6",
    "layouttype": 3,
    "name": "kony.ui.FlexContainer",
    "parent": "flxSortSixColumn",
    "pf": "userwidgetmodel",
    "responsiveData": {
        "b1": {},
        "b2": {}
    },
    "reverselayoutdirection": false,
    "snapgridsize": 10,
    "snaptogrid": true,
    "wType": "FlexContainer",
    "widgetalignment": 1,
    "zindex": 1
}