{
    "DNDConfig": null,
    "_height_": {
        "type": "ref",
        "value": "preferred"
    },
    "_left_": {
        "type": "string",
        "value": "0dp"
    },
    "_margin_": [
        0,
        0,
        0,
        0
    ],
    "_orientation_": 6,
    "_padding_": [
        0,
        0,
        0,
        0
    ],
    "_percent_": true,
    "_skin_": "s5bddc9cacd4452d8b3dd15d69edb7ad",
    "_text_": {
        "type": "number",
        "value": ""
    },
    "_top_": {
        "type": "string",
        "value": "0dp"
    },
    "_width_": {
        "type": "string",
        "value": "100%"
    },
    "allboxes": [],
    "autogrowmode": 1,
    "canUpdateUI": true,
    "children": [
        "flxAccountType",
        "flxSearchContainerWrapper",
        "flxBFSearchContainer",
        "flxSeparatorSearchTwo"
    ],
    "clipbounds": false,
    "containerweight": 100,
    "enablescrolling": true,
    "id": "flxSearchContainer",
    "info": null,
    "isvisible": false,
    "kuid": "uc22f442f44f44acbbe1b9a270743c2e",
    "layouttype": 4,
    "name": "kony.ui.FlexContainer",
    "parent": "flxMain",
    "pf": "userwidgetmodel",
    "responsiveData": {
        "b1": {
            "isVisible": false,
            "text": "By Date:"
        },
        "b2": {
            "isVisible": false
        },
        "b3": {
            "isVisible": false,
            "zIndex": 10
        }
    },
    "snapgridsize": 10,
    "snaptogrid": true,
    "wType": "FlexContainer",
    "widgetalignment": 1,
    "zindex": 1
}