{
    "DNDConfig": null,
    "_height_": {
        "type": "string",
        "value": "22dp"
    },
    "_left_": {
        "type": "string",
        "value": "0dp"
    },
    "_margin_": [
        0,
        0,
        0,
        0
    ],
    "_orientation_": 6,
    "_padding_": [
        0,
        0,
        0,
        0
    ],
    "_percent_": true,
    "_skin_": "s24c92fc23b14f5484b693ee9b8a9b35",
    "_top_": {
        "type": "string",
        "value": "10dp"
    },
    "_width_": {
        "type": "string",
        "value": "100%"
    },
    "allboxes": [],
    "canUpdateUI": true,
    "children": [
        "lblAmountRangeTitle",
        "lblAmountRangeValue",
        "flxCancelAmountRange",
        "lblDateRangeTitle",
        "lblDateRangeValue",
        "flxCancelDateRange",
        "lblCheckNumberTitle",
        "lblCheckNumberValue",
        "flxCancelCheckNumber"
    ],
    "clipbounds": true,
    "containerweight": 100,
    "enablescrolling": true,
    "id": "flxSearchItemOthers",
    "info": null,
    "isvisible": true,
    "kuid": "uc36dbb7efff45c0b952f7a8fb73e604",
    "layouttype": 3,
    "name": "kony.ui.FlexContainer",
    "parent": "flxSearchItems",
    "pf": "userwidgetmodel",
    "responsiveData": {
        "b1": {
            "height": {
                "type": "string",
                "value": "25dp"
            }
        }
    },
    "snapgridsize": 10,
    "snaptogrid": true,
    "wType": "FlexContainer",
    "widgetalignment": 1,
    "zindex": 1
}