{
    "@class": "com.kony.gen.viz.model.component.KVizImage2",
    "DNDConfig": null,
    "_base64_": null,
    "_height_": {
        "type": "string",
        "value": "15dp"
    },
    "_left_": {
        "type": "string",
        "value": "5dp"
    },
    "_margin_": [
        0,
        0,
        0,
        0
    ],
    "_padding_": [
        0,
        0,
        0,
        0
    ],
    "_skin_": "sfd202f4f97041e0a5cab584a5780bfa",
    "_src_": "sorting_1_1.png",
    "_width_": {
        "type": "string",
        "value": "12dp"
    },
    "accessibilityconfig": {
        "a11yLabel": "Sort",
        "a11yValue": ""
    },
    "canUpdateUI": true,
    "centery": {
        "type": "string",
        "value": "50%"
    },
    "containerweight": 100,
    "id": "imgColumn4",
    "imagescalemode": 1,
    "imagewhiledownloading": "img_transparent_4.png",
    "info": null,
    "invokedProperty": "src",
    "isvisible": true,
    "kuid": "u6854fdf93d2423c8301e274e10acceb",
    "name": "kony.ui.Image2",
    "parent": "flxColumn4",
    "pf": "userwidgetmodel",
    "srcType": 1,
    "tooltip": "Sort By Type",
    "wType": "Image",
    "widgetalignment": 5,
    "zindex": 1
}