{
    "@class": "com.kony.gen.viz.model.component.KVizLabel",
    "DNDConfig": null,
    "_height_": {
        "type": "ref",
        "value": "preferred"
    },
    "_margin_": [
        0,
        0,
        0,
        0
    ],
    "_padding_": [
        0,
        0,
        0,
        0
    ],
    "_skin_": "s3ecce7e91ac43d494d3e19304c21137",
    "_text_": "p",
    "_width_": {
        "type": "string",
        "value": "30dp"
    },
    "_wrapping_": 2,
    "accessibilityconfig": {
        "a11yLabel": "Print"
    },
    "android": {
        "textStyle": {
            "letterSpacing": 0,
            "strikeThrough": false
        }
    },
    "canUpdateUI": true,
    "centerx": {
        "type": "string",
        "value": "50%"
    },
    "centery": {
        "type": "string",
        "value": "50%"
    },
    "containerweight": 100,
    "contentalignment": 5,
    "desktopweb": {
        "psp": {
            "hoverSkin": "se207ebcf3a0408988b3f339e5032a52"
        }
    },
    "id": "imgPrintIcon",
    "info": null,
    "ipad": {
        "psp": {
            "wrapping": 2
        }
    },
    "iphone": {
        "psp": {
            "wrapping": 2
        }
    },
    "isvisible": true,
    "kuid": "uc30499e76cc4801925a85a7a6f25f57",
    "name": "kony.ui.Label",
    "parent": "flxPrint",
    "pf": "userwidgetmodel",
    "responsiveData": {
        "b1": {
            "height": {
                "type": "string",
                "value": "19dp"
            },
            "isVisible": false,
            "width": {
                "type": "string",
                "value": "21dp"
            }
        },
        "b2": {
            "height": {
                "type": "string",
                "value": "19dp"
            },
            "isVisible": false,
            "width": {
                "type": "string",
                "value": "21dp"
            }
        }
    },
    "tooltip": "Print",
    "wType": "Label",
    "zindex": 1
}