{
    "@class": "com.kony.gen.viz.model.component.KVizImage2",
    "DNDConfig": null,
    "_base64_": null,
    "_height_": {
        "type": "string",
        "value": "24dp"
    },
    "_left_": {
        "type": "number",
        "value": "0"
    },
    "_margin_": [
        0,
        0,
        0,
        0
    ],
    "_padding_": [
        0,
        0,
        0,
        0
    ],
    "_right_": {
        "type": "string",
        "value": "0dp"
    },
    "_skin_": "s78a5f26c9f14cec9ebed1bb46098f80",
    "_src_": "pagination_inactive_1_1.png",
    "_width_": {
        "type": "string",
        "value": "24dp"
    },
    "accessibilityconfig": {
        "a11yLabel": "Pagination Left",
        "a11yValue": ""
    },
    "canUpdateUI": true,
    "centery": {
        "type": "string",
        "value": "50%"
    },
    "containerweight": 100,
    "id": "imgPaginationFirst",
    "imagescalemode": 1,
    "imagewhiledownloading": "img_transparent_4.png",
    "info": null,
    "isvisible": false,
    "kuid": "ae996aad04b04096ba9999381460824d",
    "name": "kony.ui.Image2",
    "parent": "flxPaginationWrapper",
    "pf": "userwidgetmodel",
    "srcType": 1,
    "tooltip": "First",
    "wType": "Image",
    "widgetalignment": 5,
    "zindex": 1
}