{
    "@class": "com.kony.gen.viz.model.component.KVizImage2",
    "DNDConfig": null,
    "_base64_": null,
    "_height_": {
        "type": "string",
        "value": "80%"
    },
    "_margin_": [
        0,
        0,
        0,
        0
    ],
    "_padding_": [
        0,
        0,
        0,
        0
    ],
    "_skin_": "sfd202f4f97041e0a5cab584a5780bfa",
    "_src_": "search_blue_1_1.png",
    "_width_": {
        "type": "string",
        "value": "80%"
    },
    "accessibilityconfig": {
        "a11yLabel": "Search",
        "a11yValue": ""
    },
    "canUpdateUI": true,
    "centerx": {
        "type": "string",
        "value": "50%"
    },
    "centery": {
        "type": "string",
        "value": "50%"
    },
    "containerweight": 100,
    "id": "imgSearch",
    "imagescalemode": 0,
    "imagewhiledownloading": "img_transparent_4.png",
    "info": null,
    "invokedProperty": "src",
    "isvisible": false,
    "kuid": "u440a2b3f65342d18621fb4c024eb3e3",
    "name": "kony.ui.Image2",
    "parent": "flxSearch",
    "pf": "userwidgetmodel",
    "responsiveData": {
        "b1": {
            "height": {
                "type": "string",
                "value": "26dp"
            },
            "isVisible": true,
            "src": "search_blue.png",
            "width": {
                "type": "string",
                "value": "22dp"
            }
        },
        "b2": {
            "height": {
                "type": "string",
                "value": "26dp"
            },
            "isVisible": true,
            "src": "search_blue.png",
            "width": {
                "type": "string",
                "value": "22dp"
            }
        }
    },
    "srcType": 1,
    "tooltip": "Search",
    "wType": "Image",
    "widgetalignment": 5,
    "zindex": 1
}