{
    "@class": "com.kony.gen.viz.model.component.KVizLabel",
    "DNDConfig": null,
    "_height_": {
        "type": "string",
        "value": "20dp"
    },
    "_left_": {
        "type": "string",
        "value": "30dp"
    },
    "_margin_": [
        1,
        1,
        1,
        1
    ],
    "_padding_": [
        0,
        0,
        0,
        0
    ],
    "_right_": {
        "type": "string",
        "value": "30dp"
    },
    "_skin_": "sf6419caebe343838391a8487ed5286c",
    "_text_": "Transactions",
    "_top_": {
        "type": "string",
        "value": "0dp"
    },
    "_width_": {
        "type": "ref",
        "value": "preferred"
    },
    "_wrapping_": 2,
    "accessibilityconfig": {
        "a11yLabel": "DOMESTIC"
    },
    "android": {
        "textStyle": {
            "letterSpacing": 0,
            "strikeThrough": false
        }
    },
    "canUpdateUI": true,
    "centery": {
        "type": "string",
        "value": "50%"
    },
    "containerweight": 100,
    "contentalignment": 4,
    "id": "lblAccountTypeRadio1",
    "info": null,
    "ipad": {
        "psp": {
            "wrapping": 2
        }
    },
    "iphone": {
        "psp": {
            "wrapping": 2
        }
    },
    "isvisible": true,
    "kuid": "udf37f1caaf748bd9584d5e97e8f6bc1",
    "name": "kony.ui.Label",
    "parent": "flxAccountTypeRadio1",
    "pf": "userwidgetmodel",
    "responsiveData": {
        "b1": {
            "centerY": {
                "type": "string",
                "value": ""
            },
            "left": {
                "type": "string",
                "value": "5dp"
            },
            "right": {
                "type": "string",
                "value": ""
            },
            "top": {
                "type": "string",
                "value": "3dp"
            }
        },
        "b2": {
            "centerY": {
                "type": "string",
                "value": "43%"
            }
        },
        "b3": {
            "centerY": {
                "type": "string",
                "value": ""
            },
            "left": {
                "type": "string",
                "value": "28dp"
            },
            "right": {
                "type": "string",
                "value": "27dp"
            },
            "top": {
                "type": "string",
                "value": "-1dp"
            }
        }
    },
    "tooltip": "",
    "wType": "Label",
    "zindex": 1
}