{
    "@class": "com.kony.gen.viz.model.component.KVizLabel",
    "DNDConfig": null,
    "_height_": {
        "type": "ref",
        "value": "preferred"
    },
    "_left_": {
        "type": "string",
        "value": "0dp"
    },
    "_margin_": [
        1,
        1,
        1,
        1
    ],
    "_padding_": [
        0,
        0,
        0,
        0
    ],
    "_skin_": "sf6419caebe343838391a8487ed5286c",
    "_text_": "By Date",
    "_top_": {
        "type": "string",
        "value": "30dp"
    },
    "_width_": {
        "type": "ref",
        "value": "preferred"
    },
    "_wrapping_": 2,
    "accessibilityconfig": {
        "a11yLabel": "By Date"
    },
    "android": {
        "textStyle": {
            "letterSpacing": 0,
            "strikeThrough": false
        }
    },
    "canUpdateUI": true,
    "containerweight": 100,
    "contentalignment": 4,
    "id": "lblBFByDate",
    "info": null,
    "ipad": {
        "psp": {
            "wrapping": 2
        }
    },
    "iphone": {
        "psp": {
            "wrapping": 2
        }
    },
    "isvisible": true,
    "kuid": "ad97c7d6858047a481047f6b4d012406",
    "name": "kony.ui.Label",
    "parent": "flxBFRightSearch",
    "pf": "userwidgetmodel",
    "responsiveData": {
        "b2": {
            "text": "By Date:"
        },
        "b3": {
            "left": {
                "type": "string",
                "value": "2.50%"
            },
            "text": "By Date:"
        }
    },
    "tooltip": "",
    "wType": "Label",
    "zindex": 1
}