{
    "@class": "com.kony.gen.viz.model.component.KVizTextBox2",
    "DNDConfig": null,
    "_height_": {
        "type": "string",
        "value": "40dp"
    },
    "_left_": {
        "type": "string",
        "value": "10dp"
    },
    "_margin_": [
        0,
        0,
        0,
        0
    ],
    "_padding_": [
        3,
        0,
        0,
        0
    ],
    "_placeholder_": "Cheque Number",
    "_skin_": "se5360ebfaf74fa7b84007825d2087c1",
    "_text_": "",
    "_top_": {
        "type": "string",
        "value": "0dp"
    },
    "_width_": {
        "type": "string",
        "value": "45%"
    },
    "accessibilityconfig": {
        "a11yLabel": "Check Number"
    },
    "autocapitalize": "none",
    "autocomplete": false,
    "autocorrect": false,
    "autofilter": false,
    "canUpdateUI": true,
    "containerheight": "",
    "containerheightmode": 1,
    "containerweight": 100,
    "contentalignment": 4,
    "desktopweb": {
        "placeholderSkin": "sb15c159fa224e949e3697a52ad431e5"
    },
    "disabledSkins": {},
    "focusskin": "s4eee533107848e395d481e067e3e97d",
    "id": "txtCheckNumberTo",
    "info": null,
    "isvisible": true,
    "keyboardtype": "A",
    "kiosk": {
        "psp": {
            "toolTip": "To"
        }
    },
    "kuid": "u65e58fe097b454e9b0b3896a784b7b3",
    "mode": "A",
    "name": "kony.ui.TextBox2",
    "parent": "flxByCheckNumber",
    "pf": "userwidgetmodel",
    "placeholderskin": "sb15c159fa224e949e3697a52ad431e5",
    "responsiveData": {
        "b3": {
            "width": {
                "type": "string",
                "value": "47%"
            }
        }
    },
    "securetextentry": false,
    "textinputmode": "A",
    "viewtype": "default",
    "wType": "TextField",
    "zindex": 1
}