{
    "DNDConfig": null,
    "_height_": {
        "type": "ref",
        "value": "preferred"
    },
    "_margin_": [
        0,
        0,
        0,
        0
    ],
    "_orientation_": 6,
    "_padding_": [
        0,
        0,
        0,
        0
    ],
    "_percent_": true,
    "_skin_": "s282ae8616b74efb83f4abf39f1af7f3",
    "allboxes": [],
    "autogrowmode": 1,
    "canUpdateUI": true,
    "children": [
        "flxSurveyQuestion4Wrapper"
    ],
    "clipbounds": true,
    "containerId": true,
    "containerweight": 100,
    "controllerInfo": {
        "default": {
            "channel": "desktop",
            "name": "flxSurveyQuestion4Controller"
        }
    },
    "enablescrolling": true,
    "id": "flxSurveyQuestion4",
    "info": null,
    "isTemplate": true,
    "isvisible": true,
    "kuid": "c5c93ef732f5430eb51ac26e4ce53790",
    "layouttype": 4,
    "name": "kony.ui.FlexContainer",
    "parent": "segSurveyQuestion4",
    "pf": "segSurveyQuestion4",
    "snapgridsize": 10,
    "snaptogrid": true,
    "wType": "FlexContainer",
    "widgetalignment": 1
}