{
    "@class": "com.kony.gen.viz.model.component.KVizButton",
    "DNDConfig": null,
    "_bottom_": {
        "type": "string",
        "value": "20dp"
    },
    "_height_": {
        "type": "string",
        "value": "40dp"
    },
    "_margin_": [
        6,
        6,
        6,
        6
    ],
    "_padding_": [
        0,
        0,
        0,
        0
    ],
    "_right_": {
        "type": "string",
        "value": "5%"
    },
    "_skin_": "s458e403bdae4789b347d753ac402039",
    "_text_": "Yes",
    "_width_": {
        "type": "string",
        "value": "150dp"
    },
    "accessibilityconfig": {
        "a11yLabel": "Yes"
    },
    "canUpdateUI": true,
    "containerweight": 100,
    "contentalignment": 5,
    "desktopweb": {
        "psp": {
            "hoverSkin": "s7ab6326aaf94c28b90b61fcb1a43136"
        }
    },
    "displaytext": true,
    "focusskin": "s1a5f35cafb14b05963ac55bccd9358a",
    "id": "btnYesIC",
    "info": null,
    "isvisible": true,
    "kuid": "gbd5aa80afdf49f2aba182628cf7150a",
    "name": "kony.ui.Button",
    "parent": "flxPopUpIC",
    "pf": "userwidgetmodel",
    "responsiveData": {
        "b2": {
            "right": {
                "type": "string",
                "value": "20dp"
            }
        },
        "b3": {
            "right": {
                "type": "string",
                "value": "20dp"
            },
            "width": {
                "type": "string",
                "value": "120dp"
            }
        }
    },
    "texti18n": "i18n.common.yes",
    "tooltip": "Yes",
    "wType": "Button",
    "zindex": 1
}