{
    "DNDConfig": null,
    "__parentReadjusting__": false,
    "_bottom_": {
        "type": "string",
        "value": "30dp"
    },
    "_height_": {
        "type": "ref",
        "value": "preferred"
    },
    "_left_": {
        "type": "string",
        "value": "6.07%"
    },
    "_margin_": [
        0,
        0,
        0,
        0
    ],
    "_orientation_": 6,
    "_padding_": [
        0,
        0,
        0,
        0
    ],
    "_percent_": true,
    "_skin_": "sdc143f0e5b64ae3a3f155f691c73fa7",
    "_top_": {
        "type": "string",
        "value": "0px"
    },
    "_width_": {
        "type": "string",
        "value": "88%"
    },
    "allboxes": [],
    "autogrowmode": 1,
    "canUpdateUI": true,
    "children": [
        "flxSuccessMessage",
        "flxbuttons",
        "flxHeaderConfirm",
        "flxTransactionDetails",
        "flxSeparator",
        "flxDetails",
        "flxAgree",
        "flxStep2Buttons"
    ],
    "clipbounds": false,
    "containerweight": 100,
    "enablescrolling": true,
    "id": "flxConfirmDetails",
    "info": null,
    "isvisible": false,
    "kuid": "f60cfafca57247819fd617599d5f8b78",
    "layouttype": 4,
    "name": "kony.ui.FlexContainer",
    "parent": "flxMainWrapper",
    "pf": "frmWireTransferOneTimePaymentConfirm",
    "responsiveData": {
        "b1": {
            "isVisible": true,
            "skin": "sdc143f0e5b64ae3a3f155f691c73fa7"
        },
        "b2": {
            "isVisible": true,
            "skin": "sdc143f0e5b64ae3a3f155f691c73fa7"
        },
        "b3": {
            "isVisible": true,
            "left": {
                "type": "string",
                "value": "2%"
            },
            "skin": "sdc143f0e5b64ae3a3f155f691c73fa7",
            "top": {
                "type": "string",
                "value": "30dp"
            },
            "width": {
                "type": "string",
                "value": "96%"
            }
        },
        "b4": {
            "isVisible": true,
            "left": {
                "type": "string",
                "value": "3.25%"
            },
            "skin": "sdc143f0e5b64ae3a3f155f691c73fa7",
            "width": {
                "type": "string",
                "value": "93.50%"
            }
        }
    },
    "snapgridsize": 10,
    "snaptogrid": true,
    "wType": "FlexContainer",
    "widgetalignment": 1,
    "zindex": 3
}