{
    "@class": "com.kony.gen.viz.model.component.KVizLabel",
    "DNDConfig": null,
    "__parentReadjusting__": false,
    "_bottom_": {
        "type": "string",
        "value": "0dp"
    },
    "_height_": {
        "type": "ref",
        "value": "preferred"
    },
    "_left_": {
        "type": "string",
        "value": "30dp"
    },
    "_margin_": [
        1,
        1,
        1,
        1
    ],
    "_padding_": [
        0,
        0,
        0,
        0
    ],
    "_skin_": "sd9fada740124e4a99edc1f0a05ec2d0",
    "_text_": "Recipient Account Number : ",
    "_top_": {
        "type": "string",
        "value": "23dp"
    },
    "_width_": {
        "type": "string",
        "value": "40%"
    },
    "_wrapping_": 2,
    "accessibilityconfig": {
        "a11yLabel": "Recipient Account Number : "
    },
    "android": {
        "textStyle": {
            "letterSpacing": 0,
            "strikeThrough": false
        }
    },
    "canUpdateUI": true,
    "containerweight": 100,
    "contentalignment": 4,
    "id": "lblBankDetailsKey3",
    "info": null,
    "ipad": {
        "psp": {
            "wrapping": 2
        }
    },
    "iphone": {
        "psp": {
            "wrapping": 2
        }
    },
    "isvisible": true,
    "kuid": "d191fdbc137643e39f0288a2d8c45c69",
    "name": "kony.ui.Label",
    "parent": "flxRow3",
    "pf": "frmWireTransferOneTimePaymentConfirm",
    "responsiveData": {
        "b3": {
            "left": {
                "type": "string",
                "value": "10dp"
            },
            "width": {
                "type": "string",
                "value": "44%"
            }
        }
    },
    "tooltip": "",
    "wType": "Label",
    "zindex": 1
}