{
    "@class": "com.kony.gen.viz.model.component.KVizButton",
    "DNDConfig": null,
    "__parentReadjusting__": false,
    "_height_": {
        "type": "string",
        "value": "40dp"
    },
    "_margin_": [
        6,
        6,
        6,
        6
    ],
    "_padding_": [
        0,
        0,
        0,
        0
    ],
    "_skin_": "sfbbba35ede4457b94eb681b72349b98",
    "_text_": "Button",
    "_top_": {
        "type": "string",
        "value": "30dp"
    },
    "_width_": {
        "type": "string",
        "value": "85%"
    },
    "accessibilityconfig": {
        "a11yLabel": "Back to login"
    },
    "canUpdateUI": true,
    "centerx": {
        "type": "string",
        "value": "50%"
    },
    "containerweight": 100,
    "contentalignment": 5,
    "desktopweb": {
        "psp": {
            "hoverSkin": "s7ab6326aaf94c28b90b61fcb1b54547"
        }
    },
    "displaytext": true,
    "focusskin": "sfd0ce0d7f454c9f83c7e815a90a8a55",
    "id": "btnBackToLogin",
    "info": null,
    "isvisible": true,
    "kuid": "dd40b1427455401ab18fd695ea81360b",
    "name": "kony.ui.Button",
    "parent": "EnrollAlert",
    "pf": "userwidgetmodel",
    "texti18n": "i18n.login.BackToLogin",
    "tooltip": "Back to Sign In",
    "wType": "Button",
    "zindex": 1
}