{
    "DNDConfig": null,
    "_height_": {
        "type": "string",
        "value": "130dp"
    },
    "_left_": {
        "type": "string",
        "value": "0dp"
    },
    "_margin_": [
        0,
        0,
        0,
        0
    ],
    "_orientation_": 6,
    "_padding_": [
        0,
        0,
        0,
        0
    ],
    "_percent_": true,
    "_skin_": "secff68ee7904525acebc42c36c39094",
    "_top_": {
        "type": "string",
        "value": "0dp"
    },
    "_width_": {
        "type": "string",
        "value": "100%"
    },
    "allboxes": [],
    "autogrowmode": 0,
    "canUpdateUI": true,
    "children": [
        "lblAccountTitle",
        "flxChkAccountAccess",
        "lblAccountNameNumber",
        "lblMaxLimit",
        "flxMaxLimit",
        "lblMinLimit",
        "flxMinLimit"
    ],
    "clipbounds": true,
    "containerId": true,
    "containerweight": 100,
    "controllerInfo": {
        "default": {
            "channel": "desktop",
            "name": "flxAccountAccessLimitController"
        }
    },
    "enablescrolling": true,
    "id": "flxAccountAccessLimit",
    "info": null,
    "isTemplate": true,
    "iscustomlayout": false,
    "isvisible": true,
    "kuid": "d2bde260c4614e60b37e886b1cd3beff",
    "layouttype": 2,
    "name": "kony.ui.FlexContainer",
    "parent": "segBBAccountAccessLimit",
    "pf": "segBBAccountAccessLimit",
    "retaincontentalignment": false,
    "retainflexpositionproperties": false,
    "snapgridsize": 10,
    "snaptogrid": true,
    "wType": "FlexContainer",
    "widgetalignment": 1
}