{
    "DNDConfig": null,
    "__parentReadjusting__": false,
    "_height_": {
        "type": "string",
        "value": "20dp"
    },
    "_left_": {
        "type": "string",
        "value": "32.95%"
    },
    "_margin_": [
        0,
        0,
        0,
        0
    ],
    "_orientation_": 6,
    "_padding_": [
        0,
        0,
        0,
        0
    ],
    "_percent_": true,
    "_skin_": "s5db9e213d914847b0a65b20cfbd2130",
    "_top_": {
        "type": "string",
        "value": "21dp"
    },
    "_width_": {
        "type": "string",
        "value": "20dp"
    },
    "allboxes": [],
    "autogrowmode": 0,
    "canUpdateUI": true,
    "children": [
        "imgChkAccountAccess"
    ],
    "clipbounds": false,
    "containerId": true,
    "containerweight": 100,
    "enablescrolling": true,
    "id": "flxChkAccountAccess",
    "ide_onClick": "AS_FlexContainer_f1046a76766540d7b64cf1e1a8cbb938",
    "info": null,
    "iscustomlayout": false,
    "isvisible": true,
    "kuid": "b7c5c7482b4b4d6db2d6ad0d20ec6772",
    "layouttype": 2,
    "name": "kony.ui.FlexContainer",
    "parent": "flxAccountAccessLimit",
    "pf": "segBBAccountAccessLimit",
    "retaincontentalignment": false,
    "retainflexpositionproperties": false,
    "snapgridsize": 10,
    "snaptogrid": true,
    "wType": "FlexContainer",
    "widgetalignment": 1,
    "zindex": 1
}