{
    "@class": "com.kony.gen.viz.model.component.KVizLabel",
    "DNDConfig": null,
    "_height_": {
        "type": "ref",
        "value": "preferred"
    },
    "_left_": {
        "type": "string",
        "value": "0"
    },
    "_margin_": [
        1,
        1,
        1,
        1
    ],
    "_padding_": [
        0,
        0,
        0,
        0
    ],
    "_skin_": "sc39b68cb14e457b9b79ba3c8c3b88d1",
    "_text_": "Label",
    "_top_": {
        "type": "string",
        "value": "0"
    },
    "_width_": {
        "type": "ref",
        "value": "preferred"
    },
    "_wrapping_": 2,
    "android": {
        "textStyle": {
            "letterSpacing": 0,
            "strikeThrough": false
        }
    },
    "canUpdateUI": true,
    "containerweight": 100,
    "contentalignment": 4,
    "id": "lblHeaderName",
    "info": null,
    "ipad": {
        "psp": {
            "wrapping": 2
        }
    },
    "iphone": {
        "psp": {
            "wrapping": 2
        }
    },
    "iscustomlayout": false,
    "isvisible": true,
    "kuid": "dc069dadd3554cefb9c56ba1a5b98878",
    "name": "kony.ui.Label",
    "parent": "flxMain",
    "pf": "frmSameBankAddBeneAcknowledgement",
    "responsiveData": {
        "b1": {
            "left": {
                "type": "string",
                "value": "85dp"
            },
            "skin": "s18d3552bc4143560f6e4fdb2ed4fea0",
            "text": "Add New Account - Acknowledgement ",
            "top": {
                "type": "string",
                "value": "25dp"
            }
        },
        "b2": {
            "left": {
                "type": "string",
                "value": "26dp"
            },
            "skin": "s18d3552bc4143560f6e4fdb2ed4fea0",
            "text": "Add New Account- Acknowledgement ",
            "top": {
                "type": "string",
                "value": "24dp"
            }
        },
        "b3": {
            "isVisible": false
        },
        "b4": {
            "left": {
                "type": "string",
                "value": "85dp"
            },
            "skin": "s18d3552bc4143560f6e4fdb2ed4fea0",
            "text": "Add New Account - Acknowledgement ",
            "top": {
                "type": "string",
                "value": "25dp"
            }
        }
    },
    "retaincontentalignment": false,
    "retainflexpositionproperties": false,
    "tooltip": "",
    "wType": "Label"
}