{
    "DNDConfig": null,
    "_height_": {
        "type": "string",
        "value": "100%"
    },
    "_left_": {
        "type": "string",
        "value": "2%"
    },
    "_margin_": [
        0,
        0,
        0,
        0
    ],
    "_orientation_": 6,
    "_padding_": [
        0,
        0,
        0,
        0
    ],
    "_percent_": true,
    "_skin_": "s24c92fc23b14f5484b693ee9b8a9b35",
    "_top_": {
        "type": "string",
        "value": "0dp"
    },
    "_width_": {
        "type": "string",
        "value": "47%"
    },
    "allboxes": [],
    "canUpdateUI": true,
    "children": [
        "lblSearchField1",
        "flxTxtBoxSearchField1"
    ],
    "clipbounds": true,
    "containerweight": 100,
    "enablescrolling": true,
    "id": "flxSearchField1",
    "info": null,
    "iscustomlayout": false,
    "isvisible": true,
    "kuid": "a13fd725d90f47908ee8990373cdc5c4",
    "layouttype": 4,
    "name": "kony.ui.FlexContainer",
    "parent": "flxFieldRow1",
    "pf": "userwidgetmodel",
    "responsiveData": {
        "b3": {
            "height": {
                "type": "string",
                "value": "63dp"
            },
            "width": {
                "type": "string",
                "value": "96%"
            }
        }
    },
    "retaincontentalignment": false,
    "retainflexpositionproperties": false,
    "retainflowhorizontalalignment": false,
    "snapgridsize": 10,
    "snaptogrid": true,
    "wType": "FlexContainer",
    "widgetalignment": 1,
    "zindex": 1
}