{
    "@class": "com.kony.gen.viz.model.component.KVizImage2",
    "DNDConfig": null,
    "_base64_": null,
    "_height_": {
        "type": "string",
        "value": "100%"
    },
    "_left_": {
        "type": "string",
        "value": "0dp"
    },
    "_margin_": [
        0,
        0,
        0,
        0
    ],
    "_padding_": [
        0,
        0,
        0,
        0
    ],
    "_skin_": "se4444cc8d604aea82bf3dafcc22e360",
    "_src_": "bbcloseicon.png",
    "_top_": {
        "type": "string",
        "value": "0dp"
    },
    "_width_": {
        "type": "string",
        "value": "100%"
    },
    "canUpdateUI": true,
    "containerweight": 100,
    "id": "imgLookupCloseIcon",
    "imagescalemode": 1,
    "info": null,
    "iscustomlayout": false,
    "isvisible": true,
    "kuid": "e25b22b58a834bf3a168a4da21d31895",
    "name": "kony.ui.Image2",
    "parent": "flxLookupClose",
    "pf": "userwidgetmodel",
    "responsiveData": {
        "b1": {
            "src": "bbcloseicon_1.png"
        },
        "b2": {
            "src": "bbcloseicon_1.png"
        },
        "b3": {
            "src": "bbcloseicon_1.png"
        },
        "b4": {
            "src": "bbcloseicon_1.png"
        }
    },
    "retaincontentalignment": false,
    "retainflexpositionproperties": false,
    "srcType": 1,
    "wType": "Image",
    "widgetalignment": 5,
    "zindex": 1
}