{
    "@class": "com.kony.gen.viz.model.component.KVizButton",
    "DNDConfig": null,
    "__parentReadjusting__": false,
    "_height_": {
        "type": "string",
        "value": "50dp"
    },
    "_left_": {
        "type": "string",
        "value": "2.51%"
    },
    "_margin_": [
        6,
        6,
        6,
        6
    ],
    "_padding_": [
        0,
        0,
        0,
        0
    ],
    "_skin_": "s4fe0674a3c84b76a21524a90bad4282",
    "_text_": "REQUEST MONEY",
    "_top_": {
        "type": "string",
        "value": "30px"
    },
    "_width_": {
        "type": "string",
        "value": "28.97%"
    },
    "accessibilityconfig": {
        "a11yLabel": "Request Money"
    },
    "canUpdateUI": true,
    "containerweight": 100,
    "contentalignment": 5,
    "desktopweb": {
        "psp": {
            "hoverSkin": "sfd0ce0d7f454c9f83c7e815a90a8a55"
        }
    },
    "disabledSkins": {},
    "displaytext": true,
    "focusskin": "sfd0ce0d7f454c9f83c7e815a90a8a55",
    "id": "btnRequestMoney",
    "info": null,
    "isvisible": true,
    "kuid": "aeac4f62c72049a9b49565e38d5431cc",
    "name": "kony.ui.Button",
    "parent": "flxButtons",
    "pf": "userwidgetmodel",
    "texti18n": "i18n.PayAPerson.RequestMoney",
    "tooltip": "Request Money",
    "wType": "Button",
    "zindex": 2
}