{
    "@class": "com.kony.gen.viz.model.component.KVizButton",
    "DNDConfig": null,
    "__parentReadjusting__": false,
    "_height_": {
        "type": "string",
        "value": "100%"
    },
    "_left_": {
        "type": "string",
        "value": "0dp"
    },
    "_margin_": [
        6,
        6,
        6,
        6
    ],
    "_padding_": [
        0,
        0,
        0,
        0
    ],
    "_skin_": "sae54276696f477dbbd70e34725a8526",
    "_text_": "",
    "_top_": {
        "type": "string",
        "value": "0dp"
    },
    "_width_": {
        "type": "ref",
        "value": "preferred"
    },
    "accessibilityconfig": {
        "a11yLabel": "Edit"
    },
    "canUpdateUI": true,
    "containerId": true,
    "containerweight": 100,
    "contentalignment": 5,
    "desktopweb": {
        "psp": {
            "hoverSkin": "sd36babbd8f6461f8b492698ab830d13"
        }
    },
    "disabledSkins": {
        "focusSkin": "sf44d06ca8224832827ea7fdff757013"
    },
    "displaytext": true,
    "id": "btnAction",
    "ide_onClick": "AS_Button_bd72ead795954508ba7fc0a70696537d",
    "info": null,
    "isvisible": true,
    "kuid": "fbfe5dc2228544b797543b4d759ff076",
    "name": "kony.ui.Button",
    "parent": "flxManageRecipients",
    "pf": "segManageRecipientsWireTransfersSelected",
    "texti18n": "i18n.billPay.Edit",
    "tooltip": "VIEW REPORT",
    "wType": "Button",
    "zindex": 1
}