{
    "DNDConfig": null,
    "__parentReadjusting__": false,
    "_height_": {
        "type": "string",
        "value": "100%"
    },
    "_left_": {
        "type": "string",
        "value": "0dp"
    },
    "_margin_": [
        0,
        0,
        0,
        0
    ],
    "_orientation_": 6,
    "_padding_": [
        0,
        0,
        0,
        0
    ],
    "_percent_": true,
    "_skin_": "s680c9bafb594fe4bfa388d84acc43b2",
    "_top_": {
        "type": "string",
        "value": "0dp"
    },
    "_width_": {
        "type": "string",
        "value": "7.70%"
    },
    "allboxes": [],
    "autogrowmode": 0,
    "canUpdateUI": true,
    "children": [
        "imgDropdown"
    ],
    "clipbounds": true,
    "containerId": true,
    "containerweight": 100,
    "desktopweb": {
        "psp": {
            "hoverSkin": "saa67c48bc2d42b7bdb5ee30d36f501f"
        }
    },
    "enablescrolling": true,
    "id": "flxDropdown",
    "ide_onClick": "AS_FlexContainer_e127e08949064dedb0bfceb8e44e3036",
    "info": null,
    "isvisible": true,
    "kuid": "fbb310f856f74bf79cc150a44bcc6dc9",
    "layouttype": 3,
    "name": "kony.ui.FlexContainer",
    "parent": "flxManageRecipients",
    "pf": "segManageRecipientsWireTransfersSelected",
    "snapgridsize": 10,
    "snaptogrid": true,
    "wType": "FlexContainer",
    "widgetalignment": 1,
    "zindex": 1
}