{
    "DNDConfig": null,
    "__parentReadjusting__": false,
    "_height_": {
        "type": "ref",
        "value": "preferred"
    },
    "_left_": {
        "type": "string",
        "value": "0dp"
    },
    "_margin_": [
        0,
        0,
        0,
        0
    ],
    "_orientation_": 6,
    "_padding_": [
        0,
        0,
        0,
        0
    ],
    "_percent_": true,
    "_skin_": "sdc143f0e5b64ae3a3f155f691c73fa7",
    "_top_": {
        "type": "string",
        "value": "-17dp"
    },
    "_width_": {
        "type": "string",
        "value": "100%"
    },
    "allboxes": [],
    "autogrowmode": 1,
    "canUpdateUI": true,
    "children": [
        "segAccountTypes"
    ],
    "clipbounds": false,
    "containerweight": 100,
    "enablescrolling": true,
    "id": "flxAccountTypesSegment",
    "info": null,
    "isvisible": true,
    "kuid": "h3c4523bb19e4cd9bad9b446139a4adb",
    "layouttype": 2,
    "name": "kony.ui.FlexContainer",
    "parent": "accountTypesMoreActions",
    "pf": "userwidgetmodel",
    "responsiveData": {
        "b1": {
            "top": {
                "type": "string",
                "value": "-17dp"
            }
        }
    },
    "snapgridsize": 10,
    "snaptogrid": true,
    "wType": "FlexContainer",
    "widgetalignment": 1,
    "zindex": 1
}