{
    "@class": "com.kony.gen.viz.model.component.KVizUserWidget",
    "DNDConfig": null,
    "__parentReadjusting__": false,
    "_children_": [],
    "_height_": {
        "type": "string",
        "value": "50dp"
    },
    "_left_": {
        "type": "string",
        "value": "0dp"
    },
    "_margin_": [
        0,
        0,
        0,
        0
    ],
    "_orientation_": 1,
    "_padding_": [
        0,
        0,
        0,
        0
    ],
    "_percent_": true,
    "_render_": true,
    "_skin_": "s576844bc0e148a9a02e6171eac305ac",
    "_top_": {
        "type": "string",
        "value": "0dp"
    },
    "_width_": {
        "type": "string",
        "value": "100%"
    },
    "areflexpropsreferenced": false,
    "autogrowmode": 0,
    "canUpdateUI": true,
    "clipbounds": true,
    "containerweight": 0,
    "dataDiffs": {
        "confirmHeaders": {
            "__events__": {},
            "__info__": {
                "isRoot": true,
                "kuid": "e24550f8d402490a8262759a4ba49d12",
                "srcKUID": "bfa374b04e3743cf981eb31d77ebf746",
                "wType": "FlexContainer"
            },
            "autogrowMode": {
                "Default": 0
            },
            "height": {
                "Default": {
                    "type": "string",
                    "value": "50dp"
                }
            },
            "left": {
                "Default": {
                    "type": "string",
                    "value": "0dp"
                }
            },
            "top": {
                "Default": {
                    "type": "string",
                    "value": "0dp"
                }
            },
            "width": {
                "Default": {
                    "type": "string",
                    "value": "100%"
                }
            },
            "zIndex": {
                "Default": 1
            }
        },
        "flxHeader": {
            "__events__": {},
            "__info__": {
                "kuid": "bfbfb9f59a6f415880f5ba35fbddd249",
                "srcKUID": "ge4b975c1527467a9bc1b610e3dcf02e",
                "wType": "FlexContainer"
            },
            "autogrowMode": {
                "Default": 0
            },
            "height": {
                "Default": {
                    "type": "string",
                    "value": "50dp"
                }
            }
        },
        "lblHeading": {
            "__events__": {},
            "__info__": {
                "kuid": "b632c5d3e7934929bf29a1aa5ab625f2",
                "srcKUID": "e48654a7e4ae4428b39557093fea9b39",
                "wType": "Label"
            },
            "height": {
                "Default": {
                    "type": "string",
                    "value": "100%"
                }
            },
            "i18n_text": null,
            "left": {
                "Default": {
                    "type": "string",
                    "value": "30dp"
                }
            },
            "text": "Your Transaction Details"
        }
    },
    "id": "confirmHeaders",
    "info": null,
    "isdatareferenced": false,
    "isvisible": true,
    "kuid": "09aba131fa64470bad5b79747c2fe9ba",
    "layouttype": 2,
    "masterType": 0,
    "name": "kony.ui.UserWidgetInstance",
    "parent": "flxMain",
    "pf": "userwidgetmodel",
    "snapgridsize": 10,
    "snaptogrid": true,
    "sourceUserWidget": "bfa374b04e3743cf981eb31d77ebf746",
    "wType": "UserWidgetInstance",
    "zindex": 1
}