{
    "AS_Button_def291cc8b894cf385cd470ec14cba6d": {
        "id": "AS_Button_def291cc8b894cf385cd470ec14cba6d",
        "type": "ACTION_SEQUENCE",
        "params": [{
            "datatype": "collection",
            "name": "eventobject"
        }],
        "contextObj": {
            "type": "forms",
            "platform": "",
            "KUID": "e059936099a34afc8e9ebbf56ecdea5f"
        },
        "language": "js",
        "actions": [{
            "id": "ADD_SNIPPET__ba164842c6cc4bd9b4ef3e0ad380f7b7",
            "type": "ADD_SNIPPET",
            "codeSnippet": "this.welcomeVerifiedUser();",
            "parentId": null,
            "callbackType": null
        }]
    }
}