{
    "AS_Button_b6f46e7aaf5549829ee25d989c8f459c": {
        "id": "AS_Button_b6f46e7aaf5549829ee25d989c8f459c",
        "type": "ACTION_SEQUENCE",
        "params": [{
            "datatype": "collection",
            "name": "eventobject"
        }],
        "contextObj": {
            "type": "forms",
            "platform": "",
            "KUID": "e059936099a34afc8e9ebbf56ecdea5f"
        },
        "language": "js",
        "actions": [{
            "id": "ADD_SNIPPET__e897e4ba22af4558811872a54f96eb66",
            "type": "ADD_SNIPPET",
            "codeSnippet": "this.login();",
            "parentId": null,
            "callbackType": null
        }]
    }
}