{
    "@class": "com.kony.gen.viz.model.component.KVizButton",
    "DNDConfig": null,
    "_bottom_": {
        "type": "number",
        "value": ""
    },
    "_height_": {
        "type": "string",
        "value": "40px"
    },
    "_left_": {
        "type": "string",
        "value": "680px"
    },
    "_margin_": [
        6,
        6,
        6,
        6
    ],
    "_padding_": [
        0,
        0,
        0,
        0
    ],
    "_right_": {
        "type": "number",
        "value": ""
    },
    "_skin_": "sa611611b2f24e93bcfd09e1606c0d86",
    "_text_": "New Payment",
    "_top_": {
        "type": "string",
        "value": "30dp"
    },
    "_width_": {
        "type": "string",
        "value": "250px"
    },
    "accessibilityconfig": {
        "a11yLabel": "New Payment"
    },
    "canUpdateUI": true,
    "containerweight": 100,
    "contentalignment": 5,
    "desktopweb": {
        "psp": {
            "hoverSkin": "s83729feaa224e359d660d5af05c4bac"
        }
    },
    "disabledSkins": {},
    "displaytext": true,
    "focusskin": "sb23593b913b4005add4a246020aa1cc",
    "hoverskin": "",
    "id": "btnNewPayment",
    "info": null,
    "iscustomlayout": false,
    "isvisible": true,
    "kuid": "f337f9dfcddb4957ac29f94eca082503",
    "name": "kony.ui.Button",
    "parent": "flxButtons",
    "pf": "frmAcknowledgementEuro",
    "responsiveData": {
        "b1": {
            "left": {
                "type": "string",
                "value": "58.60%"
            },
            "right": {
                "type": "string",
                "value": ""
            },
            "width": {
                "type": "string",
                "value": "16.84%"
            }
        },
        "b2": {
            "left": {
                "type": "string",
                "value": ""
            },
            "right": {
                "type": "string",
                "value": "27%"
            },
            "width": {
                "type": "string",
                "value": "22%"
            }
        },
        "b3": {
            "bottom": {
                "type": "string",
                "value": ""
            },
            "left": {
                "type": "string",
                "value": "2%"
            },
            "right": {
                "type": "string",
                "value": "2%"
            },
            "top": {
                "type": "string",
                "value": "15dp"
            },
            "width": {
                "type": "string",
                "value": "96%"
            }
        },
        "b4": {
            "left": {
                "type": "string",
                "value": ""
            },
            "right": {
                "type": "string",
                "value": "24.80%"
            },
            "width": {
                "type": "string",
                "value": "16.84%"
            }
        }
    },
    "retaincontentalignment": false,
    "retainflexpositionproperties": false,
    "texti18n": "i18n.TransfersEur.NewPayment",
    "tooltip": "New Payment",
    "wType": "Button",
    "zindex": 1
}