{
    "DNDConfig": null,
    "_height_": {
        "type": "string",
        "value": "100%"
    },
    "_left_": {
        "type": "string",
        "value": "0dp"
    },
    "_margin_": [
        0,
        0,
        0,
        0
    ],
    "_orientation_": 6,
    "_padding_": [
        0,
        0,
        0,
        0
    ],
    "_percent_": true,
    "_skin_": "s24c92fc23b14f5484b693ee9b8a9b35",
    "_top_": {
        "type": "string",
        "value": "0dp"
    },
    "_width_": {
        "type": "string",
        "value": "100%"
    },
    "allboxes": [],
    "autogrowmode": 0,
    "canUpdateUI": true,
    "children": [
        "flxActivateProfileQRScan"
    ],
    "clipbounds": true,
    "containerweight": 100,
    "desktopweb": {
        "ide_onBreakpointChange": "AS_FlexContainer_b568d050bc0c46deb4d14d37ba8a686d"
    },
    "enablescrolling": true,
    "id": "ActivateProfile",
    "ide_preShow": "AS_FlexContainer_d662c2a667604cc48559eaa5c8b7fba6",
    "info": null,
    "iscustomlayout": false,
    "isvisible": true,
    "kuid": "e76179d74f2a488387b151a1c2dae27c",
    "layouttype": 2,
    "name": "kony.ui.FlexContainer",
    "parent": "userwidgetmodel",
    "pf": "userwidgetmodel",
    "retaincontentalignment": false,
    "retainflexpositionproperties": false,
    "retainflowhorizontalalignment": false,
    "snapgridsize": 10,
    "snaptogrid": true,
    "wType": "FlexContainer",
    "widgetalignment": 1
}