{
    "DNDConfig": null,
    "__parentReadjusting__": false,
    "_height_": {
        "type": "ref",
        "value": "preferred"
    },
    "_left_": {
        "type": "string",
        "value": "3%"
    },
    "_margin_": [
        0,
        0,
        0,
        0
    ],
    "_orientation_": 6,
    "_padding_": [
        0,
        0,
        0,
        0
    ],
    "_percent_": true,
    "_skin_": "s24c92fc23b14f5484b693ee9b8a9b35",
    "_top_": {
        "type": "string",
        "value": "0"
    },
    "_width_": {
        "type": "string",
        "value": "94%"
    },
    "allboxes": [],
    "autogrowmode": 1,
    "canUpdateUI": true,
    "children": [
        "lblTitleDate",
        "lblDateToAchieve"
    ],
    "clipbounds": true,
    "containerweight": 100,
    "enablescrolling": true,
    "id": "flxDate",
    "info": null,
    "iscustomlayout": false,
    "isvisible": true,
    "kuid": "fa3ac8f51a2c4489baba08f466f9df15",
    "layouttype": 4,
    "name": "kony.ui.FlexContainer",
    "parent": "flxAmountResult",
    "pf": "frmCreateSavingsGoal",
    "responsiveData": {
        "b3": {
            "left": {
                "type": "string",
                "value": "3%"
            },
            "width": {
                "type": "string",
                "value": "44%"
            }
        }
    },
    "retaincontentalignment": false,
    "retainflexpositionproperties": false,
    "retainflowhorizontalalignment": false,
    "snapgridsize": 10,
    "snaptogrid": true,
    "wType": "FlexContainer",
    "widgetalignment": 1,
    "zindex": 1
}