{
    "@class": "com.kony.gen.viz.model.component.KVizLabel",
    "DNDConfig": null,
    "__parentReadjusting__": false,
    "_height_": {
        "type": "string",
        "value": "20px"
    },
    "_left_": {
        "type": "string",
        "value": "10px"
    },
    "_margin_": [
        1,
        1,
        1,
        1
    ],
    "_padding_": [
        0,
        0,
        0,
        0
    ],
    "_skin_": "s63e81af6a184e7e8e891b0dbbe7895c",
    "_text_": "Monthly",
    "_width_": {
        "type": "string",
        "value": "90px"
    },
    "_wrapping_": 2,
    "accessibilityconfig": {
        "a11yLabel": "Single/Multiple Checks"
    },
    "android": {
        "textStyle": {
            "letterSpacing": 0,
            "strikeThrough": false
        }
    },
    "canUpdateUI": true,
    "centery": {
        "type": "string",
        "value": "51.11%"
    },
    "containerweight": 100,
    "contentalignment": 4,
    "id": "lblMonthly",
    "info": null,
    "ipad": {
        "psp": {
            "wrapping": 2
        }
    },
    "iphone": {
        "psp": {
            "wrapping": 2
        }
    },
    "isvisible": true,
    "kuid": "c04940bee783415b92b40c9981778d90",
    "name": "kony.ui.Label",
    "parent": "flxR1",
    "pf": "frmCreateSavingsGoal",
    "tooltip": "",
    "wType": "Label",
    "zindex": 1
}