{
    "@class": "com.kony.gen.viz.model.component.KVizUserWidget",
    "DNDConfig": null,
    "_children_": [],
    "_height_": {
        "type": "string",
        "value": "60dp"
    },
    "_left_": {
        "type": "number",
        "value": ""
    },
    "_margin_": [
        0,
        0,
        0,
        0
    ],
    "_orientation_": 1,
    "_padding_": [
        0,
        0,
        0,
        0
    ],
    "_percent_": true,
    "_skin_": "s24c92fc23b14f5484b693ee9b8a9b35",
    "_top_": {
        "type": "string",
        "value": "5dp"
    },
    "_width_": {
        "type": "string",
        "value": "99%"
    },
    "areflexpropsreferenced": false,
    "autogrowmode": 0,
    "canUpdateUI": true,
    "centerx": {
        "type": "string",
        "value": "50%"
    },
    "clipbounds": false,
    "containerweight": 0,
    "dataDiffs": {
        "flxHolder": {
            "__events__": {},
            "__info__": {
                "kuid": "hb4a14239c4a4bcd90f41cc01359caae",
                "srcKUID": "bc1497f93b2045df887ac2aa9aedc794",
                "wType": "FlexContainer"
            }
        },
        "flxMainKA": {
            "__events__": {},
            "__info__": {
                "kuid": "d35ef2c31f284e2c9a05a5baa07e8009",
                "srcKUID": "hf06cad08d8142f18ecd9203a76f752b",
                "wType": "FlexContainer"
            }
        },
        "flxValuesHolder": {
            "__events__": {},
            "__info__": {
                "kuid": "b64b52515e18487ba2aa34162e8e8a6e",
                "srcKUID": "f8589af0a74c4984a2f78c7561e180f5",
                "wType": "FlexContainer"
            }
        },
        "lblLeftAmount": {
            "__events__": {},
            "__info__": {
                "kuid": "b85a2e8e6ce84bb39d86663f73436096",
                "srcKUID": "c465cb13e7594deba739d534f632cb25",
                "wType": "Label"
            }
        },
        "lblRightAmount": {
            "__events__": {},
            "__info__": {
                "kuid": "b649b16e14514bffbb92490b94c7143b",
                "srcKUID": "d94d3d6920a14097918923c2e2413e29",
                "wType": "Label"
            }
        },
        "sldSlider": {
            "__events__": {},
            "__info__": {
                "kuid": "eb4fd6c4437c4dd38964afa3ae93dbce",
                "srcKUID": "f314d9d56c5e4d989dec9464652f9b58",
                "wType": "Slider"
            }
        },
        "slider": {
            "__events__": {},
            "__info__": {
                "isRoot": true,
                "kuid": "ae44da185dcb43c493a9b09c5589892a",
                "srcKUID": "a8030e1754a449b7b284892adcf4504e",
                "wType": "FlexContainer"
            },
            "centerX": {
                "Default": {
                    "type": "string",
                    "value": "50%"
                }
            },
            "left": {
                "Default": {
                    "type": "number",
                    "value": ""
                }
            },
            "responsiveData": {
                "b3": {
                    "centerX": {
                        "type": "string",
                        "value": ""
                    },
                    "left": {
                        "type": "string",
                        "value": "1.50%"
                    },
                    "width": {
                        "type": "string",
                        "value": "97%"
                    }
                }
            },
            "width": {
                "Default": {
                    "type": "string",
                    "value": "99%"
                }
            }
        }
    },
    "enablescrolling": true,
    "id": "slider",
    "info": null,
    "iscustomlayout": false,
    "isdatareferenced": false,
    "isvisible": true,
    "kuid": "ae44da185dcb43c493a9b09c5589892a",
    "layouttype": 4,
    "masterType": 0,
    "name": "kony.ui.UserWidgetInstance",
    "parent": "flxSlider",
    "pf": "frmCreateSavingsGoal",
    "retaincontentalignment": false,
    "retainflexpositionproperties": false,
    "snapgridsize": 10,
    "snaptogrid": true,
    "sourceUserWidget": "a8030e1754a449b7b284892adcf4504e",
    "wType": "UserWidgetInstance"
}