{
    "@class": "com.kony.gen.viz.model.component.KVizButton",
    "DNDConfig": null,
    "__parentReadjusting__": false,
    "_height_": {
        "type": "string",
        "value": "40px"
    },
    "_left_": {
        "type": "number",
        "value": ""
    },
    "_margin_": [
        6,
        6,
        6,
        6
    ],
    "_padding_": [
        0,
        0,
        0,
        0
    ],
    "_right_": {
        "type": "string",
        "value": "280dp"
    },
    "_skin_": "sa611611b2f24e93bcfd09e1606c0d86",
    "_text_": "Make Another Bulk Payment",
    "_top_": {
        "type": "string",
        "value": "22dp"
    },
    "_width_": {
        "type": "string",
        "value": "257dp"
    },
    "accessibilityconfig": {
        "a11yLabel": "Add Another Recipient"
    },
    "canUpdateUI": true,
    "containerweight": 100,
    "contentalignment": 5,
    "desktopweb": {
        "psp": {
            "hoverSkin": "s83729feaa224e359d660d5af05c4bac"
        }
    },
    "disabledSkins": {
        "focusSkin": "sfd0ce0d7f454c9f83c7e815a90a8a55"
    },
    "displaytext": true,
    "id": "btnBack",
    "info": null,
    "iscustomlayout": false,
    "isvisible": true,
    "kuid": "jc16eee4d8914d268b4f29f0bd19d70c",
    "name": "kony.ui.Button",
    "parent": "flxbtn",
    "pf": "frmBulkWireTemplateRemovedRecipients",
    "responsiveData": {
        "b1": {
            "skin": "sa611611b2f24e93bcfd09e1606c0d86",
            "text": "Back"
        },
        "b2": {
            "height": {
                "type": "string",
                "value": "39px"
            },
            "skin": "sa611611b2f24e93bcfd09e1606c0d86"
        },
        "b3": {
            "right": {
                "type": "string",
                "value": "195dp"
            },
            "skin": "sa611611b2f24e93bcfd09e1606c0d86",
            "width": {
                "type": "string",
                "value": "175dp"
            }
        },
        "b4": {
            "left": {
                "type": "string",
                "value": "0dp"
            }
        }
    },
    "retaincontentalignment": false,
    "retainflexpositionproperties": false,
    "texti18n": "i18n.ProfileManagement.BACK",
    "wType": "Button",
    "zindex": 1
}