{
    "@class": "com.kony.gen.viz.model.component.KVizButton",
    "DNDConfig": null,
    "_bottom_": {
        "type": "number",
        "value": ""
    },
    "_height_": {
        "type": "string",
        "value": "40dp"
    },
    "_left_": {
        "type": "string",
        "value": "0"
    },
    "_margin_": [
        6,
        6,
        6,
        6
    ],
    "_padding_": [
        0,
        0,
        0,
        0
    ],
    "_right_": {
        "type": "string",
        "value": "20dp"
    },
    "_skin_": "sb589a18c0ce4a15836d5cdf94eceb05",
    "_text_": "Cancel",
    "_top_": {
        "type": "string",
        "value": "0dp"
    },
    "_width_": {
        "type": "string",
        "value": "150dp"
    },
    "canUpdateUI": true,
    "containerweight": 100,
    "contentalignment": 5,
    "displaytext": true,
    "focusskin": "sb589a18c0ce4a15836d5cdf94eceb05",
    "id": "btnCancel",
    "info": null,
    "iscustomlayout": false,
    "isvisible": true,
    "kuid": "eedc0aa79bf84bc2a02c9a6360405ff0",
    "name": "kony.ui.Button",
    "parent": "flxButton",
    "pf": "userwidgetmodel",
    "responsiveData": {
        "b1": {
            "desktopweb": {},
            "left": {
                "type": "string",
                "value": ""
            },
            "maxWidth": {
                "type": "string",
                "value": ""
            },
            "right": {
                "type": "string",
                "value": "20dp"
            },
            "skin": "sca205ab44a1441f8a0c21b925204133"
        },
        "b2": {
            "skin": "sca205ab44a1441f8a0c21b925204133"
        },
        "b3": {
            "bottom": {
                "type": "string",
                "value": "0dp"
            },
            "right": {
                "type": "string",
                "value": ""
            },
            "skin": "sca205ab44a1441f8a0c21b925204133",
            "top": {
                "type": "string",
                "value": "60dp"
            },
            "width": {
                "type": "string",
                "value": "100%"
            }
        },
        "b4": {
            "left": {
                "type": "string",
                "value": ""
            },
            "skin": "sca205ab44a1441f8a0c21b925204133"
        }
    },
    "retaincontentalignment": false,
    "retainflexpositionproperties": false,
    "wType": "Button",
    "zindex": 1
}