{
    "DNDConfig": null,
    "_height_": {
        "type": "string",
        "value": "95dp"
    },
    "_left_": {
        "type": "string",
        "value": "0"
    },
    "_margin_": [
        0,
        0,
        0,
        0
    ],
    "_orientation_": 6,
    "_padding_": [
        0,
        0,
        0,
        0
    ],
    "_percent_": true,
    "_skin_": "s29091f627634da7a6b5a7071bd54291",
    "_top_": {
        "type": "string",
        "value": "1dp"
    },
    "_width_": {
        "type": "string",
        "value": "70%"
    },
    "allboxes": [],
    "allowhorizontalbounce": false,
    "allowverticalbounce": true,
    "bounces": true,
    "canUpdateUI": true,
    "children": [
        "segCountryCodeList"
    ],
    "clipbounds": true,
    "containerweight": 100,
    "decelerat": false,
    "dragg": false,
    "enablescrolling": true,
    "horizontalscrollindicator": true,
    "id": "flxCountryCodes",
    "info": null,
    "iscustomlayout": false,
    "isvisible": false,
    "kiosk": {
        "psp": {
            "verticalScrollIndicator": false
        }
    },
    "kuid": "i7ec4ce34f6e4e12a3dac7b3a990bc6d",
    "layouttype": 4,
    "maxheight": {
        "type": "number",
        "value": ""
    },
    "name": "kony.ui.FlexScrollContainer",
    "pagingenabled": false,
    "parent": "flxMobileNumber",
    "pf": "userwidgetmodel",
    "responsiveData": {
        "b1": {
            "isVisible": false,
            "maxHeight": {
                "type": "string",
                "value": "95dp"
            }
        },
        "b2": {
            "isVisible": false,
            "maxHeight": {
                "type": "string",
                "value": "95dp"
            },
            "width": {
                "type": "string",
                "value": "55%"
            }
        },
        "b3": {
            "isVisible": false,
            "maxHeight": {
                "type": "string",
                "value": "95dp"
            },
            "width": {
                "type": "string",
                "value": "100%"
            }
        },
        "b4": {
            "isVisible": false,
            "maxHeight": {
                "type": "string",
                "value": "95dp"
            }
        }
    },
    "retaincontentalignment": false,
    "retainflexpositionproperties": false,
    "retainflowhorizontalalignment": false,
    "scrolldirection": 2,
    "snapgridsize": 10,
    "snaptogrid": true,
    "track": false,
    "verticalscrollindicator": true,
    "wType": "FlexScrollContainer",
    "widgetalignment": 1,
    "zindex": 1
}