{
    "DNDConfig": null,
    "_height_": {
        "type": "string",
        "value": "17dp"
    },
    "_left_": {
        "type": "string",
        "value": "0dp"
    },
    "_margin_": [
        0,
        0,
        0,
        0
    ],
    "_orientation_": 6,
    "_padding_": [
        0,
        0,
        0,
        0
    ],
    "_percent_": true,
    "_skin_": "s24c92fc23b14f5484b693ee9b8a9b35",
    "_top_": {
        "type": "string",
        "value": "0dp"
    },
    "_width_": {
        "type": "string",
        "value": "100%"
    },
    "allboxes": [],
    "canUpdateUI": true,
    "children": [
        "lblPayeeDetailField2"
    ],
    "clipbounds": true,
    "containerweight": 100,
    "enablescrolling": true,
    "id": "flxPayeeDetailField2Label",
    "info": null,
    "iscustomlayout": false,
    "isvisible": true,
    "kuid": "d9e4ab2c19bd4a88b8f90a3322588094",
    "layouttype": 3,
    "name": "kony.ui.FlexContainer",
    "parent": "flxField2",
    "pf": "userwidgetmodel",
    "responsiveData": {
        "b2": {
            "height": {
                "type": "string",
                "value": "17dp"
            }
        },
        "b3": {
            "top": {
                "type": "string",
                "value": "7dp"
            }
        }
    },
    "retaincontentalignment": false,
    "retainflexpositionproperties": false,
    "retainflowhorizontalalignment": false,
    "snapgridsize": 10,
    "snaptogrid": true,
    "wType": "FlexContainer",
    "widgetalignment": 1
}