{
    "@class": "com.kony.gen.viz.model.component.KVizImage2",
    "DNDConfig": null,
    "_base64_": null,
    "_height_": {
        "type": "string",
        "value": "21dp"
    },
    "_left_": {
        "type": "string",
        "value": "20dp"
    },
    "_margin_": [
        0,
        0,
        0,
        0
    ],
    "_padding_": [
        0,
        0,
        0,
        0
    ],
    "_skin_": "se4444cc8d604aea82bf3dafcc22e360",
    "_src_": "kony_150.png",
    "_top_": {
        "type": "string",
        "value": "0dp"
    },
    "_width_": {
        "type": "string",
        "value": "21dp"
    },
    "canUpdateUI": true,
    "containerweight": 100,
    "id": "imgPayeeDetailFieldInfo",
    "imagescalemode": 1,
    "info": null,
    "iscustomlayout": false,
    "isvisible": true,
    "kuid": "gf93244e06a14921ab2fab017b654edf",
    "name": "kony.ui.Image2",
    "parent": "flxPayeeDetailFieldInfo",
    "pf": "userwidgetmodel",
    "responsiveData": {
        "b1": {
            "src": "bluealert.png"
        },
        "b2": {
            "src": "bluealert.png"
        },
        "b3": {
            "left": {
                "type": "string",
                "value": "10dp"
            },
            "src": "bluealert.png"
        },
        "b4": {
            "src": "bluealert.png"
        }
    },
    "retaincontentalignment": false,
    "retainflexpositionproperties": false,
    "srcType": 1,
    "wType": "Image",
    "widgetalignment": 5,
    "zindex": 1
}