{
    "@class": "com.kony.gen.viz.model.component.KVizLabel",
    "DNDConfig": null,
    "_height_": {
        "type": "string",
        "value": "19dp"
    },
    "_margin_": [
        1,
        1,
        1,
        1
    ],
    "_padding_": [
        0,
        0,
        0,
        0
    ],
    "_right_": {
        "type": "string",
        "value": "0dp"
    },
    "_skin_": "s0562cccdec14f9e9b5b19bef0fa6ce8",
    "_text_": "",
    "_top_": {
        "type": "string",
        "value": "0dp"
    },
    "_width_": {
        "type": "ref",
        "value": "preferred"
    },
    "_wrapping_": 2,
    "android": {
        "textStyle": {
            "letterSpacing": 0,
            "strikeThrough": false
        }
    },
    "canUpdateUI": true,
    "containerweight": 100,
    "contentalignment": 6,
    "id": "lblLookup",
    "info": null,
    "ipad": {
        "psp": {
            "wrapping": 2
        }
    },
    "iphone": {
        "psp": {
            "wrapping": 2
        }
    },
    "iscustomlayout": false,
    "isvisible": false,
    "kuid": "i587b80f5528475a926ea090b2fe5243",
    "name": "kony.ui.Label",
    "parent": "flxPayeeDetailField1",
    "pf": "userwidgetmodel",
    "responsiveData": {
        "b1": {
            "isVisible": true,
            "skin": "s1a6dddc66c84e8291af22b1c41e8c7b",
            "text": "Look Up"
        },
        "b2": {
            "isVisible": true,
            "skin": "s1a6dddc66c84e8291af22b1c41e8c7b",
            "text": "Look Up"
        },
        "b3": {
            "isVisible": true,
            "skin": "sec5394dc9234c7b885c7d3ad3443628",
            "text": "Look Up",
            "top": {
                "type": "string",
                "value": "7dp"
            }
        },
        "b4": {
            "isVisible": true,
            "skin": "s1a6dddc66c84e8291af22b1c41e8c7b",
            "text": "Look Up"
        }
    },
    "retaincontentalignment": false,
    "retainflexpositionproperties": false,
    "tooltip": "",
    "wType": "Label",
    "zindex": 1
}