{
    "@class": "com.kony.gen.viz.model.component.KVizLabel",
    "DNDConfig": null,
    "_height_": {
        "type": "string",
        "value": "17dp"
    },
    "_left_": {
        "type": "string",
        "value": "0dp"
    },
    "_margin_": [
        1,
        1,
        1,
        1
    ],
    "_padding_": [
        0,
        0,
        0,
        0
    ],
    "_skin_": "sc6c33de9c2c4f168e90ffc2db978006",
    "_text_": "From:",
    "_top_": {
        "type": "string",
        "value": "0dp"
    },
    "_width_": {
        "type": "ref",
        "value": "preferred"
    },
    "_wrapping_": 2,
    "android": {
        "textStyle": {
            "letterSpacing": 0,
            "strikeThrough": false
        }
    },
    "canUpdateUI": true,
    "containerweight": 100,
    "contentalignment": 4,
    "id": "lblPayeeName",
    "info": null,
    "ipad": {
        "psp": {
            "wrapping": 2
        }
    },
    "iphone": {
        "psp": {
            "wrapping": 2
        }
    },
    "iscustomlayout": false,
    "isvisible": true,
    "kuid": "bbb1a6e460514c59a262dd8891afeb99",
    "name": "kony.ui.Label",
    "parent": "flxPayeeNameLabel",
    "pf": "userwidgetmodel",
    "responsiveData": {
        "b1": {
            "text": "Payee Name:"
        },
        "b2": {
            "height": {
                "type": "string",
                "value": "17dp"
            },
            "text": "Payee Name:"
        },
        "b3": {
            "skin": "s77e67aa16c74466beaf27ae9efe941a",
            "text": "Payee Name:"
        },
        "b4": {
            "text": "Payee Name:"
        }
    },
    "retaincontentalignment": false,
    "retainflexpositionproperties": false,
    "tooltip": "",
    "wType": "Label",
    "zindex": 1
}