{
    "@class": "com.kony.gen.viz.model.component.KVizRichText",
    "DNDConfig": null,
    "_height_": {
        "type": "ref",
        "value": "preferred"
    },
    "_left_": {
        "type": "string",
        "value": "0"
    },
    "_margin_": [
        0,
        0,
        0,
        0
    ],
    "_padding_": [
        0,
        0,
        0,
        0
    ],
    "_skin_": "s0bcd5cb76c3495ead7901438416b728",
    "_text_": "RichText",
    "_top_": {
        "type": "string",
        "value": "0"
    },
    "_width_": {
        "type": "string",
        "value": "90%"
    },
    "_wrapping_": 2,
    "canUpdateUI": true,
    "containerweight": 100,
    "contentalignment": 4,
    "id": "txtErrormessage",
    "info": null,
    "iscustomlayout": false,
    "isvisible": true,
    "kuid": "f14347ce645b4859b319a538008f9c84",
    "linkskin": "s7845ffcea6a4235ab4f6768082836d2",
    "name": "kony.ui.RichText",
    "parent": "flxErrorWarning",
    "pf": "userwidgetmodel",
    "responsiveData": {
        "b1": {
            "isVisible": true
        },
        "b4": {}
    },
    "retaincontentalignment": false,
    "retainflexpositionproperties": false,
    "wType": "RichText",
    "widgetalignment": 5
}