{
    "@class": "com.kony.gen.viz.model.component.KVizRichText",
    "DNDConfig": null,
    "__parentReadjusting__": false,
    "_height_": {
        "type": "ref",
        "value": "preferred"
    },
    "_left_": {
        "type": "string",
        "value": "183dp"
    },
    "_margin_": [
        0,
        0,
        0,
        0
    ],
    "_padding_": [
        0,
        0,
        0,
        0
    ],
    "_skin_": "se9d9de8241143488721e7433f9db244",
    "_text_": "Save As You Go Transfers. We’ll transfer $1 of your  funds from your linked checking account to your  Savings account",
    "_top_": {
        "type": "string",
        "value": "64dp"
    },
    "_width_": {
        "type": "string",
        "value": "40%"
    },
    "_wrapping_": 2,
    "canUpdateUI": true,
    "containerId": true,
    "containerweight": 100,
    "contentalignment": 4,
    "id": "lblSelectedAccountDescription",
    "info": null,
    "iscustomlayout": false,
    "isvisible": true,
    "kuid": "a58ced3d0fea4e618d2e3a6f0939eda5",
    "linkskin": "s68be632cc934210829c785f1cfb09f0",
    "name": "kony.ui.RichText",
    "parent": "flxNAOProductsSelected",
    "pf": "segNAOProductsSelected",
    "retaincontentalignment": false,
    "retainflexpositionproperties": false,
    "wType": "RichText",
    "watchos": {
        "render": false
    },
    "widgetalignment": 5,
    "windows10": {
        "render": false
    },
    "winphone10": {
        "render": false
    },
    "zindex": 1
}