{
    "@class": "com.kony.gen.viz.model.component.KVizButton",
    "DNDConfig": null,
    "_height_": {
        "type": "string",
        "value": "100%"
    },
    "_left_": {
        "type": "string",
        "value": "20dp"
    },
    "_margin_": [
        6,
        6,
        6,
        6
    ],
    "_padding_": [
        0,
        0,
        0,
        0
    ],
    "_skin_": "s58cd6842aac4a1fb7591962a3853f49",
    "_text_": "Tab 1",
    "_width_": {
        "type": "ref",
        "value": "preferred"
    },
    "canUpdateUI": true,
    "containerweight": 100,
    "contentalignment": 5,
    "displaytext": true,
    "focusskin": null,
    "id": "btnTab1",
    "info": null,
    "iscustomlayout": false,
    "isvisible": true,
    "kuid": "f4acb6423a024e929efa3aaa77031686",
    "name": "kony.ui.Button",
    "parent": "flxMain",
    "pf": "userwidgetmodel",
    "responsiveData": {
        "b1": {
            "skin": "sea18b3d499f493b9be49217c99d14f7"
        },
        "b2": {
            "skin": "sea18b3d499f493b9be49217c99d14f7"
        },
        "b3": {
            "left": {
                "type": "string",
                "value": "3.13%"
            },
            "skin": "s58cd6842aac4a1fb7591962a3853f49"
        },
        "b4": {
            "skin": "sea18b3d499f493b9be49217c99d14f7"
        }
    },
    "retaincontentalignment": false,
    "retainflexpositionproperties": false,
    "wType": "Button",
    "zindex": 1
}