{
    "DNDConfig": null,
    "__parentReadjusting__": false,
    "_height_": {
        "type": "string",
        "value": "1dp"
    },
    "_left_": {
        "type": "string",
        "value": "0dp"
    },
    "_margin_": [
        0,
        0,
        0,
        0
    ],
    "_orientation_": 6,
    "_padding_": [
        0,
        0,
        0,
        0
    ],
    "_percent_": true,
    "_skin_": "sdf3c085374e4e56811acde75947a38a",
    "_top_": {
        "type": "string",
        "value": "38dp"
    },
    "_width_": {
        "type": "string",
        "value": "100%"
    },
    "allboxes": [],
    "autogrowmode": 0,
    "canUpdateUI": true,
    "children": [
        "imgFlxTopSeparator2"
    ],
    "clipbounds": true,
    "containerId": true,
    "containerweight": 100,
    "enablescrolling": true,
    "id": "flxTopSeperator2",
    "info": null,
    "iscustomlayout": false,
    "isvisible": true,
    "kuid": "a2022e7951044dd8b197d23a870d5ec4",
    "layouttype": 2,
    "name": "kony.ui.FlexContainer",
    "parent": "flxApprovalDetailsACKHeader",
    "pf": "segApprovalDetailsACKHeader",
    "retaincontentalignment": false,
    "retainflexpositionproperties": false,
    "snapgridsize": 10,
    "snaptogrid": true,
    "wType": "FlexContainer",
    "widgetalignment": 1,
    "zindex": 1
}