{
    "@class": "com.kony.gen.viz.model.component.KVizLabel",
    "DNDConfig": null,
    "__parentReadjusting__": false,
    "_height_": {
        "type": "string",
        "value": "80%"
    },
    "_left_": {
        "type": "string",
        "value": "20dp"
    },
    "_margin_": [
        1,
        1,
        1,
        1
    ],
    "_padding_": [
        5,
        0,
        5,
        0
    ],
    "_right_": {
        "type": "string",
        "value": "25dp"
    },
    "_skin_": "se56454286124fef97a46e7249497088",
    "_text_": "My Savings Accounts",
    "_wrapping_": 2,
    "accessibilityconfig": {
        "a11yLabel": "Label"
    },
    "android": {
        "textStyle": {
            "letterSpacing": 0,
            "strikeThrough": false
        }
    },
    "canUpdateUI": true,
    "centery": {
        "type": "string",
        "value": "50%"
    },
    "containerId": true,
    "containerweight": 100,
    "contentalignment": 4,
    "desktopweb": {
        "padding": [
            5,
            0,
            5,
            0
        ],
        "paddingInPixel": true,
        "psp": {}
    },
    "disabledSkins": {
        "hoverSkin": "s7770ba71df14e6caab96a1643d017c8"
    },
    "id": "headerAccountName",
    "info": null,
    "ipad": {
        "psp": {
            "wrapping": 2
        }
    },
    "iphone": {
        "psp": {
            "wrapping": 2
        }
    },
    "isvisible": true,
    "kuid": "e38ff1214ec946fcb5996b7c5af92f60",
    "name": "kony.ui.Label",
    "paddinginpixel": false,
    "parent": "flxAccountTypes2",
    "pf": "SegmentAccountTypes2",
    "tooltip": "Label",
    "wType": "Label",
    "zindex": 1
}