{
    "@class": "com.kony.gen.viz.model.component.KVizUserWidget",
    "DNDConfig": null,
    "__parentReadjusting__": false,
    "_android_": {},
    "_androidwearos_": {},
    "_children_": [],
    "_desktopweb_": {},
    "_height_": {
        "type": "ref",
        "value": "preferred"
    },
    "_ipad_": {},
    "_iphone_": {},
    "_kiosk_": {},
    "_left_": "0dp",
    "_margin_": [
        0,
        0,
        0,
        0
    ],
    "_orientation_": 1,
    "_padding_": [
        0,
        0,
        0,
        0
    ],
    "_percent_": true,
    "_render_": true,
    "_responsiveData_": {},
    "_skin_": "s24c92fc23b14f5484b693ee9b8a9b35",
    "_spa_": {},
    "_spaan_": {},
    "_spaandroidtablet_": {},
    "_spabb_": {},
    "_spaip_": {},
    "_spaipad_": {},
    "_spamobile_": {},
    "_spatablet_": {},
    "_spawindowstablet_": {},
    "_spawinphone8_": {},
    "_tabrcandroid_": {},
    "_top_": "0dp",
    "_vizProps_": {
        "hidewidgethierarchy": false
    },
    "_width_": {
        "type": "string",
        "value": "100%"
    },
    "_windows10_": {},
    "_windows8_": {},
    "_winphone10_": {},
    "_winphone8_": {},
    "areflexpropsreferenced": false,
    "autogrowmode": 1,
    "canUpdateUI": true,
    "clipbounds": true,
    "containerweight": 0,
    "dataDiffs": {
        "AllForms": {
            "__events__": {},
            "__info__": {
                "kuid": "f3511082c1f444338428cd5227db00fb",
                "srcKUID": "ea7972486a8249f88d31ae90de224d6a",
                "wType": "UserWidgetInstance"
            },
            "isVisible": false,
            "top": {
                "Default": {
                    "type": "string",
                    "value": "257dp"
                }
            }
        },
        "AllForms.RichTextInfo": {
            "__events__": {},
            "__info__": {
                "kuid": "cff9710431bb486cb41dbc6646a17227",
                "srcKUID": "c61e1adf71ba42e688abfbfd665ca185",
                "wType": "RichText"
            }
        },
        "AllForms.flxAccountType": {
            "__events__": {},
            "__info__": {
                "kuid": "dccaac0afa6d4c0f81f8785bcffe0572",
                "srcKUID": "dd4b06b87bed4ab18b237bb7927e9992",
                "wType": "FlexContainer"
            }
        },
        "AllForms.flxCross": {
            "__events__": {},
            "__info__": {
                "kuid": "b464f95eea154f4499e419863d3fbdd7",
                "srcKUID": "h2564262e61f45539c8c07897e3d593a",
                "wType": "FlexContainer"
            }
        },
        "AllForms.flxInformation": {
            "__events__": {},
            "__info__": {
                "kuid": "c84530795413437e8c758ec391b3fe42",
                "srcKUID": "f96e410a5647492fbfbd68d38a3a6952",
                "wType": "FlexContainer"
            }
        },
        "AllForms.flxInformationText": {
            "__events__": {},
            "__info__": {
                "kuid": "bd00c9b058cb439198077ce7596e318d",
                "srcKUID": "cecfdf7b48f54cedab572dbebb2f1b3b",
                "wType": "FlexContainer"
            }
        },
        "AllForms.imgCross": {
            "__events__": {},
            "__info__": {
                "kuid": "i9303ead60574c16a3f20ae985ff72f1",
                "srcKUID": "fd01dd1d31e740f6837cb4926c1bfcee",
                "wType": "Image"
            }
        },
        "AllForms.imgToolTip": {
            "__events__": {},
            "__info__": {
                "kuid": "h98f370b4d3d47a09b74cac24a3774f0",
                "srcKUID": "f1ef4627d17642b2bca19293e42d78db",
                "wType": "Image"
            }
        },
        "AllForms.lblInfo": {
            "__events__": {},
            "__info__": {
                "kuid": "g62af79cde9041eeafdb75b5e16fedf4",
                "srcKUID": "i7109db0e5c64595b0f3e230f26dc938",
                "wType": "Label"
            },
            "i18n_text": "i18n.WireTransfers.Information"
        },
        "AllForms.lblSeperator": {
            "__events__": {},
            "__info__": {
                "kuid": "j1e4ee53772f43f38f93675cbbaf0d91",
                "srcKUID": "aa09b48d775a4dc48615748aa67051f6",
                "wType": "Label"
            }
        },
        "FlexContainer0a28493df8ddf41": {
            "__events__": {},
            "__info__": {
                "kuid": "f4a6345911ee4971924292c7bc65b5e4",
                "srcKUID": "ab350260cf3c4b828fe7d99c3ffe66f0",
                "wType": "FlexContainer"
            }
        },
        "FlexContainer0i0bf2f2d21f44a": {
            "__events__": {},
            "__info__": {
                "kuid": "e738003a03e044169df98ab455f4b99d",
                "srcKUID": "fd11c81a6f874934a8fef9e309dd4032",
                "wType": "FlexContainer"
            }
        },
        "Label0h31e764285344d": {
            "__events__": {},
            "__info__": {
                "kuid": "g26ed7a68f174210997c95c311e7ce37",
                "srcKUID": "a5fcff331b6b4443ac1e8942ea102325",
                "wType": "Label"
            },
            "left": {
                "Default": {
                    "type": "string",
                    "value": "3.70%"
                }
            },
            "top": {
                "Default": {
                    "type": "string",
                    "value": ""
                }
            }
        },
        "btnAddAccountKA": {
            "__events__": {
                "ide_onClick": "AS_Button_he6cf577812b4291a5f7c29119deb4f8"
            },
            "__info__": {
                "kuid": "f75f3a3dd76e42ff9268239fd85ccb1d",
                "srcKUID": "41f00618c4f44515a4b5002701e4d118",
                "wType": "Button"
            },
            "i18n_text": null,
            "left": {
                "Default": {
                    "type": "string",
                    "value": "63%"
                }
            },
            "responsiveData": {
                "b1": {
                    "left": {
                        "type": "string",
                        "value": ""
                    },
                    "right": {
                        "type": "string",
                        "value": "26dp"
                    },
                    "width": {
                        "type": "string",
                        "value": "150dp"
                    }
                },
                "b2": {
                    "left": {
                        "type": "string",
                        "value": ""
                    },
                    "right": {
                        "type": "string",
                        "value": "26dp"
                    },
                    "width": {
                        "type": "string",
                        "value": "150dp"
                    }
                },
                "b3": {
                    "left": {
                        "type": "string",
                        "value": "0dp"
                    },
                    "width": {
                        "type": "string",
                        "value": "100%"
                    }
                },
                "b4": {
                    "left": {
                        "type": "string",
                        "value": ""
                    },
                    "right": {
                        "type": "string",
                        "value": "26dp"
                    },
                    "width": {
                        "type": "string",
                        "value": "150dp"
                    }
                }
            },
            "right": {},
            "text": "Add Account",
            "width": {}
        },
        "btnCancelKA": {
            "__events__": {
                "ide_onClick": "AS_Button_ab4bde1d6283404f93f34a6576b18779"
            },
            "__info__": {
                "kuid": "aaf77f8d535a43c38af820a10232779a",
                "srcKUID": "33afc018fc90408daf719008a00f32f5",
                "wType": "Button"
            },
            "i18n_text": "i18n.transfers.Cancel",
            "left": {
                "Default": {
                    "type": "string",
                    "value": "27%"
                }
            },
            "responsiveData": {
                "b1": {
                    "left": {
                        "type": "string",
                        "value": ""
                    },
                    "right": {
                        "type": "string",
                        "value": "196dp"
                    },
                    "width": {
                        "type": "string",
                        "value": "150dp"
                    }
                },
                "b2": {
                    "left": {
                        "type": "string",
                        "value": ""
                    },
                    "right": {
                        "type": "string",
                        "value": "196dp"
                    },
                    "width": {
                        "type": "string",
                        "value": "150dp"
                    }
                },
                "b3": {
                    "left": {
                        "type": "string",
                        "value": "0%"
                    },
                    "top": {
                        "type": "string",
                        "value": "60dp"
                    },
                    "width": {
                        "type": "string",
                        "value": "100%"
                    }
                },
                "b4": {
                    "left": {
                        "type": "string",
                        "value": ""
                    },
                    "right": {
                        "type": "string",
                        "value": "196dp"
                    },
                    "width": {
                        "type": "string",
                        "value": "150dp"
                    }
                }
            },
            "right": {},
            "top": {},
            "width": {}
        },
        "btnIntAddAccountKA": {
            "__events__": {},
            "__info__": {
                "kuid": "d63ae01b022e41a8aaded8c2c6dae456",
                "srcKUID": "09e04f4d73c3429eb35b279b9d8541e3",
                "wType": "Button"
            },
            "i18n_text": null,
            "left": {},
            "responsiveData": {
                "b3": {
                    "left": {
                        "type": "string",
                        "value": "0%"
                    },
                    "width": {
                        "type": "string",
                        "value": "100%"
                    }
                }
            },
            "width": {}
        },
        "btnIntCancelKA": {
            "__events__": {
                "ide_onClick": "AS_Button_fec0a2a2fa8540f79b4414f8ced07e14"
            },
            "__info__": {
                "kuid": "b5e1313cb5e14527a20c7da6b06c1370",
                "srcKUID": "039e2174e63f4622b949a2755d5e12b0",
                "wType": "Button"
            },
            "i18n_text": "i18n.transfers.Cancel",
            "left": {},
            "responsiveData": {
                "b3": {
                    "left": {
                        "type": "string",
                        "value": "0%"
                    },
                    "top": {
                        "type": "string",
                        "value": "60dp"
                    },
                    "width": {
                        "type": "string",
                        "value": "100%"
                    }
                }
            },
            "top": {},
            "width": {}
        },
        "cbgOwnerOfAccountInt": {
            "__events__": {},
            "__info__": {
                "kuid": "b8aaf4846d944784a47e37ff4270da17",
                "srcKUID": "eec4e9165d7a4c10b4668df44ef4fc60",
                "wType": "CheckBoxGroup"
            }
        },
        "flxAccountNickNameKA": {
            "__events__": {},
            "__info__": {
                "kuid": "b446a81002774453a4722630e8b0ae48",
                "srcKUID": "87032e179ae04a608b494ab621bcf52a",
                "wType": "FlexContainer"
            },
            "autogrowMode": {
                "Default": 0
            },
            "height": {
                "Default": {
                    "type": "string",
                    "value": "85px"
                }
            },
            "left": {
                "Default": {
                    "type": "string",
                    "value": "30dp"
                }
            },
            "responsiveData": {
                "b3": {
                    "left": {
                        "type": "string",
                        "value": "0dp"
                    },
                    "width": {
                        "type": "string",
                        "value": "100%"
                    }
                }
            },
            "width": {
                "Default": {
                    "type": "string",
                    "value": "95%"
                }
            }
        },
        "flxAccountNumberAgainKA": {
            "__events__": {},
            "__info__": {
                "kuid": "e9035138bbd147e4b76d104fd9094cdc",
                "srcKUID": "b81d155046054c67b1502ec251ed8ab7",
                "wType": "FlexContainer"
            },
            "autogrowMode": {
                "Default": 0
            },
            "height": {
                "Default": {
                    "type": "string",
                    "value": "85px"
                }
            },
            "left": {
                "Default": {
                    "type": "string",
                    "value": "30dp"
                }
            },
            "responsiveData": {
                "b3": {
                    "left": {
                        "type": "string",
                        "value": "0dp"
                    },
                    "width": {
                        "type": "string",
                        "value": "100%"
                    }
                }
            },
            "width": {
                "Default": {
                    "type": "string",
                    "value": "95%"
                }
            }
        },
        "flxAccountNumberKA": {
            "__events__": {},
            "__info__": {
                "kuid": "e357419c83a84a12a345b7cc4d5a0e51",
                "srcKUID": "f3e424f91b7646f6b87b9c7ddf2546dd",
                "wType": "FlexContainer"
            },
            "autogrowMode": {
                "Default": 0
            },
            "height": {
                "Default": {
                    "type": "string",
                    "value": "85px"
                }
            },
            "left": {
                "Default": {
                    "type": "string",
                    "value": "30dp"
                }
            },
            "responsiveData": {
                "b3": {
                    "left": {
                        "type": "string",
                        "value": "0dp"
                    },
                    "width": {
                        "type": "string",
                        "value": "100%"
                    }
                }
            },
            "width": {
                "Default": {
                    "type": "string",
                    "value": "95%"
                }
            }
        },
        "flxAccountTypeKA": {
            "__events__": {},
            "__info__": {
                "kuid": "e3b27890e1d842929f981215c51e5fa3",
                "srcKUID": "542720aea64c4475a890cd36ef50d19e",
                "wType": "FlexContainer"
            },
            "autogrowMode": {
                "Default": 0
            },
            "centerX": {
                "Default": {
                    "type": "string",
                    "value": ""
                }
            },
            "height": {
                "Default": {
                    "type": "string",
                    "value": "85px"
                }
            },
            "left": {
                "Default": {
                    "type": "string",
                    "value": "30dp"
                }
            },
            "responsiveData": {
                "b3": {
                    "left": {
                        "type": "string",
                        "value": "0dp"
                    },
                    "width": {
                        "type": "string",
                        "value": "100%"
                    }
                }
            },
            "width": {
                "Default": {
                    "type": "string",
                    "value": "95%"
                }
            }
        },
        "flxAddOrCancelKA": {
            "__events__": {},
            "__info__": {
                "kuid": "a797809afa6849e1820047504958e465",
                "srcKUID": "5a723ae1b1db43c797bcb0f9e886fde7",
                "wType": "FlexContainer"
            },
            "autogrowMode": {
                "Default": 0
            },
            "bottom": {
                "Default": {
                    "type": "string",
                    "value": "30dp"
                }
            },
            "height": {},
            "left": {},
            "responsiveData": {
                "b3": {
                    "bottom": {
                        "type": "string",
                        "value": ""
                    },
                    "height": {
                        "type": "string",
                        "value": "120px"
                    },
                    "left": {
                        "type": "string",
                        "value": "2.50%"
                    },
                    "top": {
                        "type": "string",
                        "value": "20px"
                    },
                    "width": {
                        "type": "string",
                        "value": "95%"
                    }
                }
            },
            "top": {
                "Default": {
                    "type": "string",
                    "value": "30px"
                }
            },
            "width": {}
        },
        "flxBankNameKA": {
            "__events__": {},
            "__info__": {
                "kuid": "dcfa76e74eea41ee8f2ca89eb3ffb92c",
                "srcKUID": "a434c82301f94a34b8fe1e285eb74de1",
                "wType": "FlexContainer"
            },
            "autogrowMode": {
                "Default": 0
            },
            "height": {
                "Default": {
                    "type": "string",
                    "value": "85px"
                }
            },
            "left": {
                "Default": {
                    "type": "string",
                    "value": "30dp"
                }
            },
            "responsiveData": {
                "b3": {
                    "left": {
                        "type": "string",
                        "value": "0dp"
                    },
                    "width": {
                        "type": "string",
                        "value": "100%"
                    }
                }
            },
            "top": {
                "Default": {
                    "type": "string",
                    "value": "30px"
                }
            },
            "width": {
                "Default": {
                    "type": "string",
                    "value": "95%"
                }
            }
        },
        "flxBankNameValue": {
            "__events__": {},
            "__info__": {
                "kuid": "a2b5b0b613e84f1eba196e1d5df1ee72",
                "srcKUID": "c9467cfbb83a4b2a8c257b7f9fd097ef",
                "wType": "FlexContainer"
            },
            "responsiveData": {
                "b3": {
                    "width": {
                        "type": "string",
                        "value": "100%"
                    }
                }
            },
            "top": {
                "Default": {
                    "type": "string",
                    "value": "10dp"
                }
            },
            "width": {
                "Default": {
                    "type": "string",
                    "value": "85%"
                }
            }
        },
        "flxBeneficiaryNameKA": {
            "__events__": {},
            "__info__": {
                "kuid": "c5846ae873ef47338ded369c05e22969",
                "srcKUID": "c2e676531a2b44a691dea44251769712",
                "wType": "FlexContainer"
            },
            "autogrowMode": {
                "Default": 0
            },
            "height": {
                "Default": {
                    "type": "string",
                    "value": "85px"
                }
            },
            "left": {
                "Default": {
                    "type": "string",
                    "value": "30dp"
                }
            },
            "responsiveData": {
                "b3": {
                    "left": {
                        "type": "string",
                        "value": "0dp"
                    },
                    "width": {
                        "type": "string",
                        "value": "100%"
                    }
                }
            },
            "width": {
                "Default": {
                    "type": "string",
                    "value": "95%"
                }
            }
        },
        "flxDesktopKA": {
            "__events__": {},
            "__info__": {
                "kuid": "f11f12adb3034f97a4c228a3e4464986",
                "srcKUID": "a7beee6181dd41abb3872ae462424acb",
                "wType": "FlexContainer"
            }
        },
        "flxDomesticDetailsKA": {
            "__events__": {},
            "__info__": {
                "kuid": "c1e006a42195401097d3334303f0559f",
                "srcKUID": "2d7755c4a91947baa6da8fb0df3bbb58",
                "wType": "FlexContainer"
            },
            "isVisible": true,
            "left": {
                "Default": {
                    "type": "string",
                    "value": "0dp"
                }
            },
            "top": {
                "Default": {
                    "type": "string",
                    "value": "0dp"
                }
            }
        },
        "flxDowntimeWarning": {
            "__events__": {},
            "__info__": {
                "kuid": "d244a750928542d2ae838b1a85304721",
                "srcKUID": "afd565ee7de842219627a7f39f615a0f",
                "wType": "FlexContainer"
            },
            "isVisible": false
        },
        "flxHorizantalLineKA": {
            "__events__": {},
            "__info__": {
                "kuid": "i890fd3e8ae34c59878e6651c9af0190",
                "srcKUID": "be2661507d844957aab7916128363e26",
                "wType": "FlexContainer"
            },
            "top": {
                "Default": {
                    "type": "string",
                    "value": "20px"
                }
            }
        },
        "flxInfoKA": {
            "__events__": {},
            "__info__": {
                "kuid": "i7e0bb767b2f4b9ab8b6848455ef0fbf",
                "srcKUID": "i50fc189f9784ffe8c1199f420c6f6bb",
                "wType": "FlexContainer"
            }
        },
        "flxIntAccountNickNameKA": {
            "__events__": {},
            "__info__": {
                "kuid": "ccde413b289c4d0f867739802b668ad7",
                "srcKUID": "7fde64b5782142bda3a2aa324b2fd301",
                "wType": "FlexContainer"
            }
        },
        "flxIntAccountNumberAgainKA": {
            "__events__": {},
            "__info__": {
                "kuid": "fbfbd7c7840e4bffa69789310314c365",
                "srcKUID": "3e12ad058952453eb143ee847d72c968",
                "wType": "FlexContainer"
            }
        },
        "flxIntAccountNumberKA": {
            "__events__": {},
            "__info__": {
                "kuid": "e5264e44783d4c788b553f293d8ecc0b",
                "srcKUID": "103c95d6541444aaae465615a98ecfed",
                "wType": "FlexContainer"
            }
        },
        "flxIntAccountTypeHeadingKA": {
            "__events__": {},
            "__info__": {
                "kuid": "ba762fed483e422cacfb4fc29305cdf5",
                "srcKUID": "01bb125f7ac34a46be8a316ff53e96f5",
                "wType": "FlexContainer"
            }
        },
        "flxIntAccountTypeKA": {
            "__events__": {},
            "__info__": {
                "kuid": "a6044d6a36d545d5bdf44aa2218503de",
                "srcKUID": "b6999556b63e4e818957738ffd1a6947",
                "wType": "FlexContainer"
            }
        },
        "flxIntAddOrCancelKA": {
            "__events__": {},
            "__info__": {
                "kuid": "id75e41a329c44329e883af09054f2d2",
                "srcKUID": "4bd95074634b4313b2f6d542827fb98c",
                "wType": "FlexContainer"
            },
            "autogrowMode": {
                "Default": 0
            },
            "bottom": {},
            "height": {},
            "left": {},
            "responsiveData": {
                "b3": {
                    "bottom": {
                        "type": "string",
                        "value": ""
                    },
                    "height": {
                        "type": "string",
                        "value": "120px"
                    },
                    "left": {
                        "type": "string",
                        "value": "2.50%"
                    },
                    "top": {
                        "type": "string",
                        "value": "20px"
                    },
                    "width": {
                        "type": "string",
                        "value": "95%"
                    }
                }
            },
            "top": {},
            "width": {}
        },
        "flxIntBankNameKA": {
            "__events__": {},
            "__info__": {
                "kuid": "f490fce3bf8d4247aef286c942fb8c9d",
                "srcKUID": "8b7762487a574848931717f598e85658",
                "wType": "FlexContainer"
            }
        },
        "flxIntBeneficiaryNameKA": {
            "__events__": {},
            "__info__": {
                "kuid": "i5beb86155504d48955dbbcc0af207ee",
                "srcKUID": "6c1e704899304d72b259a992a1f711a4",
                "wType": "FlexContainer"
            }
        },
        "flxIntCheckboxKA": {
            "__events__": {},
            "__info__": {
                "kuid": "ae9d18f1639048c68e03f33184c41d96",
                "srcKUID": "5e4f701daff047e3ad67fb7c5f20dc25",
                "wType": "FlexContainer"
            }
        },
        "flxIntHorizantalLineKA": {
            "__events__": {},
            "__info__": {
                "kuid": "ib35024c4fa04e9db6761169685d67a6",
                "srcKUID": "c32c6b6c7db849d5b71b600a4930b4fe",
                "wType": "FlexContainer"
            }
        },
        "flxIntSwiftCodeKA": {
            "__events__": {},
            "__info__": {
                "kuid": "i3b854677c3e4dbf951949ce591311db",
                "srcKUID": "57e95900b41e4641abfbc48b17c5cb7b",
                "wType": "FlexContainer"
            }
        },
        "flxInternationalCustomerDetailsKA": {
            "__events__": {},
            "__info__": {
                "kuid": "c669aaab8e7c4c25b5b1161eb324d202",
                "srcKUID": "4f8657eb4057467fbeb8c95bdf3e0f0b",
                "wType": "FlexContainer"
            }
        },
        "flxInternationalDetailsKA": {
            "__events__": {},
            "__info__": {
                "kuid": "b7b0c4a7a4f649bca0876cf0a5140941",
                "srcKUID": "6ec9a8e9cd7a4c7c9d7b9328a61602d8",
                "wType": "FlexContainer"
            },
            "isVisible": false,
            "width": {
                "Default": {
                    "type": "string",
                    "value": "100%"
                }
            }
        },
        "flxMainDesktopKA": {
            "__events__": {},
            "__info__": {
                "kuid": "bf78d15ab3a54e4ebe882cebcdc82ea9",
                "srcKUID": "26df674a85904c208d8ebbe5780c1531",
                "wType": "FlexContainer"
            }
        },
        "flxTabsKA": {
            "__events__": {},
            "__info__": {
                "kuid": "c88cd5c6184a47889bf6a21dc4e01c8f",
                "srcKUID": "ec558c2a98a54b0d9d2f1287900a0bdd",
                "wType": "FlexContainer"
            }
        },
        "flxcustomerDetailsKA": {
            "__events__": {},
            "__info__": {
                "kuid": "hb2703559e8342e192bca0ce36dce53c",
                "srcKUID": "37e78937269848d0b1e0c35b6ec43766",
                "wType": "FlexContainer"
            },
            "autogrowMode": {
                "Default": 0
            },
            "height": {
                "Default": {
                    "type": "string",
                    "value": "580px"
                }
            },
            "left": {
                "Default": {
                    "type": "string",
                    "value": "0dp"
                }
            },
            "responsiveData": {
                "b3": {
                    "left": {
                        "type": "string",
                        "value": "2.50%"
                    },
                    "width": {
                        "type": "string",
                        "value": "95%"
                    }
                }
            },
            "top": {
                "Default": {
                    "type": "string",
                    "value": "0dp"
                }
            },
            "width": {
                "Default": {
                    "type": "string",
                    "value": "70%"
                }
            }
        },
        "imgDowntimeWarning": {
            "__events__": {},
            "__info__": {
                "kuid": "b078ebaa6946474d840848f4eb51dbfc",
                "srcKUID": "f985603981254f5aa7a488c72f3c78e5",
                "wType": "Image"
            }
        },
        "imgInfoKA": {
            "__events__": {},
            "__info__": {
                "kuid": "d3852859c6364a32a8d5505429a1f0be",
                "srcKUID": "fac896ffa46547069f840fc7314dd499",
                "wType": "Image"
            }
        },
        "imgIntInfoKA": {
            "__events__": {},
            "__info__": {
                "kuid": "df211010bcae4cceacd907d4352c29e5",
                "srcKUID": "028dbbccd6a74633b90dd95e2a6fb34f",
                "wType": "Image"
            }
        },
        "internalAccount": {
            "__events__": {},
            "__info__": {
                "isRoot": true,
                "kuid": "ffe5c8e8cb23488fb281af769565c00c",
                "srcKUID": "68a1fb655a5c49adbbafa9b5ea4252c6",
                "wType": "FlexContainer"
            }
        },
        "lblAccountNickNameKA": {
            "__events__": {},
            "__info__": {
                "kuid": "ce3015d0f50d4598b29dc825d7f13e5d",
                "srcKUID": "52672066447e4225a6d993b8b67d6f2e",
                "wType": "Label"
            },
            "i18n_text": "i18n.transfers.accountNickName",
            "text": "Account Nickname"
        },
        "lblAccountNumberAgainKA": {
            "__events__": {},
            "__info__": {
                "kuid": "f893cf26eab34f21861b810f41a30390",
                "srcKUID": "bc7b8edd344e4425b8cc2c4863917440",
                "wType": "Label"
            },
            "i18n_text": "i18n.WireTransfers.ReEnterAccountNumber"
        },
        "lblAccountNumberKA": {
            "__events__": {},
            "__info__": {
                "kuid": "f73e1670dc074f168dcbe0ac8580d4e9",
                "srcKUID": "7877b022dab74c4e9ec7172e99812565",
                "wType": "Label"
            },
            "i18n_text": "i18n.common.accountNumber"
        },
        "lblAccountTypeKA": {
            "__events__": {},
            "__info__": {
                "kuid": "aea9aaa69f624049b19bb6c3898d9722",
                "srcKUID": "76179ef5168c489a911083f608eae6a9",
                "wType": "Label"
            },
            "i18n_text": "i18n.transfers.accountType"
        },
        "lblBankNameKA": {
            "__events__": {},
            "__info__": {
                "kuid": "ead1aeab9b974a2696ee636802486b7a",
                "srcKUID": "187c1c7bedc141608d4d258dd57289db",
                "wType": "Label"
            },
            "i18n_text": "i18n.transfers.bankName"
        },
        "lblBankNameValue": {
            "__events__": {},
            "__info__": {
                "kuid": "ea22e3fc7dbc455d8ea588f8d3ce312a",
                "srcKUID": "ce85f2357a9948e3b635cd835d543998",
                "wType": "Label"
            }
        },
        "lblBeneficiaryNameKA": {
            "__events__": {},
            "__info__": {
                "kuid": "if35c7ed56de43759d75ea4667a527c0",
                "srcKUID": "3d005cda42a546078ffdb1e5da34f73a",
                "wType": "Label"
            },
            "i18n_text": "i18n.transfers.RecipientsName"
        },
        "lblIntAccountNickNameKA": {
            "__events__": {},
            "__info__": {
                "kuid": "h6d8054efcb64a1d82aee87ea21f2049",
                "srcKUID": "569e35d7d6e24cee8a7b9e469cfe86d7",
                "wType": "Label"
            },
            "i18n_text": "i18n.transfers.accountNickName",
            "text": "Account Nickname"
        },
        "lblIntAccountNumberAgainKA": {
            "__events__": {},
            "__info__": {
                "kuid": "e90c8a33afdf4ec38bd4badcee59eb20",
                "srcKUID": "afa2c205439c4f0ca6878dda455f08e8",
                "wType": "Label"
            },
            "i18n_text": "i18n.WireTransfers.ReEnterAccountNumber"
        },
        "lblIntAccountNumberKA": {
            "__events__": {},
            "__info__": {
                "kuid": "a2424ef359694c2384a141daa5803895",
                "srcKUID": "fb897effb4b04303b4ca13c9b69be26a",
                "wType": "Label"
            },
            "i18n_text": "i18n.common.accountNumber"
        },
        "lblIntAccountTypeKA": {
            "__events__": {},
            "__info__": {
                "kuid": "e75240b5e4e84aec909d2c131cf10d9f",
                "srcKUID": "2051186e5d214cb997ca0147166ad331",
                "wType": "Label"
            },
            "i18n_text": "i18n.transfers.accountType"
        },
        "lblIntBankNameKA": {
            "__events__": {},
            "__info__": {
                "kuid": "c16eb0befb00438d91c01c9eed840492",
                "srcKUID": "75082f60e7584680892a37e90c8dda7b",
                "wType": "Label"
            },
            "i18n_text": "i18n.transfers.bankName"
        },
        "lblIntBeneficiaryNameKA": {
            "__events__": {},
            "__info__": {
                "kuid": "d5ae4e406bfc42aebe99bb4638bc22f9",
                "srcKUID": "a739ec9b908a4b958078f0c060acf679",
                "wType": "Label"
            },
            "i18n_text": "i18n.transfers.benificiaryName"
        },
        "lblIntSwiftCodeKA": {
            "__events__": {},
            "__info__": {
                "kuid": "d8025b5ee3f04e3887f07bfe22a13ea6",
                "srcKUID": "bbb15ffea921482bac963903c9294429",
                "wType": "Label"
            },
            "i18n_text": "i18n.accounts.swiftCode"
        },
        "lblWarning": {
            "__events__": {},
            "__info__": {
                "kuid": "b913853549174c39b4770691cd1e798f",
                "srcKUID": "3e397be42be0466088c81d81e75ee594",
                "wType": "Label"
            },
            "i18n_text": "i18n.AddExternalAccount.Enteredaccountnumberisnotmatching",
            "isVisible": false
        },
        "lblWarningInt": {
            "__events__": {},
            "__info__": {
                "kuid": "fc0ccdf9cee0475daf28687cf516ae32",
                "srcKUID": "d73b66d9971146a99460f3412c322af4",
                "wType": "Label"
            }
        },
        "lbxAccountTypeKA": {
            "__events__": {},
            "__info__": {
                "kuid": "d14e96eb59a04d028bbd058c3d98eaab",
                "srcKUID": "d884109ae1524885b3d0d2c6d823adc7",
                "wType": "ListBox"
            },
            "responsiveData": {
                "b3": {
                    "width": {
                        "type": "string",
                        "value": "100%"
                    }
                }
            },
            "top": {
                "Default": {
                    "type": "string",
                    "value": "10dp"
                }
            },
            "width": {
                "Default": {
                    "type": "string",
                    "value": "85%"
                }
            }
        },
        "lbxIntAccountTypeKA": {
            "__events__": {},
            "__info__": {
                "kuid": "fad6c98461434f5d889a7359f060ba28",
                "srcKUID": "a4d072a1b00c4f6ebe07296906e1d1f3",
                "wType": "ListBox"
            }
        },
        "rtxDowntimeWarning": {
            "__events__": {},
            "__info__": {
                "kuid": "c25cf8bd6bc4426dab390bb0309f4b8a",
                "srcKUID": "e59454228ead4133ba170c270320f458",
                "wType": "RichText"
            },
            "i18n_text": "i18n.Transfers.ThereisomeerrorintheserverWecouldnotcompleteyourrequestofaddingtheaccount",
            "text": "There is some error in the server.\nWe could not complete your request of adding the account."
        },
        "tbxAccountNickNameKA": {
            "__events__": {
                "desktopweb": {
                    "ide_onKeyUp": "AS_TextField_fced5a9ed6fe4c73bb7cc5ac88cc1b8f"
                }
            },
            "__info__": {
                "kuid": "jd3483e042c942d5b6c90e47d350ae13",
                "srcKUID": "e4f39e1550b5476591a1123bdea98506",
                "wType": "TextField"
            },
            "i18n_placeholder": "i18n.PayAPerson.EnterNickName",
            "left": {
                "Default": {
                    "type": "string",
                    "value": "0dp"
                }
            },
            "placeholder": "Enter Nickname",
            "responsiveData": {
                "b3": {
                    "width": {
                        "type": "string",
                        "value": "100%"
                    }
                }
            },
            "top": {
                "Default": {
                    "type": "string",
                    "value": "10px"
                }
            },
            "width": {
                "Default": {
                    "type": "string",
                    "value": "85%"
                }
            }
        },
        "tbxAccountNumberAgainKA": {
            "__events__": {
                "desktopweb": {
                    "ide_onKeyUp": "AS_TextField_g96e908cf8ed40ccb3f3ebc79df4c800"
                }
            },
            "__info__": {
                "kuid": "ae9a1d8027ba4a7bb85f0c0f385bb3a7",
                "srcKUID": "140c13a1c9724d9fa04bdc9efc53cc7c",
                "wType": "TextField"
            },
            "i18n_placeholder": "i18n.addPayee.RelationshipNumberPlaceholder",
            "responsiveData": {
                "b3": {
                    "width": {
                        "type": "string",
                        "value": "100%"
                    }
                }
            },
            "textInputMode": "A",
            "top": {
                "Default": {
                    "type": "string",
                    "value": "10px"
                }
            },
            "width": {
                "Default": {
                    "type": "string",
                    "value": "85%"
                }
            }
        },
        "tbxAccountNumberKA": {
            "__events__": {
                "desktopweb": {
                    "ide_onKeyUp": "AS_TextField_fdf2472550634709a5f626bd266b2f42"
                }
            },
            "__info__": {
                "kuid": "j80a14181f314f5ea459f514462db8e3",
                "srcKUID": "eac616a6b1ca45f099da9325d11d0d42",
                "wType": "TextField"
            },
            "i18n_placeholder": "i18n.addPayee.RelationshipNumberPlaceholder",
            "left": {},
            "responsiveData": {
                "b3": {
                    "left": {
                        "type": "string",
                        "value": "0dp"
                    },
                    "width": {
                        "type": "string",
                        "value": "100%"
                    }
                }
            },
            "textInputMode": "A",
            "top": {
                "Default": {
                    "type": "string",
                    "value": "10px"
                }
            },
            "width": {
                "Default": {
                    "type": "string",
                    "value": "85%"
                }
            }
        },
        "tbxBeneficiaryNameKA": {
            "__events__": {
                "desktopweb": {
                    "ide_onKeyUp": "AS_TextField_g0a9591ca3ec40c98998386e235ff800"
                }
            },
            "__info__": {
                "kuid": "ce362f6a84084e6fa094f50386e61bf6",
                "srcKUID": "8487f25c604b42b2b3aaa83dbb7d6f59",
                "wType": "TextField"
            },
            "i18n_placeholder": "i18n.AddExternalAccount.EnterBeneficiaryName",
            "responsiveData": {
                "b3": {
                    "width": {
                        "type": "string",
                        "value": "100%"
                    }
                }
            },
            "top": {
                "Default": {
                    "type": "string",
                    "value": "10px"
                }
            },
            "width": {
                "Default": {
                    "type": "string",
                    "value": "85%"
                }
            }
        },
        "tbxIntAccountNickNameKA": {
            "__events__": {},
            "__info__": {
                "kuid": "bf041a2e10164a1da8cd13a1df68641c",
                "srcKUID": "666b08d49a5e406bb48103f7317a4fac",
                "wType": "TextField"
            },
            "i18n_placeholder": "i18n.EnterAccountNickName",
            "placeholder": "Enter Account Nickname"
        },
        "tbxIntAccountNumberAgainKA": {
            "__events__": {},
            "__info__": {
                "kuid": "b8c15c97313841b58e61d5f5eccf2637",
                "srcKUID": "d6a754687477440a8552a0a5faefe9ec",
                "wType": "TextField"
            },
            "i18n_placeholder": "i18n.addPayee.RelationshipNumberPlaceholder"
        },
        "tbxIntAccountNumberKA": {
            "__events__": {},
            "__info__": {
                "kuid": "f88e24300de3441da391c0cc062453d0",
                "srcKUID": "cf01977e660447dbaa8785e6df529eee",
                "wType": "TextField"
            },
            "i18n_placeholder": "i18n.addPayee.RelationshipNumberPlaceholder"
        },
        "tbxIntBankNameKA": {
            "__events__": {},
            "__info__": {
                "kuid": "caa7822e003549028f0c935ff2a10b8e",
                "srcKUID": "162c72daadcd40df8f83b0341127a162",
                "wType": "TextField"
            }
        },
        "tbxIntBeneficiaryNameKA": {
            "__events__": {},
            "__info__": {
                "kuid": "af7b8cb8b5ab4e24a48cd114baaa6b77",
                "srcKUID": "d8d020fadfbc44248b3a7ebe0472f21f",
                "wType": "TextField"
            },
            "i18n_placeholder": "i18n.AddExternalAccount.EnterBeneficiaryName"
        },
        "tbxIntSwiftCodeKA": {
            "__events__": {},
            "__info__": {
                "kuid": "dab4c252938d4b08bbbadfc91b56b4c6",
                "srcKUID": "37f1172e2ba94bc09bb4c6d4461d4065",
                "wType": "TextField"
            },
            "i18n_placeholder": "i18n.AddExternalAccount.EnterRoutingNumber"
        }
    },
    "id": "internalAccount",
    "info": null,
    "isdatareferenced": false,
    "isvisible": true,
    "kuid": "ffe5c8e8cb23488fb281af769565c00c",
    "layouttype": 2,
    "masterType": 0,
    "name": "kony.ui.UserWidgetInstance",
    "parent": "flxExternalAccount",
    "pf": "frmAddInternalAccount",
    "snaptogrid": true,
    "sourceUserWidget": "68a1fb655a5c49adbbafa9b5ea4252c6",
    "vizprops": {
        "hidewidgethierarchy": false
    },
    "wType": "UserWidgetInstance"
}