{
    "DNDConfig": null,
    "__parentReadjusting__": false,
    "_height_": {
        "type": "string",
        "value": "120dp"
    },
    "_left_": {
        "type": "string",
        "value": "0dp"
    },
    "_margin_": [
        0,
        0,
        0,
        0
    ],
    "_orientation_": 6,
    "_padding_": [
        0,
        0,
        0,
        0
    ],
    "_percent_": true,
    "_skin_": "s68cde8c1c40436989962f3559a757ac",
    "_top_": {
        "type": "string",
        "value": "0dp"
    },
    "_width_": {
        "type": "string",
        "value": "100%"
    },
    "allboxes": [],
    "canUpdateUI": true,
    "children": [
        "btnProceedAddServices",
        "btnCancelAddServices"
    ],
    "clipbounds": true,
    "containerweight": 100,
    "enablescrolling": true,
    "id": "flxAdditionalServicesButtons",
    "info": null,
    "isvisible": true,
    "kuid": "d92c8d7153f54e94bc19aa4372427c50",
    "layouttype": 2,
    "name": "kony.ui.FlexContainer",
    "parent": "flxAcknowledgement",
    "pf": "frmUserManagement",
    "responsiveData": {
        "b1": {
            "height": {
                "type": "string",
                "value": "90dp"
            },
            "layoutType": 3,
            "left": {
                "type": "string",
                "value": ""
            },
            "top": {
                "type": "string",
                "value": ""
            }
        },
        "b2": {
            "height": {
                "type": "string",
                "value": "75dp"
            },
            "layoutType": 3
        },
        "b4": {
            "height": {
                "type": "string",
                "value": "90dp"
            },
            "layoutType": 3,
            "left": {
                "type": "string",
                "value": ""
            },
            "top": {
                "type": "string",
                "value": ""
            }
        }
    },
    "reverselayoutdirection": true,
    "snapgridsize": 10,
    "snaptogrid": true,
    "wType": "FlexContainer",
    "widgetalignment": 1,
    "zindex": 1
}