{
    "@class": "com.kony.gen.viz.model.component.KVizLabel",
    "DNDConfig": null,
    "__parentReadjusting__": false,
    "_height_": {
        "type": "ref",
        "value": "preferred"
    },
    "_left_": {
        "type": "string",
        "value": "20dp"
    },
    "_margin_": [
        1,
        1,
        1,
        1
    ],
    "_padding_": [
        0,
        0,
        0,
        0
    ],
    "_skin_": "s089a30edc014fedb2eb54b3b16a7723",
    "_text_": "",
    "_width_": {
        "type": "ref",
        "value": "preferred"
    },
    "_wrapping_": 2,
    "android": {
        "textStyle": {
            "letterSpacing": 0,
            "strikeThrough": false
        }
    },
    "canUpdateUI": true,
    "centery": {
        "type": "string",
        "value": "50%"
    },
    "containerweight": 100,
    "contentalignment": 4,
    "id": "lblAccountAccess",
    "info": null,
    "ipad": {
        "psp": {
            "wrapping": 2
        }
    },
    "iphone": {
        "psp": {
            "wrapping": 2
        }
    },
    "iscustomlayout": false,
    "isvisible": true,
    "kuid": "hfe7edc8259c4ddc805d90514ba840c5",
    "name": "kony.ui.Label",
    "parent": "flxAccountAccess",
    "pf": "frmUserManagement",
    "responsiveData": {
        "b1": {
            "skin": "s2ac445d876246978f2537c63ae81fab"
        },
        "b2": {
            "skin": "sdfd15d3ea794a0d9f7af92d2e46715c"
        },
        "b4": {
            "skin": "s2ac445d876246978f2537c63ae81fab"
        }
    },
    "retaincontentalignment": false,
    "retainflexpositionproperties": false,
    "texti18n": "i18n.konybb.manageUser.AccountAccess",
    "tooltip": "",
    "wType": "Label",
    "zindex": 1
}