{
    "@class": "com.kony.gen.viz.model.component.KVizLabel",
    "DNDConfig": null,
    "__parentReadjusting__": false,
    "_height_": {
        "type": "ref",
        "value": "preferred"
    },
    "_left_": {
        "type": "string",
        "value": "2.51%"
    },
    "_margin_": [
        1,
        1,
        1,
        1
    ],
    "_padding_": [
        0,
        0,
        0,
        0
    ],
    "_skin_": "sbbc9d0ac0ec4fedad41572bcaef43d9",
    "_text_": "Date of Birth",
    "_top_": {
        "type": "string",
        "value": "30dp"
    },
    "_width_": {
        "type": "ref",
        "value": "preferred"
    },
    "_wrapping_": 2,
    "android": {
        "textStyle": {
            "letterSpacing": 0,
            "strikeThrough": false
        }
    },
    "canUpdateUI": true,
    "containerweight": 100,
    "contentalignment": 4,
    "id": "lblDOB",
    "info": null,
    "ipad": {
        "psp": {
            "wrapping": 2
        }
    },
    "iphone": {
        "psp": {
            "wrapping": 2
        }
    },
    "iscustomlayout": false,
    "isvisible": true,
    "kuid": "h523d3323ed14ffab5f4c0ec35d7b802",
    "name": "kony.ui.Label",
    "parent": "flxDetailsContainer",
    "pf": "frmUserManagement",
    "responsiveData": {
        "b1": {
            "top": {
                "type": "string",
                "value": "20dp"
            }
        },
        "b2": {
            "left": {
                "type": "string",
                "value": "20dp"
            },
            "top": {
                "type": "string",
                "value": "20dp"
            }
        },
        "b3": {
            "top": {
                "type": "string",
                "value": "20dp"
            }
        },
        "b4": {
            "top": {
                "type": "string",
                "value": "20dp"
            }
        }
    },
    "retaincontentalignment": false,
    "retainflexpositionproperties": false,
    "texti18n": "i18n.common.DOB",
    "tooltip": "",
    "wType": "Label",
    "zindex": 1
}