{
    "@class": "com.kony.gen.viz.model.component.KVizLabel",
    "DNDConfig": null,
    "__parentReadjusting__": false,
    "_blur_": {
        "enabled": false,
        "value": 0
    },
    "_height_": {
        "type": "ref",
        "value": "preferred"
    },
    "_left_": {
        "type": "string",
        "value": "20dp"
    },
    "_margin_": [
        1,
        1,
        1,
        1
    ],
    "_padding_": [
        0,
        0,
        0,
        0
    ],
    "_skin_": "s30ffffdd3fd46a1a610adedd677eaf0",
    "_text_": "",
    "_top_": {
        "type": "string",
        "value": "24dp"
    },
    "_width_": {
        "type": "ref",
        "value": "preferred"
    },
    "_wrapping_": 2,
    "android": {
        "textStyle": {
            "letterSpacing": 0,
            "strikeThrough": false
        }
    },
    "canUpdateUI": true,
    "containerweight": 100,
    "contentalignment": 4,
    "id": "lblFeaturePermissions",
    "info": null,
    "ipad": {
        "psp": {
            "wrapping": 2
        }
    },
    "iphone": {
        "psp": {
            "wrapping": 2
        }
    },
    "iscustomlayout": false,
    "isvisible": true,
    "kuid": "j3b25dc2c31d4eef831add8fd4057793",
    "name": "kony.ui.Label",
    "parent": "flxFeaturePermissions",
    "pf": "frmUserManagement",
    "responsiveData": {
        "b1": {}
    },
    "retaincontentalignment": false,
    "retainflexpositionproperties": false,
    "texti18n": "i18n.userMgmt.viewOrEditOtherFeaturePermissions",
    "tooltip": "View/Edit Other Feature Permissions",
    "wType": "Label",
    "zindex": 1
}