{
    "DNDConfig": null,
    "__parentReadjusting__": false,
    "_height_": {
        "type": "string",
        "value": "50dp"
    },
    "_left_": {
        "type": "string",
        "value": "0dp"
    },
    "_margin_": [
        0,
        0,
        0,
        0
    ],
    "_orientation_": 6,
    "_padding_": [
        0,
        0,
        0,
        0
    ],
    "_percent_": true,
    "_skin_": "s344174b66d24a22be7a954acfcdefc5",
    "_top_": {
        "type": "string",
        "value": "0dp"
    },
    "_width_": {
        "type": "string",
        "value": "100%"
    },
    "allboxes": [],
    "autogrowmode": 0,
    "canUpdateUI": true,
    "children": [
        "lblAddKonyAccount",
        "flxSperator2"
    ],
    "clipbounds": true,
    "containerweight": 100,
    "desktopweb": {
        "psp": {
            "hoverSkin": "s6c4cbf31f7c4fc08f7236fc38f01a0e"
        }
    },
    "enablescrolling": true,
    "id": "flxAddKonyAccount",
    "info": null,
    "isvisible": true,
    "kuid": "b3fd24a41c5d4b21a3a74edceafc9d29",
    "layouttype": 2,
    "name": "kony.ui.FlexContainer",
    "parent": "flxAddAccountWindow",
    "pf": "frmTransfers",
    "snapgridsize": 10,
    "snaptogrid": true,
    "wType": "FlexContainer",
    "widgetalignment": 1,
    "zindex": 1,
    "accessibilityconfig": {
        "a11yARIA": {
            "tabindex": 1
        }
    }
}