{
    "DNDConfig": null,
    "__parentReadjusting__": false,
    "_height_": {
        "type": "ref",
        "value": "preferred"
    },
    "_left_": {
        "type": "string",
        "value": "0dp"
    },
    "_margin_": [
        0,
        0,
        0,
        0
    ],
    "_orientation_": 6,
    "_padding_": [
        0,
        0,
        0,
        0
    ],
    "_percent_": true,
    "_right_": {
        "type": "string",
        "value": "0dp"
    },
    "_skin_": "s24c92fc23b14f5484b693ee9b8a9b35",
    "_top_": {
        "type": "string",
        "value": "10px"
    },
    "_width_": {
        "type": "string",
        "value": "58.10%"
    },
    "allboxes": [],
    "autogrowmode": 1,
    "canUpdateUI": true,
    "children": [
        "transferActivitymod"
    ],
    "clipbounds": false,
    "containerweight": 100,
    "enablescrolling": true,
    "id": "transferactivity",
    "info": null,
    "isvisible": false,
    "kuid": "idec33a4aec045ce97139028d2fa824d",
    "layouttype": 4,
    "name": "kony.ui.FlexContainer",
    "parent": "flxMainWrapper",
    "pf": "frmTransfers",
    "responsiveData": {
        "b1": {
            "isVisible": false,
            "left": {
                "type": "string",
                "value": "6.07%"
            },
            "right": {
                "type": "string",
                "value": ""
            }
        },
        "b3": {
            "isVisible": false,
            "left": {
                "type": "string",
                "value": "10dp"
            },
            "right": {
                "type": "string",
                "value": "9dp"
            },
            "width": {
                "type": "string",
                "value": ""
            }
        },
        "b4": {
            "isVisible": false,
            "left": {
                "type": "string",
                "value": "6.07%"
            },
            "right": {
                "type": "string",
                "value": ""
            }
        },
        "b5": {
            "isVisible": false,
            "left": {
                "type": "string",
                "value": "3.25%"
            },
            "width": {
                "type": "string",
                "value": "93.50%"
            }
        }
    },
    "snapgridsize": 10,
    "snaptogrid": true,
    "wType": "FlexContainer",
    "widgetalignment": 1,
    "zindex": 2
}