{
    "@class": "com.kony.gen.viz.model.component.KVizUserWidget",
    "DNDConfig": null,
    "__parentReadjusting__": false,
    "_android_": {},
    "_androidwearos_": {},
    "_children_": [],
    "_desktopweb_": {},
    "_height_": {
        "type": "string",
        "value": "100%"
    },
    "_ipad_": {},
    "_iphone_": {},
    "_kiosk_": {},
    "_left_": "0dp",
    "_margin_": [
        0,
        0,
        0,
        0
    ],
    "_orientation_": 1,
    "_padding_": [
        0,
        0,
        0,
        0
    ],
    "_percent_": true,
    "_render_": true,
    "_responsiveData_": {},
    "_skin_": "sac80c61f28a4b73954e03b8f1c01e91",
    "_spa_": {},
    "_spaan_": {},
    "_spaandroidtablet_": {},
    "_spabb_": {},
    "_spaip_": {},
    "_spaipad_": {},
    "_spamobile_": {},
    "_spatablet_": {},
    "_spawindowstablet_": {},
    "_spawinphone8_": {},
    "_tabrcandroid_": {},
    "_top_": {
        "type": "string",
        "value": "0dp"
    },
    "_vizProps_": {
        "hidewidgethierarchy": false
    },
    "_width_": {
        "type": "string",
        "value": "100%"
    },
    "_windows10_": {},
    "_windows8_": {},
    "_winphone10_": {},
    "_winphone8_": {},
    "areflexpropsreferenced": false,
    "autogrowmode": 0,
    "canUpdateUI": true,
    "clipbounds": true,
    "containerweight": 0,
    "dataDiffs": {
        "btnClose": {
            "__events__": {},
            "__info__": {
                "kuid": "c15bdf2bea7743468c0d7e5a68bbbcbd",
                "srcKUID": "54158461e7144e7585022fa4467f17b7",
                "wType": "Button"
            }
        },
        "flxFlip": {
            "__events__": {},
            "__info__": {
                "kuid": "c110f5eacb014d03973159d870afb7e5",
                "srcKUID": "i7c45985f4384345b335ebca746babaa",
                "wType": "FlexContainer"
            }
        },
        "flxHeader": {
            "__events__": {},
            "__info__": {
                "kuid": "b87619d5202f4e0ab0937fdfbd2ef3ec",
                "srcKUID": "514f71af02d64d759024ec240acd8c91",
                "wType": "FlexContainer"
            }
        },
        "flxImageContainer": {
            "__events__": {},
            "__info__": {
                "kuid": "gf7f8a8df11b4476a33c888c295bfc8c",
                "srcKUID": "a1f79217369a4d2e8110e9b6d808c88c",
                "wType": "FlexContainer"
            },
            "autogrowMode": {
                "Default": 0
            },
            "height": {},
            "left": {
                "Default": {
                    "type": "string",
                    "value": "0dp"
                }
            },
            "responsiveData": {
                "b3": {
                    "height": {
                        "type": "string",
                        "value": "234dp"
                    }
                }
            }
        },
        "flxImageHolder": {
            "__events__": {},
            "__info__": {
                "kuid": "e981a8c2da0d494eb7e419a96b4f7cf0",
                "srcKUID": "d2addce8b4774f6fb0a35b0a16bb6e3b",
                "wType": "FlexContainer"
            },
            "responsiveData": {
                "b1": {
                    "isVisible": false
                },
                "b3": {
                    "isVisible": false,
                    "right": {
                        "type": "string",
                        "value": "10dp"
                    }
                },
                "b4": {
                    "isVisible": false
                },
                "b5": {
                    "isVisible": false
                }
            },
            "right": {}
        },
        "flxNote": {
            "__events__": {},
            "__info__": {
                "kuid": "b27f29a9ffc641488304c2ff770d4585",
                "srcKUID": "i55c6542f3f94e34836f02f0ed3c5cd0",
                "wType": "FlexContainer"
            },
            "autogrowMode": {
                "Default": 0
            },
            "height": {},
            "responsiveData": {
                "b1": {
                    "height": {
                        "type": "string",
                        "value": "82dp"
                    },
                    "width": {
                        "type": "string",
                        "value": "100%"
                    }
                },
                "b3": {
                    "height": {
                        "type": "string",
                        "value": "150dp"
                    },
                    "top": {
                        "type": "string",
                        "value": "0dp"
                    }
                },
                "b5": {
                    "isVisible": true
                }
            },
            "top": {},
            "width": {}
        },
        "flxPrint": {
            "__events__": {},
            "__info__": {
                "kuid": "ff42257c29a045f5ba8fae243bf87b7c",
                "srcKUID": "bbfc8634e6364383a74cb013aec30ea9",
                "wType": "FlexContainer"
            }
        },
        "flxSeparator": {
            "__events__": {},
            "__info__": {
                "kuid": "ec1d0f46967a405291c7bb738ea9aba2",
                "srcKUID": "ac22503863594909b9535065f80281cc",
                "wType": "FlexContainer"
            }
        },
        "flxViewReportWrapper": {
            "__events__": {},
            "__info__": {
                "kuid": "a5aa90b2bb304a62ae773a063e802265",
                "srcKUID": "8476d61910f44ec7874f08820625816e",
                "wType": "FlexContainer"
            },
            "autogrowMode": {
                "Default": 0
            },
            "bottom": {},
            "centerY": {
                "Default": {
                    "type": "string",
                    "value": ""
                }
            },
            "height": {
                "Default": {
                    "type": "string",
                    "value": "768dp"
                }
            },
            "left": {},
            "responsiveData": {
                "b1": {
                    "height": {
                        "type": "string",
                        "value": "764dp"
                    }
                },
                "b3": {
                    "bottom": {
                        "type": "string",
                        "value": ""
                    },
                    "height": {
                        "type": "string",
                        "value": "450dp"
                    },
                    "left": {
                        "type": "string",
                        "value": "10dp"
                    },
                    "right": {
                        "type": "string",
                        "value": "10dp"
                    },
                    "top": {
                        "type": "string",
                        "value": "60dp"
                    },
                    "width": {
                        "type": "string",
                        "value": ""
                    }
                },
                "b5": {
                    "width": {
                        "type": "string",
                        "value": "94%"
                    }
                }
            },
            "right": {},
            "top": {
                "Default": {
                    "type": "string",
                    "value": "230dp"
                }
            },
            "width": {},
            "zIndex": {}
        },
        "flxZoom": {
            "__events__": {},
            "__info__": {
                "kuid": "e97c070af376498dbf146c6ef7eca4a0",
                "srcKUID": "eb0ac23083e347d299df7eca8b24c060",
                "wType": "FlexContainer"
            }
        },
        "imgReport": {
            "__events__": {},
            "__info__": {
                "kuid": "b2f584a05d40404f8c01123b290f903e",
                "srcKUID": "f6c8ce7062a84bb4aac770ef7c8e6c3b",
                "wType": "Image"
            },
            "centerY": {},
            "height": {},
            "left": {},
            "responsiveData": {
                "b1": {
                    "left": {
                        "type": "string",
                        "value": "0dp"
                    },
                    "width": {
                        "type": "string",
                        "value": "100%"
                    }
                },
                "b3": {
                    "centerY": {
                        "type": "string",
                        "value": ""
                    },
                    "height": {
                        "type": "string",
                        "value": "100%"
                    },
                    "left": {
                        "type": "string",
                        "value": "0dp"
                    },
                    "right": {
                        "type": "string",
                        "value": ""
                    },
                    "top": {
                        "type": "number",
                        "value": "0"
                    },
                    "width": {
                        "type": "string",
                        "value": "100%"
                    }
                },
                "b4": {
                    "left": {
                        "type": "string",
                        "value": "1.50%"
                    },
                    "right": {
                        "type": "string",
                        "value": "1.50%"
                    },
                    "width": {
                        "type": "string",
                        "value": "97%"
                    }
                },
                "b5": {
                    "left": {
                        "type": "string",
                        "value": "0dp"
                    },
                    "width": {
                        "type": "string",
                        "value": "100%"
                    }
                }
            },
            "right": {},
            "src": "transfer_report.png",
            "top": {},
            "width": {}
        },
        "lblHeader": {
            "__events__": {},
            "__info__": {
                "kuid": "j664d36b0b794815954d2abeee74e139",
                "srcKUID": "dca7cb12777e444ba690cae35c95cb64",
                "wType": "Label"
            },
            "i18n_text": "i18n.transfers.viewReport",
            "left": {},
            "responsiveData": {
                "b1": {
                    "left": {
                        "type": "string",
                        "value": "5.50%"
                    }
                },
                "b4": {
                    "left": {
                        "type": "string",
                        "value": "5.50%"
                    }
                },
                "b5": {
                    "left": {
                        "type": "string",
                        "value": "5.50%"
                    }
                }
            }
        },
        "lblNote": {
            "__events__": {},
            "__info__": {
                "kuid": "gf6e1141b7d44068a8c43940bd8a1189",
                "srcKUID": "g781850271df47ebb66fb72db503a7a7",
                "wType": "Label"
            },
            "left": {},
            "responsiveData": {
                "b1": {
                    "width": {
                        "type": "string",
                        "value": "95%"
                    }
                },
                "b3": {
                    "left": {
                        "type": "string",
                        "value": "2%"
                    },
                    "text": " Lorem ipsum dolor sit amet, consectetur adipising elit. Aenean euismod bibendum laoreet. Proin gravida dolor sit amet lacus accumsan et viverra justo commodo.Proin sodales pulvinar tempor. Cum sociis antoque penatibus et magnis dis parturient montes, Nam fermentum, nulla luctus pharetra vulputate, fellis tellus mollis orci, sed rhoncus sapien nunc eget. ",
                    "width": {
                        "type": "string",
                        "value": "96%"
                    }
                },
                "b4": {
                    "width": {
                        "type": "string",
                        "value": "95%"
                    }
                },
                "b5": {
                    "width": {
                        "type": "string",
                        "value": "95%"
                    }
                }
            },
            "width": {}
        },
        "viewReport": {
            "__events__": {},
            "__info__": {
                "isRoot": true,
                "kuid": "a4b736f9bcda40eea0159d52d6c098b2",
                "srcKUID": "d0e949d4b5dc4d5da2987ae476b102c2",
                "wType": "FlexContainer"
            },
            "autogrowMode": {
                "Default": 0
            },
            "height": {
                "Default": {
                    "type": "string",
                    "value": "100%"
                }
            },
            "isVisible": true
        }
    },
    "id": "viewReport",
    "info": null,
    "isdatareferenced": false,
    "isvisible": true,
    "kuid": "a4b736f9bcda40eea0159d52d6c098b2",
    "layouttype": 2,
    "masterType": 0,
    "name": "kony.ui.UserWidgetInstance",
    "parent": "flxTransferViewReport",
    "pf": "frmTransfers",
    "snaptogrid": true,
    "sourceUserWidget": "d0e949d4b5dc4d5da2987ae476b102c2",
    "vizprops": {
        "hidewidgethierarchy": false
    },
    "wType": "UserWidgetInstance"
}