{
    "@class": "com.kony.gen.viz.model.component.KVizUserWidget",
    "DNDConfig": null,
    "__parentReadjusting__": false,
    "_children_": [],
    "_height_": {
        "type": "string",
        "value": "121px"
    },
    "_left_": {
        "type": "string",
        "value": "0dp"
    },
    "_margin_": [
        0,
        0,
        0,
        0
    ],
    "_orientation_": 1,
    "_padding_": [
        0,
        0,
        0,
        0
    ],
    "_percent_": true,
    "_skin_": "s24c92fc23b14f5484b693ee9b8a9b35",
    "_top_": {
        "type": "string",
        "value": "0dp"
    },
    "_width_": {
        "type": "string",
        "value": "100%"
    },
    "android": {},
    "androidwearos": {},
    "areflexpropsreferenced": false,
    "autogrowmode": 0,
    "canUpdateUI": true,
    "clipbounds": false,
    "containerweight": 0,
    "dataDiffs": {
        "CopyLabel0a8b12f7002084d": {
            "__events__": {},
            "__info__": {
                "kuid": "e3e4d7b215ab47438cbaa1cd283d9237",
                "srcKUID": "cb34c29df04d41f58c12dbf5f1600bcf",
                "wType": "Label"
            }
        },
        "CopyLabel0bb648d916e554d": {
            "__events__": {},
            "__info__": {
                "kuid": "fcfa9314adde43658ea68e2db26706d6",
                "srcKUID": "c8238c4264144e7391f46d2a256dfbba",
                "wType": "Label"
            }
        },
        "CopyLabel0h9e71b8a76ad44": {
            "__events__": {},
            "__info__": {
                "kuid": "d584b1b2b9b74653818ef1e49aa0ef4c",
                "srcKUID": "jdc721e253c844bf9eb85dc6aee46d25",
                "wType": "Label"
            }
        },
        "CopyflxSeperator0dfcbfe80de1946": {
            "__events__": {},
            "__info__": {
                "kuid": "ebf12c2ff0c748cb9a9b5246b893c61b",
                "srcKUID": "b7894266c99044dcbcafe5383e83d3db",
                "wType": "FlexContainer"
            }
        },
        "CopyflxUserDetails0b35eb5be884043": {
            "__events__": {},
            "__info__": {
                "kuid": "h80bd8dd312c4739811a1d2bbe1948d4",
                "srcKUID": "e9caaacc452a4302b7932fe3f9374adc",
                "wType": "FlexContainer"
            }
        },
        "CopyimgToolTip0i580d9acc07c42": {
            "__events__": {},
            "__info__": {
                "kuid": "b3f3ebd3f3024a9397de3ebfc9e874d7",
                "srcKUID": "a30ef82b1166480faddbd6e0b99e677d",
                "wType": "Image"
            }
        },
        "FlexContainer0g7f570b54a4d4e": {
            "__events__": {},
            "__info__": {
                "kuid": "h30773df645a44c5bac74e5cddc35217",
                "srcKUID": "ccc99354aa50423c98c026de8d1c689f",
                "wType": "FlexContainer"
            }
        },
        "Label0dcf00103bdba46": {
            "__events__": {},
            "__info__": {
                "kuid": "e615bcb583e440c6a33431dac0fa4801",
                "srcKUID": "c56fe5fc01b543ad82b37aeb33af56d3",
                "wType": "Label"
            }
        },
        "btnLogout": {
            "__events__": {},
            "__info__": {
                "kuid": "d6e588ae581d45178b55ed68c8f48ed0",
                "srcKUID": "dbe084cfcd054a6cb77dabb8ab42f077",
                "wType": "Button"
            }
        },
        "customheadernew": {
            "__events__": {},
            "__info__": {
                "isRoot": true,
                "kuid": "ge0100636e1f4da1a799e6e268e22e7f",
                "srcKUID": "g57ea9eb26d54f30b5f191c7fbd35c51",
                "wType": "FlexContainer"
            }
        },
        "flxAccounts": {
            "__events__": {},
            "__info__": {
                "kuid": "b5b7e4f70ba14473a532cb8a97b0826e",
                "srcKUID": "e621bc1a1e0848afaf99419615e517b7",
                "wType": "FlexContainer"
            }
        },
        "flxActionsMenu": {
            "__events__": {},
            "__info__": {
                "kuid": "d80d51cf10394007bcd029d463eb610b",
                "srcKUID": "f5fec7baee6841e7b95c2a53379aeea3",
                "wType": "FlexContainer"
            }
        },
        "flxClose": {
            "__events__": {},
            "__info__": {
                "kuid": "d7b9c277a7184ed6b3de140560d0d29c",
                "srcKUID": "f974fd9704ee48f08006fb2cce1bb1ba",
                "wType": "FlexContainer"
            }
        },
        "flxContextualMenu": {
            "__events__": {},
            "__info__": {
                "kuid": "h92c6ac68a0746e98c8c6b18f0c2d9f2",
                "srcKUID": "j3e46f4bdd64418ba7c405b38661d948",
                "wType": "FlexContainer"
            }
        },
        "flxFeedback": {
            "__events__": {},
            "__info__": {
                "kuid": "h5d83ff1cda44dfc8df59e2daec35570",
                "srcKUID": "b8e6354ee0aa42a684fe29b1d98a8db0",
                "wType": "FlexContainer"
            }
        },
        "flxHamburger": {
            "__events__": {},
            "__info__": {
                "kuid": "c65a7846f893438abfea25f6fb2e4b3f",
                "srcKUID": "bb94b45671994d859ad514157efbe460",
                "wType": "FlexContainer"
            }
        },
        "flxHamburgerBack": {
            "__events__": {},
            "__info__": {
                "kuid": "dc79b23ec18849b8826a0f7128636687",
                "srcKUID": "c83e44fca25e458f8c5f4cca992018c1",
                "wType": "FlexContainer"
            }
        },
        "flxHamburgerHeader": {
            "__events__": {},
            "__info__": {
                "kuid": "d5d96b9ca071460fbe0ae07dfff2388e",
                "srcKUID": "ff14c903773f49fea07675bf1dc6d3aa",
                "wType": "FlexContainer"
            }
        },
        "flxHamburgerMenu": {
            "__events__": {},
            "__info__": {
                "kuid": "a99bfe55cd064daba993be36cf4e9ccf",
                "srcKUID": "f70dbadab9194d9cab80ed58a380e355",
                "wType": "FlexScrollContainer"
            }
        },
        "flxHelp": {
            "__events__": {},
            "__info__": {
                "kuid": "h15b911d05d34ca28aaec75b3cd5c9d9",
                "srcKUID": "ab6d787fe40b471184a4baf8371012d8",
                "wType": "FlexContainer"
            }
        },
        "flxImgUser": {
            "__events__": {},
            "__info__": {
                "kuid": "h870a6265a1a44db8b660d878faab247",
                "srcKUID": "c8bbffe16c9e4322a9c1f2e978bfe397",
                "wType": "FlexContainer"
            }
        },
        "flxLogoAndActions": {
            "__events__": {},
            "__info__": {
                "kuid": "c2b05e7a8cf748679014d39ee0446a8e",
                "srcKUID": "c6cc3d5c40ad4387b5989655ced7897b",
                "wType": "FlexContainer"
            }
        },
        "flxLogoAndActionsWrapper": {
            "__events__": {},
            "__info__": {
                "kuid": "ef9166de0e9d4ecdb076a758dee64233",
                "srcKUID": "j19f0c12db9c4a62aca336bb621f2240",
                "wType": "FlexContainer"
            }
        },
        "flxLogout": {
            "__events__": {},
            "__info__": {
                "kuid": "c702ea7a4f8c4af1a2ad9474b97b054d",
                "srcKUID": "b9455970cb324605a7d8d8423734c5d3",
                "wType": "FlexContainer"
            }
        },
        "flxLogoutSeparator": {
            "__events__": {},
            "__info__": {
                "kuid": "ec1287f9d81d40bab92daf5fa4c8080b",
                "srcKUID": "e307a629419a4a5cb5e6b3dd241e8d33",
                "wType": "FlexContainer"
            }
        },
        "flxLogoutWrapper": {
            "__events__": {},
            "__info__": {
                "kuid": "a1b50d73e0b649b99de363a597c80559",
                "srcKUID": "a3a6fced7d8c48c9b292f13fa15f5eb8",
                "wType": "FlexContainer"
            }
        },
        "flxMenu": {
            "__events__": {},
            "__info__": {
                "kuid": "j3ebce9ab4e541489867b540a314d912",
                "srcKUID": "c49e3f9c246b4c9eb2037a25593f5949",
                "wType": "FlexContainer"
            }
        },
        "flxMenuContainer": {
            "__events__": {},
            "__info__": {
                "kuid": "a1185ea491324efda3450947ead77da7",
                "srcKUID": "gbe4ab8dec9249a5b1c796d6f8196f51",
                "wType": "FlexContainer"
            }
        },
        "flxMenuItem": {
            "__events__": {},
            "__info__": {
                "kuid": "i0cbe93ba4b5445895bb7fe2e6648328",
                "srcKUID": "b77d75a793c14f2580b76ac27da67298",
                "wType": "FlexContainer"
            }
        },
        "flxMenuItemCollapse": {
            "__events__": {},
            "__info__": {
                "kuid": "cc758092b3e540eca66efd4e7fbe6245",
                "srcKUID": "b9bab656b60e4d929d0cb26e88d05324",
                "wType": "FlexContainer"
            }
        },
        "flxMenuLeft": {
            "__events__": {},
            "__info__": {
                "kuid": "b5189cab7f814b14a02c3b698e774086",
                "srcKUID": "ea55f1f130bd498e94b6a730ef3a2340",
                "wType": "FlexContainer"
            }
        },
        "flxMenuRight": {
            "__events__": {},
            "__info__": {
                "kuid": "e47d3525f42f45799daabfbd49ed1f9f",
                "srcKUID": "c7c28fc54fd64c58bc606c327d1900c1",
                "wType": "FlexContainer"
            }
        },
        "flxMenuWrapper": {
            "__events__": {},
            "__info__": {
                "kuid": "ddfcbd1ffd1f48fe84dfe39df54b695b",
                "srcKUID": "d0eec1a4de1646d3ab5d92996f569aa7",
                "wType": "FlexContainer"
            }
        },
        "flxMessages": {
            "__events__": {},
            "__info__": {
                "kuid": "d821f3ae95dd4351b0a1f743876c793b",
                "srcKUID": "b957e06250dd45ac951449c7bdd6ff51",
                "wType": "FlexContainer"
            }
        },
        "flxMyBills": {
            "__events__": {},
            "__info__": {
                "kuid": "g1178165fe774f27b27fc7ad869eafa3",
                "srcKUID": "a8bbbc89f77949f4b8140963ab148dce",
                "wType": "FlexContainer"
            }
        },
        "flxPayBills": {
            "__events__": {},
            "__info__": {
                "kuid": "fece39e7d6d74f429f6274ff5b29885b",
                "srcKUID": "dfdcb7d977c545c1b7af04aa7b4b38cf",
                "wType": "FlexContainer"
            }
        },
        "flxPayMultipleBeneficiaries": {
            "__events__": {},
            "__info__": {
                "kuid": "i33d8bab1e8b4de1b5eca1d12095e61e",
                "srcKUID": "f7d21575b7d34f5bac8b07a002b6a76f",
                "wType": "FlexContainer"
            }
        },
        "flxSendMoney": {
            "__events__": {},
            "__info__": {
                "kuid": "eb81dc5c26004c34b0ca960a3c151b27",
                "srcKUID": "f44ec678efe1449f84d827b60e0ae264",
                "wType": "FlexContainer"
            }
        },
        "flxSeparator1": {
            "__events__": {},
            "__info__": {
                "kuid": "d311fd7e2bfb4938ae22f2d74cb99faf",
                "srcKUID": "b2a298aba680466d8f60575b80e1934e",
                "wType": "FlexContainer"
            }
        },
        "flxSeparatorNew": {
            "__events__": {},
            "__info__": {
                "kuid": "d42351a0fbe8442aa9496d611fceab48",
                "srcKUID": "ea67f93ff0f94128a71262c9f88d2dbe",
                "wType": "FlexContainer"
            }
        },
        "flxSeperator1": {
            "__events__": {},
            "__info__": {
                "kuid": "ib72c006ed4a4a9d9ab346e56e25b102",
                "srcKUID": "db259fcb819a47079972d09155429c2c",
                "wType": "FlexContainer"
            }
        },
        "flxSeperator2": {
            "__events__": {},
            "__info__": {
                "kuid": "j6036679a04b49c7a74f532311c16c81",
                "srcKUID": "c329b2e37feb4e6384dc95c9e268eedb",
                "wType": "FlexContainer"
            }
        },
        "flxSeperatorMenuItem": {
            "__events__": {},
            "__info__": {
                "kuid": "h83b834c2c8641d4922a726a4f05c6f1",
                "srcKUID": "dc614efa32034c87a72487baa94c4619",
                "wType": "FlexContainer"
            }
        },
        "flxShadowContainer": {
            "__events__": {},
            "__info__": {
                "kuid": "f73dca358196417a84a737c2e42c6690",
                "srcKUID": "c247bb7332fa47d5bd417b916c7abfec",
                "wType": "FlexContainer"
            }
        },
        "flxSubMenu": {
            "__events__": {},
            "__info__": {
                "kuid": "if55df03f9714bf48b67282987d3e6ad",
                "srcKUID": "dc6c7628618b483a80fcf0bae2dac6db",
                "wType": "FlexContainer"
            }
        },
        "flxSubMenuItem": {
            "__events__": {},
            "__info__": {
                "kuid": "ga200d07165742338dd9c81383e7f7a8",
                "srcKUID": "ecc2da3d45e348e0aed2982aed7e9e98",
                "wType": "FlexContainer"
            }
        },
        "flxTransferMoney": {
            "__events__": {},
            "__info__": {
                "kuid": "h604b0fac8ca4a109716a9d678806f00",
                "srcKUID": "fc180c87f1494b08bd7335e029745f05",
                "wType": "FlexContainer"
            }
        },
        "flxTransfersAndPay": {
            "__events__": {},
            "__info__": {
                "kuid": "f4a48ca63310427d99de6241de486f46",
                "srcKUID": "je4acb4201274a92bebc604f30a7947a",
                "wType": "FlexContainer"
            }
        },
        "flxUser": {
            "__events__": {},
            "__info__": {
                "kuid": "e7ef1998885d4a8586ececf422c9575f",
                "srcKUID": "g4f3d73c7f364988900a280daf5753d8",
                "wType": "FlexContainer"
            }
        },
        "flxUserActions": {
            "__events__": {},
            "__info__": {
                "kuid": "g4ff77a011804a8180e66498da7d24df",
                "srcKUID": "c82435ddffbe4a299e1b432baa97fe80",
                "wType": "FlexContainer"
            }
        },
        "flxUserActionsWrapper": {
            "__events__": {},
            "__info__": {
                "kuid": "d276e74525e14f4e8f00b1fd9f986cba",
                "srcKUID": "bfea9c9b15964d019ae9a28ded0b7d9d",
                "wType": "FlexContainer"
            }
        },
        "flxWarning": {
            "__events__": {},
            "__info__": {
                "kuid": "ab9c2b00ec35492ab969a75ffcc5395f",
                "srcKUID": "c7ae9fe97da545ebad3bd6254cb34391",
                "wType": "FlexContainer"
            }
        },
        "flxWireMoney": {
            "__events__": {},
            "__info__": {
                "kuid": "g4ae433cd7f540f4a78f3a89344ad088",
                "srcKUID": "a7e3790fa138476e9b408a269f31269d",
                "wType": "FlexContainer"
            }
        },
        "flxverseperator2": {
            "__events__": {},
            "__info__": {
                "kuid": "j39edd08558b477282f6a4c8fe8e2d2f",
                "srcKUID": "b5adbb16a78e40f4aa5b53cf5caa919d",
                "wType": "FlexContainer"
            }
        },
        "imgClose": {
            "__events__": {},
            "__info__": {
                "kuid": "g076218a346a4790858eb2cff824218e",
                "srcKUID": "f0059293a90844408fdc2a3c558f25b9",
                "wType": "Image"
            }
        },
        "imgCollapseMenuItem": {
            "__events__": {},
            "__info__": {
                "kuid": "f88978abcf0e45c897bf92c60b797dd4",
                "srcKUID": "ba746db189ad42989176b888b25ae78b",
                "wType": "Image"
            }
        },
        "imgKony": {
            "__events__": {},
            "__info__": {
                "kuid": "e9f8ee74832446a9a2a03826074f4c4e",
                "srcKUID": "c55a5df1953849bc921a9a84a2cf5e70",
                "wType": "Image"
            },
            "src": "kony_logo.png"
        },
        "imgKonyHamburger": {
            "__events__": {},
            "__info__": {
                "kuid": "hf1c5bdbfd314fab81726d6b0efe4ba7",
                "srcKUID": "b77eae507bff4b2d91fbf7670574d59e",
                "wType": "Image"
            }
        },
        "imgLblTransfers": {
            "__events__": {},
            "__info__": {
                "kuid": "df3b346973ee4b488c2505f5662b364b",
                "srcKUID": "ffe510df4f16410e92dc6721f851a592",
                "wType": "Label"
            }
        },
        "imgLogout": {
            "__events__": {},
            "__info__": {
                "kuid": "h116b71a7c5d4e38a3e83b9b4d0b6aa4",
                "srcKUID": "d67b5f46dcd44029b4cba5d652ef4e4a",
                "wType": "Image"
            },
            "src": "logout.png"
        },
        "imgMenu": {
            "__events__": {},
            "__info__": {
                "kuid": "d508a13d12434cdda5a854e40ca7ab69",
                "srcKUID": "fc4d7ba517c748f08b831479a140671f",
                "wType": "Image"
            },
            "src": "menu_icon.png"
        },
        "imgNotifications": {
            "__events__": {},
            "__info__": {
                "kuid": "df3e67dc9a7244b1bc2ef1f4829f7252",
                "srcKUID": "a6e8c4a6887349caac366cd06a1a61c7",
                "wType": "Image"
            },
            "src": "notification_flag.png"
        },
        "imgToolTip": {
            "__events__": {},
            "__info__": {
                "kuid": "bd775a6ef2a4442688ea4640c8462630",
                "srcKUID": "j6d5d0d57c4d4c51bb3c07fc94674e0b",
                "wType": "Image"
            }
        },
        "imgUser": {
            "__events__": {},
            "__info__": {
                "kuid": "h39b1c9876044b3b813ab5b43601cdf5",
                "srcKUID": "c653f12789ff45178bc1061b44158c51",
                "wType": "Image"
            },
            "src": "profile_header.png"
        },
        "imgWarning": {
            "__events__": {},
            "__info__": {
                "kuid": "c9de6df29ced400b88d5f49cffb5f657",
                "srcKUID": "a008b61365884da1aeefa554430f6343",
                "wType": "Image"
            }
        },
        "lblAccounts": {
            "__events__": {},
            "__info__": {
                "kuid": "dc110a5e6ded47779782252ab908ef0e",
                "srcKUID": "a44ff4b384ce41fbbd285f88cde71bc7",
                "wType": "Label"
            }
        },
        "lblFeedback": {
            "__events__": {},
            "__info__": {
                "kuid": "bbd6abb514c34e72b09e475f5c3c5169",
                "srcKUID": "f221b6bbddac4ec097577e0e2abbf72a",
                "wType": "Label"
            }
        },
        "lblHeaderMobile": {
            "__events__": {},
            "__info__": {
                "kuid": "h25fc06e96b146929111efa3e63aedc6",
                "srcKUID": "fc0477569a7346b79ef7b5d61246a700",
                "wType": "Label"
            },
            "i18n_text": "i18n.savingsPot.confirmWithdrawHeader",
            "isVisible": false,
            "responsiveData": {
                "b3": {}
            }
        },
        "lblHelp": {
            "__events__": {},
            "__info__": {
                "kuid": "jdb0f26c58d84158939743616c302d9a",
                "srcKUID": "fbd3358a503c410282a41bea6a18f47d",
                "wType": "Label"
            }
        },
        "lblLogout": {
            "__events__": {},
            "__info__": {
                "kuid": "e2d60715894a4a8993dd249cc1200791",
                "srcKUID": "e2654abf270340819750f9f33e4dbfc3",
                "wType": "Label"
            }
        },
        "lblLogoutIcon": {
            "__events__": {},
            "__info__": {
                "kuid": "d59cf1b6b9e842bd8456226dd9f6d95d",
                "srcKUID": "f7201d67d487488f8b79f6de86dac851",
                "wType": "Label"
            }
        },
        "lblMenuItemIcon": {
            "__events__": {},
            "__info__": {
                "kuid": "gc5259e8bce64149a7ebbf5b8448ef5d",
                "srcKUID": "b0f1d3eb6b5c4edfb845c0cadd9a65b2",
                "wType": "Label"
            }
        },
        "lblMenuItemTitle": {
            "__events__": {},
            "__info__": {
                "kuid": "e2dcd525c81b46c3a2a762dd76a54261",
                "srcKUID": "h5445b09c22d41dba82780d50a162e5d",
                "wType": "Label"
            }
        },
        "lblMyAccounts": {
            "__events__": {},
            "__info__": {
                "kuid": "gf234d9fcc074d0d90c79028aae846f2",
                "srcKUID": "a7ae02bf520e467bad62d17620dbcd9c",
                "wType": "Label"
            }
        },
        "lblMyBills": {
            "__events__": {},
            "__info__": {
                "kuid": "f6427a3c3d364b229ec65c11987db690",
                "srcKUID": "f07f6e1e108847c893514c948793123d",
                "wType": "Label"
            }
        },
        "lblName": {
            "__events__": {},
            "__info__": {
                "kuid": "g067d5e5cd5f4df8a16ae7e67c3d7564",
                "srcKUID": "df2a7db2a13842f8b69f45d798f91ca4",
                "wType": "Label"
            }
        },
        "lblNewMessages": {
            "__events__": {},
            "__info__": {
                "kuid": "g4fdec1937c0496baa25d53565d65fec",
                "srcKUID": "e390473ef6224482b645ddbbabb4246e",
                "wType": "Label"
            }
        },
        "lblPayMultipleBeneficiaries": {
            "__events__": {},
            "__info__": {
                "kuid": "de75683993224793b0b15d199ec75b2c",
                "srcKUID": "ib0cb6bd824744998bee9f5e6612b486",
                "wType": "Label"
            }
        },
        "lblTransferAndPay": {
            "__events__": {},
            "__info__": {
                "kuid": "f94b3594342e43edba9cd9ee31f349b0",
                "srcKUID": "b16c43dc82314d26bd801952202150c1",
                "wType": "Label"
            }
        },
        "lblUserEmail": {
            "__events__": {},
            "__info__": {
                "kuid": "heb54b14741e447c88ea100fe5bacb83",
                "srcKUID": "j0626d5e09c04c8e82eefdb4d6a5a20b",
                "wType": "RichText"
            }
        },
        "rtxWarning": {
            "__events__": {},
            "__info__": {
                "kuid": "e222755548b249368a377b8c6dc492f9",
                "srcKUID": "bcfca1ce25a742b4a4fe3ffb534a8743",
                "wType": "RichText"
            }
        },
        "segUserActions": {
            "__events__": {},
            "__info__": {
                "kuid": "eb92415be3f249dda93d4bffd7265d8c",
                "srcKUID": "d628530db75f48cfaf1e94b7e138808a",
                "wType": "Segment"
            }
        }
    },
    "desktopweb": {},
    "enablescrolling": true,
    "id": "customheadernew",
    "info": null,
    "ipad": {},
    "iphone": {},
    "isdatareferenced": false,
    "isvisible": true,
    "kiosk": {},
    "kuid": "ge0100636e1f4da1a799e6e268e22e7f",
    "layouttype": 2,
    "masterType": 0,
    "name": "kony.ui.UserWidgetInstance",
    "parent": "flxHeader",
    "pf": "frmWithdrawBudgetConfirm",
    "responsiveData": {},
    "snapgridsize": 10,
    "snaptogrid": true,
    "sourceUserWidget": "g57ea9eb26d54f30b5f191c7fbd35c51",
    "spa": {},
    "spaan": {},
    "spaandroidtablet": {},
    "spabb": {},
    "spaip": {},
    "spaipad": {},
    "spamobile": {},
    "spatablet": {},
    "spawindowstablet": {},
    "spawinphone8": {},
    "tabrcandroid": {},
    "vizProps": {
        "hidewidgethierarchy": false
    },
    "wType": "UserWidgetInstance",
    "windows10": {},
    "windows8": {},
    "winphone10": {},
    "winphone8": {},
    "zindex": 1000
}