{
    "@class": "com.kony.gen.viz.model.component.KVizButton",
    "DNDConfig": null,
    "__parentReadjusting__": false,
    "_height_": {
        "type": "string",
        "value": "40dp"
    },
    "_margin_": [
        6,
        6,
        6,
        6
    ],
    "_padding_": [
        0,
        0,
        0,
        0
    ],
    "_right_": {
        "type": "string",
        "value": "0dp"
    },
    "_skin_": "s4be8bdf85bf477882e287999fecbcd9",
    "_text_": "Continue",
    "_top_": {
        "type": "string",
        "value": "22dp"
    },
    "_width_": {
        "type": "string",
        "value": "257dp"
    },
    "accessibilityconfig": {
        "a11yLabel": "Back to Manage Recipient"
    },
    "canUpdateUI": true,
    "containerweight": 100,
    "contentalignment": 5,
    "desktopweb": {
        "psp": {}
    },
    "disabledSkins": {
        "focusSkin": "sfd0ce0d7f454c9f83c7e815a90a8a55",
        "hoverSkin": "s7ab6326aaf94c28b90b61fcb1b54547"
    },
    "displaytext": true,
    "id": "btnContinue",
    "info": null,
    "isvisible": true,
    "kuid": "hf3a120e32d24262b1657794eebfe4ee",
    "name": "kony.ui.Button",
    "parent": "flxbtn",
    "pf": "frmMakeBulkTransfer",
    "responsiveData": {
        "b1": {
            "height": {
                "type": "string",
                "value": "40dp"
            },
            "skin": "s4be8bdf85bf477882e287999fecbcd9"
        },
        "b2": {
            "height": {
                "type": "string",
                "value": "40dp"
            }
        },
        "b3": {
            "height": {
                "type": "string",
                "value": "40dp"
            },
            "width": {
                "type": "string",
                "value": "25%"
            }
        },
        "b4": {
            "bottom": {
                "type": "string",
                "value": ""
            },
            "height": {
                "type": "string",
                "value": "40dp"
            },
            "left": {
                "type": "string",
                "value": "10dp"
            },
            "right": {
                "type": "string",
                "value": "10dp"
            },
            "top": {
                "type": "string",
                "value": "22dp"
            },
            "width": {
                "type": "string",
                "value": ""
            }
        }
    },
    "texti18n": "i18n.userManagement.Continue",
    "tooltip": "Back to Manage Recipient",
    "wType": "Button",
    "zindex": 1
}