{
    "@class": "com.kony.gen.viz.model.component.KVizButton",
    "DNDConfig": null,
    "__parentReadjusting__": false,
    "_height_": {
        "type": "ref",
        "value": "preferred"
    },
    "_left_": {
        "type": "string",
        "value": "0dp"
    },
    "_margin_": [
        6,
        6,
        6,
        6
    ],
    "_padding_": [
        0,
        0,
        0,
        0
    ],
    "_skin_": "se4cbdf6e51f48eda9966caa941c6a19",
    "_text_": "Activate Ebill",
    "_top_": {
        "type": "string",
        "value": "0dp"
    },
    "_width_": {
        "type": "string",
        "value": "90%"
    },
    "accessibilityconfig": {
        "a11yLabel": "ACTIVATE E-BILL"
    },
    "canUpdateUI": true,
    "centery": {
        "type": "string",
        "value": "50%"
    },
    "containerId": true,
    "containerweight": 100,
    "contentalignment": 4,
    "disabledSkins": {
        "focusSkin": "sf44d06ca8224832827ea7fdff757013"
    },
    "displaytext": true,
    "id": "btnActivateEbill",
    "ide_onClick": "AS_Button_hb5f4f910dfc436f9ae46db883e1338b",
    "info": null,
    "isvisible": true,
    "kuid": "f746465b51554ca28a575945c633cfc6",
    "name": "kony.ui.Button",
    "parent": "flxDate",
    "pf": "segBillPayAllPayees",
    "tooltip": "View E-Bill",
    "wType": "Button",
    "zindex": 1
}