{
    "@class": "com.kony.gen.viz.model.component.KVizLabel",
    "DNDConfig": null,
    "_height_": {
        "type": "string",
        "value": "25px"
    },
    "_left_": {
        "type": "string",
        "value": "15dp"
    },
    "_margin_": [
        1,
        1,
        1,
        1
    ],
    "_padding_": [
        0,
        0,
        0,
        0
    ],
    "_skin_": "sc4b4449029c4858a9cf23e5fdfb87cd",
    "_text_": "w",
    "_width_": {
        "type": "string",
        "value": "25px"
    },
    "_wrapping_": 2,
    "accessibilityconfig": {
        "a11yLabel": "Info"
    },
    "android": {
        "textStyle": {
            "letterSpacing": 0,
            "strikeThrough": false
        }
    },
    "canUpdateUI": true,
    "centerx": {
        "type": "string",
        "value": "50%"
    },
    "centery": {
        "type": "string",
        "value": "50%"
    },
    "containerId": true,
    "containerweight": 100,
    "contentalignment": 5,
    "id": "lblChannel2",
    "info": null,
    "ipad": {
        "psp": {
            "wrapping": 2
        }
    },
    "iphone": {
        "psp": {
            "wrapping": 2
        }
    },
    "isvisible": true,
    "kuid": "i36b32115d6942dc84cb68a8e9697a96",
    "name": "kony.ui.Label",
    "parent": "flxChannel2",
    "pf": "segGroupAlertRowDW",
    "tooltip": "",
    "wType": "Label",
    "zindex": 1
}