{
	 "@class": "com.kony.gen.viz.model.component.KVizImage2",
	 "DNDConfig": null,
	 "__parentReadjusting__": false,
	 "_base64_": null,
	 "_height_": {
		 "type": "string",
		 "value": "40dp"
	},
	 "_margin_": [
		 0,
		 0,
		 0,
		 0
	],
	 "_padding_": [
		 0,
		 0,
		 0,
		 0
	],
	 "_right_": {
		 "type": "string",
		 "value": "270dp"
	},
	 "_skin_": "s78a5f26c9f14cec9ebed1bb46098f80",
	 "_src_": "footer_logo_3.png",
	 "_width_": {
		 "type": "ref",
		 "value": "preferred"
	},
	 "canUpdateUI": true,
	 "centery": {
		 "type": "string",
		 "value": "50%"
	},
	 "containerweight": 100,
	 "context": {
		 "channel": "desktop",
		 "formID": "uwu7b2439cdecc4ce388c0eae793a809de",
		 "platform": "desktopweb",
		 "templateType": "userwidgets",
		 "topLevelBox": null
	},
	 "id": "imgFooterIconThree",
	 "imagescalemode": 1,
	 "imagewhiledownloading": "img_transparent.png",
	 "info": null,
	 "invokedProperty": "src",
	 "isvisible": false,
	 "kuid": "hc27193bc4d14f24b60f03ac3c2bddb7",
	 "name": "kony.ui.Image2",
	 "parent": "customfooter",
	 "pf": "userwidgetmodel",
	 "srcType": 1,
	 "wType": "Image",
	 "widgetalignment": 5,
	 "zindex": 1,
	 "accessibilityconfig": {
		 "a11yHidden": true,
		 "a11yARIA": {
			 "tabindex": -1
		},
		 "a11yValue": ""
	}
}