{
    "@class": "com.kony.gen.viz.model.component.KVizButton",
    "DNDConfig": null,
    "__parentReadjusting__": false,
    "_height_": {
        "type": "ref",
        "value": "preferred"
    },
    "_left_": {
        "type": "string",
        "value": "0dp"
    },
    "_margin_": [
        6,
        6,
        6,
        6
    ],
    "_padding_": [
        0,
        0,
        0,
        0
    ],
    "_skin_": "se39d7b9f84d4ba299550dd41aae2fde",
    "_text_": "Pay Bill",
    "_top_": {
        "type": "string",
        "value": "0dp"
    },
    "_width_": {
        "type": "string",
        "value": "100%"
    },
    "accessibilityconfig": {
        "a11yLabel": "Pay Bill"
    },
    "canUpdateUI": true,
    "centery": {
        "type": "string",
        "value": "50%"
    },
    "containerId": true,
    "containerweight": 100,
    "contentalignment": 6,
    "desktopweb": {
        "psp": {
            "hoverSkin": "sd36babbd8f6461f8b492698ab830d13"
        }
    },
    "disabledSkins": {
        "focusSkin": "sf44d06ca8224832827ea7fdff757013"
    },
    "displaytext": true,
    "id": "btnPayBill",
    "ide_onClick": "AS_Button_jf1f8a7f5e2844bbac4fe1f74c50af6d",
    "info": null,
    "isvisible": true,
    "kuid": "b9f5325d6668484b91fdde81d7292597",
    "name": "kony.ui.Button",
    "parent": "flxAmount",
    "pf": "segBillPayManagePayeesMobile",
    "tooltip": "Pay Bill",
    "wType": "Button",
    "zindex": 1
}