{
    "@class": "com.kony.gen.viz.model.component.KVizUserWidget",
    "DNDConfig": null,
    "__parentReadjusting__": false,
    "_android_": {},
    "_androidwearos_": {},
    "_children_": [],
    "_desktopweb_": {},
    "_height_": {
        "type": "string",
        "value": "268px"
    },
    "_ipad_": {},
    "_iphone_": {},
    "_kiosk_": {},
    "_left_": {
        "type": "string",
        "value": "0dp"
    },
    "_margin_": [
        0,
        0,
        0,
        0
    ],
    "_orientation_": 1,
    "_padding_": [
        0,
        0,
        0,
        0
    ],
    "_percent_": true,
    "_responsiveData_": {
        "b1": {
            "centerX": {
                "type": "string",
                "value": "50%"
            },
            "top": {
                "type": "string",
                "value": "300dp"
            },
            "width": {
                "type": "string",
                "value": "44.30%"
            },
            "zIndex": 1100
        }
    },
    "_skin_": "s701065f11074080832b59947e731160",
    "_spa_": {},
    "_spaan_": {},
    "_spaandroidtablet_": {},
    "_spabb_": {},
    "_spaip_": {},
    "_spaipad_": {},
    "_spamobile_": {},
    "_spatablet_": {},
    "_spawindowstablet_": {},
    "_spawinphone8_": {},
    "_tabrcandroid_": {},
    "_top_": {
        "type": "string",
        "value": "0dp"
    },
    "_vizProps_": {
        "hidewidgethierarchy": false
    },
    "_width_": {
        "type": "string",
        "value": "100%"
    },
    "_windows10_": {},
    "_windows8_": {},
    "_winphone10_": {},
    "_winphone8_": {},
    "android": {},
    "androidwearos": {},
    "areflexpropsreferenced": false,
    "autogrowmode": 0,
    "canUpdateUI": true,
    "centerx": {
        "type": "number",
        "value": ""
    },
    "clipbounds": false,
    "containerweight": 0,
    "dataDiffs": {
        "CustomPopup": {
            "__events__": {},
            "__info__": {
                "isRoot": true,
                "kuid": "cae1ae97112d46da8fa7e20d3d434a32",
                "srcKUID": "eb2d311dcb4744a7b05aa4f5428a6c53",
                "wType": "FlexContainer"
            },
            "centerX": {},
            "responsiveData": {
                "b1": {
                    "centerX": {
                        "type": "string",
                        "value": "50%"
                    },
                    "top": {
                        "type": "string",
                        "value": "300dp"
                    },
                    "width": {
                        "type": "string",
                        "value": "44.30%"
                    }
                },
                "b2": {
                    "centerX": {
                        "type": "string",
                        "value": "50%"
                    },
                    "top": {
                        "type": "string",
                        "value": "300dp"
                    },
                    "width": {
                        "type": "string",
                        "value": "44.30%"
                    }
                },
                "b3": {
                    "centerX": {
                        "type": "string",
                        "value": "50%"
                    },
                    "top": {
                        "type": "string",
                        "value": "300dp"
                    },
                    "width": {
                        "type": "string",
                        "value": "75%"
                    }
                },
                "b4": {
                    "centerX": {
                        "type": "string",
                        "value": "50%"
                    },
                    "top": {
                        "type": "string",
                        "value": "300dp"
                    },
                    "width": {
                        "type": "string",
                        "value": "44.30%"
                    },
                    "zIndex": 1100
                }
            },
            "top": {},
            "width": {},
            "zIndex": {}
        },
        "btnNo": {
            "__events__": {
                "ide_onClick": "AS_Button_d41082f192994e20946e6c53ff29bce6"
            },
            "__info__": {
                "kuid": "b1794ae09c174aa4b45ebcacd1322015",
                "srcKUID": "h61577b4448c4e22a2636221e8fe0d6d",
                "wType": "Button"
            }
        },
        "btnYes": {
            "__events__": {},
            "__info__": {
                "kuid": "f4ef16a5c3ef448987ba00f0c3077ba8",
                "srcKUID": "e1c11d09edb846848d4aaf921cb1e5a0",
                "wType": "Button"
            }
        },
        "flxCross": {
            "__events__": {
                "ide_onClick": "AS_FlexContainer_d18031f7a618483983aa7387aa6c793e"
            },
            "__info__": {
                "kuid": "f751f72fc93c44039bfafc56d1bee19a",
                "srcKUID": "e896a8d6e1244397be41e1011101c6ec",
                "wType": "FlexContainer"
            }
        },
        "flxHeader": {
            "__events__": {},
            "__info__": {
                "kuid": "c3711ffd416947fd9b12c4a6a6e83e39",
                "srcKUID": "b6d465d7232a428eba11c466c6843856",
                "wType": "FlexContainer"
            }
        },
        "flxSeperator": {
            "__events__": {},
            "__info__": {
                "kuid": "e279f3aa88a843a78be97acd5d4850bb",
                "srcKUID": "b469cc45156e429d8fa47b9786168d10",
                "wType": "FlexContainer"
            }
        },
        "flxSeperator2": {
            "__events__": {},
            "__info__": {
                "kuid": "b3b050891c4744308d6f9c258191280f",
                "srcKUID": "e909e4e4b4a145b1aa92b22ece7050d3",
                "wType": "FlexContainer"
            }
        },
        "imgCross": {
            "__events__": {},
            "__info__": {
                "kuid": "gbc256bc2a3b463da991002e30c55564",
                "srcKUID": "ja13bba308404016b1cd223dbcdf01ae",
                "wType": "Image"
            },
            "src": "icon_close_grey.png"
        },
        "lblHeading": {
            "__events__": {},
            "__info__": {
                "kuid": "j671a6865d554300a25e5fdf6b188a8b",
                "srcKUID": "f97c1408984847af9f3cd9984a260c74",
                "wType": "Label"
            },
            "i18n_text": "i18n.transfers.Cancel",
            "responsiveData": {
                "b4": {
                    "text": "Cancel"
                }
            },
            "text": "QUIT BILL PAY"
        },
        "lblPopupMessage": {
            "__events__": {},
            "__info__": {
                "kuid": "a09c8da92b774cd0a43a7964c1d5888f",
                "srcKUID": "f7c7509dccf24b88aeb13dc3d34fcc6b",
                "wType": "Label"
            },
            "i18n_text": "i18n.wireTransfers.cancelAddRecipient",
            "responsiveData": {
                "b4": {
                    "text": "Are you sure you want to cancel ‘adding this recipient’?"
                }
            },
            "text": "Are you sure you want to cancel this transaction?"
        }
    },
    "desktopweb": {},
    "enablescrolling": true,
    "id": "CancelCustomPopup",
    "info": null,
    "ipad": {},
    "iphone": {},
    "isdatareferenced": false,
    "isvisible": true,
    "kiosk": {},
    "kuid": "cae1ae97112d46da8fa7e20d3d434a32",
    "layouttype": 2,
    "masterType": 0,
    "name": "kony.ui.UserWidgetInstance",
    "parent": "flxCancelPopUp",
    "pf": "frmFastActiveAck",
    "responsiveData": {
        "b1": {
            "centerX": {
                "type": "string",
                "value": "50%"
            },
            "top": {
                "type": "string",
                "value": "300dp"
            },
            "width": {
                "type": "string",
                "value": "44.30%"
            }
        },
        "b2": {
            "centerX": {
                "type": "string",
                "value": "50%"
            },
            "top": {
                "type": "string",
                "value": "300dp"
            },
            "width": {
                "type": "string",
                "value": "44.30%"
            }
        },
        "b3": {
            "centerX": {
                "type": "string",
                "value": "50%"
            },
            "top": {
                "type": "string",
                "value": "300dp"
            },
            "width": {
                "type": "string",
                "value": "75%"
            }
        },
        "b4": {
            "centerX": {
                "type": "string",
                "value": "50%"
            },
            "top": {
                "type": "string",
                "value": "300dp"
            },
            "width": {
                "type": "string",
                "value": "44.30%"
            },
            "zIndex": 1100
        }
    },
    "snapgridsize": 10,
    "snaptogrid": true,
    "sourceUserWidget": "eb2d311dcb4744a7b05aa4f5428a6c53",
    "spa": {},
    "spaan": {},
    "spaandroidtablet": {},
    "spabb": {},
    "spaip": {},
    "spaipad": {},
    "spamobile": {},
    "spatablet": {},
    "spawindowstablet": {},
    "spawinphone8": {},
    "tabrcandroid": {},
    "vizProps": {
        "hidewidgethierarchy": false
    },
    "wType": "UserWidgetInstance",
    "windows10": {},
    "windows8": {},
    "winphone10": {},
    "winphone8": {},
    "zindex": 1
}