{
    "DNDConfig": null,
    "__parentReadjusting__": false,
    "_height_": {
        "type": "ref",
        "value": "preferred"
    },
    "_left_": {
        "type": "string",
        "value": "0dp"
    },
    "_margin_": [
        0,
        0,
        0,
        0
    ],
    "_orientation_": 6,
    "_padding_": [
        0,
        0,
        0,
        0
    ],
    "_percent_": true,
    "_skin_": "sdc143f0e5b64ae3a3f155f691c73fa7",
    "_top_": {
        "type": "string",
        "value": "0dp"
    },
    "_width_": {
        "type": "string",
        "value": "590px"
    },
    "allboxes": [],
    "autogrowmode": 1,
    "canUpdateUI": true,
    "children": [
        "flxAcknowledgementHeader",
        "lblSuccessMessage",
        "ImgAcknowledged"
    ],
    "clipbounds": false,
    "containerweight": 100,
    "enablescrolling": true,
    "id": "flxSuccess",
    "info": null,
    "iscustomlayout": false,
    "isvisible": true,
    "kuid": "ccd3d2d3c85e4e6ea522c6a1d1352577",
    "layouttype": 4,
    "minheight": {
        "type": "string",
        "value": "400dp"
    },
    "name": "kony.ui.FlexContainer",
    "parent": "flxcontent",
    "pf": "frmFastActiveAck",
    "responsiveData": {
        "b1": {
            "left": {
                "type": "string",
                "value": "6.07%"
            },
            "width": {
                "type": "string",
                "value": "43.27%"
            }
        },
        "b2": {
            "width": {
                "type": "string",
                "value": "100%"
            }
        },
        "b3": {
            "width": {
                "type": "string",
                "value": "100%"
            }
        },
        "b4": {
            "skin": "sdc143f0e5b64ae3a3f155f691c73fa7"
        }
    },
    "retaincontentalignment": false,
    "retainflexpositionproperties": false,
    "retainflowhorizontalalignment": false,
    "snapgridsize": 10,
    "snaptogrid": true,
    "wType": "FlexContainer",
    "widgetalignment": 1,
    "zindex": 1
}