{
    "DNDConfig": null,
    "__parentReadjusting__": false,
    "_height_": {
        "type": "string",
        "value": "490px"
    },
    "_left_": {
        "type": "string",
        "value": "0dp"
    },
    "_margin_": [
        0,
        0,
        0,
        0
    ],
    "_orientation_": 6,
    "_padding_": [
        0,
        0,
        0,
        0
    ],
    "_percent_": true,
    "_skin_": "se2c51e2a5574dcc8bc00a48bc7649ca",
    "_top_": {
        "type": "string",
        "value": "0dp"
    },
    "_width_": {
        "type": "string",
        "value": "100%"
    },
    "allboxes": [],
    "autogrowmode": 0,
    "canUpdateUI": true,
    "children": [
        "flxIdentifier",
        "flxSelectedRowWrapper"
    ],
    "clipbounds": true,
    "containerId": true,
    "containerweight": 100,
    "controllerInfo": {
        "default": {
            "channel": "desktop",
            "name": "flxRecentsWireTransfersMobileSelectedNewController"
        }
    },
    "enablescrolling": true,
    "friendlyName": "flxRecentsWireTransfersMobileSelectedNew",
    "id": "flxRecentsWireTransfersMobileSelectedNew",
    "info": null,
    "isTemplate": true,
    "isvisible": true,
    "kuid": "daa92a272c2a4f95a812f2b970bf6835",
    "layouttype": 2,
    "name": "kony.ui.FlexContainer",
    "parent": "segRecentsWireTransfersMobileSelectedNew",
    "pf": "segRecentsWireTransfersMobileSelectedNew",
    "snapgridsize": 10,
    "snaptogrid": true,
    "wType": "FlexContainer",
    "widgetalignment": 1,
    "zindex": 2
}