{
    "DNDConfig": null,
    "_height_": {
        "type": "string",
        "value": "50px"
    },
    "_margin_": [
        0,
        0,
        0,
        0
    ],
    "_orientation_": 6,
    "_padding_": [
        0,
        0,
        0,
        0
    ],
    "_percent_": true,
    "_skin_": "s344174b66d24a22be7a954acfcdefc5",
    "allboxes": [],
    "autogrowmode": 0,
    "canUpdateUI": true,
    "children": [
        "lblMyRequestsHeader",
        "flxBottomSeperator"
    ],
    "clipbounds": true,
    "containerId": true,
    "containerweight": 100,
    "controllerInfo": {
        "default": {
            "channel": "desktop",
            "name": "flxMyRequestsHeaderController"
        }
    },
    "enablescrolling": true,
    "id": "flxMyRequestsHeader",
    "info": null,
    "isTemplate": true,
    "isvisible": true,
    "kuid": "fa010b6251c74a34b6dc51293c178764",
    "layouttype": 2,
    "name": "kony.ui.FlexContainer",
    "parent": "segMyRequestsHeader",
    "pf": "segMyRequestsHeader",
    "snapgridsize": 10,
    "snaptogrid": true,
    "wType": "FlexContainer",
    "widgetalignment": 1
}