{
    "DNDConfig": null,
    "__parentReadjusting__": false,
    "_height_": {
        "type": "ref",
        "value": "preferred"
    },
    "_left_": {
        "type": "string",
        "value": "0dp"
    },
    "_margin_": [
        0,
        0,
        0,
        0
    ],
    "_orientation_": 6,
    "_padding_": [
        0,
        0,
        0,
        0
    ],
    "_percent_": true,
    "_skin_": "s24c92fc23b14f5484b693ee9b8a9b35",
    "_top_": {
        "type": "string",
        "value": "0dp"
    },
    "_width_": {
        "type": "string",
        "value": "100%"
    },
    "allboxes": [],
    "autogrowmode": 1,
    "canUpdateUI": true,
    "children": [
        "lblWarning",
        "flxcustomerDetailsKA",
        "flxHorizantalLineKA",
        "flxAddOrCancelKA"
    ],
    "clipbounds": true,
    "containerweight": 100,
    "enablescrolling": true,
    "id": "flxDomesticDetailsKA",
    "info": null,
    "isvisible": true,
    "kuid": "d9bb7652d00849a9b01a27aaf7d8596b",
    "layouttype": 4,
    "name": "kony.ui.FlexContainer",
    "parent": "flxInternationalAccount",
    "pf": "frmFastAddInternationalAccount",
    "responsiveData": {
        "b2": {}
    },
    "snapgridsize": 10,
    "snaptogrid": true,
    "wType": "FlexContainer",
    "widgetalignment": 1,
    "zindex": 1
}