{
    "@class": "com.kony.gen.viz.model.component.KVizImage2",
    "DNDConfig": null,
    "__parentReadjusting__": false,
    "_base64_": null,
    "_height_": {
        "type": "string",
        "value": "16dp"
    },
    "_left_": {
        "type": "string",
        "value": "1%"
    },
    "_margin_": [
        0,
        0,
        0,
        0
    ],
    "_padding_": [
        0,
        0,
        0,
        0
    ],
    "_skin_": "s2f6e58e8de34220ac2050921dbdfc20",
    "_src_": "info_grey.png",
    "_top_": {
        "type": "string",
        "value": "3px"
    },
    "_width_": {
        "type": "string",
        "value": "16dp"
    },
    "accessibilityconfig": {
        "a11yLabel": "Info",
        "a11yValue": ""
    },
    "canUpdateUI": true,
    "containerweight": 100,
    "id": "imgInfoKA",
    "imagescalemode": 1,
    "imagewhiledownloading": "img_transparent.png",
    "info": null,
    "invokedProperty": "src",
    "isvisible": true,
    "kuid": "i769d0ca254240e7a10daf55bd72cb5f",
    "name": "kony.ui.Image2",
    "paddinginpixel": false,
    "parent": "flxInfoKA",
    "pf": "frmFastAddInternationalAccount",
    "srcType": 1,
    "wType": "Image",
    "widgetalignment": 5,
    "zindex": 1
}