{
    "@class": "com.kony.gen.viz.model.component.KVizButton",
    "DNDConfig": null,
    "_height_": {
        "type": "string",
        "value": "40dp"
    },
    "_left_": {
        "type": "string",
        "value": "0dp"
    },
    "_margin_": [
        6,
        6,
        6,
        6
    ],
    "_padding_": [
        0,
        0,
        0,
        0
    ],
    "_skin_": "se4cbdf6e51f48eda9966caa941d3a04",
    "_text_": "Previous 7 Days",
    "_width_": {
        "type": "string",
        "value": "150dp"
    },
    "accessibilityconfig": {
        "a11yLabel": "Locate Us"
    },
    "canUpdateUI": true,
    "centery": {
        "type": "string",
        "value": "50%"
    },
    "containerweight": 100,
    "contentalignment": 5,
    "desktopweb": {
        "psp": {
            "hoverSkin": "s293e226e8f945ddb4137c09ee51b794"
        }
    },
    "disabledSkins": {
        "focusSkin": "s293e226e8f945ddb4137c09ee51b794"
    },
    "displaytext": true,
    "focusskin": null,
    "id": "btn1",
    "ide_onClick": "AS_Button_a6c1aa7661ea4381aae74998953b2226",
    "info": null,
    "isvisible": true,
    "kuid": "g80a922dcf20493883d1ca3b2c3be588",
    "name": "kony.ui.Button",
    "parent": "flxDateRange",
    "pf": "userwidgetmodel",
    "responsiveData": {
        "b2": {
            "width": {
                "type": "ref",
                "value": "preferred"
            }
        }
    },
    "tooltip": "Locate Us",
    "wType": "Button",
    "zindex": 1
}