{
    "@class": "com.kony.gen.viz.model.component.KVizButton",
    "DNDConfig": null,
    "__parentReadjusting__": false,
    "_height_": {
        "type": "ref",
        "value": "preferred"
    },
    "_margin_": [
        6,
        6,
        6,
        6
    ],
    "_padding_": [
        0,
        0,
        0,
        0
    ],
    "_skin_": "s611bd2c5d324490aa9f7ed9d412984f",
    "_text_": "Button",
    "_top_": {
        "type": "string",
        "value": "3.280000000000001%"
    },
    "_width_": {
        "type": "ref",
        "value": "preferred"
    },
    "accessibilityconfig": {
        "a11yLabel": "Enter the CVV code"
    },
    "canUpdateUI": true,
    "centerx": {
        "type": "string",
        "value": "50%"
    },
    "containerweight": 100,
    "contentalignment": 5,
    "desktopweb": {
        "psp": {
            "hoverSkin": "s611bd2c5d324490aa9f7ed9d412984f"
        }
    },
    "displaytext": true,
    "focusskin": "sbf72662805b48f3b06b5cd3a5a6fdca",
    "id": "btnUseCVV",
    "info": null,
    "isvisible": true,
    "kuid": "c56dfd27ff054f6ea45dcdf57f52d407",
    "name": "kony.ui.Button",
    "parent": "resetusingOTP",
    "pf": "userwidgetmodel",
    "texti18n": "i18n.common.CVVOption",
    "tooltip": "Use The CVV Code Option",
    "wType": "Button",
    "zindex": 1
}