{
    "DNDConfig": null,
    "_height_": {
        "type": "ref",
        "value": "preferred"
    },
    "_left_": {
        "type": "string",
        "value": "0dp"
    },
    "_margin_": [
        0,
        0,
        0,
        0
    ],
    "_orientation_": 6,
    "_padding_": [
        0,
        0,
        0,
        0
    ],
    "_percent_": true,
    "_skin_": "s24c92fc23b14f5484b693ee9b8a9b35",
    "_top_": {
        "type": "string",
        "value": "0dp"
    },
    "_width_": {
        "type": "string",
        "value": "50%"
    },
    "allboxes": [],
    "autogrowmode": 1,
    "canUpdateUI": true,
    "children": [
        "flxDetail1",
        "CopyflxDetail0ia81c7fc3ea24a",
        "CopyflxDetail0ec53f116c0a644",
        "CopyflxDetail0d5f197a9be254f",
        "CopyflxDetail0a9c02d04f26b47",
        "CopyflxDetail0e24a8cf75c1244"
    ],
    "clipbounds": true,
    "containerweight": 100,
    "enablescrolling": true,
    "id": "flxLeft",
    "info": null,
    "iscustomlayout": false,
    "isvisible": true,
    "kuid": "abfaeeb056044a4594c70319e8b9c7e1",
    "layouttype": 4,
    "name": "kony.ui.FlexContainer",
    "parent": "flxDetails",
    "pf": "userwidgetmodel",
    "retaincontentalignment": false,
    "retainflexpositionproperties": false,
    "retainflowhorizontalalignment": false,
    "snapgridsize": 10,
    "snaptogrid": true,
    "wType": "FlexContainer",
    "widgetalignment": 1,
    "zindex": 1
}