{
    "DNDConfig": null,
    "_height_": {
        "type": "ref",
        "value": "preferred"
    },
    "_left_": {
        "type": "string",
        "value": "20dp"
    },
    "_margin_": [
        0,
        0,
        0,
        0
    ],
    "_orientation_": 6,
    "_padding_": [
        0,
        0,
        0,
        0
    ],
    "_percent_": true,
    "_skin_": "s24c92fc23b14f5484b693ee9b8a9b35",
    "_top_": {
        "type": "string",
        "value": "5dp"
    },
    "_width_": {
        "type": "string",
        "value": "47.50%"
    },
    "allboxes": [],
    "autogrowmode": 1,
    "canUpdateUI": true,
    "children": [
        "CopyflxDetail0b85897d2a69c49",
        "CopyflxDetail0fb3e0d07fc824e",
        "CopyflxDetail0h1ac4e3ace584f",
        "CopyflxDetail0c4ebe02208fa42",
        "CopyflxDetail0e62b98bba9d54a",
        "CopyflxDetail0c4335f26c54940"
    ],
    "clipbounds": true,
    "containerweight": 100,
    "enablescrolling": true,
    "id": "flxLeftMobile",
    "info": null,
    "iscustomlayout": false,
    "isvisible": true,
    "kuid": "aa4ba20fa9c346a09ed8027e2666b773",
    "layouttype": 4,
    "name": "kony.ui.FlexContainer",
    "parent": "flxDetailsWrapper",
    "pf": "userwidgetmodel",
    "retaincontentalignment": false,
    "retainflexpositionproperties": false,
    "retainflowhorizontalalignment": false,
    "snapgridsize": 10,
    "snaptogrid": true,
    "wType": "FlexContainer",
    "widgetalignment": 1,
    "zindex": 1
}