{
    "DNDConfig": null,
    "_height_": {
        "type": "ref",
        "value": "preferred"
    },
    "_margin_": [
        0,
        0,
        0,
        0
    ],
    "_orientation_": 6,
    "_padding_": [
        0,
        0,
        0,
        0
    ],
    "_percent_": true,
    "_right_": {
        "type": "string",
        "value": "7.30%"
    },
    "_skin_": "s24c92fc23b14f5484b693ee9b8a9b35",
    "_top_": {
        "type": "string",
        "value": "12dp"
    },
    "_width_": {
        "type": "string",
        "value": "85%"
    },
    "allboxes": [],
    "autogrowmode": 1,
    "canUpdateUI": true,
    "children": [
        "flxNameDate",
        "rtxMessage",
        "flxDocAttachment1",
        "flxDocAttachment2",
        "flxDocAttachment3",
        "flxDocAttachment4",
        "flxDocAttachment5",
        "flxDummy",
        "lblShowAll"
    ],
    "clipbounds": false,
    "containerId": true,
    "containerweight": 100,
    "enablescrolling": true,
    "id": "flxMessage",
    "info": null,
    "isvisible": true,
    "kuid": "be6866b848ed4f12866dc844dfcf4e91",
    "layouttype": 4,
    "name": "kony.ui.FlexContainer",
    "parent": "flxMessagesRight",
    "pf": "segMessagesRight",
    "snapgridsize": 10,
    "snaptogrid": true,
    "wType": "FlexContainer",
    "widgetalignment": 1,
    "zindex": 1
}