{
	 "@class": "com.kony.gen.viz.model.component.KVizLabel",
	 "DNDConfig": null,
	 "__parentReadjusting__": false,
	 "_height_": {
		 "type": "string",
		 "value": "1dp"
	},
	 "_left_": {
		 "type": "string",
		 "value": "0%"
	},
	 "_margin_": [
		 1,
		 1,
		 1,
		 1
	],
	 "_padding_": [
		 0,
		 0,
		 0,
		 0
	],
	 "_skin_": "s09349f2265649b3ae4b14f3130733b2",
	 "_text_": "Label",
	 "_top_": {
		 "type": "string",
		 "value": "0dp"
	},
	 "_width_": {
		 "type": "string",
		 "value": "100%"
	},
	 "_wrapping_": 2,
	 "android": {
		 "textStyle": {
			 "letterSpacing": 0,
			 "strikeThrough": false
		}
	},
	 "canUpdateUI": true,
	 "containerId": true,
	 "containerweight": 100,
	 "contentalignment": 4,
	 "id": "lblSeperator",
	 "info": null,
	 "ipad": {
		 "psp": {
			 "wrapping": 2
		}
	},
	 "iphone": {
		 "psp": {
			 "wrapping": 2
		}
	},
	 "isvisible": true,
	 "kuid": "ac5ae50ee3ea40e783aca6c246cbfda9",
	 "name": "kony.ui.Label",
	 "parent": "flxTransferType",
	 "pf": "segChangeTransferType",
	 "texti18n": "i18n.transfers.add_kony_accountMod",
	 "tooltip": "ADD KONY ACCOUNT",
	 "wType": "Label",
	 "zindex": 1,
	 "accessibilityconfig": {
		 "a11yHidden": true,
		 "a11yARIA": {
			 "tabindex": -1
		}
	}
}