{
    "@class": "com.kony.gen.viz.model.component.KVizButton",
    "DNDConfig": null,
    "_height_": {
        "type": "string",
        "value": "30dp"
    },
    "_margin_": [
        6,
        6,
        6,
        6
    ],
    "_padding_": [
        0,
        0,
        0,
        0
    ],
    "_right_": {
        "type": "string",
        "value": "20dp"
    },
    "_skin_": "sd3d7d8bf6784b30adadc45c3bbb44e0",
    "_text_": "",
    "_top_": {
        "type": "string",
        "value": "0"
    },
    "_width_": {
        "type": "string",
        "value": "200dp"
    },
    "canUpdateUI": true,
    "centery": {
        "type": "string",
        "value": "50%"
    },
    "containerweight": 100,
    "contentalignment": 6,
    "disabledSkins": {
        "focusSkin": "s5495bd040c94991a043932d65a33261"
    },
    "displaytext": true,
    "id": "btnAccountLevelMatrix",
    "info": null,
    "iscustomlayout": false,
    "isvisible": true,
    "kuid": "db5ef5a4d83a433db88c80be009e4a04",
    "name": "kony.ui.Button",
    "parent": "flxHeaderContainer",
    "pf": "frmViewApprovalMatrix",
    "retaincontentalignment": false,
    "retainflexpositionproperties": false,
    "texti18n": "kony.i18n.approvalMatrix.accountLevelbtn",
    "wType": "Button"
}