{
    "@class": "com.kony.gen.viz.model.component.KVizButton",
    "DNDConfig": null,
    "_height_": {
        "type": "string",
        "value": "50dp"
    },
    "_left_": {
        "type": "string",
        "value": "0"
    },
    "_margin_": [
        6,
        6,
        6,
        6
    ],
    "_padding_": [
        0,
        0,
        0,
        0
    ],
    "_right_": {
        "type": "number",
        "value": ""
    },
    "_skin_": "s3392ef9d10746188bd552dff50e1b72",
    "_text_": "Button",
    "_top_": {
        "type": "string",
        "value": "0"
    },
    "_width_": {
        "type": "string",
        "value": "300dp"
    },
    "canUpdateUI": true,
    "containerweight": 100,
    "contentalignment": 5,
    "desktopweb": {
        "psp": {}
    },
    "disabledSkins": {},
    "displaytext": true,
    "focusskin": "s5495bd040c94991a043932d65a33261",
    "hoverskin": "",
    "id": "btnClearSearch",
    "info": null,
    "iscustomlayout": false,
    "isvisible": true,
    "kuid": "de1bbd0bc0c74a8390ded03a372fe4e3",
    "name": "kony.ui.Button",
    "parent": "flxSearchButtons",
    "pf": "frmMakePayment",
    "responsiveData": {
        "b1": {
            "desktopweb": {
                "psp": {
                    "hoverSkin": "s7ab6326aaf94c28b90b61fcb1b54547"
                }
            },
            "disabledSkins": {},
            "focusSkin": "sfd0ce0d7f454c9f83c7e815a90a8a55",
            "height": {
                "type": "string",
                "value": "40dp"
            },
            "left": {
                "type": "string",
                "value": ""
            },
            "right": {
                "type": "string",
                "value": "28%"
            },
            "skin": "s95376e131db404ebbe858e3b39046ef",
            "text": "Clear",
            "top": {
                "type": "string",
                "value": "20dp"
            },
            "width": {
                "type": "string",
                "value": "22%"
            }
        },
        "b3": {
            "desktopweb": {
                "psp": {
                    "hoverSkin": "s95376e131db404ebbe858e3b39046ef"
                }
            },
            "disabledSkins": {},
            "focusSkin": "s95376e131db404ebbe858e3b39046ef",
            "height": {
                "type": "string",
                "value": "40dp"
            },
            "left": {
                "type": "string",
                "value": "3%"
            },
            "skin": "s95376e131db404ebbe858e3b39046ef",
            "top": {
                "type": "string",
                "value": "20dp"
            },
            "width": {
                "type": "string",
                "value": "45%"
            }
        },
        "b4": {
            "desktopweb": {
                "psp": {
                    "hoverSkin": "s95376e131db404ebbe858e3b39046ef"
                }
            },
            "disabledSkins": {},
            "focusSkin": "s95376e131db404ebbe858e3b39046ef",
            "height": {
                "type": "string",
                "value": "40dp"
            },
            "left": {
                "type": "string",
                "value": "55%"
            },
            "skin": "s95376e131db404ebbe858e3b39046ef",
            "text": "Clear",
            "top": {
                "type": "number",
                "value": "20"
            },
            "width": {
                "type": "string",
                "value": "19%"
            }
        },
        "b5": {
            "desktopweb": {
                "psp": {
                    "hoverSkin": "s95376e131db404ebbe858e3b39046ef"
                }
            },
            "disabledSkins": {},
            "focusSkin": "s95376e131db404ebbe858e3b39046ef",
            "height": {
                "type": "string",
                "value": "40dp"
            },
            "left": {
                "type": "string",
                "value": ""
            },
            "right": {
                "type": "string",
                "value": "28%"
            },
            "skin": "s95376e131db404ebbe858e3b39046ef",
            "top": {
                "type": "string",
                "value": "20dp"
            },
            "width": {
                "type": "string",
                "value": "22%"
            }
        }
    },
    "retaincontentalignment": false,
    "retainflexpositionproperties": false,
    "texti18n": "i18n.TransfersEur.clear",
    "tooltip": "Clear Selection",
    "wType": "Button"
}