{
    "DNDConfig": null,
    "_height_": {
        "type": "ref",
        "value": "preferred"
    },
    "_left_": {
        "type": "string",
        "value": "0dp"
    },
    "_margin_": [
        0,
        0,
        0,
        0
    ],
    "_orientation_": 6,
    "_padding_": [
        0,
        0,
        0,
        0
    ],
    "_percent_": true,
    "_skin_": "s24c92fc23b14f5484b693ee9b8a9b35",
    "_top_": {
        "type": "string",
        "value": "0dp"
    },
    "_width_": {
        "type": "string",
        "value": "60%"
    },
    "allboxes": [],
    "autogrowmode": 1,
    "canUpdateUI": true,
    "children": [
        "segAddedDocuments"
    ],
    "clipbounds": true,
    "containerweight": 100,
    "enablescrolling": true,
    "id": "flxAttachmentsList",
    "info": null,
    "iscustomlayout": false,
    "isvisible": false,
    "kuid": "cf949bdf0f0b41059b395b226410db51",
    "layouttype": 4,
    "name": "kony.ui.FlexContainer",
    "parent": "flxAttachments",
    "pf": "frmMakePayment",
    "responsiveData": {
        "b1": {
            "width": {
                "type": "string",
                "value": "70%"
            }
        },
        "b3": {
            "width": {
                "type": "string",
                "value": "100%"
            }
        },
        "b4": {
            "width": {
                "type": "string",
                "value": "70%"
            }
        },
        "b5": {
            "width": {
                "type": "string",
                "value": "70%"
            }
        }
    },
    "retaincontentalignment": false,
    "retainflexpositionproperties": false,
    "retainflowhorizontalalignment": false,
    "snapgridsize": 10,
    "snaptogrid": true,
    "wType": "FlexContainer",
    "widgetalignment": 1
}