{
    "DNDConfig": null,
    "_bottom_": {
        "type": "string",
        "value": "30dp"
    },
    "_height_": {
        "type": "ref",
        "value": "preferred"
    },
    "_left_": {
        "type": "string",
        "value": "0dp"
    },
    "_margin_": [
        0,
        0,
        0,
        0
    ],
    "_orientation_": 6,
    "_padding_": [
        0,
        0,
        0,
        0
    ],
    "_percent_": true,
    "_skin_": "s24c92fc23b14f5484b693ee9b8a9b35",
    "_top_": {
        "type": "string",
        "value": "0dp"
    },
    "_width_": {
        "type": "string",
        "value": "100%"
    },
    "allboxes": [],
    "autogrowmode": 1,
    "canUpdateUI": true,
    "children": [
        "flxAddAttachment",
        "flxAttachmentsList",
        "flxAttachmentUploadError"
    ],
    "clipbounds": true,
    "containerweight": 100,
    "enablescrolling": true,
    "id": "flxAttachments",
    "info": null,
    "iscustomlayout": false,
    "isvisible": true,
    "kuid": "aeb39823b5684e47813260a12d3e69f5",
    "layouttype": 4,
    "name": "kony.ui.FlexContainer",
    "parent": "flxTransferForm",
    "pf": "frmMakePayment",
    "responsiveData": {
        "b3": {
            "height": {
                "type": "ref",
                "value": "preferred"
            }
        }
    },
    "retaincontentalignment": false,
    "retainflexpositionproperties": false,
    "retainflowhorizontalalignment": false,
    "snapgridsize": 10,
    "snaptogrid": true,
    "wType": "FlexContainer",
    "widgetalignment": 1,
    "zindex": 1
}