{
    "DNDConfig": null,
    "_height_": {
        "type": "string",
        "value": "220dp"
    },
    "_left_": {
        "type": "string",
        "value": "18dp"
    },
    "_margin_": [
        0,
        0,
        0,
        0
    ],
    "_orientation_": 6,
    "_padding_": [
        0,
        0,
        0,
        0
    ],
    "_percent_": true,
    "_skin_": "s24c92fc23b14f5484b693ee9b8a9b35",
    "_top_": {
        "type": "string",
        "value": "17dp"
    },
    "_width_": {
        "type": "string",
        "value": "100%"
    },
    "allboxes": [],
    "canUpdateUI": true,
    "children": [
        "lblradioButton2",
        "flxBankingDay"
    ],
    "clipbounds": true,
    "containerweight": 100,
    "enablescrolling": true,
    "id": "flxOptionTwo",
    "info": null,
    "iscustomlayout": false,
    "isvisible": true,
    "kuid": "faf2f00948cf4130958e745ee6ab27cf",
    "layouttype": 2,
    "minwidth": {
        "type": "number",
        "value": ""
    },
    "name": "kony.ui.FlexContainer",
    "parent": "flxPaymentSelection",
    "pf": "frmMakePayment",
    "responsiveData": {
        "b1": {
            "height": {
                "type": "string",
                "value": "50dp"
            },
            "layoutType": 3,
            "left": {
                "type": "string",
                "value": "0dp"
            },
            "top": {
                "type": "string",
                "value": "11dp"
            },
            "width": {
                "type": "string",
                "value": "100%"
            }
        },
        "b2": {
            "height": {
                "type": "string",
                "value": "50dp"
            },
            "layoutType": 3,
            "left": {
                "type": "string",
                "value": "0dp"
            },
            "minWidth": {
                "type": "string",
                "value": ""
            },
            "width": {
                "type": "string",
                "value": "100%"
            }
        },
        "b3": {
            "height": {
                "type": "string",
                "value": "60dp"
            },
            "isVisible": true,
            "layoutType": 3,
            "left": {
                "type": "string",
                "value": "0%"
            },
            "top": {
                "type": "string",
                "value": "10%"
            },
            "width": {
                "type": "string",
                "value": "96%"
            }
        },
        "b4": {
            "height": {
                "type": "string",
                "value": "50dp"
            },
            "layoutType": 3,
            "left": {
                "type": "string",
                "value": "0dp"
            },
            "top": {
                "type": "string",
                "value": "17dp"
            }
        },
        "b5": {
            "height": {
                "type": "string",
                "value": "50dp"
            },
            "isVisible": true,
            "layoutType": 3,
            "left": {
                "type": "string",
                "value": "0dp"
            },
            "top": {
                "type": "number",
                "value": "10"
            }
        }
    },
    "retaincontentalignment": false,
    "retainflexpositionproperties": false,
    "retainflowhorizontalalignment": false,
    "snapgridsize": 10,
    "snaptogrid": true,
    "wType": "FlexContainer",
    "widgetalignment": 1,
    "zindex": 1
}