{
    "DNDConfig": null,
    "_height_": {
        "type": "string",
        "value": "220dp"
    },
    "_left_": {
        "type": "string",
        "value": "134dp"
    },
    "_margin_": [
        0,
        0,
        0,
        0
    ],
    "_orientation_": 6,
    "_padding_": [
        0,
        0,
        0,
        0
    ],
    "_percent_": true,
    "_skin_": "s24c92fc23b14f5484b693ee9b8a9b35",
    "_top_": {
        "type": "string",
        "value": "0dp"
    },
    "_width_": {
        "type": "string",
        "value": "100%"
    },
    "allboxes": [],
    "canUpdateUI": true,
    "children": [
        "flxPaymentsNew",
        "flxNote",
        "flxButtonsNext"
    ],
    "clipbounds": true,
    "containerweight": 100,
    "enablescrolling": true,
    "id": "flxPayments",
    "info": null,
    "iscustomlayout": false,
    "isvisible": true,
    "kuid": "e0a29df4ec5745ed9fb87fd099d9619d",
    "layouttype": 2,
    "name": "kony.ui.FlexContainer",
    "parent": "flxTrasfersWindow",
    "pf": "frmMakePayment",
    "responsiveData": {
        "b1": {
            "height": {
                "type": "string",
                "value": "350dp"
            },
            "isVisible": false,
            "layoutType": 4,
            "left": {
                "type": "string",
                "value": "0dp"
            }
        },
        "b2": {
            "isVisible": false
        },
        "b3": {
            "height": {
                "type": "string",
                "value": "500dp"
            },
            "isVisible": false,
            "layoutType": 4,
            "left": {
                "type": "string",
                "value": "0dp"
            },
            "top": {
                "type": "string",
                "value": "4dp"
            }
        },
        "b4": {
            "isVisible": false
        },
        "b5": {
            "height": {
                "type": "string",
                "value": "350dp"
            },
            "isVisible": false,
            "layoutType": 4,
            "left": {
                "type": "string",
                "value": "3%"
            }
        }
    },
    "retaincontentalignment": false,
    "retainflexpositionproperties": false,
    "retainflowhorizontalalignment": false,
    "snapgridsize": 10,
    "snaptogrid": true,
    "wType": "FlexContainer",
    "widgetalignment": 1,
    "zindex": 1
}