{
    "DNDConfig": null,
    "_height_": {
        "type": "string",
        "value": "23dp"
    },
    "_left_": {
        "type": "string",
        "value": "30dp"
    },
    "_margin_": [
        0,
        0,
        0,
        0
    ],
    "_orientation_": 6,
    "_padding_": [
        0,
        0,
        0,
        0
    ],
    "_percent_": true,
    "_skin_": "s68cde8c1c40436989962f3559a757ac",
    "_top_": {
        "type": "string",
        "value": "1dp"
    },
    "_width_": {
        "type": "string",
        "value": "21dp"
    },
    "accessibilityconfig": {
        "a11yARIA": {
            "tabindex": 1
        }
    },
    "allboxes": [],
    "canUpdateUI": true,
    "children": [
        "lblRadioBtn1"
    ],
    "clipbounds": false,
    "containerweight": 100,
    "desktopweb": {
        "psp": {
            "hoverSkin": "s3e0ac30f9774278a868cb7c73908a76"
        }
    },
    "enablescrolling": true,
    "id": "flxRadioBtn1",
    "ide_onClick": "AS_FlexContainer_fa74c39d9584422c9d0cd6a23fec4c81",
    "info": null,
    "isvisible": true,
    "kuid": "jb7b5ae4a843413fb38a0e569e693c4f",
    "layouttype": 3,
    "name": "kony.ui.FlexContainer",
    "parent": "flxMe",
    "pf": "frmMakePayment",
    "responsiveData": {
        "b1": {
            "left": {
                "type": "string",
                "value": "1dp"
            }
        },
        "b3": {
            "left": {
                "type": "string",
                "value": ""
            }
        },
        "b4": {
            "left": {
                "type": "string",
                "value": "1dp"
            }
        },
        "b5": {
            "left": {
                "type": "string",
                "value": "1dp"
            }
        }
    },
    "snapgridsize": 10,
    "snaptogrid": true,
    "wType": "FlexContainer",
    "widgetalignment": 1,
    "zindex": 1
}