{
    "DNDConfig": null,
    "_height_": {
        "type": "ref",
        "value": "preferred"
    },
    "_left_": {
        "type": "string",
        "value": "0dp"
    },
    "_margin_": [
        0,
        0,
        0,
        0
    ],
    "_orientation_": 6,
    "_padding_": [
        0,
        0,
        0,
        0
    ],
    "_percent_": true,
    "_skin_": "s576844bc0e148a9a02e6171eac305ac",
    "_top_": {
        "type": "string",
        "value": "0dp"
    },
    "_width_": {
        "type": "string",
        "value": "100%"
    },
    "allboxes": [],
    "autogrowmode": 1,
    "canUpdateUI": true,
    "children": [
        "lblWarning",
        "flxCutOffWarning",
        "flxTransferFrom",
        "flxTransferTo",
        "flxLoan",
        "flxCreditCard",
        "flxBeneficiaryBank",
        "flxContainer3",
        "flxContainer4",
        "flxContainer5",
        "flxFeePaidBy",
        "flxPaymentMedium",
        "flxPaymentReference",
        "flxBeneficiaryNickName",
        "flxAddress",
        "flxAddress1",
        "flxAttachments",
        "flxPaymemtsCutOff",
        "flxTransferSubmit"
    ],
    "clipbounds": false,
    "containerweight": 100,
    "enablescrolling": true,
    "id": "flxTransferForm",
    "info": null,
    "iscustomlayout": false,
    "isvisible": true,
    "kuid": "b6c3b36bb53c4ecc93523551b84f9c36",
    "layouttype": 4,
    "name": "kony.ui.FlexContainer",
    "parent": "flxTrasfersWindow",
    "pf": "frmMakePayment",
    "responsiveData": {
        "b1": {
            "height": {
                "type": "ref",
                "value": "preferred"
            },
            "isVisible": true
        },
        "b2": {},
        "b3": {
            "isVisible": true
        },
        "b4": {
            "isVisible": true
        },
        "b5": {
            "isVisible": true,
            "skin": "s24c92fc23b14f5484b693ee9b8a9b35"
        }
    },
    "retaincontentalignment": false,
    "retainflexpositionproperties": false,
    "snapgridsize": 10,
    "snaptogrid": true,
    "wType": "FlexContainer",
    "widgetalignment": 1,
    "zindex": 5
}