{
    "@class": "com.kony.gen.viz.model.component.KVizLabel",
    "DNDConfig": null,
    "_height_": {
        "type": "ref",
        "value": "preferred"
    },
    "_left_": {
        "type": "string",
        "value": "0%"
    },
    "_margin_": [
        1,
        1,
        1,
        1
    ],
    "_padding_": [
        0,
        0,
        0,
        0
    ],
    "_skin_": "sb57ddd930ef42d5b307efc805cba3d6",
    "_text_": "Payment Type",
    "_top_": {
        "type": "string",
        "value": "2dp"
    },
    "_width_": {
        "type": "ref",
        "value": "preferred"
    },
    "_wrapping_": 2,
    "accessibilityconfig": {
        "a11yLabel": "Payment Type"
    },
    "android": {
        "textStyle": {
            "letterSpacing": 0,
            "strikeThrough": false
        }
    },
    "canUpdateUI": true,
    "containerweight": 100,
    "contentalignment": 4,
    "id": "lblCreditCardPaymentType",
    "info": null,
    "ipad": {
        "psp": {
            "wrapping": 2
        }
    },
    "iphone": {
        "psp": {
            "wrapping": 2
        }
    },
    "iscustomlayout": false,
    "isvisible": true,
    "kuid": "f20cbb56028d4c51ba9dd8ae7cfda5d5",
    "name": "kony.ui.Label",
    "parent": "flxCreditCard",
    "pf": "frmMakePayment",
    "responsiveData": {
        "b1": {},
        "b3": {
            "width": {
                "type": "string",
                "value": "96%"
            }
        },
        "b4": {},
        "b5": {}
    },
    "retaincontentalignment": false,
    "retainflexpositionproperties": false,
    "texti18n": "i18n.TransfersEur.PaymentType",
    "tooltip": "",
    "wType": "Label",
    "zindex": 1
}