{
    "@class": "com.kony.gen.viz.model.component.KVizLabel",
    "DNDConfig": null,
    "_height_": {
        "type": "string",
        "value": "20dp"
    },
    "_left_": {
        "type": "string",
        "value": "9.5%"
    },
    "_margin_": [
        1,
        1,
        1,
        1
    ],
    "_padding_": [
        0,
        0,
        0,
        0
    ],
    "_skin_": "s10e8b1e874b43f8b3545d6a1375c8b5",
    "_text_": "Instant Payment",
    "_top_": {
        "type": "string",
        "value": "1dp"
    },
    "_width_": {
        "type": "ref",
        "value": "preferred"
    },
    "_wrapping_": 2,
    "accessibilityconfig": {
        "a11yLabel": "Instant Payment"
    },
    "android": {
        "textStyle": {
            "letterSpacing": 0,
            "strikeThrough": false
        }
    },
    "canUpdateUI": true,
    "containerweight": 100,
    "contentalignment": 4,
    "id": "lblInstantPayment",
    "info": null,
    "ipad": {
        "psp": {
            "wrapping": 2
        }
    },
    "iphone": {
        "psp": {
            "wrapping": 2
        }
    },
    "isvisible": true,
    "kuid": "a653af8defbf4f78828654a5738cb122",
    "name": "kony.ui.Label",
    "parent": "flxRadioBtn4",
    "pf": "frmMakePayment",
    "responsiveData": {
        "b1": {
            "left": {
                "type": "string",
                "value": "10dp"
            }
        },
        "b3": {
            "left": {
                "type": "string",
                "value": "2%"
            }
        },
        "b4": {
            "left": {
                "type": "string",
                "value": "10dp"
            }
        },
        "b5": {
            "left": {
                "type": "string",
                "value": "10dp"
            }
        }
    },
    "texti18n": "i18n.TransfersEur.InstantPayment",
    "tooltip": "",
    "wType": "Label",
    "zindex": 1
}