{
    "@class": "com.kony.gen.viz.model.component.KVizListBox",
    "DNDConfig": null,
    "_height_": {
        "type": "string",
        "value": "40dp"
    },
    "_left_": {
        "type": "string",
        "value": "0%"
    },
    "_margin_": [
        0,
        0,
        0,
        0
    ],
    "_padding_": [
        2,
        0,
        0,
        0
    ],
    "_skin_": "sd53756c2b454873b2c89cc68c2f8d51",
    "_top_": {
        "type": "string",
        "value": "30dp"
    },
    "_width_": {
        "type": "string",
        "value": "32%"
    },
    "canUpdateUI": true,
    "containerweight": 100,
    "contentalignment": 4,
    "focusskin": "s9eb08f78097439eb767801e8fdeb5cd",
    "groupcells": false,
    "id": "lbxCurrency",
    "info": null,
    "isvisible": true,
    "kuid": "eae47f44acea453aba6cddcd9757f328",
    "masterdata": [
        [
            "Key148",
            "Once"
        ]
    ],
    "name": "kony.ui.ListBox",
    "paddinginpixel": false,
    "parent": "flxContainer4",
    "pf": "frmMakePayment",
    "responsiveData": {
        "b1": {
            "padding": [
                2,
                0,
                2,
                0
            ]
        },
        "b3": {
            "left": {
                "type": "string",
                "value": "2%"
            },
            "padding": [
                2,
                0,
                2,
                0
            ],
            "top": {
                "type": "string",
                "value": "10dp"
            },
            "width": {
                "type": "string",
                "value": "96%"
            }
        },
        "b4": {
            "padding": [
                2,
                0,
                2,
                0
            ]
        },
        "b5": {
            "padding": [
                2,
                0,
                2,
                0
            ]
        }
    },
    "selectedkeys": null,
    "selectedkeyvalue": null,
    "selectedkeyvalues": null,
    "size": 18,
    "viewconfig": {
        "toggleViewConfig": {
            "viewStyle": 0
        }
    },
    "viewtype": 0,
    "wType": "ListBox",
    "zindex": 1
}