{
    "@class": "com.kony.gen.viz.model.container.KVizSegment2",
    "DNDConfig": null,
    "_data_": [
        {
            "imgRemoveAttachment": {
                "@class": "com.viz.ide.model.segment.ImageSegmentData",
                "src": "bbcloseicon.png"
            },
            "lblAttachedDocument": {
                "@class": "com.viz.ide.model.segment.SimpleTextSegmentData",
                "text": "Label"
            },
            "lblAttachedDocumentID": {
                "@class": "com.viz.ide.model.segment.SimpleTextSegmentData",
                "text": "Label"
            }
        },
        {
            "imgRemoveAttachment": {
                "@class": "com.viz.ide.model.segment.ImageSegmentData",
                "src": "bbcloseicon.png"
            },
            "lblAttachedDocument": {
                "@class": "com.viz.ide.model.segment.SimpleTextSegmentData",
                "text": "Label"
            },
            "lblAttachedDocumentID": {
                "@class": "com.viz.ide.model.segment.SimpleTextSegmentData",
                "text": "Label"
            }
        },
        {
            "imgRemoveAttachment": {
                "@class": "com.viz.ide.model.segment.ImageSegmentData",
                "src": "bbcloseicon.png"
            },
            "lblAttachedDocument": {
                "@class": "com.viz.ide.model.segment.SimpleTextSegmentData",
                "text": "Label"
            },
            "lblAttachedDocumentID": {
                "@class": "com.viz.ide.model.segment.SimpleTextSegmentData",
                "text": "Label"
            }
        }
    ],
    "_height_": {
        "type": "ref",
        "value": "preferred"
    },
    "_indicator_": "none",
    "_left_": {
        "type": "string",
        "value": "54dp"
    },
    "_margin_": [
        0,
        0,
        0,
        0
    ],
    "_orientation_": 2,
    "_padding_": [
        0,
        0,
        0,
        0
    ],
    "_top_": {
        "type": "string",
        "value": "6dp"
    },
    "_width_": {
        "type": "string",
        "value": "235dp"
    },
    "autogrowmode": 1,
    "canUpdateUI": true,
    "containerweight": 100,
    "counter": "02",
    "focusedindex": null,
    "focuseditem": null,
    "groupcells": false,
    "hasSections": false,
    "id": "segAddedDocuments",
    "info": null,
    "ipad": {
        "psp": {
            "indicator": "rowselect"
        }
    },
    "iphone": {
        "psp": {
            "indicator": "rowselect"
        }
    },
    "iscustomlayout": false,
    "isvisible": true,
    "kuid": "c67fa18fb44f4a80b4e75593f4b09ac2",
    "masterdata": {},
    "name": "kony.ui.SegmentedUI2",
    "needpageindicator": true,
    "pageoffdotimage": "pageoffdot.png",
    "pageondotimage": "pageondot.png",
    "paginationconfig": {
        "position": "bottom"
    },
    "parent": "flxAttachmentsList",
    "pf": "frmMakePayment",
    "responsiveData": {
        "b1": {
            "width": {
                "type": "string",
                "value": "335dp"
            }
        },
        "b3": {
            "left": {
                "type": "string",
                "value": "50dp"
            },
            "width": {
                "type": "string",
                "value": "80%"
            }
        },
        "b4": {
            "width": {
                "type": "string",
                "value": "335dp"
            }
        },
        "b5": {
            "width": {
                "type": "string",
                "value": "80%"
            }
        }
    },
    "retaincontentalignment": false,
    "retainflexpositionproperties": false,
    "retainselection": false,
    "rowTemplateId": "i0f990f31f834ec6b4c8c58b5d7ab6ca",
    "rowcounter": 2,
    "rowfocusskin": "s0f9bf3c1b3e4a7bb6bf9fd18b0211f2",
    "rowskin": "scf5f90f6ac04976ab88b2a4f7153285",
    "rowtemplate": "flxAttachmentsList",
    "screenlevelwidget": false,
    "seccounter": 0,
    "sectionheaderskin": "sdc4ff4ed1584272be2ae69045dfb29d",
    "selectedRows": null,
    "selectedState": false,
    "selectedindex": null,
    "selectedindices": null,
    "selecteditems": null,
    "selectedsectionindex": 0,
    "selectionbehavior": "default",
    "separatorrequired": false,
    "showscrollbars": false,
    "viewtype": "tableview",
    "vizProps": {},
    "wType": "Segment",
    "widgetalignment": 5,
    "widgetdatamap": {
        "flxAttachment": "flxAttachment",
        "flxAttachmentsList": "flxAttachmentsList",
        "imgRemoveAttachment": "imgRemoveAttachment",
        "lblAttachedDocument": "lblAttachedDocument",
        "lblAttachedDocumentID": "lblAttachedDocumentID"
    },
    "zindex": 1
}