{
    "@class": "com.kony.gen.viz.model.component.KVizUserWidget",
    "DNDConfig": null,
    "__parentReadjusting__": false,
    "_android_": {},
    "_androidwearos_": {},
    "_children_": [],
    "_desktopweb_": {},
    "_height_": {
        "type": "string",
        "value": "111dp"
    },
    "_ipad_": {},
    "_iphone_": {},
    "_kiosk_": {},
    "_margin_": [
        0,
        0,
        0,
        0
    ],
    "_orientation_": 1,
    "_padding_": [
        0,
        0,
        0,
        0
    ],
    "_percent_": true,
    "_responsiveData_": {
        "b3": {
            "height": {
                "type": "string",
                "value": "140dp"
            }
        }
    },
    "_skin_": "s24c92fc23b14f5484b693ee9b8a9b35",
    "_spa_": {},
    "_spaan_": {},
    "_spaandroidtablet_": {},
    "_spabb_": {},
    "_spaip_": {},
    "_spaipad_": {},
    "_spamobile_": {},
    "_spatablet_": {},
    "_spawindowstablet_": {},
    "_spawinphone8_": {},
    "_tabrcandroid_": {},
    "_top_": {
        "type": "string",
        "value": "0dp"
    },
    "_vizProps_": {
        "hidewidgethierarchy": false
    },
    "_width_": {
        "type": "string",
        "value": "100%"
    },
    "_windows10_": {},
    "_windows8_": {},
    "_winphone10_": {},
    "_winphone8_": {},
    "android": {},
    "androidwearos": {},
    "areflexpropsreferenced": false,
    "autogrowmode": 0,
    "canUpdateUI": true,
    "centerx": {
        "type": "string",
        "value": "50%"
    },
    "clipbounds": true,
    "containerweight": 0,
    "dataDiffs": {
        "btnCancel": {
            "__events__": {},
            "__info__": {
                "kuid": "i871b04bb7164ebd84660ef3c858e25c",
                "srcKUID": "e47a358a81aa4a0da07a4a7c8e127177",
                "wType": "Button"
            },
            "centerX": {},
            "centerY": {},
            "i18n_text": "i18n.konybb.common.cancel",
            "left": {},
            "responsiveData": {
                "b1": {
                    "centerX": {
                        "type": "string",
                        "value": ""
                    },
                    "centerY": {
                        "type": "string",
                        "value": "50%"
                    },
                    "left": {
                        "type": "string",
                        "value": ""
                    },
                    "right": {
                        "type": "string",
                        "value": "210dp"
                    },
                    "width": {
                        "type": "string",
                        "value": "170dp"
                    }
                },
                "b2": {
                    "centerX": {
                        "type": "string",
                        "value": ""
                    },
                    "centerY": {
                        "type": "string",
                        "value": "50%"
                    },
                    "left": {
                        "type": "string",
                        "value": ""
                    },
                    "right": {
                        "type": "string",
                        "value": "210dp"
                    },
                    "width": {
                        "type": "string",
                        "value": "170dp"
                    }
                },
                "b3": {
                    "centerX": {
                        "type": "string",
                        "value": ""
                    },
                    "centerY": {
                        "type": "string",
                        "value": "50%"
                    },
                    "desktopweb": {
                        "centerY": {
                            "type": "string",
                            "value": "50.00%"
                        }
                    },
                    "left": {
                        "type": "string",
                        "value": ""
                    },
                    "right": {
                        "type": "string",
                        "value": "210dp"
                    },
                    "width": {
                        "type": "string",
                        "value": "170dp"
                    }
                },
                "b4": {
                    "centerY": {
                        "type": "string",
                        "value": ""
                    },
                    "desktopweb": {},
                    "left": {
                        "type": "string",
                        "value": "2.50%"
                    },
                    "top": {
                        "type": "number",
                        "value": "70"
                    },
                    "width": {
                        "type": "string",
                        "value": "95%"
                    }
                }
            },
            "right": {},
            "text": "",
            "top": {},
            "width": {}
        },
        "btnNext": {
            "__events__": {},
            "__info__": {
                "kuid": "f8b70d29f3c849a1809e7101865d2627",
                "srcKUID": "b82d156418d9458d809e69dc41992a16",
                "wType": "Button"
            },
            "centerX": {},
            "centerY": {},
            "i18n_text": null,
            "left": {
                "Default": {
                    "type": "string",
                    "value": "79.83%"
                }
            },
            "responsiveData": {
                "b1": {
                    "left": {
                        "type": "string",
                        "value": ""
                    },
                    "right": {
                        "type": "string",
                        "value": "20dp"
                    },
                    "text": "Browse",
                    "width": {
                        "type": "string",
                        "value": "170dp"
                    }
                },
                "b2": {
                    "left": {
                        "type": "string",
                        "value": ""
                    },
                    "width": {
                        "type": "string",
                        "value": "170dp"
                    }
                },
                "b3": {
                    "centerX": {
                        "type": "string",
                        "value": ""
                    },
                    "centerY": {
                        "type": "string",
                        "value": "50%"
                    },
                    "left": {
                        "type": "string",
                        "value": ""
                    },
                    "right": {
                        "type": "string",
                        "value": "20dp"
                    },
                    "width": {
                        "type": "string",
                        "value": "170dp"
                    }
                },
                "b4": {
                    "centerY": {
                        "type": "string",
                        "value": ""
                    },
                    "left": {
                        "type": "string",
                        "value": "2.50%"
                    },
                    "top": {
                        "type": "string",
                        "value": "20dp"
                    },
                    "width": {
                        "type": "string",
                        "value": "95%"
                    }
                }
            },
            "right": {},
            "text": "Browse",
            "top": {},
            "width": {
                "Default": {
                    "type": "string",
                    "value": "17.66%"
                }
            }
        },
        "btnOption": {
            "__events__": {},
            "__info__": {
                "kuid": "j034cbace91b457bad481d9e10397258",
                "srcKUID": "ebf49918aa7a419fb39b29e23b734b42",
                "wType": "Button"
            },
            "centerX": {},
            "height": {
                "Default": {
                    "type": "string",
                    "value": "41dp"
                }
            },
            "isVisible": false,
            "left": {},
            "responsiveData": {
                "b1": {
                    "isVisible": false,
                    "left": {
                        "type": "string",
                        "value": ""
                    },
                    "right": {
                        "type": "string",
                        "value": "400dp"
                    },
                    "width": {
                        "type": "string",
                        "value": "170dp"
                    }
                },
                "b2": {
                    "isVisible": false,
                    "left": {
                        "type": "string",
                        "value": ""
                    },
                    "right": {
                        "type": "string",
                        "value": "400dp"
                    },
                    "width": {
                        "type": "string",
                        "value": "170dp"
                    }
                },
                "b3": {
                    "centerX": {
                        "type": "string",
                        "value": ""
                    },
                    "centerY": {
                        "type": "string",
                        "value": "50.00%"
                    },
                    "isVisible": false,
                    "left": {
                        "type": "string",
                        "value": ""
                    },
                    "right": {
                        "type": "string",
                        "value": "400dp"
                    },
                    "width": {
                        "type": "string",
                        "value": "170dp"
                    }
                }
            },
            "right": {},
            "width": {}
        },
        "flxMain": {
            "__events__": {},
            "__info__": {
                "kuid": "a061488b35f54b11adce3f353137b3a2",
                "srcKUID": "d54f919210284a3a8ba217e23f749884",
                "wType": "FlexContainer"
            },
            "centerY": {
                "Default": {
                    "type": "number",
                    "value": ""
                }
            },
            "responsiveData": {
                "b2": {},
                "b3": {
                    "left": {
                        "type": "string",
                        "value": "0dp"
                    },
                    "top": {
                        "type": "string",
                        "value": "0dp"
                    }
                }
            }
        },
        "formActionsNew": {
            "__events__": {},
            "__info__": {
                "isRoot": true,
                "kuid": "b823a3b438df4041bcd9bee2dde7c809",
                "srcKUID": "a571c5a347394d3fb1e9debcf70da170",
                "wType": "FlexContainer"
            },
            "autogrowMode": {
                "Default": 0
            },
            "height": {},
            "isVisible": true,
            "responsiveData": {
                "b4": {
                    "height": {
                        "type": "string",
                        "value": "140dp"
                    }
                }
            }
        }
    },
    "desktopweb": {},
    "enablescrolling": true,
    "id": "filesFormActionsNew",
    "info": null,
    "ipad": {},
    "iphone": {},
    "iscustomlayout": false,
    "isdatareferenced": false,
    "isvisible": true,
    "kiosk": {},
    "kuid": "b823a3b438df4041bcd9bee2dde7c809",
    "layouttype": 2,
    "masterType": 0,
    "name": "kony.ui.UserWidgetInstance",
    "parent": "flxFilesBulkWireFileActions",
    "pf": "frmAddBulkTransferFile",
    "responsiveData": {
        "b4": {
            "height": {
                "type": "string",
                "value": "140dp"
            }
        }
    },
    "retaincontentalignment": false,
    "retainflexpositionproperties": false,
    "snapgridsize": 10,
    "snaptogrid": true,
    "sourceUserWidget": "a571c5a347394d3fb1e9debcf70da170",
    "spa": {},
    "spaan": {},
    "spaandroidtablet": {},
    "spabb": {},
    "spaip": {},
    "spaipad": {},
    "spamobile": {},
    "spatablet": {},
    "spawindowstablet": {},
    "spawinphone8": {},
    "tabrcandroid": {},
    "vizProps": {
        "hidewidgethierarchy": false
    },
    "wType": "UserWidgetInstance",
    "windows10": {},
    "windows8": {},
    "winphone10": {},
    "winphone8": {},
    "zindex": 1
}