{
    "@class": "com.kony.gen.viz.model.component.KVizRichText",
    "DNDConfig": null,
    "__parentReadjusting__": false,
    "_height_": {
        "type": "ref",
        "value": "preferred"
    },
    "_left_": {
        "type": "string",
        "value": "27.93%"
    },
    "_margin_": [
        0,
        0,
        0,
        0
    ],
    "_padding_": [
        0,
        0,
        0,
        0
    ],
    "_skin_": "sff8f62f3bef42f0a7bede370ab1fcdb",
    "_text_": "<body> Your file has been uploaded successfully</body>",
    "_width_": {
        "type": "string",
        "value": "70%"
    },
    "_wrapping_": 2,
    "canUpdateUI": true,
    "centery": {
        "type": "string",
        "value": "59.48%"
    },
    "containerweight": 100,
    "contentalignment": 4,
    "id": "rTextSuccess",
    "info": null,
    "iscustomlayout": false,
    "isvisible": true,
    "kuid": "c5914752c187498ca8c14e21af05b139",
    "linkskin": "s68be632cc934210829c785f1cfb09f0",
    "name": "kony.ui.RichText",
    "parent": "flxAckContainer",
    "pf": "frmAddBulkTransferFile",
    "responsiveData": {
        "b4": {
            "centerY": {
                "type": "string",
                "value": "59.48%"
            },
            "left": {
                "type": "string",
                "value": "15.10%"
            }
        }
    },
    "retaincontentalignment": false,
    "retainflexpositionproperties": false,
    "wType": "RichText",
    "widgetalignment": 5,
    "zindex": 1
}