{
    "@class": "com.kony.gen.viz.model.component.KVizButton",
    "DNDConfig": null,
    "_height_": {
        "type": "string",
        "value": "40dp"
    },
    "_left_": {
        "type": "string",
        "value": ""
    },
    "_margin_": [
        6,
        6,
        6,
        6
    ],
    "_padding_": [
        0,
        0,
        0,
        0
    ],
    "_right_": {
        "type": "string",
        "value": "30dp"
    },
    "_skin_": "s3392ef9d10746188bd552dff50e1b72",
    "_text_": "Button",
    "_top_": {
        "type": "string",
        "value": "10dp"
    },
    "_width_": {
        "type": "ref",
        "value": "preferred"
    },
    "canUpdateUI": true,
    "centery": {
        "type": "string",
        "value": "50%"
    },
    "containerweight": 100,
    "contentalignment": 5,
    "disabledSkins": {
        "focusSkin": "s5495bd040c94991a043932d65a33261"
    },
    "displaytext": true,
    "id": "btnViewNEdit",
    "info": null,
    "iscustomlayout": false,
    "isvisible": true,
    "kuid": "d48052429a1f455d820ed5ecc4c76960",
    "name": "kony.ui.Button",
    "parent": "flxAccDetails",
    "pf": "frmConfirmAndAck",
    "responsiveData": {
        "b1": {
            "skin": "sd3d7d8bf6784b30adadc45c3bbb44e0",
            "text": "View/Edit",
            "top": {
                "type": "number",
                "value": "0"
            }
        },
        "b2": {
            "right": {
                "type": "string",
                "value": "20dp"
            },
            "skin": "sd3d7d8bf6784b30adadc45c3bbb44e0",
            "top": {
                "type": "string",
                "value": "0dp"
            }
        },
        "b3": {
            "isVisible": false
        },
        "b4": {
            "skin": "sd3d7d8bf6784b30adadc45c3bbb44e0",
            "text": "View/Edit"
        }
    },
    "retaincontentalignment": false,
    "retainflexpositionproperties": false,
    "texti18n": "i18n.userManagement.View",
    "wType": "Button",
    "zindex": 1
}