{
    "DNDConfig": null,
    "_height_": {
        "type": "string",
        "value": "100%"
    },
    "_left_": {
        "type": "string",
        "value": "78%"
    },
    "_margin_": [
        0,
        0,
        0,
        0
    ],
    "_orientation_": 6,
    "_padding_": [
        0,
        0,
        0,
        0
    ],
    "_percent_": true,
    "_skin_": "s24c92fc23b14f5484b693ee9b8a9b35",
    "_top_": {
        "type": "string",
        "value": "0dp"
    },
    "_width_": {
        "type": "string",
        "value": "28.29%"
    },
    "allboxes": [],
    "autogrowmode": 0,
    "canUpdateUI": true,
    "children": [
        "lblAccountAccess",
        "CopyimgSortBankName0d42d27e4670d45"
    ],
    "clipbounds": true,
    "containerweight": 100,
    "enablescrolling": true,
    "id": "flxAutoaccess",
    "info": null,
    "isvisible": true,
    "kuid": "fbc71b7946d34cbe93d95f5263d58c9a",
    "layouttype": 3,
    "name": "kony.ui.FlexContainer",
    "parent": "flxSortMakeTransfers",
    "pf": "frmConfirmAndAck",
    "responsiveData": {
        "b1": {
            "left": {
                "type": "string",
                "value": "76%"
            },
            "width": {
                "type": "string",
                "value": "20%"
            }
        },
        "b2": {
            "left": {
                "type": "string",
                "value": "72%"
            },
            "width": {
                "type": "string",
                "value": "25%"
            }
        },
        "b4": {
            "left": {
                "type": "string",
                "value": "76%"
            },
            "width": {
                "type": "string",
                "value": "20%"
            }
        }
    },
    "snapgridsize": 10,
    "snaptogrid": true,
    "wType": "FlexContainer",
    "widgetalignment": 1,
    "zindex": 1
}