{
    "DNDConfig": null,
    "_height_": {
        "type": "string",
        "value": "220dp"
    },
    "_left_": {
        "type": "string",
        "value": "11dp"
    },
    "_margin_": [
        0,
        0,
        0,
        0
    ],
    "_orientation_": 6,
    "_padding_": [
        0,
        0,
        0,
        0
    ],
    "_percent_": true,
    "_skin_": "sdc143f0e5b64ae3a3f155f691c73fa7",
    "_top_": {
        "type": "string",
        "value": "5dp"
    },
    "_width_": {
        "type": "string",
        "value": "100%"
    },
    "allboxes": [],
    "canUpdateUI": true,
    "centerx": {
        "type": "number",
        "value": ""
    },
    "children": [
        "flxLeftHeader",
        "flxRightHeader"
    ],
    "clipbounds": false,
    "containerweight": 100,
    "enablescrolling": true,
    "id": "flxAcknowledgementHeader",
    "info": null,
    "iscustomlayout": false,
    "isvisible": true,
    "kuid": "h9a805a843574aa1a8fc0a114c1e4bd0",
    "layouttype": 2,
    "name": "kony.ui.FlexContainer",
    "parent": "flxAcknowledgement",
    "pf": "frmConfirmAndAck",
    "responsiveData": {
        "b1": {
            "height": {
                "type": "string",
                "value": "90px"
            },
            "isVisible": false,
            "layoutType": 3,
            "left": {
                "type": "string",
                "value": ""
            },
            "top": {
                "type": "string",
                "value": ""
            },
            "width": {
                "type": "string",
                "value": "100%"
            }
        },
        "b2": {
            "centerX": {
                "type": "string",
                "value": "50%"
            },
            "height": {
                "type": "string",
                "value": "90px"
            },
            "isVisible": false,
            "layoutType": 3,
            "left": {
                "type": "string",
                "value": ""
            },
            "top": {
                "type": "string",
                "value": ""
            },
            "width": {
                "type": "string",
                "value": "100%"
            }
        },
        "b3": {
            "isVisible": false
        },
        "b4": {
            "height": {
                "type": "string",
                "value": "90px"
            },
            "isVisible": false,
            "layoutType": 3,
            "left": {
                "type": "string",
                "value": ""
            },
            "top": {
                "type": "string",
                "value": ""
            }
        }
    },
    "retaincontentalignment": false,
    "retainflexpositionproperties": false,
    "retainflowhorizontalalignment": false,
    "snapgridsize": 10,
    "snaptogrid": true,
    "wType": "FlexContainer",
    "widgetalignment": 1,
    "zindex": 1
}