{
    "DNDConfig": null,
    "_height_": {
        "type": "string",
        "value": "100dp"
    },
    "_left_": {
        "type": "string",
        "value": "0dp"
    },
    "_margin_": [
        0,
        0,
        0,
        0
    ],
    "_orientation_": 6,
    "_padding_": [
        0,
        0,
        0,
        0
    ],
    "_percent_": true,
    "_skin_": "secff68ee7904525acebc42c36c39094",
    "_top_": {
        "type": "string",
        "value": "0px"
    },
    "_width_": {
        "type": "string",
        "value": "100%"
    },
    "allboxes": [],
    "canUpdateUI": true,
    "children": [
        "flxCustomRoleHeader",
        "CopyflxTopSeparator0j3d7ecb3a99649",
        "flxCustomRoleContent",
        "flxCustomRoleSeperator"
    ],
    "clipbounds": false,
    "containerweight": 100,
    "enablescrolling": true,
    "id": "flxCustomRoleUserInfo",
    "info": null,
    "iscustomlayout": false,
    "isvisible": false,
    "kuid": "e43f927d2eb74e61a2cd5ace40aa58f1",
    "layouttype": 2,
    "minheight": {
        "type": "number",
        "value": ""
    },
    "name": "kony.ui.FlexContainer",
    "parent": "flxAcknowledgement",
    "pf": "frmConfirmAndAck",
    "responsiveData": {
        "b1": {
            "layoutType": 4
        },
        "b2": {
            "layoutType": 4
        },
        "b4": {
            "layoutType": 4,
            "minHeight": {
                "type": "string",
                "value": ""
            },
            "width": {
                "type": "string",
                "value": "100%"
            }
        }
    },
    "retaincontentalignment": false,
    "retainflexpositionproperties": false,
    "snapgridsize": 10,
    "snaptogrid": true,
    "wType": "FlexContainer",
    "widgetalignment": 1
}