{
    "DNDConfig": null,
    "_height_": {
        "type": "string",
        "value": "1dp"
    },
    "_left_": {
        "type": "string",
        "value": "0%"
    },
    "_margin_": [
        0,
        0,
        0,
        0
    ],
    "_orientation_": 6,
    "_padding_": [
        0,
        0,
        0,
        0
    ],
    "_percent_": true,
    "_skin_": "s24c92fc23b14f5484b693ee9b8a9b35",
    "_top_": {
        "type": "string",
        "value": "15dp"
    },
    "_width_": {
        "type": "string",
        "value": "100%"
    },
    "allboxes": [],
    "canUpdateUI": true,
    "children": [],
    "clipbounds": true,
    "containerweight": 100,
    "enablescrolling": true,
    "id": "flxCustomRoleSeperator",
    "info": null,
    "iscustomlayout": false,
    "isvisible": true,
    "kuid": "b934b2b05d2f48f58986297e69f78611",
    "layouttype": 2,
    "name": "kony.ui.FlexContainer",
    "parent": "flxCustomRoleUserInfo",
    "pf": "frmConfirmAndAck",
    "responsiveData": {
        "b1": {
            "width": {
                "type": "string",
                "value": "96%"
            }
        },
        "b2": {
            "skin": "s87b7ef5406f426c9e26c6f5130e023a"
        },
        "b4": {
            "skin": "sb64a03ea0f843e3b2e516ce6c79c46a",
            "width": {
                "type": "string",
                "value": "100%"
            }
        }
    },
    "retaincontentalignment": false,
    "retainflexpositionproperties": false,
    "retainflowhorizontalalignment": false,
    "snapgridsize": 10,
    "snaptogrid": true,
    "wType": "FlexContainer",
    "widgetalignment": 1,
    "zindex": 1
}