{
    "@class": "com.kony.gen.viz.model.component.KVizLabel",
    "DNDConfig": null,
    "_height_": {
        "type": "ref",
        "value": "preferred"
    },
    "_left_": {
        "type": "string",
        "value": "33dp"
    },
    "_margin_": [
        1,
        1,
        1,
        1
    ],
    "_padding_": [
        0,
        0,
        0,
        0
    ],
    "_skin_": "s7facb3c022b4bb38d1e831ad35515b6",
    "_text_": "",
    "_top_": {
        "type": "string",
        "value": "33dp"
    },
    "_width_": {
        "type": "ref",
        "value": "preferred"
    },
    "_wrapping_": 2,
    "android": {
        "textStyle": {
            "letterSpacing": 0,
            "strikeThrough": false
        }
    },
    "canUpdateUI": true,
    "centery": {
        "type": "number",
        "value": ""
    },
    "containerweight": 100,
    "contentalignment": 4,
    "id": "lblSuccessMessage",
    "info": null,
    "ipad": {
        "psp": {
            "wrapping": 2
        }
    },
    "iphone": {
        "psp": {
            "wrapping": 2
        }
    },
    "iscustomlayout": false,
    "isvisible": true,
    "kuid": "ef183bdcd426403c81fe4b60e3fb5279",
    "name": "kony.ui.Label",
    "parent": "flxLeftHeader",
    "pf": "frmConfirmAndAck",
    "responsiveData": {
        "b1": {
            "centerY": {
                "type": "string",
                "value": "50%"
            },
            "left": {
                "type": "string",
                "value": ""
            },
            "skin": "s7facb3c022b4bb38d1e831ad35515b6",
            "top": {
                "type": "string",
                "value": ""
            }
        },
        "b2": {
            "centerY": {
                "type": "string",
                "value": "50%"
            },
            "left": {
                "type": "string",
                "value": "21px"
            },
            "skin": "sb14567826f24dbbaed06eb8175f8b94",
            "top": {
                "type": "string",
                "value": "0dp"
            }
        },
        "b4": {
            "centerY": {
                "type": "string",
                "value": "50%"
            },
            "left": {
                "type": "number",
                "value": "0"
            },
            "top": {
                "type": "number",
                "value": "0"
            }
        }
    },
    "retaincontentalignment": false,
    "retainflexpositionproperties": false,
    "texti18n": "i18n.userManagement.usrSuccessfullyCreated",
    "tooltip": "",
    "wType": "Label",
    "zindex": 1
}