{
    "DNDConfig": null,
    "_height_": {
        "type": "string",
        "value": "40dp"
    },
    "_margin_": [
        0,
        0,
        0,
        0
    ],
    "_orientation_": 6,
    "_padding_": [
        0,
        0,
        0,
        0
    ],
    "_percent_": true,
    "_skin_": "sfc58a625c444db8829d062e76bf476e",
    "allboxes": [],
    "autogrowmode": 0,
    "canUpdateUI": true,
    "children": [
        "lblUsers",
        "lblSeparator"
    ],
    "clipbounds": true,
    "containerId": true,
    "containerweight": 100,
    "controllerInfo": {
        "default": {
            "channel": "desktop",
            "name": "CopyflxSegUserActionsController"
        }
    },
    "desktopweb": {
        "psp": {
            "hoverSkin": "se9e7df72f2c44d98bfa4c167a2ec88a"
        }
    },
    "enablescrolling": true,
    "focusskin": "se9e7df72f2c44d98bfa4c167a2ec88a",
    "id": "CopyflxSegUserActions",
    "info": null,
    "isTemplate": true,
    "isvisible": true,
    "kuid": "a62eabd3d998439386bafdeabd86c6ab",
    "layouttype": 2,
    "name": "kony.ui.FlexContainer",
    "parent": "CopysegUserActions",
    "pf": "CopysegUserActions",
    "snapgridsize": 10,
    "snaptogrid": true,
    "wType": "FlexContainer",
    "widgetalignment": 1
}