{
    "DNDConfig": null,
    "_bottom_": {
        "type": "string",
        "value": "5dp"
    },
    "_height_": {
        "type": "string",
        "value": "35dp"
    },
    "_margin_": [
        0,
        0,
        0,
        0
    ],
    "_orientation_": 6,
    "_padding_": [
        0,
        0,
        0,
        0
    ],
    "_percent_": true,
    "_right_": {
        "type": "string",
        "value": "5dp"
    },
    "_skin_": "s24c92fc23b14f5484b693ee9b8a9b35",
    "_width_": {
        "type": "string",
        "value": "5%"
    },
    "allboxes": [],
    "autogrowmode": 0,
    "canUpdateUI": true,
    "children": [
        "imgThreeDotIcon"
    ],
    "clipbounds": true,
    "containerId": true,
    "containerweight": 100,
    "enablescrolling": true,
    "id": "flxMenu",
    "ide_onClick": "AS_FlexContainer_eddabcfb4d4a46708364c4ee8b47273c",
    "ide_onTouchStart": "AS_FlexContainer_h497d69300f547cfb0c63905ace270d8",
    "info": null,
    "isvisible": true,
    "kuid": "de13ad32d18d485e8bb6b3a70c09bd8a",
    "layouttype": 2,
    "name": "kony.ui.FlexContainer",
    "parent": "flxAccountsWrapper",
    "pf": "segAccountsRowTemplateMobile",
    "snapgridsize": 10,
    "snaptogrid": true,
    "wType": "FlexContainer",
    "widgetalignment": 1,
    "zindex": 1
}