{
    "@class": "com.kony.gen.viz.model.container.KVizSegment2",
    "DNDConfig": null,
    "_data_": [{
        "btnCancelRequest": {
            "@class": "com.viz.ide.model.segment.SimpleTextSegmentData",
            "text": ""
        },
        "btnViewMessage": {
            "@class": "com.viz.ide.model.segment.SimpleTextSegmentData",
            "text": ""
        },
        "imgDropdown": {
            "@class": "com.viz.ide.model.segment.SimpleTextSegmentData",
            "text": ""
        },
        "imgError": {
            "@class": "com.viz.ide.model.segment.ImageSegmentData",
            "src": ""
        },
        "imgType": {
            "@class": "com.viz.ide.model.segment.ImageSegmentData",
            "src": ""
        },
        "imgTypeIcon": {
            "@class": "com.viz.ide.model.segment.SimpleTextSegmentData",
            "text": ""
        },
        "imgWarning": {
            "@class": "com.viz.ide.model.segment.ImageSegmentData",
            "src": ""
        },
        "lblAmount": {
            "@class": "com.viz.ide.model.segment.SimpleTextSegmentData",
            "text": ""
        },
        "lblDate": {
            "@class": "com.viz.ide.model.segment.SimpleTextSegmentData",
            "text": ""
        },
        "lblDateOfTransaction": {
            "@class": "com.viz.ide.model.segment.SimpleTextSegmentData",
            "text": ""
        },
        "lblDateOfTransactionValue": {
            "@class": "com.viz.ide.model.segment.SimpleTextSegmentData",
            "text": ""
        },
        "lblDescription": {
            "@class": "com.viz.ide.model.segment.SimpleTextSegmentData",
            "text": ""
        },
        "lblDisputeId": {
            "@class": "com.viz.ide.model.segment.SimpleTextSegmentData",
            "text": ""
        },
        "lblFromAccount": {
            "@class": "com.viz.ide.model.segment.SimpleTextSegmentData",
            "text": ""
        },
        "lblFromValue": {
            "@class": "com.viz.ide.model.segment.SimpleTextSegmentData",
            "text": ""
        },
        "lblIdentifier": {
            "@class": "com.viz.ide.model.segment.SimpleTextSegmentData",
            "text": ""
        },
        "lblIssueHeader": {
            "@class": "com.viz.ide.model.segment.SimpleTextSegmentData",
            "text": ""
        },
        "lblIssueValue": {
            "@class": "com.viz.ide.model.segment.SimpleTextSegmentData",
            "text": ""
        },
        "lblReason": {
            "@class": "com.viz.ide.model.segment.SimpleTextSegmentData",
            "text": ""
        },
        "lblReasonValue": {
            "@class": "com.viz.ide.model.segment.SimpleTextSegmentData",
            "text": ""
        },
        "lblReferenceNoValue": {
            "@class": "com.viz.ide.model.segment.SimpleTextSegmentData",
            "text": ""
        },
        "lblReferenceNumber": {
            "@class": "com.viz.ide.model.segment.SimpleTextSegmentData",
            "text": ""
        },
        "lblSeparator": {
            "@class": "com.viz.ide.model.segment.SimpleTextSegmentData",
            "text": ""
        },
        "lblSeparator2": {
            "@class": "com.viz.ide.model.segment.SimpleTextSegmentData",
            "text": ""
        },
        "lblSeparatorActions": {
            "@class": "com.viz.ide.model.segment.SimpleTextSegmentData",
            "text": ""
        },
        "lblStatus": {
            "@class": "com.viz.ide.model.segment.SimpleTextSegmentData",
            "text": ""
        },
        "lblToTitle": {
            "@class": "com.viz.ide.model.segment.SimpleTextSegmentData",
            "text": ""
        },
        "lblToValue": {
            "@class": "com.viz.ide.model.segment.SimpleTextSegmentData",
            "text": ""
        },
        "lblTransactionType": {
            "@class": "com.viz.ide.model.segment.SimpleTextSegmentData",
            "text": ""
        },
        "lblTypeValue": {
            "@class": "com.viz.ide.model.segment.SimpleTextSegmentData",
            "text": ""
        }
    }],
    "_height_": {
        "type": "ref",
        "value": "preferred"
    },
    "_indicator_": "none",
    "_left_": {
        "type": "string",
        "value": "0dp"
    },
    "_margin_": [
        0,
        0,
        0,
        0
    ],
    "_orientation_": 2,
    "_padding_": [
        0,
        0,
        0,
        0
    ],
    "_top_": {
        "type": "string",
        "value": "0dp"
    },
    "_width_": {
        "type": "string",
        "value": "100%"
    },
    "autogrowmode": 1,
    "canUpdateUI": true,
    "containerweight": 100,
    "counter": "00",
    "disabledSkins": {},
    "focusedindex": null,
    "focuseditem": null,
    "groupcells": false,
    "hasSections": false,
    "id": "segDisputeTransactions",
    "info": null,
    "ipad": {
        "psp": {
            "indicator": "rowselect"
        }
    },
    "iphone": {
        "psp": {
            "indicator": "rowselect"
        }
    },
    "isvisible": true,
    "kuid": "d7c0c68d8e0846cbbf80b081b5265c1b",
    "masterdata": {},
    "name": "kony.ui.SegmentedUI2",
    "needpageindicator": true,
    "pageoffdotimage": "pageoffdot.png",
    "pageondotimage": "pageondot.png",
    "paginationconfig": {
        "position": "bottom"
    },
    "parent": "flxSegmentContainer",
    "pf": "frmDisputedTransactionsList",
    "retainselection": false,
    "rowTemplateId": "ee6fcb96f78a42ad9f86dd7e57909b60",
    "rowcounter": 0,
    "rowfocusskin": "s9f69e977910472eb44c62ae28c41fe1",
    "rowskin": "s971af14e3cc4643bed5bb37c330e87a",
    "rowtemplate": "flxDisputedTransactions",
    "screenlevelwidget": false,
    "seccounter": 0,
    "sectionheaderskin": "sdc4ff4ed1584272be2ae69045dfb29d",
    "selectedRows": null,
    "selectedState": false,
    "selectedindex": null,
    "selectedindices": null,
    "selecteditems": null,
    "selectedsectionindex": 0,
    "selectionbehavior": "default",
    "separatorrequired": false,
    "separatorthickness": 0,
    "showscrollbars": false,
    "viewtype": "tableview",
    "vizProps": {},
    "wType": "Segment",
    "widgetalignment": 5,
    "widgetdatamap": {
        "btnCancelRequest": "btnCancelRequest",
        "btnViewMessage": "btnViewMessage",
        "flxActions": "flxActions",
        "flxActionsWrapper": "flxActionsWrapper",
        "flxAmount": "flxAmount",
        "flxDate": "flxDate",
        "flxDateOfTransaction": "flxDateOfTransaction",
        "flxDescription": "flxDescription",
        "flxDetail": "flxDetail",
        "flxDetailHeader": "flxDetailHeader",
        "flxDisputeId": "flxDisputeId",
        "flxDisputedTransactions": "flxDisputedTransactions",
        "flxDropdown": "flxDropdown",
        "flxFromAccount": "flxFromAccount",
        "flxIdentifier": "flxIdentifier",
        "flxInformation": "flxInformation",
        "flxIssueDescription": "flxIssueDescription",
        "flxLeft": "flxLeft",
        "flxReason": "flxReason",
        "flxReferenceNumber": "flxReferenceNumber",
        "flxRight": "flxRight",
        "flxSegTransactionRowSavings": "flxSegTransactionRowSavings",
        "flxSegTransactionRowWrapper": "flxSegTransactionRowWrapper",
        "flxSelectedRowWrapper": "flxSelectedRowWrapper",
        "flxStatus": "flxStatus",
        "flxToAccount": "flxToAccount",
        "flxTransactionType": "flxTransactionType",
        "flxTypeImage": "flxTypeImage",
        "flxWrapper": "flxWrapper",
        "imgDropdown": "imgDropdown",
        "imgError": "imgError",
        "imgType": "imgType",
        "imgTypeIcon": "imgTypeIcon",
        "imgWarning": "imgWarning",
        "lblAmount": "lblAmount",
        "lblDate": "lblDate",
        "lblDateOfTransaction": "lblDateOfTransaction",
        "lblDateOfTransactionValue": "lblDateOfTransactionValue",
        "lblDescription": "lblDescription",
        "lblDisputeId": "lblDisputeId",
        "lblFromAccount": "lblFromAccount",
        "lblFromValue": "lblFromValue",
        "lblIdentifier": "lblIdentifier",
        "lblIssueHeader": "lblIssueHeader",
        "lblIssueValue": "lblIssueValue",
        "lblReason": "lblReason",
        "lblReasonValue": "lblReasonValue",
        "lblReferenceNoValue": "lblReferenceNoValue",
        "lblReferenceNumber": "lblReferenceNumber",
        "lblSeparator": "lblSeparator",
        "lblSeparator2": "lblSeparator2",
        "lblSeparatorActions": "lblSeparatorActions",
        "lblStatus": "lblStatus",
        "lblToTitle": "lblToTitle",
        "lblToValue": "lblToValue",
        "lblTransactionType": "lblTransactionType",
        "lblTypeValue": "lblTypeValue"
    },
    "widgetskin": "s1db4a47735347358e42e61113c8bc58",
    "zindex": 1
}