{
    "@class": "com.kony.gen.viz.model.component.KVizButton",
    "DNDConfig": null,
    "__parentReadjusting__": false,
    "_height_": {
        "type": "ref",
        "value": "preferred"
    },
    "_left_": {
        "type": "number",
        "value": ""
    },
    "_margin_": [
        6,
        6,
        6,
        6
    ],
    "_padding_": [
        0,
        0,
        0,
        0
    ],
    "_right_": {
        "type": "string",
        "value": "3.70%"
    },
    "_skin_": "se4cbdf6e51f48eda9966caa941c6a19",
    "_text_": "Add New Beneficiary",
    "_top_": {
        "type": "string",
        "value": "15dp"
    },
    "_width_": {
        "type": "ref",
        "value": "preferred"
    },
    "accessibilityconfig": {
        "a11yLabel": "Add New Beneficiary"
    },
    "canUpdateUI": true,
    "containerweight": 100,
    "contentalignment": 5,
    "desktopweb": {
        "psp": {
            "hoverSkin": "sd36babbd8f6461f8b492698ab830d13"
        }
    },
    "disabledSkins": {
        "focusSkin": "sf44d06ca8224832827ea7fdff757013"
    },
    "displaytext": true,
    "id": "btnAddNewBeneficiary",
    "info": null,
    "iscustomlayout": false,
    "isvisible": false,
    "kuid": "e27970b7176e41e485f6e80fb7cf05f7",
    "name": "kony.ui.Button",
    "parent": "flxHeading",
    "pf": "frmManageBeneficiaries",
    "responsiveData": {
        "b2": {
            "isVisible": true,
            "right": {
                "type": "string",
                "value": "2.50%"
            }
        },
        "b3": {
            "isVisible": true,
            "top": {
                "type": "string",
                "value": "5dp"
            }
        }
    },
    "retaincontentalignment": false,
    "retainflexpositionproperties": false,
    "texti18n": "i18n.TransfersEur.AddNewBeneficiary",
    "tooltip": "Add New Beneficiary",
    "wType": "Button",
    "zindex": 5
}