{
    "DNDConfig": null,
    "__parentReadjusting__": false,
    "_height_": {
        "type": "string",
        "value": "0dp"
    },
    "_left_": {
        "type": "string",
        "value": "0dp"
    },
    "_margin_": [
        0,
        0,
        0,
        0
    ],
    "_orientation_": 6,
    "_padding_": [
        0,
        0,
        0,
        0
    ],
    "_percent_": true,
    "_skin_": "sc681e20fcca47828a35daf1b6ea5496",
    "_top_": {
        "type": "string",
        "value": "0dp"
    },
    "_width_": {
        "type": "string",
        "value": "100%"
    },
    "allboxes": [],
    "canUpdateUI": true,
    "children": [
        "lblConfirmHeader",
        "flxHeaderSeperator"
    ],
    "clipbounds": true,
    "containerweight": 100,
    "enablescrolling": true,
    "id": "flxConfirmHeader",
    "info": null,
    "isvisible": true,
    "kuid": "e368a7837c3b449da265db2039199dce",
    "layouttype": 2,
    "name": "kony.ui.FlexContainer",
    "parent": "flxSuccessMessage",
    "pf": "frmWireTransferAddInternationalAccountConfirm",
    "responsiveData": {
        "b3": {
            "height": {
                "type": "string",
                "value": "50dp"
            },
            "isVisible": true
        },
        "b4": {}
    },
    "snapgridsize": 10,
    "snaptogrid": true,
    "wType": "FlexContainer",
    "widgetalignment": 1,
    "zindex": 1
}