{
    "@class": "com.kony.gen.viz.model.component.KVizLabel",
    "DNDConfig": null,
    "_height_": {
        "type": "ref",
        "value": "preferred"
    },
    "_left_": {
        "type": "number",
        "value": ""
    },
    "_margin_": [
        1,
        1,
        1,
        1
    ],
    "_padding_": [
        0,
        0,
        2,
        0
    ],
    "_skin_": "s18d3552bc4143569a7c5aef6bd5eaa1",
    "_text_": "Add Recipient - Acknowledgement",
    "_top_": {
        "type": "string",
        "value": "25dp"
    },
    "_width_": {
        "type": "string",
        "value": "1200dp"
    },
    "_wrapping_": 2,
    "accessibilityconfig": {
        "a11yLabel": "Add Recipient - Acknowledgement"
    },
    "android": {
        "textStyle": {
            "letterSpacing": 0,
            "strikeThrough": false
        }
    },
    "canUpdateUI": true,
    "centerx": {
        "type": "string",
        "value": "50%"
    },
    "containerweight": 100,
    "contentalignment": 4,
    "id": "lblAddAccountHeading",
    "info": null,
    "ipad": {
        "psp": {
            "wrapping": 2
        }
    },
    "iphone": {
        "psp": {
            "wrapping": 2
        }
    },
    "isvisible": true,
    "kuid": "h8a05657df15439a8036a6aa8d1f1914",
    "name": "kony.ui.Label",
    "paddinginpixel": false,
    "parent": "flxMain",
    "pf": "frmWireTransferAddInternationalAccountConfirm",
    "responsiveData": {
        "b1": {
            "skin": "s18d3552bc4143569a7c5aef6bd5eaa1",
            "top": {
                "type": "string",
                "value": "30dp"
            }
        },
        "b2": {
            "isVisible": true,
            "skin": "s18d3552bc4143569a7c5aef6bd5eaa1",
            "top": {
                "type": "string",
                "value": "30dp"
            },
            "width": {
                "type": "string",
                "value": "87.84%"
            }
        },
        "b3": {
            "isVisible": false,
            "top": {
                "type": "string",
                "value": ""
            },
            "width": {
                "type": "string",
                "value": "0dp"
            }
        },
        "b4": {
            "centerX": {
                "type": "string",
                "value": ""
            },
            "height": {
                "type": "string",
                "value": "20dp"
            },
            "left": {
                "type": "string",
                "value": "3.25%"
            },
            "top": {
                "type": "string",
                "value": "30dp"
            },
            "width": {
                "type": "ref",
                "value": "preferred"
            }
        }
    },
    "texti18n": "i18n.PayAPerson.AddRecipientConfirmation",
    "tooltip": "",
    "wType": "Label",
    "zindex": 1
}