{
    "@class": "com.kony.gen.viz.model.component.KVizUserWidget",
    "DNDConfig": null,
    "_children_": [],
    "_height_": {
        "type": "ref",
        "value": "preferred"
    },
    "_left_": {
        "type": "string",
        "value": "0dp"
    },
    "_margin_": [
        0,
        0,
        0,
        0
    ],
    "_orientation_": 1,
    "_padding_": [
        0,
        0,
        0,
        0
    ],
    "_percent_": true,
    "_skin_": "s24c92fc23b14f5484b693ee9b8a9b35",
    "_top_": {
        "type": "string",
        "value": "0dp"
    },
    "_width_": {
        "type": "string",
        "value": "100%"
    },
    "areflexpropsreferenced": false,
    "autogrowmode": 1,
    "canUpdateUI": true,
    "clipbounds": true,
    "containerweight": 0,
    "dataDiffs": {
        "flxColumn1": {
            "__events__": {},
            "__info__": {
                "kuid": "f440deb4cb0a457287dc62413006d58c",
                "srcKUID": "ca2fa3f672ae4a959573870d37e7a3f8",
                "wType": "FlexContainer"
            }
        },
        "flxColumn2": {
            "__events__": {},
            "__info__": {
                "kuid": "e9d365de855e4dee9fc50f101f6a970d",
                "srcKUID": "f2e3442a5303475fa17201d983fdebf2",
                "wType": "FlexContainer"
            }
        },
        "flxColumn3": {
            "__events__": {},
            "__info__": {
                "kuid": "bf003120d9c543259ae42e8e768026f0",
                "srcKUID": "dc37cc4e0c8749989a63876aef88763c",
                "wType": "FlexContainer"
            }
        },
        "flxHeader": {
            "__events__": {},
            "__info__": {
                "kuid": "ha71d67635b64765b69db45fb36d9f24",
                "srcKUID": "fec28b2520e94ea09cfa01883630fbf4",
                "wType": "FlexContainer"
            }
        },
        "flxHorizontalLine1": {
            "__events__": {},
            "__info__": {
                "kuid": "d20432c2adc84782b6b83f87f083bd65",
                "srcKUID": "ab19b02d38ec43c7bc80fee12299f7d6",
                "wType": "FlexContainer"
            }
        },
        "flxHorizontalLine2": {
            "__events__": {},
            "__info__": {
                "kuid": "id0772bead0840ab911395834418510b",
                "srcKUID": "a9344250ce36447399e63467457459b4",
                "wType": "FlexContainer"
            }
        },
        "flxHorizontalLine3": {
            "__events__": {},
            "__info__": {
                "kuid": "b323796eea674d4c9e8a55019eaa0171",
                "srcKUID": "a62d0c6bbf9941e0bbd687cfe0d1c206",
                "wType": "FlexContainer"
            }
        },
        "flxSegContainer": {
            "__events__": {},
            "__info__": {
                "kuid": "gf5fc303cd294955a37eb703df3abe94",
                "srcKUID": "bd3af797d3654f1bbd143ebb0dabfbfe",
                "wType": "FlexContainer"
            }
        },
        "flxSegmentHeader": {
            "__events__": {},
            "__info__": {
                "kuid": "aa0cda3a1457448c991b526683e072b4",
                "srcKUID": "f65203aeba304219b53ed02003f1ba9c",
                "wType": "FlexContainer"
            }
        },
        "flxSortSixColumn": {
            "__events__": {},
            "__info__": {
                "kuid": "d5c1b1ef966149de88a8cb27f4e8dd6e",
                "srcKUID": "f0f7004621b1469096cd7fb516fc7eec",
                "wType": "FlexContainer"
            }
        },
        "imgSortColumn1": {
            "__events__": {},
            "__info__": {
                "kuid": "b27bd84d24c14f08b7608d19ffafaee5",
                "srcKUID": "f6b6f98f864c47e581b875aa476f24ab",
                "wType": "Image"
            }
        },
        "imgSortColumn2": {
            "__events__": {},
            "__info__": {
                "kuid": "h331adced6a64d2d8b26b6d14dd31b3c",
                "srcKUID": "bb3d8182186a4ec2b2048640abc70979",
                "wType": "Image"
            }
        },
        "lblColumn1": {
            "__events__": {},
            "__info__": {
                "kuid": "eede5c8210cb4a30bed1160f4cf37a76",
                "srcKUID": "g7703d5f0426495f998d36effe98536e",
                "wType": "Label"
            }
        },
        "lblColumn2": {
            "__events__": {},
            "__info__": {
                "kuid": "e20921abeb334a3a91e289df31bfd452",
                "srcKUID": "c0ca327d2a7a4c1dafaa9142d0771465",
                "wType": "Label"
            }
        },
        "lblColumn3": {
            "__events__": {},
            "__info__": {
                "kuid": "d7134e64ed704cb4b3c9d20a03af8ab0",
                "srcKUID": "f03d2a5e9c61445dba4a88e36bb62d0e",
                "wType": "Label"
            }
        },
        "lblHeaderContracts": {
            "__events__": {},
            "__info__": {
                "kuid": "h79f79beea5f40d7860dcc257f165f50",
                "srcKUID": "a9a6908190794300a21532dfc5a53e41",
                "wType": "Label"
            }
        },
        "screenConfirm": {
            "__events__": {},
            "__info__": {
                "isRoot": true,
                "kuid": "g017d867b1e94e9b839d080bd4c62695",
                "srcKUID": "a4f7dc7591b4491caab8410be9f7bbb0",
                "wType": "FlexContainer"
            }
        },
        "segContracts": {
            "__events__": {},
            "__info__": {
                "kuid": "a8401d2cf85240c3bc5056fcef0cdeba",
                "srcKUID": "f93de29ff28e4295b8de0c2d951a41c0",
                "wType": "Segment"
            }
        }
    },
    "enablescrolling": true,
    "id": "screenConfirm",
    "info": null,
    "iscustomlayout": false,
    "isdatareferenced": false,
    "isvisible": true,
    "kuid": "g017d867b1e94e9b839d080bd4c62695",
    "layouttype": 4,
    "masterType": 0,
    "name": "kony.ui.UserWidgetInstance",
    "parent": "flxContractsComponent",
    "pf": "frmWireTransferAddInternationalAccountConfirm",
    "retaincontentalignment": false,
    "retainflexpositionproperties": false,
    "retainflowhorizontalalignment": false,
    "snapgridsize": 10,
    "snaptogrid": true,
    "sourceUserWidget": "a4f7dc7591b4491caab8410be9f7bbb0",
    "wType": "UserWidgetInstance"
}