{
    "@class": "com.kony.gen.viz.model.component.KVizButton",
    "DNDConfig": null,
    "__parentReadjusting__": false,
    "_height_": {
        "type": "string",
        "value": "100%"
    },
    "_left_": {
        "type": "string",
        "value": "15dp"
    },
    "_margin_": [
        6,
        6,
        6,
        6
    ],
    "_padding_": [
        2,
        0,
        2,
        0
    ],
    "_skin_": "s5dd5bb2b8874529bd590fd8525a7fd5",
    "_text_": "ALL",
    "_top_": {
        "type": "string",
        "value": "-1dp"
    },
    "_width_": {
        "type": "ref",
        "value": "preferred"
    },
    "accessibilityconfig": {
        "a11yLabel": "ALL"
    },
    "canUpdateUI": true,
    "containerweight": 100,
    "contentalignment": 5,
    "desktopweb": {
        "psp": {}
    },
    "disabledSkins": {
        "focusSkin": "sf44d06ca8224832827ea7fdff757013",
        "hoverSkin": "sd5fb4525cc9414e911580d4f0b6f580"
    },
    "displaytext": true,
    "id": "btnAllDeposit",
    "info": null,
    "isvisible": true,
    "kuid": "b5080817d9484d36bed5516941223f25",
    "name": "kony.ui.Button",
    "paddinginpixel": false,
    "parent": "flxTabsDeposit",
    "pf": "userwidgetmodel",
    "tooltip": "All",
    "wType": "Button",
    "zindex": 1
}