{
    "@class": "com.kony.gen.viz.model.component.KVizButton",
    "DNDConfig": null,
    "__parentReadjusting__": false,
    "_height_": {
        "type": "string",
        "value": "100%"
    },
    "_left_": {
        "type": "string",
        "value": "10dp"
    },
    "_margin_": [
        6,
        6,
        6,
        6
    ],
    "_padding_": [
        1,
        0,
        1,
        0
    ],
    "_skin_": "s7c03a67da7f437395974eb07e972971",
    "_text_": "Deposits",
    "_top_": {
        "type": "string",
        "value": "-1dp"
    },
    "_width_": {
        "type": "ref",
        "value": "preferred"
    },
    "accessibilityconfig": {
        "a11yLabel": "Deposits"
    },
    "canUpdateUI": true,
    "containerweight": 100,
    "contentalignment": 5,
    "desktopweb": {
        "psp": {}
    },
    "disabledSkins": {
        "focusSkin": "sf44d06ca8224832827ea7fdff757013",
        "hoverSkin": "sd5fb4525cc9414e911580d4f0b6f580"
    },
    "displaytext": true,
    "id": "btnDepositsChecking",
    "info": null,
    "isvisible": true,
    "kuid": "h1ec54b98f2b4fd1959f5909fee6f1e6",
    "name": "kony.ui.Button",
    "paddinginpixel": false,
    "parent": "flxTabsChecking",
    "pf": "userwidgetmodel",
    "tooltip": "Deposits",
    "wType": "Button",
    "zindex": 1
}