{
    "@class": "com.kony.gen.viz.model.component.KVizImage2",
    "DNDConfig": null,
    "__parentReadjusting__": false,
    "_base64_": null,
    "_height_": {
        "type": "string",
        "value": "25dp"
    },
    "_margin_": [
        0,
        0,
        0,
        0
    ],
    "_padding_": [
        0,
        0,
        0,
        0
    ],
    "_skin_": "s8ee487de5774c1eb668e74bf92f5cdd",
    "_src_": "print_blue.png",
    "_width_": {
        "type": "string",
        "value": "27dp"
    },
    "accessibilityconfig": {
        "a11yLabel": "Print",
        "a11yValue": ""
    },
    "canUpdateUI": true,
    "centerx": {
        "type": "string",
        "value": "50%"
    },
    "centery": {
        "type": "string",
        "value": "50%"
    },
    "containerweight": 100,
    "id": "imgPrint",
    "imagescalemode": 1,
    "imagewhiledownloading": "img_transparent.png",
    "info": null,
    "invokedProperty": "src",
    "isvisible": false,
    "kuid": "bc6d241ccee24e4eb9b6a14a36d50d6d",
    "name": "kony.ui.Image2",
    "parent": "flxPrint",
    "pf": "userwidgetmodel",
    "srcType": 1,
    "tooltip": "Print",
    "wType": "Image",
    "widgetalignment": 5,
    "zindex": 1
}