{
    "@class": "com.kony.gen.viz.model.component.KVizImage2",
    "DNDConfig": null,
    "__parentReadjusting__": false,
    "_base64_": null,
    "_height_": {
        "type": "string",
        "value": "24dp"
    },
    "_left_": {
        "type": "string",
        "value": "10dp"
    },
    "_margin_": [
        0,
        0,
        0,
        0
    ],
    "_padding_": [
        0,
        0,
        0,
        0
    ],
    "_skin_": "s78a5f26c9f14cec9ebed1bb46098f80",
    "_src_": "pagination_next_active.png",
    "_width_": {
        "type": "string",
        "value": "24dp"
    },
    "accessibilityconfig": {
        "a11yLabel": "Pagination Right",
        "a11yValue": ""
    },
    "canUpdateUI": true,
    "centery": {
        "type": "string",
        "value": "50%"
    },
    "containerweight": 100,
    "id": "imgPaginationLast",
    "imagescalemode": 1,
    "imagewhiledownloading": "img_transparent.png",
    "info": null,
    "isvisible": false,
    "kuid": "f6b9132d1bba402687575bff596b18ac",
    "name": "kony.ui.Image2",
    "parent": "flxPaginationWrapper",
    "pf": "userwidgetmodel",
    "srcType": 1,
    "tooltip": "Last",
    "wType": "Image",
    "widgetalignment": 5,
    "zindex": 1
}