{
    "@class": "com.kony.gen.viz.model.component.KVizButton",
    "DNDConfig": null,
    "_height_": {
        "type": "string",
        "value": "47dp"
    },
    "_left_": {
        "type": "string",
        "value": "2%"
    },
    "_margin_": [
        6,
        6,
        6,
        6
    ],
    "_padding_": [
        0,
        0,
        0,
        0
    ],
    "_right_": {
        "type": "string",
        "value": "1.50%"
    },
    "_skin_": "se13b7ef4adf467195f52926d6fc1f43",
    "_text_": "View All Roles",
    "_top_": {
        "type": "string",
        "value": "0dp"
    },
    "_width_": {
        "type": "string",
        "value": "250dp"
    },
    "canUpdateUI": true,
    "centery": {
        "type": "string",
        "value": "50%"
    },
    "containerweight": 100,
    "contentalignment": 5,
    "disabledSkins": {
        "focusSkin": "s5495bd040c94991a043932d65a33261"
    },
    "displaytext": true,
    "id": "btnAckCreateUser",
    "info": null,
    "iscustomlayout": false,
    "isvisible": true,
    "kuid": "h586286ded9c4dc7a3ad4272e6f4d190",
    "name": "kony.ui.Button",
    "parent": "flxBtn",
    "pf": "frmCustomRoleAcknowledgement",
    "retaincontentalignment": false,
    "retainflexpositionproperties": false,
    "wType": "Button",
    "zindex": 1
}