{
    "DNDConfig": null,
    "_bottom_": {
        "type": "string",
        "value": "20dp"
    },
    "_height_": {
        "type": "ref",
        "value": "preferred"
    },
    "_left_": {
        "type": "string",
        "value": "80dp"
    },
    "_margin_": [
        0,
        0,
        0,
        0
    ],
    "_orientation_": 6,
    "_padding_": [
        0,
        0,
        0,
        0
    ],
    "_percent_": true,
    "_skin_": "s171694da0e749bf9263bc1bd25741cf",
    "_top_": {
        "type": "string",
        "value": "7dp"
    },
    "_width_": {
        "type": "string",
        "value": "90%"
    },
    "allboxes": [],
    "autogrowmode": 1,
    "canUpdateUI": true,
    "centerx": {
        "type": "number",
        "value": ""
    },
    "children": [
        "flxAcknowledgementHeader",
        "flxCustomRoleUserInfo",
        "flxUserInfo",
        "flxDataContent"
    ],
    "clipbounds": false,
    "containerweight": 100,
    "enablescrolling": true,
    "id": "flxAcknowledgement",
    "info": null,
    "isvisible": false,
    "kuid": "de2917f550974419a3a23a6413496117",
    "layouttype": 4,
    "name": "kony.ui.FlexContainer",
    "parent": "flxContent",
    "pf": "frmCustomRoleAcknowledgement",
    "responsiveData": {
        "b1": {
            "centerX": {
                "type": "string",
                "value": "50%"
            },
            "isVisible": true,
            "top": {
                "type": "string",
                "value": "7dp"
            },
            "width": {
                "type": "string",
                "value": "88%"
            }
        },
        "b2": {
            "centerX": {
                "type": "string",
                "value": "50%"
            },
            "isVisible": true,
            "left": {
                "type": "string",
                "value": "80dp"
            },
            "top": {
                "type": "string",
                "value": "0dp"
            },
            "width": {
                "type": "string",
                "value": "95.40%"
            }
        },
        "b3": {},
        "b4": {
            "centerX": {
                "type": "string",
                "value": "50%"
            },
            "isVisible": true,
            "top": {
                "type": "string",
                "value": "7dp"
            },
            "width": {
                "type": "string",
                "value": "88%"
            }
        }
    },
    "snapgridsize": 10,
    "snaptogrid": true,
    "wType": "FlexContainer",
    "widgetalignment": 1,
    "zindex": 1
}