{
    "DNDConfig": null,
    "_height_": {
        "type": "string",
        "value": "90px"
    },
    "_left_": {
        "type": "string",
        "value": "20dp"
    },
    "_margin_": [
        0,
        0,
        0,
        0
    ],
    "_orientation_": 6,
    "_padding_": [
        0,
        0,
        0,
        0
    ],
    "_percent_": true,
    "_skin_": "sdc143f0e5b64ae3a3f155f691c73fa7",
    "_top_": {
        "type": "string",
        "value": "0dp"
    },
    "_width_": {
        "type": "string",
        "value": "96%"
    },
    "allboxes": [],
    "autogrowmode": 0,
    "canUpdateUI": true,
    "children": [
        "flxHeaderLeft",
        "flxHeaderRight"
    ],
    "clipbounds": true,
    "containerweight": 100,
    "enablescrolling": true,
    "id": "flxCustomRolePopUp",
    "info": null,
    "iscustomlayout": false,
    "isvisible": true,
    "kuid": "e178aeae101c43c9a3928766ae6e43a0",
    "layouttype": 2,
    "name": "kony.ui.FlexContainer",
    "parent": "flxContentContainer",
    "pf": "frmCustomRoleAcknowledgement",
    "responsiveData": {
        "b1": {
            "left": {
                "type": "string",
                "value": "78dp"
            },
            "width": {
                "type": "string",
                "value": "88%"
            }
        },
        "b4": {
            "left": {
                "type": "string",
                "value": "77dp"
            },
            "width": {
                "type": "string",
                "value": "88%"
            }
        }
    },
    "retaincontentalignment": false,
    "retainflexpositionproperties": false,
    "retainflowhorizontalalignment": false,
    "snapgridsize": 10,
    "snaptogrid": true,
    "wType": "FlexContainer",
    "widgetalignment": 1,
    "zindex": 1
}