{
    "DNDConfig": null,
    "_height_": {
        "type": "string",
        "value": "1dp"
    },
    "_left_": {
        "type": "string",
        "value": "0%"
    },
    "_margin_": [
        0,
        0,
        0,
        0
    ],
    "_orientation_": 6,
    "_padding_": [
        0,
        0,
        0,
        0
    ],
    "_percent_": true,
    "_skin_": "sb64a03ea0f843e3b2e516ce6c79c46a",
    "_top_": {
        "type": "string",
        "value": "40px"
    },
    "_width_": {
        "type": "string",
        "value": "100%"
    },
    "allboxes": [],
    "canUpdateUI": true,
    "children": [],
    "clipbounds": true,
    "containerweight": 100,
    "enablescrolling": true,
    "id": "flxCustomRoleSeperator",
    "info": null,
    "iscustomlayout": false,
    "isvisible": true,
    "kuid": "a66582a83fb74fc2903c50aff1f3527d",
    "layouttype": 2,
    "name": "kony.ui.FlexContainer",
    "parent": "flxCustomRoleUserInfo",
    "pf": "frmCustomRoleAcknowledgement",
    "responsiveData": {
        "b1": {},
        "b2": {
            "isVisible": true
        },
        "b4": {}
    },
    "retaincontentalignment": false,
    "retainflexpositionproperties": false,
    "retainflowhorizontalalignment": false,
    "snapgridsize": 10,
    "snaptogrid": true,
    "wType": "FlexContainer",
    "widgetalignment": 1,
    "zindex": 1
}