{
    "@class": "com.kony.gen.viz.model.component.KVizLabel",
    "DNDConfig": null,
    "_height_": {
        "type": "ref",
        "value": "preferred"
    },
    "_left_": {
        "type": "string",
        "value": "0dp"
    },
    "_margin_": [
        1,
        1,
        1,
        1
    ],
    "_padding_": [
        0,
        0,
        2,
        0
    ],
    "_skin_": "sf0cb6e968274aa389aafbf14ff806fd",
    "_text_": "John K Bailey",
    "_top_": {
        "type": "string",
        "value": "0dp"
    },
    "_width_": {
        "type": "ref",
        "value": "preferred"
    },
    "_wrapping_": 2,
    "accessibilityconfig": {
        "a11yLabel": "Personal Savings"
    },
    "android": {
        "textStyle": {
            "letterSpacing": 0,
            "strikeThrough": false
        }
    },
    "canUpdateUI": true,
    "containerweight": 100,
    "contentalignment": 4,
    "id": "lblCustomRoleNameValue",
    "info": null,
    "ipad": {
        "psp": {
            "wrapping": 2
        }
    },
    "iphone": {
        "psp": {
            "wrapping": 2
        }
    },
    "isvisible": true,
    "kuid": "b1c6acf4e7f946299bc13cd61ec4d677",
    "name": "kony.ui.Label",
    "paddinginpixel": false,
    "parent": "flxCustomRoleNameValue",
    "pf": "frmCustomRoleAcknowledgement",
    "responsiveData": {
        "b1": {},
        "b3": {}
    },
    "tooltip": "",
    "wType": "Label",
    "zindex": 1
}