{
    "@class": "com.kony.gen.viz.model.container.KVizSegment2",
    "DNDConfig": null,
    "_bottom_": {
        "type": "string",
        "value": "2dp"
    },
    "_data_": [{
            "lblLeftSideContent": {
                "@class": "com.viz.ide.model.segment.SimpleTextSegmentData",
                "text": "Abitibi Consolidated"
            },
            "lblRIghtSideContent": {
                "@class": "com.viz.ide.model.segment.SimpleTextSegmentData",
                "text": "Admin"
            },
            "lblRightMostContent": {
                "@class": "com.viz.ide.model.segment.SimpleTextSegmentData",
                "text": "21"
            },
            "lblSeparator": {
                "@class": "com.viz.ide.model.segment.SimpleTextSegmentData",
                "text": ""
            }
        },
        {
            "lblLeftSideContent": {
                "@class": "com.viz.ide.model.segment.SimpleTextSegmentData",
                "text": "Apiva.com Web Coep."
            },
            "lblRIghtSideContent": {
                "@class": "com.viz.ide.model.segment.SimpleTextSegmentData",
                "text": "Admin"
            },
            "lblRightMostContent": {
                "@class": "com.viz.ide.model.segment.SimpleTextSegmentData",
                "text": "21"
            },
            "lblSeparator": {
                "@class": "com.viz.ide.model.segment.SimpleTextSegmentData",
                "text": ""
            }
        },
        {
            "lblLeftSideContent": {
                "@class": "com.viz.ide.model.segment.SimpleTextSegmentData",
                "text": "Alstom"
            },
            "lblRIghtSideContent": {
                "@class": "com.viz.ide.model.segment.SimpleTextSegmentData",
                "text": "Admin"
            },
            "lblRightMostContent": {
                "@class": "com.viz.ide.model.segment.SimpleTextSegmentData",
                "text": "21"
            },
            "lblSeparator": {
                "@class": "com.viz.ide.model.segment.SimpleTextSegmentData",
                "text": ""
            }
        },
        {
            "lblLeftSideContent": {
                "@class": "com.viz.ide.model.segment.SimpleTextSegmentData",
                "text": "Banco Santiage"
            },
            "lblRIghtSideContent": {
                "@class": "com.viz.ide.model.segment.SimpleTextSegmentData",
                "text": "Admin"
            },
            "lblRightMostContent": {
                "@class": "com.viz.ide.model.segment.SimpleTextSegmentData",
                "text": "21"
            },
            "lblSeparator": {
                "@class": "com.viz.ide.model.segment.SimpleTextSegmentData",
                "text": ""
            }
        }
    ],
    "_height_": {
        "type": "ref",
        "value": "preferred"
    },
    "_indicator_": "none",
    "_left_": {
        "type": "string",
        "value": "0dp"
    },
    "_margin_": [
        0,
        0,
        0,
        0
    ],
    "_orientation_": 2,
    "_padding_": [
        0,
        0,
        0,
        0
    ],
    "_top_": {
        "type": "string",
        "value": "0dp"
    },
    "_width_": {
        "type": "string",
        "value": "100%"
    },
    "autogrowmode": 1,
    "canUpdateUI": true,
    "containerweight": 100,
    "counter": "03",
    "disabledSkins": {},
    "focusedindex": null,
    "focuseditem": null,
    "groupcells": false,
    "hasSections": false,
    "id": "segmentAccRole",
    "info": null,
    "ipad": {
        "psp": {
            "indicator": "rowselect"
        }
    },
    "iphone": {
        "psp": {
            "indicator": "rowselect"
        }
    },
    "isvisible": true,
    "kuid": "g18dee75b8b94aadad49264a817d68fa",
    "masterdata": {},
    "name": "kony.ui.SegmentedUI2",
    "needpageindicator": true,
    "pageoffdotimage": "pageoffdot.png",
    "pageondotimage": "pageondot.png",
    "paginationconfig": {
        "position": "bottom"
    },
    "parent": "flxAccountRoleSeg",
    "pf": "frmCustomRoleAcknowledgement",
    "responsiveData": {
        "b1": {
            "bottom": {
                "type": "string",
                "value": "2dp"
            },
            "width": {
                "type": "string",
                "value": "100%"
            }
        },
        "b4": {}
    },
    "retainselection": false,
    "rowTemplateId": "cd0ead26c50f4578a98e77fbe72f887f",
    "rowcounter": 3,
    "rowfocusskin": "s9f69e977910472eb44c62ae28c41fe1",
    "rowskin": "scf5f90f6ac04976ab88b2a4f7153285",
    "rowtemplate": "flxUserManagementAccAccessRole",
    "screenlevelwidget": false,
    "seccounter": 0,
    "sectionHeaderTemplateId": null,
    "sectionheaderskin": "sdc4ff4ed1584272be2ae69045dfb29d",
    "selectedRows": null,
    "selectedState": false,
    "selectedindex": null,
    "selectedindices": null,
    "selecteditems": null,
    "selectedsectionindex": 0,
    "selectionbehavior": "default",
    "separatorrequired": false,
    "showscrollbars": false,
    "viewtype": "tableview",
    "vizProps": {},
    "wType": "Segment",
    "widgetalignment": 5,
    "widgetdatamap": {
        "flxUserManagement": "flxUserManagement",
        "flxUserManagementAccAccessRole": "flxUserManagementAccAccessRole",
        "flxUserManagementAccPermissions": "flxUserManagementAccPermissions",
        "lblLeftSideContent": "lblLeftSideContent",
        "lblRIghtSideContent": "lblRIghtSideContent",
        "lblRightMostContent": "lblRightMostContent",
        "lblSeparator": "lblSeparator"
    },
    "zindex": 1
}