{
    "@class": "com.kony.gen.viz.model.container.KVizSegment2",
    "DNDConfig": null,
    "__parentReadjusting__": false,
    "_data_": [],
    "_height_": {
        "type": "ref",
        "value": "preferred"
    },
    "_indicator_": "none",
    "_left_": {
        "type": "string",
        "value": "0dp"
    },
    "_margin_": [
        0,
        0,
        0,
        0
    ],
    "_orientation_": 2,
    "_padding_": [
        0,
        0,
        0,
        0
    ],
    "_top_": {
        "type": "string",
        "value": "0dp"
    },
    "_width_": {
        "type": "string",
        "value": "100%"
    },
    "autogrowmode": 1,
    "canUpdateUI": true,
    "containerweight": 100,
    "counter": "03",
    "desktop": {
        "_data_": [],
        "rowTemplateId": "ga31dec8c20445b085c6523514cf567a",
        "rowtemplate": "flxAccountLandingUpcomingTransactions",
        "widgetdatamap": {
            "flxAccountLandingUpcomingTransactions": "flxAccountLandingUpcomingTransactions",
            "lblAmount": "lblAmount",
            "lblDate": "lblDate",
            "lblFormToNavigate": "lblFormToNavigate",
            "lblSeparator": "lblSeparator",
            "lblTo": "lblTo",
            "lblToValue": "lblToValue"
        }
    },
    "focusedindex": null,
    "focuseditem": null,
    "groupcells": false,
    "hasSections": false,
    "id": "segMessages",
    "info": null,
    "ipad": {
        "psp": {
            "indicator": "rowselect"
        }
    },
    "iphone": {
        "psp": {
            "indicator": "rowselect"
        }
    },
    "isvisible": true,
    "kuid": "e63f0b3b6c9a4e489cbf3f504463bb1a",
    "masterdata": {},
    "maxheight": {
        "type": "string",
        "value": "360dp"
    },
    "mobile": {
        "rowTemplateId": null,
        "rowtemplate": null,
        "sectionHeaderTemplateId": null
    },
    "name": "kony.ui.SegmentedUI2",
    "needpageindicator": true,
    "pageoffdotimage": "pageoffdot.png",
    "pageondotimage": "pageondot.png",
    "paginationconfig": {
        "position": "bottom"
    },
    "parent": "flxUpcomingTransactionWrapper",
    "pf": "userwidgetmodel",
    "retainselection": false,
    "rowcounter": 3,
    "rowfocusskin": "s9f69e977910472eb44c62ae28c41fe1",
    "rowskin": "scf5f90f6ac04976ab88b2a4f7153285",
    "rowtemplate": null,
    "screenlevelwidget": false,
    "seccounter": 0,
    "sectionheaderskin": "sdc4ff4ed1584272be2ae69045dfb29d",
    "selectedRows": null,
    "selectedState": false,
    "selectedindex": null,
    "selectedindices": null,
    "selecteditems": null,
    "selectedsectionindex": 0,
    "selectionbehavior": "default",
    "separatorcolor": "64646400",
    "separatorrequired": false,
    "separatorthickness": 1,
    "showscrollbars": false,
    "viewtype": "tableview",
    "wType": "Segment",
    "widgetalignment": 5,
    "widgetdatamap": {
        "flxAccountLandingUpcomingTransactions": "flxAccountLandingUpcomingTransactions",
        "lblAmount": "lblAmount",
        "lblDate": "lblDate",
        "lblFormToNavigate": "lblFormToNavigate",
        "lblSeparator": "lblSeparator",
        "lblTo": "lblTo",
        "lblToValue": "lblToValue"
    },
    "zindex": 1
}