{
    "DNDConfig": null,
    "__parentReadjusting__": false,
    "_height_": {
        "type": "string",
        "value": "40dp"
    },
    "_left_": {
        "type": "string",
        "value": "30dp"
    },
    "_margin_": [
        0,
        0,
        0,
        0
    ],
    "_orientation_": 6,
    "_padding_": [
        0,
        0,
        0,
        0
    ],
    "_percent_": true,
    "_right_": {
        "type": "number",
        "value": ""
    },
    "_skin_": "s10a240ff40146de8fe3b093d819809b",
    "_top_": {
        "type": "string",
        "value": "40dp"
    },
    "_width_": {
        "type": "string",
        "value": "45.40%"
    },
    "allboxes": [],
    "autogrowmode": 0,
    "canUpdateUI": true,
    "children": [
        "tbxAmount",
        "lblCurrencySymbol"
    ],
    "clipbounds": true,
    "containerweight": 100,
    "desktopweb": {
        "psp": {
            "hoverSkin": "s30a9cf8af664a65907169e38b6f3912"
        }
    },
    "disabledSkins": {},
    "enablescrolling": true,
    "focusskin": "s30a9cf8af664a65907169e38b6f3912",
    "id": "flxAmount",
    "info": null,
    "isvisible": true,
    "kuid": "gbaf0089b14d4e8f854d02047ad87ab9",
    "layouttype": 2,
    "name": "kony.ui.FlexContainer",
    "parent": "flxStep3Amount",
    "pf": "frmWireTransferOneTimePaymentStep3",
    "responsiveData": {
        "b3": {
            "left": {
                "type": "string",
                "value": "15dp"
            },
            "right": {
                "type": "string",
                "value": "15dp"
            },
            "width": {
                "type": "ref",
                "value": "preferred"
            }
        }
    },
    "snapgridsize": 10,
    "snaptogrid": true,
    "wType": "FlexContainer",
    "widgetalignment": 1,
    "zindex": 1
}