{
    "@class": "com.kony.gen.viz.model.component.KVizLabel",
    "DNDConfig": null,
    "__parentReadjusting__": false,
    "_height_": {
        "type": "string",
        "value": "18dp"
    },
    "_left_": {
        "type": "string",
        "value": "30dp"
    },
    "_margin_": [
        1,
        1,
        1,
        1
    ],
    "_padding_": [
        0,
        0,
        0,
        0
    ],
    "_right_": {
        "type": "string",
        "value": "30dp"
    },
    "_skin_": "s163439541784ce7b861453e75298b7e",
    "_text_": "Entered amount exceeded the limit",
    "_top_": {
        "type": "string",
        "value": "16dp"
    },
    "_wrapping_": 2,
    "accessibilityconfig": {
        "a11yLabel": "Entered amount exceeded the limit"
    },
    "android": {
        "textStyle": {
            "letterSpacing": 0,
            "strikeThrough": false
        }
    },
    "canUpdateUI": true,
    "containerweight": 100,
    "contentalignment": 4,
    "id": "lblWarning",
    "info": null,
    "ipad": {
        "psp": {
            "wrapping": 2
        }
    },
    "iphone": {
        "psp": {
            "wrapping": 2
        }
    },
    "isvisible": true,
    "kuid": "a847cac1a5214983b14bb693c8602510",
    "name": "kony.ui.Label",
    "parent": "flxWarning",
    "pf": "frmWireTransferOneTimePaymentStep3",
    "responsiveData": {
        "b3": {
            "left": {
                "type": "string",
                "value": "15dp"
            },
            "right": {
                "type": "string",
                "value": "15dp"
            }
        }
    },
    "tooltip": "",
    "wType": "Label",
    "zindex": 1
}