{
    "@class": "com.kony.gen.viz.model.component.KVizRichText",
    "DNDConfig": null,
    "__parentReadjusting__": false,
    "_height_": {
        "type": "ref",
        "value": "preferred"
    },
    "_left_": {
        "type": "string",
        "value": "20dp"
    },
    "_margin_": [
        0,
        0,
        0,
        0
    ],
    "_padding_": [
        0,
        0,
        0,
        0
    ],
    "_skin_": "sf9eda51ff18423180d6643f182ca4b3",
    "_text_": "There is some error in the server.\nWe could not complete your request of adding the account.",
    "_width_": {
        "type": "string",
        "value": "85%"
    },
    "_wrapping_": 2,
    "accessibilityconfig": {
        "a11yLabel": "Server error</br>We could not complete your request of adding the Account."
    },
    "canUpdateUI": true,
    "centery": {
        "type": "string",
        "value": "50%"
    },
    "containerweight": 100,
    "contentalignment": 4,
    "id": "rtxDowntimeWarning",
    "info": null,
    "isvisible": true,
    "kuid": "f4bdfa1b0dce42f6800064b92ca195c1",
    "name": "kony.ui.RichText",
    "parent": "flxDowntimeWarning",
    "pf": "frmWireTransferOneTimePaymentStep3",
    "texti18n": "i18n.Transfers.ThereisomeerrorintheserverWecouldnotcompleteyourrequestofaddingtheaccount",
    "wType": "RichText",
    "widgetalignment": 5,
    "zindex": 1
}