{
	 "@class": "com.kony.gen.viz.model.component.KVizImage2",
	 "DNDConfig": null,
	 "__parentReadjusting__": false,
	 "_base64_": null,
	 "_height_": {
		 "type": "string",
		 "value": "52dp"
	},
	 "_margin_": [
		 0,
		 0,
		 0,
		 0
	],
	 "_padding_": [
		 0,
		 0,
		 0,
		 0
	],
	 "_skin_": "s78a5f26c9f14cec9ebed1bb46098f80",
	 "_src_": "user_verify.png",
	 "_top_": {
		 "type": "string",
		 "value": "0%"
	},
	 "_width_": {
		 "type": "string",
		 "value": "52dp"
	},
	 "accessibilityconfig": {
		 "a11yHidden": true,
		 "a11yARIA": {
			 "tabindex": -1
		},
		 "a11yValue": ""
	},
	 "canUpdateUI": true,
	 "centerx": {
		 "type": "string",
		 "value": "50%"
	},
	 "containerweight": 100,
	 "context": {
		 "channel": "desktop",
		 "formID": "uwucff12a70e6b417e94330c77c8de640b",
		 "platform": "desktopweb",
		 "templateType": "userwidgets",
		 "topLevelBox": null
	},
	 "id": "imgUserVerify",
	 "imagescalemode": 1,
	 "imagewhiledownloading": "img_transparent.png",
	 "info": null,
	 "isvisible": true,
	 "kuid": "j33e13b2537945d295d2bd76b7f9d5e8",
	 "name": "kony.ui.Image2",
	 "parent": "flxUserVerify",
	 "pf": "userwidgetmodel",
	 "srcType": 1,
	 "wType": "Image",
	 "widgetalignment": 5,
	 "zindex": 1
}