{
	 "@class": "com.kony.gen.viz.model.component.KVizImage2",
	 "DNDConfig": null,
	 "__parentReadjusting__": false,
	 "_base64_": null,
	 "_height_": {
		 "type": "string",
		 "value": "15dp"
	},
	 "_left_": {
		 "type": "string",
		 "value": "3.03%"
	},
	 "_margin_": [
		 0,
		 0,
		 0,
		 0
	],
	 "_padding_": [
		 0,
		 0,
		 0,
		 0
	],
	 "_skin_": "s78a5f26c9f14cec9ebed1bb46098f80",
	 "_src_": "info_grey.png",
	 "_top_": {
		 "type": "number",
		 "value": "2"
	},
	 "_width_": {
		 "type": "string",
		 "value": "15dp"
	},
	 "canUpdateUI": true,
	 "containerweight": 100,
	 "context": {
		 "channel": "desktop",
		 "formID": "uwucff12a70e6b417e94330c77c8de640b",
		 "platform": "desktopweb",
		 "templateType": "userwidgets",
		 "topLevelBox": null
	},
	 "id": "imgWhatIsSSN",
	 "imagescalemode": 1,
	 "imagewhiledownloading": "img_transparent.png",
	 "info": null,
	 "invokedProperty": "src",
	 "isvisible": true,
	 "kuid": "d7d103ca476c4a86b695adf5fd7f7aa6",
	 "name": "kony.ui.Image2",
	 "parent": "flxWhatIsSSN",
	 "pf": "userwidgetmodel",
	 "srcType": 1,
	 "wType": "Image",
	 "widgetalignment": 5,
	 "zindex": 1,
	 "accessibilityconfig": {
		 "a11yLabel": "Info",
		 "a11yValue": ""
	}
}