{
    "@class": "com.kony.gen.viz.model.component.KVizTextBox2",
    "DNDConfig": null,
    "__parentReadjusting__": false,
    "_height_": {
        "type": "string",
        "value": "40dp"
    },
    "_margin_": [
        0,
        0,
        0,
        0
    ],
    "_padding_": [
        3,
        0,
        3,
        0
    ],
    "_placeholder_": "",
    "_skin_": "s2176287b62f4273bd3e8aee5ed69aca",
    "_text_": "",
    "_top_": {
        "type": "string",
        "value": "0.23000000000000398%"
    },
    "_width_": {
        "type": "string",
        "value": "85%"
    },
    "accessibilityconfig": {
        "a11yLabel": "Last Name"
    },
    "autocapitalize": "none",
    "autocomplete": false,
    "autocorrect": false,
    "autofilter": false,
    "canUpdateUI": true,
    "centerx": {
        "type": "string",
        "value": "50%"
    },
    "containerheight": "",
    "containerheightmode": 1,
    "containerweight": 100,
    "contentalignment": 4,
    "focusskin": "s2faf9c2766d4142ab33d0bf97445ae0",
    "id": "tbxLastName",
    "info": null,
    "isvisible": true,
    "keyboardtype": "A",
    "kuid": "cb120e94936b453190d24bbbcc97fc5c",
    "mode": "A",
    "name": "kony.ui.TextBox2",
    "parent": "letsverify",
    "pf": "userwidgetmodel",
    "placeholderi18n": "i18n.login.Lastname",
    "securetextentry": false,
    "textinputmode": "A",
    "viewtype": "default",
    "wType": "TextField",
    "zindex": 1
}