{
    "DNDConfig": null,
    "__parentReadjusting__": false,
    "_height_": {
        "type": "string",
        "value": "319dp"
    },
    "_left_": {
        "type": "string",
        "value": "0dp"
    },
    "_margin_": [
        0,
        0,
        0,
        0
    ],
    "_orientation_": 6,
    "_padding_": [
        0,
        0,
        0,
        0
    ],
    "_percent_": true,
    "_skin_": "s576844bc0e148a9a02e6171eac305ac",
    "_top_": {
        "type": "string",
        "value": "61dp"
    },
    "_width_": {
        "type": "string",
        "value": "100%"
    },
    "allboxes": [],
    "autogrowmode": 0,
    "canUpdateUI": true,
    "children": [
        "flxBankName",
        "flxProductName",
        "flxAccountType",
        "flxAccountNumber",
        "flxMarkClosed",
        "flxSumInsured",
        "flxAccountNickName",
        "flxSeparator2",
        "flxCheckImages"
    ],
    "clipbounds": true,
    "containerweight": 100,
    "enablescrolling": true,
    "id": "flxEditAccountMain",
    "info": null,
    "isvisible": true,
    "kuid": "b1599f866f094e83bda27466ea693e56",
    "layouttype": 2,
    "name": "kony.ui.FlexContainer",
    "parent": "flxEditAccount",
    "pf": "userwidgetmodel",
    "snapgridsize": 10,
    "snaptogrid": true,
    "wType": "FlexContainer",
    "widgetalignment": 1,
    "zindex": 1
}