{
    "@class": "com.kony.gen.viz.model.component.KVizLabel",
    "DNDConfig": null,
    "_height_": {
        "type": "ref",
        "value": "preferred"
    },
    "_left_": {
        "type": "string",
        "value": "30dp"
    },
    "_margin_": [
        1,
        1,
        1,
        1
    ],
    "_padding_": [
        0,
        0,
        2,
        0
    ],
    "_skin_": "s26eb3d930d54fbabd0004730c551a74",
    "_text_": "What else do you want to do?",
    "_width_": {
        "type": "string",
        "value": "80%"
    },
    "_wrapping_": 2,
    "accessibilityconfig": {
        "a11yLabel": "What else do you want to do?"
    },
    "android": {
        "textStyle": {
            "letterSpacing": 0,
            "strikeThrough": false
        }
    },
    "canUpdateUI": true,
    "centery": {
        "type": "string",
        "value": "50%"
    },
    "containerweight": 100,
    "contentalignment": 4,
    "id": "lblWhatElse",
    "info": null,
    "ipad": {
        "psp": {
            "wrapping": 2
        }
    },
    "iphone": {
        "psp": {
            "wrapping": 2
        }
    },
    "isvisible": true,
    "kuid": "bd3b67fed4534a959d4a93d1384cd46b",
    "name": "kony.ui.Label",
    "paddinginpixel": false,
    "parent": "flxWhatElse",
    "pf": "frmP2PSendMoneyTab",
    "texti18n": "i18n.accounts.secondaryActions",
    "tooltip": "What else do you want to do?",
    "wType": "Label",
    "zindex": 2
}