{
    "DNDConfig": null,
    "_height_": {
        "type": "string",
        "value": "18px"
    },
    "_left_": {
        "type": "string",
        "value": "1%"
    },
    "_margin_": [
        0,
        0,
        0,
        0
    ],
    "_orientation_": 6,
    "_padding_": [
        0,
        0,
        0,
        0
    ],
    "_percent_": true,
    "_skin_": "s24c92fc23b14f5484b693ee9b8a9b35",
    "_top_": {
        "type": "string",
        "value": "0dp"
    },
    "_width_": {
        "type": "string",
        "value": "16px"
    },
    "accessibilityconfig": {
        "a11yARIA": {
            "tabindex": 1
        }
    },
    "allboxes": [],
    "canUpdateUI": true,
    "centery": {
        "type": "string",
        "value": "50%"
    },
    "children": [
        "lblSearch"
    ],
    "clipbounds": true,
    "containerweight": 100,
    "enablescrolling": true,
    "id": "btnConfirm",
    "info": null,
    "iscustomlayout": false,
    "isvisible": true,
    "kuid": "e8dd348789ea47889b75b1567110ec98",
    "layouttype": 2,
    "name": "kony.ui.FlexContainer",
    "parent": "flxtxtSearchandClearbtn",
    "pf": "frmBulkPayees",
    "responsiveData": {
        "b1": {
            "height": {
                "type": "string",
                "value": ""
            },
            "width": {
                "type": "string",
                "value": "30px"
            }
        },
        "b2": {
            "height": {
                "type": "string",
                "value": ""
            },
            "width": {
                "type": "string",
                "value": "30px"
            }
        },
        "b3": {
            "height": {
                "type": "string",
                "value": "40dp"
            },
            "width": {
                "type": "string",
                "value": "6%"
            }
        },
        "b4": {
            "height": {
                "type": "string",
                "value": ""
            },
            "width": {
                "type": "string",
                "value": "30px"
            }
        }
    },
    "retaincontentalignment": false,
    "retainflexpositionproperties": false,
    "snapgridsize": 10,
    "snaptogrid": true,
    "wType": "FlexContainer",
    "widgetalignment": 1
}