{
    "DNDConfig": null,
    "_height_": {
        "type": "string",
        "value": "40dp"
    },
    "_left_": {
        "type": "string",
        "value": "3.70%"
    },
    "_margin_": [
        0,
        0,
        0,
        0
    ],
    "_orientation_": 6,
    "_padding_": [
        0,
        0,
        0,
        0
    ],
    "_percent_": true,
    "_right_": {
        "type": "string",
        "value": "30.50%"
    },
    "_skin_": "s90a3d6a0e234d9685e7d1b8013cf2a2",
    "_width_": {
        "type": "ref",
        "value": "preferred"
    },
    "allboxes": [],
    "autogrowmode": 0,
    "canUpdateUI": true,
    "centery": {
        "type": "string",
        "value": "50%"
    },
    "children": [
        "btnConfirm",
        "txtSearch",
        "flxClearBtn"
    ],
    "clipbounds": true,
    "containerweight": 100,
    "enablescrolling": true,
    "id": "flxtxtSearchandClearbtn",
    "info": null,
    "isvisible": true,
    "kuid": "j591ef9ac1a44fca98c8c0aa1acedaa0",
    "layouttype": 3,
    "name": "kony.ui.FlexContainer",
    "parent": "flxSearchAllPayees",
    "pf": "frmBulkPayees",
    "responsiveData": {
        "b1": {
            "left": {
                "type": "string",
                "value": "3%"
            }
        },
        "b2": {
            "left": {
                "type": "string",
                "value": "2%"
            }
        },
        "b3": {
            "left": {
                "type": "string",
                "value": "10dp"
            },
            "right": {
                "type": "string",
                "value": "10dp"
            },
            "width": {
                "type": "ref",
                "value": "preferred"
            }
        },
        "b4": {
            "left": {
                "type": "string",
                "value": "3%"
            }
        }
    },
    "snapgridsize": 10,
    "snaptogrid": true,
    "wType": "FlexContainer",
    "widgetalignment": 1,
    "zindex": 1
}