{
    "@class": "com.kony.gen.viz.model.component.KVizListBox",
    "DNDConfig": null,
    "_blur_": {
        "enabled": true,
        "value": 0
    },
    "_height_": {
        "type": "ref",
        "value": "preferred"
    },
    "_left_": {
        "type": "string",
        "value": "0"
    },
    "_margin_": [
        0,
        0,
        0,
        0
    ],
    "_padding_": [
        3,
        0,
        0,
        0
    ],
    "_placeholder_": "Please Select",
    "_skin_": "s75f6ba84f4e4ef7a57963870d9bcd48",
    "_top_": {
        "type": "string",
        "value": "0"
    },
    "_width_": {
        "type": "string",
        "value": "100%"
    },
    "canUpdateUI": true,
    "containerweight": 100,
    "contentalignment": 4,
    "focusskin": "s9eb08f78097439eb767801e8fdeb5cd",
    "groupcells": false,
    "id": "lstBoxFilters",
    "info": null,
    "iscustomlayout": false,
    "isvisible": false,
    "kuid": "e5eb6dfcfdb14805a843120533233c87",
    "masterdata": [
        [
            "lb1",
            "All Payees"
        ],
        [
            "lb2",
            "Business Payees"
        ],
        [
            "lb3",
            "Personal Payees"
        ]
    ],
    "name": "kony.ui.ListBox",
    "parent": "flxFiltersList",
    "pf": "frmBulkPayees",
    "retaincontentalignment": false,
    "retainflexpositionproperties": false,
    "selectedkeys": null,
    "selectedkeyvalue": null,
    "selectedkeyvalues": null,
    "size": 18,
    "viewconfig": {
        "toggleViewConfig": {
            "viewStyle": 0
        }
    },
    "viewtype": 0,
    "wType": "ListBox"
}