{
    "DNDConfig": null,
    "_height_": {
        "type": "string",
        "value": "40dp"
    },
    "_left_": {
        "type": "string",
        "value": "0dp"
    },
    "_margin_": [
        0,
        0,
        0,
        0
    ],
    "_orientation_": 6,
    "_padding_": [
        0,
        0,
        0,
        0
    ],
    "_percent_": true,
    "_skin_": "sb8b2d06e5a94b0ebf74a168186f28de",
    "_top_": {
        "type": "string",
        "value": "30dp"
    },
    "_width_": {
        "type": "string",
        "value": "100%"
    },
    "allboxes": [],
    "autogrowmode": 0,
    "canUpdateUI": true,
    "children": [
        "flxFromColHeader",
        "flxDateColHeader",
        "flxAmountColHeader",
        "flxStatusColHeader",
        "flxRunningBalance"
    ],
    "clipbounds": true,
    "containerweight": 100,
    "enablescrolling": true,
    "id": "flxSegHeader",
    "info": null,
    "iscustomlayout": false,
    "isvisible": true,
    "kuid": "c33f4834dbaa4c76912fd54a5b2b3d92",
    "layouttype": 3,
    "name": "kony.ui.FlexContainer",
    "parent": "flxLeftContent",
    "pf": "frmP2PActivity",
    "responsiveData": {
        "b3": {
            "isVisible": false
        }
    },
    "retaincontentalignment": false,
    "retainflexpositionproperties": false,
    "retainflowhorizontalalignment": false,
    "snapgridsize": 10,
    "snaptogrid": true,
    "wType": "FlexContainer",
    "widgetalignment": 1,
    "zindex": 1
}