{
    "DNDConfig": null,
    "_height_": {
        "type": "string",
        "value": "220dp"
    },
    "_margin_": [
        0,
        0,
        0,
        0
    ],
    "_orientation_": 6,
    "_padding_": [
        0,
        0,
        0,
        0
    ],
    "_percent_": true,
    "_skin_": "s32db308af9e4770a9ccf700cbe81176",
    "allboxes": [],
    "autogrowmode": 0,
    "canUpdateUI": true,
    "children": [
        "flxIdentifier",
        "flxMain",
        "flxBottom",
        "lblSeperatorone"
    ],
    "clipbounds": true,
    "containerId": true,
    "containerweight": 100,
    "controllerInfo": {
        "default": {
            "channel": "desktop",
            "name": "flxBillPaymentScheduledSelectedController"
        }
    },
    "enablescrolling": true,
    "id": "flxBillPaymentScheduledSelected",
    "info": null,
    "isvisible": true,
    "kuid": "a7ff76bfaab34575a596d8e67565d301",
    "layouttype": 2,
    "name": "kony.ui.FlexContainer",
    "parent": "segBillPaymentScheduledSelected",
    "pf": "segBillPaymentScheduledSelected",
    "snapgridsize": 10,
    "snaptogrid": true,
    "wType": "FlexContainer",
    "widgetalignment": 1
}