{
    "@class": "com.kony.gen.viz.model.component.KVizRichText",
    "DNDConfig": null,
    "__parentReadjusting__": false,
    "_height_": {
        "type": "ref",
        "value": "preferred"
    },
    "_left_": {
        "type": "string",
        "value": "70dp"
    },
    "_margin_": [
        0,
        0,
        0,
        0
    ],
    "_padding_": [
        0,
        0,
        0,
        0
    ],
    "_skin_": "sf46d41de43a4807ae3379aef1ca293a",
    "_text_": "No recipients added",
    "_top_": {
        "type": "string",
        "value": "44dp"
    },
    "_width_": {
        "type": "string",
        "value": "87.94%"
    },
    "_wrapping_": 2,
    "accessibilityconfig": {
        "a11yLabel": "No transactions found."
    },
    "canUpdateUI": true,
    "containerweight": 100,
    "contentalignment": 4,
    "id": "rtxNoPaymentMessage",
    "info": null,
    "isvisible": true,
    "kuid": "be3ad48dffff48408f48114b3fc3c7f6",
    "name": "kony.ui.RichText",
    "parent": "flxNoTransactions",
    "pf": "frmBulkWireViewTemplate",
    "texti18n": "i18n.bulkwires.noRecipientsAdded",
    "wType": "RichText",
    "widgetalignment": 5,
    "zindex": 1
}