{
    "@class": "com.kony.gen.viz.model.component.KVizLabel",
    "DNDConfig": null,
    "__parentReadjusting__": false,
    "_height_": {
        "type": "ref",
        "value": "preferred"
    },
    "_left_": {
        "type": "string",
        "value": "6%"
    },
    "_margin_": [
        1,
        1,
        1,
        1
    ],
    "_padding_": [
        0,
        0,
        0,
        0
    ],
    "_skin_": "se56454286124fef97a46e7249497088",
    "_text_": "Enable E-Statements",
    "_top_": {
        "type": "string",
        "value": "0dp"
    },
    "_width_": {
        "type": "ref",
        "value": "preferred"
    },
    "_wrapping_": 2,
    "accessibilityconfig": {
        "a11yLabel": "I accept the Terms & Conditions"
    },
    "android": {
        "textStyle": {
            "letterSpacing": 0,
            "strikeThrough": false
        }
    },
    "canUpdateUI": true,
    "containerweight": 100,
    "contentalignment": 4,
    "id": "lblIAccept",
    "info": null,
    "ipad": {
        "psp": {
            "wrapping": 2
        }
    },
    "iphone": {
        "psp": {
            "wrapping": 2
        }
    },
    "isvisible": true,
    "kuid": "f0ae2cf1110144afaf5ca12ce18081e6",
    "name": "kony.ui.Label",
    "parent": "flxTCCheckBox",
    "pf": "frmAddBulkTemplateFile",
    "responsiveData": {
        "b2": {
            "left": {
                "type": "string",
                "value": "50dp"
            },
            "top": {
                "type": "string",
                "value": "5dp"
            }
        },
        "b3": {
            "isVisible": true,
            "left": {
                "type": "string",
                "value": "50dp"
            },
            "top": {
                "type": "string",
                "value": "5dp"
            }
        }
    },
    "texti18n": "i18n.ProfileManagement.IAcceptTC",
    "tooltip": "",
    "wType": "Label",
    "zindex": 1
}