{
    "DNDConfig": null,
    "_height_": {
        "type": "string",
        "value": "40dp"
    },
    "_left_": {
        "type": "string",
        "value": "0%"
    },
    "_margin_": [
        0,
        0,
        0,
        0
    ],
    "_orientation_": 6,
    "_padding_": [
        0,
        0,
        0,
        0
    ],
    "_percent_": true,
    "_right_": {
        "type": "string",
        "value": "0%"
    },
    "_skin_": "s680c9bafb594fe4bfa388d84acc43b2",
    "_top_": {
        "type": "string",
        "value": "0dp"
    },
    "_width_": {
        "type": "string",
        "value": "100%"
    },
    "allboxes": [],
    "canUpdateUI": true,
    "centery": {
        "type": "number",
        "value": ""
    },
    "children": [
        "lblShowAllFeatures2",
        "flxDropDown2"
    ],
    "clipbounds": false,
    "containerweight": 100,
    "desktopweb": {
        "psp": {
            "hoverSkin": "s3e0ac30f9774278a868cb7c73908a76"
        }
    },
    "enablescrolling": true,
    "id": "flxAccountsRightContainer2",
    "info": null,
    "isvisible": true,
    "kuid": "c903ec8e47494c4d8daa30c689291011",
    "layouttype": 2,
    "name": "kony.ui.FlexContainer",
    "parent": "flxActionListBox",
    "pf": "frmAccountLevelFeaturePermissions",
    "responsiveData": {
        "b1": {
            "centerY": {
                "type": "string",
                "value": ""
            },
            "skin": "s90a3d6a0e234d9685e7d1b8013cf2a2",
            "zIndex": 50
        },
        "b2": {
            "right": {
                "type": "string",
                "value": "0.00%"
            }
        },
        "b4": {
            "right": {
                "type": "string",
                "value": ""
            },
            "skin": "s90a3d6a0e234d9685e7d1b8013cf2a2"
        }
    },
    "snapgridsize": 10,
    "snaptogrid": true,
    "wType": "FlexContainer",
    "widgetalignment": 1,
    "zindex": 1
}