{
    "DNDConfig": null,
    "_height_": {
        "type": "ref",
        "value": "preferred"
    },
    "_left_": {
        "type": "string",
        "value": "0dp"
    },
    "_margin_": [
        0,
        0,
        0,
        0
    ],
    "_orientation_": 6,
    "_padding_": [
        0,
        0,
        0,
        0
    ],
    "_percent_": true,
    "_skin_": "sdc143f0e5b64ae3a3f155f691c73fa7",
    "_top_": {
        "type": "string",
        "value": "0dp"
    },
    "_width_": {
        "type": "string",
        "value": "100%"
    },
    "allboxes": [],
    "autogrowmode": 1,
    "canUpdateUI": true,
    "children": [
        "flxEditRecipientsHeader",
        "flxSearchSortSeparator",
        "flxBulkSelectPermissions",
        "flxSearchSortSeparator3",
        "flxSearch",
        "flxSegment",
        "flxRowSeperator",
        "NoTransactions",
        "tablePagination"
    ],
    "clipbounds": false,
    "containerweight": 100,
    "enablescrolling": true,
    "id": "flxSelectPermissionsBulk",
    "info": null,
    "iscustomlayout": false,
    "isvisible": true,
    "kuid": "hc87079a22bd412db6fa2f9edb23b246",
    "layouttype": 4,
    "name": "kony.ui.FlexContainer",
    "parent": "flxSelectPermissions",
    "pf": "frmAccountLevelFeaturePermissions",
    "retaincontentalignment": false,
    "retainflexpositionproperties": false,
    "retainflowhorizontalalignment": false,
    "snapgridsize": 10,
    "snaptogrid": true,
    "wType": "FlexContainer",
    "widgetalignment": 1
}