{
    "@class": "com.kony.gen.viz.model.component.KVizLabel",
    "DNDConfig": null,
    "_height_": {
        "type": "ref",
        "value": "preferred"
    },
    "_left_": {
        "type": "string",
        "value": "2.20%"
    },
    "_margin_": [
        1,
        1,
        1,
        1
    ],
    "_padding_": [
        0,
        0,
        0,
        0
    ],
    "_skin_": "sffa7cd1b1684dc08c89e203ddb75736",
    "_text_": "Now your Available Balance in",
    "_top_": {
        "type": "string",
        "value": "19dp"
    },
    "_width_": {
        "type": "string",
        "value": "55%"
    },
    "_wrapping_": 2,
    "accessibilityconfig": {
        "a11yLabel": "Now your Available Balance in"
    },
    "android": {
        "textStyle": {
            "letterSpacing": 0,
            "strikeThrough": false
        }
    },
    "canUpdateUI": true,
    "containerweight": 100,
    "contentalignment": 4,
    "id": "lblAvailableBalance",
    "info": null,
    "ipad": {
        "psp": {
            "wrapping": 2
        }
    },
    "iphone": {
        "psp": {
            "wrapping": 2
        }
    },
    "isvisible": true,
    "kuid": "ca6cccf36d434f4981db68b884e8fdf0",
    "name": "kony.ui.Label",
    "parent": "flxBalance",
    "pf": "frmConfirmTransfer",
    "responsiveData": {
        "b3": {
            "skin": "s7430d55973048da9e66a8804b019227"
        }
    },
    "texti18n": "i18n.accounts.availableBalance",
    "tooltip": "",
    "wType": "Label",
    "zindex": 1
}