{
    "@class": "com.kony.gen.viz.model.component.KVizLabel",
    "DNDConfig": null,
    "_height_": {
        "type": "ref",
        "value": "preferred"
    },
    "_left_": {
        "type": "string",
        "value": "58.80%"
    },
    "_margin_": [
        1,
        1,
        1,
        1
    ],
    "_padding_": [
        0,
        0,
        2,
        0
    ],
    "_skin_": "s1905c5bb45f4e35ad57d03a7325b017",
    "_text_": "$2,348.00",
    "_width_": {
        "type": "string",
        "value": "40%"
    },
    "_wrapping_": 2,
    "accessibilityconfig": {},
    "android": {
        "textStyle": {
            "letterSpacing": 0,
            "strikeThrough": false
        }
    },
    "canUpdateUI": true,
    "centery": {
        "type": "string",
        "value": "50%"
    },
    "containerweight": 100,
    "contentalignment": 6,
    "id": "lblBalanceValue",
    "info": null,
    "ipad": {
        "psp": {
            "wrapping": 2
        }
    },
    "iphone": {
        "psp": {
            "wrapping": 2
        }
    },
    "isvisible": true,
    "kuid": "ic5c83534fa5474ba824dea3c14b0f3b",
    "name": "kony.ui.Label",
    "paddinginpixel": false,
    "parent": "flxBalance",
    "pf": "frmConfirmTransfer",
    "tooltip": "",
    "wType": "Label",
    "zindex": 1
}