{
    "@class": "com.kony.gen.viz.model.component.KVizLabel",
    "DNDConfig": null,
    "_height_": {
        "type": "ref",
        "value": "preferred"
    },
    "_left_": {
        "type": "string",
        "value": "6.07%"
    },
    "_margin_": [
        1,
        1,
        1,
        1
    ],
    "_padding_": [
        0,
        0,
        2,
        0
    ],
    "_skin_": "sb28ec75068d4f079d144277cf83312f",
    "_text_": "Send Money",
    "_top_": {
        "type": "string",
        "value": "30dp"
    },
    "_width_": {
        "type": "string",
        "value": "90%"
    },
    "_wrapping_": 2,
    "accessibilityconfig": {
        "a11yLabel": "Send Money"
    },
    "android": {
        "textStyle": {
            "letterSpacing": 0,
            "strikeThrough": false
        }
    },
    "canUpdateUI": true,
    "containerweight": 100,
    "contentalignment": 1,
    "id": "lblBillPayAcknowledgement",
    "info": null,
    "ipad": {
        "psp": {
            "wrapping": 2
        }
    },
    "iphone": {
        "psp": {
            "wrapping": 2
        }
    },
    "isvisible": true,
    "kuid": "d235be5ab4f9468bb1fd258760c3362e",
    "name": "kony.ui.Label",
    "paddinginpixel": false,
    "parent": "flxAckHeader",
    "pf": "frmConfirmTransfer",
    "responsiveData": {
        "b1": {
            "skin": "s18d3552bc4143569a7c5aef6bd5eaa1"
        },
        "b2": {
            "left": {
                "type": "string",
                "value": "2.50%"
            },
            "skin": "sb28ec75068d4f079d144277cf83312f"
        },
        "b3": {
            "height": {
                "type": "string",
                "value": "0dp"
            },
            "isVisible": false
        },
        "b4": {
            "skin": "s18d3552bc4143569a7c5aef6bd5eaa1"
        }
    },
    "texti18n": "i18n.hamburger.transfer",
    "tooltip": "",
    "wType": "Label",
    "zindex": 1
}