{
    "DNDConfig": null,
    "__parentReadjusting__": false,
    "_height_": {
        "type": "ref",
        "value": "preferred"
    },
    "_left_": {
        "type": "string",
        "value": "0dp"
    },
    "_margin_": [
        0,
        0,
        0,
        0
    ],
    "_orientation_": 6,
    "_padding_": [
        0,
        0,
        0,
        0
    ],
    "_percent_": true,
    "_skin_": "s6c9bd8b10be4f5b957b48add5a7e79b",
    "_top_": {
        "type": "string",
        "value": "0dp"
    },
    "_width_": {
        "type": "string",
        "value": "100%"
    },
    "allboxes": [],
    "autogrowmode": 1,
    "canUpdateUI": true,
    "children": [
        "flxShowDataFor",
        "flxAccountListActionsSegment"
    ],
    "clipbounds": false,
    "containerweight": 100,
    "enablescrolling": true,
    "id": "flxSelectAccount",
    "info": null,
    "iscustomlayout": false,
    "isvisible": true,
    "kuid": "e7560f4dff4645e185d06fadfd90e2d3",
    "layouttype": 4,
    "maxheight": {
        "type": "string",
        "value": "235dp"
    },
    "minheight": {
        "type": "string",
        "value": "100dp"
    },
    "name": "kony.ui.FlexContainer",
    "parent": "selectAccountList",
    "pf": "userwidgetmodel",
    "retaincontentalignment": false,
    "retainflexpositionproperties": false,
    "retainflowhorizontalalignment": false,
    "snapgridsize": 10,
    "snaptogrid": true,
    "wType": "FlexContainer",
    "widgetalignment": 1
}