{
    "@class": "com.kony.gen.viz.model.component.KVizButton",
    "DNDConfig": null,
    "_height_": {
        "type": "string",
        "value": "25dp"
    },
    "_margin_": [
        6,
        6,
        6,
        6
    ],
    "_padding_": [
        0,
        0,
        0,
        0
    ],
    "_right_": {
        "type": "string",
        "value": "0dp"
    },
    "_skin_": "sf6ca31ec68641e5a2df8232c58cd39a",
    "_text_": "SEND",
    "_width_": {
        "type": "ref",
        "value": "preferred"
    },
    "accessibilityconfig": {
        "a11yLabel": "SEND"
    },
    "canUpdateUI": true,
    "centery": {
        "type": "string",
        "value": "50%"
    },
    "containerId": true,
    "containerweight": 100,
    "contentalignment": 5,
    "disabledSkins": {},
    "displaytext": true,
    "focusskin": "sf6ca31ec68641e5a2df8232c58cd39a",
    "id": "btnSend",
    "ide_onClick": "AS_Button_d208bb09e87b448e9df29728cfefca60",
    "info": null,
    "isvisible": true,
    "kuid": "f75dc448578d4bdc8b0d0e169e64455c",
    "name": "kony.ui.Button",
    "parent": "flxSendAction",
    "pf": "segSendRequestMobileP2P",
    "wType": "Button",
    "zindex": 1
}