{
    "DNDConfig": null,
    "__parentReadjusting__": false,
    "_bottom_": {
        "type": "string",
        "value": "20dp"
    },
    "_height_": {
        "type": "string",
        "value": "60px"
    },
    "_left_": {
        "type": "number",
        "value": "0"
    },
    "_margin_": [
        0,
        0,
        0,
        0
    ],
    "_orientation_": 6,
    "_padding_": [
        0,
        0,
        0,
        0
    ],
    "_percent_": true,
    "_skin_": "sf8ce00bcddb438f82fddc0a98239102",
    "_width_": {
        "type": "string",
        "value": "87.09%"
    },
    "allboxes": [],
    "autogrowmode": 0,
    "canUpdateUI": true,
    "centerx": {
        "type": "string",
        "value": "50.00%"
    },
    "children": [
        "imgLogout",
        "lbfonticonlLogout",
        "lblLogout"
    ],
    "clipbounds": true,
    "containerweight": 100,
    "desktopweb": {
        "psp": {
            "hoverSkin": "sc0b0167743140aab846d6f6f44acc97"
        }
    },
    "disabledSkins": {},
    "enablescrolling": true,
    "id": "flxLogout",
    "info": null,
    "isvisible": true,
    "kuid": "ec5f22e9b43d4365b38c88d2034efc23",
    "layouttype": 3,
    "name": "kony.ui.FlexContainer",
    "parent": "flxMenu",
    "pf": "userwidgetmodel",
    "snapgridsize": 10,
    "snaptogrid": true,
    "wType": "FlexContainer",
    "widgetalignment": 1,
    "zindex": 10
}