{
    "@class": "com.kony.gen.viz.model.component.KVizLabel",
    "DNDConfig": null,
    "__parentReadjusting__": false,
    "_height_": {
        "type": "string",
        "value": "28px"
    },
    "_left_": {
        "type": "string",
        "value": "2.30%"
    },
    "_margin_": [
        1,
        1,
        1,
        1
    ],
    "_padding_": [
        0,
        0,
        0,
        0
    ],
    "_skin_": "s9739fe0569d4851a6e139a20b64dd6e",
    "_text_": "D",
    "_top_": {
        "type": "number",
        "value": "19"
    },
    "_width_": {
        "type": "string",
        "value": "17%"
    },
    "_wrapping_": 2,
    "accessibilityconfig": {
        "a11yLabel": "Default Account for Sending :"
    },
    "android": {
        "textStyle": {
            "letterSpacing": 0,
            "strikeThrough": false
        }
    },
    "canUpdateUI": true,
    "containerweight": 100,
    "contentalignment": 4,
    "id": "lblDefaultAccountForSending",
    "info": null,
    "ipad": {
        "psp": {
            "wrapping": 2
        }
    },
    "iphone": {
        "psp": {
            "wrapping": 2
        }
    },
    "isvisible": true,
    "kuid": "hf9edc48cd004c8b91821e30ad207c13",
    "name": "kony.ui.Label",
    "parent": "flxDefaultAccountForSending",
    "pf": "frmActivateWireTransfer",
    "responsiveData": {
        "b1": {
            "width": {
                "type": "string",
                "value": "19%"
            }
        },
        "b2": {
            "width": {
                "type": "string",
                "value": "19%"
            }
        },
        "b3": {
            "width": {
                "type": "string",
                "value": "30%"
            }
        },
        "b4": {
            "height": {
                "type": "string",
                "value": "38px"
            },
            "left": {
                "type": "string",
                "value": "2.50%"
            },
            "text": "Default account for sending:",
            "top": {
                "type": "string",
                "value": "6dp"
            },
            "width": {
                "type": "string",
                "value": "30%"
            }
        }
    },
    "texti18n": "i18n.MFA.DefaultAccountForSending",
    "tooltip": "",
    "wType": "Label",
    "zindex": 2
}