{
    "@class": "com.kony.gen.viz.model.component.KVizLabel",
    "DNDConfig": null,
    "__parentReadjusting__": false,
    "_height_": {
        "type": "string",
        "value": "30px"
    },
    "_left_": {
        "type": "string",
        "value": "28dp"
    },
    "_margin_": [
        1,
        1,
        1,
        1
    ],
    "_padding_": [
        0,
        0,
        0,
        0
    ],
    "_skin_": "s9739fe0569d4851a6e139a20b64dd6e",
    "_text_": "",
    "_top_": {
        "type": "string",
        "value": "18dp"
    },
    "_width_": {
        "type": "ref",
        "value": "preferred"
    },
    "_wrapping_": 2,
    "accessibilityconfig": {
        "a11yLabel": "Activate Wire Transfer"
    },
    "android": {
        "textStyle": {
            "letterSpacing": 0,
            "strikeThrough": false
        }
    },
    "canUpdateUI": true,
    "containerweight": 100,
    "contentalignment": 4,
    "id": "lblHeader",
    "info": null,
    "ipad": {
        "psp": {
            "wrapping": 2
        }
    },
    "iphone": {
        "psp": {
            "wrapping": 2
        }
    },
    "isvisible": true,
    "kuid": "e21621c8626a4766858c9f378c878b29",
    "name": "kony.ui.Label",
    "parent": "flxHeaderActivateWireTransfer",
    "pf": "frmActivateWireTransfer",
    "responsiveData": {
        "b4": {
            "isVisible": true,
            "width": {
                "type": "ref",
                "value": "preferred"
            }
        }
    },
    "texti18n": "i18n.WireTransfer.ActivateWireTransfer",
    "tooltip": "",
    "wType": "Label",
    "zindex": 1
}