{
    "@class": "com.kony.gen.viz.model.component.KVizLabel",
    "DNDConfig": null,
    "__parentReadjusting__": false,
    "_height_": {
        "type": "ref",
        "value": "preferred"
    },
    "_left_": {
        "type": "string",
        "value": "1%"
    },
    "_margin_": [
        1,
        1,
        1,
        1
    ],
    "_padding_": [
        0,
        0,
        0,
        0
    ],
    "_skin_": "s9739fe0569d4851a6e139a20b64dd6e",
    "_text_": "Payment guideline number One",
    "_top_": {
        "type": "string",
        "value": "4dp"
    },
    "_width_": {
        "type": "string",
        "value": "90%"
    },
    "_wrapping_": 2,
    "accessibilityconfig": {
        "a11yLabel": "The recipient of your wire transfer cant be a bank. It has to be an individual or business with the correct wire details."
    },
    "android": {
        "textStyle": {
            "letterSpacing": 0,
            "strikeThrough": false
        }
    },
    "canUpdateUI": true,
    "containerweight": 100,
    "contentalignment": 4,
    "id": "lblIns1",
    "info": null,
    "ipad": {
        "psp": {
            "wrapping": 2
        }
    },
    "iphone": {
        "psp": {
            "wrapping": 2
        }
    },
    "isvisible": true,
    "kuid": "i4b6e691e3e74d24be7206a2ac6733fc",
    "name": "kony.ui.Label",
    "parent": "flxone",
    "pf": "frmActivateWireTransfer",
    "responsiveData": {
        "b4": {
            "top": {
                "type": "string",
                "value": "0dp"
            }
        }
    },
    "texti18n": "i18n.WireTransfer.WTGuideline1",
    "tooltip": "",
    "wType": "Label",
    "zindex": 1
}