{
    "@class": "com.kony.gen.viz.model.component.KVizLabel",
    "DNDConfig": null,
    "__parentReadjusting__": false,
    "_height_": {
        "type": "ref",
        "value": "preferred"
    },
    "_left_": {
        "type": "string",
        "value": "1%"
    },
    "_margin_": [
        1,
        1,
        1,
        1
    ],
    "_padding_": [
        0,
        0,
        0,
        0
    ],
    "_skin_": "s9739fe0569d4851a6e139a20b64dd6e",
    "_text_": "Payment guidline number four.",
    "_top_": {
        "type": "string",
        "value": "5dp"
    },
    "_width_": {
        "type": "string",
        "value": "90%"
    },
    "_wrapping_": 2,
    "accessibilityconfig": {
        "a11yLabel": "In addition, based on country requirements, an international routing code and other information \\u2014 such as a reason for payment \\u2014 may be required. For international recipients, you will need either the recipient\\u2019s account number, the international bank account number (IBAN)."
    },
    "android": {
        "textStyle": {
            "letterSpacing": 0,
            "strikeThrough": false
        }
    },
    "canUpdateUI": true,
    "containerweight": 100,
    "contentalignment": 4,
    "id": "lblIns4",
    "info": null,
    "ipad": {
        "psp": {
            "wrapping": 2
        }
    },
    "iphone": {
        "psp": {
            "wrapping": 2
        }
    },
    "isvisible": true,
    "kuid": "c5ab90fd463f4e0aac2d60f1a23a7d29",
    "name": "kony.ui.Label",
    "parent": "flxFour",
    "pf": "frmActivateWireTransfer",
    "responsiveData": {
        "b4": {
            "top": {
                "type": "string",
                "value": "0dp"
            }
        }
    },
    "texti18n": "i18n.WireTransfer.WTGuideline4",
    "tooltip": "",
    "wType": "Label",
    "zindex": 1
}