{
    "@class": "com.kony.gen.viz.model.component.KVizListBox",
    "DNDConfig": null,
    "__parentReadjusting__": false,
    "_height_": {
        "type": "string",
        "value": "40dp"
    },
    "_left_": {
        "type": "string",
        "value": "3%"
    },
    "_margin_": [
        0,
        0,
        0,
        0
    ],
    "_padding_": [
        1,
        0,
        0,
        0
    ],
    "_skin_": "sbaba22b80b348e6a9f536af0ad26b53",
    "_top_": {
        "type": "string",
        "value": "9dp"
    },
    "_width_": {
        "type": "string",
        "value": "29.16%"
    },
    "canUpdateUI": true,
    "containerweight": 100,
    "contentalignment": 4,
    "context": {
        "channel": "desktop",
        "formID": "uwu8e83f0c901b421596ff45c146a1a561",
        "platform": "desktopweb",
        "templateType": "userwidgets",
        "topLevelBox": null
    },
    "desktopweb": {
        "psp": {
            "hoverSkin": "sba5012deddd4a46a4ba30a09e9df91b"
        }
    },
    "disabledSkins": {},
    "focusskin": "s9eb08f78097439eb767801e8fdeb5cd",
    "groupcells": false,
    "id": "lbxDefaultAccountForSending",
    "info": null,
    "isvisible": true,
    "kuid": "c550bb2fd1924920b165f4e667e37678",
    "masterdata": [
        [
            "lb1",
            "Personal Checking ...1234 (Available:4200.00)"
        ],
        [
            "lb2",
            "Listbox Two"
        ],
        [
            "lb3",
            "Listbox Three"
        ]
    ],
    "name": "kony.ui.ListBox",
    "paddinginpixel": false,
    "parent": "flxDefaultAccountForSending",
    "pf": "frmActivateWireTransfer",
    "responsiveData": {
        "b4": {
            "left": {
                "type": "string",
                "value": "2.50%"
            },
            "top": {
                "type": "string",
                "value": "50dp"
            },
            "width": {
                "type": "string",
                "value": "95%"
            }
        }
    },
    "selectedkeys": null,
    "selectedkeyvalue": null,
    "selectedkeyvalues": null,
    "size": 18,
    "viewconfig": {
        "toggleViewConfig": {
            "viewStyle": 0
        }
    },
    "viewtype": 0,
    "wType": "ListBox",
    "zindex": 1
}