{
    "@class": "com.kony.gen.viz.model.component.KVizButton",
    "DNDConfig": null,
    "__parentReadjusting__": false,
    "_height_": {
        "type": "ref",
        "value": "preferred"
    },
    "_left_": {
        "type": "string",
        "value": "0.50%"
    },
    "_margin_": [
        6,
        6,
        6,
        6
    ],
    "_padding_": [
        0,
        0,
        0,
        0
    ],
    "_skin_": "s611bd2c5d324490aa9f7ed9d412984f",
    "_text_": "",
    "_top_": {
        "type": "string",
        "value": "26dp"
    },
    "_width_": {
        "type": "ref",
        "value": "preferred"
    },
    "accessibilityconfig": {
        "a11yLabel": "Terms & Conditions"
    },
    "canUpdateUI": true,
    "containerweight": 100,
    "contentalignment": 5,
    "desktopweb": {
        "psp": {
            "hoverSkin": "s7fc7a5968394a5882dc2758c71a59a3"
        }
    },
    "disabledSkins": {
        "focusSkin": "sefaec1c283048808788386f6160e4d0"
    },
    "displaytext": true,
    "focusskin": null,
    "id": "btnTermsAndConditions",
    "info": null,
    "isvisible": true,
    "kuid": "dc2bb687f26d4b6dbc3f6bdcb583e05a",
    "name": "kony.ui.Button",
    "parent": "flxIAgree",
    "pf": "userwidgetmodel",
    "texti18n": "i18n.common.TnC",
    "tooltip": "Terms & Conditions",
    "wType": "Button",
    "zindex": 1
}