{
    "@class": "com.kony.gen.viz.model.component.KVizButton",
    "DNDConfig": null,
    "_bottom_": {
        "type": "string",
        "value": "0dp"
    },
    "_height_": {
        "type": "ref",
        "value": "preferred"
    },
    "_margin_": [
        6,
        6,
        6,
        6
    ],
    "_padding_": [
        0,
        0,
        0,
        0
    ],
    "_right_": {
        "type": "string",
        "value": "20dp"
    },
    "_skin_": "s86e1e2a30ab429ab3ae2b2854352c40",
    "_text_": "Button",
    "_width_": {
        "type": "ref",
        "value": "preferred"
    },
    "canUpdateUI": true,
    "containerweight": 100,
    "contentalignment": 5,
    "disabledSkins": {},
    "displaytext": true,
    "focusskin": "s86e1e2a30ab429ab3ae2b2854352c40",
    "id": "btnClearAll",
    "info": null,
    "iscustomlayout": false,
    "isvisible": true,
    "kuid": "e223ab80cfc34a0d8132bf2df97f9222",
    "name": "kony.ui.Button",
    "parent": "flxFilterWrapper",
    "pf": "frmLocateUsATMTab",
    "retaincontentalignment": false,
    "retainflexpositionproperties": false,
    "texti18n": "i18n.AccountsDetails.CLEARSEARCH",
    "wType": "Button",
    "zindex": 1
}