{
    "DNDConfig": null,
    "_height_": {
        "type": "string",
        "value": "190dp"
    },
    "_left_": {
        "type": "string",
        "value": "0dp"
    },
    "_margin_": [
        0,
        0,
        0,
        0
    ],
    "_orientation_": 6,
    "_padding_": [
        0,
        0,
        0,
        0
    ],
    "_percent_": true,
    "_skin_": "s24c92fc23b14f5484b693ee9b8a9b35",
    "_top_": {
        "type": "string",
        "value": "0dp"
    },
    "_width_": {
        "type": "string",
        "value": "100%"
    },
    "allboxes": [],
    "canUpdateUI": true,
    "children": [
        "imgBranchLogo",
        "lblBranchName",
        "lblDistanceAndTimeFromUser",
        "lblAddressLine1",
        "lblAddressLine2"
    ],
    "clipbounds": true,
    "containerweight": 100,
    "enablescrolling": true,
    "id": "flxBranchDetailHeader",
    "info": null,
    "iscustomlayout": false,
    "isvisible": true,
    "kuid": "e9ba20e716614bcebc886f13ed145eec",
    "layouttype": 2,
    "name": "kony.ui.FlexContainer",
    "parent": "flxBranchDetails",
    "pf": "frmLocateUsATMTab",
    "responsiveData": {
        "b2": {
            "height": {
                "type": "string",
                "value": "180dp"
            }
        }
    },
    "retaincontentalignment": false,
    "retainflexpositionproperties": false,
    "retainflowhorizontalalignment": false,
    "snapgridsize": 10,
    "snaptogrid": true,
    "wType": "FlexContainer",
    "widgetalignment": 1,
    "zindex": 1
}