{
    "DNDConfig": null,
    "_bottom_": {
        "type": "number",
        "value": ""
    },
    "_height_": {
        "type": "string",
        "value": "650dp"
    },
    "_left_": {
        "type": "string",
        "value": "33%"
    },
    "_margin_": [
        0,
        0,
        0,
        0
    ],
    "_orientation_": 6,
    "_padding_": [
        0,
        0,
        0,
        0
    ],
    "_percent_": true,
    "_right_": {
        "type": "number",
        "value": ""
    },
    "_skin_": "s24c92fc23b14f5484b693ee9b8a9b35",
    "_top_": {
        "type": "string",
        "value": "0dp"
    },
    "_width_": {
        "type": "string",
        "value": "67%"
    },
    "allboxes": [],
    "canUpdateUI": true,
    "children": [
        "flxSeperator",
        "mapLocateUs",
        "flxZoom",
        "imgMyLocation",
        "flxMapOverlay",
        "flxBranchDetails"
    ],
    "clipbounds": true,
    "containerweight": 100,
    "enablescrolling": true,
    "id": "flxRightContent",
    "info": null,
    "iscustomlayout": false,
    "isvisible": true,
    "kuid": "f82aafa24a7447d0b86449d382abb74d",
    "layouttype": 2,
    "name": "kony.ui.FlexContainer",
    "parent": "flxTabContent",
    "pf": "frmLocateUsATMTab",
    "responsiveData": {
        "b1": {
            "left": {
                "type": "string",
                "value": "395dp"
            },
            "right": {
                "type": "string",
                "value": "0dp"
            },
            "width": {
                "type": "string",
                "value": ""
            }
        },
        "b2": {
            "left": {
                "type": "string",
                "value": "395dp"
            },
            "right": {
                "type": "string",
                "value": "0dp"
            },
            "width": {
                "type": "string",
                "value": "58%"
            }
        },
        "b3": {
            "bottom": {
                "type": "string",
                "value": "0dp"
            },
            "height": {
                "type": "string",
                "value": ""
            },
            "isVisible": false,
            "left": {
                "type": "string",
                "value": "0%"
            },
            "top": {
                "type": "string",
                "value": "120dp"
            },
            "width": {
                "type": "string",
                "value": "100%"
            },
            "zIndex": 2
        }
    },
    "retaincontentalignment": false,
    "retainflexpositionproperties": false,
    "retainflowhorizontalalignment": false,
    "snapgridsize": 10,
    "snaptogrid": true,
    "wType": "FlexContainer",
    "widgetalignment": 1,
    "zindex": 2
}