{
    "@class": "com.kony.gen.viz.model.container.KVizSegment2",
    "DNDConfig": null,
    "_data_": [{
            "imgCheckBox": {
                "@class": "com.viz.ide.model.segment.ImageSegmentData",
                "src": "checked_box.png"
            },
            "lblCheckbox": {
                "@class": "com.viz.ide.model.segment.SimpleTextSegmentData",
                "text": "C"
            },
            "lblOption": {
                "@class": "com.viz.ide.model.segment.SimpleTextSegmentData",
                "text": "Drive Up ATM"
            },
            "lblSepartor": {
                "@class": "com.viz.ide.model.segment.SimpleTextSegmentData",
                "text": "Label"
            }
        },
        {
            "imgCheckBox": {
                "@class": "com.viz.ide.model.segment.ImageSegmentData",
                "src": "checked_box.png"
            },
            "lblCheckbox": {
                "@class": "com.viz.ide.model.segment.SimpleTextSegmentData",
                "text": "C"
            },
            "lblOption": {
                "@class": "com.viz.ide.model.segment.SimpleTextSegmentData",
                "text": "Drive Up ATM"
            },
            "lblSepartor": {
                "@class": "com.viz.ide.model.segment.SimpleTextSegmentData",
                "text": "Label"
            }
        },
        {
            "imgCheckBox": {
                "@class": "com.viz.ide.model.segment.ImageSegmentData",
                "src": "checked_box.png"
            },
            "lblCheckbox": {
                "@class": "com.viz.ide.model.segment.SimpleTextSegmentData",
                "text": "C"
            },
            "lblOption": {
                "@class": "com.viz.ide.model.segment.SimpleTextSegmentData",
                "text": "Drive Up ATM"
            },
            "lblSepartor": {
                "@class": "com.viz.ide.model.segment.SimpleTextSegmentData",
                "text": "Label"
            }
        },
        {
            "imgCheckBox": {
                "@class": "com.viz.ide.model.segment.ImageSegmentData",
                "src": "checked_box.png"
            },
            "lblCheckbox": {
                "@class": "com.viz.ide.model.segment.SimpleTextSegmentData",
                "text": "C"
            },
            "lblOption": {
                "@class": "com.viz.ide.model.segment.SimpleTextSegmentData",
                "text": "Drive Up ATM"
            },
            "lblSepartor": {
                "@class": "com.viz.ide.model.segment.SimpleTextSegmentData",
                "text": "Label"
            }
        },
        {
            "imgCheckBox": {
                "@class": "com.viz.ide.model.segment.ImageSegmentData",
                "src": "checked_box.png"
            },
            "lblCheckbox": {
                "@class": "com.viz.ide.model.segment.SimpleTextSegmentData",
                "text": "C"
            },
            "lblOption": {
                "@class": "com.viz.ide.model.segment.SimpleTextSegmentData",
                "text": "Drive Up ATM"
            },
            "lblSepartor": {
                "@class": "com.viz.ide.model.segment.SimpleTextSegmentData",
                "text": "Label"
            }
        }
    ],
    "_height_": {
        "type": "ref",
        "value": "preferred"
    },
    "_indicator_": "none",
    "_left_": {
        "type": "string",
        "value": "0dp"
    },
    "_margin_": [
        0,
        0,
        0,
        0
    ],
    "_orientation_": 2,
    "_padding_": [
        0,
        0,
        0,
        0
    ],
    "_top_": {
        "type": "string",
        "value": "50dp"
    },
    "_width_": {
        "type": "string",
        "value": "100%"
    },
    "autogrowmode": 1,
    "canUpdateUI": true,
    "containerweight": 100,
    "counter": "04",
    "focusedindex": null,
    "focuseditem": null,
    "groupcells": false,
    "hasSections": false,
    "id": "segFilters",
    "info": null,
    "ipad": {
        "psp": {
            "indicator": "rowselect"
        }
    },
    "iphone": {
        "psp": {
            "indicator": "rowselect"
        }
    },
    "iscustomlayout": false,
    "isvisible": true,
    "kuid": "e12079b0dc874620962a7467a96cd7c8",
    "masterdata": {},
    "name": "kony.ui.SegmentedUI2",
    "needpageindicator": true,
    "pageoffdotimage": "pageoffdot.png",
    "pageondotimage": "pageondot.png",
    "paginationconfig": {
        "position": "bottom"
    },
    "parent": "flxFilters",
    "pf": "frmLocateUsATMTab",
    "retaincontentalignment": false,
    "retainflexpositionproperties": false,
    "retainselection": false,
    "rowTemplateId": "c83572d6e5864945826128e2eea50854",
    "rowcounter": 4,
    "rowfocusskin": "s0f9bf3c1b3e4a7bb6bf9fd18b0211f2",
    "rowskin": "scf5f90f6ac04976ab88b2a4f7153285",
    "rowtemplate": "flxOption",
    "screenlevelwidget": false,
    "seccounter": 0,
    "sectionheaderskin": "sdc4ff4ed1584272be2ae69045dfb29d",
    "selectedRows": null,
    "selectedState": false,
    "selectedindex": null,
    "selectedindices": null,
    "selecteditems": null,
    "selectedsectionindex": 0,
    "selectionbehavior": "default",
    "separatorcolor": "aaaaaa00",
    "separatorrequired": true,
    "separatorthickness": 0,
    "showscrollbars": false,
    "viewtype": "tableview",
    "vizProps": {},
    "wType": "Segment",
    "widgetalignment": 5,
    "widgetdatamap": {
        "flxOption": "flxOption",
        "flximg": "flximg",
        "imgCheckBox": "imgCheckBox",
        "lblCheckbox": "lblCheckbox",
        "lblOption": "lblOption",
        "lblSepartor": "lblSepartor"
    },
    "zindex": 1
}