{
    "@class": "com.kony.gen.viz.model.component.KVizUserWidget",
    "DNDConfig": null,
    "__parentReadjusting__": false,
    "_children_": [],
    "_height_": {
        "type": "string",
        "value": "111dp"
    },
    "_margin_": [
        0,
        0,
        0,
        0
    ],
    "_orientation_": 1,
    "_padding_": [
        0,
        0,
        0,
        0
    ],
    "_percent_": true,
    "_render_": true,
    "_skin_": "s24c92fc23b14f5484b693ee9b8a9b35",
    "_top_": {
        "type": "string",
        "value": "0dp"
    },
    "_width_": {
        "type": "string",
        "value": "100%"
    },
    "canUpdateUI": true,
    "centerx": {
        "type": "string",
        "value": "50%"
    },
    "containerweight": 0,
    "data": {},
    "id": "ACHFilesActions",
    "info": null,
    "iscustomlayout": false,
    "isvisible": false,
    "kuid": "db278085c048488dae75a4e5843fcc6d",
    "masterType": 1,
    "name": "kony.ui.UserWidgetInstance",
    "parent": "flxFilesACHActions",
    "pf": "frmACHDashboard",
    "retaincontentalignment": false,
    "retainflexpositionproperties": false,
    "sourceUserWidget": "be8a6b4593374b9cb082c51e3ac878cd",
    "wType": "UserWidgetInstance",
    "zindex": 1
}