{
    "@class": "com.kony.gen.viz.model.component.KVizUserWidget",
    "DNDConfig": null,
    "__parentReadjusting__": false,
    "_android_": {},
    "_androidwearos_": {},
    "_children_": [],
    "_desktopweb_": {},
    "_height_": {
        "type": "ref",
        "value": "preferred"
    },
    "_ipad_": {},
    "_iphone_": {},
    "_kiosk_": {},
    "_left_": {
        "type": "string",
        "value": "1.10%"
    },
    "_margin_": [
        0,
        0,
        0,
        0
    ],
    "_orientation_": 1,
    "_padding_": [
        0,
        0,
        0,
        0
    ],
    "_percent_": true,
    "_responsiveData_": {
        "b2": {
            "isVisible": false,
            "width": {
                "type": "string",
                "value": "0%"
            }
        },
        "b3": {
            "isVisible": false,
            "width": {
                "type": "string",
                "value": "0%"
            }
        }
    },
    "_skin_": "s24c92fc23b14f5484b693ee9b8a9b35",
    "_spa_": {},
    "_spaan_": {},
    "_spaandroidtablet_": {},
    "_spabb_": {},
    "_spaip_": {},
    "_spaipad_": {},
    "_spamobile_": {},
    "_spatablet_": {},
    "_spawindowstablet_": {},
    "_spawinphone8_": {},
    "_tabrcandroid_": {},
    "_top_": {
        "type": "string",
        "value": "0dp"
    },
    "_vizProps_": {
        "hidewidgethierarchy": false
    },
    "_width_": {
        "type": "string",
        "value": "28.68%"
    },
    "_windows10_": {},
    "_windows8_": {},
    "_winphone10_": {},
    "_winphone8_": {},
    "areflexpropsreferenced": false,
    "autogrowmode": 1,
    "canUpdateUI": true,
    "clipbounds": true,
    "containerweight": 0,
    "dataDiffs": {
        "btnAction1": {
            "__events__": {},
            "__info__": {
                "kuid": "jf0de7676dea4cb09c224fb947a074ec",
                "srcKUID": "f8e6d1f8b09d49a1a6b1edb8e091a32c",
                "wType": "Button"
            },
            "left": {},
            "responsiveData": {
                "b4": {
                    "left": {
                        "type": "string",
                        "value": "30dp"
                    },
                    "right": {
                        "type": "string",
                        "value": ""
                    }
                }
            },
            "right": {}
        },
        "btnAction2": {
            "__events__": {},
            "__info__": {
                "kuid": "ef9b9eeed0e446b9a5f83154db0ac955",
                "srcKUID": "b88aa1a0c2a949478f4c87cb6d9e9b51",
                "wType": "Button"
            },
            "responsiveData": {}
        },
        "btnAction3": {
            "__events__": {},
            "__info__": {
                "kuid": "b55a689cf0e44bbaa704ea716a2b0d24",
                "srcKUID": "c932ddf30c264dbba8dd7c9dbd669ee5",
                "wType": "Button"
            },
            "responsiveData": {}
        },
        "dbRightContainerNew": {
            "__events__": {},
            "__info__": {
                "isRoot": true,
                "kuid": "b9c227160dc94bc8a5b0be0a8bcf6024",
                "srcKUID": "jdba55d4bf8f4f2891f690f16348aed9",
                "wType": "FlexContainer"
            },
            "responsiveData": {
                "b2": {
                    "isVisible": false,
                    "width": {
                        "type": "string",
                        "value": "0%"
                    }
                },
                "b3": {
                    "isVisible": false,
                    "width": {
                        "type": "string",
                        "value": "0%"
                    }
                }
            },
            "top": {
                "Default": {
                    "type": "string",
                    "value": "0dp"
                }
            },
            "width": {
                "Default": {
                    "type": "string",
                    "value": "28.68%"
                }
            }
        },
        "flxACtionSeperator2": {
            "__events__": {},
            "__info__": {
                "kuid": "h5360fe81696412fb6fd9be9abd8bd5c",
                "srcKUID": "e189d4c981a844888bd8eb875bd04bbf",
                "wType": "FlexContainer"
            }
        },
        "flxAction2": {
            "__events__": {},
            "__info__": {
                "kuid": "f97b268afd9b4cebbf8c132bdc4ea548",
                "srcKUID": "j32443ed79ae4faf9a5d4fa653691161",
                "wType": "FlexContainer"
            }
        },
        "flxAction3": {
            "__events__": {},
            "__info__": {
                "kuid": "b68788aed0eb4c38a943515a93b791fe",
                "srcKUID": "ad1a0f941a894dafb702551e12b494e2",
                "wType": "FlexContainer"
            }
        },
        "flxActionHeaderSeperator": {
            "__events__": {},
            "__info__": {
                "kuid": "c3f4736176a1461884b1dd5e7dd73b24",
                "srcKUID": "g39234c80d1d45028e89d3d5e6ed1663",
                "wType": "FlexContainer"
            }
        },
        "flxActionSeperator": {
            "__events__": {},
            "__info__": {
                "kuid": "fbca5bfae64d4a1fbecfe8da05e04e0f",
                "srcKUID": "f4e45159a1a4401cbf7d54b1084d8106",
                "wType": "FlexContainer"
            }
        },
        "flxActions": {
            "__events__": {},
            "__info__": {
                "kuid": "ic28baf73c9d45a585b687b49ce8e8ad",
                "srcKUID": "f50aaba7bfce43a58436f67bbd5a6e15",
                "wType": "FlexContainer"
            }
        },
        "flxBannerWrapper": {
            "__events__": {},
            "__info__": {
                "kuid": "bebce61934354dd2a14b5f85b417849c",
                "srcKUID": "b45afe35609247f08f1b8027ca6747c1",
                "wType": "FlexContainer"
            }
        },
        "flxImgBanner": {
            "__events__": {},
            "__info__": {
                "kuid": "e3c097138c7b44c4a58c2793d74023f4",
                "srcKUID": "h48df03bb80746b0a36c52c5db8a7465",
                "wType": "FlexContainer"
            }
        },
        "imgBanner": {
            "__events__": {},
            "__info__": {
                "kuid": "c22466bf7ca74874b0377526558d4689",
                "srcKUID": "c484beaeb8644ab99e3e821a46a9c517",
                "wType": "Image"
            },
            "src": "nuo_banner_1.png"
        },
        "lblActionHeader": {
            "__events__": {},
            "__info__": {
                "kuid": "b6a6abf7a5854439ba86122ead5604dc",
                "srcKUID": "ba33bd21ac5a4ca4a4ad4405630b52e9",
                "wType": "Label"
            },
            "responsiveData": {}
        }
    },
    "enablescrolling": true,
    "id": "dbRightContainerNew",
    "info": null,
    "iscustomlayout": false,
    "isdatareferenced": false,
    "isvisible": true,
    "kuid": "b9c227160dc94bc8a5b0be0a8bcf6024",
    "layouttype": 4,
    "masterType": 0,
    "name": "kony.ui.UserWidgetInstance",
    "parent": "flxContentDashBoard",
    "pf": "frmACHDashboard",
    "retaincontentalignment": false,
    "retainflexpositionproperties": false,
    "snapgridsize": 10,
    "snaptogrid": true,
    "sourceUserWidget": "jdba55d4bf8f4f2891f690f16348aed9",
    "wType": "UserWidgetInstance",
    "zindex": 1
}