{
    "DNDConfig": null,
    "__parentReadjusting__": false,
    "_bottom_": {
        "type": "string",
        "value": "0dp"
    },
    "_height_": {
        "type": "ref",
        "value": "preferred"
    },
    "_left_": {
        "type": "string",
        "value": "0%"
    },
    "_margin_": [
        0,
        0,
        0,
        0
    ],
    "_orientation_": 6,
    "_padding_": [
        0,
        0,
        0,
        0
    ],
    "_percent_": true,
    "_skin_": "s24c92fc23b14f5484b693ee9b8a9b35",
    "_top_": {
        "type": "string",
        "value": "0dp"
    },
    "_width_": {
        "type": "string",
        "value": "100%"
    },
    "allboxes": [],
    "autogrowmode": 1,
    "canUpdateUI": true,
    "children": [
        "flxACHFilesHeader",
        "flxACHFilesSeparator",
        "flxErrorFlow",
        "lblFormatType",
        "flxFormatType",
        "lblUploadFile",
        "flxUploadFile",
        "flxUploadedFileDetails",
        "flxACHFilesSeparator2",
        "flxFilesACHActions"
    ],
    "clipbounds": false,
    "containerweight": 100,
    "enablescrolling": true,
    "id": "flxACHFilesUpload",
    "info": null,
    "iscustomlayout": false,
    "isvisible": true,
    "kuid": "h30aeac2619347378d2af453c51e191d",
    "layouttype": 4,
    "name": "kony.ui.FlexContainer",
    "parent": "flxDashboard",
    "pf": "frmACHDashboard",
    "responsiveData": {
        "b1": {
            "isVisible": false
        },
        "b4": {}
    },
    "retaincontentalignment": false,
    "retainflexpositionproperties": false,
    "snapgridsize": 10,
    "snaptogrid": true,
    "wType": "FlexContainer",
    "widgetalignment": 1,
    "zindex": 1
}