{
    "DNDConfig": null,
    "__parentReadjusting__": false,
    "_height_": {
        "type": "ref",
        "value": "preferred"
    },
    "_left_": {
        "type": "string",
        "value": "0"
    },
    "_margin_": [
        0,
        0,
        0,
        0
    ],
    "_orientation_": 6,
    "_padding_": [
        0,
        0,
        0,
        0
    ],
    "_percent_": true,
    "_skin_": "s24c92fc23b14f5484b693ee9b8a9b35",
    "_top_": {
        "type": "string",
        "value": "0"
    },
    "_width_": {
        "type": "string",
        "value": "94.97%"
    },
    "allboxes": [],
    "autogrowmode": 1,
    "canUpdateUI": true,
    "centerx": {
        "type": "number",
        "value": ""
    },
    "children": [
        "flxErrorUpload"
    ],
    "clipbounds": true,
    "containerweight": 100,
    "enablescrolling": true,
    "id": "flxErrorFlow",
    "info": null,
    "iscustomlayout": false,
    "isvisible": false,
    "kuid": "a4f1f56722a641ee96127afb9367f098",
    "layouttype": 2,
    "name": "kony.ui.FlexContainer",
    "parent": "flxACHFilesUpload",
    "pf": "frmACHDashboard",
    "responsiveData": {
        "b3": {
            "centerX": {
                "type": "string",
                "value": "50%"
            },
            "isVisible": false,
            "width": {
                "type": "string",
                "value": "95%"
            }
        }
    },
    "retaincontentalignment": false,
    "retainflexpositionproperties": false,
    "snapgridsize": 10,
    "snaptogrid": true,
    "wType": "FlexContainer",
    "widgetalignment": 1
}