{
    "@class": "com.kony.gen.viz.model.component.KVizLabel",
    "DNDConfig": null,
    "__parentReadjusting__": false,
    "_height_": {
        "type": "string",
        "value": "50%"
    },
    "_left_": {
        "type": "string",
        "value": "9dp"
    },
    "_margin_": [
        1,
        1,
        1,
        1
    ],
    "_padding_": [
        0,
        0,
        0,
        0
    ],
    "_skin_": "s756a5ea3a23427e8c930666d4834716",
    "_text_": "",
    "_top_": {
        "type": "string",
        "value": "9dp"
    },
    "_width_": {
        "type": "ref",
        "value": "preferred"
    },
    "_wrapping_": 2,
    "android": {
        "textStyle": {
            "letterSpacing": 0,
            "strikeThrough": false
        }
    },
    "canUpdateUI": true,
    "centerx": {
        "type": "number",
        "value": ""
    },
    "centery": {
        "type": "string",
        "value": "50%"
    },
    "containerweight": 100,
    "contentalignment": 4,
    "id": "lblApprovalHistoryError",
    "info": null,
    "ipad": {
        "psp": {
            "wrapping": 2
        }
    },
    "iphone": {
        "psp": {
            "wrapping": 2
        }
    },
    "iscustomlayout": false,
    "isvisible": true,
    "kuid": "c7935e1c1d864bb8b9218f58d07a1ee4",
    "name": "kony.ui.Label",
    "parent": "flxApprovalsHistoryErrorMessage",
    "pf": "frmACHDashboard",
    "responsiveData": {
        "b1": {
            "centerX": {
                "type": "string",
                "value": "7%"
            },
            "left": {
                "type": "string",
                "value": ""
            }
        },
        "b2": {
            "centerX": {
                "type": "string",
                "value": "7%"
            },
            "left": {
                "type": "string",
                "value": ""
            }
        },
        "b4": {
            "centerX": {
                "type": "string",
                "value": "7%"
            },
            "left": {
                "type": "string",
                "value": ""
            }
        }
    },
    "retaincontentalignment": false,
    "retainflexpositionproperties": false,
    "texti18n": "i18n.konybb.createUser.ErrorMessage",
    "tooltip": "",
    "wType": "Label",
    "zindex": 1
}