{
    "@class": "com.kony.gen.viz.model.component.KVizButton",
    "DNDConfig": null,
    "__parentReadjusting__": false,
    "_height_": {
        "type": "ref",
        "value": "preferred"
    },
    "_margin_": [
        6,
        6,
        6,
        6
    ],
    "_padding_": [
        0,
        0,
        0,
        0
    ],
    "_right_": {
        "type": "string",
        "value": "23%"
    },
    "_skin_": "se4cbdf6e51f48eda9966caa941c6a19",
    "_text_": "PRINT",
    "_top_": {
        "type": "string",
        "value": "0dp"
    },
    "_width_": {
        "type": "ref",
        "value": "preferred"
    },
    "accessibilityconfig": {
        "a11yLabel": "Modify"
    },
    "canUpdateUI": true,
    "centery": {
        "type": "string",
        "value": "50%"
    },
    "containerId": true,
    "containerweight": 100,
    "contentalignment": 4,
    "desktopweb": {
        "psp": {
            "hoverSkin": "s8ba57bbb01e49f2acad2f1ea21d8717"
        }
    },
    "disabledSkins": {
        "focusSkin": "sf44d06ca8224832827ea7fdff757013"
    },
    "displaytext": true,
    "id": "btnAction",
    "ide_onClick": "AS_Button_g4d926f98e6a453086052eb47586e5d5",
    "info": null,
    "isvisible": true,
    "kuid": "d3240209f779464fba090125099f9d12",
    "name": "kony.ui.Button",
    "parent": "flxAction",
    "pf": "segScheduledTransactionsMobile",
    "texti18n": "i18n.transfers.Modify",
    "tooltip": "Print",
    "wType": "Button",
    "zindex": 1
}