{
    "DNDConfig": null,
    "__parentReadjusting__": false,
    "_height_": {
        "type": "string",
        "value": "180dp"
    },
    "_left_": {
        "type": "string",
        "value": "610dp"
    },
    "_margin_": [
        0,
        0,
        0,
        0
    ],
    "_orientation_": 6,
    "_padding_": [
        0,
        0,
        0,
        0
    ],
    "_percent_": true,
    "_right_": {
        "type": "number",
        "value": ""
    },
    "_skin_": "s2f1930e68bc4b258cfe821e7f0122cd",
    "_top_": {
        "type": "string",
        "value": "293dp"
    },
    "_width_": {
        "type": "string",
        "value": "549dp"
    },
    "allboxes": [],
    "canUpdateUI": true,
    "children": [
        "flxRecipientInfo",
        "flxRecipientProceed",
        "flxArrow5"
    ],
    "clipbounds": false,
    "containerweight": 100,
    "desktopweb": {
        "psp": {
            "hoverSkin": "sdc143f0e5b64ae3a3f155f691c73fa7"
        }
    },
    "disabledSkins": {},
    "enablescrolling": true,
    "id": "flxRecipient",
    "info": null,
    "isvisible": true,
    "kuid": "je0b695de66e489ca95070b0638fa87c",
    "layouttype": 4,
    "name": "kony.ui.FlexContainer",
    "parent": "flxAddRecipientGateway",
    "pf": "frmFastRecipientGateWay",
    "responsiveData": {
        "b2": {
            "left": {
                "type": "string",
                "value": "51.25%"
            },
            "width": {
                "type": "string",
                "value": "46.25%"
            }
        },
        "b3": {
            "height": {
                "type": "string",
                "value": "72dp"
            },
            "layoutType": 3,
            "left": {
                "type": "string",
                "value": "2%"
            },
            "right": {
                "type": "string",
                "value": "2%"
            },
            "skin": "sdc143f0e5b64ae3a3f155f691c73fa7",
            "top": {
                "type": "string",
                "value": "10dp"
            },
            "width": {
                "type": "string",
                "value": "96%"
            }
        },
        "b4": {
            "left": {
                "type": "string",
                "value": "51.25%"
            },
            "width": {
                "type": "string",
                "value": "46.25%"
            }
        }
    },
    "snapgridsize": 10,
    "snaptogrid": true,
    "wType": "FlexContainer",
    "widgetalignment": 1,
    "zindex": 1
}