{
    "@class": "com.kony.gen.viz.model.component.KVizRadio",
    "DNDConfig": null,
    "__parentReadjusting__": false,
    "_height_": {
        "type": "ref",
        "value": "preferred"
    },
    "_left_": {
        "type": "string",
        "value": "19.80%"
    },
    "_margin_": [
        0,
        0,
        0,
        0
    ],
    "_padding_": [
        0,
        0,
        0,
        0
    ],
    "_skin_": "s2872f55702348d6a2d3cb6bc31a032a",
    "_top_": {
        "type": "string",
        "value": "8.309999999999999%"
    },
    "_width_": {
        "type": "string",
        "value": "55%"
    },
    "android": {
        "psp": {
            "viewType": 0
        }
    },
    "canUpdateUI": true,
    "containerweight": 100,
    "groupcells": false,
    "id": "rbtVerifyByDeposits",
    "info": null,
    "ipad": {
        "psp": {
            "viewType": 0
        }
    },
    "iphone": {
        "psp": {
            "viewType": 0
        }
    },
    "isvisible": false,
    "itemorientation": "vertical",
    "kuid": "j428403e8da44d36b5a9a98b3bb6624e",
    "masterdata": [
        [
            "rbg1",
            "Radiobutton One",
            "i18n.transfers.verifyTrialDeposits"
        ]
    ],
    "name": "kony.ui.RadioButtonGroup",
    "parent": "FlexContainer0b1276e9df29f47",
    "pf": "userwidgetmodel",
    "selectedkey": null,
    "selectedkeyvalue": null,
    "size": 18,
    "viewconfig": {
        "toggleViewConfig": {
            "viewStyle": 0
        }
    },
    "viewtype": 0,
    "wType": "RadioButtonGroup",
    "widgetalignment": 5,
    "zindex": 1
}