{
    "DNDConfig": null,
    "__parentReadjusting__": false,
    "_height_": {
        "type": "string",
        "value": "650dp"
    },
    "_margin_": [
        0,
        0,
        0,
        0
    ],
    "_orientation_": 6,
    "_padding_": [
        0,
        0,
        0,
        0
    ],
    "_percent_": true,
    "_skin_": "s701065f11074080832b59947e731160",
    "_top_": {
        "type": "string",
        "value": "150dp"
    },
    "_width_": {
        "type": "string",
        "value": "795dp"
    },
    "allboxes": [],
    "autogrowmode": 0,
    "canUpdateUI": true,
    "centerx": {
        "type": "string",
        "value": "50%"
    },
    "centery": {
        "type": "string",
        "value": "50%"
    },
    "children": [
        "flxTermsAndConditionsHeader",
        "flxSeperator1",
        "flxTCContents",
        "flxScrollDetails"
    ],
    "clipbounds": false,
    "containerweight": 100,
    "enablescrolling": true,
    "id": "flxTC",
    "info": null,
    "isvisible": true,
    "kuid": "cd7b56d3a4e648c1b14bf280802c1a8b",
    "layouttype": 4,
    "name": "kony.ui.FlexContainer",
    "parent": "flxTermsAndConditionsPopUp",
    "pf": "frmBulkBeneficiariesSelectedAcknowledgement",
    "responsiveData": {
        "b2": {
            "top": {
                "type": "string",
                "value": "100dp"
            },
            "width": {
                "type": "string",
                "value": "80%"
            }
        }
    },
    "snapgridsize": 10,
    "snaptogrid": true,
    "vizProps": {},
    "wType": "FlexContainer",
    "widgetalignment": 1,
    "zindex": 1
}