{
    "@class": "com.kony.gen.viz.model.component.KVizLabel",
    "DNDConfig": null,
    "__parentReadjusting__": false,
    "_height_": {
        "type": "ref",
        "value": "preferred"
    },
    "_left_": {
        "type": "string",
        "value": "8.33%"
    },
    "_margin_": [
        1,
        1,
        1,
        1
    ],
    "_padding_": [
        0,
        0,
        0,
        0
    ],
    "_skin_": "s1af4004be374a1cbf307cfbb14c6278",
    "_text_": "Label",
    "_width_": {
        "type": "ref",
        "value": "preferred"
    },
    "_wrapping_": 2,
    "accessibilityconfig": {
        "a11yLabel": "Success! You have paid your bills."
    },
    "android": {
        "textStyle": {
            "letterSpacing": 0,
            "strikeThrough": false
        }
    },
    "canUpdateUI": true,
    "centery": {
        "type": "string",
        "value": "50%"
    },
    "containerweight": 100,
    "contentalignment": 4,
    "id": "lblSuccessAcknowledgement",
    "info": null,
    "ipad": {
        "psp": {
            "wrapping": 2
        }
    },
    "iphone": {
        "psp": {
            "wrapping": 2
        }
    },
    "isvisible": true,
    "kuid": "cda6c866088e4caa8702fcdb08633035",
    "name": "kony.ui.Label",
    "parent": "flxSuccessMessage",
    "pf": "frmBulkBeneficiariesSelectedAcknowledgement",
    "responsiveData": {
        "b2": {
            "left": {
                "type": "string",
                "value": "11.33%"
            }
        }
    },
    "texti18n": "i18n.billPay.AcknowledgementMessage",
    "tooltip": "",
    "wType": "Label",
    "zindex": 1
}