{
    "@class": "com.kony.gen.viz.model.component.KVizImage2",
    "DNDConfig": null,
    "_base64_": null,
    "_height_": {
        "type": "string",
        "value": "150dp"
    },
    "_left_": {
        "type": "string",
        "value": "0"
    },
    "_margin_": [
        0,
        0,
        0,
        0
    ],
    "_padding_": [
        0,
        0,
        0,
        0
    ],
    "_right_": {
        "type": "number",
        "value": ""
    },
    "_skin_": "se4444cc8d604aea82bf3dafcc22e360",
    "_src_": "imagedrag.png",
    "_top_": {
        "type": "string",
        "value": "0"
    },
    "_width_": {
        "type": "string",
        "value": "150dp"
    },
    "canUpdateUI": true,
    "containerweight": 100,
    "id": "imgCloseInfoZipCode",
    "imagescalemode": 1,
    "info": null,
    "iscustomlayout": false,
    "isvisible": true,
    "kuid": "e01fd8dc10b642df9977c7791f8dfdee",
    "name": "kony.ui.Image2",
    "parent": "flxInfoZipCode",
    "pf": "userwidgetmodel",
    "responsiveData": {
        "b1": {
            "height": {
                "type": "string",
                "value": "20dp"
            },
            "left": {
                "type": "string",
                "value": ""
            },
            "right": {
                "type": "string",
                "value": "17dp"
            },
            "src": "bbcloseicon_2.png",
            "top": {
                "type": "string",
                "value": "17dp"
            },
            "width": {
                "type": "string",
                "value": "20dp"
            }
        },
        "b2": {
            "height": {
                "type": "string",
                "value": "16dp"
            },
            "left": {
                "type": "string",
                "value": ""
            },
            "right": {
                "type": "string",
                "value": "18dp"
            },
            "src": "bbcloseicon_2.png",
            "top": {
                "type": "string",
                "value": "19dp"
            },
            "width": {
                "type": "string",
                "value": "16dp"
            }
        },
        "b3": {
            "height": {
                "type": "string",
                "value": "10dp"
            },
            "left": {
                "type": "string",
                "value": ""
            },
            "right": {
                "type": "string",
                "value": "8dp"
            },
            "src": "bbcloseicon_2.png",
            "top": {
                "type": "string",
                "value": "8dp"
            },
            "width": {
                "type": "string",
                "value": "10dp"
            }
        },
        "b4": {
            "height": {
                "type": "string",
                "value": "20dp"
            },
            "left": {
                "type": "string",
                "value": ""
            },
            "right": {
                "type": "string",
                "value": "17dp"
            },
            "src": "bbcloseicon_2.png",
            "top": {
                "type": "number",
                "value": "17"
            },
            "width": {
                "type": "string",
                "value": "20dp"
            }
        }
    },
    "retaincontentalignment": false,
    "retainflexpositionproperties": false,
    "srcType": 1,
    "wType": "Image",
    "widgetalignment": 5
}