{
    "@class": "com.kony.gen.viz.model.component.KVizTextBox2",
    "DNDConfig": null,
    "_height_": {
        "type": "string",
        "value": "40dp"
    },
    "_left_": {
        "type": "string",
        "value": "0dp"
    },
    "_margin_": [
        0,
        0,
        0,
        0
    ],
    "_padding_": [
        3,
        0,
        0,
        0
    ],
    "_placeholder_": "Enter zip code",
    "_skin_": "sb822214eac74bd7baa57296d34b0999",
    "_text_": "",
    "_top_": {
        "type": "string",
        "value": "2dp"
    },
    "_width_": {
        "type": "string",
        "value": "100%"
    },
    "autocapitalize": "none",
    "autocomplete": false,
    "autocorrect": false,
    "autofilter": false,
    "canUpdateUI": true,
    "containerheight": "",
    "containerheightmode": 1,
    "containerweight": 100,
    "contentalignment": 4,
    "desktopweb": {
        "placeholderSkin": "sb210ccce56d4a128125499bbf24c879",
        "psp": {
            "hoverSkin": "sb822214eac74bd7baa57296d34b0999"
        }
    },
    "focusskin": "s5c89c99566e465facc2a4582e493d6c",
    "id": "tbxZipcode",
    "info": null,
    "iscustomlayout": false,
    "isvisible": true,
    "keyboardtype": "A",
    "kuid": "cb7119cd569f439ebbe007e939c4aa6d",
    "mode": "A",
    "name": "kony.ui.TextBox2",
    "parent": "flxZipcode",
    "pf": "userwidgetmodel",
    "placeholderskin": "sb210ccce56d4a128125499bbf24c879",
    "responsiveData": {
        "b1": {
            "contentAlignment": 4,
            "padding": [
                4,
                0,
                0,
                0
            ],
            "top": {
                "type": "string",
                "value": "5dp"
            }
        },
        "b2": {
            "top": {
                "type": "string",
                "value": "5dp"
            }
        },
        "b3": {
            "top": {
                "type": "string",
                "value": "6dp"
            }
        },
        "b4": {
            "padding": [
                4,
                0,
                0,
                0
            ],
            "top": {
                "type": "string",
                "value": "5dp"
            }
        }
    },
    "retaincontentalignment": false,
    "retainflexpositionproperties": false,
    "securetextentry": false,
    "textinputmode": "A",
    "tooltip": "",
    "viewtype": "default",
    "wType": "TextField",
    "zindex": 1
}