{
    "@class": "com.kony.gen.viz.model.component.KVizUserWidget",
    "DNDConfig": null,
    "__parentReadjusting__": false,
    "_android_": {},
    "_androidwearos_": {},
    "_children_": [],
    "_desktopweb_": {},
    "_height_": {
        "type": "string",
        "value": "60dp"
    },
    "_ipad_": {},
    "_iphone_": {},
    "_kiosk_": {},
    "_left_": {
        "type": "string",
        "value": "0%"
    },
    "_margin_": [
        0,
        0,
        0,
        0
    ],
    "_orientation_": 1,
    "_padding_": [
        0,
        0,
        0,
        0
    ],
    "_percent_": true,
    "_responsiveData_": {
        "b1": {
            "top": {
                "type": "string",
                "value": "20dp"
            }
        }
    },
    "_skin_": "s24c92fc23b14f5484b693ee9b8a9b35",
    "_spa_": {},
    "_spaan_": {},
    "_spaandroidtablet_": {},
    "_spabb_": {},
    "_spaip_": {},
    "_spaipad_": {},
    "_spamobile_": {},
    "_spatablet_": {},
    "_spawindowstablet_": {},
    "_spawinphone8_": {},
    "_tabrcandroid_": {},
    "_top_": {
        "type": "string",
        "value": "10dp"
    },
    "_vizProps_": {
        "hidewidgethierarchy": false
    },
    "_width_": {
        "type": "string",
        "value": "100%"
    },
    "_windows10_": {},
    "_windows8_": {},
    "_winphone10_": {},
    "_winphone8_": {},
    "areflexpropsreferenced": false,
    "autogrowmode": 0,
    "canUpdateUI": true,
    "clipbounds": true,
    "containerweight": 0,
    "dataDiffs": {
        "flxPaginationFirst": {
            "__events__": {},
            "__info__": {
                "kuid": "g2d1dabbb7354afeadd8bf6a7b4d4961",
                "srcKUID": "dc5425bcffde40bba077f3ef27070e02",
                "wType": "FlexContainer"
            }
        },
        "flxPaginationLast": {
            "__events__": {},
            "__info__": {
                "kuid": "a8e73dfc99ae40b59f0b9ebd5859fbf6",
                "srcKUID": "e5732cffb816477cbfc5cacac88a046a",
                "wType": "FlexContainer"
            }
        },
        "flxPaginationNext": {
            "__events__": {},
            "__info__": {
                "kuid": "d10fcfbb87b5488f834f1470cc5c08e9",
                "srcKUID": "f98d1324102c48ce890e02e4539c1c49",
                "wType": "FlexContainer"
            }
        },
        "flxPaginationPrevious": {
            "__events__": {},
            "__info__": {
                "kuid": "f33bbb096c2e49c89f6bea73e1992520",
                "srcKUID": "h7d55c477073421abc369f7b38c6c8ac",
                "wType": "FlexContainer"
            },
            "left": {
                "Default": {
                    "type": "string",
                    "value": "120dp"
                }
            },
            "responsiveData": {
                "b1": {},
                "b4": {}
            }
        },
        "tablePagination": {
            "__events__": {},
            "__info__": {
                "isRoot": true,
                "kuid": "b32cab21edac41d2919b72170028df58",
                "srcKUID": "d0682091242b4be393889732aa217f2b",
                "wType": "FlexContainer"
            },
            "isVisible": true,
            "left": {
                "Default": {
                    "type": "string",
                    "value": "0%"
                }
            },
            "responsiveData": {
                "b1": {
                    "top": {
                        "type": "string",
                        "value": "20dp"
                    }
                }
            },
            "top": {
                "Default": {
                    "type": "string",
                    "value": "10dp"
                }
            },
            "width": {
                "Default": {
                    "type": "string",
                    "value": "100%"
                }
            }
        }
    },
    "enablescrolling": true,
    "id": "tablePagination",
    "info": null,
    "isdatareferenced": false,
    "isvisible": true,
    "kuid": "b32cab21edac41d2919b72170028df58",
    "layouttype": 2,
    "masterType": 0,
    "name": "kony.ui.UserWidgetInstance",
    "parent": "transfermain",
    "pf": "frmFastTransfersActivites",
    "snapgridsize": 10,
    "snaptogrid": true,
    "sourceUserWidget": "d0682091242b4be393889732aa217f2b",
    "wType": "UserWidgetInstance"
}