{
	 "@class": "com.kony.gen.viz.model.component.KVizLabel",
	 "DNDConfig": null,
	 "__parentReadjusting__": false,
	 "_bottom_": {
		 "type": "string",
		 "value": "0dp"
	},
	 "_height_": {
		 "type": "string",
		 "value": "1px"
	},
	 "_left_": {
		 "type": "string",
		 "value": "0dp"
	},
	 "_margin_": [
		 1,
		 1,
		 1,
		 1
	],
	 "_padding_": [
		 0,
		 0,
		 0,
		 0
	],
	 "_skin_": "sba8e5ee05d341cea629c0af7bad4c4a",
	 "_text_": " ",
	 "_width_": {
		 "type": "string",
		 "value": "100%"
	},
	 "_wrapping_": 2,
	 "accessibilityconfig": {
		 "a11yHidden": true,
		 "a11yLabel": " ",
		 "a11yARIA": {
			 "tabindex": -1
		}
	},
	 "android": {
		 "textStyle": {
			 "letterSpacing": 0,
			 "strikeThrough": false
		}
	},
	 "canUpdateUI": true,
	 "containerId": true,
	 "containerweight": 100,
	 "contentalignment": 4,
	 "id": "lblSeparator",
	 "info": null,
	 "ipad": {
		 "psp": {
			 "wrapping": 2
		}
	},
	 "iphone": {
		 "psp": {
			 "wrapping": 2
		}
	},
	 "isvisible": true,
	 "kuid": "a4fa0d2209fe4177b2432fce9f357459",
	 "name": "kony.ui.Label",
	 "parent": "flxAccountLandingDetailsMyMessages",
	 "pf": "segAccountLandingDetailsMyMessages",
	 "tooltip": "",
	 "wType": "Label",
	 "zindex": 1
}