{
    "@class": "com.kony.gen.viz.model.component.KVizLabel",
    "DNDConfig": null,
    "__parentReadjusting__": false,
    "_height_": {
        "type": "ref",
        "value": "preferred"
    },
    "_left_": {
        "type": "string",
        "value": "0dp"
    },
    "_margin_": [
        1,
        1,
        1,
        1
    ],
    "_padding_": [
        0,
        0,
        0,
        0
    ],
    "_skin_": "se56454286124fef97a46e7249497088",
    "_text_": "Time Warner Cable On-Line",
    "_width_": {
        "type": "string",
        "value": "70%"
    },
    "_wrapping_": 2,
    "accessibilityconfig": {
        "a11yLabel": "Time Warner Cable On-Line"
    },
    "android": {
        "textStyle": {
            "letterSpacing": 0,
            "strikeThrough": false
        }
    },
    "canUpdateUI": true,
    "centery": {
        "type": "string",
        "value": "50%"
    },
    "containerId": true,
    "containerweight": 100,
    "contentalignment": 4,
    "id": "lblPayee",
    "info": null,
    "ipad": {
        "psp": {
            "wrapping": 2
        }
    },
    "iphone": {
        "psp": {
            "wrapping": 2
        }
    },
    "isvisible": true,
    "kuid": "j61e45e917014aa29fd2bb4c4f72a32d",
    "name": "kony.ui.Label",
    "parent": "flxPayee",
    "pf": "segBillPayManagePayees",
    "tooltip": "",
    "wType": "Label",
    "zindex": 1
}