{
    "@class": "com.kony.gen.viz.model.component.KVizUserWidget",
    "DNDConfig": null,
    "__parentReadjusting__": false,
    "_children_": [],
    "_height_": {
        "type": "string",
        "value": "35dp"
    },
    "_left_": {
        "type": "string",
        "value": "0dp"
    },
    "_margin_": [
        0,
        0,
        0,
        0
    ],
    "_orientation_": 1,
    "_padding_": [
        0,
        0,
        0,
        0
    ],
    "_percent_": true,
    "_render_": true,
    "_skin_": "s24c92fc23b14f5484b693ee9b8a9b35",
    "_top_": {
        "type": "string",
        "value": "20dp"
    },
    "_width_": {
        "type": "string",
        "value": "60%"
    },
    "areflexpropsreferenced": false,
    "autogrowmode": 0,
    "canUpdateUI": true,
    "centerx": {
        "type": "string",
        "value": "50%"
    },
    "clipbounds": true,
    "containerweight": 0,
    "dataDiffs": {
        "imgOr": {
            "__events__": {},
            "__info__": {
                "kuid": "c784faa5ea914499a3129996a27fc286",
                "srcKUID": "b28d750c2e2c4d88a54b1597d8388d82",
                "wType": "Image"
            }
        },
        "lblCrossOr": {
            "__events__": {},
            "__info__": {
                "kuid": "bc5dcfce056a43d49aaa529cc485906f",
                "srcKUID": "d1da309e592b4180b6a9bcb5fdbfa537",
                "wType": "Label"
            }
        },
        "orline": {
            "__events__": {},
            "__info__": {
                "isRoot": true,
                "kuid": "f9105fa4e56e4aad84a8b6829d3fba68",
                "srcKUID": "ddc3b57c039f44e2a41c9ebd04cbe726",
                "wType": "FlexContainer"
            },
            "centerX": {
                "Default": {
                    "type": "string",
                    "value": "50%"
                }
            },
            "top": {
                "Default": {
                    "type": "string",
                    "value": "20dp"
                }
            },
            "width": {
                "Default": {
                    "type": "string",
                    "value": "60%"
                }
            }
        }
    },
    "id": "orline",
    "info": null,
    "iscustomlayout": false,
    "isdatareferenced": false,
    "isvisible": true,
    "kuid": "f9105fa4e56e4aad84a8b6829d3fba68",
    "layouttype": 2,
    "masterType": 0,
    "name": "kony.ui.UserWidgetInstance",
    "parent": "UsenamePasswordSuccess",
    "pf": "userwidgetmodel",
    "retaincontentalignment": false,
    "retainflexpositionproperties": false,
    "snaptogrid": true,
    "sourceUserWidget": "ddc3b57c039f44e2a41c9ebd04cbe726",
    "wType": "UserWidgetInstance"
}