{
    "@class": "com.kony.gen.viz.model.component.KVizDateField",
    "DNDConfig": null,
    "Image": "calendar.png",
    "__id": "uwu35f2d8846ab44859412dda39e4af4c9_calDateOfIssue",
    "__input": "calDateOfIssue",
    "__parentReadjusting__": false,
    "_data_": null,
    "_date_": [
        7,
        7,
        2017
    ],
    "_height_": {
        "type": "string",
        "value": "40dp"
    },
    "_left_": {
        "type": "string",
        "value": "0dp"
    },
    "_margin_": [
        0,
        0,
        0,
        0
    ],
    "_padding_": [
        2,
        0,
        1,
        0
    ],
    "_skin_": "s309f86f067941bbb828e53b34e06a77",
    "_startG": [
        0,
        7,
        2017
    ],
    "_top_": {
        "type": "string",
        "value": "0px"
    },
    "_width_": {
        "type": "string",
        "value": "357px"
    },
    "advview": "default",
    "calendaricon": "calbtn.png",
    "canUpdateUI": true,
    "centery": {
        "type": "string",
        "value": "50%"
    },
    "containerweight": 100,
    "contentalignment": 5,
    "datecomponents": [
        7,
        7,
        2017
    ],
    "dateeditable": true,
    "dateformat": "dd/MM/yyyy",
    "datesGroup": [],
    "datesState": 0,
    "day": 7,
    "daytextalignmentincell": 5,
    "desktopweb": {
        "calendarIcon": "calendar.png"
    },
    "disabledSkins": {},
    "displayedMonths": [
        7,
        2017
    ],
    "entereddate": [
        7,
        7,
        2017
    ],
    "focusskin": "seb8ea02d2bd442ebe692e7030860d3f",
    "format": "dd/MM/yyyy",
    "formatteddate": "07/07/2017",
    "hidedaysheader": false,
    "hidemonthsheader": false,
    "hour": 13,
    "id": "calDateOfIssue",
    "info": null,
    "isvisible": true,
    "kiosk": {
        "psp": {
            "toolTip": "From date"
        }
    },
    "kuid": "fa5c6c691d7c4bb7b99b10f02fb86a5b",
    "minutes": 40,
    "month": 7,
    "monthsinrow": 3,
    "name": "kony.ui.Calendar",
    "navigatorAlert": "Invalid Selection",
    "noofmonths": 1,
    "pagedate": "/2017",
    "parent": "FlexContainer0cea58df223db4f",
    "pf": "userwidgetmodel",
    "popupHeight": "auto",
    "popupWidth": "auto",
    "seconds": 46,
    "selectdate": "//2017",
    "startDay": 0,
    "viewconfig": {
        "gridConfig": {
            "allowWeekendSelectable": true,
            "leftNavigationImage": "",
            "rightNavigationImage": "arrow_right.png"
        }
    },
    "viewtype": "default",
    "wType": "Calendar",
    "widgetalignment": 5,
    "widths": [
        "14.2857%;",
        "14.2857%;",
        "14.2857%;",
        "14.2857%;",
        "14.2857%;",
        "14.2857%;",
        "14.2857%;"
    ],
    "year": 2017,
    "zindex": 1
}