{
    "@class": "com.kony.gen.viz.model.component.KVizLabel",
    "DNDConfig": null,
    "__parentReadjusting__": false,
    "_height_": {
        "type": "string",
        "value": "20px"
    },
    "_left_": {
        "type": "string",
        "value": "10dp"
    },
    "_margin_": [
        1,
        1,
        1,
        1
    ],
    "_padding_": [
        0,
        0,
        0,
        0
    ],
    "_skin_": "sd9fada740124e4a99edc1f0a05ec2d0",
    "_text_": "BUSINESS",
    "_width_": {
        "type": "string",
        "value": "111px"
    },
    "_wrapping_": 2,
    "accessibilityconfig": {
        "a11yLabel": "Series of Checks"
    },
    "android": {
        "textStyle": {
            "letterSpacing": 0,
            "strikeThrough": false
        }
    },
    "canUpdateUI": true,
    "centery": {
        "type": "string",
        "value": "50%"
    },
    "containerweight": 100,
    "contentalignment": 4,
    "id": "lblSeriesOfChecks",
    "info": null,
    "ipad": {
        "psp": {
            "wrapping": 2
        }
    },
    "iphone": {
        "psp": {
            "wrapping": 2
        }
    },
    "isvisible": true,
    "kuid": "dc38a84b810a48ccb76da3f356cd992d",
    "name": "kony.ui.Label",
    "parent": "flxR1",
    "pf": "userwidgetmodel",
    "texti18n": "i18n.StopcheckPayments.SeriesOfChecks",
    "tooltip": "",
    "wType": "Label",
    "zindex": 1
}