{
    "@class": "com.kony.gen.viz.model.component.KVizUserWidget",
    "DNDConfig": null,
    "_children_": [],
    "_height_": {
        "type": "string",
        "value": "410dp"
    },
    "_left_": "0dp",
    "_margin_": [
        0,
        0,
        0,
        0
    ],
    "_orientation_": 1,
    "_padding_": [
        0,
        0,
        0,
        0
    ],
    "_percent_": true,
    "_render_": true,
    "_skin_": "sf052fd82d224fc1a020a88977067dd5",
    "_top_": "0dp",
    "_width_": {
        "type": "string",
        "value": "100%"
    },
    "areflexpropsreferenced": false,
    "canUpdateUI": true,
    "clipbounds": true,
    "containerweight": 0,
    "dataDiffs": {
        "FlexContainer0hf61eb3a73e34f": {
            "__events__": {},
            "__info__": {
                "kuid": "c7efc95233c84f4992f06f63d276a25e",
                "srcKUID": "ce4e3a26c59c4e1488e35d2e0e346cb1",
                "wType": "FlexContainer"
            },
            "left": {
                "Default": {
                    "type": "string",
                    "value": "20px"
                }
            },
            "responsiveData": {
                "b3": {
                    "left": {
                        "type": "string",
                        "value": "0dp"
                    },
                    "width": {
                        "type": "string",
                        "value": "100%"
                    }
                },
                "b4": {
                    "left": {
                        "type": "string",
                        "value": "3%"
                    },
                    "right": {
                        "type": "string",
                        "value": "3%"
                    }
                }
            },
            "right": {
                "Default": {
                    "type": "string",
                    "value": "20dp"
                }
            },
            "width": {
                "Default": {
                    "type": "number",
                    "value": ""
                }
            }
        },
        "ImgAcknowledged": {
            "__events__": {},
            "__info__": {
                "kuid": "b1b72e3dc0a24f95951974568717ec42",
                "srcKUID": "a3a677ef71bd412eab8c67016aec981f",
                "wType": "Image"
            },
            "src": "success_green.png",
            "top": {
                "Default": {
                    "type": "string",
                    "value": "160dp"
                }
            }
        },
        "acknowledgmentModify": {
            "__events__": {},
            "__info__": {
                "isRoot": true,
                "kuid": "dcb81c31d8ac4810aa44bb98159a2009",
                "srcKUID": "dca7663f90544467919b2872c94a4561",
                "wType": "FlexContainer"
            },
            "isVisible": true
        },
        "btnModifyTransfer": {
            "__events__": {},
            "__info__": {
                "kuid": "fd8349944fef45deaf92e7bb7c665e54",
                "srcKUID": "fe6a595b505e4bc1a39f8f8be570183d",
                "wType": "Button"
            },
            "isVisible": false,
            "top": {
                "Default": {
                    "type": "string",
                    "value": "335dp"
                }
            }
        },
        "confirmHeaders": {
            "__events__": {},
            "__info__": {
                "kuid": "b61c9e0e702b4bbb9f4e39f112446304",
                "srcKUID": "c6c37edf97a146fa9f23bb02f55a7305",
                "wType": "UserWidgetInstance"
            }
        },
        "confirmHeaders.flxHeader": {
            "__events__": {},
            "__info__": {
                "kuid": "gc354a0894ac480988c1f268a093149d",
                "srcKUID": "b4fcbc13cd22469390c813039fd64585",
                "wType": "FlexContainer"
            }
        },
        "confirmHeaders.lblHeading": {
            "__events__": {},
            "__info__": {
                "kuid": "ad8143f37b504d5f8f1d000dfb36d80e",
                "srcKUID": "da0fd6105f1042b69cc2a78624f17d3b",
                "wType": "Label"
            },
            "left": {
                "Default": {
                    "type": "string",
                    "value": "5%"
                }
            },
            "responsiveData": {
                "b4": {
                    "left": {
                        "type": "string",
                        "value": "3%"
                    }
                }
            }
        },
        "flxBalance": {
            "__events__": {},
            "__info__": {
                "kuid": "abbd2957cc5343fc89766bf9e2a536ad",
                "srcKUID": "c08c10ce4e5a4ef689eb58d9ada2f8cc",
                "wType": "FlexContainer"
            }
        },
        "lblBalance": {
            "__events__": {},
            "__info__": {
                "kuid": "hfc9e976c4324c3cb4b4f8603a62ed8b",
                "srcKUID": "j89d58582df34933a5f07e6edcc37464",
                "wType": "Label"
            }
        },
        "lblBalanceValue": {
            "__events__": {},
            "__info__": {
                "kuid": "f956b64cb4554fe998806ffb9151e470",
                "srcKUID": "ja84ab6259d04c9984b4d4d3b75390bb",
                "wType": "Label"
            }
        },
        "lblRefrenceNumber": {
            "__events__": {},
            "__info__": {
                "kuid": "g45e3271fff64743be1a48c3fc3f78da",
                "srcKUID": "f58227b371824f999b9e2c94e2e1e950",
                "wType": "Label"
            },
            "i18n_text": "i18n.StopCheckPayment.RequestNumber",
            "top": {
                "Default": {
                    "type": "string",
                    "value": "257dp"
                }
            }
        },
        "lblRefrenceNumberValue": {
            "__events__": {},
            "__info__": {
                "kuid": "fd8ad0e452ec4d99a8ae7211f21962db",
                "srcKUID": "i1e28eb5e0834c8cb9b7ca283c80940a",
                "wType": "Label"
            },
            "top": {
                "Default": {
                    "type": "string",
                    "value": "290dp"
                }
            }
        },
        "lblTransactionDate": {
            "__events__": {},
            "__info__": {
                "kuid": "c142b4e8434a4762959dceb2fe430a1c",
                "srcKUID": "e1b1d89eb9914fd28da2fc6bd38d9c20",
                "wType": "Label"
            },
            "isVisible": false,
            "top": {
                "Default": {
                    "type": "string",
                    "value": "115px"
                }
            }
        },
        "lblTransactionMessage": {
            "__events__": {},
            "__info__": {
                "kuid": "bd300e1155c74fcd9833b287c545dd80",
                "srcKUID": "a91084961d3d48ea9d7227c7dcbc5293",
                "wType": "Label"
            },
            "centerX": {
                "Default": {
                    "type": "string",
                    "value": "49%"
                }
            },
            "i18n_text": "i18n.StopcheckPayments.SuccessFullyRaisedStopChequeRequest",
            "top": {
                "Default": {
                    "type": "string",
                    "value": "90px"
                }
            },
            "width": {
                "Default": {
                    "type": "string",
                    "value": "95%"
                }
            }
        }
    },
    "id": "acknowledgmentMyRequests",
    "info": null,
    "isdatareferenced": false,
    "isvisible": true,
    "kuid": "h1b19965c0eb43e2a5af0b72d804fe4d",
    "layouttype": 2,
    "masterType": 0,
    "name": "kony.ui.UserWidgetInstance",
    "parent": "flxAcknowledgementMain",
    "pf": "frmStopPayments",
    "snaptogrid": true,
    "sourceUserWidget": "dca7663f90544467919b2872c94a4561",
    "vizprops": {
        "hidewidgethierarchy": false
    },
    "wType": "UserWidgetInstance"
}