{
    "@class": "com.kony.gen.viz.model.component.KVizButton",
    "DNDConfig": null,
    "Default": {
        "contentAlignment": 4
    },
    "__parentReadjusting__": false,
    "_height_": {
        "type": "string",
        "value": "50dp"
    },
    "_left_": {
        "type": "string",
        "value": "20dp"
    },
    "_margin_": [
        6,
        6,
        6,
        6
    ],
    "_padding_": [
        0,
        0,
        0,
        0
    ],
    "_skin_": "s611bd2c5d324490aa9f7ed9d412984f",
    "_text_": "Button",
    "_top_": {
        "type": "string",
        "value": "0dp"
    },
    "_width_": {
        "type": "string",
        "value": "90%"
    },
    "canUpdateUI": true,
    "containerweight": 100,
    "contentalignment": 4,
    "desktopweb": {},
    "disabledSkins": {},
    "displaytext": true,
    "focusskin": "sbf72662805b48f3b06b5cd3a5a6fdca",
    "id": "btnStopChequeRequests",
    "info": null,
    "iscustomlayout": false,
    "isvisible": true,
    "kuid": "c039c8bb71164ffcae06a23092780c6d",
    "name": "kony.ui.Button",
    "parent": "flxChequeBookRightTab",
    "pf": "frmStopPayments",
    "responsiveData": {
        "b3": {
            "isVisible": true,
            "width": {
                "type": "string",
                "value": "-4000.00%"
            }
        }
    },
    "retaincontentalignment": false,
    "retainflexpositionproperties": false,
    "texti18n": "i18n.ChequeBookReq.ViewStopChequeRequests",
    "tooltip": "View Stop Cheque Requests",
    "wType": "Button",
    "zindex": 1
}