{
    "@class": "com.kony.gen.viz.model.component.KVizUserWidget",
    "DNDConfig": null,
    "__parentReadjusting__": false,
    "_bottom_": {
        "type": "string",
        "value": ""
    },
    "_children_": [],
    "_height_": {
        "type": "ref",
        "value": "preferred"
    },
    "_left_": {
        "type": "string",
        "value": "0dp"
    },
    "_margin_": [
        0,
        0,
        0,
        0
    ],
    "_orientation_": 1,
    "_padding_": [
        0,
        0,
        0,
        0
    ],
    "_percent_": true,
    "_skin_": "sdc143f0e5b64ae3a3f155f691c73fa7",
    "_top_": {
        "type": "string",
        "value": "0dp"
    },
    "_width_": {
        "type": "string",
        "value": "100%"
    },
    "areflexpropsreferenced": false,
    "autogrowmode": 1,
    "canUpdateUI": true,
    "centerx": {
        "type": "string",
        "value": ""
    },
    "clipbounds": true,
    "containerweight": 0,
    "dataDiffs": {
        "Buttons": {
            "__events__": {},
            "__info__": {
                "kuid": "d8caf6d217c746569b135c506200b19f",
                "srcKUID": "b6a3deb620694a76b2fad46bc6e9ccf8",
                "wType": "UserWidgetInstance"
            },
            "autogrowMode": {
                "Default": 0
            },
            "height": {
                "Default": {
                    "type": "string",
                    "value": "103px"
                }
            },
            "left": {
                "Default": {
                    "type": "string",
                    "value": "0dp"
                }
            },
            "responsiveData": {
                "b3": {
                    "height": {
                        "type": "string",
                        "value": "200px"
                    }
                }
            },
            "top": {
                "Default": {
                    "type": "string",
                    "value": "30dp"
                }
            }
        },
        "Buttons.btnCancel": {
            "__events__": {},
            "__info__": {
                "kuid": "dfcbeed15dd04cbfbbb3a81c06051d27",
                "srcKUID": "ab17e013675e42edaf83bae0ebc92b57",
                "wType": "Button"
            },
            "centerX": {
                "Default": {
                    "type": "number",
                    "value": ""
                }
            },
            "centerY": {
                "Default": {
                    "type": "string",
                    "value": "50%"
                }
            },
            "isVisible": true,
            "left": {
                "Default": {
                    "type": "number",
                    "value": ""
                }
            },
            "responsiveData": {
                "b3": {
                    "centerX": {
                        "type": "string",
                        "value": "50%"
                    },
                    "centerY": {
                        "type": "string",
                        "value": ""
                    },
                    "isVisible": true,
                    "left": {
                        "type": "string",
                        "value": "15dp"
                    },
                    "right": {
                        "type": "string",
                        "value": "15dp"
                    },
                    "top": {
                        "type": "string",
                        "value": "140dp"
                    },
                    "width": {
                        "type": "string",
                        "value": ""
                    }
                },
                "b4": {
                    "right": {
                        "type": "string",
                        "value": "50.20%"
                    },
                    "width": {
                        "type": "string",
                        "value": "21.60%"
                    }
                }
            },
            "right": {
                "Default": {
                    "type": "string",
                    "value": "30.83%"
                }
            },
            "top": {
                "Default": {
                    "type": "number",
                    "value": ""
                }
            },
            "width": {
                "Default": {
                    "type": "string",
                    "value": "12.50%"
                }
            }
        },
        "Buttons.btnConfirm": {
            "__events__": {},
            "__info__": {
                "kuid": "ead5f0f0c3b4487bbb280b7ff92ba728",
                "srcKUID": "a3ba49afe21d46fd83c8cd7d169a5c0f",
                "wType": "Button"
            },
            "centerX": {
                "Default": {
                    "type": "number",
                    "value": ""
                }
            },
            "centerY": {
                "Default": {
                    "type": "string",
                    "value": "50%"
                }
            },
            "left": {
                "Default": {
                    "type": "number",
                    "value": ""
                }
            },
            "responsiveData": {
                "b3": {
                    "centerX": {
                        "type": "string",
                        "value": "50%"
                    },
                    "centerY": {
                        "type": "string",
                        "value": ""
                    },
                    "left": {
                        "type": "string",
                        "value": "15dp"
                    },
                    "right": {
                        "type": "string",
                        "value": "15dp"
                    },
                    "top": {
                        "type": "string",
                        "value": "20dp"
                    },
                    "width": {
                        "type": "string",
                        "value": ""
                    }
                },
                "b4": {
                    "right": {
                        "type": "string",
                        "value": "3%"
                    },
                    "width": {
                        "type": "string",
                        "value": "21.60%"
                    }
                }
            },
            "right": {
                "Default": {
                    "type": "string",
                    "value": "2.20%"
                }
            },
            "top": {
                "Default": {
                    "type": "number",
                    "value": ""
                }
            },
            "width": {
                "Default": {
                    "type": "string",
                    "value": "12.50%"
                }
            }
        },
        "Buttons.btnModify": {
            "__events__": {},
            "__info__": {
                "kuid": "e84e0b147123497f951b57ba6ca63314",
                "srcKUID": "d9073d7c23e0489088d35e3e5536f972",
                "wType": "Button"
            },
            "centerX": {
                "Default": {
                    "type": "number",
                    "value": ""
                }
            },
            "centerY": {
                "Default": {
                    "type": "string",
                    "value": "50%"
                }
            },
            "left": {
                "Default": {
                    "type": "number",
                    "value": ""
                }
            },
            "responsiveData": {
                "b3": {
                    "centerX": {
                        "type": "string",
                        "value": "50%"
                    },
                    "centerY": {
                        "type": "string",
                        "value": ""
                    },
                    "left": {
                        "type": "string",
                        "value": "15dp"
                    },
                    "right": {
                        "type": "string",
                        "value": "15dp"
                    },
                    "top": {
                        "type": "string",
                        "value": "80dp"
                    },
                    "width": {
                        "type": "string",
                        "value": ""
                    }
                },
                "b4": {
                    "centerY": {
                        "type": "string",
                        "value": "50.24%"
                    },
                    "right": {
                        "type": "string",
                        "value": "26.60%"
                    },
                    "width": {
                        "type": "string",
                        "value": "21.60%"
                    }
                }
            },
            "right": {
                "Default": {
                    "type": "string",
                    "value": "16.67%"
                }
            },
            "top": {
                "Default": {
                    "type": "number",
                    "value": ""
                }
            },
            "width": {
                "Default": {
                    "type": "string",
                    "value": "12.50%"
                }
            }
        },
        "Buttons.flxHorizontalLine": {
            "__events__": {},
            "__info__": {
                "kuid": "i1e9ca5f360f4b43a986eb386cae8c82",
                "srcKUID": "h6c70e81479748159fc25d2b10b4a33d",
                "wType": "FlexContainer"
            },
            "layoutType": 2,
            "left": {
                "Default": {
                    "type": "string",
                    "value": "30px"
                }
            },
            "responsiveData": {
                "b3": {
                    "layoutType": 2,
                    "left": {
                        "type": "string",
                        "value": "0dp"
                    },
                    "right": {
                        "type": "string",
                        "value": ""
                    },
                    "width": {
                        "type": "string",
                        "value": "100%"
                    }
                },
                "b4": {
                    "left": {
                        "type": "string",
                        "value": "30px"
                    }
                }
            },
            "right": {
                "Default": {
                    "type": "string",
                    "value": "30px"
                }
            },
            "width": {
                "Default": {
                    "type": "number",
                    "value": ""
                }
            }
        },
        "ConfirmPage": {
            "__events__": {},
            "__info__": {
                "isRoot": true,
                "kuid": "db9f39d7a5e546d783211b7cdcb7cc04",
                "srcKUID": "e82214c5bf8c47c396c4f25854c2dea9",
                "wType": "FlexContainer"
            },
            "autogrowMode": {
                "Default": 1
            },
            "bottom": {
                "Default": {
                    "type": "string",
                    "value": ""
                }
            },
            "centerX": {
                "Default": {
                    "type": "string",
                    "value": ""
                }
            },
            "centerY": {
                "Default": {
                    "type": "string",
                    "value": ""
                }
            },
            "height": {
                "Default": {
                    "type": "ref",
                    "value": "preferred"
                }
            },
            "isVisible": true,
            "left": {
                "Default": {
                    "type": "string",
                    "value": "0dp"
                }
            },
            "maxHeight": {
                "Default": {
                    "type": "string",
                    "value": ""
                }
            },
            "maxWidth": {
                "Default": {
                    "type": "string",
                    "value": ""
                }
            },
            "minHeight": {
                "Default": {
                    "type": "string",
                    "value": ""
                }
            },
            "minWidth": {
                "Default": {
                    "type": "string",
                    "value": ""
                }
            },
            "responsiveData": {
                "b2": {
                    "bottom": null,
                    "centerX": null,
                    "height": null,
                    "isVisible": null,
                    "top": null,
                    "width": null
                },
                "b3": {
                    "bottom": null,
                    "centerX": null,
                    "height": null,
                    "width": null
                },
                "b4": {
                    "bottom": null,
                    "width": null
                }
            },
            "right": {
                "Default": {
                    "type": "string",
                    "value": ""
                }
            },
            "top": {
                "Default": {
                    "type": "string",
                    "value": "0dp"
                }
            },
            "width": {
                "Default": {
                    "type": "string",
                    "value": "100%"
                }
            }
        },
        "flxAccount": {
            "__events__": {},
            "__info__": {
                "kuid": "g6d849ee66c94c9580ff5b38b5d399de",
                "srcKUID": "cc5937833959426baec47495e3a0dad1",
                "wType": "FlexContainer"
            },
            "autogrowMode": {
                "Default": 0
            },
            "height": {
                "Default": {
                    "type": "string",
                    "value": "40dp"
                }
            },
            "layoutType": 2,
            "left": {
                "Default": {
                    "type": "string",
                    "value": "0dp"
                }
            },
            "responsiveData": {
                "b3": {
                    "height": {
                        "type": "string",
                        "value": "50dp"
                    },
                    "layoutType": 4,
                    "left": {
                        "type": "string",
                        "value": "0dp"
                    },
                    "width": {
                        "type": "string",
                        "value": "100%"
                    }
                }
            },
            "top": {
                "Default": {
                    "type": "string",
                    "value": "10dp"
                }
            },
            "width": {
                "Default": {
                    "type": "string",
                    "value": "100%"
                }
            }
        },
        "flxAddress": {
            "__events__": {},
            "__info__": {
                "kuid": "he656165dcc7418387fe3e2ac155cada",
                "srcKUID": "dd832d777f4a4cefa2c1558eee9ddb55",
                "wType": "FlexContainer"
            },
            "autogrowMode": {
                "Default": 0
            },
            "height": {
                "Default": {
                    "type": "string",
                    "value": "40dp"
                }
            },
            "layoutType": 2,
            "responsiveData": {
                "b3": {
                    "height": {
                        "type": "string",
                        "value": "50dp"
                    },
                    "layoutType": 4,
                    "top": {
                        "type": "string",
                        "value": "2dp"
                    }
                }
            },
            "top": {
                "Default": {
                    "type": "string",
                    "value": "0dp"
                }
            }
        },
        "flxChequeBookConfirmHeader": {
            "__events__": {},
            "__info__": {
                "kuid": "a1670e4c62014439815c87c1baed70c4",
                "srcKUID": "g646d30cc9f8472396f23169c4d045e3",
                "wType": "UserWidgetInstance"
            }
        },
        "flxChequeBookConfirmHeader.flxHeader": {
            "__events__": {},
            "__info__": {
                "kuid": "ec4717fa22c1400595f9d3ef7f553009",
                "srcKUID": "hc8979d7ca174f8f8c9624fea3838f99",
                "wType": "FlexContainer"
            }
        },
        "flxChequeBookConfirmHeader.lblHeading": {
            "__events__": {},
            "__info__": {
                "kuid": "j056324288d04d7e8cbac27ec077bbbd",
                "srcKUID": "c58a49d2a5854456940888fa275a0dee",
                "wType": "Label"
            },
            "left": {
                "Default": {
                    "type": "string",
                    "value": "2.10%"
                }
            },
            "responsiveData": {
                "b4": {
                    "left": {
                        "type": "string",
                        "value": "30dp"
                    }
                }
            }
        },
        "flxChequeBooks": {
            "__events__": {},
            "__info__": {
                "kuid": "dbe67326d9924e71ab2afc534e9ba4f4",
                "srcKUID": "d621b60bb9af46f7afc9db1803078aaf",
                "wType": "FlexContainer"
            },
            "autogrowMode": {
                "Default": 0
            },
            "height": {
                "Default": {
                    "type": "string",
                    "value": "40dp"
                }
            },
            "layoutType": 2,
            "responsiveData": {
                "b3": {
                    "height": {
                        "type": "string",
                        "value": "50dp"
                    },
                    "layoutType": 4,
                    "top": {
                        "type": "string",
                        "value": "0dp"
                    }
                }
            },
            "top": {
                "Default": {
                    "type": "string",
                    "value": "0dp"
                }
            }
        },
        "flxDeliveryType": {
            "__events__": {},
            "__info__": {
                "kuid": "hde67e698271453185434de58a3d410f",
                "srcKUID": "if800e77365c4ea3b6e41094b03d932c",
                "wType": "FlexContainer"
            },
            "autogrowMode": {
                "Default": 0
            },
            "height": {
                "Default": {
                    "type": "string",
                    "value": "40dp"
                }
            },
            "layoutType": 2,
            "responsiveData": {
                "b3": {
                    "height": {
                        "type": "string",
                        "value": "50dp"
                    },
                    "layoutType": 4,
                    "top": {
                        "type": "string",
                        "value": "2dp"
                    }
                }
            },
            "top": {
                "Default": {
                    "type": "string",
                    "value": "0dp"
                }
            }
        },
        "flxFee": {
            "__events__": {},
            "__info__": {
                "kuid": "c07002c5276c457c969d959bd39f5ce6",
                "srcKUID": "f9beef4e3a3f4a45800562b7c8788f53",
                "wType": "FlexContainer"
            },
            "autogrowMode": {
                "Default": 0
            },
            "height": {
                "Default": {
                    "type": "string",
                    "value": "40dp"
                }
            },
            "layoutType": 2,
            "responsiveData": {
                "b3": {
                    "height": {
                        "type": "string",
                        "value": "50dp"
                    },
                    "layoutType": 4,
                    "top": {
                        "type": "string",
                        "value": "2dp"
                    }
                }
            },
            "top": {
                "Default": {
                    "type": "string",
                    "value": "0dp"
                }
            }
        },
        "flxIcon": {
            "__events__": {},
            "__info__": {
                "kuid": "j78a633d84f741a3800d1cd7760d7e4a",
                "srcKUID": "e1e423bf864e491e9bc3c1cc66c0c34a",
                "wType": "FlexContainer"
            }
        },
        "flxMainConfirmPage": {
            "__events__": {},
            "__info__": {
                "kuid": "f1318a03f0bb4b7a89e950759981a537",
                "srcKUID": "a0a9db0ce0844277b2f5e4e4168b2e32",
                "wType": "FlexContainer"
            },
            "centerX": {
                "Default": {
                    "type": "string",
                    "value": "50%"
                }
            },
            "isVisible": true,
            "left": {
                "Default": {
                    "type": "string",
                    "value": "10dp"
                }
            },
            "responsiveData": {
                "b2": {
                    "left": {
                        "type": "string",
                        "value": "0dp"
                    },
                    "top": null
                },
                "b3": {
                    "centerX": {
                        "type": "string",
                        "value": "50%"
                    }
                },
                "b4": {
                    "centerX": {
                        "type": "string",
                        "value": "49.95%"
                    },
                    "isVisible": null,
                    "top": {
                        "type": "string",
                        "value": "0dp"
                    }
                }
            },
            "top": {
                "Default": {
                    "type": "string",
                    "value": "-2dp"
                }
            },
            "width": {
                "Default": {
                    "type": "string",
                    "value": "100%"
                }
            }
        },
        "flxNewField1": {
            "__events__": {},
            "__info__": {
                "kuid": "h68275a9b11f46dda746644bc1603c08",
                "srcKUID": "hfdab666917d44928baa4d2bdb7e7b38",
                "wType": "FlexContainer"
            },
            "autogrowMode": {
                "Default": 0
            },
            "height": {
                "Default": {
                    "type": "string",
                    "value": "40dp"
                }
            },
            "isVisible": false,
            "layoutType": 2,
            "responsiveData": {
                "b3": {
                    "height": {
                        "type": "string",
                        "value": "50dp"
                    },
                    "isVisible": true,
                    "layoutType": 4,
                    "top": {
                        "type": "string",
                        "value": "2dp"
                    }
                }
            },
            "top": {
                "Default": {
                    "type": "string",
                    "value": "0dp"
                }
            }
        },
        "flxNewField2": {
            "__events__": {},
            "__info__": {
                "kuid": "d4bf6739901744dd958ac13ab9b5f64e",
                "srcKUID": "b71d1833e1fa40f281d3b3b1c45e4d19",
                "wType": "FlexContainer"
            },
            "autogrowMode": {
                "Default": 0
            },
            "height": {
                "Default": {
                    "type": "string",
                    "value": "40dp"
                }
            },
            "isVisible": false,
            "layoutType": 2,
            "responsiveData": {
                "b3": {
                    "height": {
                        "type": "string",
                        "value": "50dp"
                    },
                    "isVisible": true,
                    "layoutType": 4,
                    "top": {
                        "type": "string",
                        "value": "2dp"
                    }
                }
            },
            "top": {
                "Default": {
                    "type": "string",
                    "value": "0dp"
                }
            }
        },
        "flxNotes": {
            "__events__": {},
            "__info__": {
                "kuid": "g0406e9b5749477b97c1f94c028e51e4",
                "srcKUID": "ad33cbcb037d41398d4978f7ac67ab96",
                "wType": "FlexContainer"
            },
            "autogrowMode": {
                "Default": 0
            },
            "height": {
                "Default": {
                    "type": "string",
                    "value": "40dp"
                }
            },
            "layoutType": 2,
            "responsiveData": {
                "b3": {
                    "height": {
                        "type": "string",
                        "value": "50dp"
                    },
                    "layoutType": 4,
                    "top": {
                        "type": "string",
                        "value": "2dp"
                    }
                }
            },
            "top": {
                "Default": {
                    "type": "string",
                    "value": "0dp"
                }
            }
        },
        "flxSeparatorLine1": {
            "__events__": {},
            "__info__": {
                "kuid": "e49f726c958c40e7a7598b3909496a4f",
                "srcKUID": "iafafd96e349415c90119b54719eb56e",
                "wType": "FlexContainer"
            },
            "centerX": {
                "Default": {
                    "type": "number",
                    "value": ""
                }
            },
            "left": {
                "Default": {
                    "type": "string",
                    "value": "30dp"
                }
            },
            "responsiveData": {
                "b3": {
                    "centerX": {
                        "type": "string",
                        "value": "50%"
                    },
                    "left": {
                        "type": "string",
                        "value": "0dp"
                    },
                    "right": {
                        "type": "string",
                        "value": ""
                    },
                    "width": {
                        "type": "string",
                        "value": "100%"
                    }
                },
                "b4": {
                    "left": {
                        "type": "string",
                        "value": "3%"
                    },
                    "right": {
                        "type": "string",
                        "value": ""
                    },
                    "width": {
                        "type": "string",
                        "value": "94%"
                    }
                }
            },
            "right": {
                "Default": {
                    "type": "string",
                    "value": "30dp"
                }
            },
            "width": {
                "Default": {
                    "type": "string",
                    "value": "95%"
                }
            }
        },
        "imgIcon": {
            "__events__": {},
            "__info__": {
                "kuid": "cb3b726f59f443678610f54de613ba10",
                "srcKUID": "fc1b66bd6737482c8722c4a2fa3c9c46",
                "wType": "Label"
            }
        },
        "lblAccount": {
            "__events__": {},
            "__info__": {
                "kuid": "e84e4afc56624532993ea7a40e07f9d3",
                "srcKUID": "fa83f5e065944a1f8fcb3d61596549dd",
                "wType": "Label"
            },
            "centerY": {
                "Default": {
                    "type": "string",
                    "value": "50%"
                }
            },
            "left": {
                "Default": {
                    "type": "string",
                    "value": "30dp"
                }
            },
            "responsiveData": {
                "b3": {
                    "centerY": {
                        "type": "string",
                        "value": ""
                    },
                    "left": {
                        "type": "string",
                        "value": "15dp"
                    },
                    "top": {
                        "type": "string",
                        "value": "10dp"
                    }
                }
            },
            "top": {
                "Default": {
                    "type": "number",
                    "value": ""
                }
            }
        },
        "lblAccountValue": {
            "__events__": {},
            "__info__": {
                "kuid": "be239666008244be8003b9a46508338a",
                "srcKUID": "e9e0f80cd70b41a19cc18a3390027577",
                "wType": "Label"
            },
            "centerY": {
                "Default": {
                    "type": "string",
                    "value": "50%"
                }
            },
            "left": {
                "Default": {
                    "type": "string",
                    "value": "30%"
                }
            },
            "responsiveData": {
                "b3": {
                    "centerY": {
                        "type": "string",
                        "value": ""
                    },
                    "left": {
                        "type": "string",
                        "value": "15dp"
                    },
                    "top": {
                        "type": "string",
                        "value": "3dp"
                    }
                }
            },
            "top": {
                "Default": {
                    "type": "number",
                    "value": ""
                }
            }
        },
        "lblAddress": {
            "__events__": {},
            "__info__": {
                "kuid": "i76b9f49a8994aa1aafe3e77d84622b7",
                "srcKUID": "e5e2ec983a6640b9ba118a7213762435",
                "wType": "Label"
            },
            "centerY": {
                "Default": {
                    "type": "string",
                    "value": "50%"
                }
            },
            "left": {
                "Default": {
                    "type": "string",
                    "value": "30dp"
                }
            },
            "responsiveData": {
                "b3": {
                    "centerY": {
                        "type": "string",
                        "value": ""
                    },
                    "left": {
                        "type": "string",
                        "value": "15dp"
                    },
                    "top": {
                        "type": "string",
                        "value": "10dp"
                    }
                },
                "b4": {
                    "width": {
                        "type": "string",
                        "value": "25%"
                    }
                }
            },
            "top": {
                "Default": {
                    "type": "number",
                    "value": ""
                }
            },
            "width": {
                "Default": {
                    "type": "ref",
                    "value": "preferred"
                }
            }
        },
        "lblAddressValue": {
            "__events__": {},
            "__info__": {
                "kuid": "aa0fd3add1a3469c85c865b3854e3f9d",
                "srcKUID": "i0fc9c9725fd48079d8f5979da69a6cd",
                "wType": "Label"
            },
            "centerY": {
                "Default": {
                    "type": "string",
                    "value": "50%"
                }
            },
            "left": {
                "Default": {
                    "type": "string",
                    "value": "30%"
                }
            },
            "responsiveData": {
                "b3": {
                    "centerY": {
                        "type": "string",
                        "value": ""
                    },
                    "left": {
                        "type": "string",
                        "value": "15dp"
                    },
                    "top": {
                        "type": "string",
                        "value": "3dp"
                    }
                }
            },
            "top": {
                "Default": {
                    "type": "number",
                    "value": ""
                }
            }
        },
        "lblChequeBooks": {
            "__events__": {},
            "__info__": {
                "kuid": "faef30560b6743c895e49e428b384cee",
                "srcKUID": "f240d77ca9ec418fa27005337d27d590",
                "wType": "Label"
            },
            "centerY": {
                "Default": {
                    "type": "string",
                    "value": "50%"
                }
            },
            "left": {
                "Default": {
                    "type": "string",
                    "value": "30dp"
                }
            },
            "responsiveData": {
                "b3": {
                    "centerY": {
                        "type": "string",
                        "value": ""
                    },
                    "left": {
                        "type": "string",
                        "value": "15dp"
                    },
                    "top": {
                        "type": "string",
                        "value": "10dp"
                    }
                }
            },
            "top": {
                "Default": {
                    "type": "number",
                    "value": ""
                }
            }
        },
        "lblChequeBooksValue": {
            "__events__": {},
            "__info__": {
                "kuid": "j0a357ac023b4642b2be1059c073efc3",
                "srcKUID": "a0e6d0fce4f74f60a2f1c6105c89cd28",
                "wType": "Label"
            },
            "centerY": {
                "Default": {
                    "type": "string",
                    "value": "50%"
                }
            },
            "left": {
                "Default": {
                    "type": "string",
                    "value": "30%"
                }
            },
            "responsiveData": {
                "b3": {
                    "centerY": {
                        "type": "string",
                        "value": ""
                    },
                    "left": {
                        "type": "string",
                        "value": "15dp"
                    },
                    "top": {
                        "type": "string",
                        "value": "3dp"
                    }
                }
            },
            "top": {
                "Default": {
                    "type": "number",
                    "value": ""
                }
            }
        },
        "lblDeliveryType": {
            "__events__": {},
            "__info__": {
                "kuid": "c0b8a44aed8e4c288a4ccea87ce38b4d",
                "srcKUID": "f9b96d7500a14c91945011f89023bd29",
                "wType": "Label"
            },
            "centerY": {
                "Default": {
                    "type": "string",
                    "value": "50%"
                }
            },
            "left": {
                "Default": {
                    "type": "string",
                    "value": "30dp"
                }
            },
            "responsiveData": {
                "b3": {
                    "centerY": {
                        "type": "string",
                        "value": ""
                    },
                    "left": {
                        "type": "string",
                        "value": "15dp"
                    },
                    "top": {
                        "type": "string",
                        "value": "10dp"
                    }
                }
            },
            "top": {
                "Default": {
                    "type": "number",
                    "value": ""
                }
            }
        },
        "lblDeliveryTypeValue": {
            "__events__": {},
            "__info__": {
                "kuid": "d14327ce52c34560bc71e3feb7f4be3f",
                "srcKUID": "a2e0a6b8e5eb4bbb9ebbf48a5f359eed",
                "wType": "Label"
            },
            "centerY": {
                "Default": {
                    "type": "string",
                    "value": "50%"
                }
            },
            "left": {
                "Default": {
                    "type": "string",
                    "value": "30%"
                }
            },
            "responsiveData": {
                "b3": {
                    "centerY": {
                        "type": "string",
                        "value": ""
                    },
                    "left": {
                        "type": "string",
                        "value": "15dp"
                    },
                    "top": {
                        "type": "string",
                        "value": "3dp"
                    }
                }
            },
            "top": {
                "Default": {
                    "type": "number",
                    "value": ""
                }
            }
        },
        "lblFee": {
            "__events__": {},
            "__info__": {
                "kuid": "b7c4eae023d043688d22f96b7e5b1654",
                "srcKUID": "de9bf73a640346cd9a6d2b0db9058d88",
                "wType": "Label"
            },
            "centerY": {
                "Default": {
                    "type": "string",
                    "value": "50%"
                }
            },
            "left": {
                "Default": {
                    "type": "string",
                    "value": "30dp"
                }
            },
            "responsiveData": {
                "b3": {
                    "centerY": {
                        "type": "string",
                        "value": ""
                    },
                    "left": {
                        "type": "string",
                        "value": "15dp"
                    },
                    "top": {
                        "type": "string",
                        "value": "10dp"
                    }
                },
                "b4": {
                    "width": {
                        "type": "string",
                        "value": "25%"
                    }
                }
            },
            "top": {
                "Default": {
                    "type": "number",
                    "value": ""
                }
            },
            "width": {
                "Default": {
                    "type": "ref",
                    "value": "preferred"
                }
            }
        },
        "lblFeeValue": {
            "__events__": {},
            "__info__": {
                "kuid": "d11fb89943b5403db8859198829a9e95",
                "srcKUID": "aabdcebf38534115a95e5ef23ce9c590",
                "wType": "Label"
            },
            "centerY": {
                "Default": {
                    "type": "string",
                    "value": "50%"
                }
            },
            "left": {
                "Default": {
                    "type": "string",
                    "value": "30%"
                }
            },
            "responsiveData": {
                "b3": {
                    "centerY": {
                        "type": "string",
                        "value": ""
                    },
                    "left": {
                        "type": "string",
                        "value": "15dp"
                    },
                    "top": {
                        "type": "string",
                        "value": "3dp"
                    }
                }
            },
            "top": {
                "Default": {
                    "type": "number",
                    "value": ""
                }
            }
        },
        "lblNewField1": {
            "__events__": {},
            "__info__": {
                "kuid": "h92a5ee97e7048a587a8c5b957fda8c7",
                "srcKUID": "b6e52bf7bf1f43df851865dcdbd9386e",
                "wType": "Label"
            },
            "centerY": {
                "Default": {
                    "type": "string",
                    "value": "50%"
                }
            },
            "left": {
                "Default": {
                    "type": "string",
                    "value": "30dp"
                }
            },
            "responsiveData": {
                "b3": {
                    "centerY": {
                        "type": "string",
                        "value": ""
                    },
                    "left": {
                        "type": "string",
                        "value": "15dp"
                    },
                    "top": {
                        "type": "string",
                        "value": "10dp"
                    }
                }
            },
            "top": {
                "Default": {
                    "type": "string",
                    "value": "0"
                }
            }
        },
        "lblNewField1Value": {
            "__events__": {},
            "__info__": {
                "kuid": "iec68bdd26144e699c839ea203b574d5",
                "srcKUID": "je5ced8dc12b4bd9a657c66f524ce064",
                "wType": "Label"
            },
            "centerY": {
                "Default": {
                    "type": "string",
                    "value": "50%"
                }
            },
            "left": {
                "Default": {
                    "type": "string",
                    "value": "30%"
                }
            },
            "responsiveData": {
                "b3": {
                    "centerY": {
                        "type": "string",
                        "value": ""
                    },
                    "left": {
                        "type": "string",
                        "value": "15dp"
                    },
                    "top": {
                        "type": "string",
                        "value": "3dp"
                    }
                }
            },
            "top": {
                "Default": {
                    "type": "number",
                    "value": ""
                }
            }
        },
        "lblNewField2": {
            "__events__": {},
            "__info__": {
                "kuid": "hc1f401d2bdf474f9dd9b5af6880881c",
                "srcKUID": "ae94e06b8a39423e9b27bed7f939d93f",
                "wType": "Label"
            },
            "centerY": {
                "Default": {
                    "type": "string",
                    "value": "50%"
                }
            },
            "left": {
                "Default": {
                    "type": "string",
                    "value": "30dp"
                }
            },
            "responsiveData": {
                "b3": {
                    "centerY": {
                        "type": "string",
                        "value": ""
                    },
                    "left": {
                        "type": "string",
                        "value": "15dp"
                    },
                    "top": {
                        "type": "string",
                        "value": "10dp"
                    }
                }
            },
            "top": {
                "Default": {
                    "type": "string",
                    "value": "0"
                }
            }
        },
        "lblNewField2Value": {
            "__events__": {},
            "__info__": {
                "kuid": "fdd1c51b307d42338134606872f40c23",
                "srcKUID": "a05d62f5bcce423ebc1fee0744a2d689",
                "wType": "Label"
            },
            "centerY": {
                "Default": {
                    "type": "string",
                    "value": "50%"
                }
            },
            "left": {
                "Default": {
                    "type": "string",
                    "value": "30%"
                }
            },
            "responsiveData": {
                "b3": {
                    "centerY": {
                        "type": "string",
                        "value": ""
                    },
                    "left": {
                        "type": "string",
                        "value": "15dp"
                    },
                    "top": {
                        "type": "string",
                        "value": "3dp"
                    }
                }
            },
            "top": {
                "Default": {
                    "type": "number",
                    "value": ""
                }
            }
        },
        "lblNotes": {
            "__events__": {},
            "__info__": {
                "kuid": "ic8f50af8d044a839f3b2cb882abc511",
                "srcKUID": "d571aa11c5ce46a28b28015d9bc005ac",
                "wType": "Label"
            },
            "centerY": {
                "Default": {
                    "type": "string",
                    "value": "50%"
                }
            },
            "left": {
                "Default": {
                    "type": "string",
                    "value": "30dp"
                }
            },
            "responsiveData": {
                "b3": {
                    "centerY": {
                        "type": "string",
                        "value": ""
                    },
                    "left": {
                        "type": "string",
                        "value": "15dp"
                    },
                    "top": {
                        "type": "string",
                        "value": "10dp"
                    }
                }
            },
            "top": {
                "Default": {
                    "type": "string",
                    "value": "0"
                }
            }
        },
        "lblNotesValue": {
            "__events__": {},
            "__info__": {
                "kuid": "a25406e1c4fa4ecf90fafec2cd8dddd0",
                "srcKUID": "a53b430b974e4cf4a5673f47e9698bbd",
                "wType": "Label"
            },
            "centerY": {
                "Default": {
                    "type": "string",
                    "value": "50%"
                }
            },
            "left": {
                "Default": {
                    "type": "string",
                    "value": "30%"
                }
            },
            "responsiveData": {
                "b3": {
                    "centerY": {
                        "type": "string",
                        "value": ""
                    },
                    "left": {
                        "type": "string",
                        "value": "15dp"
                    },
                    "top": {
                        "type": "string",
                        "value": "3dp"
                    }
                }
            },
            "top": {
                "Default": {
                    "type": "number",
                    "value": ""
                }
            }
        }
    },
    "enablescrolling": true,
    "id": "ConfirmPage",
    "info": null,
    "iscustomlayout": false,
    "isdatareferenced": false,
    "issegmentchild": false,
    "isvisible": true,
    "kuid": "db9f39d7a5e546d783211b7cdcb7cc04",
    "layouttype": 2,
    "masterType": 0,
    "name": "kony.ui.UserWidgetInstance",
    "parent": "flxConfirmPage",
    "pf": "frmStopPayments",
    "retaincontentalignment": false,
    "retainflexpositionproperties": false,
    "retainflowhorizontalalignment": false,
    "snapgridsize": 10,
    "snaptogrid": true,
    "sourceUserWidget": "e82214c5bf8c47c396c4f25854c2dea9",
    "wType": "UserWidgetInstance"
}