{
    "@class": "com.kony.gen.viz.model.component.KVizUserWidget",
    "DNDConfig": null,
    "_children_": [],
    "_height_": {
        "type": "ref",
        "value": "preferred"
    },
    "_left_": {
        "type": "string",
        "value": "0dp"
    },
    "_margin_": [
        0,
        0,
        0,
        0
    ],
    "_orientation_": 1,
    "_padding_": [
        0,
        0,
        0,
        0
    ],
    "_percent_": true,
    "_render_": true,
    "_skin_": "s24c92fc23b14f5484b693ee9b8a9b35",
    "_top_": {
        "type": "string",
        "value": "0dp"
    },
    "_width_": {
        "type": "string",
        "value": "100%"
    },
    "areflexpropsreferenced": false,
    "autogrowmode": 1,
    "canUpdateUI": true,
    "clipbounds": true,
    "containerweight": 0,
    "dataDiffs": {
        "DisputeTransactionDetail": {
            "__events__": {},
            "__info__": {
                "isRoot": true,
                "kuid": "b0ee506b614f4d739beb631221649922",
                "srcKUID": "f8909fdb444e4bcd8250330fb5e12bfb",
                "wType": "FlexContainer"
            },
            "isVisible": true,
            "responsiveData": {
                "b1": {
                    "isVisible": false
                },
                "b2": {
                    "isVisible": false
                },
                "b3": {
                    "isVisible": false
                },
                "b4": {
                    "isVisible": false
                }
            },
            "width": {
                "Default": {
                    "type": "string",
                    "value": "100%"
                }
            }
        },
        "confirmButtons": {
            "__events__": {},
            "__info__": {
                "kuid": "j96591681a06466c92f519bcf81d5411",
                "srcKUID": "c58f814ab09d44ff89cad9571019e980",
                "wType": "UserWidgetInstance"
            },
            "autogrowMode": {
                "Default": 0
            },
            "height": {},
            "responsiveData": {
                "b3": {
                    "height": {
                        "type": "string",
                        "value": "200dp"
                    }
                }
            }
        },
        "confirmButtons.btnCancel": {
            "__events__": {},
            "__info__": {
                "kuid": "b8ff19e1fd724998b8506189982aad13",
                "srcKUID": "bc26507eef6a4a1c84056cffbce435f4",
                "wType": "Button"
            },
            "bottom": {},
            "centerX": {},
            "centerY": {},
            "left": {},
            "responsiveData": {
                "b3": {
                    "bottom": {
                        "type": "string",
                        "value": "20dp"
                    },
                    "centerX": {
                        "type": "string",
                        "value": ""
                    },
                    "centerY": {
                        "type": "string",
                        "value": ""
                    },
                    "isVisible": false,
                    "left": {
                        "type": "string",
                        "value": "2.50%"
                    },
                    "right": {
                        "type": "string",
                        "value": ""
                    },
                    "top": {
                        "type": "string",
                        "value": "140dp"
                    },
                    "width": {
                        "type": "string",
                        "value": "95%"
                    }
                }
            },
            "right": {},
            "top": {
                "Default": {
                    "type": "string",
                    "value": "0dp"
                }
            },
            "width": {
                "Default": {
                    "type": "string",
                    "value": "12.50%"
                }
            }
        },
        "confirmButtons.btnConfirm": {
            "__events__": {},
            "__info__": {
                "kuid": "e41446c72c1345c6ae03f204f6ae16e2",
                "srcKUID": "j5bce1f0a8f344898900fa4df22a1870",
                "wType": "Button"
            },
            "centerX": {},
            "centerY": {},
            "i18n_text": "i18n.common.proceed",
            "left": {},
            "responsiveData": {
                "b3": {
                    "centerX": {
                        "type": "string",
                        "value": ""
                    },
                    "centerY": {
                        "type": "string",
                        "value": ""
                    },
                    "left": {
                        "type": "string",
                        "value": "2.50%"
                    },
                    "right": {
                        "type": "string",
                        "value": ""
                    },
                    "top": {
                        "type": "string",
                        "value": "20dp"
                    },
                    "width": {
                        "type": "string",
                        "value": "95%"
                    }
                }
            },
            "right": {},
            "top": {},
            "width": {}
        },
        "confirmButtons.btnModify": {
            "__events__": {},
            "__info__": {
                "kuid": "f79f42e0568f4a9d986113dc94c9fd75",
                "srcKUID": "dc5e5112861f475baf974aa82a972c15",
                "wType": "Button"
            },
            "bottom": {},
            "centerX": {},
            "centerY": {},
            "i18n_text": "i18n.transfers.Cancel",
            "left": {},
            "responsiveData": {
                "b3": {
                    "bottom": {
                        "type": "string",
                        "value": ""
                    },
                    "centerX": {
                        "type": "string",
                        "value": ""
                    },
                    "centerY": {
                        "type": "string",
                        "value": ""
                    },
                    "left": {
                        "type": "string",
                        "value": "2.50%"
                    },
                    "right": {
                        "type": "string",
                        "value": ""
                    },
                    "top": {
                        "type": "string",
                        "value": "80dp"
                    },
                    "width": {
                        "type": "string",
                        "value": "95%"
                    }
                }
            },
            "right": {},
            "top": {},
            "width": {}
        },
        "confirmButtons.flxHorizontalLine": {
            "__events__": {},
            "__info__": {
                "kuid": "dfb56c9afb354395a800a2c1511054df",
                "srcKUID": "e60d6c0a914a4ec79ab369a4355cc36f",
                "wType": "FlexContainer"
            },
            "left": {},
            "responsiveData": {
                "b3": {
                    "left": {
                        "type": "string",
                        "value": "0px"
                    },
                    "right": {
                        "type": "string",
                        "value": "0px"
                    }
                }
            },
            "right": {}
        },
        "confirmHeaders": {
            "__events__": {},
            "__info__": {
                "kuid": "bb9d139d5b274d55a1d64a69a556d5e3",
                "srcKUID": "jac7ac3c6bcb4578a2e851d0c25c4ef5",
                "wType": "UserWidgetInstance"
            }
        },
        "confirmHeaders.flxHeader": {
            "__events__": {},
            "__info__": {
                "kuid": "f3ea4a9f6b634385a43636474ba87e5b",
                "srcKUID": "d823a4af6a93436abeff2d5e7049d399",
                "wType": "FlexContainer"
            }
        },
        "confirmHeaders.lblHeading": {
            "__events__": {},
            "__info__": {
                "kuid": "ha8ed851895344e497e9615ac1b40c33",
                "srcKUID": "j176ae7b6a60435e95104da5bfd5464e",
                "wType": "Label"
            },
            "i18n_text": "i18n.StopCheckPayments.DisputeTransactionDetail"
        },
        "flxContainerSelectDispute": {
            "__events__": {},
            "__info__": {
                "kuid": "hf2e4fa966834958a1200e0bae1dd8a1",
                "srcKUID": "d481a7b220c148c99e3a4fef7ef8e43f",
                "wType": "FlexContainer"
            }
        },
        "flxDesciption": {
            "__events__": {},
            "__info__": {
                "kuid": "ja7b89416d534f82a406b6aebf85a168",
                "srcKUID": "ea2b4834dca24303862f6acd5a6cbeb0",
                "wType": "FlexContainer"
            }
        },
        "flxDescriptionlbl": {
            "__events__": {},
            "__info__": {
                "kuid": "e34e7082e802498d8aca9725c8299d51",
                "srcKUID": "f8ced011b7554a51bff5a360d8f8d952",
                "wType": "FlexContainer"
            }
        },
        "flxHorizontal2": {
            "__events__": {},
            "__info__": {
                "kuid": "d394322b67784e35a867f9b41158e786",
                "srcKUID": "ebe45401e2154082bf3c422a2b922288",
                "wType": "FlexContainer"
            }
        },
        "flxHorizontalLine": {
            "__events__": {},
            "__info__": {
                "kuid": "eafd773704e643e5a98009ed2b6471f4",
                "srcKUID": "e3d87f1713834c0281186e0b0f5f540d",
                "wType": "FlexContainer"
            }
        },
        "flxKeyValues": {
            "__events__": {},
            "__info__": {
                "kuid": "cfca335ad4cf492a8bc68ffcf7f5befa",
                "srcKUID": "cafeb58c30914469acbed69d566f7bd9",
                "wType": "FlexContainer"
            }
        },
        "flxMain": {
            "__events__": {},
            "__info__": {
                "kuid": "e66f6459d6454edfbe5ccbac5cb688bf",
                "srcKUID": "a9cfd088e21f4953843584629dd274df",
                "wType": "FlexContainer"
            }
        },
        "flxSelectReasonForDispute": {
            "__events__": {},
            "__info__": {
                "kuid": "ed82867752de40a78244b715f6e112e5",
                "srcKUID": "fee70725482f454193fe65136a3b477b",
                "wType": "FlexContainer"
            }
        },
        "keyValue1": {
            "__events__": {},
            "__info__": {
                "kuid": "dc1a6166b8414cb8936c5b07d3175edb",
                "srcKUID": "abdf461a1d154206911c7484ba2b919b",
                "wType": "UserWidgetInstance"
            }
        },
        "keyValue1.flxContainer": {
            "__events__": {},
            "__info__": {
                "kuid": "ce81a7c391834735aa2692faa927523c",
                "srcKUID": "bf61405469204f748848ba5ef0793c41",
                "wType": "FlexContainer"
            },
            "responsiveData": {
                "b3": {
                    "layoutType": 3
                }
            }
        },
        "keyValue1.flxIcon": {
            "__events__": {},
            "__info__": {
                "kuid": "b8a30026635348a0a39d325eb052849c",
                "srcKUID": "f9d684c42b674e558bc4e384df60e318",
                "wType": "FlexContainer"
            }
        },
        "keyValue1.flxInfo": {
            "__events__": {},
            "__info__": {
                "kuid": "b2f6c1e1412542eba261251abbbfa84b",
                "srcKUID": "a534d8c882dd40fd8d61a91b606c40d5",
                "wType": "FlexContainer"
            }
        },
        "keyValue1.flxKey": {
            "__events__": {},
            "__info__": {
                "kuid": "d59dbf6d1b164e1cbb7a0079e4a4381d",
                "srcKUID": "d7b3891bf00d4900b986fca3140c8bcd",
                "wType": "FlexContainer"
            },
            "responsiveData": {
                "b3": {
                    "width": {
                        "type": "string",
                        "value": "22%"
                    }
                }
            },
            "width": {}
        },
        "keyValue1.flxValue": {
            "__events__": {},
            "__info__": {
                "kuid": "b8760c85374c4d99bb0817ec70931c7f",
                "srcKUID": "bd6d81c8eb9d48c8abe0e12c41e4d1fe",
                "wType": "FlexContainer"
            }
        },
        "keyValue1.imgWhatIsSSN": {
            "__events__": {},
            "__info__": {
                "kuid": "ff21e9ce62364a61b815b4cbb149a2cc",
                "srcKUID": "c5783ef88d5e42e9b525e6d911551e72",
                "wType": "Image"
            },
            "src": "info_grey.png"
        },
        "keyValue1.lblColon": {
            "__events__": {},
            "__info__": {
                "kuid": "c1a79a0273284ae5851c02fac4e39a27",
                "srcKUID": "fafda600412a461aa257604162f7b729",
                "wType": "Label"
            },
            "left": {},
            "responsiveData": {
                "b3": {
                    "isVisible": false,
                    "left": {
                        "type": "string",
                        "value": "0%"
                    }
                }
            }
        },
        "keyValue1.lblIcon": {
            "__events__": {},
            "__info__": {
                "kuid": "h435c381cc844e729099dadcf7959fd0",
                "srcKUID": "fa94bf1a975d443e9550774e1fe8301a",
                "wType": "Label"
            }
        },
        "keyValue1.lblKey": {
            "__events__": {},
            "__info__": {
                "kuid": "j5f6b9db7b2e40d2ac9ff078822aafe5",
                "srcKUID": "d5d432d24cec4cb191084e7c9160d59f",
                "wType": "Label"
            },
            "i18n_text": "i18n.StopCheckPayments.from"
        },
        "keyValue1.lblValue": {
            "__events__": {},
            "__info__": {
                "kuid": "a5c458c2b1a14be69ce2518d0f6b31f5",
                "srcKUID": "iad5a2083ee5492ba60c2bab116d9704",
                "wType": "Label"
            }
        },
        "keyValue2": {
            "__events__": {},
            "__info__": {
                "kuid": "c26b278953194705bd9f3026a45000d1",
                "srcKUID": "d5ab736ad4864d4f969292f168b10adf",
                "wType": "UserWidgetInstance"
            }
        },
        "keyValue2.flxContainer": {
            "__events__": {},
            "__info__": {
                "kuid": "a8c88f6806844d3f9f92a7f3fa43dace",
                "srcKUID": "c598219edd1b4585a912d42944da1897",
                "wType": "FlexContainer"
            },
            "responsiveData": {
                "b3": {
                    "layoutType": 3
                }
            }
        },
        "keyValue2.flxIcon": {
            "__events__": {},
            "__info__": {
                "kuid": "ae9da9bb832d4ebd82ef482c0bb272de",
                "srcKUID": "ec381df238c64ca9b6b470cb651cd1e4",
                "wType": "FlexContainer"
            }
        },
        "keyValue2.flxInfo": {
            "__events__": {},
            "__info__": {
                "kuid": "je06574ef0e4489eb8050ce6f27874f0",
                "srcKUID": "a3e81553220e4ced8973cfd37b571516",
                "wType": "FlexContainer"
            }
        },
        "keyValue2.flxKey": {
            "__events__": {},
            "__info__": {
                "kuid": "cf2575b1a0ca44268a8c17f4de394cde",
                "srcKUID": "e7df1b8c79a54a148656183791322476",
                "wType": "FlexContainer"
            },
            "responsiveData": {
                "b3": {
                    "width": {
                        "type": "string",
                        "value": "22%"
                    }
                }
            },
            "width": {}
        },
        "keyValue2.flxValue": {
            "__events__": {},
            "__info__": {
                "kuid": "b440af0b94c94b6cbbb9f388ad4ef831",
                "srcKUID": "i045c986a8864df1a8004038447f3565",
                "wType": "FlexContainer"
            }
        },
        "keyValue2.imgWhatIsSSN": {
            "__events__": {},
            "__info__": {
                "kuid": "ga01e503e5424835a2caf9535d4c2ade",
                "srcKUID": "de6d5ba917a0427daad03791c4fe0ef8",
                "wType": "Image"
            },
            "src": "info_grey.png"
        },
        "keyValue2.lblColon": {
            "__events__": {},
            "__info__": {
                "kuid": "g3c948a6b1ea42c899bc91fceadb0f99",
                "srcKUID": "c7aa86c250fa489dbf25e1c2dde60df3",
                "wType": "Label"
            },
            "left": {},
            "responsiveData": {
                "b3": {
                    "left": {
                        "type": "string",
                        "value": "0%"
                    }
                }
            }
        },
        "keyValue2.lblIcon": {
            "__events__": {},
            "__info__": {
                "kuid": "ea55054e88c24c318448646220cc746c",
                "srcKUID": "h5b6e8a8109d48cd800dfca7bc666ff8",
                "wType": "Label"
            }
        },
        "keyValue2.lblKey": {
            "__events__": {},
            "__info__": {
                "kuid": "je6265a91bfd4a068be76b369c8e7361",
                "srcKUID": "d0debdfabc3f43d583414fd04129fe44",
                "wType": "Label"
            },
            "i18n_text": "i18n.StopCheckPayments.To"
        },
        "keyValue2.lblValue": {
            "__events__": {},
            "__info__": {
                "kuid": "b344621adabb4324944f807c4aafc7ad",
                "srcKUID": "ec54f2671f294593ad352ad40c38ff15",
                "wType": "Label"
            }
        },
        "keyValue3": {
            "__events__": {},
            "__info__": {
                "kuid": "f14a94c14e194007ab227100efeb843b",
                "srcKUID": "i810ddf41d834899a53cbed4b16a48d9",
                "wType": "UserWidgetInstance"
            }
        },
        "keyValue3.flxContainer": {
            "__events__": {},
            "__info__": {
                "kuid": "i2813b3925d041cd99d875f50df2d7f4",
                "srcKUID": "da2895e82a0041388c60c2892b04cc97",
                "wType": "FlexContainer"
            },
            "responsiveData": {
                "b3": {
                    "layoutType": 3
                }
            }
        },
        "keyValue3.flxIcon": {
            "__events__": {},
            "__info__": {
                "kuid": "ff0ea07535984cfb945da9a05a2e2443",
                "srcKUID": "b49c910e0bb44c09bd5da49bc9b0a1c4",
                "wType": "FlexContainer"
            }
        },
        "keyValue3.flxInfo": {
            "__events__": {},
            "__info__": {
                "kuid": "ga482d0cf450466fb0282b5ecd0784f6",
                "srcKUID": "fe75eb7a568c42c49ba788ce2173f0e1",
                "wType": "FlexContainer"
            }
        },
        "keyValue3.flxKey": {
            "__events__": {},
            "__info__": {
                "kuid": "fe8d7a35c8bc4c48a58f8ce59f1800c2",
                "srcKUID": "ea44eefe34f344498b4afb9aa0ff3a1e",
                "wType": "FlexContainer"
            },
            "responsiveData": {
                "b3": {
                    "width": {
                        "type": "string",
                        "value": "22%"
                    }
                }
            },
            "width": {}
        },
        "keyValue3.flxValue": {
            "__events__": {},
            "__info__": {
                "kuid": "h460a8dea1084d1480db3d2e3716ac6c",
                "srcKUID": "h6fa8ee1306c4b77a4866cda07141709",
                "wType": "FlexContainer"
            }
        },
        "keyValue3.imgWhatIsSSN": {
            "__events__": {},
            "__info__": {
                "kuid": "e7535b641ff94dfbb107ab49f1e9c7e1",
                "srcKUID": "idf6c9dce6994846b291fa13e77280bc",
                "wType": "Image"
            },
            "src": "info_grey.png"
        },
        "keyValue3.lblColon": {
            "__events__": {},
            "__info__": {
                "kuid": "a1424a3d90e24eb183b8bd5f2c0a9d97",
                "srcKUID": "d7fb210098da42a69b91c2aed42f5e68",
                "wType": "Label"
            },
            "left": {},
            "responsiveData": {
                "b3": {
                    "left": {
                        "type": "string",
                        "value": "0%"
                    }
                }
            }
        },
        "keyValue3.lblIcon": {
            "__events__": {},
            "__info__": {
                "kuid": "e35b8a0553b54ab8ba50eaa19d23b01f",
                "srcKUID": "hfa23861eb6046639330d3e607a5e49b",
                "wType": "Label"
            }
        },
        "keyValue3.lblKey": {
            "__events__": {},
            "__info__": {
                "kuid": "g2cae6f2b0954e68aa3f94496e304577",
                "srcKUID": "h38b07d1c53a49eb8ba554eb33ae585f",
                "wType": "Label"
            },
            "i18n_text": "i18n.StopCheckPayments.Amount($)"
        },
        "keyValue3.lblValue": {
            "__events__": {},
            "__info__": {
                "kuid": "hf5e91f322724c77a0286b2603cba30f",
                "srcKUID": "acc79ad3cc6845709f6bbefdce090bfd",
                "wType": "Label"
            }
        },
        "keyValue4": {
            "__events__": {},
            "__info__": {
                "kuid": "c136f7ae127045b0b8a0fca9b58cc016",
                "srcKUID": "c5c4274c5b6943f38b87e7433ad03a43",
                "wType": "UserWidgetInstance"
            }
        },
        "keyValue4.flxContainer": {
            "__events__": {},
            "__info__": {
                "kuid": "b07c9a81024847c9b25e4cb131fa8cbc",
                "srcKUID": "e72a185ed7084805910dcbd7484db2b2",
                "wType": "FlexContainer"
            },
            "responsiveData": {
                "b3": {
                    "layoutType": 3
                }
            }
        },
        "keyValue4.flxIcon": {
            "__events__": {},
            "__info__": {
                "kuid": "j4d7c6d999944530a6f54b9f119360d1",
                "srcKUID": "a187792df1ab4fc6ad5738be898397c3",
                "wType": "FlexContainer"
            }
        },
        "keyValue4.flxInfo": {
            "__events__": {},
            "__info__": {
                "kuid": "b01e4ef615654f99b40ca034232f3c1d",
                "srcKUID": "e2ff39992e874fbea7182236530aa6e7",
                "wType": "FlexContainer"
            }
        },
        "keyValue4.flxKey": {
            "__events__": {},
            "__info__": {
                "kuid": "d4eb3a898776488cb0a58b645fbd15b3",
                "srcKUID": "e13cd4a9439141de8254096dc12cf893",
                "wType": "FlexContainer"
            },
            "responsiveData": {
                "b3": {
                    "width": {
                        "type": "string",
                        "value": "22%"
                    }
                }
            },
            "width": {}
        },
        "keyValue4.flxValue": {
            "__events__": {},
            "__info__": {
                "kuid": "ca03147146ae40efaf78f39e53097e66",
                "srcKUID": "h95f647e40c444d5a4c6ae01ac5516a0",
                "wType": "FlexContainer"
            }
        },
        "keyValue4.imgWhatIsSSN": {
            "__events__": {},
            "__info__": {
                "kuid": "a9cdbf20221f4bcbab21f231da5bc6ff",
                "srcKUID": "fd29dd20bce349729e932c0cf7fee066",
                "wType": "Image"
            },
            "src": "info_grey.png"
        },
        "keyValue4.lblColon": {
            "__events__": {},
            "__info__": {
                "kuid": "hf127ee95a9a47cca43d63ecb9889dcf",
                "srcKUID": "g34cdf4c7bcf4cd2b36857b7d6f8a165",
                "wType": "Label"
            },
            "left": {},
            "responsiveData": {
                "b3": {
                    "left": {
                        "type": "string",
                        "value": "0%"
                    }
                }
            }
        },
        "keyValue4.lblIcon": {
            "__events__": {},
            "__info__": {
                "kuid": "gddf0e9a3a42420db84edfc481ad4976",
                "srcKUID": "jbd57b752c324511bab9315bb4ccac80",
                "wType": "Label"
            }
        },
        "keyValue4.lblKey": {
            "__events__": {},
            "__info__": {
                "kuid": "dacdce65b26e4ba886c425b55baf3e16",
                "srcKUID": "d75179b700034595aa95ba66337be8c1",
                "wType": "Label"
            },
            "i18n_text": "i18n.StopCheckPayments.Date"
        },
        "keyValue4.lblValue": {
            "__events__": {},
            "__info__": {
                "kuid": "j3f8b38428c244718b5836508565be91",
                "srcKUID": "f39ed79690f24cb4a77523a8388e5cc7",
                "wType": "Label"
            }
        },
        "keyValue5": {
            "__events__": {},
            "__info__": {
                "kuid": "c3e6fca00fda4d8d896e55112e83a5b7",
                "srcKUID": "i4fc0b0d1acf4ad798939fa447505954",
                "wType": "UserWidgetInstance"
            }
        },
        "keyValue5.flxContainer": {
            "__events__": {},
            "__info__": {
                "kuid": "hc72defb817844308f13d6282b3cc3a7",
                "srcKUID": "a3de3bd5b0184133a915683d1a6e358e",
                "wType": "FlexContainer"
            },
            "responsiveData": {
                "b3": {
                    "layoutType": 3
                }
            }
        },
        "keyValue5.flxIcon": {
            "__events__": {},
            "__info__": {
                "kuid": "g4f2e1db575b44db961d9c61cecb67bb",
                "srcKUID": "gd6ed7f777464e9faf6c66e9685509f7",
                "wType": "FlexContainer"
            }
        },
        "keyValue5.flxInfo": {
            "__events__": {},
            "__info__": {
                "kuid": "jc913a855dba45b1afc79c328ea7b410",
                "srcKUID": "g3f3261fa78e4c8eaff04b20ba9929a8",
                "wType": "FlexContainer"
            }
        },
        "keyValue5.flxKey": {
            "__events__": {},
            "__info__": {
                "kuid": "fcace2745c8849498b3dd83bc5da21a3",
                "srcKUID": "f01958627c3b4f6caa8ad7bdf077a332",
                "wType": "FlexContainer"
            },
            "responsiveData": {
                "b3": {
                    "width": {
                        "type": "string",
                        "value": "22%"
                    }
                }
            },
            "width": {}
        },
        "keyValue5.flxValue": {
            "__events__": {},
            "__info__": {
                "kuid": "fe4d5fe1828f46f28910f2f33c6e5141",
                "srcKUID": "c4351d0f5bd34a5992fea4987884d568",
                "wType": "FlexContainer"
            }
        },
        "keyValue5.imgWhatIsSSN": {
            "__events__": {},
            "__info__": {
                "kuid": "f4a25a154f1140d4b0d772be1481f985",
                "srcKUID": "e67ecd29ee8f4fd2a852495e692b67fb",
                "wType": "Image"
            },
            "src": "info_grey.png"
        },
        "keyValue5.lblColon": {
            "__events__": {},
            "__info__": {
                "kuid": "ebacd4d1a94b402daf70af8b71ff48eb",
                "srcKUID": "h78aa132687e4fc68bdb04499b602ad0",
                "wType": "Label"
            },
            "left": {},
            "responsiveData": {
                "b3": {
                    "left": {
                        "type": "string",
                        "value": "0%"
                    }
                }
            }
        },
        "keyValue5.lblIcon": {
            "__events__": {},
            "__info__": {
                "kuid": "e452aaf81cb84a8f972815a0c64576da",
                "srcKUID": "e7a33eda9c1c4010a103bbb96ab663bd",
                "wType": "Label"
            }
        },
        "keyValue5.lblKey": {
            "__events__": {},
            "__info__": {
                "kuid": "d64673595c1a431fbb2b4efd9a1a2d5e",
                "srcKUID": "dc2d2c72a93e4ec5ae709be01457b25c",
                "wType": "Label"
            },
            "i18n_text": "i18n.StopCheckPayments.Types"
        },
        "keyValue5.lblValue": {
            "__events__": {},
            "__info__": {
                "kuid": "i465a4d4e9074776971dc1a7f011b188",
                "srcKUID": "ffce96f8e32a4975a52dd46f61f7ba5c",
                "wType": "Label"
            }
        },
        "keyValue6": {
            "__events__": {},
            "__info__": {
                "kuid": "e07844db6f6442679664c5b1860e1c84",
                "srcKUID": "b500cfe2dcc9424085037567af9b48a4",
                "wType": "UserWidgetInstance"
            }
        },
        "keyValue6.flxContainer": {
            "__events__": {},
            "__info__": {
                "kuid": "e7a31d4c72824d5e8ee77333318e577b",
                "srcKUID": "ga8dbf926dbc40d7a4b5ee9f8d637c6c",
                "wType": "FlexContainer"
            },
            "responsiveData": {
                "b3": {
                    "layoutType": 3
                }
            }
        },
        "keyValue6.flxIcon": {
            "__events__": {},
            "__info__": {
                "kuid": "eed482bc690749969da17ffa17c1c83d",
                "srcKUID": "h939343c1f1d4deab595e25589a7f469",
                "wType": "FlexContainer"
            }
        },
        "keyValue6.flxInfo": {
            "__events__": {},
            "__info__": {
                "kuid": "a05bd09497f04350b007148747409b26",
                "srcKUID": "fbaf9c29c0474d0dae96ac8de8ddeee2",
                "wType": "FlexContainer"
            }
        },
        "keyValue6.flxKey": {
            "__events__": {},
            "__info__": {
                "kuid": "f9205f89e32647a99366728ada70f011",
                "srcKUID": "c585c7c8f7a842fdbe99dd7e3f4ad99f",
                "wType": "FlexContainer"
            },
            "responsiveData": {
                "b3": {
                    "width": {
                        "type": "string",
                        "value": "22%"
                    }
                }
            },
            "width": {}
        },
        "keyValue6.flxValue": {
            "__events__": {},
            "__info__": {
                "kuid": "jbc6e564eaa243528b7eb5c0684de2ef",
                "srcKUID": "bbb59c10275c4473b963617c9a9f6a2a",
                "wType": "FlexContainer"
            }
        },
        "keyValue6.imgWhatIsSSN": {
            "__events__": {},
            "__info__": {
                "kuid": "ccff277bff65474895c16b2c55328c49",
                "srcKUID": "b0d95c52b4ea4fd498bf36c2d5db9971",
                "wType": "Image"
            },
            "src": "info_grey.png"
        },
        "keyValue6.lblColon": {
            "__events__": {},
            "__info__": {
                "kuid": "h62a0eef4e254d0fa567910dc9bed01e",
                "srcKUID": "gc39552ae9214e9e80cb82b4996cef7c",
                "wType": "Label"
            },
            "left": {},
            "responsiveData": {
                "b3": {
                    "left": {
                        "type": "string",
                        "value": "0%"
                    }
                }
            }
        },
        "keyValue6.lblIcon": {
            "__events__": {},
            "__info__": {
                "kuid": "j3c3a253ecf3405aa67429e4c5a6263c",
                "srcKUID": "d40254eb1a4241a1b2eacda0d64fdc45",
                "wType": "Label"
            }
        },
        "keyValue6.lblKey": {
            "__events__": {},
            "__info__": {
                "kuid": "ef9cea15754e456f8a931cdf4db2390d",
                "srcKUID": "aee41a4887af4e009adbe67ab6bf333f",
                "wType": "Label"
            },
            "i18n_text": "i18n.PayAPerson.ReferenceNumber",
            "responsiveData": {
                "b3": {
                    "width": {
                        "type": "string",
                        "value": "90%"
                    }
                }
            },
            "width": {}
        },
        "keyValue6.lblValue": {
            "__events__": {},
            "__info__": {
                "kuid": "c32ecbac11c54fcd8ceb798f68ae72c9",
                "srcKUID": "j6059082e1fd44f39f1d16bc64a8dd20",
                "wType": "Label"
            }
        },
        "keyValue7": {
            "__events__": {},
            "__info__": {
                "kuid": "c541471c6f404359978563e7016a3528",
                "srcKUID": "bd8c6b82519d4324965f04d3734fc76c",
                "wType": "UserWidgetInstance"
            }
        },
        "keyValue7.flxContainer": {
            "__events__": {},
            "__info__": {
                "kuid": "d9a2692755c14d1b942a413b887d5337",
                "srcKUID": "g6ef7f064e334719a65e75a274009923",
                "wType": "FlexContainer"
            },
            "responsiveData": {
                "b3": {
                    "layoutType": 3
                }
            }
        },
        "keyValue7.flxIcon": {
            "__events__": {},
            "__info__": {
                "kuid": "ee5dc488490f49d1a044792865cca1f3",
                "srcKUID": "e4d2fbc5d1e54ac39b68c2cdbc9a2bc0",
                "wType": "FlexContainer"
            }
        },
        "keyValue7.flxInfo": {
            "__events__": {},
            "__info__": {
                "kuid": "gad1d0b6b6734bbf999d1a4f35285ccf",
                "srcKUID": "g346c624d1eb4d23ab6de612120faba4",
                "wType": "FlexContainer"
            }
        },
        "keyValue7.flxKey": {
            "__events__": {},
            "__info__": {
                "kuid": "ccf8edeac3f6404d9de1b20cf837d677",
                "srcKUID": "gb19390277e2478295e77b60cad1a448",
                "wType": "FlexContainer"
            },
            "responsiveData": {
                "b3": {
                    "width": {
                        "type": "string",
                        "value": "22%"
                    }
                }
            },
            "width": {}
        },
        "keyValue7.flxValue": {
            "__events__": {},
            "__info__": {
                "kuid": "h3ddd82d52c14411aef00a486fd9fe51",
                "srcKUID": "dff25b04e717425da862d5c37da5b46e",
                "wType": "FlexContainer"
            }
        },
        "keyValue7.imgWhatIsSSN": {
            "__events__": {},
            "__info__": {
                "kuid": "d3af318dbc374d0581341b2f45d5a30b",
                "srcKUID": "c25067292a0e4104a9afdf62fd95d5a0",
                "wType": "Image"
            },
            "src": "info_grey.png"
        },
        "keyValue7.lblColon": {
            "__events__": {},
            "__info__": {
                "kuid": "df1aa627c4cd45c0b89c02c9666f5471",
                "srcKUID": "ade61422046f4de2acc820c8ee399dd8",
                "wType": "Label"
            },
            "left": {},
            "responsiveData": {
                "b3": {
                    "isVisible": false,
                    "left": {
                        "type": "string",
                        "value": "0%"
                    }
                }
            }
        },
        "keyValue7.lblIcon": {
            "__events__": {},
            "__info__": {
                "kuid": "f80bd8584dea491fa59266b9f50f93d9",
                "srcKUID": "j2006db1f6ed4641a7614174e933dc8e",
                "wType": "Label"
            }
        },
        "keyValue7.lblKey": {
            "__events__": {},
            "__info__": {
                "kuid": "g7e68e7c10934e208678834dd188dd60",
                "srcKUID": "fad96ebb1a0b48dda4e32bcc9c19ca36",
                "wType": "Label"
            },
            "i18n_text": "i18n.StopCheckPayments.Notes"
        },
        "keyValue7.lblValue": {
            "__events__": {},
            "__info__": {
                "kuid": "ba2c92ae311a494c8c86fb98caeab145",
                "srcKUID": "a43842b2f2c145dd9798107ea0c1b85b",
                "wType": "Label"
            }
        },
        "lblDecription": {
            "__events__": {},
            "__info__": {
                "kuid": "iab3558091354328b8f1e4f3fd6a1adc",
                "srcKUID": "gb5b0a4f77e84be39c7c92e17a35358a",
                "wType": "Label"
            }
        },
        "lblKeyDispute": {
            "__events__": {},
            "__info__": {
                "kuid": "je2d70bbc4074eecac21c228162ab9b1",
                "srcKUID": "bf13baa8a95e4c1187e7f22483d1c26c",
                "wType": "Label"
            }
        },
        "lblWarning": {
            "__events__": {},
            "__info__": {
                "kuid": "j85c553ca80f4e94a84291c8bb0a438f",
                "srcKUID": "d845e9f1465d4ecf842ecb2f84898a97",
                "wType": "Label"
            }
        },
        "lstBoxSelectReasonForDispute": {
            "__events__": {},
            "__info__": {
                "kuid": "i6f6bde8002049f78dc065c5610b9cb2",
                "srcKUID": "deeba35ba31545409d071b48d0af265b",
                "wType": "ListBox"
            }
        },
        "txtBoxDescription": {
            "__events__": {},
            "__info__": {
                "kuid": "j5b080da64154f93b9cf60792e3d618d",
                "srcKUID": "abe077b32370483aa0050e461d1d293e",
                "wType": "TextField"
            }
        }
    },
    "id": "DisputeTransactionDetail",
    "info": null,
    "iscustomlayout": false,
    "isdatareferenced": false,
    "isvisible": true,
    "kuid": "b0ee506b614f4d739beb631221649922",
    "layouttype": 2,
    "masterType": 0,
    "name": "kony.ui.UserWidgetInstance",
    "parent": "flxDisputedTransactionDetails",
    "pf": "frmStopPayments",
    "retaincontentalignment": false,
    "retainflexpositionproperties": false,
    "snaptogrid": true,
    "sourceUserWidget": "f8909fdb444e4bcd8250330fb5e12bfb",
    "vizprops": {
        "hidewidgethierarchy": false
    },
    "wType": "UserWidgetInstance"
}