{
    "DNDConfig": null,
    "_height_": {
        "type": "string",
        "value": "430dp"
    },
    "_left_": {
        "type": "string",
        "value": "6.08%"
    },
    "_margin_": [
        0,
        0,
        0,
        0
    ],
    "_orientation_": 6,
    "_padding_": [
        0,
        0,
        0,
        0
    ],
    "_percent_": true,
    "_right_": {
        "type": "number",
        "value": ""
    },
    "_skin_": "sdc143f0e5b64ae3a3f155f691c73fa7",
    "_top_": {
        "type": "string",
        "value": "63dp"
    },
    "_width_": {
        "type": "string",
        "value": "43.27%"
    },
    "allboxes": [],
    "canUpdateUI": true,
    "children": [
        "acknowledgmentMyRequests"
    ],
    "clipbounds": false,
    "containerweight": 100,
    "enablescrolling": true,
    "id": "flxAcknowledgementMain",
    "info": null,
    "isvisible": true,
    "kuid": "c21db1a26b7b47659059ba5c59fcd70f",
    "layouttype": 2,
    "name": "kony.ui.FlexContainer",
    "parent": "flxAcknowledgement",
    "pf": "frmStopPayments",
    "responsiveData": {
        "b1": {
            "height": {
                "type": "string",
                "value": "450dp"
            },
            "skin": "sdc143f0e5b64ae3a3f155f691c73fa7",
            "top": {
                "type": "string",
                "value": "67dp"
            },
            "width": {
                "type": "string",
                "value": "43.27%"
            }
        },
        "b2": {
            "height": {
                "type": "string",
                "value": "450dp"
            },
            "left": {
                "type": "string",
                "value": "6.08%"
            },
            "skin": "sdc143f0e5b64ae3a3f155f691c73fa7",
            "top": {
                "type": "string",
                "value": "67dp"
            },
            "width": {
                "type": "string",
                "value": "43.20%"
            }
        },
        "b3": {
            "left": {
                "type": "string",
                "value": "2.50%"
            },
            "skin": "sdc143f0e5b64ae3a3f155f691c73fa7",
            "top": {
                "type": "string",
                "value": "30dp"
            },
            "width": {
                "type": "string",
                "value": "95%"
            }
        },
        "b4": {
            "height": {
                "type": "string",
                "value": "410dp"
            },
            "left": {
                "type": "string",
                "value": "2.50%"
            },
            "right": {
                "type": "string",
                "value": "2.50%"
            },
            "skin": "sdc143f0e5b64ae3a3f155f691c73fa7",
            "top": {
                "type": "string",
                "value": "67dp"
            },
            "width": {
                "type": "string",
                "value": "95%"
            }
        }
    },
    "snapgridsize": 10,
    "snaptogrid": true,
    "wType": "FlexContainer",
    "widgetalignment": 1,
    "zindex": 1
}