{
    "DNDConfig": null,
    "__parentReadjusting__": false,
    "_bottom_": {
        "type": "string",
        "value": "10dp"
    },
    "_height_": {
        "type": "string",
        "value": "220dp"
    },
    "_left_": {
        "type": "string",
        "value": "13dp"
    },
    "_margin_": [
        0,
        0,
        0,
        0
    ],
    "_orientation_": 6,
    "_padding_": [
        0,
        0,
        0,
        0
    ],
    "_percent_": true,
    "_skin_": "s171694da0e749bf9263bc1bd25741cf",
    "_top_": {
        "type": "string",
        "value": "0dp"
    },
    "_width_": {
        "type": "string",
        "value": "100%"
    },
    "allboxes": [],
    "canUpdateUI": true,
    "children": [
        "flxConfirmHeader",
        "flxTransactionDetailsSIngleMultiple",
        "segConfirmDetails",
        "flxStep2Buttons",
        "flxAckButtons"
    ],
    "clipbounds": true,
    "containerweight": 100,
    "enablescrolling": true,
    "id": "flxConfirmDetailsSingleMultiple",
    "info": null,
    "iscustomlayout": false,
    "isvisible": true,
    "kuid": "f6cb03ebd94e456cb4ca7b8b72eedb76",
    "layouttype": 4,
    "name": "kony.ui.FlexContainer",
    "parent": "flxSinglePayConfirm",
    "pf": "frmStopPayments",
    "responsiveData": {
        "b1": {
            "height": {
                "type": "ref",
                "value": "preferred"
            },
            "left": {
                "type": "string",
                "value": "0dp"
            },
            "width": {
                "type": "string",
                "value": "88%"
            }
        },
        "b2": {
            "height": {
                "type": "ref",
                "value": "preferred"
            },
            "left": {
                "type": "string",
                "value": "0dp"
            },
            "width": {
                "type": "string",
                "value": "88%"
            }
        },
        "b3": {
            "bottom": {
                "type": "string",
                "value": "10px"
            },
            "height": {
                "type": "ref",
                "value": "preferred"
            },
            "isVisible": false,
            "left": {
                "type": "string",
                "value": "2.50%"
            },
            "top": {
                "type": "string",
                "value": "5px"
            },
            "width": {
                "type": "string",
                "value": "95%"
            }
        },
        "b4": {
            "height": {
                "type": "ref",
                "value": "preferred"
            },
            "left": {
                "type": "string",
                "value": "2.50%"
            },
            "width": {
                "type": "string",
                "value": "95%"
            }
        }
    },
    "retaincontentalignment": false,
    "retainflexpositionproperties": false,
    "retainflowhorizontalalignment": false,
    "snapgridsize": 10,
    "snaptogrid": true,
    "wType": "FlexContainer",
    "widgetalignment": 1,
    "zindex": 1
}