{
    "DNDConfig": null,
    "__parentReadjusting__": false,
    "_height_": {
        "type": "string",
        "value": "65dp"
    },
    "_left_": {
        "type": "string",
        "value": "0dp"
    },
    "_margin_": [
        0,
        0,
        0,
        0
    ],
    "_orientation_": 6,
    "_padding_": [
        0,
        0,
        0,
        0
    ],
    "_percent_": true,
    "_skin_": "s24c92fc23b14f5484b693ee9b8a9b35",
    "_top_": {
        "type": "string",
        "value": "0px"
    },
    "_width_": {
        "type": "string",
        "value": "100%"
    },
    "allboxes": [],
    "canUpdateUI": true,
    "children": [
        "flxCheckno",
        "flxChequeNumber2",
        "flxDateOfIssue"
    ],
    "clipbounds": true,
    "containerweight": 100,
    "enablescrolling": true,
    "id": "flxCheckNumerDate",
    "info": null,
    "isvisible": true,
    "kuid": "f1d8faf28e5b467a9b865e19c5b5380b",
    "layouttype": 2,
    "name": "kony.ui.FlexContainer",
    "parent": "flxSingleMultiplechecksWrapper",
    "pf": "frmStopPayments",
    "responsiveData": {
        "b3": {
            "height": {
                "type": "string",
                "value": "158dp"
            },
            "layoutType": 4
        }
    },
    "snapgridsize": 10,
    "snaptogrid": true,
    "wType": "FlexContainer",
    "widgetalignment": 1,
    "zindex": 1
}