{
    "DNDConfig": null,
    "_bottom_": {
        "type": "string",
        "value": "30dp"
    },
    "_height_": {
        "type": "ref",
        "value": "preferred"
    },
    "_left_": {
        "type": "string",
        "value": "0%"
    },
    "_margin_": [
        0,
        0,
        0,
        0
    ],
    "_orientation_": 6,
    "_padding_": [
        0,
        0,
        0,
        0
    ],
    "_percent_": true,
    "_skin_": "s24c92fc23b14f5484b693ee9b8a9b35",
    "_top_": {
        "type": "string",
        "value": "10dp"
    },
    "_width_": {
        "type": "string",
        "value": "100%"
    },
    "allboxes": [],
    "autogrowmode": 0,
    "canUpdateUI": true,
    "children": [
        "flxDisputedTransactionDetails",
        "flxActionsDisputeTransactionDetails"
    ],
    "clipbounds": true,
    "containerweight": 100,
    "enablescrolling": true,
    "id": "flxDisputedTransactionDetail",
    "info": null,
    "isvisible": false,
    "kuid": "bebb3f01d98e45e8a5ccc1055627f977",
    "layouttype": 3,
    "minheight": {
        "type": "string",
        "value": "240dp"
    },
    "name": "kony.ui.FlexContainer",
    "parent": "flxMain",
    "pf": "frmStopPayments",
    "responsiveData": {
        "b1": {
            "bottom": {
                "type": "string",
                "value": ""
            },
            "height": {
                "type": "string",
                "value": "790px"
            },
            "isVisible": true,
            "minHeight": {
                "type": "string",
                "value": ""
            },
            "width": {
                "type": "string",
                "value": "100%"
            }
        },
        "b2": {
            "height": {
                "type": "string",
                "value": "835px"
            },
            "isVisible": true
        },
        "b3": {
            "height": {
                "type": "string",
                "value": "1300dp"
            },
            "isVisible": true,
            "top": {
                "type": "string",
                "value": "30dp"
            }
        },
        "b4": {
            "bottom": {
                "type": "string",
                "value": ""
            },
            "height": {
                "type": "string",
                "value": "780px"
            },
            "isVisible": false,
            "minHeight": {
                "type": "string",
                "value": ""
            },
            "width": {
                "type": "string",
                "value": "100%"
            }
        }
    },
    "snapgridsize": 10,
    "snaptogrid": true,
    "wType": "FlexContainer",
    "widgetalignment": 1,
    "zindex": 1
}