{
    "DNDConfig": null,
    "_height_": {
        "type": "string",
        "value": "150dp"
    },
    "_left_": {
        "type": "string",
        "value": "0dp"
    },
    "_margin_": [
        0,
        0,
        0,
        0
    ],
    "_orientation_": 6,
    "_padding_": [
        0,
        0,
        0,
        0
    ],
    "_percent_": true,
    "_skin_": "s24c92fc23b14f5484b693ee9b8a9b35",
    "_top_": {
        "type": "string",
        "value": "0dp"
    },
    "_width_": {
        "type": "string",
        "value": "100%"
    },
    "allboxes": [],
    "autogrowmode": 0,
    "canUpdateUI": true,
    "children": [
        "customfooternew"
    ],
    "clipbounds": false,
    "containerweight": 100,
    "enablescrolling": true,
    "id": "flxFooter",
    "info": null,
    "isvisible": false,
    "kuid": "d816f9336ea246e58ff68813f6129746",
    "layouttype": 2,
    "name": "kony.ui.FlexContainer",
    "parent": "flxFormContent",
    "pf": "frmStopPayments",
    "responsiveData": {
        "b1": {
            "isVisible": true,
            "skin": "s24c92fc23b14f5484b693ee9b8a9b35"
        },
        "b2": {
            "isVisible": true
        },
        "b3": {
            "isVisible": true,
            "skin": "s24c92fc23b14f5484b693ee9b8a9b35"
        },
        "b4": {
            "isVisible": true,
            "skin": "s24c92fc23b14f5484b693ee9b8a9b35",
            "width": {
                "type": "string",
                "value": "100%"
            }
        }
    },
    "snapgridsize": 10,
    "snaptogrid": true,
    "wType": "FlexContainer",
    "widgetalignment": 1,
    "zindex": 1
}