{
    "DNDConfig": null,
    "__parentReadjusting__": false,
    "_height_": {
        "type": "string",
        "value": "25dp"
    },
    "_margin_": [
        0,
        0,
        0,
        0
    ],
    "_orientation_": 6,
    "_padding_": [
        0,
        0,
        0,
        0
    ],
    "_percent_": true,
    "_right_": {
        "type": "string",
        "value": "9.52%"
    },
    "_skin_": "s24c92fc23b14f5484b693ee9b8a9b35",
    "_top_": {
        "type": "string",
        "value": "21dp"
    },
    "_width_": {
        "type": "string",
        "value": "25dp"
    },
    "allboxes": [],
    "autogrowmode": 0,
    "canUpdateUI": true,
    "children": [
        "CopyimgPrint0cb1a69de676e48",
        "lblPrintfontIconConfirm"
    ],
    "clipbounds": true,
    "containerweight": 100,
    "desktopweb": {
        "psp": {
            "hoverSkin": "sec33ce747114bec824bad2508e6968f"
        }
    },
    "enablescrolling": true,
    "id": "flxPrint",
    "info": null,
    "isvisible": true,
    "kuid": "d28b91985c3f4f439a1a3dbea76a5f1b",
    "layouttype": 2,
    "name": "kony.ui.FlexContainer",
    "parent": "flxAcknowledgement",
    "pf": "frmStopPayments",
    "responsiveData": {
        "b1": {
            "top": {
                "type": "string",
                "value": "30dp"
            }
        },
        "b2": {
            "isVisible": false,
            "top": {
                "type": "string",
                "value": "30dp"
            }
        },
        "b3": {
            "isVisible": false
        },
        "b4": {
            "isVisible": false,
            "right": {
                "type": "string",
                "value": "4.50%"
            },
            "top": {
                "type": "string",
                "value": "30dp"
            }
        }
    },
    "snapgridsize": 10,
    "snaptogrid": true,
    "wType": "FlexContainer",
    "widgetalignment": 1,
    "zindex": 1
}