{
    "@class": "com.kony.gen.viz.model.component.KVizLabel",
    "DNDConfig": null,
    "__parentReadjusting__": false,
    "_height_": {
        "type": "string",
        "value": "25dp"
    },
    "_left_": {
        "type": "string",
        "value": "88.50%"
    },
    "_margin_": [
        1,
        1,
        1,
        1
    ],
    "_padding_": [
        0,
        0,
        0,
        0
    ],
    "_skin_": "sb21459f022449ceba61957e28f76983",
    "_text_": "REMOVE",
    "_top_": {
        "type": "string",
        "value": "-22dp"
    },
    "_width_": {
        "type": "ref",
        "value": "preferred"
    },
    "_wrapping_": 2,
    "accessibilityconfig": {
        "a11yLabel": "REMOVE"
    },
    "android": {
        "textStyle": {
            "letterSpacing": 0,
            "strikeThrough": false
        }
    },
    "canUpdateUI": true,
    "containerweight": 100,
    "contentalignment": 4,
    "desktopweb": {
        "psp": {}
    },
    "disabledSkins": {
        "hoverSkin": "sdf041f5ff434c4fa99b8cf5c32380d8"
    },
    "id": "lblRemove",
    "info": null,
    "ipad": {
        "psp": {
            "wrapping": 2
        }
    },
    "iphone": {
        "psp": {
            "wrapping": 2
        }
    },
    "isvisible": true,
    "kuid": "i5fe43d7fe554c65aa479cea0db1220c",
    "name": "kony.ui.Label",
    "parent": "flxSingleMultiplechecksWrapper",
    "pf": "frmStopPayments",
    "tooltip": "",
    "wType": "Label",
    "zindex": 1
}