{
    "@class": "com.kony.gen.viz.model.component.KVizUserWidget",
    "DNDConfig": null,
    "__parentReadjusting__": false,
    "_children_": [],
    "_height_": {
        "type": "ref",
        "value": "preferred"
    },
    "_left_": {
        "type": "string",
        "value": "0%"
    },
    "_margin_": [
        0,
        0,
        0,
        0
    ],
    "_orientation_": 1,
    "_padding_": [
        0,
        0,
        0,
        0
    ],
    "_percent_": true,
    "_skin_": "secff68ee7904525acebc42c36c39094",
    "_top_": {
        "type": "string",
        "value": "0dp"
    },
    "_width_": {
        "type": "string",
        "value": "99.50%"
    },
    "areflexpropsreferenced": false,
    "autogrowmode": 1,
    "canUpdateUI": true,
    "clipbounds": true,
    "containerweight": 0,
    "dataDiffs": {
        "CopyimgRadioBtn0ie8f131619e347": {
            "__events__": {},
            "__info__": {
                "kuid": "g5d3a5e82454483c9f9de6874fb140b6",
                "srcKUID": "f227f348600044328aba1eae2346f53b",
                "wType": "Image"
            },
            "isVisible": true,
            "responsiveData": {
                "b3": {
                    "isVisible": false
                }
            },
            "src": "radio_butn_active.png"
        },
        "RequestChequeBookSeriesMultiple": {
            "__events__": {},
            "__info__": {
                "isRoot": true,
                "kuid": "b688ecbc9187430eb3617cef5d8fa9f0",
                "srcKUID": "b920a84d525b446cb2e3d7e8f4ed4b5f",
                "wType": "FlexContainer"
            },
            "autogrowMode": {
                "Default": 1
            },
            "bottom": {
                "Default": {
                    "type": "string",
                    "value": ""
                }
            },
            "centerX": {
                "Default": {
                    "type": "string",
                    "value": ""
                }
            },
            "centerY": {
                "Default": {
                    "type": "string",
                    "value": ""
                }
            },
            "height": {
                "Default": {
                    "type": "ref",
                    "value": "preferred"
                }
            },
            "isVisible": false,
            "left": {
                "Default": {
                    "type": "string",
                    "value": "0%"
                }
            },
            "maxHeight": {
                "Default": {
                    "type": "string",
                    "value": ""
                }
            },
            "maxWidth": {
                "Default": {
                    "type": "string",
                    "value": ""
                }
            },
            "minHeight": {
                "Default": {
                    "type": "string",
                    "value": ""
                }
            },
            "minWidth": {
                "Default": {
                    "type": "string",
                    "value": ""
                }
            },
            "responsiveData": {
                "b1": {
                    "isVisible": false
                },
                "b2": {
                    "isVisible": true
                },
                "b3": {
                    "height": {
                        "type": "ref",
                        "value": "preferred"
                    },
                    "isVisible": true,
                    "width": {
                        "type": "string",
                        "value": "100%"
                    }
                },
                "b4": {
                    "isVisible": false
                }
            },
            "right": {
                "Default": {
                    "type": "string",
                    "value": ""
                }
            },
            "top": {
                "Default": {
                    "type": "string",
                    "value": "0dp"
                }
            },
            "width": {
                "Default": {
                    "type": "string",
                    "value": "99.50%"
                }
            }
        },
        "btnCancel": {
            "__events__": {},
            "__info__": {
                "kuid": "a45046bb732e4fc0a0bc0afba28cf37c",
                "srcKUID": "gae1ad96958446239c5236e8275e9627",
                "wType": "Button"
            },
            "centerX": {
                "Default": {
                    "type": "number",
                    "value": ""
                }
            },
            "centerY": {
                "Default": {
                    "type": "string",
                    "value": "50%"
                }
            },
            "height": {
                "Default": {
                    "type": "string",
                    "value": "50dp"
                }
            },
            "isVisible": true,
            "left": {
                "Default": {
                    "type": "number",
                    "value": ""
                }
            },
            "responsiveData": {
                "b1": {
                    "right": {
                        "type": "string",
                        "value": "195dp"
                    },
                    "width": {
                        "type": "string",
                        "value": "150dp"
                    }
                },
                "b2": {
                    "right": {
                        "type": "string",
                        "value": "195dp"
                    },
                    "width": {
                        "type": "string",
                        "value": "150dp"
                    }
                },
                "b3": {
                    "centerX": {
                        "type": "string",
                        "value": "50%"
                    },
                    "centerY": {
                        "type": "string",
                        "value": ""
                    },
                    "height": {
                        "type": "string",
                        "value": "40dp"
                    },
                    "isVisible": true,
                    "left": {
                        "type": "string",
                        "value": "3%"
                    },
                    "right": {
                        "type": "string",
                        "value": "3%"
                    },
                    "top": {
                        "type": "string",
                        "value": "20dp"
                    },
                    "width": {
                        "type": "string",
                        "value": "94%"
                    }
                },
                "b4": {
                    "right": {
                        "type": "string",
                        "value": "170dp"
                    },
                    "width": {
                        "type": "string",
                        "value": "150dp"
                    }
                }
            },
            "right": {
                "Default": {
                    "type": "string",
                    "value": "302dp"
                }
            },
            "top": {
                "Default": {
                    "type": "number",
                    "value": ""
                }
            },
            "width": {
                "Default": {
                    "type": "string",
                    "value": "257dp"
                }
            }
        },
        "btnConfirm": {
            "__events__": {},
            "__info__": {
                "kuid": "b367ebf671764b36b6ef968213c150fb",
                "srcKUID": "e7e3874eb07a492e860ce3116df40da2",
                "wType": "Button"
            }
        },
        "btnContinue": {
            "__events__": {},
            "__info__": {
                "kuid": "ifac98b5dd8b44e99efc674cbedd74b3",
                "srcKUID": "cec84636fda84e71a927e9091a05cf17",
                "wType": "Button"
            },
            "blur": {
                "enabled": false,
                "value": 0
            },
            "centerX": {
                "Default": {
                    "type": "number",
                    "value": ""
                }
            },
            "centerY": {
                "Default": {
                    "type": "string",
                    "value": "50%"
                }
            },
            "height": {
                "Default": {
                    "type": "string",
                    "value": "50dp"
                }
            },
            "left": {
                "Default": {
                    "type": "number",
                    "value": ""
                }
            },
            "responsiveData": {
                "b1": {
                    "width": {
                        "type": "string",
                        "value": "150dp"
                    }
                },
                "b2": {
                    "width": {
                        "type": "string",
                        "value": "150dp"
                    }
                },
                "b3": {
                    "centerX": {
                        "type": "string",
                        "value": "50%"
                    },
                    "centerY": {
                        "type": "string",
                        "value": ""
                    },
                    "height": {
                        "type": "string",
                        "value": "40dp"
                    },
                    "left": {
                        "type": "string",
                        "value": "3%"
                    },
                    "right": {
                        "type": "string",
                        "value": "3%"
                    },
                    "width": {
                        "type": "string",
                        "value": "94%"
                    }
                },
                "b4": {
                    "right": {
                        "type": "string",
                        "value": "0dp"
                    },
                    "width": {
                        "type": "string",
                        "value": "150dp"
                    }
                }
            },
            "right": {
                "Default": {
                    "type": "string",
                    "value": "28dp"
                }
            },
            "width": {
                "Default": {
                    "type": "string",
                    "value": "257dp"
                }
            }
        },
        "btnProceed": {
            "__events__": {},
            "__info__": {
                "kuid": "g0dd120f7a3b4b6781052637038b573b",
                "srcKUID": "i06329b8ec9744ada323631455d4bbdf",
                "wType": "Button"
            },
            "height": {
                "Default": {
                    "type": "string",
                    "value": "48dp"
                }
            },
            "left": {
                "Default": {
                    "type": "string",
                    "value": "58dp"
                }
            },
            "responsiveData": {
                "b3": {
                    "height": {
                        "type": "string",
                        "value": "40dp"
                    },
                    "left": {
                        "type": "string",
                        "value": "3%"
                    },
                    "right": {
                        "type": "string",
                        "value": "3%"
                    },
                    "width": {
                        "type": "string",
                        "value": "94%"
                    }
                }
            },
            "right": {
                "Default": {
                    "type": "number",
                    "value": ""
                }
            },
            "width": {
                "Default": {
                    "type": "string",
                    "value": "430dp"
                }
            }
        },
        "btnTermsAndConditions": {
            "__events__": {},
            "__info__": {
                "kuid": "g4dd85ff3e774961a90004e19d046059",
                "srcKUID": "c8d5c4b025ba4d5eac29896bf72c9c83",
                "wType": "Button"
            }
        },
        "flxAddAnotherCheck": {
            "__events__": {},
            "__info__": {
                "kuid": "c1a0189d5b26419ea12a0ce980a80067",
                "srcKUID": "hebc09ced1b24b93956f25a5196aa813",
                "wType": "FlexContainer"
            },
            "isVisible": false,
            "responsiveData": {
                "b3": {
                    "isVisible": false
                }
            }
        },
        "flxAmountSelectReason1": {
            "__events__": {},
            "__info__": {
                "kuid": "j2454e3e02144d01b8d00e9d2e072828",
                "srcKUID": "c373edeb78c4491698610fcf526a228f",
                "wType": "FlexContainer"
            },
            "autogrowMode": {
                "Default": 0
            },
            "height": {
                "Default": {
                    "type": "string",
                    "value": "88dp"
                }
            },
            "left": {
                "Default": {
                    "type": "string",
                    "value": "0dp"
                }
            },
            "responsiveData": {
                "b3": {
                    "left": {
                        "type": "string",
                        "value": "3%"
                    },
                    "width": {
                        "type": "string",
                        "value": "94%"
                    }
                }
            },
            "width": {
                "Default": {
                    "type": "ref",
                    "value": "preferred"
                }
            }
        },
        "flxButtonSeperator": {
            "__events__": {},
            "__info__": {
                "kuid": "b8a6a293adaf4b68969b1237537540e3",
                "srcKUID": "f0e6982b316c466ca7eaf713311bd3a7",
                "wType": "FlexContainer"
            }
        },
        "flxButtons": {
            "__events__": {},
            "__info__": {
                "kuid": "e6ff2da3e8014b33bc1596338b155e35",
                "srcKUID": "g64185e629204b79806ac67225bd4e61",
                "wType": "FlexContainer"
            },
            "autogrowMode": {
                "Default": 0
            },
            "height": {
                "Default": {
                    "type": "string",
                    "value": "110dp"
                }
            },
            "layoutType": 2,
            "left": {
                "Default": {
                    "type": "string",
                    "value": "0dp"
                }
            },
            "responsiveData": {
                "b3": {
                    "height": {
                        "type": "string",
                        "value": "150dp"
                    },
                    "layoutType": 4
                },
                "b4": {
                    "left": {
                        "type": "string",
                        "value": ""
                    },
                    "right": {
                        "type": "string",
                        "value": "3%"
                    },
                    "width": {
                        "type": "string",
                        "value": "95.92%"
                    }
                }
            },
            "right": {
                "Default": {
                    "type": "number",
                    "value": ""
                }
            },
            "width": {
                "Default": {
                    "type": "string",
                    "value": "100%"
                }
            }
        },
        "flxCancelFilterFrom": {
            "__events__": {},
            "__info__": {
                "kuid": "id4b4e0b27804da2aa0a84b261a7e770",
                "srcKUID": "e8b23192d2354364a154176c47892432",
                "wType": "FlexContainer"
            }
        },
        "flxCheckNumerDate1": {
            "__events__": {},
            "__info__": {
                "kuid": "i560e4f4f053459eb1e175ec9597f7e5",
                "srcKUID": "bbff7b8f76304ff58ca0f63e04f427f9",
                "wType": "FlexContainer"
            },
            "autogrowMode": {
                "Default": 0
            },
            "height": {
                "Default": {
                    "type": "ref",
                    "value": "preferred"
                }
            },
            "isVisible": true,
            "left": {
                "Default": {
                    "type": "string",
                    "value": "0dp"
                }
            },
            "responsiveData": {
                "b3": {
                    "height": {
                        "type": "string",
                        "value": "70dp"
                    },
                    "left": {
                        "type": "string",
                        "value": "3%"
                    },
                    "top": {
                        "type": "string",
                        "value": "0dp"
                    },
                    "width": {
                        "type": "string",
                        "value": "94%"
                    }
                },
                "b4": {
                    "left": {
                        "type": "string",
                        "value": "0dp"
                    }
                }
            },
            "top": {
                "Default": {
                    "type": "string",
                    "value": ""
                }
            },
            "width": {
                "Default": {
                    "type": "ref",
                    "value": "preferred"
                }
            }
        },
        "flxChequeBookLeaves": {
            "__events__": {},
            "__info__": {
                "kuid": "c310cb09950c4e22aca4aed2f484a94a",
                "srcKUID": "b61712a8a293496d90d4e2d21a64487e",
                "wType": "FlexContainer"
            },
            "layoutType": 3,
            "left": {
                "Default": {
                    "type": "string",
                    "value": "0dp"
                }
            },
            "responsiveData": {
                "b3": {
                    "left": {
                        "type": "string",
                        "value": "3%"
                    },
                    "width": {
                        "type": "string",
                        "value": "94%"
                    }
                }
            },
            "width": {
                "Default": {
                    "type": "string",
                    "value": "98.24%"
                }
            }
        },
        "flxChequeBookRequests": {
            "__events__": {},
            "__info__": {
                "kuid": "e1c597a780f947cfb0eac4cb070056b0",
                "srcKUID": "fd1e64d88486412cb1966db00954c2a5",
                "wType": "FlexContainer"
            },
            "responsiveData": {
                "b3": {
                    "width": {
                        "type": "string",
                        "value": "99%"
                    }
                }
            },
            "width": {
                "Default": {
                    "type": "string",
                    "value": "100%"
                }
            }
        },
        "flxDescription1": {
            "__events__": {},
            "__info__": {
                "kuid": "d02bf9d929bb40688a27633a42cb1283",
                "srcKUID": "ibf9d8ff12be4164b328506bb6bab6bb",
                "wType": "FlexContainer"
            },
            "left": {
                "Default": {
                    "type": "string",
                    "value": "0dp"
                }
            },
            "responsiveData": {
                "b3": {
                    "left": {
                        "type": "string",
                        "value": "3%"
                    },
                    "width": {
                        "type": "string",
                        "value": "94%"
                    }
                }
            },
            "width": {
                "Default": {
                    "type": "string",
                    "value": "100%"
                }
            }
        },
        "flxFollowingPoints": {
            "__events__": {},
            "__info__": {
                "kuid": "e94117bfdb334a819c7d4fa4de395d8c",
                "srcKUID": "b2e504cf55e4477b8664beef64d6f851",
                "wType": "FlexContainer"
            }
        },
        "flxFrom": {
            "__events__": {},
            "__info__": {
                "kuid": "f19510e3eb6543879dfcb0ca588726a9",
                "srcKUID": "i8b182f3f35e4c47b08e0d54f3066f47",
                "wType": "FlexContainer"
            },
            "left": {
                "Default": {
                    "type": "string",
                    "value": "3.96%"
                }
            },
            "responsiveData": {
                "b3": {
                    "left": {
                        "type": "string",
                        "value": "3%"
                    },
                    "width": {
                        "type": "string",
                        "value": "94%"
                    }
                },
                "b4": {
                    "left": {
                        "type": "string",
                        "value": "3%"
                    },
                    "width": {
                        "type": "string",
                        "value": "94%"
                    }
                }
            },
            "width": {
                "Default": {
                    "type": "string",
                    "value": "92.20%"
                }
            }
        },
        "flxFromSegment": {
            "__events__": {},
            "__info__": {
                "kuid": "gabfdfafaf594a12878df417ba8c0843",
                "srcKUID": "fbb4a94c58794fd08532673850a5ee62",
                "wType": "FlexScrollContainer"
            },
            "isVisible": false,
            "responsiveData": {
                "b3": {
                    "isVisible": false
                }
            }
        },
        "flxFromSelectType": {
            "__events__": {},
            "__info__": {
                "kuid": "cda0f114c83f4054883cc464870fe6de",
                "srcKUID": "ae56411074d949feb8439ddcb607c851",
                "wType": "FlexContainer"
            }
        },
        "flxHeader": {
            "__events__": {},
            "__info__": {
                "kuid": "b3d6f9405914420b9496b56d96b8cafa",
                "srcKUID": "a33053e8082044358454a2c43c4d372b",
                "wType": "FlexContainer"
            }
        },
        "flxLoadingContainerFrom": {
            "__events__": {},
            "__info__": {
                "kuid": "e8ce50611f6844e1b1529b9ccc2bddd6",
                "srcKUID": "df066a7b6afb47389e0b873cfb2976cf",
                "wType": "FlexContainer"
            }
        },
        "flxLoadingIndicatorFrom": {
            "__events__": {},
            "__info__": {
                "kuid": "aab00f0111ba4cc4b0957386ca244b65",
                "srcKUID": "ifa4dc3cb2b049578d66494191d4a0d7",
                "wType": "FlexContainer"
            }
        },
        "flxMailingAddress": {
            "__events__": {},
            "__info__": {
                "kuid": "ddf60d3bfa7341068b13d30608e9b461",
                "srcKUID": "ca8e24a02d6c4cf4b3c32aaf8cef1a87",
                "wType": "FlexContainer"
            },
            "left": {
                "Default": {
                    "type": "string",
                    "value": "2dp"
                }
            },
            "responsiveData": {
                "b4": {
                    "width": {
                        "type": "string",
                        "value": "20%"
                    }
                }
            },
            "top": {
                "Default": {
                    "type": "string",
                    "value": "2dp"
                }
            },
            "width": {
                "Default": {
                    "type": "string",
                    "value": "26.93%"
                }
            }
        },
        "flxMailingAddressVertical": {
            "__events__": {},
            "__info__": {
                "kuid": "i0ad0b4ef151407a99c54d22a8cb1dd1",
                "srcKUID": "ac5ed1f96f0e41d985c7fd8c0abf549a",
                "wType": "FlexContainer"
            }
        },
        "flxNoAccountsFrom": {
            "__events__": {},
            "__info__": {
                "kuid": "cd9b3c086f9e4f5daf9b68b5befc7a7c",
                "srcKUID": "a7bca6321ebd4d5db36b079cb25e77ef",
                "wType": "FlexContainer"
            }
        },
        "flxNoResultsFrom": {
            "__events__": {},
            "__info__": {
                "kuid": "e00ccffecfb1452694bbc399cca99eb9",
                "srcKUID": "bc96c3fd353a4c00bc5bf5c68cc7cf29",
                "wType": "FlexContainer"
            }
        },
        "flxNotification": {
            "__events__": {},
            "__info__": {
                "kuid": "e8e79df984ad46959208f98898e9c5ba",
                "srcKUID": "ebf49950ca7f4337a6a5e97c9b531f83",
                "wType": "FlexContainer"
            },
            "isVisible": false,
            "left": {
                "Default": {
                    "type": "string",
                    "value": "32dp"
                }
            },
            "responsiveData": {
                "b3": {
                    "isVisible": false,
                    "left": {
                        "type": "string",
                        "value": "3%"
                    },
                    "width": {
                        "type": "string",
                        "value": "94%"
                    }
                },
                "b4": {
                    "left": {
                        "type": "string",
                        "value": "3%"
                    },
                    "width": {
                        "type": "string",
                        "value": "94%"
                    }
                }
            },
            "width": {
                "Default": {
                    "type": "string",
                    "value": "92.50%"
                }
            }
        },
        "flxPleaseNoteTheFollowingPoints": {
            "__events__": {},
            "__info__": {
                "kuid": "i3355a29289f4cb594da4ab36d016e60",
                "srcKUID": "g6e0aea4334944d68e9b0f202cf60933",
                "wType": "FlexContainer"
            },
            "isVisible": false,
            "left": {
                "Default": {
                    "type": "string",
                    "value": "30dp"
                }
            },
            "responsiveData": {
                "b3": {
                    "isVisible": false,
                    "left": {
                        "type": "string",
                        "value": "3%"
                    },
                    "width": {
                        "type": "string",
                        "value": "94%"
                    }
                }
            },
            "width": {
                "Default": {
                    "type": "string",
                    "value": "92.50%"
                }
            }
        },
        "flxProceedButton": {
            "__events__": {},
            "__info__": {
                "kuid": "e209f815df634d47b98dfb640160b271",
                "srcKUID": "f92f2f4a28c24e138f4e5e43b329e30a",
                "wType": "FlexContainer"
            }
        },
        "flxRadioBtn1": {
            "__events__": {},
            "__info__": {
                "kuid": "e7012a4eb2c244cf8f89f40566dfe906",
                "srcKUID": "e19c0c12962d47a3acad51f2d668c5d9",
                "wType": "FlexContainer"
            },
            "autogrowMode": {
                "Default": 0
            },
            "centerY": {
                "Default": {
                    "type": "string",
                    "value": "50%"
                }
            },
            "height": {
                "Default": {
                    "type": "string",
                    "value": "30dp"
                }
            },
            "left": {
                "Default": {
                    "type": "string",
                    "value": "0dp"
                }
            },
            "responsiveData": {
                "b3": {
                    "centerY": {
                        "type": "string",
                        "value": "47.5%"
                    },
                    "left": {
                        "type": "string",
                        "value": "2%"
                    }
                },
                "b4": {
                    "height": {
                        "type": "string",
                        "value": "30dp"
                    }
                }
            }
        },
        "flxRadioBtn2": {
            "__events__": {},
            "__info__": {
                "kuid": "b7cdd994753a433ab808a062243e941a",
                "srcKUID": "ce1715bad6914de7b563e15c9bcdf518",
                "wType": "FlexContainer"
            },
            "autogrowMode": {
                "Default": 0
            },
            "centerX": {
                "Default": {
                    "type": "number",
                    "value": ""
                }
            },
            "centerY": {
                "Default": {
                    "type": "string",
                    "value": "50%"
                }
            },
            "height": {
                "Default": {
                    "type": "string",
                    "value": "25dp"
                }
            },
            "left": {
                "Default": {
                    "type": "string",
                    "value": "12.5%"
                }
            },
            "responsiveData": {
                "b1": {
                    "left": {
                        "type": "string",
                        "value": "2%"
                    }
                },
                "b3": {
                    "centerX": {
                        "type": "string",
                        "value": "19.990000000000002%"
                    },
                    "centerY": {
                        "type": "string",
                        "value": "42.65%"
                    },
                    "height": {
                        "type": "string",
                        "value": "29dp"
                    },
                    "left": {
                        "type": "string",
                        "value": ""
                    }
                },
                "b4": {
                    "height": {
                        "type": "string",
                        "value": "30dp"
                    },
                    "left": {
                        "type": "string",
                        "value": "0%"
                    }
                }
            }
        },
        "flxRadioBtn2Vertical": {
            "__events__": {},
            "__info__": {
                "kuid": "g8adf0fd29e04d378ff9b05b8ac3633b",
                "srcKUID": "ed34d7f74432475091c17908d2f3d348",
                "wType": "FlexContainer"
            }
        },
        "flxRadioBtnVertical": {
            "__events__": {},
            "__info__": {
                "kuid": "af409073870247769def506a8255b28a",
                "srcKUID": "i59b4ba7013e418f84548288f11f98b3",
                "wType": "FlexContainer"
            }
        },
        "flxRow1": {
            "__events__": {},
            "__info__": {
                "kuid": "h098b559064e4e81b3f6ddd288916a46",
                "srcKUID": "c1da7a7145794a119766ea38f75dca7d",
                "wType": "FlexContainer"
            }
        },
        "flxRow2": {
            "__events__": {},
            "__info__": {
                "kuid": "bb9473189d4141f0a64c0aab2300276a",
                "srcKUID": "a96f2a3f84154415a446ec864eb4696a",
                "wType": "FlexContainer"
            },
            "autogrowMode": {
                "Default": 0
            },
            "height": {
                "Default": {
                    "type": "string",
                    "value": "93dp"
                }
            },
            "responsiveData": {
                "b3": {
                    "height": {
                        "type": "string",
                        "value": "90dp"
                    }
                }
            },
            "top": {
                "Default": {
                    "type": "string",
                    "value": "-6dp"
                }
            }
        },
        "flxRow3": {
            "__events__": {},
            "__info__": {
                "kuid": "d6cf0331125c45e7a1af67481a8562f3",
                "srcKUID": "ffa2db9caadd4770b0b97e5f140a05af",
                "wType": "FlexContainer"
            },
            "height": {
                "Default": {
                    "type": "string",
                    "value": "80dp"
                }
            },
            "responsiveData": {
                "b3": {
                    "height": {
                        "type": "string",
                        "value": "121dp"
                    },
                    "width": {
                        "type": "string",
                        "value": "100.94%"
                    }
                }
            },
            "width": {
                "Default": {
                    "type": "string",
                    "value": "100%"
                }
            }
        },
        "flxSelfPickup": {
            "__events__": {},
            "__info__": {
                "kuid": "gefd85a621ca43e39392202cd1a8a968",
                "srcKUID": "jdc69ee98e1a443a9b3bfc302c947066",
                "wType": "FlexContainer"
            },
            "left": {
                "Default": {
                    "type": "string",
                    "value": "8dp"
                }
            },
            "responsiveData": {
                "b4": {
                    "left": {
                        "type": "string",
                        "value": "10%"
                    }
                }
            }
        },
        "flxSelfPickupVertical": {
            "__events__": {},
            "__info__": {
                "kuid": "d23e89f8164b4f0a82d4386a546b8713",
                "srcKUID": "baf970e8e66c4131b7ccc8e1ce5c54e4",
                "wType": "FlexContainer"
            }
        },
        "flxSeperator": {
            "__events__": {},
            "__info__": {
                "kuid": "fc2ffdff59784cdd80f80c2b349350af",
                "srcKUID": "e9c1b9ec8f1b4008b171f88e18a34645",
                "wType": "FlexContainer"
            }
        },
        "flxSeperator1": {
            "__events__": {},
            "__info__": {
                "kuid": "i09609994d6d4d7f803db1bc4f378a9a",
                "srcKUID": "d00c44f7222b463db17784c7535b77f8",
                "wType": "FlexContainer"
            },
            "autogrowMode": {
                "Default": 0
            },
            "centerX": {
                "Default": {
                    "type": "number",
                    "value": ""
                }
            },
            "centerY": {
                "Default": {
                    "type": "number",
                    "value": ""
                }
            },
            "height": {
                "Default": {
                    "type": "string",
                    "value": "1dp"
                }
            },
            "left": {
                "Default": {
                    "type": "string",
                    "value": "30dp"
                }
            },
            "responsiveData": {
                "b3": {
                    "centerX": {
                        "type": "string",
                        "value": "50%"
                    },
                    "centerY": {
                        "type": "string",
                        "value": ""
                    },
                    "height": {
                        "type": "string",
                        "value": "2dp"
                    },
                    "left": {
                        "type": "string",
                        "value": "3%"
                    },
                    "top": {
                        "type": "string",
                        "value": "30dp"
                    },
                    "width": {
                        "type": "string",
                        "value": "94%"
                    }
                },
                "b4": {
                    "height": {
                        "type": "string",
                        "value": "2dp"
                    },
                    "left": {
                        "type": "string",
                        "value": "3%"
                    },
                    "width": {
                        "type": "string",
                        "value": "94%"
                    }
                }
            },
            "top": {
                "Default": {
                    "type": "string",
                    "value": "30dp"
                }
            },
            "width": {
                "Default": {
                    "type": "string",
                    "value": "92.40%"
                }
            }
        },
        "flxSingleMultiplechecksWrapper1": {
            "__events__": {},
            "__info__": {
                "kuid": "a3ca3cdb5d074b67b7c782d41079283c",
                "srcKUID": "hdee6b1b070341f0a861724268584965",
                "wType": "FlexContainer"
            },
            "left": {
                "Default": {
                    "type": "string",
                    "value": "0dp"
                }
            },
            "responsiveData": {
                "b3": {
                    "top": null
                }
            },
            "top": {
                "Default": 0
            }
        },
        "flxTCCheckBox": {
            "__events__": {},
            "__info__": {
                "kuid": "c379170a9fed42c7b463a0bd9d1b8e75",
                "srcKUID": "ea2febf16d1344d98b74142feb6d8564",
                "wType": "FlexContainer"
            }
        },
        "flxTCContentsCheckbox": {
            "__events__": {},
            "__info__": {
                "kuid": "cc2b2b54336646529d822c8bd3157412",
                "srcKUID": "ce479fd02056480281c6a4f10ecbfb2f",
                "wType": "FlexContainer"
            }
        },
        "imgAdd": {
            "__events__": {},
            "__info__": {
                "kuid": "ce31febb303042cb94d77ee3402652e6",
                "srcKUID": "df68ec58f562433298e94b9b0528b2ba",
                "wType": "Label"
            }
        },
        "imgAdd1": {
            "__events__": {},
            "__info__": {
                "kuid": "cf7d4d317fe6454882e056e89d2cc388",
                "srcKUID": "j4cb373e44574950b0b5cc6fe4a9657a",
                "wType": "Image"
            }
        },
        "imgCancelFilterFrom": {
            "__events__": {},
            "__info__": {
                "kuid": "b445cb506df34a8cacb1ab0047c65c68",
                "srcKUID": "ff8a1e9386944024bed833caf594d251",
                "wType": "Image"
            }
        },
        "imgInfoTC": {
            "__events__": {},
            "__info__": {
                "kuid": "d27cf7ac610047359ee966df75ef20aa",
                "srcKUID": "gc5197e59713412cbea4bfb0ffaf27b4",
                "wType": "Image"
            },
            "src": "info.png"
        },
        "imgLoadingIndicatorFrom": {
            "__events__": {},
            "__info__": {
                "kuid": "fb5ba87a70c342319f2eb1bc5c603c76",
                "srcKUID": "bb873c24091c4b869fc9dcc973d69c84",
                "wType": "Image"
            },
            "isVisible": false,
            "responsiveData": {}
        },
        "imgMailingAddress": {
            "__events__": {},
            "__info__": {
                "kuid": "f3ad2527a6f74ee3aef83f23d47f9987",
                "srcKUID": "a9a04d25198a4b1e96f01929805a33a9",
                "wType": "Label"
            },
            "isVisible": false,
            "responsiveData": {
                "b3": {
                    "isVisible": true
                }
            }
        },
        "imgNotify": {
            "__events__": {},
            "__info__": {
                "kuid": "fb431ebb11ff444294de5aaed668e5fe",
                "srcKUID": "da0f13b7717f4c4ba917bcfd78ce393d",
                "wType": "Label"
            }
        },
        "imgRadioBtn1": {
            "__events__": {},
            "__info__": {
                "kuid": "bd28be55001c48b1843344045f150f03",
                "srcKUID": "jeba273c21ef4916ab28741f1d3a37de",
                "wType": "Image"
            },
            "centerX": {
                "Default": {
                    "type": "string",
                    "value": "50%"
                }
            },
            "centerY": {
                "Default": {
                    "type": "string",
                    "value": "50%"
                }
            },
            "responsiveData": {
                "b3": {
                    "centerX": {
                        "type": "string",
                        "value": "50%"
                    },
                    "centerY": {
                        "type": "string",
                        "value": "41%"
                    }
                },
                "b4": {
                    "centerY": {
                        "type": "string",
                        "value": "53%"
                    }
                }
            },
            "src": "radio_butn_active.png"
        },
        "imgRadioBtn12": {
            "__events__": {},
            "__info__": {
                "kuid": "b6ef12f2be14442aaf06dc741f2c0469",
                "srcKUID": "b24ba948892c4093abdad0127d4f9890",
                "wType": "Label"
            },
            "centerX": {
                "Default": {
                    "type": "string",
                    "value": "50%"
                }
            },
            "centerY": {
                "Default": {
                    "type": "string",
                    "value": "50%"
                }
            },
            "isVisible": true,
            "responsiveData": {
                "b3": {
                    "centerX": {
                        "type": "string",
                        "value": "-349.00%"
                    },
                    "centerY": {
                        "type": "string",
                        "value": "-104.33%"
                    },
                    "isVisible": null
                }
            }
        },
        "imgRadioBtn2": {
            "__events__": {},
            "__info__": {
                "kuid": "he51c7bb46af49d8b4a2b4e7496b9391",
                "srcKUID": "e518e79ceba5447496641c179248c244",
                "wType": "Image"
            },
            "centerX": {
                "Default": {
                    "type": "string",
                    "value": "50%"
                }
            },
            "centerY": {
                "Default": {
                    "type": "string",
                    "value": "50%"
                }
            },
            "height": {
                "Default": {
                    "type": "string",
                    "value": "20dp"
                }
            },
            "isVisible": false,
            "left": {
                "Default": {
                    "type": "number",
                    "value": ""
                }
            },
            "responsiveData": {
                "b3": {
                    "centerX": {
                        "type": "string",
                        "value": "45%"
                    },
                    "centerY": {
                        "type": "string",
                        "value": "47%"
                    },
                    "height": {
                        "type": "string",
                        "value": "25dp"
                    },
                    "isVisible": null,
                    "left": {
                        "type": "string",
                        "value": "22.50%"
                    }
                }
            },
            "src": "icon_radiobtn.png"
        },
        "imgRadioBtn21": {
            "__events__": {},
            "__info__": {
                "kuid": "adcbdc8bbd9f40179c1252925a9380d3",
                "srcKUID": "g994c8970541463ca938e9060feec860",
                "wType": "Label"
            },
            "centerY": {
                "Default": {
                    "type": "string",
                    "value": "50%"
                }
            },
            "isVisible": true,
            "responsiveData": {
                "b3": {
                    "centerY": {
                        "type": "string",
                        "value": "45%"
                    },
                    "isVisible": null
                }
            }
        },
        "imgRadioBtnVertical": {
            "__events__": {},
            "__info__": {
                "kuid": "ib2c4d7e5a4f4c4a9f61156fd9a24182",
                "srcKUID": "d88ca7c49cda4c4591c09a6754fcf142",
                "wType": "Image"
            },
            "isVisible": true,
            "responsiveData": {
                "b3": {
                    "isVisible": false
                }
            },
            "src": ""
        },
        "imgRadioBtnVertical2": {
            "__events__": {},
            "__info__": {
                "kuid": "bfad30ae756d4fa884463ba35d2ac484",
                "srcKUID": "b14d65cb9bbd45ffb8aabe47c4e96e88",
                "wType": "Label"
            },
            "centerX": {
                "Default": {
                    "type": "number",
                    "value": "0"
                }
            },
            "centerY": {
                "Default": {
                    "type": "string",
                    "value": "50%"
                }
            },
            "isVisible": false,
            "left": {
                "Default": {
                    "type": "number",
                    "value": ""
                }
            },
            "responsiveData": {
                "b3": {
                    "centerX": {
                        "type": "string",
                        "value": ""
                    },
                    "centerY": {
                        "type": "string",
                        "value": "50%"
                    },
                    "isVisible": true,
                    "left": {
                        "type": "string",
                        "value": "0dp"
                    }
                }
            }
        },
        "imgTCContentsCheckbox": {
            "__events__": {},
            "__info__": {
                "kuid": "j79bba46687e456588c70fcc004ff080",
                "srcKUID": "f394e55af3c74765830cb38fae6d1fe3",
                "wType": "Image"
            }
        },
        "lblAccount": {
            "__events__": {},
            "__info__": {
                "kuid": "d9411501fc4f449ab84088728dee81f0",
                "srcKUID": "e09ef8f0a1144fe59917b87c63636f99",
                "wType": "Label"
            },
            "left": {
                "Default": {
                    "type": "string",
                    "value": "30dp"
                }
            },
            "responsiveData": {
                "b3": {
                    "left": {
                        "type": "string",
                        "value": "3%"
                    }
                },
                "b4": {
                    "left": {
                        "type": "string",
                        "value": "3%"
                    }
                }
            }
        },
        "lblAccountColon": {
            "__events__": {},
            "__info__": {
                "kuid": "eca903d8179140238d2fc5103abbc67d",
                "srcKUID": "g20b4fc94c1944a2978b4103b27bc1f5",
                "wType": "Label"
            },
            "isVisible": false,
            "responsiveData": {
                "b3": {
                    "isVisible": false
                }
            }
        },
        "lblAddAnotherCheck": {
            "__events__": {},
            "__info__": {
                "kuid": "h7a9ea9a61d44f92afb55c7800909e3b",
                "srcKUID": "a7bbc2b7cd4f468bb7dcaab0826b40df",
                "wType": "Label"
            }
        },
        "lblAddress": {
            "__events__": {},
            "__info__": {
                "kuid": "dffbd8af1aad487abfab3eab16745a86",
                "srcKUID": "af34c18531b14f769ca1f25c6d27fc46",
                "wType": "Label"
            },
            "i18n_text": "i18n.ChequeBookReq.Address",
            "left": {
                "Default": {
                    "type": "string",
                    "value": "32dp"
                }
            },
            "responsiveData": {
                "b3": {
                    "left": {
                        "type": "string",
                        "value": "0%"
                    }
                },
                "b4": {
                    "left": {
                        "type": "string",
                        "value": "3%"
                    }
                }
            },
            "top": {
                "Default": {
                    "type": "number",
                    "value": "16"
                }
            }
        },
        "lblAddressColon": {
            "__events__": {},
            "__info__": {
                "kuid": "ba67516a87c4495684391673359cd581",
                "srcKUID": "a50e089e0742436fb4130edd97444aa0",
                "wType": "Label"
            }
        },
        "lblAddressDetails": {
            "__events__": {},
            "__info__": {
                "kuid": "ef9d412727b64d83b4fad2860afebb26",
                "srcKUID": "a7181e729e574496ab7d736abe0b3e12",
                "wType": "Label"
            },
            "left": {
                "Default": {
                    "type": "string",
                    "value": "32dp"
                }
            },
            "responsiveData": {
                "b3": {
                    "left": {
                        "type": "string",
                        "value": "0%"
                    },
                    "text": "Address"
                },
                "b4": {
                    "left": {
                        "type": "string",
                        "value": "3%"
                    }
                }
            },
            "text": "Address"
        },
        "lblChequeBookLeaves": {
            "__events__": {},
            "__info__": {
                "kuid": "g776334358df4d6dac0cd803cf9c2901",
                "srcKUID": "f7c2c0b89b4c4a569e7047b9e8869b18",
                "wType": "Label"
            },
            "centerY": {
                "Default": {
                    "type": "string",
                    "value": "50%"
                }
            },
            "i18n_text": "i18n.ChequeBookReq.chequeBookLeaves",
            "left": {
                "Default": {
                    "type": "string",
                    "value": "28dp"
                }
            },
            "responsiveData": {
                "b3": {
                    "left": {
                        "type": "string",
                        "value": "0dp"
                    },
                    "text": "Cheque Book  (",
                    "top": null
                },
                "b4": {
                    "left": {
                        "type": "string",
                        "value": "3%"
                    },
                    "top": null
                }
            },
            "text": "Cheque Book  (50 Leaves):",
            "top": {
                "Default": {
                    "type": "string",
                    "value": "0dp"
                }
            }
        },
        "lblChequeBookLeavesColon": {
            "__events__": {},
            "__info__": {
                "kuid": "c3fc1b651081423289c048b1e31bff5a",
                "srcKUID": "cb3a9e20e0894bfcaa4e9e5cedbf470e",
                "wType": "Label"
            },
            "isVisible": false,
            "responsiveData": {
                "b3": {
                    "isVisible": false
                }
            }
        },
        "lblDescriptionnew": {
            "__events__": {},
            "__info__": {
                "kuid": "d0c4be8ba5054fb09368ce1f851c7111",
                "srcKUID": "df5804830fd642ca825a4253dc95c786",
                "wType": "Label"
            },
            "left": {
                "Default": {
                    "type": "string",
                    "value": "30dp"
                }
            },
            "responsiveData": {
                "b3": {
                    "left": {
                        "type": "string",
                        "value": "0dp"
                    }
                }
            }
        },
        "lblFavoriteEmailCheckBox": {
            "__events__": {},
            "__info__": {
                "kuid": "a1740affcdf244acb33cd11c5acd6e34",
                "srcKUID": "g38b9f1ee68d4cdf8602a5274094b9ef",
                "wType": "Label"
            }
        },
        "lblFromAmount": {
            "__events__": {},
            "__info__": {
                "kuid": "ccf880fbe3de492992343ced1b5a383a",
                "srcKUID": "a9b71dd5ea1f4d349d2dcacde18739a9",
                "wType": "Label"
            }
        },
        "lblHeader": {
            "__events__": {},
            "__info__": {
                "kuid": "fe8453da4a784d789d25aca63ffce161",
                "srcKUID": "ca67f48e57c94828a5ea70c4e0947476",
                "wType": "Label"
            }
        },
        "lblIAccept": {
            "__events__": {},
            "__info__": {
                "kuid": "cbc1bbc9fdaf458e94645022f9e403f0",
                "srcKUID": "bcfb1297f8c7415884d1d171c914afa2",
                "wType": "Label"
            }
        },
        "lblInfoMessage2": {
            "__events__": {},
            "__info__": {
                "kuid": "f49a6c3ad06142ae9da429a9cd43b079",
                "srcKUID": "f47d1195e0444d10863eed2428e96b05",
                "wType": "Label"
            }
        },
        "lblLeaves": {
            "__events__": {},
            "__info__": {
                "kuid": "f56367a84a7146fe8546b594d859d5f8",
                "srcKUID": "g24bf89aa46c4fd281cfbd5b5c0fa6cc",
                "wType": "Label"
            },
            "centerY": {
                "Default": {
                    "type": "string",
                    "value": "50%"
                }
            },
            "left": {
                "Default": {
                    "type": "string",
                    "value": "2dp"
                }
            },
            "responsiveData": {}
        },
        "lblMailingAddress": {
            "__events__": {},
            "__info__": {
                "kuid": "a57b59adf0c34b8c8ab95e1a973866a2",
                "srcKUID": "be0240ae4044464da696cf404d14dc5c",
                "wType": "Label"
            },
            "centerY": {
                "Default": {
                    "type": "string",
                    "value": "50%"
                }
            },
            "i18n_text": "i18n.ChequeBookReq.mailingaddress",
            "left": {
                "Default": {
                    "type": "string",
                    "value": "5dp"
                }
            },
            "responsiveData": {
                "b1": {
                    "left": {
                        "type": "string",
                        "value": "27dp"
                    }
                },
                "b2": {
                    "left": {
                        "type": "string",
                        "value": "30dp"
                    }
                },
                "b3": {
                    "centerY": {
                        "type": "string",
                        "value": "35%"
                    },
                    "left": {
                        "type": "string",
                        "value": "37dp"
                    }
                },
                "b4": {
                    "centerY": {
                        "type": "string",
                        "value": "50.00%"
                    },
                    "left": {
                        "type": "string",
                        "value": "30dp"
                    }
                }
            },
            "text": "Mailing Address"
        },
        "lblMailingAddressVertical": {
            "__events__": {},
            "__info__": {
                "kuid": "g063289b15c84819b5f65af3885c63ae",
                "srcKUID": "e14330f9fe47498381d1bb15528ebd1e",
                "wType": "Label"
            }
        },
        "lblNoAccountsFrom": {
            "__events__": {},
            "__info__": {
                "kuid": "fc2c30fdc8fa48be817699afb30a7c7a",
                "srcKUID": "a38330d61e4e436796d34712644b133e",
                "wType": "Label"
            }
        },
        "lblNoAccountsToTransferFrom": {
            "__events__": {},
            "__info__": {
                "kuid": "g3590d51322b457da10188e7775854ce",
                "srcKUID": "dc2a7fb1068b45dba3a9799b3da830b2",
                "wType": "Label"
            }
        },
        "lblNoResultsFrom": {
            "__events__": {},
            "__info__": {
                "kuid": "ic5fe0da6b4f4326a7f5270fb24be711",
                "srcKUID": "acbde0de238a4ea48d4a8682b2a21fcd",
                "wType": "Label"
            }
        },
        "lblNotes": {
            "__events__": {},
            "__info__": {
                "kuid": "h2212e7133af4da2a9655b37e58cf2d5",
                "srcKUID": "c3d0965dc7b9439b97fcd883b2805113",
                "wType": "Label"
            },
            "i18n_text": "i18n.ChequeBookReq.Notes",
            "left": {
                "Default": {
                    "type": "string",
                    "value": "30dp"
                }
            },
            "responsiveData": {
                "b3": {
                    "left": {
                        "type": "string",
                        "value": "0%"
                    },
                    "top": {
                        "type": "string",
                        "value": "10dp"
                    },
                    "width": {
                        "type": "string",
                        "value": "100%"
                    }
                },
                "b4": {
                    "left": {
                        "type": "string",
                        "value": "3%"
                    }
                }
            },
            "top": {
                "Default": {
                    "type": "string",
                    "value": "13dp"
                }
            },
            "width": {
                "Default": {
                    "type": "ref",
                    "value": "preferred"
                }
            }
        },
        "lblNotesColon": {
            "__events__": {},
            "__info__": {
                "kuid": "j4e15df2d9d44e20b2b4d5b340e32ff6",
                "srcKUID": "e01c8e9671cd42868f78b9648540972b",
                "wType": "Label"
            }
        },
        "lblNotificationMessage": {
            "__events__": {},
            "__info__": {
                "kuid": "f108b7d4e448411abb4b1ac3be62b6f1",
                "srcKUID": "a3ca6c3a568347f0a11a8f66c0ff1113",
                "wType": "Label"
            },
            "centerY": {
                "Default": {
                    "type": "string",
                    "value": "50%"
                }
            },
            "responsiveData": {
                "b3": {
                    "centerY": {
                        "type": "string",
                        "value": ""
                    },
                    "width": {
                        "type": "string",
                        "value": "80%"
                    }
                }
            },
            "width": {
                "Default": {
                    "type": "ref",
                    "value": "preferred"
                }
            }
        },
        "lblOpenAccounttFrom": {
            "__events__": {},
            "__info__": {
                "kuid": "e498ed730c7545c3beb9bc8e6848dde6",
                "srcKUID": "d35b6682231f4c1eadb83b1690444b4a",
                "wType": "Label"
            }
        },
        "lblOpenNewAccounttFrom": {
            "__events__": {},
            "__info__": {
                "kuid": "cb1eee44f81745bbb11ede37cda4393b",
                "srcKUID": "a730015ad8054a33be86128476486126",
                "wType": "Label"
            }
        },
        "lblPleaseNoteTheFollowingPoints": {
            "__events__": {},
            "__info__": {
                "kuid": "ef5236fff9f7439691b92f882ba44b44",
                "srcKUID": "dc6b8f21e9dc4fa1ace742ae66679e78",
                "wType": "Label"
            }
        },
        "lblRadioBtns": {
            "__events__": {},
            "__info__": {
                "kuid": "c421720daeb944829650d8b1610efd2d",
                "srcKUID": "ia3571217f454da4867ce549d51a66aa",
                "wType": "FlexContainer"
            },
            "height": {
                "Default": {
                    "type": "string",
                    "value": "40dp"
                }
            },
            "isVisible": true,
            "left": {
                "Default": {
                    "type": "string",
                    "value": "32dp"
                }
            },
            "responsiveData": {
                "b3": {
                    "height": {
                        "type": "string",
                        "value": "85dp"
                    },
                    "isVisible": false,
                    "left": {
                        "type": "string",
                        "value": "3%"
                    },
                    "width": {
                        "type": "string",
                        "value": "94%"
                    }
                },
                "b4": {
                    "left": {
                        "type": "string",
                        "value": "3%"
                    }
                }
            },
            "width": {
                "Default": {
                    "type": "string",
                    "value": "92.50%"
                }
            }
        },
        "lblRadioBtns2Vertical": {
            "__events__": {},
            "__info__": {
                "kuid": "g50306b7c2434bc097509551425dc0ea",
                "srcKUID": "h997e945aef3436cb01f390334014e3b",
                "wType": "FlexContainer"
            },
            "autogrowMode": {
                "Default": 0
            },
            "centerY": {
                "Default": {
                    "type": "number",
                    "value": ""
                }
            },
            "height": {
                "Default": {
                    "type": "string",
                    "value": "92dp"
                }
            },
            "isVisible": false,
            "left": {
                "Default": {
                    "type": "string",
                    "value": "30dp"
                }
            },
            "responsiveData": {
                "b3": {
                    "centerY": {
                        "type": "string",
                        "value": ""
                    },
                    "height": {
                        "type": "string",
                        "value": "80dp"
                    },
                    "isVisible": true,
                    "left": {
                        "type": "string",
                        "value": "3%"
                    },
                    "top": {
                        "type": "string",
                        "value": "40dp"
                    },
                    "width": {
                        "type": "string",
                        "value": "94%"
                    }
                }
            },
            "top": {
                "Default": {
                    "type": "string",
                    "value": "50dp"
                }
            },
            "width": {
                "Default": {
                    "type": "string",
                    "value": "92.50%"
                }
            }
        },
        "lblSelectAccount": {
            "__events__": {},
            "__info__": {
                "kuid": "a5a8cc7bdcb24bb68480e0189e207403",
                "srcKUID": "c467ba38d0fe4475a89298a2838c2c20",
                "wType": "Label"
            }
        },
        "lblSelectType": {
            "__events__": {},
            "__info__": {
                "kuid": "adecddc1eade4601a68cbb4c3808e60a",
                "srcKUID": "b4e0da8de16b45eeb4f3dddde1e8a92c",
                "wType": "Label"
            },
            "i18n_text": "i18n.ChequeBookReq.SelectType",
            "left": {
                "Default": {
                    "type": "string",
                    "value": "30dp"
                }
            },
            "responsiveData": {
                "b3": {
                    "desktopweb": {
                        "width": {
                            "type": "string",
                            "value": "94%"
                        }
                    },
                    "left": {
                        "type": "string",
                        "value": "3%"
                    },
                    "width": {
                        "type": "string",
                        "value": "94%"
                    }
                },
                "b4": {
                    "left": {
                        "type": "string",
                        "value": "3%"
                    }
                }
            },
            "width": {
                "Default": {
                    "type": "string",
                    "value": "94%"
                },
                "desktopweb": {
                    "type": "ref",
                    "value": "preferred"
                }
            }
        },
        "lblSelectTypeColon": {
            "__events__": {},
            "__info__": {
                "kuid": "j6e6d1a8424a4da1b965ed9b266b94a6",
                "srcKUID": "aa62fab493234d9a987a809808542865",
                "wType": "Label"
            }
        },
        "lblSelfPickup": {
            "__events__": {},
            "__info__": {
                "kuid": "cfd639f3961e40eb8ca11f3a9601573b",
                "srcKUID": "j93a2c2e90b745d68d5083969fea9971",
                "wType": "Label"
            },
            "centerY": {
                "Default": {
                    "type": "string",
                    "value": "50%"
                }
            },
            "i18n_text": "i18n.ChequeBookReq.selfpickup",
            "left": {
                "Default": {
                    "type": "string",
                    "value": "30dp"
                }
            },
            "responsiveData": {
                "b1": {
                    "left": null
                },
                "b2": {
                    "left": {
                        "type": "string",
                        "value": "50dp"
                    }
                },
                "b3": {
                    "centerY": {
                        "type": "string",
                        "value": "39%"
                    },
                    "left": null
                },
                "b4": {
                    "centerY": {
                        "type": "string",
                        "value": "50.00%"
                    },
                    "left": {
                        "type": "string",
                        "value": "30dp"
                    }
                }
            }
        },
        "lblSelfPickupVertical": {
            "__events__": {},
            "__info__": {
                "kuid": "f4853bd3b4a8445db1a8f314511c7266",
                "srcKUID": "ee069b3254794f8496651d4abdd01157",
                "wType": "Label"
            }
        },
        "lblTC": {
            "__events__": {},
            "__info__": {
                "kuid": "d6941a3325f44138877e6dbb065df35e",
                "srcKUID": "d2f003ad53b4491b8e87c0ab1368612f",
                "wType": "Label"
            }
        },
        "lblThisServicesIsChargeble": {
            "__events__": {},
            "__info__": {
                "kuid": "e6e9b79c4cf448a68ec24ccfa6d138dc",
                "srcKUID": "j84eae1dcce744babdf6751565a3f36a",
                "wType": "Label"
            }
        },
        "lblTotalChequeNumber": {
            "__events__": {},
            "__info__": {
                "kuid": "ccef2205ba6349ac8c6c05183ad659e6",
                "srcKUID": "cc5fb01ae4824b22a39b16f5f4b80992",
                "wType": "Label"
            },
            "centerY": {
                "Default": {
                    "type": "string",
                    "value": "50%"
                }
            },
            "left": {
                "Default": {
                    "type": "string",
                    "value": "0dp"
                }
            },
            "responsiveData": {},
            "top": {
                "Default": {
                    "type": "string",
                    "value": "0dp"
                }
            }
        },
        "lblWarning": {
            "__events__": {},
            "__info__": {
                "kuid": "d7931bca3f414dd6849ed39b7885c141",
                "srcKUID": "c556a0f33c9a4f07874fceda9cb1d0ca",
                "wType": "Label"
            }
        },
        "lbxChequeBookLeaves": {
            "__events__": {},
            "__info__": {
                "kuid": "cd86f7715fca4e19a110ad4428d51220",
                "srcKUID": "cf966fc75b0a43f3861ae2bc51be4f85",
                "wType": "ListBox"
            },
            "left": {
                "Default": {
                    "type": "string",
                    "value": "32dp"
                }
            },
            "responsiveData": {
                "b3": {
                    "left": {
                        "type": "string",
                        "value": "3%"
                    },
                    "width": {
                        "type": "string",
                        "value": "94%"
                    }
                },
                "b4": {
                    "left": {
                        "type": "string",
                        "value": "3%"
                    }
                }
            },
            "width": {
                "Default": {
                    "type": "string",
                    "value": "300dp"
                }
            }
        },
        "lbxFrom": {
            "__events__": {},
            "__info__": {
                "kuid": "jc32a6255b9040f985d90b759e98c5a9",
                "srcKUID": "dc9aacd111df4868bd790796882b43ec",
                "wType": "ListBox"
            },
            "isVisible": true,
            "left": {
                "Default": {
                    "type": "string",
                    "value": "0dp"
                }
            },
            "masterData": [
                [
                    "Key1864118835",
                    "Personal Checking ...1234"
                ]
            ],
            "responsiveData": {
                "b4": {
                    "left": {
                        "type": "string",
                        "value": "0dp"
                    }
                }
            }
        },
        "segTransferFrom": {
            "__events__": {},
            "__info__": {
                "kuid": "e00b4bb83cd3450592504d2a44e487cc",
                "srcKUID": "i344fbd9811b4ad4b1a0830aff58474f",
                "wType": "Segment"
            }
        },
        "tbxDescriptionNew": {
            "__events__": {},
            "__info__": {
                "kuid": "dec7bd3894b5481abe59907a89773755",
                "srcKUID": "bf7307a4e59c42f49672d254f85b67fd",
                "wType": "TextField"
            },
            "left": {
                "Default": {
                    "type": "string",
                    "value": "30dp"
                }
            },
            "responsiveData": {
                "b3": {
                    "left": {
                        "type": "string",
                        "value": "0dp"
                    }
                }
            }
        },
        "tbxOptional": {
            "__events__": {},
            "__info__": {
                "kuid": "b192a447072b40709b0d0e4d9c3536fb",
                "srcKUID": "ac8fa456cfff4002978e9afe43f455b8",
                "wType": "TextField"
            },
            "centerX": {
                "Default": {
                    "type": "number",
                    "value": ""
                }
            },
            "centerY": {
                "Default": {
                    "type": "string",
                    "value": "69.67%"
                }
            },
            "height": {
                "Default": {
                    "type": "string",
                    "value": "40dp"
                }
            },
            "left": {
                "Default": {
                    "type": "string",
                    "value": "30dp"
                }
            },
            "responsiveData": {
                "b1": {
                    "text": null
                },
                "b3": {
                    "centerX": {
                        "type": "string",
                        "value": "50%"
                    },
                    "centerY": {
                        "type": "string",
                        "value": "67%"
                    },
                    "left": {
                        "type": "string",
                        "value": "0%"
                    },
                    "text": null,
                    "top": {
                        "type": "string",
                        "value": "35%"
                    },
                    "width": {
                        "type": "string",
                        "value": "100%"
                    }
                },
                "b4": {
                    "left": {
                        "type": "string",
                        "value": "3%"
                    },
                    "width": {
                        "type": "string",
                        "value": "94%"
                    }
                }
            },
            "text": "",
            "top": {
                "Default": {
                    "type": "number",
                    "value": ""
                }
            },
            "width": {
                "Default": {
                    "type": "string",
                    "value": "92.51%"
                }
            }
        }
    },
    "enablescrolling": true,
    "id": "RequestChequeBookSeriesMultiple",
    "info": null,
    "isdatareferenced": false,
    "issegmentchild": false,
    "isvisible": false,
    "kuid": "b688ecbc9187430eb3617cef5d8fa9f0",
    "layouttype": 2,
    "masterType": 0,
    "name": "kony.ui.UserWidgetInstance",
    "parent": "flxRequestChequeBook",
    "pf": "frmStopPayments",
    "responsiveData": {
        "b1": {},
        "b2": {},
        "b3": {
            "width": {
                "type": "string",
                "value": "100.82%"
            }
        },
        "b4": {}
    },
    "snapgridsize": 10,
    "snaptogrid": true,
    "sourceUserWidget": "b920a84d525b446cb2e3d7e8f4ed4b5f",
    "wType": "UserWidgetInstance"
}