{
    "@class": "com.kony.gen.viz.model.component.KVizRichText",
    "DNDConfig": null,
    "__parentReadjusting__": false,
    "_bottom_": {
        "type": "string",
        "value": "16dp"
    },
    "_height_": {
        "type": "ref",
        "value": "preferred"
    },
    "_left_": {
        "type": "string",
        "value": "17.50%"
    },
    "_margin_": [
        0,
        0,
        0,
        0
    ],
    "_padding_": [
        0,
        0,
        0,
        0
    ],
    "_right_": {
        "type": "string",
        "value": "52%"
    },
    "_skin_": "sc4cc30bc71442ee9f8b2e9230a973fa",
    "_text_": "$1000.00",
    "_top_": {
        "type": "string",
        "value": "0dp"
    },
    "_wrapping_": 2,
    "accessibilityconfig": {
        "a11yLabel": "$1000.00"
    },
    "canUpdateUI": true,
    "containerweight": 100,
    "contentalignment": 4,
    "id": "rtxAmount",
    "info": null,
    "isvisible": true,
    "kuid": "gdb79b51f9a341059d265e54991014fe",
    "name": "kony.ui.RichText",
    "parent": "flxTransactionDetailsRow3",
    "pf": "frmStopPayments",
    "responsiveData": {
        "b3": {
            "left": {
                "type": "string",
                "value": "20%"
            },
            "right": {
                "type": "string",
                "value": "20%"
            }
        }
    },
    "wType": "RichText",
    "widgetalignment": 5,
    "zindex": 1
}