{
    "@class": "com.kony.gen.viz.model.component.KVizButton",
    "DNDConfig": null,
    "_height_": {
        "type": "string",
        "value": "50dp"
    },
    "_margin_": [
        6,
        6,
        6,
        6
    ],
    "_padding_": [
        0,
        0,
        0,
        0
    ],
    "_right_": {
        "type": "string",
        "value": "30dp"
    },
    "_skin_": "sfbbba35efc4356f94ab680b27349e82",
    "_text_": "Yes",
    "_width_": {
        "type": "string",
        "value": "258dp"
    },
    "accessibilityconfig": {
        "a11yLabel": "Yes"
    },
    "canUpdateUI": true,
    "centery": {
        "type": "string",
        "value": "50%"
    },
    "containerweight": 100,
    "contentalignment": 5,
    "desktopweb": {
        "psp": {
            "hoverSkin": "s6b78e4b325748fc8a4ae498b5ef5e70"
        }
    },
    "disabledSkins": {},
    "displaytext": true,
    "focusskin": "s76a29bc32924ec19121a7b6ddd5cf6c",
    "id": "btnProceedIC",
    "info": null,
    "isvisible": true,
    "kuid": "ba3d0f237ce64331a178d1b824f619aa",
    "name": "kony.ui.Button",
    "parent": "flxButtonsIC",
    "pf": "userwidgetmodel",
    "responsiveData": {
        "b1": {
            "height": {
                "type": "string",
                "value": "40dp"
            },
            "right": {
                "type": "string",
                "value": "20dp"
            },
            "width": {
                "type": "string",
                "value": "150dp"
            }
        },
        "b2": {
            "height": {
                "type": "string",
                "value": "40dp"
            },
            "right": {
                "type": "string",
                "value": "20dp"
            },
            "width": {
                "type": "string",
                "value": "150dp"
            }
        },
        "b3": {
            "height": {
                "type": "string",
                "value": "40dp"
            },
            "right": {
                "type": "string",
                "value": "20dp"
            },
            "width": {
                "type": "string",
                "value": "30%"
            }
        }
    },
    "texti18n": "i18n.common.yes",
    "tooltip": "Yes",
    "wType": "Button",
    "zindex": 2
}