{
    "@class": "com.kony.gen.viz.model.component.KVizLabel",
    "DNDConfig": null,
    "_height_": {
        "type": "string",
        "value": "30px"
    },
    "_left_": {
        "type": "string",
        "value": "3.77%"
    },
    "_margin_": [
        1,
        1,
        1,
        1
    ],
    "_padding_": [
        0,
        0,
        0,
        0
    ],
    "_skin_": "s63e81af6a184e7e1e691c7afbc7865e",
    "_text_": "My Bills",
    "_top_": {
        "type": "string",
        "value": "18dp"
    },
    "_width_": {
        "type": "ref",
        "value": "preferred"
    },
    "_wrapping_": 2,
    "accessibilityconfig": {
        "a11yLabel": "Bill Pay"
    },
    "android": {
        "textStyle": {
            "letterSpacing": 0,
            "strikeThrough": false
        }
    },
    "canUpdateUI": true,
    "centery": {
        "type": "number",
        "value": ""
    },
    "containerweight": 100,
    "contentalignment": 4,
    "id": "lblHeaderIC",
    "info": null,
    "ipad": {
        "psp": {
            "wrapping": 2
        }
    },
    "iphone": {
        "psp": {
            "wrapping": 2
        }
    },
    "isvisible": true,
    "kuid": "a358f131138140fe82083470eda97b0c",
    "name": "kony.ui.Label",
    "parent": "flxActivateHeaderIC",
    "pf": "userwidgetmodel",
    "responsiveData": {
        "b2": {
            "centerY": {
                "type": "string",
                "value": "50%"
            },
            "left": {
                "type": "string",
                "value": "20dp"
            },
            "skin": "s6b2602967934db5a7734f4c176b5b62",
            "top": {
                "type": "string",
                "value": ""
            }
        },
        "b3": {
            "centerY": {
                "type": "string",
                "value": "50%"
            },
            "skin": "s6b2602967934db5a7734f4c176b5b62",
            "top": {
                "type": "string",
                "value": ""
            }
        }
    },
    "texti18n": "i18n.billPay.BillPay",
    "tooltip": "",
    "wType": "Label",
    "zindex": 1
}