{
    "DNDConfig": null,
    "_height_": {
        "type": "string",
        "value": "30dp"
    },
    "_margin_": [
        0,
        0,
        0,
        0
    ],
    "_orientation_": 6,
    "_padding_": [
        0,
        0,
        0,
        0
    ],
    "_percent_": true,
    "_right_": {
        "type": "string",
        "value": "0dp"
    },
    "_skin_": "s24c92fc23b14f5484b693ee9b8a9b35",
    "_top_": {
        "type": "string",
        "value": "0dp"
    },
    "_width_": {
        "type": "string",
        "value": "60%"
    },
    "allboxes": [],
    "canUpdateUI": true,
    "children": [
        "lbl6Tab1"
    ],
    "clipbounds": true,
    "containerweight": 100,
    "enablescrolling": true,
    "id": "flx6Key",
    "info": null,
    "iscustomlayout": false,
    "isvisible": true,
    "kuid": "j358307065ed421381884824a7a11b64",
    "layouttype": 2,
    "name": "kony.ui.FlexContainer",
    "parent": "flx6Tab1",
    "pf": "userwidgetmodel",
    "responsiveData": {
        "b1": {
            "top": {
                "type": "string",
                "value": "0dp"
            }
        },
        "b3": {}
    },
    "retaincontentalignment": false,
    "retainflexpositionproperties": false,
    "retainflowhorizontalalignment": false,
    "snapgridsize": 10,
    "snaptogrid": true,
    "wType": "FlexContainer",
    "widgetalignment": 1,
    "zindex": 1
}