{
    "DNDConfig": null,
    "_height_": {
        "type": "string",
        "value": "43dp"
    },
    "_left_": {
        "type": "string",
        "value": "0dp"
    },
    "_margin_": [
        0,
        0,
        0,
        0
    ],
    "_orientation_": 6,
    "_padding_": [
        0,
        0,
        0,
        0
    ],
    "_percent_": true,
    "_skin_": "s24c92fc23b14f5484b693ee9b8a9b35",
    "_top_": {
        "type": "string",
        "value": "0dp"
    },
    "_width_": {
        "type": "string",
        "value": "100%"
    },
    "allboxes": [],
    "canUpdateUI": true,
    "children": [],
    "clipbounds": true,
    "containerweight": 100,
    "desktop": {},
    "enablescrolling": true,
    "id": "flxDummy3",
    "info": null,
    "iscustomlayout": false,
    "isvisible": true,
    "kuid": "b6192bdd7753480da7ffb0c352490393",
    "layouttype": 2,
    "mobile": {},
    "name": "kony.ui.FlexContainer",
    "parent": "flxTab1Right",
    "pf": "userwidgetmodel",
    "responsiveData": {
        "b1": {
            "isVisible": false
        },
        "b2": {
            "isVisible": false
        },
        "b3": {
            "height": {
                "type": "string",
                "value": "42dp"
            },
            "isVisible": true,
            "top": {
                "type": "string",
                "value": "9dp"
            }
        }
    },
    "retaincontentalignment": false,
    "retainflexpositionproperties": false,
    "retainflowhorizontalalignment": false,
    "snapgridsize": 10,
    "snaptogrid": true,
    "tablet": {},
    "wType": "FlexContainer",
    "widgetalignment": 1,
    "zindex": 1
}