{
    "DNDConfig": null,
    "_height_": {
        "type": "string",
        "value": "25dp"
    },
    "_left_": {
        "type": "string",
        "value": "0dp"
    },
    "_margin_": [
        0,
        0,
        0,
        0
    ],
    "_orientation_": 6,
    "_padding_": [
        0,
        0,
        0,
        0
    ],
    "_percent_": true,
    "_skin_": "s24c92fc23b14f5484b693ee9b8a9b35",
    "_top_": {
        "type": "string",
        "value": "30dp"
    },
    "_width_": {
        "type": "string",
        "value": "200dp"
    },
    "allboxes": [],
    "canUpdateUI": true,
    "centery": {
        "type": "number",
        "value": ""
    },
    "children": [
        "flxLegendColor3",
        "lblLegendText3",
        "lblLegendValue3"
    ],
    "clipbounds": true,
    "containerweight": 100,
    "enablescrolling": true,
    "id": "flxLegend3",
    "info": null,
    "iscustomlayout": false,
    "isvisible": true,
    "kuid": "jec9fae5510045c4b4be256cf2af3735",
    "layouttype": 2,
    "name": "kony.ui.FlexContainer",
    "parent": "flxLegendsListLeft",
    "pf": "userwidgetmodel",
    "responsiveData": {
        "b1": {
            "top": {
                "type": "string",
                "value": "25dp"
            },
            "width": {
                "type": "string",
                "value": "100%"
            }
        },
        "b2": {
            "top": {
                "type": "string",
                "value": "25dp"
            },
            "width": {
                "type": "string",
                "value": "100%"
            }
        },
        "b3": {
            "centerY": {
                "type": "string",
                "value": "50%"
            },
            "height": {
                "type": "string",
                "value": "50dp"
            },
            "top": {
                "type": "string",
                "value": ""
            },
            "width": {
                "type": "string",
                "value": "33%"
            }
        }
    },
    "retaincontentalignment": false,
    "retainflexpositionproperties": false,
    "retainflowhorizontalalignment": false,
    "snapgridsize": 10,
    "snaptogrid": true,
    "wType": "FlexContainer",
    "widgetalignment": 1,
    "zindex": 1
}