{
    "DNDConfig": null,
    "_height_": {
        "type": "string",
        "value": "10dp"
    },
    "_left_": {
        "type": "string",
        "value": "0dp"
    },
    "_margin_": [
        0,
        0,
        0,
        0
    ],
    "_orientation_": 6,
    "_padding_": [
        0,
        0,
        0,
        0
    ],
    "_percent_": true,
    "_skin_": "sd34fc1495b349b48d740b6b38520187",
    "_top_": {
        "type": "string",
        "value": "19dp"
    },
    "_width_": {
        "type": "string",
        "value": "10dp"
    },
    "allboxes": [],
    "autogrowmode": 0,
    "canUpdateUI": true,
    "centery": {
        "type": "string",
        "value": "50%"
    },
    "children": [],
    "clipbounds": true,
    "containerweight": 100,
    "enablescrolling": true,
    "id": "flxLegendColor2",
    "info": null,
    "iscustomlayout": false,
    "isvisible": true,
    "kuid": "ja5c94ccec6e4eac97c74fbc25eac9d3",
    "layouttype": 2,
    "name": "kony.ui.FlexContainer",
    "parent": "flxLegend2",
    "pf": "userwidgetmodel",
    "responsiveData": {
        "b3": {
            "centerY": {
                "type": "string",
                "value": ""
            },
            "left": {
                "type": "string",
                "value": "10%"
            },
            "top": {
                "type": "string",
                "value": "10dp"
            }
        }
    },
    "retaincontentalignment": false,
    "retainflexpositionproperties": false,
    "retainflowhorizontalalignment": false,
    "snapgridsize": 10,
    "snaptogrid": true,
    "wType": "FlexContainer",
    "widgetalignment": 1,
    "zindex": 1
}