{
    "DNDConfig": null,
    "_height_": {
        "type": "ref",
        "value": "preferred"
    },
    "_left_": {
        "type": "string",
        "value": "0.60%"
    },
    "_margin_": [
        0,
        0,
        0,
        0
    ],
    "_orientation_": 6,
    "_padding_": [
        0,
        0,
        0,
        0
    ],
    "_percent_": true,
    "_skin_": "s24c92fc23b14f5484b693ee9b8a9b35",
    "_top_": {
        "type": "string",
        "value": "0dp"
    },
    "_width_": {
        "type": "string",
        "value": "99.30%"
    },
    "allboxes": [],
    "autogrowmode": 1,
    "canUpdateUI": true,
    "children": [
        "flxLeftDummy",
        "flxTabs",
        "flxSummaryDesktop",
        "flxBalanceDetailDesktop",
        "flxTab3",
        "flxTab4",
        "flxInstallmentDetails",
        "flxRightDummy",
        "information"
    ],
    "clipbounds": true,
    "containerweight": 100,
    "desktopweb": {
        "render": true
    },
    "enablescrolling": true,
    "id": "flxMainDesktop",
    "info": null,
    "isvisible": true,
    "kiosk": {
        "render": false
    },
    "kuid": "e20387d8f6424238bb71df35ebc9e3f1",
    "layouttype": 2,
    "name": "kony.ui.FlexContainer",
    "parent": "summary",
    "pf": "userwidgetmodel",
    "snapgridsize": 10,
    "snaptogrid": true,
    "wType": "FlexContainer",
    "widgetalignment": 1,
    "zindex": 1
}