{
    "@class": "com.kony.gen.viz.model.component.KVizUserWidget",
    "DNDConfig": null,
    "_children_": [],
    "_height_": {
        "type": "ref",
        "value": "preferred"
    },
    "_left_": {
        "type": "string",
        "value": "0dp"
    },
    "_margin_": [
        0,
        0,
        0,
        0
    ],
    "_orientation_": 1,
    "_padding_": [
        0,
        0,
        0,
        0
    ],
    "_percent_": true,
    "_skin_": "s24c92fc23b14f5484b693ee9b8a9b35",
    "_width_": {
        "type": "string",
        "value": "49%"
    },
    "canUpdateUI": true,
    "centery": {
        "type": "string",
        "value": "50%"
    },
    "containerweight": 0,
    "data": {},
    "id": "FormatValue1Tab4",
    "info": null,
    "iscustomlayout": false,
    "issegmentchild": false,
    "isvisible": true,
    "kuid": "e0b020deed194bf48b3bc7c88a5e955b",
    "masterType": 1,
    "name": "kony.ui.UserWidgetInstance",
    "parent": "flx1Tab4",
    "pf": "userwidgetmodel",
    "responsiveData": {
        "b1": {
            "width": {
                "type": "string",
                "value": "59%"
            }
        },
        "b2": {
            "width": {
                "type": "string",
                "value": "59%"
            }
        }
    },
    "retaincontentalignment": false,
    "retainflexpositionproperties": false,
    "retainflowhorizontalalignment": false,
    "sourceUserWidget": "c19c3b00714f4708be1768c18e004c3d",
    "wType": "UserWidgetInstance"
}