{
    "@class": "com.kony.gen.viz.model.component.KVizImage2",
    "DNDConfig": null,
    "_base64_": null,
    "_height_": {
        "type": "string",
        "value": "16dp"
    },
    "_margin_": [
        0,
        0,
        0,
        0
    ],
    "_padding_": [
        0,
        0,
        0,
        0
    ],
    "_right_": {
        "type": "string",
        "value": "1dp"
    },
    "_skin_": "s78a5f26c9f14cec9ebed1bb46098f80",
    "_src_": "info_grey.png",
    "_width_": {
        "type": "string",
        "value": "16dp"
    },
    "accessibilityconfig": {
        "a11yLabel": "Info",
        "a11yValue": ""
    },
    "canUpdateUI": true,
    "centery": {
        "type": "string",
        "value": "49%"
    },
    "containerweight": 100,
    "id": "imgInfo",
    "imagescalemode": 1,
    "imagewhiledownloading": "img_transparent_1_1.png",
    "info": null,
    "invokedProperty": "src",
    "isvisible": true,
    "kuid": "j0d0fde69546462bb03885317152f03d",
    "name": "kony.ui.Image2",
    "parent": "flxInfo",
    "pf": "userwidgetmodel",
    "srcType": 1,
    "wType": "Image",
    "widgetalignment": 5,
    "zindex": 1
}