{
    "@class": "com.kony.gen.viz.model.component.KVizLabel",
    "DNDConfig": null,
    "_height_": {
        "type": "ref",
        "value": "preferred"
    },
    "_left_": {
        "type": "string",
        "value": "0dp"
    },
    "_margin_": [
        1,
        1,
        1,
        1
    ],
    "_padding_": [
        0,
        0,
        0,
        0
    ],
    "_skin_": "s79538eae5224a20b4a1a010b235fe24",
    "_text_": "{\"Savings\":\"{$.c.regionSpecification[0].label}\",\"Checking\":\"{$.c.regionSpecification[0].label}\",\"Loan\":\"{i.i18n.accounts.routingNumber}:\",\"CreditCard\":\"{i.i18n.accountDetail.availableCredit}:\"}",
    "_width_": {
        "type": "ref",
        "value": "preferred"
    },
    "_wrapping_": 2,
    "accessibilityconfig": {
        "a11yLabel": "Total Credits (This month)"
    },
    "android": {
        "textStyle": {
            "letterSpacing": 0,
            "strikeThrough": false
        }
    },
    "canUpdateUI": true,
    "centery": {
        "type": "string",
        "value": "50%"
    },
    "containerweight": 100,
    "contentalignment": 4,
    "id": "lbl1Tab3",
    "info": null,
    "ipad": {
        "psp": {
            "wrapping": 2
        }
    },
    "iphone": {
        "psp": {
            "wrapping": 2
        }
    },
    "isvisible": true,
    "kuid": "fb8a598f47b6401ca6a4810704ff6199",
    "name": "kony.ui.Label",
    "parent": "flx1Tab3Field1",
    "pf": "userwidgetmodel",
    "tooltip": "",
    "wType": "Label",
    "zindex": 1
}