{
    "@class": "com.kony.gen.viz.model.component.KVizButton",
    "DNDConfig": null,
    "_height_": {
        "type": "string",
        "value": "50dp"
    },
    "_left_": {
        "type": "string",
        "value": "20dp"
    },
    "_margin_": [
        6,
        6,
        6,
        6
    ],
    "_padding_": [
        7,
        0,
        7,
        0
    ],
    "_skin_": "s6cc32f783a048e98fcfb83f1b046c84",
    "_text_": "Manage Recipients",
    "_top_": {
        "type": "string",
        "value": "0dp"
    },
    "_width_": {
        "type": "ref",
        "value": "preferred"
    },
    "canUpdateUI": true,
    "containerweight": 100,
    "contentalignment": 5,
    "desktopweb": {
        "padding": [
            7,
            0,
            7,
            0
        ],
        "paddingInPixel": true
    },
    "displaytext": true,
    "focusskin": "s6cc32f783a048e98fcfb83f1b046c84",
    "id": "btnManageRecipientsTab",
    "info": null,
    "iscustomlayout": false,
    "isvisible": true,
    "kuid": "a305deffe28842f2b5e22d41a3742873",
    "name": "kony.ui.Button",
    "paddingLocked": false,
    "paddinginpixel": false,
    "parent": "flxTabs",
    "pf": "frmP2PSentTab",
    "responsiveData": {
        "b1": {
            "skin": "s6cc32f783a048e98fcfb83f1b046c84"
        }
    },
    "retaincontentalignment": false,
    "retainflexpositionproperties": false,
    "texti18n": "i18n.PayAPerson.ManageRecipient",
    "wType": "Button",
    "zindex": 1
}