{
    "DNDConfig": null,
    "_height_": {
        "type": "string",
        "value": "50dp"
    },
    "_left_": {
        "type": "string",
        "value": "0dp"
    },
    "_margin_": [
        0,
        0,
        0,
        0
    ],
    "_orientation_": 6,
    "_padding_": [
        0,
        0,
        0,
        0
    ],
    "_percent_": true,
    "_skin_": "s24c92fc23b14f5484b693ee9b8a9b35",
    "_top_": {
        "type": "string",
        "value": "0dp"
    },
    "_width_": {
        "type": "string",
        "value": "100%"
    },
    "allboxes": [],
    "autogrowmode": 0,
    "canUpdateUI": true,
    "children": [
        "btnSendMoneyTab",
        "btnSentTab",
        "btnManageRecipientsTab"
    ],
    "clipbounds": false,
    "containerweight": 100,
    "enablescrolling": true,
    "id": "flxTabs",
    "info": null,
    "iscustomlayout": false,
    "isvisible": true,
    "kuid": "cbdeac1fcb8147f68f87442badb71361",
    "layouttype": 3,
    "name": "kony.ui.FlexContainer",
    "parent": "flxTabContent",
    "pf": "frmP2PSentTab",
    "responsiveData": {
        "b3": {
            "skin": "s2ecf87f40f94492a3a630dd4cc7c52d",
            "zIndex": 2
        }
    },
    "retaincontentalignment": false,
    "retainflexpositionproperties": false,
    "retainflowhorizontalalignment": false,
    "snapgridsize": 10,
    "snaptogrid": true,
    "wType": "FlexContainer",
    "widgetalignment": 1,
    "zindex": 1
}