{
    "@class": "com.kony.gen.viz.model.component.KVizImage2",
    "DNDConfig": null,
    "_base64_": null,
    "_height_": {
        "type": "string",
        "value": "15px"
    },
    "_margin_": [
        0,
        0,
        0,
        0
    ],
    "_padding_": [
        0,
        0,
        0,
        0
    ],
    "_right_": {
        "type": "string",
        "value": "7.20%"
    },
    "_skin_": "s78a5f26c9f14cec9ebed1bb46098f80",
    "_src_": "arrow_down.png",
    "_width_": {
        "type": "string",
        "value": "15px"
    },
    "accessibilityconfig": {
        "a11yLabel": "Dropdown",
        "a11yValue": ""
    },
    "canUpdateUI": true,
    "centery": {
        "type": "string",
        "value": "50%"
    },
    "containerweight": 100,
    "id": "imgDropdown",
    "imagescalemode": 1,
    "imagewhiledownloading": "img_transparent.png",
    "info": null,
    "invokedProperty": "src",
    "isvisible": true,
    "kuid": "gf90340c71484746916ba112753955e4",
    "name": "kony.ui.Image2",
    "parent": "flxWhatElse",
    "pf": "frmP2PSentTab",
    "srcType": 1,
    "tooltip": "What else do you want to do?",
    "wType": "Image",
    "widgetalignment": 5,
    "zindex": 1
}