{
    "DNDConfig": null,
    "_bottom_": {
        "type": "number",
        "value": "1"
    },
    "_height_": {
        "type": "string",
        "value": "1dp"
    },
    "_left_": {
        "type": "string",
        "value": "0dp"
    },
    "_margin_": [
        0,
        0,
        0,
        0
    ],
    "_orientation_": 6,
    "_padding_": [
        0,
        0,
        0,
        0
    ],
    "_percent_": true,
    "_skin_": "s07bceb689d64d2db2831bb3c4f95f65",
    "_top_": {
        "type": "number",
        "value": "0"
    },
    "_width_": {
        "type": "string",
        "value": "100%"
    },
    "allboxes": [],
    "autogrowmode": 0,
    "canUpdateUI": true,
    "children": [],
    "clipbounds": true,
    "containerweight": 100,
    "enablescrolling": true,
    "id": "flxSeperator2",
    "info": null,
    "isvisible": true,
    "kuid": "b729199115b0436783e7adb65c62379a",
    "layouttype": 3,
    "name": "kony.ui.FlexContainer",
    "parent": "flxFooterButtons",
    "pf": "userwidgetmodel",
    "responsiveData": {
        "b1": {
            "bottom": {
                "type": "string",
                "value": ""
            },
            "top": {
                "type": "string",
                "value": "3dp"
            }
        },
        "b2": {
            "bottom": {
                "type": "number",
                "value": "0"
            },
            "top": {
                "type": "number",
                "value": "0"
            }
        },
        "b3": {
            "top": {
                "type": "string",
                "value": "2dp"
            }
        }
    },
    "snapgridsize": 10,
    "snaptogrid": true,
    "wType": "FlexContainer",
    "widgetalignment": 1,
    "zindex": 1
}