{
    "@class": "com.kony.gen.viz.model.component.KVizButton",
    "DNDConfig": null,
    "_bottom_": {
        "type": "number",
        "value": ""
    },
    "_height_": {
        "type": "string",
        "value": "40px"
    },
    "_left_": {
        "type": "number",
        "value": ""
    },
    "_margin_": [
        6,
        6,
        6,
        6
    ],
    "_padding_": [
        0,
        0,
        0,
        0
    ],
    "_right_": {
        "type": "string",
        "value": "362dp"
    },
    "_skin_": "s61775c752464e3c852c879e95d8a64f",
    "_text_": "Add Another Recipient",
    "_top_": {
        "type": "string",
        "value": "20dp"
    },
    "_width_": {
        "type": "string",
        "value": "250px"
    },
    "accessibilityconfig": {
        "a11yLabel": "Add Another Recipient"
    },
    "canUpdateUI": true,
    "containerweight": 100,
    "contentalignment": 5,
    "desktopweb": {
        "psp": {
            "hoverSkin": "s3e316aedd4e496b8d7f80eeea097d2c"
        }
    },
    "disabledSkins": {},
    "displaytext": true,
    "focusskin": "s2ae1a963f5a424b950527976918d96c",
    "hoverskin": "",
    "id": "button2",
    "info": null,
    "iscustomlayout": false,
    "isvisible": true,
    "kuid": "hc20a0bff7454674a338cd98fbc6e72f",
    "name": "kony.ui.Button",
    "parent": "flxAckButtons",
    "pf": "userwidgetmodel",
    "responsiveData": {
        "b1": {
            "desktopweb": {
                "psp": {}
            },
            "focusSkin": "sa85c19fce5a4d95ba4f89025c0a5363",
            "height": {
                "type": "string",
                "value": "40dp"
            },
            "right": {
                "type": "string",
                "value": "20dp"
            },
            "skin": "sca205ab44a1441f8a0c21b925204133",
            "text": "Save this Payee",
            "top": {
                "type": "string",
                "value": "30dp"
            },
            "width": {
                "type": "string",
                "value": "250dp"
            }
        },
        "b2": {
            "disabledSkins": {},
            "focusSkin": "sa85c19fce5a4d95ba4f89025c0a5363",
            "height": {
                "type": "string",
                "value": "40dp"
            },
            "right": {
                "type": "string",
                "value": "20dp"
            },
            "skin": "sca205ab44a1441f8a0c21b925204133",
            "text": "Save this Payee",
            "top": {
                "type": "string",
                "value": "30dp"
            },
            "width": {
                "type": "string",
                "value": "25%"
            }
        },
        "b3": {
            "bottom": {
                "type": "string",
                "value": ""
            },
            "focusSkin": "sa85c19fce5a4d95ba4f89025c0a5363",
            "left": {
                "type": "string",
                "value": "2%"
            },
            "right": {
                "type": "string",
                "value": "2%"
            },
            "skin": "sfabd272f90e444591fc091464a9316e",
            "text": "Save this Payee",
            "top": {
                "type": "string",
                "value": "80dp"
            },
            "width": {
                "type": "string",
                "value": "96%"
            }
        },
        "b4": {
            "focusSkin": "sa85c19fce5a4d95ba4f89025c0a5363",
            "right": {
                "type": "string",
                "value": "20dp"
            },
            "skin": "sca205ab44a1441f8a0c21b925204133",
            "text": "Save this Payee",
            "top": {
                "type": "string",
                "value": "30dp"
            },
            "width": {
                "type": "string",
                "value": "250dp"
            }
        }
    },
    "retaincontentalignment": false,
    "retainflexpositionproperties": false,
    "texti18n": "i18n.PayAPerson.AddAnotherRecipient",
    "wType": "Button",
    "zindex": 1
}