{
    "@class": "com.kony.gen.viz.model.component.KVizLabel",
    "DNDConfig": null,
    "_bottom_": {
        "type": "number",
        "value": ""
    },
    "_height_": {
        "type": "ref",
        "value": "preferred"
    },
    "_margin_": [
        1,
        1,
        1,
        1
    ],
    "_padding_": [
        2,
        0,
        2,
        0
    ],
    "_skin_": "sf76c6d917b34d96a0a44ae7e5dbefdd",
    "_text_": "45423792753",
    "_top_": {
        "type": "string",
        "value": "4dp"
    },
    "_width_": {
        "type": "string",
        "value": "70%"
    },
    "_wrapping_": 2,
    "accessibilityconfig": {
        "a11yLabel": "45423792753"
    },
    "android": {
        "textStyle": {
            "letterSpacing": 0,
            "strikeThrough": false
        }
    },
    "canUpdateUI": true,
    "centerx": {
        "type": "string",
        "value": "50%"
    },
    "containerweight": 100,
    "contentalignment": 5,
    "id": "lblRefrenceNumberValue",
    "info": null,
    "ipad": {
        "psp": {
            "wrapping": 2
        }
    },
    "iphone": {
        "psp": {
            "wrapping": 2
        }
    },
    "isvisible": true,
    "kuid": "fab70436a215489e9eb478218aa44143",
    "name": "kony.ui.Label",
    "paddinginpixel": false,
    "parent": "flxReferenceNumber",
    "pf": "userwidgetmodel",
    "responsiveData": {
        "b1": {
            "bottom": {
                "type": "string",
                "value": ""
            },
            "isVisible": true,
            "skin": "s5d6ea801d4f4495884da8dca14681b0",
            "text": "45423792753",
            "top": {
                "type": "string",
                "value": "22dp"
            }
        },
        "b2": {
            "skin": "s2c805bc1446494db92da8852689863d",
            "top": {
                "type": "string",
                "value": "40dp"
            }
        },
        "b3": {
            "skin": "sb324a433eed4d63b64cccc20f76b2fb",
            "text": "45423792753",
            "top": {
                "type": "string",
                "value": "35dp"
            }
        },
        "b4": {
            "bottom": {
                "type": "string",
                "value": ""
            },
            "isVisible": true,
            "skin": "s5d6ea801d4f4495884da8dca14681b0",
            "top": {
                "type": "string",
                "value": "22dp"
            }
        }
    },
    "tooltip": "",
    "wType": "Label",
    "zindex": 1
}