{
    "@class": "com.kony.gen.viz.model.component.KVizLabel",
    "DNDConfig": null,
    "_height_": {
        "type": "ref",
        "value": "preferred"
    },
    "_left_": {
        "type": "string",
        "value": "0dp"
    },
    "_margin_": [
        1,
        1,
        1,
        1
    ],
    "_padding_": [
        0,
        0,
        0,
        0
    ],
    "_skin_": "s1bcb4590e4549acaedd4c74da5efb3d",
    "_text_": "Pay a Person Details",
    "_width_": {
        "type": "ref",
        "value": "preferred"
    },
    "_wrapping_": 2,
    "accessibilityconfig": {
        "a11yLabel": "Recipient Details"
    },
    "android": {
        "textStyle": {
            "letterSpacing": 0,
            "strikeThrough": false
        }
    },
    "canUpdateUI": true,
    "centery": {
        "type": "string",
        "value": "50%"
    },
    "containerweight": 100,
    "contentalignment": 4,
    "id": "lblSection2Header",
    "info": null,
    "ipad": {
        "psp": {
            "wrapping": 2
        }
    },
    "iphone": {
        "psp": {
            "wrapping": 2
        }
    },
    "iscustomlayout": false,
    "isvisible": true,
    "kuid": "e6943c28285145cdb0f974fddcda2aeb",
    "name": "kony.ui.Label",
    "parent": "flxDetailsHeader",
    "pf": "userwidgetmodel",
    "responsiveData": {
        "b1": {
            "skin": "sf767bf165d54d209e4a32fcb56e20a8",
            "text": "Transaction Details"
        },
        "b2": {
            "skin": "sf767bf165d54d209e4a32fcb56e20a8",
            "text": "Your Transaction  Details"
        },
        "b3": {
            "skin": "sa19e9b543fc49e8a5cd4c7855c908ee",
            "text": "Pay a Person Details"
        },
        "b4": {
            "skin": "sf767bf165d54d209e4a32fcb56e20a8",
            "text": "Transaction Details"
        }
    },
    "retaincontentalignment": false,
    "retainflexpositionproperties": false,
    "texti18n": "i18n.payaperson.RecipientDetails",
    "tooltip": "",
    "wType": "Label",
    "zindex": 1
}