{
    "@class": "com.kony.gen.viz.model.component.KVizLabel",
    "DNDConfig": null,
    "_height_": {
        "type": "ref",
        "value": "preferred"
    },
    "_left_": {
        "type": "string",
        "value": "245px"
    },
    "_margin_": [
        1,
        1,
        1,
        1
    ],
    "_padding_": [
        0,
        0,
        0,
        0
    ],
    "_skin_": "s1200140df264f74b5467e6eccd27a7f",
    "_text_": "Label",
    "_top_": {
        "type": "number",
        "value": "0"
    },
    "_width_": {
        "type": "ref",
        "value": "preferred"
    },
    "_wrapping_": 2,
    "android": {
        "textStyle": {
            "letterSpacing": 0,
            "strikeThrough": false
        }
    },
    "canUpdateUI": true,
    "containerweight": 100,
    "contentalignment": 4,
    "id": "lblValue19",
    "info": null,
    "ipad": {
        "psp": {
            "wrapping": 2
        }
    },
    "iphone": {
        "psp": {
            "wrapping": 2
        }
    },
    "iscustomlayout": false,
    "isvisible": true,
    "kuid": "i91715990e234634a517d1787b8e94bc",
    "name": "kony.ui.Label",
    "parent": "flxField19",
    "pf": "userwidgetmodel",
    "responsiveData": {
        "b1": {
            "left": {
                "type": "string",
                "value": "245dp"
            },
            "width": {
                "type": "string",
                "value": "270dp"
            },
            "zIndex": 5
        },
        "b2": {
            "left": {
                "type": "string",
                "value": "283dp"
            },
            "width": {
                "type": "string",
                "value": "400dp"
            }
        },
        "b3": {
            "left": {
                "type": "string",
                "value": "0px"
            },
            "skin": "s73b9325cb3c4de58e08db60f8240102",
            "top": {
                "type": "string",
                "value": "6dp"
            },
            "width": {
                "type": "string",
                "value": "300dp"
            }
        },
        "b4": {
            "width": {
                "type": "string",
                "value": "270dp"
            }
        }
    },
    "retaincontentalignment": false,
    "retainflexpositionproperties": false,
    "tooltip": "",
    "wType": "Label",
    "zindex": 1
}