{
    "@class": "com.kony.gen.viz.model.component.KVizButton",
    "DNDConfig": null,
    "_height_": {
        "type": "string",
        "value": "40dp"
    },
    "_left_": {
        "type": "string",
        "value": "50.60%"
    },
    "_margin_": [
        6,
        6,
        6,
        6
    ],
    "_padding_": [
        0,
        0,
        0,
        0
    ],
    "_right_": {
        "type": "number",
        "value": ""
    },
    "_skin_": "s4fe0674a3c84b76a21524a90bad4282",
    "_text_": "",
    "_top_": {
        "type": "string",
        "value": "465dp"
    },
    "_width_": {
        "type": "string",
        "value": "20.90%"
    },
    "accessibilityconfig": {
        "a11yLabel": "Request Replacement"
    },
    "canUpdateUI": true,
    "containerweight": 100,
    "contentalignment": 5,
    "desktopweb": {
        "psp": {
            "hoverSkin": "s81054b5e2b74f17a5261991df565427"
        }
    },
    "displaytext": true,
    "focusskin": "s5a4f67acd3e47b9be6d6910a7a6686f",
    "id": "btnRequestReplacement",
    "info": null,
    "isvisible": false,
    "kuid": "dcf01a92adb242cfa15aaa812fe81923",
    "name": "kony.ui.Button",
    "parent": "flxAcknowledgment",
    "pf": "frmCardManagementAcknowledgement",
    "responsiveData": {
        "b2": {
            "top": {
                "type": "string",
                "value": "850dp"
            }
        },
        "b3": {
            "left": {
                "type": "string",
                "value": "2.50%"
            },
            "top": {
                "type": "string",
                "value": "890dp"
            },
            "width": {
                "type": "string",
                "value": "95%"
            }
        },
        "b4": {
            "left": {
                "type": "string",
                "value": ""
            },
            "right": {
                "type": "string",
                "value": "260dp"
            },
            "width": {
                "type": "string",
                "value": "150dp"
            }
        }
    },
    "texti18n": "i18n.CardManagement.RequestReplacement",
    "tooltip": "MAKE TRANSFER",
    "wType": "Button",
    "zindex": 1
}