{
    "@class": "com.kony.gen.viz.model.component.KVizRichText",
    "DNDConfig": null,
    "_height_": {
        "type": "ref",
        "value": "preferred"
    },
    "_left_": {
        "type": "string",
        "value": "0dp"
    },
    "_margin_": [
        0,
        0,
        0,
        0
    ],
    "_padding_": [
        0,
        0,
        0,
        0
    ],
    "_skin_": "sc4cc30bc71442ee9f8b2e9230a973fa",
    "_text_": "PO BOX 1264<br/>Newwark, NJ 04875-8836",
    "_top_": {
        "type": "string",
        "value": "0dp"
    },
    "_width_": {
        "type": "string",
        "value": "100%"
    },
    "_wrapping_": 2,
    "accessibilityconfig": {
        "a11yLabel": "PO BOX 1264<br/>Newwark, NJ 04875-8836"
    },
    "canUpdateUI": true,
    "containerweight": 100,
    "contentalignment": 4,
    "id": "rtxAccNumberVal",
    "info": null,
    "isvisible": true,
    "kuid": "e51ab3801d4a42afa5fd08bb5f62292c",
    "name": "kony.ui.RichText",
    "parent": "flxAccNumberVal",
    "pf": "frmPayeeAcknowledgement",
    "responsiveData": {
        "b1": {
            "text": "773663272624427"
        }
    },
    "wType": "RichText",
    "widgetalignment": 5,
    "zindex": 1
}