{
    "@class": "com.kony.gen.viz.model.component.KVizUserWidget",
    "DNDConfig": null,
    "_children_": [],
    "_height_": {
        "type": "ref",
        "value": "preferred"
    },
    "_left_": {
        "type": "string",
        "value": "0dp"
    },
    "_margin_": [
        0,
        0,
        0,
        0
    ],
    "_orientation_": 1,
    "_padding_": [
        0,
        0,
        0,
        0
    ],
    "_percent_": true,
    "_skin_": "s24c92fc23b14f5484b693ee9b8a9b35",
    "_top_": {
        "type": "string",
        "value": "0dp"
    },
    "_width_": {
        "type": "string",
        "value": "100%"
    },
    "areflexpropsreferenced": false,
    "autogrowmode": 1,
    "canUpdateUI": true,
    "clipbounds": true,
    "containerweight": 0,
    "dataDiffs": {
        "flxColumn1": {
            "__events__": {},
            "__info__": {
                "kuid": "bc10c609da944fa587ebf63484507933",
                "srcKUID": "ca2fa3f672ae4a959573870d37e7a3f8",
                "wType": "FlexContainer"
            }
        },
        "flxColumn2": {
            "__events__": {},
            "__info__": {
                "kuid": "i1a2d5f05a164a758648e08c20546f70",
                "srcKUID": "f2e3442a5303475fa17201d983fdebf2",
                "wType": "FlexContainer"
            }
        },
        "flxColumn3": {
            "__events__": {},
            "__info__": {
                "kuid": "d02073db09e845829b31064e9f4a3b1a",
                "srcKUID": "dc37cc4e0c8749989a63876aef88763c",
                "wType": "FlexContainer"
            }
        },
        "flxHeader": {
            "__events__": {},
            "__info__": {
                "kuid": "e4489fdf71c4448ca3365052bf1ece90",
                "srcKUID": "fec28b2520e94ea09cfa01883630fbf4",
                "wType": "FlexContainer"
            }
        },
        "flxHorizontalLine1": {
            "__events__": {},
            "__info__": {
                "kuid": "ad04b584c68d43ad8cd9198690c80b4c",
                "srcKUID": "ab19b02d38ec43c7bc80fee12299f7d6",
                "wType": "FlexContainer"
            },
            "isVisible": false
        },
        "flxHorizontalLine2": {
            "__events__": {},
            "__info__": {
                "kuid": "f5c6035f343a4f76ab04abecf74dda61",
                "srcKUID": "a9344250ce36447399e63467457459b4",
                "wType": "FlexContainer"
            }
        },
        "flxHorizontalLine3": {
            "__events__": {},
            "__info__": {
                "kuid": "ab0f29209ece45498c917bcb53c0ff5d",
                "srcKUID": "a62d0c6bbf9941e0bbd687cfe0d1c206",
                "wType": "FlexContainer"
            }
        },
        "flxSegContainer": {
            "__events__": {},
            "__info__": {
                "kuid": "g6a4356d0ef046029014d357e6cbefef",
                "srcKUID": "bd3af797d3654f1bbd143ebb0dabfbfe",
                "wType": "FlexContainer"
            }
        },
        "flxSegmentHeader": {
            "__events__": {},
            "__info__": {
                "kuid": "e224eb566adb450b8ec67ef3842e0338",
                "srcKUID": "f65203aeba304219b53ed02003f1ba9c",
                "wType": "FlexContainer"
            }
        },
        "flxSortSixColumn": {
            "__events__": {},
            "__info__": {
                "kuid": "f548eb7611e445c2bbf29c9d1b143b2f",
                "srcKUID": "f0f7004621b1469096cd7fb516fc7eec",
                "wType": "FlexContainer"
            }
        },
        "imgSortColumn1": {
            "__events__": {},
            "__info__": {
                "kuid": "a8e53b930d924cdfbee0da9851224463",
                "srcKUID": "f6b6f98f864c47e581b875aa476f24ab",
                "wType": "Image"
            }
        },
        "imgSortColumn2": {
            "__events__": {},
            "__info__": {
                "kuid": "ad6c09b3d7404ed58fda3181ccb33f1d",
                "srcKUID": "bb3d8182186a4ec2b2048640abc70979",
                "wType": "Image"
            }
        },
        "lblColumn1": {
            "__events__": {},
            "__info__": {
                "kuid": "j36c720c866b48adb831a247111ced30",
                "srcKUID": "g7703d5f0426495f998d36effe98536e",
                "wType": "Label"
            }
        },
        "lblColumn2": {
            "__events__": {},
            "__info__": {
                "kuid": "bd23c0a7e14e4c17af55e5dde64c77a1",
                "srcKUID": "c0ca327d2a7a4c1dafaa9142d0771465",
                "wType": "Label"
            }
        },
        "lblColumn3": {
            "__events__": {},
            "__info__": {
                "kuid": "bd238f776be64cfaa6c69142964968cc",
                "srcKUID": "f03d2a5e9c61445dba4a88e36bb62d0e",
                "wType": "Label"
            }
        },
        "lblHeaderContracts": {
            "__events__": {},
            "__info__": {
                "kuid": "i3a6571fb1da4edcaba5a443443537c1",
                "srcKUID": "a9a6908190794300a21532dfc5a53e41",
                "wType": "Label"
            }
        },
        "screenConfirm": {
            "__events__": {},
            "__info__": {
                "isRoot": true,
                "kuid": "fa4c478dbc574fef8756640a706c5c4d",
                "srcKUID": "a4f7dc7591b4491caab8410be9f7bbb0",
                "wType": "FlexContainer"
            }
        },
        "segContracts": {
            "__events__": {},
            "__info__": {
                "kuid": "d3157d0b78994848a3f57e47a86b35bc",
                "srcKUID": "f93de29ff28e4295b8de0c2d951a41c0",
                "wType": "Segment"
            }
        }
    },
    "enablescrolling": true,
    "id": "screenConfirm",
    "info": null,
    "iscustomlayout": false,
    "isdatareferenced": false,
    "isvisible": true,
    "kuid": "fa4c478dbc574fef8756640a706c5c4d",
    "layouttype": 4,
    "masterType": 0,
    "name": "kony.ui.UserWidgetInstance",
    "parent": "flxContractsComponent",
    "pf": "frmPayeeAcknowledgement",
    "retaincontentalignment": false,
    "retainflexpositionproperties": false,
    "retainflowhorizontalalignment": false,
    "snapgridsize": 10,
    "snaptogrid": true,
    "sourceUserWidget": "a4f7dc7591b4491caab8410be9f7bbb0",
    "wType": "UserWidgetInstance"
}