{
    "DNDConfig": null,
    "__parentReadjusting__": false,
    "_height_": {
        "type": "ref",
        "value": "preferred"
    },
    "_left_": {
        "type": "string",
        "value": "0dp"
    },
    "_margin_": [
        0,
        0,
        0,
        0
    ],
    "_orientation_": 6,
    "_padding_": [
        0,
        0,
        0,
        0
    ],
    "_percent_": true,
    "_skin_": "s24c92fc23b14f5484b693ee9b8a9b35",
    "_top_": {
        "type": "string",
        "value": "1dp"
    },
    "_width_": {
        "type": "string",
        "value": "100%"
    },
    "allboxes": [],
    "autogrowmode": 1,
    "canUpdateUI": true,
    "children": [
        "lblFirstName",
        "lblFirstNameValue",
        "lblLastName",
        "lblLastNameValue",
        "lblDOB",
        "lblDOBValue",
        "lblGender",
        "lblGenderValue",
        "lblMaritalStatus",
        "lblMaritalStatusValue",
        "lblDependents",
        "lblDependentsValue",
        "lblAddress",
        "lblSpouseName",
        "lblSpouseNameValue",
        "rtxAddress"
    ],
    "clipbounds": true,
    "containerweight": 100,
    "enablescrolling": true,
    "id": "CopyflxAcknowledgementMain0fb934315ce344d",
    "info": null,
    "isvisible": true,
    "kuid": "b9acd425f95e4afaa79a66b51d630599",
    "layouttype": 2,
    "name": "kony.ui.FlexContainer",
    "parent": "flxReviewApplicationMain",
    "pf": "userwidgetmodel",
    "snapgridsize": 10,
    "snaptogrid": true,
    "wType": "FlexContainer",
    "widgetalignment": 1,
    "zindex": 1
}