{
    "DNDConfig": null,
    "__parentReadjusting__": false,
    "_height_": {
        "type": "ref",
        "value": "preferred"
    },
    "_left_": {
        "type": "string",
        "value": "0dp"
    },
    "_margin_": [
        0,
        0,
        0,
        0
    ],
    "_orientation_": 6,
    "_padding_": [
        0,
        0,
        0,
        0
    ],
    "_percent_": true,
    "_skin_": "s24c92fc23b14f5484b693ee9b8a9b35",
    "_top_": {
        "type": "string",
        "value": "0dp"
    },
    "_width_": {
        "type": "string",
        "value": "100%"
    },
    "allboxes": [],
    "autogrowmode": 1,
    "canUpdateUI": true,
    "children": [
        "flxRow1",
        "lblSeparator",
        "segProductsSelected",
        "lblReviewApplicationSeperator1",
        "lblUserInfo",
        "lblReviewApplicationSeperator2",
        "CopyflxAcknowledgementMain0fb934315ce344d",
        "lblReviewApplicationSeperator3",
        "lblSSN",
        "lblReviewApplicationSeperator4",
        "flxReviewApplicationSSN"
    ],
    "clipbounds": true,
    "containerweight": 100,
    "enablescrolling": true,
    "id": "flxReviewApplicationMain",
    "info": null,
    "isvisible": true,
    "kuid": "e1652523a5fa4b3abb51f24da49fac00",
    "layouttype": 4,
    "name": "kony.ui.FlexContainer",
    "parent": "ReviewApplicationNAO",
    "pf": "userwidgetmodel",
    "snapgridsize": 10,
    "snaptogrid": true,
    "wType": "FlexContainer",
    "widgetalignment": 1,
    "zindex": 1
}