{
    "@class": "com.kony.gen.viz.model.component.KVizRichText",
    "DNDConfig": null,
    "__parentReadjusting__": false,
    "_height_": {
        "type": "ref",
        "value": "preferred"
    },
    "_left_": {
        "type": "string",
        "value": "274dp"
    },
    "_margin_": [
        0,
        0,
        0,
        0
    ],
    "_padding_": [
        0,
        0,
        0,
        0
    ],
    "_right_": {
        "type": "number",
        "value": "0"
    },
    "_skin_": "s8a8ec75ad3645388a4ce250f3b9d2c8",
    "_text_": "XXXX XXXX XXXX 5404",
    "_top_": {
        "type": "string",
        "value": "0dp"
    },
    "_wrapping_": 2,
    "accessibilityconfig": {
        "a11yLabel": "XXXX XXXX XXXX 5404"
    },
    "canUpdateUI": true,
    "containerweight": 100,
    "contentalignment": 1,
    "id": "rtxValue1",
    "info": null,
    "isvisible": true,
    "kuid": "b2cb27fc54d14bdbad70093c4d9f67da",
    "name": "kony.ui.RichText",
    "parent": "flxDetailsRow1",
    "pf": "frmBulkwireCreateTemplateConfirm",
    "responsiveData": {
        "b3": {
            "left": {
                "type": "string",
                "value": "0dp"
            }
        }
    },
    "wType": "RichText",
    "watchos": {
        "render": false
    },
    "widgetalignment": 5,
    "windows10": {
        "render": false
    },
    "winphone10": {
        "render": false
    },
    "zindex": 1
}