{
    "DNDConfig": null,
    "__parentReadjusting__": false,
    "_height_": {
        "type": "string",
        "value": "50dp"
    },
    "_left_": {
        "type": "string",
        "value": "15dp"
    },
    "_margin_": [
        0,
        0,
        0,
        0
    ],
    "_orientation_": 6,
    "_padding_": [
        0,
        0,
        0,
        0
    ],
    "_percent_": true,
    "_skin_": "sf4c85c506de4687bf0645de2533a314",
    "_top_": {
        "type": "string",
        "value": "29dp"
    },
    "_width_": {
        "type": "string",
        "value": "25dp"
    },
    "allboxes": [],
    "autogrowmode": 0,
    "canUpdateUI": true,
    "centery": {
        "type": "string",
        "value": "50%"
    },
    "children": [
        "lblCheckBox"
    ],
    "clipbounds": true,
    "containerId": true,
    "containerweight": 100,
    "desktopweb": {
        "psp": {
            "hoverSkin": "sd403771f17f42cbb7aea6cb69a914cc"
        }
    },
    "enablescrolling": true,
    "id": "flxcheckbox",
    "ide_onClick": "AS_FlexContainer_b3ff2e204e70453b972d40d783847e41",
    "info": null,
    "isvisible": true,
    "kuid": "c8e816d696e74f3297f8b495ca3ad256",
    "layouttype": 2,
    "name": "kony.ui.FlexContainer",
    "parent": "flxSelectedAccounts",
    "pf": "segSelectedAccounts",
    "snapgridsize": 10,
    "snaptogrid": true,
    "wType": "FlexContainer",
    "widgetalignment": 1,
    "zindex": 5
}