{
    "DNDConfig": null,
    "_height_": {
        "type": "string",
        "value": "40dp"
    },
    "_left_": {
        "type": "string",
        "value": "30dp"
    },
    "_margin_": [
        0,
        0,
        0,
        0
    ],
    "_orientation_": 6,
    "_padding_": [
        0,
        0,
        0,
        0
    ],
    "_percent_": true,
    "_skin_": "saf789e7d66c4735bb7d66796942cf7d",
    "_top_": {
        "type": "string",
        "value": "51dp"
    },
    "_width_": {
        "type": "string",
        "value": "45%"
    },
    "allboxes": [],
    "autogrowmode": 0,
    "canUpdateUI": true,
    "children": [
        "flxAccountInfo",
        "flxAccounts"
    ],
    "clipbounds": false,
    "containerweight": 100,
    "enablescrolling": true,
    "id": "flxAccountSelectedValue",
    "info": null,
    "iscustomlayout": false,
    "isvisible": true,
    "kuid": "b1d0ada257354a479c13b6016b3f3f7d",
    "layouttype": 4,
    "name": "kony.ui.FlexContainer",
    "parent": "flxSelectReasonForDispute",
    "pf": "userwidgetmodel",
    "responsiveData": {
        "b2": {
            "left": {
                "type": "string",
                "value": "20px"
            }
        },
        "b3": {
            "left": {
                "type": "string",
                "value": "2.10%"
            },
            "top": {
                "type": "string",
                "value": "45dp"
            },
            "width": {
                "type": "string",
                "value": "95%"
            }
        }
    },
    "retaincontentalignment": false,
    "retainflexpositionproperties": false,
    "retainflowhorizontalalignment": false,
    "snapgridsize": 10,
    "snaptogrid": true,
    "wType": "FlexContainer",
    "widgetalignment": 1,
    "zindex": 20
}