{
    "DNDConfig": null,
    "_height_": {
        "type": "string",
        "value": "1dp"
    },
    "_left_": {
        "type": "string",
        "value": "0dp"
    },
    "_margin_": [
        0,
        0,
        0,
        0
    ],
    "_orientation_": 6,
    "_padding_": [
        0,
        0,
        0,
        0
    ],
    "_percent_": true,
    "_skin_": "sb8778dd78d542b69dd0c20f0a20135f",
    "_top_": {
        "type": "number",
        "value": "10"
    },
    "_width_": {
        "type": "string",
        "value": "100%"
    },
    "allboxes": [],
    "autogrowmode": 0,
    "canUpdateUI": true,
    "children": [],
    "clipbounds": true,
    "containerweight": 100,
    "enablescrolling": true,
    "id": "flxlblMonth8Separator",
    "info": null,
    "isvisible": false,
    "kuid": "b9612d880aa24b4a8ee6da49174e4783",
    "layouttype": 2,
    "name": "kony.ui.FlexContainer",
    "parent": "flexDataMonth8",
    "pf": "userwidgetmodel",
    "responsiveData": {
        "b3": {
            "isVisible": true,
            "top": {
                "type": "number",
                "value": "0"
            }
        }
    },
    "snapgridsize": 10,
    "snaptogrid": true,
    "wType": "FlexContainer",
    "widgetalignment": 1,
    "zindex": 5
}