{
    "@class": "com.kony.gen.viz.model.component.KVizListBox",
    "DNDConfig": null,
    "_height_": {
        "type": "string",
        "value": "40dp"
    },
    "_left_": {
        "type": "string",
        "value": "2.10%"
    },
    "_margin_": [
        0,
        0,
        0,
        0
    ],
    "_padding_": [
        2,
        0,
        1,
        0
    ],
    "_right_": {
        "type": "number",
        "value": ""
    },
    "_skin_": "s23cdde13c444db8b8f778b938095197",
    "_top_": {
        "type": "string",
        "value": "51dp"
    },
    "_width_": {
        "type": "string",
        "value": "45%"
    },
    "canUpdateUI": true,
    "containerweight": 100,
    "contentalignment": 4,
    "focusskin": "s9cafd5087924f9c8eeb6c59c996b68f",
    "groupcells": false,
    "id": "lstSelectAccount",
    "info": null,
    "isvisible": false,
    "kuid": "e7a5e29f1c0a4dca879a113c52270b62",
    "masterdata": [
        [
            "lb1",
            "Checking Account.....12345"
        ],
        [
            "lb2",
            "Listbox Two"
        ],
        [
            "lb3",
            "Listbox Three"
        ]
    ],
    "name": "kony.ui.ListBox",
    "parent": "flxSelectReasonForDispute",
    "pf": "userwidgetmodel",
    "responsiveData": {
        "b1": {
            "left": {
                "type": "string",
                "value": "31dp"
            },
            "padding": [
                1,
                0,
                1,
                0
            ]
        },
        "b2": {
            "padding": [
                1,
                0,
                1,
                0
            ]
        },
        "b3": {
            "height": {
                "type": "string",
                "value": "40dp"
            },
            "padding": [
                1,
                0,
                1,
                0
            ],
            "right": {
                "type": "string",
                "value": "2.10%"
            },
            "top": {
                "type": "string",
                "value": "45dp"
            },
            "width": {
                "type": "string",
                "value": ""
            }
        }
    },
    "selectedkeys": null,
    "selectedkeyvalue": null,
    "selectedkeyvalues": null,
    "size": 18,
    "viewconfig": {
        "toggleViewConfig": {
            "viewStyle": 0
        }
    },
    "viewtype": 0,
    "wType": "ListBox",
    "zindex": 5
}