{
    "classname": "WatchlistExtended",
    "definitions": {
        "apis": {
            "custom": [],
            "passthrough": []
        },
        "events": {
            "custom": [
                {
                    "group": "General",
                    "kuid": "e3931db56429482aa3c93d1a7f583cce",
                    "paramList": [],
                    "propertyIndex": 1,
                    "propertyKey": "requestStart",
                    "pw": {
                        "displayName": "requestStart",
                        "toolTip": "Request Start",
                        "uiRepresentation": "Label-Label-Button-Button"
                    },
                    "srcWgtKUID": "aa04bb008a54491a91e7935e2d58cc22",
                    "type": "event"
                },
                {
                    "group": "General",
                    "kuid": "d04753ce8fb5476fa620624c8f3b9f43",
                    "paramList": [],
                    "propertyIndex": 2,
                    "propertyKey": "requestEnd",
                    "pw": {
                        "displayName": "requestEnd",
                        "toolTip": "Request End",
                        "uiRepresentation": "Label-Label-Button-Button"
                    },
                    "srcWgtKUID": "aa04bb008a54491a91e7935e2d58cc22",
                    "type": "event"
                }
            ],
            "passthrough": []
        },
        "groups": {
            "apis": [],
            "events": [],
            "properties": [],
            "widgets": []
        },
        "properties": {
            "custom": [
                {
                    "access": "Write",
                    "defaultValue": "WealthObjects",
                    "group": "General",
                    "kuid": "e3b67c4f9edf4dbf97deb6775325708f",
                    "originalPropertyKey": "objService",
                    "propertyIndex": 1,
                    "propertyKey": "objService",
                    "pw": {
                        "dependencyConditions": {},
                        "displayName": "Object Servicxe",
                        "uiRepresentation": "Label-Textbox"
                    },
                    "srcWgtKUID": "aa04bb008a54491a91e7935e2d58cc22",
                    "type": "string",
                    "value": ""
                },
                {
                    "access": "Write",
                    "defaultValue": "InstrumentDetails",
                    "group": "General",
                    "kuid": "d777aba8f5fe4322b41bfb8ece816714",
                    "originalPropertyKey": "objName",
                    "propertyIndex": 2,
                    "propertyKey": "objName",
                    "pw": {
                        "dependencyConditions": {},
                        "displayName": "Object Name",
                        "uiRepresentation": "Label-Textbox"
                    },
                    "srcWgtKUID": "aa04bb008a54491a91e7935e2d58cc22",
                    "type": "string",
                    "value": ""
                },
                {
                    "access": "Write",
                    "defaultValue": "getFavoriteInstruments",
                    "group": "General",
                    "kuid": "fc2b4ac226a54700bce64cc368220f73",
                    "originalPropertyKey": "operation",
                    "propertyIndex": 3,
                    "propertyKey": "operation",
                    "pw": {
                        "dependencyConditions": {},
                        "displayName": "Operation Name",
                        "uiRepresentation": "Label-Textbox"
                    },
                    "srcWgtKUID": "aa04bb008a54491a91e7935e2d58cc22",
                    "type": "string",
                    "value": ""
                },
                {
                    "access": "Write",
                    "defaultValue": "{\"pageSize\": \"10\", \"pageOffset \": \"0\"}",
                    "group": "General",
                    "kuid": "c9e2d205260b466e9da2b7ac05f973c4",
                    "originalPropertyKey": "criteria",
                    "propertyIndex": 4,
                    "propertyKey": "criteria",
                    "pw": {
                        "dependencyConditions": {},
                        "displayName": "Criteria",
                        "uiRepresentation": "Label-Textbox"
                    },
                    "srcWgtKUID": "aa04bb008a54491a91e7935e2d58cc22",
                    "type": "string",
                    "value": ""
                },
                {
                    "access": "Write",
                    "defaultValue": "favoriteInstruments",
                    "group": "General",
                    "kuid": "ie7a7c2a7d3d4ecc883c1943c0a7292c",
                    "originalPropertyKey": "serviceResponseKey",
                    "propertyIndex": 5,
                    "propertyKey": "serviceResponseKey",
                    "pw": {
                        "dependencyConditions": {},
                        "displayName": "Service Response Key",
                        "uiRepresentation": "Label-Textbox"
                    },
                    "srcWgtKUID": "aa04bb008a54491a91e7935e2d58cc22",
                    "type": "string",
                    "value": ""
                },
                {
                    "access": "Write",
                    "defaultValue": "PrintAndDownload",
                    "group": "General",
                    "kuid": "e264facdd75743b4a1b14d4ea0a5c18d",
                    "originalPropertyKey": "options",
                    "propertyIndex": 6,
                    "propertyKey": "options",
                    "pw": {
                        "dependencyConditions": {},
                        "displayName": "Options",
                        "uiRepresentation": "Label-Textbox"
                    },
                    "srcWgtKUID": "aa04bb008a54491a91e7935e2d58cc22",
                    "type": "string",
                    "value": ""
                },
                {
                    "access": "Write",
                    "defaultValue": "WealthObjects",
                    "group": "General",
                    "kuid": "b5445bb60cd24d23834f0107156487d8",
                    "originalPropertyKey": "GAobjectServiceName",
                    "propertyIndex": 7,
                    "propertyKey": "GAobjectServiceName",
                    "pw": {
                        "dependencyConditions": {},
                        "displayName": "GAobjectServiceName",
                        "uiRepresentation": "Label-Textbox"
                    },
                    "srcWgtKUID": "aa04bb008a54491a91e7935e2d58cc22",
                    "type": "string",
                    "value": ""
                },
                {
                    "access": "Write",
                    "defaultValue": "DownloadPDF",
                    "group": "General",
                    "kuid": "j2ff7e7077a344c995f767cd1a1260d7",
                    "originalPropertyKey": "GAobjectName",
                    "propertyIndex": 8,
                    "propertyKey": "GAobjectName",
                    "pw": {
                        "dependencyConditions": {},
                        "displayName": "GAobjectName",
                        "uiRepresentation": "Label-Textbox"
                    },
                    "srcWgtKUID": "aa04bb008a54491a91e7935e2d58cc22",
                    "type": "string",
                    "value": ""
                },
                {
                    "access": "Write",
                    "defaultValue": "generatePDF",
                    "group": "General",
                    "kuid": "e249352eb65f4118a360d62498c80c1c",
                    "originalPropertyKey": "GAoperationName",
                    "propertyIndex": 9,
                    "propertyKey": "GAoperationName",
                    "pw": {
                        "dependencyConditions": {},
                        "displayName": "GAoperationName",
                        "uiRepresentation": "Label-Textbox"
                    },
                    "srcWgtKUID": "aa04bb008a54491a91e7935e2d58cc22",
                    "type": "string",
                    "value": ""
                }
            ],
            "passthrough": []
        },
        "widgets": {
            "expose": [],
            "passthrough": []
        }
    },
    "namespace": "com.olb.wealth",
    "version": "1.0.0"
}