{
	 "@class": "com.kony.gen.viz.model.component.KVizLabel",
	 "DNDConfig": null,
	 "__parentReadjusting__": false,
	 "_height_": {
		 "type": "string",
		 "value": "25dp"
	},
	 "_left_": {
		 "type": "string",
		 "value": "0dp"
	},
	 "_margin_": [
		 1,
		 1,
		 1,
		 1
	],
	 "_padding_": [
		 0,
		 0,
		 0,
		 0
	],
	 "_skin_": "s7e72f0016774dfe9007b38b611383f6",
	 "_text_": "C",
	 "_top_": {
		 "type": "string",
		 "value": "2dp"
	},
	 "_width_": {
		 "type": "string",
		 "value": "25dp"
	},
	 "_wrapping_": 2,
	 "android": {
		 "textStyle": {
			 "letterSpacing": 0,
			 "strikeThrough": false
		}
	},
	 "canUpdateUI": true,
	 "containerweight": 100,
	 "contentalignment": 4,
	 "id": "lblChecbox",
	 "info": null,
	 "ipad": {
		 "psp": {
			 "wrapping": 2
		}
	},
	 "iphone": {
		 "psp": {
			 "wrapping": 2
		}
	},
	 "iscustomlayout": false,
	 "isvisible": true,
	 "kuid": "a6f2a5791bc041c49ec44ba5a6b88064",
	 "name": "kony.ui.Label",
	 "parent": "flxCheckbox",
	 "pf": "userwidgetmodel",
	 "retaincontentalignment": false,
	 "retainflexpositionproperties": false,
	 "tooltip": "",
	 "wType": "Label",
	 "zindex": 1,
	 "accessibilityconfig": {
		 "a11yLabel": "Checkbox"
	}
}