{
    "@class": "com.kony.gen.viz.model.component.KVizUserWidget",
    "DNDConfig": null,
    "__parentReadjusting__": false,
    "_children_": [],
    "_height_": {
        "type": "string",
        "value": "175dp"
    },
    "_left_": {
        "type": "string",
        "value": "0dp"
    },
    "_margin_": [
        0,
        0,
        0,
        0
    ],
    "_orientation_": 1,
    "_padding_": [
        0,
        0,
        0,
        0
    ],
    "_percent_": true,
    "_render_": true,
    "_skin_": "scbd4cac3526468089bf3013adff0549",
    "_top_": {
        "type": "string",
        "value": "30dp"
    },
    "_width_": {
        "type": "string",
        "value": "100%"
    },
    "android": {},
    "androidwearos": {},
    "areflexpropsreferenced": false,
    "canUpdateUI": true,
    "clipbounds": false,
    "containerweight": 0,
    "dataDiffs": {
        "BannerNUO": {
            "__events__": {},
            "__info__": {
                "isRoot": true,
                "kuid": "dfa38f379a404afdba0729a54c07063f",
                "srcKUID": "b782e27d8289411e86273ee54ffeadb0",
                "wType": "FlexContainer"
            },
            "isVisible": false,
            "responsiveData": {
                "b1": {
                    "isVisible": false,
                    "top": {
                        "type": "string",
                        "value": "15dp"
                    }
                },
                "b2": {
                    "top": {
                        "type": "string",
                        "value": "15dp"
                    }
                }
            },
            "top": {
                "Default": {
                    "type": "string",
                    "value": "30dp"
                }
            }
        },
        "btnAccountsDescriptionCancel": {
            "__events__": {},
            "__info__": {
                "kuid": "c7d9791cd2b74cb2947f65675c4b3b03",
                "srcKUID": "d611fa72861b444eb082409416d4ff96",
                "wType": "Button"
            }
        },
        "flxBannerImage": {
            "__events__": {},
            "__info__": {
                "kuid": "dcab2e6f561c40739b76e1cee0d37047",
                "srcKUID": "b1c87dfb1233466583d371d6a0d36d59",
                "wType": "FlexContainer"
            },
            "top": {
                "Default": {
                    "type": "string",
                    "value": "10dp"
                }
            }
        },
        "flxBannerWrapper": {
            "__events__": {},
            "__info__": {
                "kuid": "b8132161239a44b4b0cf370d27d36ebb",
                "srcKUID": "a67ade5a02ed45cf9ee70e954b0145dd",
                "wType": "FlexContainer"
            },
            "autogrowMode": {
                "Default": 0
            },
            "height": {
                "Default": {
                    "type": "string",
                    "value": "335dp"
                }
            }
        },
        "imgBanner": {
            "__events__": {},
            "__info__": {
                "kuid": "i4cb441697934481ac664467af783aa7",
                "srcKUID": "fc41b424b56d4ba48f53450e29fc4442",
                "wType": "Image"
            },
            "centerX": {
                "Default": {
                    "type": "string",
                    "value": "50%"
                }
            },
            "left": {
                "Default": {
                    "type": "string",
                    "value": ""
                }
            },
            "src": "nuo_banner_1.png",
            "top": {
                "Default": {
                    "type": "string",
                    "value": "0dp"
                }
            }
        },
        "lblChooseEligibilityCriteriaError": {
            "__events__": {},
            "__info__": {
                "kuid": "a65836be039e4588af70448636227d6a",
                "srcKUID": "be923c7f06bb468b8717b9462c6ed5b7",
                "wType": "Label"
            },
            "isVisible": false
        },
        "lblMessage2": {
            "__events__": {},
            "__info__": {
                "kuid": "f903a54d4f2141afa1199cac29f5cb8b",
                "srcKUID": "b70a0c03566f43fc994b4b1f667b81f0",
                "wType": "Label"
            },
            "isVisible": false
        }
    },
    "desktopweb": {},
    "id": "BannerWireTransfer",
    "info": null,
    "ipad": {},
    "iphone": {},
    "iscustomlayout": false,
    "isdatareferenced": false,
    "isvisible": false,
    "kiosk": {},
    "kuid": "dfa38f379a404afdba0729a54c07063f",
    "layouttype": 2,
    "masterType": 0,
    "name": "kony.ui.UserWidgetInstance",
    "parent": "flxRightBar",
    "pf": "frmBulkTransferFiles",
    "responsiveData": {
        "b1": {
            "isVisible": false,
            "top": {
                "type": "string",
                "value": "15dp"
            }
        },
        "b2": {
            "top": {
                "type": "string",
                "value": "15dp"
            }
        }
    },
    "retaincontentalignment": false,
    "retainflexpositionproperties": false,
    "snaptogrid": true,
    "sourceUserWidget": "b782e27d8289411e86273ee54ffeadb0",
    "spa": {},
    "spaan": {},
    "spaandroidtablet": {},
    "spabb": {},
    "spaip": {},
    "spaipad": {},
    "spamobile": {},
    "spatablet": {},
    "spawindowstablet": {},
    "spawinphone8": {},
    "tabrcandroid": {},
    "vizProps": {
        "hidewidgethierarchy": false
    },
    "vizprops": {
        "hidewidgethierarchy": false
    },
    "wType": "UserWidgetInstance",
    "windows10": {},
    "windows8": {},
    "winphone10": {},
    "winphone8": {}
}