{
    "DNDConfig": null,
    "__parentReadjusting__": false,
    "_height_": {
        "type": "string",
        "value": "220dp"
    },
    "_left_": {
        "type": "string",
        "value": "12dp"
    },
    "_margin_": [
        0,
        0,
        0,
        0
    ],
    "_orientation_": 6,
    "_padding_": [
        0,
        0,
        0,
        0
    ],
    "_percent_": true,
    "_skin_": "s24c92fc23b14f5484b693ee9b8a9b35",
    "_top_": {
        "type": "string",
        "value": "220dp"
    },
    "_width_": {
        "type": "string",
        "value": "100%"
    },
    "allboxes": [],
    "canUpdateUI": true,
    "children": [
        "lblCreatetemplate",
        "lblAddNewTemplate",
        "lblsamplefile"
    ],
    "clipbounds": true,
    "containerweight": 100,
    "enablescrolling": true,
    "id": "flxNoTemplates",
    "info": null,
    "iscustomlayout": false,
    "isvisible": true,
    "kuid": "hbbadb6a01d94362b8429b2d77c4a06e",
    "layouttype": 2,
    "name": "kony.ui.FlexContainer",
    "parent": "flxNoTransactions",
    "pf": "frmBulkTransferFiles",
    "responsiveData": {
        "b1": {
            "height": {
                "type": "string",
                "value": "100dp"
            },
            "left": {
                "type": "string",
                "value": "0dp"
            }
        },
        "b2": {
            "height": {
                "type": "string",
                "value": "120dp"
            },
            "top": {
                "type": "string",
                "value": "220dp"
            }
        },
        "b3": {
            "height": {
                "type": "string",
                "value": "120dp"
            }
        }
    },
    "retaincontentalignment": false,
    "retainflexpositionproperties": false,
    "retainflowhorizontalalignment": false,
    "snapgridsize": 10,
    "snaptogrid": true,
    "wType": "FlexContainer",
    "widgetalignment": 1,
    "zindex": 1
}