{
    "DNDConfig": null,
    "__parentReadjusting__": false,
    "_height_": {
        "type": "ref",
        "value": "preferred"
    },
    "_left_": {
        "type": "string",
        "value": "0dp"
    },
    "_margin_": [
        0,
        0,
        0,
        0
    ],
    "_orientation_": 6,
    "_padding_": [
        0,
        0,
        0,
        0
    ],
    "_percent_": true,
    "_skin_": "s24c92fc23b14f5484b693ee9b8a9b35",
    "_top_": {
        "type": "string",
        "value": "0dp"
    },
    "_width_": {
        "type": "string",
        "value": "100%"
    },
    "allboxes": [],
    "autogrowmode": 1,
    "canUpdateUI": true,
    "children": [
        "Search",
        "flxListBox",
        "flxSearchSortSeparator1",
        "flxSearchSortSeparator2"
    ],
    "clipbounds": true,
    "containerweight": 100,
    "enablescrolling": true,
    "id": "flxSearch",
    "info": null,
    "isvisible": true,
    "kuid": "bf1986f98b5e4e4389f94a560265f401",
    "layouttype": 4,
    "name": "kony.ui.FlexContainer",
    "parent": "flxMainContainerTable",
    "pf": "frmBulkTransferFiles",
    "responsiveData": {
        "b1": {
            "layoutType": 2
        },
        "b2": {
            "layoutType": 2
        },
        "b3": {
            "layoutType": 2
        },
        "b4": {
            "layoutType": 2,
            "skin": "s330a36b89a94f72aa4ac72c87271388"
        }
    },
    "snapgridsize": 10,
    "snaptogrid": true,
    "wType": "FlexContainer",
    "widgetalignment": 1,
    "zindex": 1
}