{
    "DNDConfig": null,
    "__parentReadjusting__": false,
    "_height_": {
        "type": "string",
        "value": "50dp"
    },
    "_left_": {
        "type": "string",
        "value": "0dp"
    },
    "_margin_": [
        0,
        0,
        0,
        0
    ],
    "_orientation_": 6,
    "_padding_": [
        0,
        0,
        0,
        0
    ],
    "_percent_": true,
    "_skin_": "se2c51e2a5574dcc8bc00a48bc7649ca",
    "_top_": {
        "type": "string",
        "value": "0dp"
    },
    "_width_": {
        "type": "string",
        "value": "100%"
    },
    "allboxes": [],
    "canUpdateUI": true,
    "children": [
        "flxFileName",
        "flxAddedBy",
        "flxAddedOn",
        "lblActionsMakeTransfer"
    ],
    "clipbounds": true,
    "containerweight": 100,
    "enablescrolling": true,
    "id": "flxSortMakeTransfers",
    "info": null,
    "isvisible": true,
    "kuid": "fc6c1c7fea5b44b6acb6866da4dfe151",
    "layouttype": 2,
    "name": "kony.ui.FlexContainer",
    "parent": "flxMainContainerTable",
    "pf": "frmBulkTransferFiles",
    "responsiveData": {
        "b3": {
            "skin": "s8b9c3471e9f4cdcb3133f2cb3fec6fa"
        },
        "b4": {
            "height": {
                "type": "string",
                "value": "0dp"
            },
            "isVisible": false,
            "width": {
                "type": "string",
                "value": "0%"
            }
        }
    },
    "snapgridsize": 10,
    "snaptogrid": true,
    "wType": "FlexContainer",
    "widgetalignment": 1,
    "zindex": 5
}