{
    "@class": "com.kony.gen.viz.model.component.KVizLabel",
    "DNDConfig": null,
    "__parentReadjusting__": false,
    "_height_": {
        "type": "ref",
        "value": "preferred"
    },
    "_left_": {
        "type": "string",
        "value": "3.77%"
    },
    "_margin_": [
        1,
        1,
        1,
        1
    ],
    "_padding_": [
        0,
        0,
        0,
        0
    ],
    "_skin_": "s5cfc7eedaa64cd6b4c1972cc50846ef",
    "_text_": "PAY A PERSON",
    "_width_": {
        "type": "string",
        "value": "85%"
    },
    "_wrapping_": 2,
    "accessibilityconfig": {
        "a11yLabel": "You dont have any recipients in this category. Please add an international/Domestic recipient to continue."
    },
    "android": {
        "textStyle": {
            "letterSpacing": 0,
            "strikeThrough": false
        }
    },
    "canUpdateUI": true,
    "centery": {
        "type": "string",
        "value": "50%"
    },
    "containerweight": 100,
    "contentalignment": 4,
    "id": "lblNoRecipientsWarning",
    "info": null,
    "ipad": {
        "psp": {
            "wrapping": 2
        }
    },
    "iphone": {
        "psp": {
            "wrapping": 2
        }
    },
    "isvisible": true,
    "kuid": "ib8ce35d959c406c8bf6816f0f31d4ea",
    "name": "kony.ui.Label",
    "parent": "flxMessage",
    "pf": "frmBulkTransferFiles",
    "texti18n": "i18n.WireTransfer.NoRecipientsDomestic/InternationalAccounts",
    "tooltip": "",
    "wType": "Label",
    "zindex": 1
}