{
    "@class": "com.kony.gen.viz.model.component.KVizListBox",
    "DNDConfig": null,
    "__parentReadjusting__": false,
    "_height_": {
        "type": "string",
        "value": "40dp"
    },
    "_left_": {
        "type": "string",
        "value": "26dp"
    },
    "_margin_": [
        0,
        0,
        0,
        0
    ],
    "_padding_": [
        3,
        0,
        0,
        0
    ],
    "_placeholder_": "Please Select",
    "_right_": {
        "type": "number",
        "value": ""
    },
    "_skin_": "s4d3eb56cd07471fa3bd40485a2c2e84",
    "_top_": {
        "type": "string",
        "value": "39dp"
    },
    "_width_": {
        "type": "string",
        "value": "300dp"
    },
    "canUpdateUI": true,
    "centery": {
        "type": "number",
        "value": ""
    },
    "containerweight": 100,
    "contentalignment": 4,
    "dropdownimage": "listboxarw.png",
    "focusskin": "s9eb08f78097439eb767801e8fdeb5cd",
    "groupcells": false,
    "id": "LisiBox1",
    "info": null,
    "iscustomlayout": false,
    "isvisible": true,
    "kuid": "d7360d8205334fa2851973b82a8331e8",
    "masterdata": [
        [
            "lb1",
            "All"
        ],
        [
            "lb2",
            "Files"
        ],
        [
            "lb3",
            "Templates"
        ]
    ],
    "name": "kony.ui.ListBox",
    "parent": "flxListBox",
    "pf": "frmBulkTransferFiles",
    "responsiveData": {
        "b1": {
            "contentAlignment": 4,
            "focusSkin": "s1453959fa2f491bae5788f177010946",
            "height": {
                "type": "string",
                "value": "41dp"
            },
            "left": {
                "type": "string",
                "value": "55dp"
            },
            "skin": "seac89d56be642dd91c4534612c4f3f9",
            "top": {
                "type": "string",
                "value": "0dp"
            },
            "width": {
                "type": "string",
                "value": "140dp"
            }
        },
        "b2": {
            "height": {
                "type": "string",
                "value": "41dp"
            },
            "left": {
                "type": "string",
                "value": "55dp"
            },
            "skin": "seac89d56be642dd91c4534612c4f3f9",
            "top": {
                "type": "string",
                "value": "0dp"
            },
            "width": {
                "type": "string",
                "value": "148dp"
            }
        },
        "b3": {
            "left": {
                "type": "string",
                "value": "53dp"
            },
            "right": {
                "type": "string",
                "value": ""
            },
            "skin": "seac89d56be642dd91c4534612c4f3f9",
            "top": {
                "type": "string",
                "value": "0dp"
            },
            "width": {
                "type": "string",
                "value": "174dp"
            }
        },
        "b4": {
            "centerY": {
                "type": "string",
                "value": "50%"
            },
            "height": {
                "type": "string",
                "value": "50dp"
            },
            "left": {
                "type": "string",
                "value": "61dp"
            },
            "right": {
                "type": "string",
                "value": "10dp"
            },
            "skin": "seac89d56be642dd91c4534612c4f3f9",
            "top": {
                "type": "string",
                "value": "0dp"
            },
            "width": {
                "type": "string",
                "value": ""
            }
        }
    },
    "retaincontentalignment": false,
    "retainflexpositionproperties": false,
    "selectedkeys": null,
    "selectedkeyvalue": null,
    "selectedkeyvalues": null,
    "size": 18,
    "viewconfig": {
        "toggleViewConfig": {
            "viewStyle": 0
        }
    },
    "viewtype": 0,
    "wType": "ListBox",
    "zindex": 1
}