{
    "@class": "com.kony.gen.viz.model.component.KVizUserWidget",
    "DNDConfig": null,
    "__parentReadjusting__": false,
    "_children_": [],
    "_height_": {
        "type": "ref",
        "value": "preferred"
    },
    "_left_": {
        "type": "string",
        "value": "0dp"
    },
    "_margin_": [
        0,
        0,
        0,
        0
    ],
    "_orientation_": 1,
    "_padding_": [
        0,
        0,
        0,
        0
    ],
    "_percent_": true,
    "_skin_": "s24c92fc23b14f5484b693ee9b8a9b35",
    "_top_": {
        "type": "string",
        "value": "0dp"
    },
    "_width_": {
        "type": "string",
        "value": "100%"
    },
    "areflexpropsreferenced": false,
    "autogrowmode": 1,
    "canUpdateUI": true,
    "clipbounds": true,
    "containerweight": 0,
    "dataDiffs": {
        "AllForms": {
            "__events__": {},
            "__info__": {
                "kuid": "d8866f78deaf407799676e9858b4f880",
                "srcKUID": "b38249009bcf4f298d0684471a8824e2",
                "wType": "FlexContainer"
            }
        },
        "CopyflxInfo0a2966745b9e643": {
            "__events__": {},
            "__info__": {
                "kuid": "i129a085a0f644a7b7981ea94a67b433",
                "srcKUID": "hcccc39aee5d406a88f24bb69ffc69d8",
                "wType": "FlexContainer"
            }
        },
        "CopyimgInfoIcon0c5e8897ff2be47": {
            "__events__": {},
            "__info__": {
                "kuid": "g9016a7ea56f4687b3f6936470d2cc39",
                "srcKUID": "d24d33d8bb2f47d3b6deee422b1a1d12",
                "wType": "Image"
            }
        },
        "RichTextInfo": {
            "__events__": {},
            "__info__": {
                "kuid": "ad684902cc4744d8b506fa62e5f67ac7",
                "srcKUID": "c5ef2d6b359d45b69c8e4796658724ff",
                "wType": "RichText"
            }
        },
        "flxAccountInfoForAccountTransfer": {
            "__events__": {},
            "__info__": {
                "kuid": "af9599c79ec249f78e19b5a1565b2ba9",
                "srcKUID": "a20258bb94e4461cbc9b27078478fb9c",
                "wType": "FlexContainer"
            },
            "responsiveData": {},
            "top": {
                "Default": {
                    "type": "string",
                    "value": "0dp"
                }
            }
        },
        "flxAccountType": {
            "__events__": {},
            "__info__": {
                "kuid": "h1ad78567e3943fa93dc2485a875e27c",
                "srcKUID": "fa25320decdd4b89a86f623eeefdc3b8",
                "wType": "FlexContainer"
            }
        },
        "flxAddAccountWindow": {
            "__events__": {},
            "__info__": {
                "kuid": "e5f26ce0f2ab4adbbdd7e13c541eca4e",
                "srcKUID": "af1f73154ce64efdbbc461323e1aeb40",
                "wType": "FlexContainer"
            }
        },
        "flxAddBulkTransferFile": {
            "__events__": {},
            "__info__": {
                "kuid": "f80399f2efa0406c9762c126dc809bcb",
                "srcKUID": "c3e292e6d63444d0ae3590fffdbe5b22",
                "wType": "FlexContainer"
            },
            "responsiveData": {},
            "top": {
                "Default": {
                    "type": "string",
                    "value": "0dp"
                }
            }
        },
        "flxAddInternationalAccount": {
            "__events__": {},
            "__info__": {
                "kuid": "dcbea9ab24964734b155029c40b89bf9",
                "srcKUID": "d2607841be804a40b8a691b374d7c6bf",
                "wType": "FlexContainer"
            },
            "responsiveData": {},
            "top": {
                "Default": {
                    "type": "string",
                    "value": "0dp"
                }
            }
        },
        "flxAddKonyAccount": {
            "__events__": {},
            "__info__": {
                "kuid": "hd9f1964e52743c8a01296e2c060399a",
                "srcKUID": "eb583846f48542898c4c023da4da9aae",
                "wType": "FlexContainer"
            }
        },
        "flxAddNonKonyAccount": {
            "__events__": {},
            "__info__": {
                "kuid": "a1044cf5ad1b48eeaf7b2d5da2910a8a",
                "srcKUID": "c49b6be6b57f4b1e9f32826722ee4653",
                "wType": "FlexContainer"
            },
            "responsiveData": {},
            "top": {
                "Default": {
                    "type": "string",
                    "value": "0dp"
                }
            }
        },
        "flxBulkTransfer": {
            "__events__": {},
            "__info__": {
                "kuid": "ef167beff03744fab41e27a494785379",
                "srcKUID": "if4ff7b2531f4f3e81dc01b33ae2dbc1",
                "wType": "FlexContainer"
            },
            "responsiveData": {},
            "top": {
                "Default": {
                    "type": "string",
                    "value": "0dp"
                }
            }
        },
        "flxCreateNewTemplate": {
            "__events__": {},
            "__info__": {
                "kuid": "d20097cd339f460cb2faee99c8a89ba9",
                "srcKUID": "fa09d7cc39f54a35bc67d534a619bcca",
                "wType": "FlexContainer"
            },
            "responsiveData": {},
            "top": {
                "Default": {
                    "type": "string",
                    "value": "0dp"
                }
            }
        },
        "flxCross": {
            "__events__": {},
            "__info__": {
                "kuid": "a52e451b0db94c34a53f6ddc03b8945c",
                "srcKUID": "a39ae9f82d0a49b3aa5050b04830a14c",
                "wType": "FlexContainer"
            }
        },
        "flxInfo": {
            "__events__": {},
            "__info__": {
                "kuid": "ca833470567d4c2cb426e0e1b4ac082b",
                "srcKUID": "j0495c8fc5d948a9b73c8c45eebdd0e1",
                "wType": "FlexContainer"
            }
        },
        "flxInformation": {
            "__events__": {},
            "__info__": {
                "kuid": "c457001a47db417686319ccf272b367a",
                "srcKUID": "eacdc6e0327a4a6abe1fab7487539414",
                "wType": "FlexContainer"
            }
        },
        "flxInformationText": {
            "__events__": {},
            "__info__": {
                "kuid": "e806f85f4a284ee4b797d30f865aaf11",
                "srcKUID": "abf727bece8840d4adaba25790fcda24",
                "wType": "FlexContainer"
            }
        },
        "imgAccountInfoForAccountTransfer": {
            "__events__": {},
            "__info__": {
                "kuid": "da0013cf2fe247c8b3edc9a5761fc65a",
                "srcKUID": "b6cd4e8a8c9a43978fd6470d4782d3c8",
                "wType": "Image"
            }
        },
        "imgAddBulkTransferFile": {
            "__events__": {},
            "__info__": {
                "kuid": "ef938b15b30b486c80f46a4a753042f7",
                "srcKUID": "d2f94153bbc54f828e6c935c1a86b846",
                "wType": "Image"
            }
        },
        "imgBulkTransfer": {
            "__events__": {},
            "__info__": {
                "kuid": "c721ca42247e44ca9fc08261fff8b2cc",
                "srcKUID": "a5a41cf2f81b4b7dacf5fe11d2a6af13",
                "wType": "Image"
            }
        },
        "imgCross": {
            "__events__": {},
            "__info__": {
                "kuid": "f83534dec3e64d17a53b268897c599b4",
                "srcKUID": "b6779ba9570a4af0b3c812a2562e8c76",
                "wType": "Image"
            }
        },
        "imgInfo": {
            "__events__": {},
            "__info__": {
                "kuid": "jb7c9877c66745069e7b6b6d0fb16d97",
                "srcKUID": "ea7125af68124be08d7b99d38750ab6f",
                "wType": "Image"
            }
        },
        "imgInfoIcon": {
            "__events__": {},
            "__info__": {
                "kuid": "j63c4c6bb8614554b4365b4fc24fe118",
                "srcKUID": "fefbbae13c6f41159eabfcd9a5134d21",
                "wType": "Image"
            },
            "src": "info_grey.png"
        },
        "imgToolTip": {
            "__events__": {},
            "__info__": {
                "kuid": "j4df9b6481844f118e91ad13693a8f02",
                "srcKUID": "j31c3d12b2fb4fd480aa08101c0c5fbc",
                "wType": "Image"
            }
        },
        "lblAccountInfoForAccountTransfer": {
            "__events__": {},
            "__info__": {
                "kuid": "d9b8fb8667a64ae79caefb975091eea1",
                "srcKUID": "gbc1e25a00984a6fa8a6d63e12d76238",
                "wType": "Label"
            }
        },
        "lblAddBulkTransferFile": {
            "__events__": {},
            "__info__": {
                "kuid": "e6f357e098bc4339b0d599a2e594f059",
                "srcKUID": "ebdaa90d7b8c47e9a776d2d0b7cecde5",
                "wType": "Label"
            }
        },
        "lblAddInternationalAccount": {
            "__events__": {},
            "__info__": {
                "kuid": "c12935375a7941d8974d8899af1dbfcb",
                "srcKUID": "jeb2e34cbb604f47ba2b106aa302e7ec",
                "wType": "Label"
            },
            "responsiveData": {},
            "top": {
                "Default": {
                    "type": "string",
                    "value": "0dp"
                }
            }
        },
        "lblAddKonyAccount": {
            "__events__": {},
            "__info__": {
                "kuid": "g15a409292b04db5ba6120effe42b7f0",
                "srcKUID": "a802baae7034445dbe8033492a94c3c4",
                "wType": "Label"
            }
        },
        "lblAddNonKonyAccount": {
            "__events__": {},
            "__info__": {
                "kuid": "a3a593c2c0f344b0830e5b8eecbcb5d8",
                "srcKUID": "c2aeafdce6134bd6bc1c0b4407da4795",
                "wType": "Label"
            }
        },
        "lblBulkTransfer": {
            "__events__": {},
            "__info__": {
                "kuid": "a77e7854b6f549a98d9ff4e50c5dfe9f",
                "srcKUID": "ac41fe57c1f0479baf4439e0567321d1",
                "wType": "Label"
            }
        },
        "lblCreateNewTemplate": {
            "__events__": {},
            "__info__": {
                "kuid": "i2cbecabad0c42bc8b6e0fbc6f1f798f",
                "srcKUID": "c04f7cbd0e55403bba955397b79e7bb8",
                "wType": "Label"
            },
            "i18n_text": "i18n.wireTransfers.CreateNewTemplate",
            "responsiveData": {
                "b2": {
                    "width": {
                        "type": "string",
                        "value": "100%"
                    }
                }
            },
            "width": {
                "Default": {
                    "type": "ref",
                    "value": "preferred"
                }
            }
        },
        "lblInfo": {
            "__events__": {},
            "__info__": {
                "kuid": "ece6a5193c354a4983ee8f2fdb66a89c",
                "srcKUID": "c2c143861a834871b01240e7cb4fd0ed",
                "wType": "Label"
            }
        },
        "lblSeparator": {
            "__events__": {},
            "__info__": {
                "kuid": "j465151843cf478aacdd59f300b92881",
                "srcKUID": "a0c02cf3425942828e09cee1c58ac865",
                "wType": "Label"
            },
            "bottom": {
                "Default": {
                    "type": "string",
                    "value": ""
                }
            },
            "responsiveData": {},
            "top": {
                "Default": {
                    "type": "string",
                    "value": "49dp"
                }
            }
        },
        "lblSeparator1": {
            "__events__": {},
            "__info__": {
                "kuid": "e16bfd89c7bd4831b778b2a91b9260a7",
                "srcKUID": "afded7624890486d8d7b2f622920fffb",
                "wType": "Label"
            },
            "bottom": {
                "Default": {
                    "type": "string",
                    "value": ""
                }
            },
            "responsiveData": {},
            "top": {
                "Default": {
                    "type": "string",
                    "value": "49dp"
                }
            }
        },
        "lblSeparator2": {
            "__events__": {},
            "__info__": {
                "kuid": "ed44031532b443959a0c9a87affe9584",
                "srcKUID": "j68aeca9f6d44c788df19712b4067db8",
                "wType": "Label"
            },
            "bottom": {
                "Default": {
                    "type": "string",
                    "value": ""
                }
            },
            "responsiveData": {},
            "top": {
                "Default": {
                    "type": "string",
                    "value": "49dp"
                }
            }
        },
        "lblSeparator3": {
            "__events__": {},
            "__info__": {
                "kuid": "dd1fe0ef9c0e4357b4dc0b7f45107882",
                "srcKUID": "bd300794d11841db85e1148c33ae4e1e",
                "wType": "Label"
            },
            "bottom": {
                "Default": {
                    "type": "string",
                    "value": ""
                }
            },
            "responsiveData": {},
            "top": {
                "Default": {
                    "type": "string",
                    "value": "49dp"
                }
            }
        },
        "lblSeparator4": {
            "__events__": {},
            "__info__": {
                "kuid": "f6cf0063950c4d948aab67c47262cfbd",
                "srcKUID": "be1c055b6ad944b4869c21a3ab42d94a",
                "wType": "Label"
            },
            "bottom": {
                "Default": {
                    "type": "string",
                    "value": ""
                }
            },
            "responsiveData": {},
            "top": {
                "Default": {
                    "type": "string",
                    "value": "49dp"
                }
            }
        },
        "lblSeparator5": {
            "__events__": {},
            "__info__": {
                "kuid": "d071de38e4c248639153e76ba05495b9",
                "srcKUID": "f63eab80ecd640e78848da7611489c84",
                "wType": "Label"
            },
            "bottom": {
                "Default": {
                    "type": "string",
                    "value": ""
                }
            },
            "responsiveData": {},
            "top": {
                "Default": {
                    "type": "string",
                    "value": "49dp"
                }
            }
        },
        "lblSeperator": {
            "__events__": {},
            "__info__": {
                "kuid": "a1dbc707a3ab455eb627b720a94f32dd",
                "srcKUID": "j7a61ca35c8840f3bcbfe8511da12e6b",
                "wType": "Label"
            }
        },
        "wireTransferRightbar": {
            "__events__": {},
            "__info__": {
                "isRoot": true,
                "kuid": "i52a0b75fa1d45c896c98df846ddc8a1",
                "srcKUID": "f828159eeeac4ad394a5054626224524",
                "wType": "FlexContainer"
            }
        }
    },
    "enablescrolling": true,
    "id": "wireTransferRightbar",
    "info": null,
    "iscustomlayout": false,
    "isdatareferenced": false,
    "isvisible": true,
    "kuid": "i52a0b75fa1d45c896c98df846ddc8a1",
    "layouttype": 2,
    "masterType": 0,
    "name": "kony.ui.UserWidgetInstance",
    "parent": "flxRightBar",
    "pf": "frmBulkTransferFiles",
    "retaincontentalignment": false,
    "retainflexpositionproperties": false,
    "retainflowhorizontalalignment": false,
    "snapgridsize": 10,
    "snaptogrid": true,
    "sourceUserWidget": "f828159eeeac4ad394a5054626224524",
    "wType": "UserWidgetInstance"
}