{
    "@class": "com.kony.gen.viz.model.component.KVizUserWidget",
    "DNDConfig": null,
    "__parentReadjusting__": false,
    "_android_": {},
    "_androidwearos_": {},
    "_children_": [],
    "_desktopweb_": {},
    "_height_": {
        "type": "ref",
        "value": "preferred"
    },
    "_ipad_": {},
    "_iphone_": {},
    "_kiosk_": {},
    "_left_": {
        "type": "string",
        "value": "0dp"
    },
    "_margin_": [
        0,
        0,
        0,
        0
    ],
    "_orientation_": 1,
    "_padding_": [
        0,
        0,
        0,
        0
    ],
    "_percent_": true,
    "_render_": true,
    "_responsiveData_": {},
    "_skin_": "sdc143f0e5b64ae3a3f155f691c73fa7",
    "_spa_": {},
    "_spaan_": {},
    "_spaandroidtablet_": {},
    "_spabb_": {},
    "_spaip_": {},
    "_spaipad_": {},
    "_spamobile_": {},
    "_spatablet_": {},
    "_spawindowstablet_": {},
    "_spawinphone8_": {},
    "_tabrcandroid_": {},
    "_top_": {
        "type": "string",
        "value": "0dp"
    },
    "_vizProps_": {
        "hidewidgethierarchy": false
    },
    "_width_": {
        "type": "string",
        "value": "100%"
    },
    "_windows10_": {},
    "_windows8_": {},
    "_winphone10_": {},
    "_winphone8_": {},
    "areflexpropsreferenced": false,
    "autogrowmode": 1,
    "canUpdateUI": true,
    "clipbounds": false,
    "containerweight": 0,
    "dataDiffs": {
        "CopyflxTitleSeparator0bdbc19527e804c": {
            "__events__": {},
            "__info__": {
                "kuid": "ib41ac55ff7140188f71e96175b4f607",
                "srcKUID": "fd8f4943e38f458aaf00d26b7e6592e1",
                "wType": "FlexContainer"
            }
        },
        "accountList": {
            "__events__": {},
            "__info__": {
                "isRoot": true,
                "kuid": "c147d33d75bf47968c75b55016d604dd",
                "srcKUID": "f276f391b5ae4be4bb5d47e93b31caf8",
                "wType": "FlexContainer"
            },
            "isVisible": true
        },
        "btnShowAllAccounts": {
            "__events__": {},
            "__info__": {
                "kuid": "a9aceed8548946b08597335d29222e9c",
                "srcKUID": "gca8795538d34bf79d6a25f34b96791d",
                "wType": "Label"
            },
            "responsiveData": {
                "b1": {},
                "b2": {},
                "b3": {
                    "right": {
                        "type": "string",
                        "value": "60dp"
                    }
                },
                "b4": {}
            },
            "right": {
                "Default": {
                    "type": "string",
                    "value": "18%"
                }
            }
        },
        "flxAccountsHeader": {
            "__events__": {},
            "__info__": {
                "kuid": "a42861a5caf747898c3dc12e30006941",
                "srcKUID": "fb23480919844baf86d766b2213f693c",
                "wType": "FlexContainer"
            }
        },
        "flxAccountsHeaderWrapper": {
            "__events__": {},
            "__info__": {
                "kuid": "e34f78df1bc14d02a912c044d5692262",
                "srcKUID": "b332faf1e4e2403497df8547882331eb",
                "wType": "FlexContainer"
            },
            "left": {
                "Default": {
                    "type": "string",
                    "value": "15dp"
                }
            }
        },
        "flxAccountsRightContainer": {
            "__events__": {},
            "__info__": {
                "kuid": "bacd34811b6742bc907279c7f66d48b5",
                "srcKUID": "b0f985b5bcf5435490a4f403973fa645",
                "wType": "FlexContainer"
            },
            "responsiveData": {
                "b1": {},
                "b2": {},
                "b4": {}
            },
            "right": {
                "Default": {
                    "type": "string",
                    "value": "0%"
                }
            }
        },
        "flxAccountsSegments": {
            "__events__": {},
            "__info__": {
                "kuid": "jd17a802dc9344ae9e8284757ea5e880",
                "srcKUID": "c58c973931c14273899a66f7bf87d875",
                "wType": "FlexContainer"
            },
            "responsiveData": {},
            "top": {
                "Default": {
                    "type": "string",
                    "value": "1dp"
                }
            }
        },
        "flxDropDown": {
            "__events__": {},
            "__info__": {
                "kuid": "d2af85d2b60a4440993101a74657fcef",
                "srcKUID": "b6634ebd0e9b4d28959d03fa2a490831",
                "wType": "FlexContainer"
            },
            "responsiveData": {
                "b1": {},
                "b2": {},
                "b3": {
                    "width": {
                        "type": "string",
                        "value": "60dp"
                    }
                },
                "b4": {}
            },
            "right": {
                "Default": {
                    "type": "string",
                    "value": "0dp"
                }
            },
            "width": {}
        },
        "flxHolisticAccountsHeader": {
            "__events__": {},
            "__info__": {
                "kuid": "h06cbcd0b9b044e1a212a616bbef05bf",
                "srcKUID": "b9e8e27ea2954359a84eb7e938058a49",
                "wType": "FlexContainer"
            }
        },
        "flxHolisticAccountsHeaderWrapper": {
            "__events__": {},
            "__info__": {
                "kuid": "e130f1cc8a054c67beb91e5b5e2ce35d",
                "srcKUID": "a0346089fb3e43dd83aa2d88db8b6fd4",
                "wType": "FlexContainer"
            }
        },
        "flxHolisticAccountsSegments": {
            "__events__": {},
            "__info__": {
                "kuid": "c7e5bd26e378416893f29c8dfdd64e0c",
                "srcKUID": "b450882e8b0947d680cfe1d7bcca6689",
                "wType": "FlexContainer"
            }
        },
        "flxTitleSeparator": {
            "__events__": {},
            "__info__": {
                "kuid": "da957c43bd9744afbbf8ecd56e72dc2a",
                "srcKUID": "b044f9c93350432e96e59285c4adab99",
                "wType": "FlexContainer"
            }
        },
        "imgAccountsHeader": {
            "__events__": {},
            "__info__": {
                "kuid": "bf603857b07c4fc39935523d9392d256",
                "srcKUID": "e31df4e8cc3b4c528d334dd782ed8af1",
                "wType": "Label"
            }
        },
        "imgHolisticAccountsHeader": {
            "__events__": {},
            "__info__": {
                "kuid": "a2d287b1099342ed8998de2d8b459b09",
                "srcKUID": "b40e88595888471a9d6a5ffad62dfc34",
                "wType": "Image"
            },
            "src": "accounts_blue.png"
        },
        "lblAccountsHeader": {
            "__events__": {},
            "__info__": {
                "kuid": "bd6dacda5a9c429bb6c5aac753c80d1e",
                "srcKUID": "a1f39800dcdb4cf7b0b38515eb9c1120",
                "wType": "Label"
            }
        },
        "lblHolisticAccountsHeader": {
            "__events__": {},
            "__info__": {
                "kuid": "f6cfc0b298174a8b86e042a5a0461f68",
                "srcKUID": "b4f44481cbe94b5dba377c7655eadcef",
                "wType": "Label"
            },
            "i18n_text": "i18n.AccountsLanding.OTHERBANKACCOUNTS"
        },
        "lblImgDropdown": {
            "__events__": {},
            "__info__": {
                "kuid": "b11fb356e5b941868da73efe7d3009c4",
                "srcKUID": "j2163829612746b99967488523b2bb24",
                "wType": "Label"
            },
            "centerX": {
                "Default": {
                    "type": "string",
                    "value": "53%"
                }
            },
            "responsiveData": {}
        },
        "segAccounts": {
            "__events__": {},
            "__info__": {
                "kuid": "a14c491cade6418b82459d79fe7627ba",
                "srcKUID": "h0da993b03e742cfa91e8b61778aad19",
                "wType": "Segment"
            },
            "data": {
                "desktop": [{
                    "CopyimgMenu0a97e7ab1e83140": {
                        "@class": "com.viz.ide.model.segment.ImageSegmentData",
                        "src": ""
                    },
                    "CopyimgThreeDotIcon0eac906fccd3d43": {
                        "@class": "com.viz.ide.model.segment.SimpleTextSegmentData",
                        "text": ""
                    },
                    "btn": {
                        "@class": "com.viz.ide.model.segment.SimpleTextSegmentData",
                        "text": ""
                    },
                    "imgBankName": {
                        "@class": "com.viz.ide.model.segment.ImageSegmentData",
                        "src": ""
                    },
                    "imgFavourite": {
                        "@class": "com.viz.ide.model.segment.ImageSegmentData",
                        "src": ""
                    },
                    "imgIdentifier": {
                        "@class": "com.viz.ide.model.segment.ImageSegmentData",
                        "src": ""
                    },
                    "imgInfo": {
                        "@class": "com.viz.ide.model.segment.ImageSegmentData",
                        "src": ""
                    },
                    "imgMenu": {
                        "@class": "com.viz.ide.model.segment.ImageSegmentData",
                        "src": ""
                    },
                    "imgStarIcon": {
                        "@class": "com.viz.ide.model.segment.SimpleTextSegmentData",
                        "text": ""
                    },
                    "imgThreeDotIcon": {
                        "@class": "com.viz.ide.model.segment.SimpleTextSegmentData",
                        "text": ""
                    },
                    "imgWarning": {
                        "@class": "com.viz.ide.model.segment.ImageSegmentData",
                        "src": ""
                    },
                    "lblAccountName": {
                        "@class": "com.viz.ide.model.segment.SimpleTextSegmentData",
                        "text": ""
                    },
                    "lblAccountNumber": {
                        "@class": "com.viz.ide.model.segment.SimpleTextSegmentData",
                        "text": ""
                    },
                    "lblAvailableBalanceTitle": {
                        "@class": "com.viz.ide.model.segment.SimpleTextSegmentData",
                        "text": ""
                    },
                    "lblAvailableBalanceValue": {
                        "@class": "com.viz.ide.model.segment.SimpleTextSegmentData",
                        "text": ""
                    }
                }]
            }
        },
        "segHolisticAccounts": {
            "__events__": {},
            "__info__": {
                "kuid": "aa3f703a31b243c49f9b1a2a59f6000a",
                "srcKUID": "ga15efb828054568879cb8c6a2b80834",
                "wType": "Segment"
            }
        }
    },
    "id": "accountList",
    "info": null,
    "isdatareferenced": false,
    "issegmentchild": false,
    "isvisible": true,
    "kuid": "cfdee1c5f7e74d6c873dbf2a4d4e6a5a",
    "layouttype": 4,
    "masterType": 0,
    "name": "kony.ui.UserWidgetInstance",
    "parent": "flxLeftContainer",
    "pf": "frmAccountsLanding",
    "snaptogrid": true,
    "sourceUserWidget": "f276f391b5ae4be4bb5d47e93b31caf8",
    "vizprops": {
        "hidewidgethierarchy": false
    },
    "wType": "UserWidgetInstance"
}