{
    "@class": "com.kony.gen.viz.model.component.KVizButton",
    "DNDConfig": null,
    "__parentReadjusting__": false,
    "_height_": {
        "type": "string",
        "value": "57dp"
    },
    "_left_": {
        "type": "string",
        "value": "20dp"
    },
    "_margin_": [
        6,
        6,
        6,
        6
    ],
    "_padding_": [
        0,
        0,
        0,
        0
    ],
    "_skin_": "s611bd2c5d324490aa9f7ed9d412984f",
    "_text_": "CONTACT US",
    "_top_": {
        "type": "string",
        "value": "0dp"
    },
    "_width_": {
        "type": "string",
        "value": "90%"
    },
    "accessibilityconfig": {
        "a11yLabel": "Contact Us"
    },
    "canUpdateUI": true,
    "containerweight": 100,
    "contentalignment": 4,
    "disabledSkins": {
        "focusSkin": "sf44d06ca8224832827ea7fdff757013"
    },
    "displaytext": true,
    "id": "btnContactUs",
    "info": null,
    "isvisible": true,
    "kuid": "g93172b553c343d5ba421f1bb55ceb3c",
    "name": "kony.ui.Button",
    "parent": "flxPrimaryActions",
    "pf": "frmAccountsLanding",
    "responsiveData": {
        "b1": {
            "height": {
                "type": "string",
                "value": "49dp"
            }
        },
        "b2": {},
        "b3": {},
        "b4": {
            "height": {
                "type": "string",
                "value": "49dp"
            }
        }
    },
    "texti18n": "i18n.footer.contactUs",
    "tooltip": "Contact Us",
    "wType": "Button",
    "zindex": 1
}