{
    "@class": "com.kony.gen.viz.model.component.KVizUserWidget",
    "DNDConfig": null,
    "__parentReadjusting__": false,
    "_android_": {},
    "_androidwearos_": {},
    "_children_": [],
    "_desktopweb_": {},
    "_height_": {
        "type": "ref",
        "value": "preferred"
    },
    "_ipad_": {},
    "_iphone_": {},
    "_kiosk_": {},
    "_left_": {
        "type": "string",
        "value": "543dp"
    },
    "_margin_": [
        0,
        0,
        0,
        0
    ],
    "_orientation_": 1,
    "_padding_": [
        0,
        0,
        0,
        0
    ],
    "_percent_": true,
    "_render_": true,
    "_responsiveData_": {
        "b1": {},
        "b2": {
            "right": {
                "type": "string",
                "value": "15dp"
            }
        },
        "b3": {
            "right": {
                "type": "string",
                "value": "10dp"
            },
            "zIndex": 10
        },
        "b4": {}
    },
    "_right_": {
        "type": "number",
        "value": ""
    },
    "_skin_": "s24c92fc23b14f5484b693ee9b8a9b35",
    "_spa_": {},
    "_spaan_": {},
    "_spaandroidtablet_": {},
    "_spabb_": {},
    "_spaip_": {},
    "_spaipad_": {},
    "_spamobile_": {},
    "_spatablet_": {},
    "_spawindowstablet_": {},
    "_spawinphone8_": {},
    "_tabrcandroid_": {},
    "_top_": {
        "type": "string",
        "value": "75dp"
    },
    "_vizProps_": {
        "hide": false,
        "hidewidgethierarchy": false
    },
    "_width_": {
        "type": "string",
        "value": "340dp"
    },
    "_windows10_": {},
    "_windows8_": {},
    "_winphone10_": {},
    "_winphone8_": {},
    "areflexpropsreferenced": false,
    "autogrowmode": 1,
    "canUpdateUI": true,
    "clipbounds": false,
    "containerweight": 0,
    "dataDiffs": {
        "accountTypes": {
            "__events__": {},
            "__info__": {
                "isRoot": true,
                "kuid": "ac7db43013484a04b117f0755102ceba",
                "srcKUID": "b62c12eb1c8d4c288d0cc6b63f1eb6bb",
                "wType": "FlexContainer"
            },
            "autogrowMode": 1,
            "height": {
                "Default": {
                    "type": "ref",
                    "value": "preferred"
                }
            },
            "isVisible": false,
            "left": {
                "Default": {
                    "type": "string",
                    "value": "543dp"
                }
            },
            "responsiveData": {
                "b1": {},
                "b2": {
                    "right": {
                        "type": "string",
                        "value": "15dp"
                    }
                },
                "b3": {
                    "right": {
                        "type": "string",
                        "value": "10dp"
                    },
                    "zIndex": 10
                },
                "b4": {}
            },
            "right": {},
            "top": {
                "Default": {
                    "type": "string",
                    "value": "75dp"
                }
            },
            "vizProps": {
                "hide": false
            },
            "width": {
                "Default": {
                    "type": "string",
                    "value": "340dp"
                }
            },
            "zIndex": {
                "Default": 10
            }
        },
        "flxAccountTypesSegment": {
            "__events__": {},
            "__info__": {
                "kuid": "f036b769e155423b9607be69b3263994",
                "srcKUID": "012bfaa77f29418e90e76556de8e6db8",
                "wType": "FlexContainer"
            },
            "autogrowMode": 1,
            "height": {
                "Default": {
                    "type": "ref",
                    "value": "preferred"
                }
            }
        },
        "imgToolTip": {
            "__events__": {},
            "__info__": {
                "kuid": "c7b5e5400b5f4ad3a90199c94792ec90",
                "srcKUID": "38b535966b4c476e9b87c15b828b2245",
                "wType": "Image"
            },
            "left": {
                "Default": {
                    "type": "string",
                    "value": ""
                }
            },
            "responsiveData": {
                "b1": {},
                "b2": {},
                "b4": {}
            },
            "right": {
                "Default": {
                    "type": "string",
                    "value": "17dp"
                }
            },
            "src": "tool_tip.png"
        },
        "segAccountTypes": {
            "__events__": {},
            "__info__": {
                "kuid": "f71cd3293c704c1c8098dd1bc70f93bd",
                "srcKUID": "d42b5ca698e0494ca8a5e305a01a9418",
                "wType": "Segment"
            },
            "autogrowMode": 1,
            "data": {
                "desktop": [{
                        "lblSeparator": {
                            "@class": "com.viz.ide.model.segment.SimpleTextSegmentData",
                            "text": "label"
                        },
                        "lblUsers": {
                            "@class": "com.viz.ide.model.segment.SimpleTextSegmentData",
                            "i18nkey": "i18n.Accounts.ShowAllAccounts",
                            "text": "Label"
                        }
                    },
                    {
                        "lblSeparator": {
                            "@class": "com.viz.ide.model.segment.SimpleTextSegmentData",
                            "text": "label"
                        },
                        "lblUsers": {
                            "@class": "com.viz.ide.model.segment.SimpleTextSegmentData",
                            "i18nkey": "i18n.Accounts.ShowkonyAccounts",
                            "text": "Label"
                        }
                    },
                    {
                        "lblSeparator": {
                            "@class": "com.viz.ide.model.segment.SimpleTextSegmentData",
                            "text": "label"
                        },
                        "lblUsers": {
                            "@class": "com.viz.ide.model.segment.SimpleTextSegmentData",
                            "i18nkey": "i18n.Accounts.ShowBankOfAmericaAccounts",
                            "text": "Label"
                        }
                    },
                    {
                        "lblSeparator": {
                            "@class": "com.viz.ide.model.segment.SimpleTextSegmentData",
                            "text": "label"
                        },
                        "lblUsers": {
                            "@class": "com.viz.ide.model.segment.SimpleTextSegmentData",
                            "i18nkey": "i18n.Accounts.ShowChaseBANKAccounts",
                            "text": "Label"
                        }
                    },
                    {
                        "lblSeparator": {
                            "@class": "com.viz.ide.model.segment.SimpleTextSegmentData",
                            "text": "label"
                        },
                        "lblUsers": {
                            "@class": "com.viz.ide.model.segment.SimpleTextSegmentData",
                            "i18nkey": "i18n.Accounts.ShowCitiBankAccounts",
                            "text": "Label"
                        }
                    }
                ]
            },
            "height": {
                "Default": {
                    "type": "ref",
                    "value": "preferred"
                }
            },
            "left": {
                "Default": {
                    "type": "string",
                    "value": "1dp"
                }
            },
            "maxHeight": {
                "Default": {
                    "type": "string",
                    "value": "255dp"
                }
            }
        }
    },
    "id": "FavouriteAccountTypes",
    "info": null,
    "isdatareferenced": false,
    "isvisible": false,
    "kuid": "e79888235f5e4c39b2f27e89ab5683a3",
    "layouttype": 4,
    "masterType": 0,
    "name": "kony.ui.UserWidgetInstance",
    "parent": "flxMain",
    "pf": "frmAccountsLanding",
    "snaptogrid": true,
    "sourceUserWidget": "b62c12eb1c8d4c288d0cc6b63f1eb6bb",
    "vizprops": {
        "hidewidgethierarchy": false
    },
    "wType": "UserWidgetInstance",
    "zindex": 10
}