{
    "DNDConfig": null,
    "__parentReadjusting__": false,
    "_bottom_": {
        "type": "string",
        "value": "0dp"
    },
    "_height_": {
        "type": "ref",
        "value": "preferred"
    },
    "_left_": {
        "type": "string",
        "value": "0dp"
    },
    "_margin_": [
        0,
        0,
        0,
        0
    ],
    "_orientation_": 6,
    "_padding_": [
        0,
        0,
        0,
        0
    ],
    "_percent_": true,
    "_skin_": "s24c92fc23b14f5484b693ee9b8a9b35",
    "_top_": {
        "type": "string",
        "value": "0dp"
    },
    "_width_": {
        "type": "string",
        "value": "100%"
    },
    "allboxes": [],
    "autogrowmode": 1,
    "canUpdateUI": true,
    "centerx": {
        "type": "string",
        "value": "50%"
    },
    "children": [
        "mySpending",
        "upcomingTransactions",
        "myMessages",
        "flxBannerContainerMobile",
        "flxDummySecondary"
    ],
    "clipbounds": false,
    "containerweight": 100,
    "enablescrolling": true,
    "id": "flxSecondaryDetails",
    "info": null,
    "isvisible": true,
    "kuid": "h233692cb49b480b97341ddc5b48d726",
    "layouttype": 3,
    "name": "kony.ui.FlexContainer",
    "parent": "flxMainWrapper",
    "pf": "frmAccountsLanding",
    "responsiveData": {
        "b1": {
            "bottom": {
                "type": "string",
                "value": "40dp"
            },
            "layoutType": 2,
            "top": {
                "type": "string",
                "value": "15dp"
            },
            "width": {
                "type": "string",
                "value": "100%"
            }
        },
        "b2": {
            "bottom": {
                "type": "string",
                "value": "40dp"
            },
            "layoutType": 2,
            "width": {
                "type": "string",
                "value": "100%"
            }
        },
        "b3": {
            "height": {
                "type": "ref",
                "value": "preferred"
            },
            "layoutType": 2,
            "top": {
                "type": "string",
                "value": "20dp"
            }
        },
        "b4": {
            "bottom": {
                "type": "string",
                "value": "40dp"
            }
        }
    },
    "snapgridsize": 10,
    "snaptogrid": true,
    "wType": "FlexContainer",
    "widgetalignment": 1,
    "zindex": 1
}