{
    "@class": "com.kony.gen.viz.model.component.KVizUserWidget",
    "DNDConfig": null,
    "__parentReadjusting__": false,
    "_android_": {},
    "_androidwearos_": {},
    "_children_": [],
    "_desktopweb_": {},
    "_height_": {
        "type": "ref",
        "value": "preferred"
    },
    "_ipad_": {},
    "_iphone_": {},
    "_kiosk_": {},
    "_left_": {
        "type": "string",
        "value": "0dp"
    },
    "_margin_": [
        0,
        0,
        0,
        0
    ],
    "_orientation_": 1,
    "_padding_": [
        0,
        0,
        0,
        0
    ],
    "_percent_": true,
    "_render_": true,
    "_skin_": "s24c92fc23b14f5484b693ee9b8a9b35",
    "_spa_": {},
    "_spaan_": {},
    "_spaandroidtablet_": {},
    "_spabb_": {},
    "_spaip_": {},
    "_spaipad_": {},
    "_spamobile_": {},
    "_spatablet_": {},
    "_spawindowstablet_": {},
    "_spawinphone8_": {},
    "_tabrcandroid_": {},
    "_top_": {
        "type": "string",
        "value": "20dp"
    },
    "_vizProps_": {
        "hidewidgethierarchy": false
    },
    "_width_": {
        "type": "string",
        "value": "100%"
    },
    "_windows10_": {},
    "_windows8_": {},
    "_winphone10_": {},
    "_winphone8_": {},
    "areflexpropsreferenced": false,
    "autogrowmode": 1,
    "canUpdateUI": true,
    "clipbounds": true,
    "containerweight": 0,
    "dataDiffs": {
        "flxContainer": {
            "__events__": {},
            "__info__": {
                "kuid": "d567ce646fe94ac79399b9416191cd6f",
                "srcKUID": "f13dc08cac9b42cf84a6cd0eb46e5de8",
                "wType": "FlexContainer"
            }
        },
        "flxInfo": {
            "__events__": {},
            "__info__": {
                "kuid": "e338bfc61f9e49e7911948f17f2adbbd",
                "srcKUID": "e95f6b8ffb5f415db6652af917c31c62",
                "wType": "FlexContainer"
            }
        },
        "flxKey": {
            "__events__": {},
            "__info__": {
                "kuid": "j7cae37097ce4cbd92f2f138209130cf",
                "srcKUID": "d4492c719df94445a861e97f34dc4949",
                "wType": "FlexContainer"
            }
        },
        "flxValue": {
            "__events__": {},
            "__info__": {
                "kuid": "e97c170540e54f9384a5791e431054ff",
                "srcKUID": "b141325e5e9048519b71af002cfee26a",
                "wType": "FlexContainer"
            }
        },
        "imgWhatIsSSN": {
            "__events__": {},
            "__info__": {
                "kuid": "c6d81355afa14be28450061fb2eca98c",
                "srcKUID": "f54ec2da1e9d451d9345687646b48cc3",
                "wType": "Image"
            },
            "src": "info_grey.png"
        },
        "keyValue": {
            "__events__": {},
            "__info__": {
                "isRoot": true,
                "kuid": "g50d51131d58451c80a4602c0e279897",
                "srcKUID": "cc43b83fad51498eaee44e391076b1e1",
                "wType": "FlexContainer"
            },
            "autogrowMode": 1,
            "height": {
                "Default": {
                    "type": "ref",
                    "value": "preferred"
                }
            },
            "left": {
                "Default": {
                    "type": "string",
                    "value": "0dp"
                }
            },
            "top": {
                "Default": {
                    "type": "string",
                    "value": "20dp"
                }
            },
            "zIndex": {
                "Default": 5
            }
        },
        "lblColon": {
            "__events__": {},
            "__info__": {
                "kuid": "ae64cdfeff7441f0ba7f265bed03ad7f",
                "srcKUID": "c1b15d6a704e4365be1c4ff0a75c3f55",
                "wType": "Label"
            }
        },
        "lblKey": {
            "__events__": {},
            "__info__": {
                "kuid": "ed5099b3c381499497e1773aabd8368f",
                "srcKUID": "daa1384a75084c57b8a708d751b05837",
                "wType": "Label"
            },
            "i18n_text": "i18n.transfers.lblAmount"
        },
        "lblValue": {
            "__events__": {},
            "__info__": {
                "kuid": "d86215b98d5b455ebaedde9ce960a85f",
                "srcKUID": "had7006a19c947e7ae413b191f0cc841",
                "wType": "Label"
            }
        }
    },
    "id": "keyValueAmount",
    "info": null,
    "isdatareferenced": false,
    "isvisible": true,
    "kuid": "a411bed3418b4f3d82f9b6da9aee953b",
    "layouttype": 2,
    "masterType": 0,
    "name": "kony.ui.UserWidgetInstance",
    "parent": "flxMain",
    "pf": "userwidgetmodel",
    "snaptogrid": true,
    "sourceUserWidget": "cc43b83fad51498eaee44e391076b1e1",
    "wType": "UserWidgetInstance",
    "zindex": 5
}