{
    "@class": "com.kony.gen.viz.model.component.KVizButton",
    "DNDConfig": null,
    "_height_": {
        "type": "string",
        "value": "100%"
    },
    "_left_": {
        "type": "string",
        "value": "0dp"
    },
    "_margin_": [
        6,
        6,
        6,
        6
    ],
    "_padding_": [
        0,
        0,
        0,
        0
    ],
    "_skin_": "sf6ca31ec68641e5a2df8232c58cd39a",
    "_text_": "SEND MONEY",
    "_width_": {
        "type": "string",
        "value": "25%"
    },
    "accessibilityconfig": {
        "a11yLabel": "SEND MONEY"
    },
    "canUpdateUI": true,
    "centery": {
        "type": "string",
        "value": "50%"
    },
    "containerId": true,
    "containerweight": 100,
    "contentalignment": 5,
    "desktopweb": {
        "psp": {
            "hoverSkin": "s4285319e4d34ae1b45e5ef82d61be6b"
        }
    },
    "disabledSkins": {},
    "displaytext": true,
    "focusskin": "sf6ca31ec68641e5a2df8232c58cd39a",
    "id": "btnSendMoney",
    "ide_onClick": "AS_Button_d43c53014f034b41bf05b1d919a01882",
    "info": null,
    "isvisible": true,
    "kuid": "e55f26c65482447490d81fcd50cddfee",
    "name": "kony.ui.Button",
    "parent": "flxActions",
    "pf": "segManageRecipientSelectedMobileP2P",
    "wType": "Button",
    "zindex": 1
}