{
    "@class": "com.kony.gen.viz.model.container.KVizSegment2",
    "DNDConfig": null,
    "__parentReadjusting__": false,
    "_bottom_": {
        "type": "string",
        "value": "0dp"
    },
    "_data_": [],
    "_height_": {
        "type": "ref",
        "value": "preferred"
    },
    "_indicator_": "none",
    "_left_": {
        "type": "string",
        "value": "0dp"
    },
    "_margin_": [
        0,
        0,
        0,
        0
    ],
    "_orientation_": 2,
    "_padding_": [
        0,
        0,
        0,
        0
    ],
    "_top_": {
        "type": "string",
        "value": "0dp"
    },
    "_width_": {
        "type": "string",
        "value": "100%"
    },
    "alternaterowskin": null,
    "autogrowmode": 1,
    "canUpdateUI": true,
    "containerweight": 100,
    "counter": "011",
    "desktop": {
        "_data_": [],
        "rowTemplateId": "g2ed6cebdea7443282b9c64318fc44b8",
        "rowtemplate": "flxSortWireTransferActivity",
        "widgetdatamap": {
            "flxAmount": "flxAmount",
            "flxDate": "flxDate",
            "flxFromAccount": "flxFromAccount",
            "flxSortWireTransferActivity": "flxSortWireTransferActivity",
            "flxStatus": "flxStatus",
            "lblAmount": "lblAmount",
            "lblFromAccount": "lblFromAccount",
            "lblStatus": "lblStatus",
            "lblpaiddate": "lblpaiddate"
        }
    },
    "disabledSkins": {
        "alternateRowSkin": "s90b50bcb2324024b8f95a9270632903"
    },
    "focusedindex": null,
    "focuseditem": null,
    "groupcells": false,
    "hasSections": false,
    "id": "segBillPayActivity",
    "info": null,
    "ipad": {
        "psp": {
            "indicator": "rowselect"
        }
    },
    "iphone": {
        "psp": {
            "indicator": "rowselect"
        }
    },
    "isvisible": true,
    "kuid": "j4d99c9975da4123abe641a28962ccaa",
    "masterdata": {},
    "mobile": {
        "rowTemplateId": null,
        "rowtemplate": null,
        "sectionHeaderTemplateId": null
    },
    "name": "kony.ui.SegmentedUI2",
    "needpageindicator": true,
    "pageoffdotimage": "pageoffdot.png",
    "pageondotimage": "pageondot.png",
    "paginationconfig": {
        "position": "bottom"
    },
    "parent": "flxSegmentBillPay",
    "pf": "userwidgetmodel",
    "retainselection": false,
    "rowcounter": 11,
    "rowfocusskin": "s9f69e977910472eb44c62ae28c41fe1",
    "rowskin": "scf5f90f6ac04976ab88b2a4f7153285",
    "rowtemplate": "flxSortWireTransferActivity",
    "screenlevelwidget": false,
    "seccounter": 0,
    "sectionheaderskin": "sdc4ff4ed1584272be2ae69045dfb29d",
    "selectedRows": null,
    "selectedState": false,
    "selectedindex": null,
    "selectedindices": null,
    "selecteditems": null,
    "selectedsectionindex": 0,
    "selectionbehavior": "default",
    "separatorcolor": "e9e9e900",
    "separatorrequired": true,
    "separatorthickness": 1,
    "showscrollbars": false,
    "viewtype": "tableview",
    "wType": "Segment",
    "widgetalignment": 5,
    "widgetdatamap": {
        "flxAmount": "flxAmount",
        "flxDate": "flxDate",
        "flxFromAccount": "flxFromAccount",
        "flxSortWireTransferActivity": "flxSortWireTransferActivity",
        "flxStatus": "flxStatus",
        "lblAmount": "lblAmount",
        "lblFromAccount": "lblFromAccount",
        "lblStatus": "lblStatus",
        "lblpaiddate": "lblpaiddate"
    },
    "zindex": 1
}