{
    "@class": "com.kony.gen.viz.model.component.KVizUserWidget",
    "DNDConfig": null,
    "__parentReadjusting__": false,
    "_children_": [],
    "_height_": {
        "type": "ref",
        "value": "preferred"
    },
    "_left_": {
        "type": "string",
        "value": "2%"
    },
    "_margin_": [
        0,
        0,
        0,
        0
    ],
    "_orientation_": 1,
    "_padding_": [
        0,
        0,
        0,
        0
    ],
    "_percent_": true,
    "_right_": {
        "type": "string",
        "value": "2%"
    },
    "_skin_": "sb75f187c17c456fb0450d66550451bb",
    "_top_": {
        "type": "string",
        "value": "15dp"
    },
    "_width_": {
        "type": "string",
        "value": "96%"
    },
    "areflexpropsreferenced": false,
    "autogrowmode": 1,
    "canUpdateUI": true,
    "centerx": {
        "type": "number",
        "value": ""
    },
    "clipbounds": false,
    "containerweight": 0,
    "dataDiffs": {
        "ImgAcknowledged": {
            "__events__": {},
            "__info__": {
                "kuid": "f9f547d4000c4e748e97fa581c351c11",
                "srcKUID": "e3701c0dac5f435d82671aa40ee50e3c",
                "wType": "Image"
            }
        },
        "acknowledgment": {
            "__events__": {},
            "__info__": {
                "isRoot": true,
                "kuid": "d100f0ae70564cf5a8f4aa44e564da63",
                "srcKUID": "ee0a19e624344afb9280eea0cc145396",
                "wType": "FlexContainer"
            }
        },
        "btnAction1": {
            "__events__": {},
            "__info__": {
                "kuid": "ia27da499b50442eac863739aba35c1e",
                "srcKUID": "c34138b5ffc6414a9105bfaedd3c549c",
                "wType": "Button"
            },
            "responsiveData": {
                "b1": {
                    "width": {
                        "type": "string",
                        "value": "150dp"
                    }
                },
                "b2": {
                    "right": {
                        "type": "string",
                        "value": "20dp"
                    },
                    "width": {
                        "type": "string",
                        "value": "250dp"
                    }
                },
                "b3": {
                    "right": {
                        "type": "string",
                        "value": "2%"
                    },
                    "width": {
                        "type": "string",
                        "value": "96%"
                    }
                },
                "b4": {
                    "right": {
                        "type": "string",
                        "value": "20dp"
                    },
                    "width": {
                        "type": "string",
                        "value": "150dp"
                    }
                }
            },
            "right": {
                "Default": {
                    "type": "string",
                    "value": "20dp"
                }
            },
            "width": {
                "Default": {
                    "type": "string",
                    "value": "250px"
                }
            }
        },
        "btnAction2": {
            "__events__": {},
            "__info__": {
                "kuid": "d795510c330a44ef8bf0742d141b0125",
                "srcKUID": "a7c974a2a12847a6a8f430f101a44adc",
                "wType": "Button"
            },
            "responsiveData": {
                "b1": {
                    "right": {
                        "type": "string",
                        "value": "0dp"
                    },
                    "width": {
                        "type": "string",
                        "value": "150dp"
                    }
                },
                "b2": {
                    "right": {
                        "type": "string",
                        "value": "1dp"
                    },
                    "width": {
                        "type": "string",
                        "value": "250dp"
                    }
                },
                "b3": {
                    "right": {
                        "type": "string",
                        "value": "2%"
                    },
                    "width": {
                        "type": "string",
                        "value": "96%"
                    }
                },
                "b4": {
                    "right": {
                        "type": "number",
                        "value": "0"
                    },
                    "width": {
                        "type": "string",
                        "value": "150dp"
                    }
                }
            },
            "right": {
                "Default": {
                    "type": "string",
                    "value": "20dp"
                }
            },
            "width": {
                "Default": {
                    "type": "string",
                    "value": "250px"
                }
            }
        },
        "flxAckDetail1": {
            "__events__": {},
            "__info__": {
                "kuid": "gfa86673e4764bcc9f5c69f1d803d24e",
                "srcKUID": "cfe93d333fe84243944a0f142a5a0043",
                "wType": "FlexContainer"
            }
        },
        "flxAckDetail2": {
            "__events__": {},
            "__info__": {
                "kuid": "d84f6ad0b5da4a0991804fef50bdf241",
                "srcKUID": "e321e9eb2b444510b95ce0f4e9b535f7",
                "wType": "FlexContainer"
            }
        },
        "flxAckDetail3": {
            "__events__": {},
            "__info__": {
                "kuid": "a81995c19e454576bbf038f9c5bedf52",
                "srcKUID": "db1ab0892b714a4c80488d9332a56603",
                "wType": "FlexContainer"
            }
        },
        "flxAckDetail33": {
            "__events__": {},
            "__info__": {
                "kuid": "bdae5c9d5e99499da6f667c46c04f4d4",
                "srcKUID": "e302c81559934b74a14bcc30a1e07af4",
                "wType": "FlexContainer"
            }
        },
        "flxAckDetail4": {
            "__events__": {},
            "__info__": {
                "kuid": "e84be6d89ead452cbf0423c683c612b0",
                "srcKUID": "daa9f57312174a449daf8e85cca9d01f",
                "wType": "FlexContainer"
            }
        },
        "flxAckDetail44": {
            "__events__": {},
            "__info__": {
                "kuid": "e498b629c0cc4e42bcb6c49ef874f1f8",
                "srcKUID": "b8b87396167e4f1abcb01bb73aad9408",
                "wType": "FlexContainer"
            }
        },
        "flxAckDetail5": {
            "__events__": {},
            "__info__": {
                "kuid": "he99a50e626c46eabec4b47f5ad02490",
                "srcKUID": "bdd4ec583a76493087d43e3375ec4954",
                "wType": "FlexContainer"
            }
        },
        "flxAckDetail6": {
            "__events__": {},
            "__info__": {
                "kuid": "c7481062d15d46d19354d7421a4f0399",
                "srcKUID": "g297ea1c4e894518a77c83185ff8d873",
                "wType": "FlexContainer"
            }
        },
        "flxAckDetail7": {
            "__events__": {},
            "__info__": {
                "kuid": "abc11d9d5ad641ae99fd59a01dba4ed9",
                "srcKUID": "e583476a74f5470d820c1e939e0ad203",
                "wType": "FlexContainer"
            }
        },
        "flxAckDetail8": {
            "__events__": {},
            "__info__": {
                "kuid": "hc8fe788482b470f829c6fba517509aa",
                "srcKUID": "f6c4cce7d4ec4433ada09a27deabb112",
                "wType": "FlexContainer"
            }
        },
        "flxAckDetail9": {
            "__events__": {},
            "__info__": {
                "kuid": "dc4ec645ae6c47fc87b81d0f2a76d5ac",
                "srcKUID": "c8cff5ee23c7467d8b06f44773886641",
                "wType": "FlexContainer"
            }
        },
        "flxAcknowledgementHeader": {
            "__events__": {},
            "__info__": {
                "kuid": "b9968741c6384f759a29d62a2624b3e0",
                "srcKUID": "cae7c05a030b4d1cb66a37336deb0059",
                "wType": "FlexContainer"
            }
        },
        "flxAvailableBalance": {
            "__events__": {},
            "__info__": {
                "kuid": "je612a5b1bfe419c8d1330f02c78080d",
                "srcKUID": "ja0eb9256b8642da8cfc4a70871345fb",
                "wType": "FlexContainer"
            },
            "isVisible": false,
            "responsiveData": {
                "b1": {},
                "b2": {},
                "b3": {},
                "b4": {}
            }
        },
        "flxButtons": {
            "__events__": {},
            "__info__": {
                "kuid": "dca3b6ced46e406c9d52cc66c4b3e44f",
                "srcKUID": "ae979264c46743719e47b2f02962f947",
                "wType": "FlexContainer"
            }
        },
        "flxConfirmDetails": {
            "__events__": {},
            "__info__": {
                "kuid": "b26f5a499cc64835bd3bcde9b405f73b",
                "srcKUID": "hf2dbada90a2422c88d8945308ff28d2",
                "wType": "FlexContainer"
            },
            "responsiveData": {
                "b1": {},
                "b2": {
                    "width": {
                        "type": "string",
                        "value": "100%"
                    }
                },
                "b3": {
                    "width": {
                        "type": "string",
                        "value": "96%"
                    }
                },
                "b4": {
                    "right": {
                        "type": "string",
                        "value": "0%"
                    },
                    "width": {
                        "type": "string",
                        "value": "49%"
                    }
                }
            },
            "right": {
                "Default": {
                    "type": "number",
                    "value": ""
                }
            },
            "width": {
                "Default": {
                    "type": "string",
                    "value": "590px"
                }
            }
        },
        "flxContent": {
            "__events__": {},
            "__info__": {
                "kuid": "ea7b18930fea412d8bf366b4e199cebb",
                "srcKUID": "f7436c323ca34802896d608b81319cff",
                "wType": "FlexContainer"
            },
            "layoutType": 3,
            "responsiveData": {
                "b2": {
                    "layoutType": 4
                },
                "b3": {
                    "layoutType": 4
                },
                "b4": {
                    "layoutType": 2
                }
            }
        },
        "flxDetailsHeader": {
            "__events__": {},
            "__info__": {
                "kuid": "ib1f9bafd9d949ac9a74a529206fc745",
                "srcKUID": "d4aecd7d1120490b8d4ac1832e8d86a0",
                "wType": "FlexContainer"
            }
        },
        "flxIcon": {
            "__events__": {},
            "__info__": {
                "kuid": "j0c6eb3677204083bb4fe0ec024f7bbe",
                "srcKUID": "d6bc3a06813d44e7a5797ca4842a73c8",
                "wType": "FlexContainer"
            }
        },
        "flxRecipientDetails": {
            "__events__": {},
            "__info__": {
                "kuid": "he50e27ee28d44adab915ebe744f5b5f",
                "srcKUID": "a90b3a36e4c84cb792c9729c4caa78a9",
                "wType": "FlexContainer"
            }
        },
        "flxSavings": {
            "__events__": {},
            "__info__": {
                "kuid": "h845888de0b0414f9ed6e78783f8c50c",
                "srcKUID": "b2a4db87e6f140de96225b9ec4b9b592",
                "wType": "FlexContainer"
            }
        },
        "flxSavingsIcon": {
            "__events__": {},
            "__info__": {
                "kuid": "g8b6481ad08d449a88b84c87f8e4234a",
                "srcKUID": "e7f7850288e043198d183f3d33cfb7df",
                "wType": "FlexContainer"
            }
        },
        "flxSeparator10": {
            "__events__": {},
            "__info__": {
                "kuid": "f2a11a1994324dd2a1e9aec532b19548",
                "srcKUID": "b22fe701f46d457ead13303aca44c0d7",
                "wType": "FlexContainer"
            }
        },
        "flxSeparator9": {
            "__events__": {},
            "__info__": {
                "kuid": "i6b9bdf4f7084ba1886e398f121e78be",
                "srcKUID": "a34a39f8e09544c2b314ec64fb089b3f",
                "wType": "FlexContainer"
            }
        },
        "flxSuccess": {
            "__events__": {},
            "__info__": {
                "kuid": "fe47c2c33db3425d91aa3a7a2a10e71a",
                "srcKUID": "f51913b500174dfab930aa381cee90ea",
                "wType": "FlexContainer"
            },
            "responsiveData": {
                "b1": {},
                "b2": {
                    "width": {
                        "type": "string",
                        "value": "100%"
                    }
                },
                "b3": {
                    "width": {
                        "type": "string",
                        "value": "96%"
                    }
                },
                "b4": {
                    "width": {
                        "type": "string",
                        "value": "49%"
                    }
                }
            },
            "width": {
                "Default": {
                    "type": "string",
                    "value": "590px"
                }
            }
        },
        "lblAckDetailKey1": {
            "__events__": {},
            "__info__": {
                "kuid": "f0abd63e9c4145ae83d91eac2facc593",
                "srcKUID": "ge187b7017b54c9d98a7a67c4ad1d07a",
                "wType": "Label"
            }
        },
        "lblAckDetailKey2": {
            "__events__": {},
            "__info__": {
                "kuid": "fe61179f0a8a4845ab860cec6e081192",
                "srcKUID": "ffd4a0a9e9904ce8abe297fb7f0f9337",
                "wType": "Label"
            }
        },
        "lblAckDetailKey3": {
            "__events__": {},
            "__info__": {
                "kuid": "jf0c535133f443be93d3bc4fa68f96b6",
                "srcKUID": "d48c4fbd9ee2476d87fd7e226dbb99d7",
                "wType": "Label"
            }
        },
        "lblAckDetailKey33": {
            "__events__": {},
            "__info__": {
                "kuid": "ge0561b89b0a40d89c1ffa915e2ffb1d",
                "srcKUID": "j1c1852aca2347b09efa9737b334dfbb",
                "wType": "Label"
            }
        },
        "lblAckDetailKey4": {
            "__events__": {},
            "__info__": {
                "kuid": "f0d4db0c695d46ebb611fdeb4b812d6f",
                "srcKUID": "b23bf4ae6a914b679ee1ff2020d20271",
                "wType": "Label"
            }
        },
        "lblAckDetailKey44": {
            "__events__": {},
            "__info__": {
                "kuid": "b30cda32028a4801a05d4a679260b7a1",
                "srcKUID": "b30c429b3eb34d3a8659f35008bc24ef",
                "wType": "Label"
            }
        },
        "lblAckDetailKey5": {
            "__events__": {},
            "__info__": {
                "kuid": "f19c9ff70f1a4d8a98583d89b02bd61c",
                "srcKUID": "b94cf86c095c4f16b0e68c80d7cfc750",
                "wType": "Label"
            }
        },
        "lblAckDetailKey6": {
            "__events__": {},
            "__info__": {
                "kuid": "f4f539e4c17b43a488d01c6694311bf8",
                "srcKUID": "e197d0bd2bc34d6a837d5a65463dccf8",
                "wType": "Label"
            }
        },
        "lblAckDetailKey7": {
            "__events__": {},
            "__info__": {
                "kuid": "d798e035dbdd49cd95426d2ede1bf762",
                "srcKUID": "g3a3398246694f04aaa7a6acad11cc60",
                "wType": "Label"
            }
        },
        "lblAckDetailKey8": {
            "__events__": {},
            "__info__": {
                "kuid": "ec8cdba1363f4fe2839514ed4de1a8a1",
                "srcKUID": "e7f7378b132841ee86a511c54eefd302",
                "wType": "Label"
            }
        },
        "lblAckDetailKey9": {
            "__events__": {},
            "__info__": {
                "kuid": "i58250d2be834c3b8083659df799e54e",
                "srcKUID": "b76670fa728b41eba895bef7ef60ce99",
                "wType": "Label"
            }
        },
        "lblAckDetailValue1": {
            "__events__": {},
            "__info__": {
                "kuid": "a961b17127d943a9963ecb0a8ca281a0",
                "srcKUID": "i9f90c5e38fa401ab7ef97a77da2e79a",
                "wType": "Label"
            }
        },
        "lblAckDetailValue2": {
            "__events__": {},
            "__info__": {
                "kuid": "f31a01ddb7ae451eae624bb727dce328",
                "srcKUID": "fcd400369a2f448bbf3497d5cf7b2d8c",
                "wType": "Label"
            }
        },
        "lblAckDetailValue3": {
            "__events__": {},
            "__info__": {
                "kuid": "fa60fab26a864af19761d5cddb2b1daf",
                "srcKUID": "a8f762e81bcf4a4686e6153837e17771",
                "wType": "Label"
            }
        },
        "lblAckDetailValue33": {
            "__events__": {},
            "__info__": {
                "kuid": "e8a1820b498c427399722914ef206841",
                "srcKUID": "h839d2586ea4421684ef916430a0e4c8",
                "wType": "Label"
            }
        },
        "lblAckDetailValue4": {
            "__events__": {},
            "__info__": {
                "kuid": "hcdcd3ab362a4546ba49454b1d2bc737",
                "srcKUID": "ce525f0c5a5e4e4eb7314ddfcb57ba7b",
                "wType": "Label"
            }
        },
        "lblAckDetailValue44": {
            "__events__": {},
            "__info__": {
                "kuid": "a31d5f30ba8849c7a213bd07188800f9",
                "srcKUID": "gab0d043b3fe41ffacde26b1426eade4",
                "wType": "Label"
            }
        },
        "lblAckDetailValue5": {
            "__events__": {},
            "__info__": {
                "kuid": "ac17f944d1e545b280eb84c174535447",
                "srcKUID": "ad57670b04c14c5484b3d5504f874270",
                "wType": "Label"
            }
        },
        "lblAckDetailValue6": {
            "__events__": {},
            "__info__": {
                "kuid": "fe34abfd392e4a46abdbc5cac09666dc",
                "srcKUID": "ea6da15a8cc74436873cef54e3ec2e09",
                "wType": "Label"
            }
        },
        "lblAckDetailValue7": {
            "__events__": {},
            "__info__": {
                "kuid": "d88e4e07463c4676a48a346b118e0f7a",
                "srcKUID": "e826ca2f6f5c41c380cf533a8c6f29a9",
                "wType": "Label"
            }
        },
        "lblAckDetailValue8": {
            "__events__": {},
            "__info__": {
                "kuid": "g24cbdf4e2544e7da98bfe7f57784f91",
                "srcKUID": "d33b19a1e9744436be53dd73016ff897",
                "wType": "Label"
            }
        },
        "lblAckDetailValue9": {
            "__events__": {},
            "__info__": {
                "kuid": "c26175ec0ecf46f3b7cd438608299e32",
                "srcKUID": "h0878a0a14b544c38d7177615347c67d",
                "wType": "Label"
            }
        },
        "lblAcknowledgementHeader": {
            "__events__": {},
            "__info__": {
                "kuid": "c10972476f814e67bb24ec845a94344f",
                "srcKUID": "e314f9063e9f43d6ade9524c9bdf9bc9",
                "wType": "Label"
            }
        },
        "lblAvailableBalance": {
            "__events__": {},
            "__info__": {
                "kuid": "c93675753fd0425fb0220eba37d1c83d",
                "srcKUID": "jefd1cf064414665aeccf6b0d622d8fd",
                "wType": "Label"
            }
        },
        "lblBalanceValue": {
            "__events__": {},
            "__info__": {
                "kuid": "e8c2254c579145c6837f9eb99a532b20",
                "srcKUID": "c4c5a278c1004058bb2ef749caa2d468",
                "wType": "Label"
            }
        },
        "lblConfirmHeader": {
            "__events__": {},
            "__info__": {
                "kuid": "e60601615db842de82dead434f4ba558",
                "srcKUID": "b128f7e9d7ac43d0b3063de8951f3619",
                "wType": "Label"
            }
        },
        "lblIcon": {
            "__events__": {},
            "__info__": {
                "kuid": "d388af5a0080489a8cebef045fd47d30",
                "srcKUID": "iab73775bc9744a6aa56c05cc9c0f359",
                "wType": "Label"
            }
        },
        "lblRefrenceNumber": {
            "__events__": {},
            "__info__": {
                "kuid": "d76461f099f246ba956aa2b499318733",
                "srcKUID": "efcedd8d54714569ba7ce0b76a4a8de2",
                "wType": "Label"
            }
        },
        "lblRefrenceNumberValue": {
            "__events__": {},
            "__info__": {
                "kuid": "f606ab66b54c4bebbf9e0743f7a95338",
                "srcKUID": "i3e1e6e982244236adaa71db9a0afe1a",
                "wType": "Label"
            }
        },
        "lblSavingsAccount": {
            "__events__": {},
            "__info__": {
                "kuid": "d9775cbfba594baea3139377e9af49b7",
                "srcKUID": "j0115cb7c0d2413fb9c25f72e31ee60f",
                "wType": "Label"
            }
        },
        "lblSavingsIcon": {
            "__events__": {},
            "__info__": {
                "kuid": "e29152f892c148f0aa41f0793d8690e0",
                "srcKUID": "had4794ffe2d48498d0f821d43869c61",
                "wType": "Label"
            }
        },
        "lblSuccessMessage": {
            "__events__": {},
            "__info__": {
                "kuid": "cc084924040b49289eccc8ae44e90424",
                "srcKUID": "ide98c33488740e09bfcefcae1b16f30",
                "wType": "Label"
            }
        }
    },
    "enablescrolling": true,
    "id": "acknowledgment",
    "info": null,
    "iscustomlayout": false,
    "isdatareferenced": false,
    "isvisible": true,
    "kuid": "d100f0ae70564cf5a8f4aa44e564da63",
    "layouttype": 4,
    "masterType": 0,
    "name": "kony.ui.UserWidgetInstance",
    "parent": "flxMain",
    "pf": "frmCreateGoalAck",
    "retaincontentalignment": false,
    "retainflexpositionproperties": false,
    "retainflowhorizontalalignment": false,
    "snapgridsize": 10,
    "snaptogrid": true,
    "sourceUserWidget": "ee0a19e624344afb9280eea0cc145396",
    "wType": "UserWidgetInstance"
}