{
    "@class": "com.kony.gen.viz.model.component.KVizButton",
    "DNDConfig": null,
    "_height_": {
        "type": "string",
        "value": "49dp"
    },
    "_left_": {
        "type": "string",
        "value": "20dp"
    },
    "_margin_": [
        6,
        6,
        6,
        6
    ],
    "_padding_": [
        0,
        0,
        0,
        0
    ],
    "_skin_": "s611bd2c5d324490aa9f7ed9d412984f",
    "_text_": "SCHEDULED TRANSACTIONS",
    "_top_": {
        "type": "string",
        "value": "0dp"
    },
    "_width_": {
        "type": "string",
        "value": "90%"
    },
    "accessibilityconfig": {
        "a11yLabel": "Scheduled Transactions"
    },
    "canUpdateUI": true,
    "containerweight": 100,
    "contentalignment": 4,
    "disabledSkins": {
        "focusSkin": "sf44d06ca8224832827ea7fdff757013"
    },
    "displaytext": true,
    "id": "btnScheduledTransfer",
    "info": null,
    "isvisible": true,
    "kuid": "db08a3dc79f042d68169c622714d4567",
    "name": "kony.ui.Button",
    "parent": "flxPrimaryActions",
    "pf": "frmAccountsDetails",
    "responsiveData": {
        "b1": {
            "isVisible": false,
            "skin": "s611bd2c5d324490aa9f7ed9d412984f"
        },
        "b3": {
            "contentAlignment": 5,
            "left": {
                "type": "string",
                "value": "0dp"
            },
            "skin": "s398fcbdbbb44727b6c35a06ef8752cf",
            "width": {
                "type": "string",
                "value": "32%"
            }
        },
        "b4": {
            "skin": "s611bd2c5d324490aa9f7ed9d412984f"
        }
    },
    "texti18n": "i18n.accounts.scheduledTransactions",
    "tooltip": "Make Transfer",
    "wType": "Button",
    "zindex": 1
}