{
    "@class": "com.kony.gen.viz.model.component.KVizButton",
    "DNDConfig": null,
    "_height_": {
        "type": "ref",
        "value": "preferred"
    },
    "_left_": {
        "type": "string",
        "value": "20dp"
    },
    "_margin_": [
        6,
        6,
        6,
        6
    ],
    "_padding_": [
        0,
        0,
        0,
        0
    ],
    "_skin_": "s82771fb0d3040339aab7fd2e47af223",
    "_text_": "VIEW ACCOUNT INFO",
    "_width_": {
        "type": "ref",
        "value": "preferred"
    },
    "accessibilityconfig": {
        "a11yLabel": "View Account Info"
    },
    "canUpdateUI": true,
    "centery": {
        "type": "string",
        "value": "50%"
    },
    "containerweight": 100,
    "contentalignment": 5,
    "disabledSkins": {
        "focusSkin": "sf44d06ca8224832827ea7fdff757013"
    },
    "displaytext": true,
    "id": "btnViewAccountInfo",
    "info": null,
    "isvisible": false,
    "kuid": "ac3bdf97361d4d1cbdcc4b78349d39f3",
    "name": "kony.ui.Button",
    "parent": "flxAccountTypesAndInfo",
    "pf": "frmAccountsDetails",
    "texti18n": "i18n.accounts.viewAccountInfo",
    "tooltip": "View Account Info",
    "wType": "Button",
    "zindex": 1
}