{
    "DNDConfig": null,
    "_height_": {
        "type": "string",
        "value": "100%"
    },
    "_left_": {
        "type": "string",
        "value": "6%"
    },
    "_margin_": [
        0,
        0,
        0,
        0
    ],
    "_orientation_": 6,
    "_padding_": [
        0,
        0,
        0,
        0
    ],
    "_percent_": true,
    "_right_": {
        "type": "number",
        "value": ""
    },
    "_skin_": "s680c9bafb594fe4bfa388d84acc43b2",
    "_top_": {
        "type": "string",
        "value": "0dp"
    },
    "_width_": {
        "type": "string",
        "value": "360dp"
    },
    "accessibilityconfig": {
        "a11yARIA": {
            "tabindex": 1
        }
    },
    "allboxes": [],
    "canUpdateUI": true,
    "children": [
        "flxImgAccountTypeIcon",
        "lblAccountTypes",
        "imgAccountTypes"
    ],
    "clipbounds": true,
    "containerweight": 100,
    "desktopweb": {
        "psp": {
            "hoverSkin": "s680c9bafb594fe4bfa388d84acc43b2"
        }
    },
    "disabledSkins": {},
    "enablescrolling": true,
    "focusskin": "s680c9bafb594fe4bfa388d84acc43b2",
    "id": "flxAccountTypes",
    "info": null,
    "isvisible": true,
    "kuid": "d1ec208e132941fea1bab0af7db50ae6",
    "layouttype": 3,
    "name": "kony.ui.FlexContainer",
    "parent": "flxAccountTypesAndInfo",
    "pf": "frmAccountsDetails",
    "responsiveData": {
        "b1": {
            "left": {
                "type": "string",
                "value": "0%"
            }
        },
        "b2": {
            "height": {
                "type": "string",
                "value": "50%"
            },
            "layoutType": 3,
            "left": {
                "type": "string",
                "value": "9px"
            },
            "right": {
                "type": "string",
                "value": "10px"
            },
            "skin": "s018b592f2be4ccf98f6e95b092c9c4c",
            "width": {
                "type": "string",
                "value": "100%"
            }
        },
        "b3": {
            "left": {
                "type": "string",
                "value": "30dp"
            }
        },
        "b4": {
            "left": {
                "type": "string",
                "value": "6%"
            }
        }
    },
    "snapgridsize": 10,
    "snaptogrid": true,
    "wType": "FlexContainer",
    "widgetalignment": 1,
    "zindex": 1
}