{
    "DNDConfig": null,
    "_height_": {
        "type": "ref",
        "value": "preferred"
    },
    "_left_": {
        "type": "string",
        "value": "0%"
    },
    "_margin_": [
        0,
        0,
        0,
        0
    ],
    "_orientation_": 6,
    "_padding_": [
        0,
        0,
        0,
        0
    ],
    "_percent_": true,
    "_right_": {
        "type": "number",
        "value": ""
    },
    "_skin_": "s24c92fc23b14f5484b693ee9b8a9b35",
    "_top_": {
        "type": "string",
        "value": "0dp"
    },
    "_width_": {
        "type": "ref",
        "value": "preferred"
    },
    "allboxes": [],
    "autogrowmode": 1,
    "canUpdateUI": true,
    "children": [
        "quicklinks",
        "flxPrimaryActions",
        "flxSecondaryActions",
        "flxActionsDummy"
    ],
    "clipbounds": false,
    "containerweight": 100,
    "enablescrolling": true,
    "id": "flxActions",
    "info": null,
    "isvisible": true,
    "kuid": "jac63f0d12974596b829530ff7b873ad",
    "layouttype": 4,
    "name": "kony.ui.FlexContainer",
    "parent": "flxAccountSummaryAndActions",
    "pf": "frmAccountsDetails",
    "responsiveData": {
        "b1": {
            "top": {
                "type": "string",
                "value": "0dp"
            }
        },
        "b2": {
            "isVisible": false
        },
        "b3": {
            "isVisible": true,
            "layoutType": 2,
            "left": {
                "type": "string",
                "value": "30dp"
            },
            "right": {
                "type": "string",
                "value": "30dp"
            },
            "top": {
                "type": "string",
                "value": "20dp"
            },
            "width": {
                "type": "string",
                "value": "94%"
            }
        },
        "b4": {
            "layoutType": 4,
            "top": {
                "type": "string",
                "value": "0dp"
            }
        }
    },
    "snapgridsize": 10,
    "snaptogrid": true,
    "vizProps": {},
    "wType": "FlexContainer",
    "widgetalignment": 1,
    "zindex": 1
}