{
    "@class": "com.kony.gen.viz.model.component.KVizImage2",
    "DNDConfig": null,
    "_base64_": null,
    "_height_": {
        "type": "string",
        "value": "7dp"
    },
    "_left_": {
        "type": "string",
        "value": "14dp"
    },
    "_margin_": [
        0,
        0,
        0,
        0
    ],
    "_padding_": [
        0,
        0,
        0,
        0
    ],
    "_right_": {
        "type": "number",
        "value": ""
    },
    "_skin_": "s8ee487de5774c1eb668e74bf92f5cdd",
    "_src_": "arrow_down.png",
    "_width_": {
        "type": "string",
        "value": "14dp"
    },
    "accessibilityconfig": {
        "a11yLabel": "Account Types",
        "a11yValue": ""
    },
    "canUpdateUI": true,
    "centery": {
        "type": "string",
        "value": "50%"
    },
    "containerweight": 100,
    "id": "imgAccountTypes",
    "imagescalemode": 1,
    "imagewhiledownloading": "img_transparent.png",
    "info": null,
    "invokedProperty": "src",
    "isvisible": true,
    "kuid": "b4c8fcd410e84a4f9432df5e7658aaa7",
    "name": "kony.ui.Image2",
    "parent": "flxAccountTypes",
    "pf": "frmAccountsDetails",
    "responsiveData": {
        "b2": {
            "left": {
                "type": "string",
                "value": ""
            },
            "right": {
                "type": "string",
                "value": "20px"
            }
        }
    },
    "srcType": 1,
    "tooltip": "Account Type",
    "wType": "Image",
    "widgetalignment": 5,
    "zindex": 1
}