{
    "@class": "com.kony.gen.viz.model.component.KVizImage2",
    "DNDConfig": null,
    "_base64_": null,
    "_height_": {
        "type": "string",
        "value": "40dp"
    },
    "_left_": {
        "type": "string",
        "value": "20dp"
    },
    "_margin_": [
        0,
        0,
        0,
        0
    ],
    "_padding_": [
        0,
        0,
        0,
        0
    ],
    "_skin_": "s78a5f26c9f14cec9ebed1bb46098f80",
    "_src_": "error_yellow.png",
    "_width_": {
        "type": "string",
        "value": "40dp"
    },
    "accessibilityconfig": {
        "a11yARIA": {
            "tabindex": -1
        },
        "a11yHidden": false,
        "a11yLabel": "Close",
        "a11yValue": ""
    },
    "canUpdateUI": true,
    "centery": {
        "type": "string",
        "value": "47%"
    },
    "containerweight": 100,
    "id": "imgExpired",
    "imagescalemode": 1,
    "imagewhiledownloading": "img_transparent.png",
    "info": null,
    "invokedProperty": "src",
    "isvisible": true,
    "kuid": "afa30097491846d1a55e62301723a627",
    "name": "kony.ui.Image2",
    "parent": "flxRenewExpired",
    "pf": "frmAccountsDetails",
    "responsiveData": {
        "b1": {
            "src": "erroricon.png"
        },
        "b2": {
            "centerY": {
                "type": "string",
                "value": "25%"
            },
            "left": {
                "type": "string",
                "value": "10dp"
            },
            "src": "erroricon.png"
        },
        "b3": {
            "src": "erroricon.png"
        },
        "b4": {
            "src": "erroricon.png"
        }
    },
    "srcType": 1,
    "wType": "Image",
    "widgetalignment": 5,
    "zindex": 1
}