{
    "@class": "com.kony.gen.viz.model.component.KVizImage2",
    "DNDConfig": null,
    "_base64_": null,
    "_height_": {
        "type": "string",
        "value": "7dp"
    },
    "_margin_": [
        0,
        0,
        0,
        0
    ],
    "_padding_": [
        0,
        0,
        0,
        0
    ],
    "_right_": {
        "type": "string",
        "value": "28dp"
    },
    "_skin_": "s8ee487de5774c1eb668e74bf92f5cdd",
    "_src_": "arrow_down.png",
    "_width_": {
        "type": "string",
        "value": "14dp"
    },
    "accessibilityconfig": {
        "a11yLabel": "Dropdown",
        "a11yValue": ""
    },
    "canUpdateUI": true,
    "centery": {
        "type": "string",
        "value": "50%"
    },
    "containerweight": 100,
    "id": "imgSecondaryActions",
    "imagescalemode": 1,
    "imagewhiledownloading": "img_transparent.png",
    "info": null,
    "invokedProperty": "src",
    "isvisible": true,
    "kuid": "ba21b4888f524885b1d16f5fd5ab16e5",
    "name": "kony.ui.Image2",
    "parent": "flxSecondaryActions",
    "pf": "frmAccountsDetails",
    "responsiveData": {
        "b3": {
            "right": {
                "type": "string",
                "value": "8dp"
            },
            "width": {
                "type": "string",
                "value": "14dp"
            }
        }
    },
    "srcType": 1,
    "tooltip": "Secondary Actions",
    "wType": "Image",
    "widgetalignment": 5,
    "zindex": 1
}