{
    "@class": "com.kony.gen.viz.model.component.KVizListBox",
    "DNDConfig": null,
    "__parentReadjusting__": false,
    "_height_": {
        "type": "string",
        "value": "40dp"
    },
    "_left_": {
        "type": "string",
        "value": "30dp"
    },
    "_margin_": [
        0,
        0,
        0,
        0
    ],
    "_padding_": [
        2,
        0,
        0,
        0
    ],
    "_skin_": "sbaba22b80b348e6a9f536af0ad26b53",
    "_top_": {
        "type": "string",
        "value": "40dp"
    },
    "_width_": {
        "type": "string",
        "value": "45.16%"
    },
    "canUpdateUI": true,
    "containerweight": 100,
    "contentalignment": 4,
    "context": {
        "channel": "desktop",
        "formID": "uwucf0733adcd5451aaee6526ac68b1040",
        "platform": "desktopweb",
        "templateType": "userwidgets",
        "topLevelBox": null
    },
    "desktopweb": {
        "psp": {
            "hoverSkin": "sba5012deddd4a46a4ba30a09e9df91b"
        }
    },
    "focusskin": "s9eb08f78097439eb767801e8fdeb5cd",
    "groupcells": false,
    "id": "lbxChooseCurrency",
    "info": null,
    "isvisible": true,
    "kiosk": {
        "psp": {
            "placeholder": "Select country"
        }
    },
    "kuid": "d3f1a9159321493c967c2f5edab18b68",
    "masterdata": [
        [
            "Key1864118835",
            "US.Dollar"
        ]
    ],
    "name": "kony.ui.ListBox",
    "paddingLocked": false,
    "paddinginpixel": false,
    "parent": "flxCurrency",
    "pf": "frmWireTransferMakeTransfer",
    "responsiveData": {
        "b4": {
            "left": {
                "type": "string",
                "value": "15dp"
            },
            "right": {
                "type": "number",
                "value": "15"
            },
            "width": {
                "type": "string",
                "value": ""
            }
        }
    },
    "selectedkeys": null,
    "selectedkeyvalue": null,
    "selectedkeyvalues": null,
    "size": 18,
    "viewconfig": {
        "toggleViewConfig": {
            "viewStyle": 0
        }
    },
    "viewtype": 0,
    "wType": "ListBox",
    "zindex": 1
}