{
    "@class": "com.kony.gen.viz.model.component.KVizButton",
    "DNDConfig": null,
    "_height_": {
        "type": "string",
        "value": "40dp"
    },
    "_margin_": [
        6,
        6,
        6,
        6
    ],
    "_padding_": [
        0,
        0,
        0,
        0
    ],
    "_right_": {
        "type": "string",
        "value": "30dp"
    },
    "_skin_": "s215ef7edf8c4ddb8f9f91fcc80f7b42",
    "_text_": "Button",
    "_top_": {
        "type": "string",
        "value": "0dp"
    },
    "_width_": {
        "type": "string",
        "value": "150dp"
    },
    "canUpdateUI": true,
    "containerweight": 100,
    "contentalignment": 5,
    "desktopweb": {
        "psp": {
            "hoverSkin": "sba91fb5e9774521856508ab3e21943d"
        }
    },
    "disabledSkins": {},
    "displaytext": true,
    "focusskin": "sb23593b913b4005add4a246020aa1cc",
    "id": "btnBackToMap",
    "info": null,
    "iscustomlayout": false,
    "isvisible": true,
    "kuid": "f494ac59caea488fbe44a3c1351b5f0c",
    "name": "kony.ui.Button",
    "parent": "flxBranchDetails",
    "pf": "frmLocateUsAllTab",
    "retaincontentalignment": false,
    "retainflexpositionproperties": false,
    "texti18n": "i18n.LocateUs.BACKTOMAP",
    "wType": "Button",
    "zindex": 1
}