{
    "DNDConfig": null,
    "_height_": {
        "type": "string",
        "value": "600dp"
    },
    "_left_": {
        "type": "string",
        "value": "0dp"
    },
    "_margin_": [
        0,
        0,
        0,
        0
    ],
    "_orientation_": 6,
    "_padding_": [
        0,
        0,
        0,
        0
    ],
    "_percent_": true,
    "_skin_": "secff68ee7904525acebc42c36c39094",
    "_top_": {
        "type": "string",
        "value": "50dp"
    },
    "_width_": {
        "type": "string",
        "value": "33%"
    },
    "allboxes": [],
    "autogrowmode": 0,
    "canUpdateUI": true,
    "children": [
        "flxSearchWrapper",
        "flxFilterWrapper",
        "segLoacteUsSearchResults",
        "flxNoSearchResult"
    ],
    "clipbounds": true,
    "containerweight": 100,
    "enablescrolling": true,
    "id": "flxLeftContent",
    "info": null,
    "iscustomlayout": false,
    "isvisible": true,
    "kuid": "f9b548a4351a41e5a2b6aa6e91b54e94",
    "layouttype": 4,
    "name": "kony.ui.FlexContainer",
    "parent": "flxTabContent",
    "pf": "frmLocateUsAllTab",
    "responsiveData": {
        "b1": {
            "width": {
                "type": "string",
                "value": "395dp"
            }
        },
        "b2": {
            "width": {
                "type": "string",
                "value": "395dp"
            }
        },
        "b3": {
            "skin": "secff68ee7904525acebc42c36c39094",
            "width": {
                "type": "string",
                "value": "100%"
            },
            "zIndex": 1
        }
    },
    "retaincontentalignment": false,
    "retainflexpositionproperties": false,
    "retainflowhorizontalalignment": false,
    "snapgridsize": 10,
    "snaptogrid": true,
    "wType": "FlexContainer",
    "widgetalignment": 1,
    "zindex": 1
}