{
    "DNDConfig": null,
    "_height_": {
        "type": "ref",
        "value": "preferred"
    },
    "_left_": {
        "type": "string",
        "value": "53%"
    },
    "_margin_": [
        0,
        0,
        0,
        0
    ],
    "_orientation_": 6,
    "_padding_": [
        0,
        0,
        0,
        0
    ],
    "_percent_": true,
    "_skin_": "s24c92fc23b14f5484b693ee9b8a9b35",
    "_top_": {
        "type": "string",
        "value": "50dp"
    },
    "_width_": {
        "type": "string",
        "value": "40%"
    },
    "allboxes": [],
    "autogrowmode": 1,
    "canUpdateUI": true,
    "children": [
        "segBranchService"
    ],
    "clipbounds": true,
    "containerweight": 100,
    "enablescrolling": true,
    "id": "flxServices",
    "info": null,
    "iscustomlayout": false,
    "isvisible": true,
    "kuid": "bc0c47b3088540498a5d56d8ec0296f3",
    "layouttype": 2,
    "name": "kony.ui.FlexContainer",
    "parent": "flxBranchTimingsAndServices",
    "pf": "frmLocateUsAllTab",
    "responsiveData": {
        "b2": {
            "left": {
                "type": "string",
                "value": "3.50%"
            },
            "top": {
                "type": "string",
                "value": "200dp"
            }
        }
    },
    "retaincontentalignment": false,
    "retainflexpositionproperties": false,
    "retainflowhorizontalalignment": false,
    "snapgridsize": 10,
    "snaptogrid": true,
    "wType": "FlexContainer",
    "widgetalignment": 1,
    "zindex": 1
}