{
    "DNDConfig": null,
    "_height_": {
        "type": "string",
        "value": "100%"
    },
    "_left_": {
        "type": "string",
        "value": "33%"
    },
    "_margin_": [
        0,
        0,
        0,
        0
    ],
    "_orientation_": 6,
    "_padding_": [
        0,
        0,
        0,
        0
    ],
    "_percent_": true,
    "_skin_": "s8823f92dd17459d8dbd603fe9224e85",
    "_top_": {
        "type": "string",
        "value": "0dp"
    },
    "_width_": {
        "type": "string",
        "value": "1dp"
    },
    "allboxes": [],
    "autogrowmode": 0,
    "canUpdateUI": true,
    "children": [],
    "clipbounds": true,
    "containerweight": 100,
    "enablescrolling": true,
    "id": "flxSeperator6",
    "info": null,
    "iscustomlayout": false,
    "isvisible": true,
    "kuid": "jeb60edeba344c33ab0269632651513d",
    "layouttype": 2,
    "name": "kony.ui.FlexContainer",
    "parent": "flxTabContent",
    "pf": "frmLocateUsAllTab",
    "responsiveData": {
        "b1": {
            "left": {
                "type": "string",
                "value": "395dp"
            }
        },
        "b2": {
            "left": {
                "type": "string",
                "value": "395dp"
            }
        },
        "b3": {
            "isVisible": false
        }
    },
    "retaincontentalignment": false,
    "retainflexpositionproperties": false,
    "retainflowhorizontalalignment": false,
    "snapgridsize": 10,
    "snaptogrid": true,
    "wType": "FlexContainer",
    "widgetalignment": 1,
    "zindex": 10
}