{
    "@class": "com.kony.gen.viz.model.component.KVizButton",
    "DNDConfig": null,
    "__parentReadjusting__": false,
    "_height_": {
        "type": "ref",
        "value": "preferred"
    },
    "_left_": {
        "type": "string",
        "value": "0"
    },
    "_margin_": [
        6,
        6,
        6,
        6
    ],
    "_padding_": [
        0,
        0,
        0,
        0
    ],
    "_skin_": "se4cbdf6e51f48eda9966caa941c6a19",
    "_text_": "Cancel Occurence",
    "_top_": {
        "type": "string",
        "value": "0dp"
    },
    "_width_": {
        "type": "ref",
        "value": "preferred"
    },
    "accessibilityconfig": {
        "a11yLabel": "REPEAT"
    },
    "canUpdateUI": true,
    "containerId": true,
    "containerweight": 100,
    "contentalignment": 4,
    "desktopweb": {
        "psp": {}
    },
    "disabledSkins": {
        "focusSkin": "sf44d06ca8224832827ea7fdff757013"
    },
    "displaytext": true,
    "id": "btnAttachments",
    "ide_onClick": "AS_Button_a2d7bb2b21dc47fa993c31bd2b2ee7f4",
    "info": null,
    "isvisible": true,
    "kuid": "j4465297a08548deab3d3282a6a1afe0",
    "name": "kony.ui.Button",
    "parent": "flxActions",
    "pf": "segRecentTransfersSelected",
    "texti18n": "i18n.common.Attachments",
    "tooltip": "REPEAT",
    "wType": "Button",
    "zindex": 1
}