{
    "@class": "com.kony.gen.viz.model.component.KVizButton",
    "DNDConfig": null,
    "__parentReadjusting__": false,
    "_height_": {
        "type": "ref",
        "value": "preferred"
    },
    "_margin_": [
        6,
        6,
        6,
        6
    ],
    "_padding_": [
        0,
        0,
        4,
        0
    ],
    "_right_": {
        "type": "string",
        "value": "50dp"
    },
    "_skin_": "s611bd2c5d324490aa9f7ed9d412984f",
    "_text_": "REPEAT",
    "_top_": {
        "type": "string",
        "value": "0dp"
    },
    "_width_": {
        "type": "ref",
        "value": "preferred"
    },
    "accessibilityconfig": {
        "a11yLabel": "Cancel Requests"
    },
    "canUpdateUI": true,
    "containerId": true,
    "containerweight": 100,
    "contentalignment": 6,
    "desktopweb": {
        "psp": {
            "hoverSkin": "s611bd2c5d324490aa9f7ed9d412984f"
        }
    },
    "disabledSkins": {
        "focusSkin": "sf44d06ca8224832827ea7fdff757013"
    },
    "displaytext": true,
    "id": "btnCancelRequests",
    "ide_onClick": "AS_Button_b24db0c8a5f14bfdac2ba41f89bd9528",
    "info": null,
    "isvisible": true,
    "kuid": "a4db0e11979e4dc0a8c9945901f0582a",
    "name": "kony.ui.Button",
    "paddinginpixel": false,
    "parent": "flxDetailsHeader2",
    "pf": "segDisputedChecksSelectedWrapper",
    "texti18n": "i18n.StopCheckPayments.CANCELREQUESTS",
    "tooltip": "Edit Category Rule",
    "wType": "Button",
    "zindex": 1
}