{
    "DNDConfig": null,
    "__parentReadjusting__": false,
    "_height_": {
        "type": "ref",
        "value": "preferred"
    },
    "_left_": {
        "type": "string",
        "value": "0%"
    },
    "_margin_": [
        0,
        0,
        0,
        0
    ],
    "_orientation_": 6,
    "_padding_": [
        0,
        0,
        0,
        0
    ],
    "_percent_": true,
    "_skin_": "s24c92fc23b14f5484b693ee9b8a9b35",
    "_top_": {
        "type": "string",
        "value": "10dp"
    },
    "_width_": {
        "type": "string",
        "value": "100%"
    },
    "allboxes": [],
    "autogrowmode": 1,
    "canUpdateUI": true,
    "children": [
        "CopyflxChequesCount0f4ab3332a38e47",
        "CopyflxNotesDetail0da8b6fbc76864c",
        "CopyflxFee0h9848c9d56de43"
    ],
    "clipbounds": true,
    "containerId": true,
    "containerweight": 100,
    "enablescrolling": true,
    "id": "CopyflxDetailDataTwo0ibf7bff787c74c",
    "info": null,
    "isvisible": false,
    "kuid": "c06f590c813d4baeab6edba34e2b5c90",
    "layouttype": 2,
    "name": "kony.ui.FlexContainer",
    "parent": "flxInfo",
    "pf": "segDisputedChecksSelectedWrapper",
    "snapgridsize": 10,
    "snaptogrid": true,
    "wType": "FlexContainer",
    "widgetalignment": 1,
    "zindex": 1
}