{
    "@class": "com.kony.gen.viz.model.component.KVizButton",
    "DNDConfig": null,
    "__parentReadjusting__": false,
    "_height_": {
        "type": "ref",
        "value": "preferred"
    },
    "_margin_": [
        6,
        6,
        6,
        6
    ],
    "_padding_": [
        0,
        0,
        0,
        0
    ],
    "_right_": {
        "type": "string",
        "value": "0dp"
    },
    "_skin_": "s82771fb0d3040339aab7fd2e47af223",
    "_text_": "PRINT",
    "_top_": {
        "type": "string",
        "value": "0dp"
    },
    "_width_": {
        "type": "ref",
        "value": "preferred"
    },
    "accessibilityconfig": {
        "a11yLabel": "PRINT"
    },
    "canUpdateUI": true,
    "containerId": true,
    "containerweight": 100,
    "contentalignment": 4,
    "disabledSkins": {
        "focusSkin": "sf44d06ca8224832827ea7fdff757013"
    },
    "displaytext": true,
    "id": "btnPrint",
    "ide_onClick": "AS_Button_a071d057c7914235a9f69e53d590f7df",
    "info": null,
    "isvisible": false,
    "kuid": "c23541a0a4b9480fb2c7c6911d9f0113",
    "name": "kony.ui.Button",
    "parent": "flxActionsWrapper",
    "pf": "segCheckImagesMobile",
    "tooltip": "Print",
    "wType": "Button",
    "zindex": 1
}