{
    "@class": "com.kony.gen.viz.model.component.KVizButton",
    "DNDConfig": null,
    "__parentReadjusting__": false,
    "_height_": {
        "type": "string",
        "value": "50dp"
    },
    "_left_": {
        "type": "string",
        "value": "15dp"
    },
    "_margin_": [
        6,
        6,
        6,
        6
    ],
    "_padding_": [
        3,
        0,
        3,
        0
    ],
    "_skin_": "s6cc32f783a048e98fcfb83f1b046c84",
    "_text_": "DOMESTIC ACCOUNT",
    "_top_": {
        "type": "string",
        "value": "0dp"
    },
    "_width_": {
        "type": "ref",
        "value": "preferred"
    },
    "accessibilityconfig": {
        "a11yLabel": "Transfer Money"
    },
    "canUpdateUI": true,
    "containerweight": 100,
    "contentalignment": 5,
    "desktopweb": {
        "psp": {
            "hoverSkin": "sd5fb4525cc9414e911580d4f0b6f580"
        }
    },
    "disabledSkins": {
        "focusSkin": "sf44d06ca8224832827ea7fdff757013"
    },
    "displaytext": true,
    "focusskin": null,
    "id": "btnMakeTransfer",
    "info": null,
    "isvisible": true,
    "kuid": "b6a5f60fc89544bf83315ba712648f0b",
    "name": "kony.ui.Button",
    "paddingLocked": false,
    "paddinginpixel": false,
    "parent": "flxTabs",
    "pf": "frmWireTransfersManageRecipients",
    "responsiveData": {
        "b2": {
            "skin": "s6cc32f783a048e98fcfb83f1b046c84"
        },
        "b4": {
            "top": {
                "type": "string",
                "value": "-1dp"
            }
        }
    },
    "texti18n": "i18n.billPay.BillPayMakeTransfer",
    "tooltip": "Make Transfer",
    "wType": "Button",
    "zindex": 1
}