{
    "@class": "com.kony.gen.viz.model.component.KVizImage2",
    "DNDConfig": null,
    "__parentReadjusting__": false,
    "_base64_": null,
    "_height_": {
        "type": "string",
        "value": "15dp"
    },
    "_margin_": [
        0,
        0,
        0,
        0
    ],
    "_padding_": [
        0,
        0,
        0,
        0
    ],
    "_right_": {
        "type": "string",
        "value": "33dp"
    },
    "_skin_": "s78a5f26c9f14cec9ebed1bb46098f80",
    "_src_": "sorting.png",
    "_width_": {
        "type": "string",
        "value": "12dp"
    },
    "accessibilityconfig": {
        "a11yLabel": "Sort",
        "a11yValue": ""
    },
    "canUpdateUI": true,
    "centery": {
        "type": "string",
        "value": "50%"
    },
    "containerweight": 100,
    "context": {
        "channel": "desktop",
        "formID": "frmWireTransfersManageRecipients",
        "platform": "desktopweb",
        "templateType": "forms",
        "topLevelBox": null
    },
    "id": "imgSortType",
    "imagescalemode": 1,
    "imagewhiledownloading": "img_transparent.png",
    "info": null,
    "isvisible": true,
    "kuid": "dc7906812c154406a5f75a3eb62fe687",
    "name": "kony.ui.Image2",
    "parent": "flxSortAmount",
    "pf": "frmWireTransfersManageRecipients",
    "responsiveData": {
        "b1": {
            "left": {
                "type": "string",
                "value": "60dp"
            },
            "right": {
                "type": "string",
                "value": ""
            }
        },
        "b2": {
            "left": {
                "type": "string",
                "value": "57dp"
            },
            "right": {
                "type": "string",
                "value": ""
            }
        },
        "b3": {
            "left": {
                "type": "string",
                "value": "60dp"
            },
            "right": {
                "type": "string",
                "value": ""
            }
        }
    },
    "srcType": 1,
    "tooltip": "Sort By Amount",
    "wType": "Image",
    "widgetalignment": 5,
    "zindex": 1
}