{
    "@class": "com.kony.gen.viz.model.component.KVizLabel",
    "DNDConfig": null,
    "__parentReadjusting__": false,
    "_height_": {
        "type": "ref",
        "value": "preferred"
    },
    "_left_": {
        "type": "string",
        "value": "3.30%"
    },
    "_margin_": [
        1,
        1,
        1,
        1
    ],
    "_padding_": [
        0,
        0,
        0,
        0
    ],
    "_skin_": "se56454286124fef97a46e7249497088",
    "_text_": "Label",
    "_width_": {
        "type": "ref",
        "value": "preferred"
    },
    "_wrapping_": 2,
    "accessibilityconfig": {
        "a11yLabel": "Actions"
    },
    "android": {
        "textStyle": {
            "letterSpacing": 0,
            "strikeThrough": false
        }
    },
    "canUpdateUI": true,
    "centery": {
        "type": "string",
        "value": "50%"
    },
    "containerweight": 100,
    "contentalignment": 4,
    "id": "lblActions",
    "info": null,
    "ipad": {
        "psp": {
            "wrapping": 2
        }
    },
    "iphone": {
        "psp": {
            "wrapping": 2
        }
    },
    "isvisible": true,
    "kuid": "ja5ba293d7cf478ca01f5ac8870854e7",
    "name": "kony.ui.Label",
    "parent": "flxSortRecent",
    "pf": "frmWireTransfersManageRecipients",
    "responsiveData": {
        "b1": {
            "left": {
                "type": "string",
                "value": "0%"
            }
        },
        "b2": {
            "left": {
                "type": "string",
                "value": "0%"
            }
        },
        "b3": {
            "left": {
                "type": "string",
                "value": "0%"
            }
        }
    },
    "texti18n": "i18n.transfers.lblAction",
    "tooltip": "",
    "wType": "Label",
    "zindex": 1
}