{
    "@class": "com.kony.gen.viz.model.component.KVizLabel",
    "DNDConfig": null,
    "__parentReadjusting__": false,
    "_height_": {
        "type": "string",
        "value": "30dp"
    },
    "_margin_": [
        1,
        1,
        1,
        1
    ],
    "_padding_": [
        0,
        0,
        2,
        0
    ],
    "_skin_": "seb87e5e5c1c4b35b32be5dc024240cf",
    "_text_": "p",
    "_top_": {
        "type": "number",
        "value": ""
    },
    "_width_": {
        "type": "string",
        "value": "25px"
    },
    "_wrapping_": 2,
    "accessibilityconfig": {
        "a11yLabel": "Print"
    },
    "android": {
        "textStyle": {
            "letterSpacing": 0,
            "strikeThrough": false
        }
    },
    "canUpdateUI": true,
    "centerx": {
        "type": "string",
        "value": "50%"
    },
    "centery": {
        "type": "string",
        "value": "50%"
    },
    "containerweight": 100,
    "contentalignment": 1,
    "id": "lblPrintfontIconConfirm",
    "info": null,
    "ipad": {
        "psp": {
            "wrapping": 2
        }
    },
    "iphone": {
        "psp": {
            "wrapping": 2
        }
    },
    "isvisible": true,
    "kuid": "he283ea13a02423da8b409ce8d031b58",
    "name": "kony.ui.Label",
    "paddinginpixel": false,
    "parent": "flxPrint",
    "pf": "frmWireTransfersManageRecipients",
    "responsiveData": {
        "b2": {
            "centerY": {
                "type": "string",
                "value": ""
            },
            "text": "p",
            "top": {
                "type": "string",
                "value": "0dp"
            },
            "width": {
                "type": "string",
                "value": "25px"
            }
        },
        "b3": {}
    },
    "tooltip": "",
    "wType": "Label",
    "zindex": 1
}