{
    "DNDConfig": null,
    "__parentReadjusting__": false,
    "_height_": {
        "type": "string",
        "value": "100%"
    },
    "_left_": {
        "type": "string",
        "value": "0dp"
    },
    "_margin_": [
        0,
        0,
        0,
        0
    ],
    "_orientation_": 6,
    "_padding_": [
        0,
        0,
        0,
        0
    ],
    "_percent_": true,
    "_skin_": "s680c9bafb594fe4bfa388d84acc43b2",
    "_top_": {
        "type": "string",
        "value": "0dp"
    },
    "_width_": {
        "type": "string",
        "value": "7.70%"
    },
    "allboxes": [],
    "autogrowmode": 0,
    "canUpdateUI": true,
    "children": [
        "imgDropdown"
    ],
    "clipbounds": true,
    "containerId": true,
    "containerweight": 100,
    "desktopweb": {
        "psp": {
            "hoverSkin": "sa5d274cc03244ef8c75cde16cf3f4b0"
        }
    },
    "enablescrolling": true,
    "id": "flxDropdown",
    "ide_onClick": "AS_FlexContainer_d9088cd1c11b44f58f56901edbbd7da0",
    "info": null,
    "isvisible": true,
    "kuid": "h001f349265a41ef84a5479a9bcff99c",
    "layouttype": 3,
    "name": "kony.ui.FlexContainer",
    "parent": "flxRowWrapper",
    "pf": "segExternalAccountsTransfersEdit",
    "snapgridsize": 10,
    "snaptogrid": true,
    "wType": "FlexContainer",
    "widgetalignment": 1,
    "zindex": 1
}