{
    "@class": "com.kony.gen.viz.model.component.KVizLabel",
    "DNDConfig": null,
    "_height_": {
        "type": "ref",
        "value": "preferred"
    },
    "_left_": {
        "type": "string",
        "value": "0dp"
    },
    "_margin_": [
        1,
        1,
        1,
        1
    ],
    "_padding_": [
        0,
        0,
        0,
        0
    ],
    "_skin_": "saba7a95163a455f8f2f131435e16122",
    "_text_": "Beneficairy’s Details",
    "_width_": {
        "type": "ref",
        "value": "preferred"
    },
    "_wrapping_": 2,
    "accessibilityconfig": {
        "a11yLabel": "Verify Payee Information"
    },
    "android": {
        "textStyle": {
            "letterSpacing": 0,
            "strikeThrough": false
        }
    },
    "canUpdateUI": true,
    "centery": {
        "type": "string",
        "value": "50%"
    },
    "containerweight": 100,
    "contentalignment": 4,
    "id": "lblBeneficiaryDetails",
    "info": null,
    "ipad": {
        "psp": {
            "wrapping": 2
        }
    },
    "iphone": {
        "psp": {
            "wrapping": 2
        }
    },
    "isvisible": true,
    "kuid": "be74ad264abe4da19472c0549ccff6bd",
    "name": "kony.ui.Label",
    "parent": "flxBeneficiaryDetailsHeading",
    "pf": "frmAddBeneficiaryAcknowledgementEuro",
    "texti18n": "i18n.TransfersEur.BeneficiaryDetails",
    "tooltip": "",
    "wType": "Label",
    "zindex": 1
}