{
    "@class": "com.kony.gen.viz.model.component.KVizButton",
    "DNDConfig": null,
    "__parentReadjusting__": false,
    "_height_": {
        "type": "string",
        "value": "25dp"
    },
    "_left_": {
        "type": "string",
        "value": "0dp"
    },
    "_margin_": [
        6,
        6,
        6,
        6
    ],
    "_padding_": [
        0,
        0,
        0,
        0
    ],
    "_skin_": "sc6cdb14f47b4dc4a58713707ce0c2c4",
    "_text_": "Button",
    "_top_": {
        "type": "string",
        "value": "0px"
    },
    "_width_": {
        "type": "string",
        "value": "36dp"
    },
    "accessibilityconfig": {
        "a11yLabel": "E-Bill"
    },
    "canUpdateUI": true,
    "centery": {
        "type": "string",
        "value": "50%"
    },
    "containerId": true,
    "containerweight": 100,
    "contentalignment": 5,
    "disabledSkins": {
        "focusSkin": "sf44d06ca8224832827ea7fdff757013"
    },
    "displaytext": true,
    "id": "btnEbill",
    "ide_onClick": "AS_Button_bc85717b509e4024be651f7e19e71443",
    "info": null,
    "isvisible": true,
    "kuid": "h66eb07e6f4c4658a6df2c162c5c6f83",
    "name": "kony.ui.Button",
    "parent": "flxPayee",
    "pf": "segBillPayManagePayeesEdit",
    "texti18n": "i18n.billPay.EBill",
    "tooltip": "eBill",
    "wType": "Button",
    "zindex": 5
}