{
    "@class": "com.kony.gen.viz.model.component.KVizTextBox2",
    "DNDConfig": null,
    "__parentReadjusting__": false,
    "_height_": {
        "type": "string",
        "value": "40dp"
    },
    "_margin_": [
        0,
        0,
        0,
        0
    ],
    "_padding_": [
        3,
        0,
        0,
        0
    ],
    "_placeholder_": "Zipcode",
    "_right_": {
        "type": "string",
        "value": "0%"
    },
    "_skin_": "see5cceb37bc48a1a30aced8b8753dd0",
    "_text_": "",
    "_top_": {
        "type": "string",
        "value": "182dp"
    },
    "_width_": {
        "type": "string",
        "value": "100%"
    },
    "accessibilityconfig": {
        "a11yLabel": "Zipcode"
    },
    "autocapitalize": "none",
    "autocomplete": false,
    "autocorrect": false,
    "autofilter": false,
    "canUpdateUI": true,
    "containerId": true,
    "containerheight": "",
    "containerheightmode": 1,
    "containerweight": 100,
    "contentalignment": 4,
    "id": "tbxPinCode",
    "info": null,
    "isvisible": true,
    "keyboardtype": "A",
    "kiosk": {
        "render": false
    },
    "kuid": "ia7cc3f21f574a3fa00a81bc69a17b96",
    "mode": "A",
    "name": "kony.ui.TextBox2",
    "parent": "flxBankAddress",
    "pf": "segBillPayManagePayeesEdit",
    "securetextentry": false,
    "textinputmode": "A",
    "viewtype": "default",
    "wType": "TextField",
    "watchos": {
        "render": false
    },
    "windows10": {
        "render": false
    },
    "winphone10": {
        "render": false
    },
    "zindex": 5,
    "focusskin": "s2faf9c2766d4142ab33d0bf97445ae0"
}