{
    "DNDConfig": null,
    "__parentReadjusting__": false,
    "_height_": {
        "type": "string",
        "value": "100%"
    },
    "_left_": {
        "type": "string",
        "value": "0dp"
    },
    "_margin_": [
        0,
        0,
        0,
        0
    ],
    "_orientation_": 6,
    "_padding_": [
        0,
        0,
        0,
        0
    ],
    "_percent_": true,
    "_skin_": "sec33ce747114bec824bad2508e6968f",
    "_top_": {
        "type": "string",
        "value": "0dp"
    },
    "_width_": {
        "type": "string",
        "value": "100%"
    },
    "allboxes": [],
    "autogrowmode": 0,
    "canUpdateUI": true,
    "children": [
        "lblDropbox",
        "lblDashboardHeader",
        "lblDashboardIcon",
        "lblDashboard"
    ],
    "clipbounds": false,
    "containerweight": 100,
    "desktopweb": {
        "psp": {
            "hoverSkin": "s05eb10355194e1ebdde101dd1529a0d"
        }
    },
    "enablescrolling": true,
    "id": "flxCombinedAccess",
    "info": null,
    "isvisible": true,
    "kuid": "f0484da17051483ba020a5bf6686f0d7",
    "layouttype": 3,
    "name": "kony.ui.FlexContainer",
    "parent": "flxCombined",
    "pf": "userwidgetmodel",
    "reverselayoutdirection": true,
    "snapgridsize": 10,
    "snaptogrid": false,
    "wType": "FlexContainer",
    "widgetalignment": 1,
    "zindex": 1002
}