{
    "DNDConfig": null,
    "__parentReadjusting__": false,
    "_height_": {
        "type": "string",
        "value": "85%"
    },
    "_margin_": [
        0,
        0,
        0,
        0
    ],
    "_orientation_": 6,
    "_padding_": [
        0,
        0,
        0,
        0
    ],
    "_percent_": true,
    "_right_": {
        "type": "number",
        "value": "0"
    },
    "_skin_": "s759c69986d4453187117f8cfba59bde",
    "_width_": {
        "type": "string",
        "value": "85%"
    },
    "allboxes": [],
    "autogrowmode": 0,
    "canUpdateUI": true,
    "centerx": {
        "type": "string",
        "value": "50%"
    },
    "centery": {
        "type": "string",
        "value": "50%"
    },
    "children": [
        "lblDropboxMobile",
        "lblDashboardIconMobile"
    ],
    "clipbounds": false,
    "containerweight": 100,
    "desktopweb": {
        "psp": {
            "hoverSkin": "s05eb10355194e1ebdde101dd1529a0d"
        }
    },
    "enablescrolling": true,
    "id": "flxCombinedAccessMobile",
    "info": null,
    "isvisible": true,
    "kuid": "ffdfa66e95a84c489ae72780f8f928ce",
    "layouttype": 3,
    "name": "kony.ui.FlexContainer",
    "parent": "flxCombinedMobile",
    "pf": "userwidgetmodel",
    "reverselayoutdirection": true,
    "snapgridsize": 10,
    "snaptogrid": false,
    "wType": "FlexContainer",
    "widgetalignment": 1,
    "zindex": 2202
}