{
    "@class": "com.kony.gen.viz.model.component.KVizLabel",
    "DNDConfig": null,
    "__parentReadjusting__": false,
    "_height_": {
        "type": "string",
        "value": "90%"
    },
    "_left_": {
        "type": "string",
        "value": "0dp"
    },
    "_margin_": [
        1,
        1,
        1,
        1
    ],
    "_padding_": [
        0,
        0,
        0,
        0
    ],
    "_right_": {
        "type": "string",
        "value": "5dp"
    },
    "_skin_": "sf604a87770e4ecca08980c95b6aedb5",
    "_text_": "c",
    "_width_": {
        "type": "string",
        "value": "25dp"
    },
    "_wrapping_": 2,
    "accessibilityconfig": {
        "a11yLabel": "Help"
    },
    "android": {
        "textStyle": {
            "letterSpacing": 0,
            "strikeThrough": false
        }
    },
    "canUpdateUI": true,
    "centery": {
        "type": "string",
        "value": "50%"
    },
    "containerweight": 100,
    "contentalignment": 5,
    "id": "lblDashboardIconMobile",
    "info": null,
    "ipad": {
        "psp": {
            "wrapping": 2
        }
    },
    "iphone": {
        "psp": {
            "wrapping": 2
        }
    },
    "isvisible": true,
    "kuid": "dedb651ca2a745288ad292f6967d35af",
    "name": "kony.ui.Label",
    "parent": "flxCombinedAccessMobile",
    "pf": "userwidgetmodel",
    "tooltip": "Help",
    "wType": "Label",
    "zindex": 1
}