{
    "@class": "com.kony.gen.viz.model.component.KVizLabel",
    "DNDConfig": null,
    "_height_": {
        "type": "ref",
        "value": "preferred"
    },
    "_left_": {
        "type": "string",
        "value": "184dp"
    },
    "_margin_": [
        1,
        1,
        1,
        1
    ],
    "_padding_": [
        0,
        0,
        0,
        0
    ],
    "_skin_": "s6bf2bdd63984d2a87c21ccd01a5ad76",
    "_text_": "",
    "_top_": {
        "type": "string",
        "value": "66dp"
    },
    "_width_": {
        "type": "ref",
        "value": "preferred"
    },
    "_wrapping_": 2,
    "android": {
        "textStyle": {
            "letterSpacing": 0,
            "strikeThrough": false
        }
    },
    "canUpdateUI": true,
    "containerweight": 100,
    "contentalignment": 4,
    "id": "CopylblAboutRoleAndPermissions0c2d0c18724d54d",
    "info": null,
    "ipad": {
        "psp": {
            "wrapping": 2
        }
    },
    "iphone": {
        "psp": {
            "wrapping": 2
        }
    },
    "iscustomlayout": false,
    "isvisible": true,
    "kuid": "jcb252993ef24d8baa8d4f2ef7d96f4a",
    "name": "kony.ui.Label",
    "parent": "CopyflxUserRoles0be1b78d4a0ef4e",
    "pf": "frmBBCopyPermission",
    "responsiveData": {
        "b1": {
            "height": {
                "type": "ref",
                "value": "preferred"
            },
            "isVisible": false,
            "left": {
                "type": "string",
                "value": "24dp"
            },
            "skin": "s6bf2bdd63984d2a87c21ccd01a5ad76",
            "text": "Description",
            "top": {
                "type": "string",
                "value": "35dp"
            }
        },
        "b2": {
            "left": {
                "type": "string",
                "value": "24dp"
            },
            "skin": "s2ac445d876246978f2537c63ae81fab",
            "top": {
                "type": "string",
                "value": "35dp"
            }
        },
        "b4": {
            "isVisible": false
        }
    },
    "retaincontentalignment": false,
    "retainflexpositionproperties": false,
    "tooltip": "",
    "wType": "Label",
    "zindex": 1
}