{
    "DNDConfig": null,
    "_height_": {
        "type": "ref",
        "value": "preferred"
    },
    "_left_": {
        "type": "string",
        "value": "2.51%"
    },
    "_margin_": [
        0,
        0,
        0,
        0
    ],
    "_orientation_": 6,
    "_padding_": [
        0,
        0,
        0,
        0
    ],
    "_percent_": true,
    "_skin_": "sfb6f68b71484e008daa306a1c7200b7",
    "_top_": {
        "type": "string",
        "value": "17dp"
    },
    "_width_": {
        "type": "string",
        "value": "30%"
    },
    "allboxes": [],
    "autogrowmode": 1,
    "canUpdateUI": true,
    "children": [
        "searchRoleTemplate",
        "flxCustomRole",
        "lblNoRecordRole",
        "flxSubMainHeader",
        "flxSearch",
        "segCustomRoles",
        "NoCustomRoles",
        "flxUsers",
        "lblNoCustomRole",
        "segUserNames",
        "segExistingUsers",
        "NoExistingUsers",
        "lblNoExistingUser"
    ],
    "clipbounds": true,
    "containerweight": 100,
    "enablescrolling": true,
    "id": "flxRoleLeftContainer",
    "info": null,
    "iscustomlayout": false,
    "isvisible": true,
    "kuid": "af47dde0907241bba4b10b1dd1ddb261",
    "layouttype": 2,
    "name": "kony.ui.FlexContainer",
    "parent": "flxRoleMainContainer",
    "pf": "frmBBCopyPermission",
    "responsiveData": {
        "b1": {
            "height": {
                "type": "string",
                "value": "900dp"
            },
            "layoutType": 4,
            "left": {
                "type": "string",
                "value": "0dp"
            },
            "skin": "s315fef95d0c4ba0a901715b9dbc20a3",
            "top": {
                "type": "string",
                "value": "0dp"
            }
        },
        "b2": {
            "height": {
                "type": "ref",
                "value": "preferred"
            },
            "isVisible": true,
            "layoutType": 4,
            "left": {
                "type": "string",
                "value": "0%"
            },
            "top": {
                "type": "string",
                "value": "0dp"
            },
            "width": {
                "type": "string",
                "value": "40%"
            }
        },
        "b3": {
            "height": {
                "type": "string",
                "value": "900dp"
            }
        },
        "b4": {
            "height": {
                "type": "string",
                "value": "900dp"
            },
            "layoutType": 4,
            "left": {
                "type": "string",
                "value": "0dp"
            },
            "top": {
                "type": "string",
                "value": "0dp"
            }
        }
    },
    "retaincontentalignment": false,
    "retainflexpositionproperties": false,
    "snapgridsize": 10,
    "snaptogrid": true,
    "wType": "FlexContainer",
    "widgetalignment": 1,
    "zindex": 2
}