{
    "DNDConfig": null,
    "_height_": {
        "type": "string",
        "value": "220dp"
    },
    "_left_": {
        "type": "string",
        "value": "33dp"
    },
    "_margin_": [
        0,
        0,
        0,
        0
    ],
    "_orientation_": 6,
    "_padding_": [
        0,
        0,
        0,
        0
    ],
    "_percent_": true,
    "_skin_": "s24c92fc23b14f5484b693ee9b8a9b35",
    "_top_": {
        "type": "string",
        "value": "2dp"
    },
    "_width_": {
        "type": "string",
        "value": "100%"
    },
    "allboxes": [],
    "canUpdateUI": true,
    "children": [],
    "clipbounds": true,
    "containerweight": 100,
    "enablescrolling": true,
    "id": "flxSeparator6",
    "info": null,
    "iscustomlayout": false,
    "isvisible": true,
    "kuid": "ib8e9c1d2a6d41a1a85f2fb51367f758",
    "layouttype": 2,
    "name": "kony.ui.FlexContainer",
    "parent": "flxAccFeaturePermissions",
    "pf": "frmBBCopyPermission",
    "responsiveData": {
        "b1": {
            "height": {
                "type": "string",
                "value": "1dp"
            },
            "left": {
                "type": "string",
                "value": "0dp"
            },
            "skin": "sb64a03ea0f843e3b2e516ce6c79c46a",
            "width": {
                "type": "string",
                "value": "100%"
            }
        },
        "b4": {
            "height": {
                "type": "string",
                "value": "1dp"
            },
            "left": {
                "type": "string",
                "value": "0dp"
            },
            "width": {
                "type": "string",
                "value": "96%"
            }
        }
    },
    "retaincontentalignment": false,
    "retainflexpositionproperties": false,
    "retainflowhorizontalalignment": false,
    "snapgridsize": 10,
    "snaptogrid": true,
    "wType": "FlexContainer",
    "widgetalignment": 1,
    "zindex": 1
}