{
    "DNDConfig": null,
    "_height_": {
        "type": "string",
        "value": "220dp"
    },
    "_left_": {
        "type": "string",
        "value": "33dp"
    },
    "_margin_": [
        0,
        0,
        0,
        0
    ],
    "_orientation_": 6,
    "_padding_": [
        0,
        0,
        0,
        0
    ],
    "_percent_": true,
    "_skin_": "s24c92fc23b14f5484b693ee9b8a9b35",
    "_top_": {
        "type": "string",
        "value": "59dp"
    },
    "_width_": {
        "type": "string",
        "value": "100%"
    },
    "allboxes": [],
    "canUpdateUI": true,
    "children": [],
    "clipbounds": true,
    "containerweight": 100,
    "enablescrolling": true,
    "id": "flxSeparatorMain3",
    "info": null,
    "iscustomlayout": false,
    "isvisible": true,
    "kuid": "f61c8e57d9a44405b98b1661c72b55d5",
    "layouttype": 2,
    "name": "kony.ui.FlexContainer",
    "parent": "flxAccFeaturePermissionsMain",
    "pf": "frmBBCopyPermission",
    "responsiveData": {
        "b1": {
            "height": {
                "type": "string",
                "value": "1dp"
            },
            "left": {
                "type": "string",
                "value": "0dp"
            },
            "skin": "sb64a03ea0f843e3b2e516ce6c79c46a",
            "width": {
                "type": "string",
                "value": "100%"
            }
        },
        "b2": {
            "height": {
                "type": "string",
                "value": "1dp"
            },
            "left": {
                "type": "string",
                "value": "0dp"
            },
            "skin": "s87b7ef5406f426c9e26c6f5130e023a",
            "top": {
                "type": "string",
                "value": "48dp"
            }
        },
        "b4": {
            "height": {
                "type": "string",
                "value": "1dp"
            },
            "isVisible": false,
            "left": {
                "type": "string",
                "value": "0dp"
            },
            "skin": "s87b7ef5406f426c9e26c6f5130e023a",
            "top": {
                "type": "string",
                "value": "49dp"
            },
            "width": {
                "type": "string",
                "value": "96%"
            }
        }
    },
    "retaincontentalignment": false,
    "retainflexpositionproperties": false,
    "retainflowhorizontalalignment": false,
    "snapgridsize": 10,
    "snaptogrid": true,
    "wType": "FlexContainer",
    "widgetalignment": 1,
    "zindex": 1
}