{
    "@class": "com.kony.gen.viz.model.component.KVizLabel",
    "DNDConfig": null,
    "_height_": {
        "type": "ref",
        "value": "preferred"
    },
    "_left_": {
        "type": "string",
        "value": "20.56%"
    },
    "_margin_": [
        1,
        1,
        1,
        1
    ],
    "_padding_": [
        0,
        0,
        0,
        0
    ],
    "_skin_": "se56454286124fef97a46e7249497088",
    "_text_": "PROFILE SETTINGS",
    "_top_": {
        "type": "number",
        "value": ""
    },
    "_width_": {
        "type": "ref",
        "value": "preferred"
    },
    "_wrapping_": 2,
    "accessibilityconfig": {
        "a11yLabel": "Profile Settings"
    },
    "android": {
        "textStyle": {
            "letterSpacing": 0,
            "strikeThrough": false
        }
    },
    "canUpdateUI": true,
    "centery": {
        "type": "string",
        "value": "50%"
    },
    "containerweight": 100,
    "contentalignment": 4,
    "id": "lblCustomRole",
    "info": null,
    "ipad": {
        "psp": {
            "wrapping": 2
        }
    },
    "iphone": {
        "psp": {
            "wrapping": 2
        }
    },
    "isvisible": true,
    "kuid": "abb3eaf897424bd2938f07095ec18933",
    "name": "kony.ui.Label",
    "parent": "flxCustomRole",
    "pf": "frmBBCopyPermission",
    "responsiveData": {
        "b1": {
            "left": {
                "type": "string",
                "value": "10%"
            },
            "text": "Custom Role",
            "top": {
                "type": "string",
                "value": ""
            }
        },
        "b2": {
            "left": {
                "type": "string",
                "value": "10%"
            },
            "text": "Custom Role"
        },
        "b3": {
            "left": {
                "type": "string",
                "value": "5%"
            },
            "text": "Custtom Roles"
        }
    },
    "tooltip": "Profile Settings",
    "wType": "Label",
    "zindex": 1
}