{
    "@class": "com.kony.gen.viz.model.component.KVizLabel",
    "DNDConfig": null,
    "_height_": {
        "type": "ref",
        "value": "preferred"
    },
    "_left_": {
        "type": "string",
        "value": "2.80%"
    },
    "_margin_": [
        1,
        1,
        1,
        1
    ],
    "_padding_": [
        0,
        0,
        0,
        0
    ],
    "_skin_": "saba7a95163a455f8f2f131435e16122",
    "_text_": "Basic Permission Details",
    "_width_": {
        "type": "ref",
        "value": "preferred"
    },
    "_wrapping_": 2,
    "accessibilityconfig": {
        "a11yLabel": "Wire Transfer Activity"
    },
    "android": {
        "textStyle": {
            "letterSpacing": 0,
            "strikeThrough": false
        }
    },
    "canUpdateUI": true,
    "centery": {
        "type": "string",
        "value": "50%"
    },
    "containerweight": 100,
    "contentalignment": 4,
    "id": "lblSubMainHeaderMain",
    "info": null,
    "ipad": {
        "psp": {
            "wrapping": 2
        }
    },
    "iphone": {
        "psp": {
            "wrapping": 2
        }
    },
    "isvisible": true,
    "kuid": "b8bea4c0e0e44417adaedd0948dc48b3",
    "name": "kony.ui.Label",
    "parent": "flxRightContainerMainHeader",
    "pf": "frmBBCopyPermission",
    "responsiveData": {
        "b1": {
            "left": {
                "type": "string",
                "value": "2%"
            }
        },
        "b2": {
            "left": {
                "type": "string",
                "value": "2%"
            }
        },
        "b4": {
            "left": {
                "type": "string",
                "value": "2%"
            }
        }
    },
    "tooltip": "",
    "wType": "Label",
    "zindex": 1
}