{
    "@class": "com.kony.gen.viz.model.container.KVizSegment2",
    "DNDConfig": null,
    "_bottom_": {
        "type": "string",
        "value": "2dp"
    },
    "_data_": [
        [
            {
                "lblBank": {
                    "@class": "com.viz.ide.model.segment.SimpleTextSegmentData",
                    "text": "ABC Bank"
                },
                "lblDropdown": {
                    "@class": "com.viz.ide.model.segment.SimpleTextSegmentData",
                    "text": "O"
                },
                "lblIcon": {
                    "@class": "com.viz.ide.model.segment.SimpleTextSegmentData",
                    "text": "s"
                },
                "lblRecipient": {
                    "@class": "com.viz.ide.model.segment.SimpleTextSegmentData",
                    "text": "Eliza Walsh"
                },
                "lblReferenceID": {
                    "@class": "com.viz.ide.model.segment.SimpleTextSegmentData",
                    "text": "3456782414"
                },
                "lblSeparator": {
                    "@class": "com.viz.ide.model.segment.SimpleTextSegmentData",
                    "text": ""
                }
            },
            [
                {
                    "lblBank": {
                        "@class": "com.viz.ide.model.segment.SimpleTextSegmentData",
                        "text": "ABC Bank"
                    },
                    "lblDefaultPermissionsSet": {
                        "@class": "com.viz.ide.model.segment.SimpleTextSegmentData",
                        "text": "Default Permissions Set:"
                    },
                    "lblDropdown": {
                        "@class": "com.viz.ide.model.segment.SimpleTextSegmentData",
                        "text": "O"
                    },
                    "lblFeaturePermissionsSet": {
                        "@class": "com.viz.ide.model.segment.SimpleTextSegmentData",
                        "text": "Default Feature Permissions:"
                    },
                    "lblIcon": {
                        "@class": "com.viz.ide.model.segment.SimpleTextSegmentData",
                        "text": "s"
                    },
                    "lblRecipient": {
                        "@class": "com.viz.ide.model.segment.SimpleTextSegmentData",
                        "text": "Eliza Walsh"
                    },
                    "lblReferenceID": {
                        "@class": "com.viz.ide.model.segment.SimpleTextSegmentData",
                        "text": "3456782414"
                    },
                    "lblSeparator": {
                        "@class": "com.viz.ide.model.segment.SimpleTextSegmentData",
                        "text": ""
                    },
                    "lblTotalFeaturesSelected": {
                        "@class": "com.viz.ide.model.segment.SimpleTextSegmentData",
                        "text": "Total Features Selected:"
                    },
                    "lblTxtDefaultPermissionsSet": {
                        "@class": "com.viz.ide.model.segment.SimpleTextSegmentData",
                        "text": "View,Edit,Create,Admin,Lorem Ipsum,Lorem Ipsum."
                    },
                    "lblTxtFeaturePermissionsSet": {
                        "@class": "com.viz.ide.model.segment.SimpleTextSegmentData",
                        "text": "230 of 230 Accounts"
                    },
                    "lblTxtTotalFeaturesSelected": {
                        "@class": "com.viz.ide.model.segment.SimpleTextSegmentData",
                        "text": "35 of 35(15 default 20 custom)"
                    }
                }
            ]
        ]
    ],
    "_height_": {
        "type": "ref",
        "value": "preferred"
    },
    "_indicator_": "none",
    "_left_": {
        "type": "string",
        "value": "0dp"
    },
    "_margin_": [
        0,
        0,
        0,
        0
    ],
    "_orientation_": 2,
    "_padding_": [
        0,
        0,
        0,
        0
    ],
    "_top_": {
        "type": "string",
        "value": "0dp"
    },
    "_width_": {
        "type": "string",
        "value": "100%"
    },
    "autogrowmode": 1,
    "canUpdateUI": true,
    "containerweight": 100,
    "counter": "00",
    "disabledSkins": {},
    "focusedindex": null,
    "focuseditem": null,
    "groupcells": false,
    "hasSections": true,
    "id": "segAccPermissionsSeg",
    "info": null,
    "ipad": {
        "psp": {
            "indicator": "rowselect"
        }
    },
    "iphone": {
        "psp": {
            "indicator": "rowselect"
        }
    },
    "isvisible": true,
    "kuid": "a908433010144b4ebeffe458157d05ea",
    "masterdata": {},
    "name": "kony.ui.SegmentedUI2",
    "needpageindicator": true,
    "pageoffdotimage": "pageoffdot.png",
    "pageondotimage": "pageondot.png",
    "paginationconfig": {
        "position": "bottom"
    },
    "parent": "flxAccountPermissionsSeg",
    "pf": "frmBBCopyPermission",
    "responsiveData": {
        "b1": {},
        "b4": {
            "bottom": {
                "type": "string",
                "value": "2dp"
            },
            "width": {
                "type": "string",
                "value": "100%"
            }
        }
    },
    "retainselection": false,
    "rowTemplateId": "b3d57f77a7bd4ad99174fb319d74ba2e",
    "rowcounter": 0,
    "rowfocusskin": "s9f69e977910472eb44c62ae28c41fe1",
    "rowskin": "scf5f90f6ac04976ab88b2a4f7153285",
    "rowtemplate": "flxUserManagementBoldText",
    "screenlevelwidget": false,
    "seccounter": 0,
    "sectionHeaderTemplateId": "ff007041a5484f54b0bd2858ae9d6f2c",
    "sectionheaderskin": "sdc4ff4ed1584272be2ae69045dfb29d",
    "sectionheadertemplate": "flxUserManagementAccPermissions",
    "selectedRows": null,
    "selectedState": false,
    "selectedindex": null,
    "selectedindices": null,
    "selecteditems": null,
    "selectedsectionindex": 0,
    "selectionbehavior": "default",
    "separatorcolor": "e9ebee00",
    "separatorrequired": true,
    "separatorthickness": 1,
    "showscrollbars": false,
    "viewtype": "tableview",
    "vizProps": {},
    "wType": "Segment",
    "widgetalignment": 5,
    "widgetdatamap": {
        "flxBank": "flxBank",
        "flxCurrency": "flxCurrency",
        "flxDetails": "flxDetails",
        "flxDetails1": "flxDetails1",
        "flxDetails2": "flxDetails2",
        "flxDetails3": "flxDetails3",
        "flxDropdown": "flxDropdown",
        "flxLeft": "flxLeft",
        "flxLeft1": "flxLeft1",
        "flxLeft2": "flxLeft2",
        "flxReferenceID": "flxReferenceID",
        "flxRight": "flxRight",
        "flxRight1": "flxRight1",
        "flxRight2": "flxRight2",
        "flxSegBulkWireAckWrapper": "flxSegBulkWireAckWrapper",
        "flxUserManagementAccPermissions": "flxUserManagementAccPermissions",
        "flxUserManagementBoldText": "flxUserManagementBoldText",
        "flxWrapper": "flxWrapper",
        "flxtransferActivityWrapper": "flxtransferActivityWrapper",
        "lblBank": "lblBank",
        "lblDefaultPermissionsSet": "lblDefaultPermissionsSet",
        "lblDropdown": "lblDropdown",
        "lblFeaturePermissionsSet": "lblFeaturePermissionsSet",
        "lblIcon": "lblIcon",
        "lblRecipient": "lblRecipient",
        "lblReferenceID": "lblReferenceID",
        "lblSeparator": "lblSeparator",
        "lblTotalFeaturesSelected": "lblTotalFeaturesSelected",
        "lblTxtDefaultPermissionsSet": "lblTxtDefaultPermissionsSet",
        "lblTxtFeaturePermissionsSet": "lblTxtFeaturePermissionsSet",
        "lblTxtTotalFeaturesSelected": "lblTxtTotalFeaturesSelected"
    },
    "zindex": 1
}