{
    "BusinessControllerConfig": {
        "CommandHandler": [],
        "BusinessControllerClass": "TermsAndConditionsManager/BusinessControllers/BusinessController"
    },
    "PresentationControllerConfig": {
        "Default": {
            "PresentationExtensions": [],
            "PresentationControllerClass": "TermsAndConditionsManager/PresentationControllers/PresentationController"
        }
    },
    "Forms": {},
    "ModuleName": "TermsAndConditionsManager"
}