{
    "@class": "com.kony.gen.viz.model.component.KVizButton",
    "DNDConfig": null,
    "_height_": {
        "type": "string",
        "value": "50dp"
    },
    "_left_": {
        "type": "string",
        "value": ""
    },
    "_margin_": [
        6,
        6,
        6,
        6
    ],
    "_padding_": [
        0,
        0,
        0,
        0
    ],
    "_right_": {
        "type": "string",
        "value": "22.40%"
    },
    "_skin_": "s215ef7edf8c4ddb8f9f91fcc80f7b42",
    "_text_": "Modify",
    "_top_": {
        "type": "number",
        "value": ""
    },
    "_width_": {
        "type": "string",
        "value": "145px"
    },
    "accessibilityconfig": {
        "a11yLabel": "Modify"
    },
    "canUpdateUI": true,
    "centery": {
        "type": "string",
        "value": "50%"
    },
    "containerweight": 100,
    "contentalignment": 5,
    "desktopweb": {
        "psp": {
            "hoverSkin": "s83729feaa224e359d660d5af05c4bac"
        }
    },
    "disabledSkins": {},
    "displaytext": true,
    "focusskin": "s434743e49c446699565893e4974ec52",
    "id": "btnModify",
    "info": null,
    "isvisible": true,
    "kuid": "eb175cfb028b4730878ee7fef898be2b",
    "name": "kony.ui.Button",
    "parent": "flxButtons",
    "pf": "frmConfirmEuro",
    "responsiveData": {
        "b1": {
            "height": {
                "type": "string",
                "value": "40dp"
            },
            "right": {
                "type": "string",
                "value": "22.20%"
            },
            "width": {
                "type": "string",
                "value": "18%"
            }
        },
        "b2": {
            "height": {
                "type": "string",
                "value": "40dp"
            },
            "right": {
                "type": "string",
                "value": "26.20%"
            },
            "width": {
                "type": "string",
                "value": "22%"
            }
        },
        "b3": {
            "centerY": {
                "type": "string",
                "value": ""
            },
            "height": {
                "type": "string",
                "value": "40dp"
            },
            "left": {
                "type": "string",
                "value": "2%"
            },
            "right": {
                "type": "string",
                "value": ""
            },
            "top": {
                "type": "string",
                "value": "20dp"
            },
            "width": {
                "type": "string",
                "value": "96%"
            }
        },
        "b4": {
            "height": {
                "type": "string",
                "value": "40dp"
            },
            "right": {
                "type": "string",
                "value": "22.20%"
            },
            "width": {
                "type": "string",
                "value": "18%"
            }
        }
    },
    "texti18n": "i18n.common.modifiy",
    "tooltip": "Modify",
    "wType": "Button",
    "zindex": 1
}