{
    "@class": "com.kony.gen.viz.model.component.KVizButton",
    "DNDConfig": null,
    "__parentReadjusting__": false,
    "_height_": {
        "type": "ref",
        "value": "preferred"
    },
    "_left_": {
        "type": "string",
        "value": "0"
    },
    "_margin_": [
        6,
        6,
        6,
        6
    ],
    "_padding_": [
        0,
        0,
        0,
        0
    ],
    "_right_": {
        "type": "string",
        "value": "30px"
    },
    "_skin_": "se4cbdf6e51f48eda9966caa941c6a19",
    "_text_": "REPEAT",
    "_width_": {
        "type": "string",
        "value": "100%"
    },
    "accessibilityconfig": {
        "a11yLabel": "REPEAT"
    },
    "canUpdateUI": true,
    "centery": {
        "type": "string",
        "value": "50%"
    },
    "containerId": true,
    "containerweight": 100,
    "contentalignment": 4,
    "desktopweb": {
        "psp": {
            "hoverSkin": "sd36babbd8f6461f8b492698ab830d13"
        }
    },
    "disabledSkins": {
        "focusSkin": "sf44d06ca8224832827ea7fdff757013"
    },
    "displaytext": true,
    "id": "btnRepeat",
    "ide_onClick": "AS_Button_c3add177718041faa6182a53c489574d",
    "info": null,
    "isvisible": true,
    "kuid": "f6324594970a42c38433ad62c02df44d",
    "name": "kony.ui.Button",
    "parent": "flxAction",
    "pf": "segBillPaymentHistorySelected",
    "tooltip": "Repeat",
    "wType": "Button",
    "zindex": 1
}