{
    "DNDConfig": null,
    "__parentReadjusting__": false,
    "_height_": {
        "type": "string",
        "value": "40dp"
    },
    "_left_": {
        "type": "string",
        "value": "0"
    },
    "_margin_": [
        0,
        0,
        0,
        0
    ],
    "_orientation_": 6,
    "_padding_": [
        0,
        0,
        0,
        0
    ],
    "_percent_": true,
    "_skin_": "s39310895c2245a0831bc010c4328d70",
    "_top_": {
        "type": "string",
        "value": "0"
    },
    "_width_": {
        "type": "string",
        "value": "100%"
    },
    "allboxes": [],
    "autogrowmode": 0,
    "canUpdateUI": true,
    "children": [
        "flxSortSixColumn"
    ],
    "clipbounds": false,
    "containerweight": 100,
    "enablescrolling": true,
    "id": "flxBillPayeeHistoryHeader",
    "info": null,
    "isTemplate": true,
    "isvisible": true,
    "kuid": "cc30752dbe804456929ddf7b2783249d",
    "layouttype": 2,
    "name": "kony.ui.FlexContainer",
    "parent": "flxLeft",
    "pf": "frmBillPayHistory",
    "responsiveData": {
        "b3": {
            "isVisible": false
        }
    },
    "snapgridsize": 10,
    "snaptogrid": true,
    "wType": "FlexContainer",
    "widgetalignment": 1
}