{
    "DNDConfig": null,
    "__parentReadjusting__": false,
    "_height_": {
        "type": "string",
        "value": "40dp"
    },
    "_left_": {
        "type": "string",
        "value": "0dp"
    },
    "_margin_": [
        0,
        0,
        0,
        0
    ],
    "_orientation_": 6,
    "_padding_": [
        0,
        0,
        0,
        0
    ],
    "_percent_": true,
    "_skin_": "s24c92fc23b14f5484b693ee9b8a9b35",
    "_top_": {
        "type": "string",
        "value": "0dp"
    },
    "_width_": {
        "type": "string",
        "value": "25%"
    },
    "allboxes": [],
    "autogrowmode": 0,
    "canUpdateUI": true,
    "children": [
        "txtFilters",
        "lbltxtFilters"
    ],
    "clipbounds": true,
    "containerweight": 100,
    "enablescrolling": true,
    "id": "flxtxtFilters",
    "info": null,
    "iscustomlayout": false,
    "isvisible": true,
    "kuid": "afc7c938c29d4fa5849f42cb96043e65",
    "layouttype": 3,
    "name": "kony.ui.FlexContainer",
    "parent": "flxFiltersWrapper",
    "pf": "frmBillPayHistory",
    "responsiveData": {
        "b1": {
            "width": {
                "type": "string",
                "value": "22.50%"
            }
        },
        "b2": {
            "width": {
                "type": "string",
                "value": "22.50%"
            }
        },
        "b4": {
            "width": {
                "type": "string",
                "value": "22.50%"
            }
        }
    },
    "retaincontentalignment": false,
    "retainflexpositionproperties": false,
    "retainflowhorizontalalignment": false,
    "snapgridsize": 10,
    "snaptogrid": true,
    "wType": "FlexContainer",
    "widgetalignment": 1
}