{
    "DNDConfig": null,
    "__parentReadjusting__": false,
    "_height_": {
        "type": "string",
        "value": "40dp"
    },
    "_left_": {
        "type": "string",
        "value": "3.70%"
    },
    "_margin_": [
        0,
        0,
        0,
        0
    ],
    "_orientation_": 6,
    "_padding_": [
        0,
        0,
        0,
        0
    ],
    "_percent_": true,
    "_right_": {
        "type": "string",
        "value": "30.50%"
    },
    "_skin_": "s90a3d6a0e234d9685e7d1b8013cf2a2",
    "allboxes": [],
    "autogrowmode": 0,
    "canUpdateUI": true,
    "centery": {
        "type": "string",
        "value": "50%"
    },
    "children": [
        "btnConfirm",
        "txtSearch",
        "flxClearBtn"
    ],
    "clipbounds": true,
    "containerweight": 100,
    "enablescrolling": true,
    "id": "flxtxtSearchandClearbtn",
    "info": null,
    "isvisible": true,
    "kuid": "d339e0857c5d4831a731cbd310854803",
    "layouttype": 3,
    "name": "kony.ui.FlexContainer",
    "parent": "flxSearch",
    "pf": "frmBillPayHistory",
    "responsiveData": {
        "b1": {
            "left": {
                "type": "string",
                "value": "2.50%"
            }
        },
        "b2": {
            "left": {
                "type": "string",
                "value": "2.50%"
            }
        },
        "b3": {
            "right": {
                "type": "string",
                "value": "3%"
            }
        },
        "b4": {
            "left": {
                "type": "string",
                "value": "2.50%"
            }
        }
    },
    "snapgridsize": 10,
    "snaptogrid": true,
    "wType": "FlexContainer",
    "widgetalignment": 1,
    "zindex": 1
}