{
    "DNDConfig": null,
    "_height_": {
        "type": "ref",
        "value": "preferred"
    },
    "_left_": {
        "type": "string",
        "value": "0dp"
    },
    "_margin_": [
        0,
        0,
        0,
        0
    ],
    "_orientation_": 6,
    "_padding_": [
        0,
        0,
        0,
        0
    ],
    "_percent_": true,
    "_right_": {
        "type": "number",
        "value": ""
    },
    "_skin_": "sb75f187c17c456fb0450d66550451yj",
    "_top_": {
        "type": "string",
        "value": "0dp"
    },
    "_width_": {
        "type": "ref",
        "value": "preferred"
    },
    "allboxes": [],
    "autogrowmode": 1,
    "canUpdateUI": true,
    "centerx": {
        "type": "number",
        "value": ""
    },
    "children": [
        "lblBlockTitle",
        "flxDowntimeWarning",
        "flxContainer",
        "flxConfirmation",
        "flxAcknowledgement",
        "flxDBXAccountType",
        "flxEditPayeeDetails",
        "flxEditPayee",
        "flxContractList",
        "Button0c6ce6608aa4349"
    ],
    "clipbounds": false,
    "containerweight": 100,
    "desktopweb": {
        "ide_onBreakpointChange": "AS_FlexContainer_e544ed5835e84efd8ed3da697ecad2c0"
    },
    "enablescrolling": true,
    "id": "addPayee",
    "ide_postShow": "AS_FlexContainer_ee4325275d934bdca0ec4220b3ff5f4a",
    "ide_preShow": "AS_FlexContainer_a1fff180bc2f47e8be6f6b18b72f496c",
    "info": null,
    "isvisible": true,
    "kuid": "dbff9459b2f94eb08b49e6e6c42bccff",
    "layouttype": 4,
    "name": "kony.ui.FlexContainer",
    "parent": "userwidgetmodel",
    "pf": "userwidgetmodel",
    "responsiveData": {
        "b1": {
            "skin": "sb75f187c17c456fb0450d66550451yj"
        },
        "b2": {
            "skin": "sb75f187c17c456fb0450d66550451yj"
        },
        "b3": {
            "layoutType": 4,
            "left": {
                "type": "string",
                "value": "0dp"
            },
            "right": {
                "type": "string",
                "value": "0dp"
            },
            "skin": "sb75f187c17c456fb0450d66550451yj",
            "top": {
                "type": "string",
                "value": "0dp"
            }
        },
        "b4": {
            "centerX": {
                "type": "string",
                "value": ""
            },
            "skin": "sb75f187c17c456fb0450d66550451yj"
        }
    },
    "snapgridsize": 10,
    "snaptogrid": true,
    "wType": "FlexContainer",
    "widgetalignment": 1,
    "zindex": 1
}