{
    "@class": "com.kony.gen.viz.model.component.KVizButton",
    "DNDConfig": null,
    "_height_": {
        "type": "string",
        "value": "40dp"
    },
    "_left_": {
        "type": "number",
        "value": ""
    },
    "_margin_": [
        6,
        6,
        6,
        6
    ],
    "_padding_": [
        0,
        0,
        0,
        0
    ],
    "_right_": {
        "type": "string",
        "value": "42.20%"
    },
    "_skin_": "sc0c7daef2e54d54b7a65b8d39eea303",
    "_text_": "Cancel",
    "_top_": {
        "type": "number",
        "value": ""
    },
    "_width_": {
        "type": "string",
        "value": "18%"
    },
    "accessibilityconfig": {
        "a11yLabel": "Cancel"
    },
    "canUpdateUI": true,
    "centery": {
        "type": "string",
        "value": "50%"
    },
    "containerweight": 100,
    "contentalignment": 5,
    "desktopweb": {
        "psp": {
            "hoverSkin": "s27d12836ff144ca9ef79f578d764c2a"
        }
    },
    "disabledSkins": {},
    "displaytext": true,
    "focusskin": "sfeafe8ea7084c5482895eec761ahhhh",
    "id": "btnAction4",
    "info": null,
    "isvisible": true,
    "kuid": "e9bfbe9d8b6240e5961804651002c638",
    "name": "kony.ui.Button",
    "parent": "flxConfirmButtons",
    "pf": "userwidgetmodel",
    "responsiveData": {
        "b1": {
            "right": {
                "type": "string",
                "value": "340dp"
            },
            "text": "Cancel",
            "width": {
                "type": "string",
                "value": "145dp"
            }
        },
        "b2": {
            "right": {
                "type": "string",
                "value": "50.20%"
            },
            "width": {
                "type": "string",
                "value": "22%"
            }
        },
        "b3": {
            "centerY": {
                "type": "string",
                "value": ""
            },
            "left": {
                "type": "string",
                "value": "2%"
            },
            "right": {
                "type": "string",
                "value": "2%"
            },
            "text": "Cancel",
            "top": {
                "type": "string",
                "value": "20dp"
            },
            "width": {
                "type": "string",
                "value": "96%"
            }
        },
        "b4": {
            "right": {
                "type": "string",
                "value": "340dp"
            },
            "width": {
                "type": "string",
                "value": "145dp"
            }
        }
    },
    "textcommonbreakpoint": "CANCEL",
    "texti18n": "i18n.transfers.Cancel",
    "tooltip": "Cancel",
    "wType": "Button",
    "zindex": 1
}