{
    "@class": "com.kony.gen.viz.model.component.KVizButton",
    "DNDConfig": null,
    "_height_": {
        "type": "string",
        "value": "100%"
    },
    "_left_": {
        "type": "string",
        "value": "0dp"
    },
    "_margin_": [
        6,
        6,
        6,
        6
    ],
    "_padding_": [
        2,
        0,
        2,
        0
    ],
    "_skin_": "sd3570628aa544d59295eeb968620c18",
    "_text_": "Enter Payee Information",
    "_top_": {
        "type": "string",
        "value": "0dp"
    },
    "_width_": {
        "type": "ref",
        "value": "preferred"
    },
    "accessibilityconfig": {
        "a11yLabel": "Enter Payee Information"
    },
    "canUpdateUI": true,
    "centery": {
        "type": "string",
        "value": ""
    },
    "containerweight": 100,
    "contentalignment": 5,
    "desktopweb": {
        "psp": {
            "hoverSkin": "sc81e19f9198454c82d4f148a92a25uu"
        }
    },
    "disabledSkins": {
        "focusSkin": "sf44d06ca8224832827ea7fdff757uua"
    },
    "displaytext": true,
    "focusskin": null,
    "hoverskin": "",
    "id": "btnEnterPayeeInfo",
    "info": null,
    "isvisible": true,
    "kuid": "bbf61e3d40c74fd987bbe714b7f9e8af",
    "name": "kony.ui.Button",
    "paddingLocked": false,
    "paddinginpixel": false,
    "parent": "flxTabs",
    "pf": "userwidgetmodel",
    "responsiveData": {
        "b1": {},
        "b2": {
            "desktopweb": {
                "psp": {
                    "hoverSkin": "sadee24f71b64d3c835d5f78c79ab4tt"
                }
            },
            "left": {
                "type": "string",
                "value": "20dp"
            },
            "padding": [
                0,
                0,
                0,
                0
            ],
            "skin": "sd3570628aa544d59295eeb968620c18"
        },
        "b3": {
            "width": {
                "type": "string",
                "value": "50%"
            }
        },
        "b4": {}
    },
    "texti18n": "i18n.AddPayee.ENTERPAYEEINFORMATION",
    "tooltip": "Enter Payee Information",
    "wType": "Button",
    "zindex": 2
}