{
    "@class": "com.kony.gen.viz.model.component.KVizButton",
    "DNDConfig": null,
    "_height_": {
        "type": "string",
        "value": "40dp"
    },
    "_left_": {
        "type": "number",
        "value": ""
    },
    "_margin_": [
        6,
        6,
        6,
        6
    ],
    "_padding_": [
        0,
        0,
        0,
        0
    ],
    "_right_": {
        "type": "string",
        "value": "16.67%"
    },
    "_skin_": "s100ad33c8184b15ac7a0f140891dbzx",
    "_text_": "Modify",
    "_top_": {
        "type": "number",
        "value": ""
    },
    "_width_": {
        "type": "string",
        "value": "12.50%"
    },
    "accessibilityconfig": {
        "a11yLabel": "Modify"
    },
    "canUpdateUI": true,
    "centery": {
        "type": "string",
        "value": "50%"
    },
    "containerweight": 100,
    "contentalignment": 5,
    "desktopweb": {
        "psp": {
            "hoverSkin": "s27d12836ff144ca9ef79f578d764c2a"
        }
    },
    "disabledSkins": {},
    "displaytext": true,
    "focusskin": "s434743e49c446699565893e4974eztr",
    "id": "btnModify",
    "info": null,
    "isvisible": true,
    "kuid": "j80f025372294b46b6471cca6101d4e7",
    "name": "kony.ui.Button",
    "parent": "confirmflxButtons",
    "pf": "userwidgetmodel",
    "responsiveData": {
        "b2": {
            "right": {
                "type": "string",
                "value": "26.50%"
            },
            "width": {
                "type": "string",
                "value": "22%"
            }
        },
        "b3": {
            "centerY": {
                "type": "string",
                "value": ""
            },
            "left": {
                "type": "string",
                "value": "2%"
            },
            "right": {
                "type": "string",
                "value": "2%"
            },
            "top": {
                "type": "string",
                "value": "80dp"
            },
            "width": {
                "type": "string",
                "value": "96%"
            }
        }
    },
    "texti18n": "i18n.transfers.Modify",
    "tooltip": "Modify",
    "wType": "Button",
    "zindex": 1
}