{
    "DNDConfig": null,
    "_height_": {
        "type": "string",
        "value": "460dp"
    },
    "_left_": {
        "type": "string",
        "value": "6.07%"
    },
    "_margin_": [
        0,
        0,
        0,
        0
    ],
    "_orientation_": 6,
    "_padding_": [
        0,
        0,
        0,
        0
    ],
    "_percent_": true,
    "_skin_": "s1d6d8992edf46aa84a3783a162bc8c6",
    "_top_": {
        "type": "string",
        "value": "9dp"
    },
    "_width_": {
        "type": "string",
        "value": "88.24%"
    },
    "allboxes": [],
    "canUpdateUI": true,
    "children": [
        "lblHeader",
        "lblSeparator",
        "flxMainAccount",
        "lblBottomSeparator",
        "confirmflxButtons"
    ],
    "clipbounds": false,
    "containerweight": 100,
    "enablescrolling": true,
    "id": "flxAccount",
    "info": null,
    "iscustomlayout": false,
    "isvisible": true,
    "kuid": "g4b979a313d844c9a09a3a583df0ac93",
    "layouttype": 4,
    "name": "kony.ui.FlexContainer",
    "parent": "flxDBXAccountType",
    "pf": "userwidgetmodel",
    "responsiveData": {
        "b1": {},
        "b2": {
            "left": {
                "type": "string",
                "value": "2.50%"
            },
            "width": {
                "type": "string",
                "value": "95%"
            }
        },
        "b3": {
            "left": {
                "type": "string",
                "value": "2%"
            },
            "width": {
                "type": "string",
                "value": "96%"
            }
        }
    },
    "retaincontentalignment": false,
    "retainflexpositionproperties": false,
    "retainflowhorizontalalignment": false,
    "snapgridsize": 10,
    "snaptogrid": true,
    "wType": "FlexContainer",
    "widgetalignment": 1,
    "zindex": 1
}