{
    "DNDConfig": null,
    "_height_": {
        "type": "string",
        "value": "1000dp"
    },
    "_left_": {
        "type": "string",
        "value": "0dp"
    },
    "_margin_": [
        0,
        0,
        0,
        0
    ],
    "_orientation_": 6,
    "_padding_": [
        0,
        0,
        0,
        0
    ],
    "_percent_": true,
    "_skin_": "s99b640ad36245199eb712c6a15f4yty",
    "_top_": {
        "type": "string",
        "value": "0dp"
    },
    "_width_": {
        "type": "string",
        "value": "100%"
    },
    "allboxes": [],
    "canUpdateUI": true,
    "children": [
        "editflxClosePopup"
    ],
    "clipbounds": true,
    "containerweight": 100,
    "enablescrolling": true,
    "id": "flxEditPopup",
    "info": null,
    "iscustomlayout": false,
    "isvisible": false,
    "kuid": "d05894c4cfd34cca91a72339f0a8958f",
    "layouttype": 2,
    "name": "kony.ui.FlexContainer",
    "parent": "flxEditPayeeDetails",
    "pf": "userwidgetmodel",
    "responsiveData": {
        "b1": {
            "isVisible": false,
            "skin": "s99b640ad36245199eb712c6a15f4yty"
        },
        "b2": {},
        "b3": {},
        "b4": {
            "isVisible": false
        }
    },
    "retaincontentalignment": false,
    "retainflexpositionproperties": false,
    "retainflowhorizontalalignment": false,
    "snapgridsize": 10,
    "snaptogrid": true,
    "wType": "FlexContainer",
    "widgetalignment": 1,
    "zindex": 5
}