{
    "DNDConfig": null,
    "_height_": {
        "type": "string",
        "value": "120dp"
    },
    "_left_": {
        "type": "string",
        "value": "170dp"
    },
    "_margin_": [
        0,
        0,
        0,
        0
    ],
    "_orientation_": 6,
    "_padding_": [
        0,
        0,
        0,
        0
    ],
    "_percent_": true,
    "_skin_": "sdc143f0e5b64ae3a3f155f691c731yd",
    "_top_": {
        "type": "string",
        "value": "290dp"
    },
    "_width_": {
        "type": "ref",
        "value": "preferred"
    },
    "allboxes": [],
    "canUpdateUI": true,
    "centerx": {
        "type": "string",
        "value": "50%"
    },
    "children": [
        "lblInfoHeader8",
        "lblInfoText8",
        "imgCross8"
    ],
    "clipbounds": true,
    "containerweight": 100,
    "enablescrolling": true,
    "id": "flxInfo8",
    "info": null,
    "iscustomlayout": false,
    "isvisible": true,
    "kuid": "j5ffbce5b6c64c3a879f19d2bff2e5a6",
    "layouttype": 2,
    "name": "kony.ui.FlexContainer",
    "parent": "flxContainer",
    "pf": "userwidgetmodel",
    "responsiveData": {
        "b1": {
            "centerX": {
                "type": "string",
                "value": ""
            },
            "isVisible": false,
            "left": {
                "type": "string",
                "value": "230dp"
            },
            "top": {
                "type": "string",
                "value": "280dp"
            },
            "width": {
                "type": "string",
                "value": "35%"
            }
        },
        "b2": {
            "isVisible": false
        },
        "b3": {
            "isVisible": false,
            "left": {
                "type": "string",
                "value": ""
            },
            "width": {
                "type": "string",
                "value": "65%"
            }
        },
        "b4": {
            "centerX": {
                "type": "string",
                "value": ""
            },
            "isVisible": false,
            "left": {
                "type": "string",
                "value": "230dp"
            },
            "top": {
                "type": "string",
                "value": "280dp"
            },
            "width": {
                "type": "string",
                "value": "35%"
            }
        }
    },
    "retaincontentalignment": false,
    "retainflexpositionproperties": false,
    "retainflowhorizontalalignment": false,
    "snapgridsize": 10,
    "snaptogrid": true,
    "wType": "FlexContainer",
    "widgetalignment": 1,
    "zindex": 1
}