{
    "DNDConfig": null,
    "_height_": {
        "type": "string",
        "value": "220dp"
    },
    "_left_": {
        "type": "string",
        "value": "107dp"
    },
    "_margin_": [
        0,
        0,
        0,
        0
    ],
    "_orientation_": 6,
    "_padding_": [
        0,
        0,
        0,
        0
    ],
    "_percent_": true,
    "_skin_": "s24c92fc23b14f5484b693ee9b8a9b35",
    "_top_": {
        "type": "string",
        "value": "472dp"
    },
    "_width_": {
        "type": "string",
        "value": "100%"
    },
    "allboxes": [],
    "canUpdateUI": true,
    "children": [
        "segCountryCode"
    ],
    "clipbounds": true,
    "containerweight": 100,
    "enablescrolling": true,
    "id": "flxSegment",
    "info": null,
    "iscustomlayout": false,
    "isvisible": true,
    "kuid": "d0b47c2daf1d439aa7be42d4e22f17ba",
    "layouttype": 2,
    "name": "kony.ui.FlexContainer",
    "parent": "flxContainer",
    "pf": "userwidgetmodel",
    "responsiveData": {
        "b1": {
            "height": {
                "type": "string",
                "value": "133dp"
            },
            "isVisible": false,
            "left": {
                "type": "string",
                "value": "114dp"
            },
            "skin": "sdc143f0e5b64ae3a3f155f691c731yd",
            "top": {
                "type": "string",
                "value": "509dp"
            },
            "width": {
                "type": "string",
                "value": "250dp"
            }
        },
        "b2": {
            "height": {
                "type": "string",
                "value": "133dp"
            },
            "isVisible": false,
            "left": {
                "type": "string",
                "value": "48dp"
            },
            "skin": "sdc143f0e5b64ae3a3f155f691c731yd",
            "top": {
                "type": "string",
                "value": "516dp"
            },
            "width": {
                "type": "string",
                "value": "280dp"
            }
        },
        "b3": {
            "height": {
                "type": "string",
                "value": "133dp"
            },
            "isVisible": false,
            "left": {
                "type": "string",
                "value": "12dp"
            },
            "skin": "sdc143f0e5b64ae3a3f155f691c731yd",
            "top": {
                "type": "string",
                "value": "510dp"
            },
            "width": {
                "type": "string",
                "value": "94%"
            }
        },
        "b4": {
            "height": {
                "type": "string",
                "value": "133dp"
            },
            "isVisible": false,
            "left": {
                "type": "string",
                "value": "116dp"
            },
            "top": {
                "type": "string",
                "value": "509dp"
            },
            "width": {
                "type": "string",
                "value": "250dp"
            }
        }
    },
    "retaincontentalignment": false,
    "retainflexpositionproperties": false,
    "retainflowhorizontalalignment": false,
    "snapgridsize": 10,
    "snaptogrid": true,
    "wType": "FlexContainer",
    "widgetalignment": 1,
    "zindex": 15
}