{
    "@class": "com.kony.gen.viz.model.component.KVizLabel",
    "DNDConfig": null,
    "_height_": {
        "type": "ref",
        "value": "preferred"
    },
    "_left_": {
        "type": "string",
        "value": "0%"
    },
    "_margin_": [
        1,
        1,
        1,
        1
    ],
    "_padding_": [
        0,
        0,
        0,
        0
    ],
    "_skin_": "sd9fada740124e4a99edc1f0a05ecwwe",
    "_text_": "Confirm Account Number",
    "_top_": {
        "type": "string",
        "value": "18dp"
    },
    "_width_": {
        "type": "ref",
        "value": "preferred"
    },
    "_wrapping_": 2,
    "accessibilityconfig": {
        "a11yLabel": "Confirm Account Number"
    },
    "android": {
        "textStyle": {
            "letterSpacing": 0,
            "strikeThrough": false
        }
    },
    "canUpdateUI": true,
    "containerweight": 100,
    "contentalignment": 4,
    "id": "lblField4Tab1",
    "info": null,
    "ipad": {
        "psp": {
            "wrapping": 2
        }
    },
    "iphone": {
        "psp": {
            "wrapping": 2
        }
    },
    "isvisible": true,
    "kuid": "c88662bf6e8149a886df1e83e758fbeb",
    "name": "kony.ui.Label",
    "parent": "flxTab1Field4",
    "pf": "userwidgetmodel",
    "responsiveData": {
        "b2": {
            "top": {
                "type": "string",
                "value": "20px"
            }
        },
        "b3": {}
    },
    "texti18n": "i18n.addPayee.ConfirmRelationshipNumber",
    "tooltip": "",
    "wType": "Label",
    "zindex": 1
}