{
    "@class": "com.kony.gen.viz.model.component.KVizLabel",
    "DNDConfig": null,
    "_height_": {
        "type": "ref",
        "value": "preferred"
    },
    "_left_": {
        "type": "string",
        "value": ""
    },
    "_margin_": [
        0,
        0,
        0,
        0
    ],
    "_padding_": [
        0,
        0,
        0,
        0
    ],
    "_skin_": "sbf892219fd04dbcae8a4a76f57b21zb",
    "_text_": "C",
    "_width_": {
        "type": "string",
        "value": "22dp"
    },
    "_wrapping_": 2,
    "accessibilityconfig": {
        "a11yLabel": "Checkbox"
    },
    "android": {
        "textStyle": {
            "letterSpacing": 0,
            "strikeThrough": false
        }
    },
    "canUpdateUI": true,
    "centerx": {
        "type": "string",
        "value": "50%"
    },
    "centery": {
        "type": "string",
        "value": "50%"
    },
    "containerweight": 100,
    "contentalignment": 2,
    "id": "lblRememberMeIcon",
    "info": null,
    "ipad": {
        "psp": {
            "wrapping": 2
        }
    },
    "iphone": {
        "psp": {
            "wrapping": 2
        }
    },
    "isvisible": true,
    "kuid": "bf865ff8d266416ab11011127b0b8522",
    "name": "kony.ui.Label",
    "parent": "flexcheckuncheck",
    "pf": "userwidgetmodel",
    "responsiveData": {},
    "tooltip": "",
    "wType": "Label",
    "zindex": 1
}