{
    "@class": "com.kony.gen.viz.model.component.KVizLabel",
    "DNDConfig": null,
    "_height_": {
        "type": "ref",
        "value": "preferred"
    },
    "_margin_": [
        1,
        1,
        1,
        1
    ],
    "_padding_": [
        2,
        0,
        2,
        1
    ],
    "_skin_": "sbe50fd8b88b43d986df39c3e168b360",
    "_text_": "Label",
    "_top_": {
        "type": "string",
        "value": "21dp"
    },
    "_width_": {
        "type": "string",
        "value": "50%"
    },
    "_wrapping_": 2,
    "accessibilityconfig": {
        "a11yLabel": "Reference Number"
    },
    "android": {
        "textStyle": {
            "letterSpacing": 0,
            "strikeThrough": false
        }
    },
    "canUpdateUI": true,
    "centerx": {
        "type": "string",
        "value": "50%"
    },
    "containerweight": 100,
    "contentalignment": 5,
    "id": "lblRefrenceNumber",
    "info": null,
    "ipad": {
        "psp": {
            "wrapping": 2
        }
    },
    "iphone": {
        "psp": {
            "wrapping": 2
        }
    },
    "isvisible": true,
    "kuid": "hda9360618b74603893964f251e37400",
    "name": "kony.ui.Label",
    "paddinginpixel": false,
    "parent": "flxSection1",
    "pf": "userwidgetmodel",
    "responsiveData": {
        "b1": {},
        "b2": {},
        "b3": {
            "top": {
                "type": "string",
                "value": "13dp"
            }
        },
        "b4": {}
    },
    "texti18n": "i18n.transfers.RefrenceNumber",
    "tooltip": "",
    "wType": "Label",
    "zindex": 1
}