{
    "@class": "com.kony.gen.viz.model.component.KVizTextBox2",
    "DNDConfig": null,
    "_height_": {
        "type": "string",
        "value": "40dp"
    },
    "_left_": {
        "type": "string",
        "value": "30dp"
    },
    "_margin_": [
        0,
        0,
        0,
        0
    ],
    "_padding_": [
        2,
        0,
        0,
        0
    ],
    "_placeholder_": "Enter Account Number",
    "_skin_": "sbad3c0dbd09447ea3f81eebcfc69uuf",
    "_text_": "",
    "_top_": {
        "type": "string",
        "value": "7dp"
    },
    "_width_": {
        "type": "string",
        "value": "92.50%"
    },
    "accessibilityconfig": {
        "a11yLabel": "Enter Account Number as it appears on your Statement or Bill"
    },
    "autocapitalize": "none",
    "autocomplete": false,
    "autocorrect": false,
    "autofilter": false,
    "canUpdateUI": true,
    "containerheight": "",
    "containerheightmode": 1,
    "containerweight": 100,
    "contentalignment": 4,
    "desktopweb": {
        "psp": {
            "hoverSkin": "s80a8c5539a441ee9b9b49917cc45vvg"
        }
    },
    "focusskin": "s2faf9c2766d4142ab33d0bf97445uuz",
    "id": "tbxDetail1",
    "info": null,
    "isvisible": true,
    "keyboardstyle": "A",
    "keyboardtype": "A",
    "kuid": "c9deb288ae8648538c043d0624863a0a",
    "maxtextlength": 50,
    "mode": "A",
    "name": "kony.ui.TextBox2",
    "paddinginpixel": false,
    "parent": "flxContent",
    "pf": "userwidgetmodel",
    "placeholderi18n": "i18n.AddPayee.EnterAccountNumberasit",
    "responsiveData": {
        "b1": {},
        "b2": {
            "width": {
                "type": "string",
                "value": "94.50%"
            }
        },
        "b3": {
            "width": {
                "type": "string",
                "value": "89%"
            }
        }
    },
    "securetextentry": true,
    "texti18n": "i18n.common.AccountNumberPlaceholder",
    "textinputmode": "A",
    "viewtype": "default",
    "wType": "TextField",
    "zindex": 1
}