{
    "DNDConfig": null,
    "_height_": {
        "type": "ref",
        "value": "preferred"
    },
    "_margin_": [
        0,
        0,
        0,
        0
    ],
    "_orientation_": 6,
    "_padding_": [
        0,
        0,
        0,
        0
    ],
    "_percent_": true,
    "_skin_": "scbd4cac3526468089bf3013adff0549",
    "allboxes": [],
    "autogrowmode": 1,
    "canUpdateUI": true,
    "children": [
        "lblSeparator",
        "segBWTEditRecipientFileUnselectedWrapper"
    ],
    "clipbounds": true,
    "containerId": true,
    "containerweight": 100,
    "controllerInfo": {
        "default": {
            "channel": "desktop",
            "name": "flxUserManagementSelectBulkTransactionLimitsMainController"
        }
    },
    "desktopweb": {
        "psp": {}
    },
    "enablescrolling": true,
    "id": "flxUserManagementSelectBulkTransactionLimitsMain",
    "info": null,
    "isTemplate": true,
    "isvisible": true,
    "kuid": "d84778d2b2534644b2d77abc9fcb26da",
    "layouttype": 4,
    "name": "kony.ui.FlexContainer",
    "parent": "segUserManagementSelectBulkTransactionLimitsMain",
    "pf": "segUserManagementSelectBulkTransactionLimitsMain",
    "snapgridsize": 10,
    "snaptogrid": true,
    "wType": "FlexContainer",
    "widgetalignment": 1
}