{
    "@class": "com.kony.gen.viz.model.component.KVizButton",
    "DNDConfig": null,
    "_bottom_": {
        "type": "string",
        "value": "20dp"
    },
    "_height_": {
        "type": "string",
        "value": "40dp"
    },
    "_left_": {
        "type": "string",
        "value": ""
    },
    "_margin_": [
        6,
        6,
        6,
        6
    ],
    "_padding_": [
        0,
        0,
        0,
        0
    ],
    "_right_": {
        "type": "string",
        "value": "30dp"
    },
    "_skin_": "s4be8bdf85bf477882e287999fecbcd9",
    "_text_": "",
    "_top_": {
        "type": "string",
        "value": ""
    },
    "_width_": {
        "type": "string",
        "value": "150dp"
    },
    "accessibilityconfig": {
        "a11yLabel": "Apply"
    },
    "canUpdateUI": true,
    "centery": {
        "type": "string",
        "value": ""
    },
    "containerweight": 100,
    "contentalignment": 5,
    "desktopweb": {
        "psp": {
            "hoverSkin": "s81054b5e2b74f17a5261991df565427"
        }
    },
    "disabledSkins": {
        "focusSkin": "sf44d06ca8224832827ea7fdff757013"
    },
    "displaytext": true,
    "id": "btnApply",
    "info": null,
    "isvisible": true,
    "kuid": "fa3f6defb69b4b0ba6143b0361d13385",
    "name": "kony.ui.Button",
    "parent": "flxSelectAccountBottom",
    "pf": "frmUserManagementTransactionLimit",
    "responsiveData": {
        "b1": {},
        "b2": {
            "width": {
                "type": "string",
                "value": "140dp"
            }
        },
        "b3": {},
        "b4": {
            "right": {
                "type": "string",
                "value": "30dp"
            }
        }
    },
    "texti18n": "i18n.LocateUs.APPLY",
    "tooltip": "Save And Update",
    "wType": "Button",
    "zindex": 1
}