{
    "DNDConfig": null,
    "__parentReadjusting__": false,
    "_height_": {
        "type": "ref",
        "value": "preferred"
    },
    "_left_": {
        "type": "string",
        "value": "0dp"
    },
    "_margin_": [
        0,
        0,
        0,
        0
    ],
    "_orientation_": 6,
    "_padding_": [
        0,
        0,
        0,
        0
    ],
    "_percent_": true,
    "_skin_": "s24c92fc23b14f5484b693ee9b8a9b35",
    "_top_": {
        "type": "string",
        "value": "0dp"
    },
    "_width_": {
        "type": "string",
        "value": "100%"
    },
    "allboxes": [],
    "autogrowmode": 1,
    "canUpdateUI": true,
    "children": [
        "flxHeader",
        "lblWarning",
        "flxFromSelectType",
        "flxSingleMultiplechecksWrapper1",
        "flxAddAnotherCheck",
        "flxPleaseNoteTheFollowingPoints",
        "flxButtons",
        "flxProceedButton"
    ],
    "clipbounds": true,
    "containerweight": 100,
    "enablescrolling": true,
    "id": "flxChequeBookRequests",
    "info": null,
    "isvisible": true,
    "kuid": "fd1e64d88486412cb1966db00954c2a5",
    "layouttype": 4,
    "name": "kony.ui.FlexContainer",
    "parent": "RequestChequeBookSeriesMultiple",
    "pf": "userwidgetmodel",
    "snapgridsize": 10,
    "snaptogrid": true,
    "wType": "FlexContainer",
    "widgetalignment": 1,
    "zindex": 1
}