{
    "@class": "com.kony.gen.viz.model.component.KVizLabel",
    "DNDConfig": null,
    "__parentReadjusting__": false,
    "_height_": {
        "type": "ref",
        "value": "preferred"
    },
    "_left_": {
        "type": "string",
        "value": "30dp"
    },
    "_margin_": [
        1,
        1,
        1,
        1
    ],
    "_padding_": [
        0,
        0,
        0,
        0
    ],
    "_skin_": "sf0cb6e968274aa389aafbf14ff806fd",
    "_text_": "INDIVIDUAL",
    "_width_": {
        "type": "ref",
        "value": "preferred"
    },
    "_wrapping_": 2,
    "accessibilityconfig": {
        "a11yLabel": "Single/Multiple Checks"
    },
    "android": {
        "textStyle": {
            "letterSpacing": 0,
            "strikeThrough": false
        }
    },
    "canUpdateUI": true,
    "centery": {
        "type": "string",
        "value": "47%"
    },
    "containerweight": 100,
    "contentalignment": 4,
    "id": "lblMailingAddressVertical",
    "info": null,
    "ipad": {
        "psp": {
            "wrapping": 2
        }
    },
    "iphone": {
        "psp": {
            "wrapping": 2
        }
    },
    "isvisible": true,
    "kuid": "e14330f9fe47498381d1bb15528ebd1e",
    "name": "kony.ui.Label",
    "parent": "flxMailingAddressVertical",
    "pf": "userwidgetmodel",
    "texti18n": "i18n.ChequeBookReq.mailingaddress",
    "tooltip": "",
    "wType": "Label",
    "zindex": 1
}