{
    "@class": "com.kony.gen.viz.model.component.KVizLabel",
    "DNDConfig": null,
    "__parentReadjusting__": false,
    "_height_": {
        "type": "ref",
        "value": "preferred"
    },
    "_left_": {
        "type": "string",
        "value": "40dp"
    },
    "_margin_": [
        1,
        1,
        1,
        1
    ],
    "_padding_": [
        0,
        0,
        0,
        0
    ],
    "_skin_": "saba7a95163a455f8f2f131435e16122",
    "_text_": "InstantTransfer",
    "_top_": {
        "type": "string",
        "value": "4dp"
    },
    "_width_": {
        "type": "ref",
        "value": "preferred"
    },
    "_wrapping_": 2,
    "accessibilityconfig": {
        "a11yLabel": "Send On"
    },
    "android": {
        "textStyle": {
            "letterSpacing": 0,
            "strikeThrough": false
        }
    },
    "canUpdateUI": true,
    "containerId": true,
    "containerweight": 100,
    "contentalignment": 4,
    "id": "lblInstantTransfer",
    "info": null,
    "ipad": {
        "psp": {
            "wrapping": 2
        }
    },
    "iphone": {
        "psp": {
            "wrapping": 2
        }
    },
    "isvisible": true,
    "kuid": "dd18300d530849ce80de0a8ffe518c7b",
    "name": "kony.ui.Label",
    "parent": "flxInstantTransfer",
    "pf": "segBeneficiariesSelected",
    "texti18n": "i18n.Transfers.InstantTransfer",
    "tooltip": "",
    "wType": "Label",
    "zindex": 1
}