{
    "@class": "com.kony.gen.viz.model.component.KVizButton",
    "DNDConfig": null,
    "_height_": {
        "type": "string",
        "value": "100%"
    },
    "_left_": {
        "type": "string",
        "value": "0dp"
    },
    "_margin_": [
        6,
        6,
        6,
        6
    ],
    "_padding_": [
        2,
        0,
        0,
        0
    ],
    "_skin_": "s4802e6e48d549d5b706ec4cb18dc44d",
    "_text_": "",
    "_top_": {
        "type": "string",
        "value": "0dp"
    },
    "_width_": {
        "type": "string",
        "value": "15dp"
    },
    "canUpdateUI": true,
    "containerweight": 100,
    "contentalignment": 5,
    "disabledSkins": {},
    "displaytext": true,
    "focusskin": null,
    "id": "btnDummyLeftScroll",
    "info": null,
    "isvisible": false,
    "kuid": "hb1d594e31cb4c52a76b0a4a8c1dda71",
    "name": "kony.ui.Button",
    "paddinginpixel": false,
    "parent": "flxFiltersWrapper",
    "pf": "userwidgetmodel",
    "responsiveData": {
        "b3": {
            "contentAlignment": 4,
            "disabledSkins": {},
            "focusSkin": "sc7f21c8f5bd49b0a6eca30cb2137d38",
            "isVisible": false,
            "skin": "sc7f21c8f5bd49b0a6eca30cb2137d38",
            "text": "R",
            "width": {
                "type": "string",
                "value": "8%"
            }
        }
    },
    "wType": "Button",
    "zindex": 1
}