{
    "@class": "com.kony.gen.viz.model.component.KVizLabel",
    "DNDConfig": null,
    "_height_": {
        "type": "ref",
        "value": "preferred"
    },
    "_margin_": [
        0,
        0,
        0,
        0
    ],
    "_padding_": [
        0,
        0,
        0,
        0
    ],
    "_skin_": "s3ecce7e91ac43d494d3e19304c21137",
    "_text_": "p",
    "_width_": {
        "type": "string",
        "value": "30dp"
    },
    "_wrapping_": 2,
    "accessibilityconfig": {
        "a11yLabel": "Print"
    },
    "android": {
        "textStyle": {
            "letterSpacing": 0,
            "strikeThrough": false
        }
    },
    "canUpdateUI": true,
    "centerx": {
        "type": "string",
        "value": "50%"
    },
    "centery": {
        "type": "string",
        "value": "50%"
    },
    "containerweight": 100,
    "contentalignment": 5,
    "desktopweb": {
        "psp": {
            "hoverSkin": "se207ebcf3a0408988b3f339e5032a52"
        }
    },
    "id": "CopyimgPrintIcon0g9eca183916542",
    "info": null,
    "ipad": {
        "psp": {
            "wrapping": 2
        }
    },
    "iphone": {
        "psp": {
            "wrapping": 2
        }
    },
    "isvisible": true,
    "kuid": "ied6c0e639284d80801ba4d14dba0201",
    "name": "kony.ui.Label",
    "parent": "flxPrint0f53bea379ac04f",
    "pf": "userwidgetmodel",
    "tooltip": "Print",
    "wType": "Label",
    "zindex": 1
}