{
    "@class": "com.kony.gen.viz.model.component.KVizImage2",
    "DNDConfig": null,
    "_base64_": null,
    "_height_": {
        "type": "string",
        "value": "18px"
    },
    "_left_": {
        "type": "string",
        "value": "0%"
    },
    "_margin_": [
        0,
        0,
        0,
        0
    ],
    "_padding_": [
        0,
        0,
        0,
        0
    ],
    "_skin_": "s78a5f26c9f14cec9ebed1bb46098f80",
    "_src_": "rb_4_0_ad_loading_indicator_1_2.gif",
    "_top_": {
        "type": "string",
        "value": "0dp"
    },
    "_width_": {
        "type": "string",
        "value": "45px"
    },
    "canUpdateUI": true,
    "containerweight": 100,
    "id": "imgGlow0gf1a6985fbea44",
    "imagescalemode": 1,
    "imagewhiledownloading": "rb_4_0_ad_loading_indicator_1_2.gif",
    "info": null,
    "iscustomlayout": false,
    "isvisible": true,
    "kuid": "if4f51a8f378449090e50dda74daaea3",
    "name": "kony.ui.Image2",
    "parent": "CopyflxAnimate0d7c5e20b17354f",
    "pf": "userwidgetmodel",
    "retaincontentalignment": false,
    "retainflexpositionproperties": false,
    "srcType": 1,
    "wType": "Image",
    "widgetalignment": 5,
    "zindex": 6
}