{
    "@class": "com.kony.gen.viz.model.component.KVizImage2",
    "DNDConfig": null,
    "_base64_": null,
    "_height_": {
        "type": "string",
        "value": "80%"
    },
    "_left_": {
        "type": "number",
        "value": ""
    },
    "_margin_": [
        0,
        0,
        0,
        0
    ],
    "_padding_": [
        0,
        0,
        0,
        0
    ],
    "_skin_": "sfd202f4f97041e0a5cab584a5780bfa",
    "_src_": "search_blue_1_1.png",
    "_width_": {
        "type": "string",
        "value": "80%"
    },
    "accessibilityconfig": {
        "a11yLabel": "Search",
        "a11yValue": ""
    },
    "canUpdateUI": true,
    "centerx": {
        "type": "string",
        "value": "50%"
    },
    "centery": {
        "type": "string",
        "value": "50%"
    },
    "containerweight": 100,
    "id": "imgMobileSearch",
    "imagescalemode": 0,
    "imagewhiledownloading": "img_transparent_4.png",
    "info": null,
    "invokedProperty": "src",
    "isvisible": false,
    "kuid": "i6bab691d8b145639c45240868e27b24",
    "name": "kony.ui.Image2",
    "parent": "flxSearchMobile",
    "pf": "userwidgetmodel",
    "responsiveData": {
        "b3": {
            "height": {
                "type": "string",
                "value": "18dp"
            },
            "isVisible": true,
            "left": {
                "type": "string",
                "value": "0dp"
            },
            "src": "search_blue.png",
            "width": {
                "type": "string",
                "value": "14dp"
            }
        }
    },
    "srcType": 1,
    "tooltip": "Search",
    "wType": "Image",
    "widgetalignment": 5,
    "zindex": 1
}