{
    "@class": "com.kony.gen.viz.model.component.KVizLabel",
    "DNDConfig": null,
    "_height_": {
        "type": "string",
        "value": "20dp"
    },
    "_left_": {
        "type": "string",
        "value": "1dp"
    },
    "_margin_": [
        0,
        0,
        0,
        0
    ],
    "_padding_": [
        0,
        0,
        0,
        0
    ],
    "_skin_": "s5fa92c206ce4a808e533ef1cf05d789",
    "_text_": "M",
    "_top_": {
        "type": "string",
        "value": "0dp"
    },
    "_width_": {
        "type": "string",
        "value": "20dp"
    },
    "_wrapping_": 2,
    "accessibilityconfig": {
        "a11yHidden": false,
        "a11yLabel": "Radio Button"
    },
    "android": {
        "textStyle": {
            "letterSpacing": 0,
            "strikeThrough": false
        }
    },
    "canUpdateUI": true,
    "centery": {
        "type": "number",
        "value": ""
    },
    "containerweight": 100,
    "contentalignment": 1,
    "id": "imgRadioBtnAccountType1",
    "info": null,
    "ipad": {
        "psp": {
            "wrapping": 2
        }
    },
    "iphone": {
        "psp": {
            "wrapping": 2
        }
    },
    "isvisible": false,
    "kuid": "e1b22c304a14484799651d34a22347d9",
    "name": "kony.ui.Label",
    "parent": "flxAccountTypeRadio1",
    "pf": "userwidgetmodel",
    "responsiveData": {
        "b1": {
            "centerY": {
                "type": "string",
                "value": ""
            },
            "height": {
                "type": "string",
                "value": "22dp"
            },
            "skin": "s5fa92c206ce4a808e533ef1cf05d789",
            "top": {
                "type": "string",
                "value": "4dp"
            },
            "width": {
                "type": "string",
                "value": "22dp"
            }
        },
        "b2": {
            "height": {
                "type": "string",
                "value": "22dp"
            },
            "skin": "s5fa92c206ce4a808e533ef1cf05d789",
            "width": {
                "type": "string",
                "value": "22dp"
            }
        },
        "b3": {
            "height": {
                "type": "string",
                "value": "22dp"
            },
            "left": {
                "type": "string",
                "value": "2dp"
            },
            "skin": "s5fa92c206ce4a808e533ef1cf05d789",
            "width": {
                "type": "string",
                "value": "22dp"
            }
        }
    },
    "tooltip": "",
    "wType": "Label",
    "zindex": 1
}