{
    "@class": "com.kony.gen.viz.model.component.KVizLabel",
    "DNDConfig": null,
    "_height_": {
        "type": "ref",
        "value": "preferred"
    },
    "_left_": {
        "type": "string",
        "value": "29dp"
    },
    "_margin_": [
        1,
        1,
        1,
        1
    ],
    "_padding_": [
        0,
        0,
        3,
        0
    ],
    "_skin_": "s5361a4dff6540dc878693350dff2ca4",
    "_text_": "You have searched for:",
    "_top_": {
        "type": "string",
        "value": "27dp"
    },
    "_width_": {
        "type": "ref",
        "value": "preferred"
    },
    "_wrapping_": 2,
    "accessibilityconfig": {
        "a11yLabel": "You have searched for:"
    },
    "android": {
        "textStyle": {
            "letterSpacing": 0,
            "strikeThrough": false
        }
    },
    "canUpdateUI": true,
    "containerweight": 100,
    "contentalignment": 4,
    "id": "lblYouHaveSearchedFor",
    "info": null,
    "ipad": {
        "psp": {
            "wrapping": 2
        }
    },
    "iphone": {
        "psp": {
            "wrapping": 2
        }
    },
    "isvisible": true,
    "kuid": "hd1c34070a884610b121c3c96d8c1ca9",
    "name": "kony.ui.Label",
    "paddinginpixel": false,
    "parent": "flxSearchResults",
    "pf": "userwidgetmodel",
    "responsiveData": {
        "b3": {
            "left": {
                "type": "string",
                "value": "30dp"
            },
            "top": {
                "type": "string",
                "value": "15dp"
            }
        }
    },
    "tooltip": "",
    "wType": "Label",
    "zindex": 1
}