{
    "@class": "com.kony.gen.viz.model.container.KVizSegment2",
    "DNDConfig": null,
    "_data_": [
        {},
        {},
        {},
        {},
        {},
        {},
        {},
        {},
        {},
        {}
    ],
    "_height_": {
        "type": "ref",
        "value": "preferred"
    },
    "_indicator_": "none",
    "_left_": {
        "type": "string",
        "value": "0dp"
    },
    "_margin_": [
        0,
        0,
        0,
        0
    ],
    "_orientation_": 2,
    "_padding_": [
        0,
        0,
        0,
        0
    ],
    "_top_": {
        "type": "string",
        "value": "40dp"
    },
    "_width_": {
        "type": "string",
        "value": "100%"
    },
    "autogrowmode": 1,
    "canUpdateUI": true,
    "containerweight": 100,
    "counter": "10",
    "desktop": {
        "_data_": [
            [
                {
                    "lblSeparator": {
                        "@class": "com.viz.ide.model.segment.SimpleTextSegmentData",
                        "text": "."
                    },
                    "lblTransactionHeader": {
                        "@class": "com.viz.ide.model.segment.SimpleTextSegmentData",
                        "text": "Pending Transactions"
                    }
                },
                [
                    {
                        "imgCategoryDropdown": {
                            "@class": "com.viz.ide.model.segment.ImageSegmentData",
                            "src": "arrow_down.png"
                        },
                        "imgDropdown": {
                            "@class": "com.viz.ide.model.segment.SimpleTextSegmentData",
                            "text": "O"
                        },
                        "imgType": {
                            "@class": "com.viz.ide.model.segment.ImageSegmentData",
                            "src": "payment_method.png"
                        },
                        "imgTypeIcon": {
                            "@class": "com.viz.ide.model.segment.SimpleTextSegmentData",
                            "text": "M"
                        },
                        "imgWarning": {
                            "@class": "com.viz.ide.model.segment.ImageSegmentData",
                            "src": "error_yellow.png"
                        },
                        "lblAmount": {
                            "@class": "com.viz.ide.model.segment.SimpleTextSegmentData",
                            "text": "-$1000000.00"
                        },
                        "lblBalance": {
                            "@class": "com.viz.ide.model.segment.SimpleTextSegmentData",
                            "text": "$3000000.00"
                        },
                        "lblCategory": {
                            "@class": "com.viz.ide.model.segment.SimpleTextSegmentData",
                            "text": "Select Category"
                        },
                        "lblDate": {
                            "@class": "com.viz.ide.model.segment.SimpleTextSegmentData",
                            "text": "26 May 2018"
                        },
                        "lblSeparator": {
                            "@class": "com.viz.ide.model.segment.SimpleTextSegmentData",
                            "text": "."
                        },
                        "lblSeparator2": {
                            "@class": "com.viz.ide.model.segment.SimpleTextSegmentData",
                            "text": ""
                        },
                        "lblTransactionDescription": {
                            "@class": "com.viz.ide.model.segment.SimpleTextSegmentData",
                            "text": "Time Warner Cable On"
                        },
                        "lblType": {
                            "@class": "com.viz.ide.model.segment.SimpleTextSegmentData",
                            "text": "Transaction Type"
                        }
                    }
                ]
            ],
            [
                {
                    "lblSeparator": {
                        "@class": "com.viz.ide.model.segment.SimpleTextSegmentData",
                        "text": "."
                    },
                    "lblTransactionHeader": {
                        "@class": "com.viz.ide.model.segment.SimpleTextSegmentData",
                        "text": "Pending Transactions"
                    }
                },
                []
            ]
        ],
        "rowTemplateId": "a340c420c4104f78b8822e5f6087325e",
        "rowtemplate": "flxSegTransactionRowSavings",
        "sectionHeaderTemplateId": "e353bbba136b4dd58c30c5575dc313e6",
        "sectionheadertemplate": "flxSegTransactionHeader",
        "selectionBehaviorConfig": null,
        "widgetdatamap": {
            "ICFlxSegTransactionHeader": "ICFlxSegTransactionHeader",
            "ICFlxSegTransactionRowSavings": "ICFlxSegTransactionRowSavings",
            "flxAmount": "flxAmount",
            "flxBalance": "flxBalance",
            "flxCategory": "flxCategory",
            "flxCategoryImage": "flxCategoryImage",
            "flxDate": "flxDate",
            "flxDescription": "flxDescription",
            "flxDropdown": "flxDropdown",
            "flxLeft": "flxLeft",
            "flxRight": "flxRight",
            "flxSegTransactionRowWrapper": "flxSegTransactionRowWrapper",
            "flxType": "flxType",
            "flxTypeImage": "flxTypeImage",
            "flxWrapper": "flxWrapper",
            "imgCategoryDropdown": "imgCategoryDropdown",
            "imgDropdown": "imgDropdown",
            "imgType": "imgType",
            "imgTypeIcon": "imgTypeIcon",
            "imgWarning": "imgWarning",
            "lblAmount": "lblAmount",
            "lblBalance": "lblBalance",
            "lblCategory": "lblCategory",
            "lblDate": "lblDate",
            "lblSeparator": "lblSeparator",
            "lblSeparator2": "lblSeparator2",
            "lblTransactionDescription": "lblTransactionDescription",
            "lblTransactionHeader": "lblTransactionHeader",
            "lblType": "lblType"
        }
    },
    "focusedindex": null,
    "focuseditem": null,
    "groupcells": false,
    "hasSections": true,
    "id": "segTransactions",
    "info": null,
    "ipad": {
        "psp": {
            "indicator": "rowselect"
        }
    },
    "iphone": {
        "psp": {
            "indicator": "rowselect"
        }
    },
    "isvisible": false,
    "kuid": "a9b261ac44d7478db6df94b162ba0288",
    "masterdata": {},
    "mobile": {
        "rowTemplateId": null,
        "rowtemplate": null,
        "sectionHeaderTemplateId": null
    },
    "name": "kony.ui.SegmentedUI2",
    "needpageindicator": true,
    "pageoffdotimage": "pageoffdot.png",
    "pageondotimage": "pageondot.png",
    "paginationconfig": {
        "position": "bottom",
        "vdistance": 1
    },
    "parent": "flxSegmentContainer",
    "pf": "userwidgetmodel",
    "responsiveData": {
        "b1": {
            "data": [
                [
                    {
                        "lblSeparator": {
                            "@class": "com.viz.ide.model.segment.SimpleTextSegmentData",
                            "text": "."
                        },
                        "lblTransactionHeader": {
                            "@class": "com.viz.ide.model.segment.SimpleTextSegmentData",
                            "text": "Pending Transactions"
                        }
                    },
                    [
                        {
                            "imgCategoryDropdown": {
                                "@class": "com.viz.ide.model.segment.ImageSegmentData",
                                "src": "arrow_down.png"
                            },
                            "imgDropdown": {
                                "@class": "com.viz.ide.model.segment.SimpleTextSegmentData",
                                "text": "O"
                            },
                            "imgType": {
                                "@class": "com.viz.ide.model.segment.ImageSegmentData",
                                "src": "payment_method.png"
                            },
                            "imgTypeIcon": {
                                "@class": "com.viz.ide.model.segment.SimpleTextSegmentData",
                                "text": "M"
                            },
                            "imgWarning": {
                                "@class": "com.viz.ide.model.segment.ImageSegmentData",
                                "src": "error_yellow.png"
                            },
                            "lblAmount": {
                                "@class": "com.viz.ide.model.segment.SimpleTextSegmentData",
                                "text": "-$1000000.00"
                            },
                            "lblBalance": {
                                "@class": "com.viz.ide.model.segment.SimpleTextSegmentData",
                                "text": "$3000000.00"
                            },
                            "lblCategory": {
                                "@class": "com.viz.ide.model.segment.SimpleTextSegmentData",
                                "text": "Select Category"
                            },
                            "lblDate": {
                                "@class": "com.viz.ide.model.segment.SimpleTextSegmentData",
                                "text": "26 May 2018"
                            },
                            "lblSeparator": {
                                "@class": "com.viz.ide.model.segment.SimpleTextSegmentData",
                                "text": "."
                            },
                            "lblSeparator2": {
                                "@class": "com.viz.ide.model.segment.SimpleTextSegmentData",
                                "text": ""
                            },
                            "lblTransactionDescription": {
                                "@class": "com.viz.ide.model.segment.SimpleTextSegmentData",
                                "text": "Time Warner Cable On"
                            },
                            "lblType": {
                                "@class": "com.viz.ide.model.segment.SimpleTextSegmentData",
                                "text": "Transaction Type"
                            }
                        }
                    ]
                ],
                [
                    {
                        "lblSeparator": {
                            "@class": "com.viz.ide.model.segment.SimpleTextSegmentData",
                            "text": "."
                        },
                        "lblTransactionHeader": {
                            "@class": "com.viz.ide.model.segment.SimpleTextSegmentData",
                            "text": "Pending Transactions"
                        }
                    },
                    []
                ]
            ],
            "rowTemplate": "a39658f122234fe3ae3d7ef04c94579e",
            "sectionHeaderTemplate": "f3bdfb3d92264482b1bd3dc4ff6be107",
            "widgetDataMap": {
                "ICFlxSegTransactionHeader": "ICFlxSegTransactionHeader",
                "ICFlxSegTransactionRowSavings": "ICFlxSegTransactionRowSavings",
                "flxAmount": "flxAmount",
                "flxBalance": "flxBalance",
                "flxCategory": "flxCategory",
                "flxCategoryImage": "flxCategoryImage",
                "flxDate": "flxDate",
                "flxDescription": "flxDescription",
                "flxDropdown": "flxDropdown",
                "flxLeft": "flxLeft",
                "flxRight": "flxRight",
                "flxSegTransactionRowWrapper": "flxSegTransactionRowWrapper",
                "flxType": "flxType",
                "flxTypeImage": "flxTypeImage",
                "flxWrapper": "flxWrapper",
                "imgCategoryDropdown": "imgCategoryDropdown",
                "imgDropdown": "imgDropdown",
                "imgType": "imgType",
                "imgTypeIcon": "imgTypeIcon",
                "imgWarning": "imgWarning",
                "lblAmount": "lblAmount",
                "lblBalance": "lblBalance",
                "lblCategory": "lblCategory",
                "lblDate": "lblDate",
                "lblSeparator": "lblSeparator",
                "lblSeparator2": "lblSeparator2",
                "lblTransactionDescription": "lblTransactionDescription",
                "lblTransactionHeader": "lblTransactionHeader",
                "lblType": "lblType"
            }
        },
        "b2": {},
        "b3": {}
    },
    "retainselection": false,
    "rowTemplateId": null,
    "rowcounter": 0,
    "rowfocusskin": "s9f69e977910472eb44c62ae28c41fe1",
    "rowskin": "s3b5791b4ec34c1eb0c951cadcf1e264",
    "rowtemplate": "CopysegTransactionsRowSelectedWrapper",
    "screenlevelwidget": false,
    "seccounter": 1,
    "sectionHeaderTemplateId": null,
    "sectionheaderskin": null,
    "sectionheadertemplate": "CopyCopyflxSegTransactionHeader",
    "selectedRows": null,
    "selectedState": false,
    "selectedindex": null,
    "selectedindices": null,
    "selecteditems": null,
    "selectedsectionindex": 0,
    "selectionbehavior": "default",
    "separatorrequired": false,
    "showscrollbars": false,
    "swipeContext": {
        "currentPage": 0,
        "imageWidth": 1400,
        "widthRatio": 0
    },
    "viewtype": "tableview",
    "vizProps": {},
    "wType": "Segment",
    "widgetalignment": 5,
    "widgetdatamap": {
        "ICFlxSegTransactionHeader": "ICFlxSegTransactionHeader",
        "ICFlxSegTransactionRowSavings": "ICFlxSegTransactionRowSavings",
        "flxAmount": "flxAmount",
        "flxBalance": "flxBalance",
        "flxCategory": "flxCategory",
        "flxCategoryImage": "flxCategoryImage",
        "flxDate": "flxDate",
        "flxDescription": "flxDescription",
        "flxDropdown": "flxDropdown",
        "flxLeft": "flxLeft",
        "flxRight": "flxRight",
        "flxSegTransactionRowWrapper": "flxSegTransactionRowWrapper",
        "flxType": "flxType",
        "flxTypeImage": "flxTypeImage",
        "flxWrapper": "flxWrapper",
        "imgCategoryDropdown": "imgCategoryDropdown",
        "imgDropdown": "imgDropdown",
        "imgType": "imgType",
        "imgTypeIcon": "imgTypeIcon",
        "imgWarning": "imgWarning",
        "lblAmount": "lblAmount",
        "lblBalance": "lblBalance",
        "lblCategory": "lblCategory",
        "lblDate": "lblDate",
        "lblSeparator": "lblSeparator",
        "lblSeparator2": "lblSeparator2",
        "lblTransactionDescription": "lblTransactionDescription",
        "lblTransactionHeader": "lblTransactionHeader",
        "lblType": "lblType"
    },
    "widgetskin": "sa8f4f29552948d3bb61e66a507ee2a9",
    "zindex": 1
}