{
    "@class": "com.kony.gen.viz.model.component.KVizButton",
    "DNDConfig": null,
    "__parentReadjusting__": false,
    "_height_": {
        "type": "string",
        "value": "40dp"
    },
    "_margin_": [
        6,
        6,
        6,
        6
    ],
    "_padding_": [
        0,
        0,
        0,
        0
    ],
    "_right_": {
        "type": "string",
        "value": "28dp"
    },
    "_skin_": "sfbbba35ede4457b94eb681b72349b98",
    "_text_": "PROCEED",
    "_width_": {
        "type": "string",
        "value": "257dp"
    },
    "accessibilityconfig": {
        "a11yLabel": "Continue"
    },
    "canUpdateUI": true,
    "centery": {
        "type": "string",
        "value": "50%"
    },
    "containerweight": 100,
    "contentalignment": 5,
    "desktopweb": {
        "psp": {
            "hoverSkin": "s7ab6326aaf94c28b90b61fcb1b54547"
        }
    },
    "disabledSkins": {
        "blockedUISkin": "s1400c825f384a46b15a0f8d6829ecef"
    },
    "displaytext": true,
    "focusskin": "sfd0ce0d7f454c9f83c7e815a90a8a55",
    "id": "btnProceed",
    "info": null,
    "isvisible": true,
    "kuid": "ce218a963b2c42aebf6195336192e81c",
    "name": "kony.ui.Button",
    "parent": "flxStep1Buttons",
    "pf": "userwidgetmodel",
    "texti18n": "i18n.common.proceed",
    "tooltip": "Continue",
    "wType": "Button",
    "zindex": 1
}