{
    "@class": "com.kony.gen.viz.model.component.KVizLabel",
    "DNDConfig": null,
    "__parentReadjusting__": false,
    "_height_": {
        "type": "ref",
        "value": "preferred"
    },
    "_left_": {
        "type": "string",
        "value": "0dp"
    },
    "_margin_": [
        1,
        1,
        1,
        1
    ],
    "_padding_": [
        0,
        0,
        5,
        0
    ],
    "_skin_": "s415be662ebd4bc8b09a3193c2067ba6",
    "_text_": "Monthly",
    "_top_": {
        "type": "string",
        "value": "10dp"
    },
    "_width_": {
        "type": "string",
        "value": "90%"
    },
    "_wrapping_": 2,
    "accessibilityconfig": {
        "a11yLabel": "Monthly"
    },
    "android": {
        "textStyle": {
            "letterSpacing": 0,
            "strikeThrough": false
        }
    },
    "canUpdateUI": true,
    "containerId": true,
    "containerweight": 100,
    "contentalignment": 4,
    "id": "lblFrequencyValue1",
    "info": null,
    "ipad": {
        "psp": {
            "wrapping": 2
        }
    },
    "iphone": {
        "psp": {
            "wrapping": 2
        }
    },
    "isvisible": true,
    "kuid": "e3d0767bf9e249de972c4509c3aa4725",
    "name": "kony.ui.Label",
    "paddinginpixel": false,
    "parent": "flxFrequencyTitle1",
    "pf": "segFastPastTransfersSelectedMobile",
    "tooltip": "",
    "wType": "Label",
    "zindex": 1
}