{
    "DNDConfig": null,
    "__parentReadjusting__": false,
    "_height_": {
        "type": "ref",
        "value": "preferred"
    },
    "_left_": {
        "type": "string",
        "value": "3%"
    },
    "_margin_": [
        0,
        0,
        0,
        0
    ],
    "_orientation_": 6,
    "_padding_": [
        0,
        0,
        0,
        0
    ],
    "_percent_": true,
    "_skin_": "s24c92fc23b14f5484b693ee9b8a9b35",
    "_top_": {
        "type": "string",
        "value": "0dp"
    },
    "_width_": {
        "type": "string",
        "value": "18.50%"
    },
    "allboxes": [],
    "autogrowmode": 1,
    "canUpdateUI": true,
    "children": [
        "lblNotesKey",
        "lblColon6"
    ],
    "clipbounds": true,
    "containerweight": 100,
    "enablescrolling": true,
    "id": "flxNotesKey",
    "info": null,
    "isvisible": true,
    "kuid": "e60a6fdcb97543ada601dba8bc127659",
    "layouttype": 3,
    "name": "kony.ui.FlexContainer",
    "parent": "flxNotes",
    "pf": "frmPayBillAcknowledgement",
    "responsiveData": {
        "b1": {
            "width": {
                "type": "string",
                "value": "28%"
            }
        },
        "b3": {},
        "b4": {
            "width": {
                "type": "string",
                "value": "28%"
            }
        }
    },
    "snapgridsize": 10,
    "snaptogrid": true,
    "wType": "FlexContainer",
    "widgetalignment": 1,
    "zindex": 1
}