{
    "@class": "com.kony.gen.viz.model.component.KVizButton",
    "DNDConfig": null,
    "__parentReadjusting__": false,
    "_height_": {
        "type": "ref",
        "value": "preferred"
    },
    "_left_": {
        "type": "string",
        "value": "0dp"
    },
    "_margin_": [
        6,
        6,
        6,
        6
    ],
    "_padding_": [
        0,
        0,
        0,
        0
    ],
    "_skin_": "sae54276696f477dbbd70e34725a8526",
    "_text_": "",
    "_top_": {
        "type": "string",
        "value": "0dp"
    },
    "_width_": {
        "type": "ref",
        "value": "preferred"
    },
    "accessibilityconfig": {
        "a11yLabel": "View Activity"
    },
    "canUpdateUI": true,
    "containerId": true,
    "containerweight": 100,
    "contentalignment": 5,
    "desktopweb": {
        "psp": {
            "hoverSkin": "sd36babbd8f6461f8b492698ab830d13"
        }
    },
    "disabledSkins": {
        "focusSkin": "sf44d06ca8224832827ea7fdff757013"
    },
    "displaytext": true,
    "id": "btnVewActivity",
    "ide_onClick": "AS_Button_b35cfb250bcd4155bde3effcec5517b4",
    "info": null,
    "isvisible": true,
    "kuid": "b9e1603042c248f59f119128e7aff5da",
    "name": "kony.ui.Button",
    "parent": "flxActions",
    "pf": "segManageRecipientsWireTransfersNewSelected",
    "texti18n": "i18n.transfers.viewActivity",
    "tooltip": "View Activity",
    "wType": "Button",
    "zindex": 1
}