{
    "@class": "com.kony.gen.viz.model.component.KVizUserWidget",
    "DNDConfig": null,
    "_bottom_": {
        "type": "string",
        "value": "20dp"
    },
    "_children_": [],
    "_height_": {
        "type": "ref",
        "value": "preferred"
    },
    "_left_": {
        "type": "string",
        "value": "2.50%"
    },
    "_margin_": [
        0,
        0,
        0,
        0
    ],
    "_orientation_": 1,
    "_padding_": [
        0,
        0,
        0,
        0
    ],
    "_percent_": true,
    "_skin_": "sdc143f0e5b64ae3a3f155f691c73fa7",
    "_top_": {
        "type": "string",
        "value": "20dp"
    },
    "_width_": {
        "type": "string",
        "value": "95%"
    },
    "areflexpropsreferenced": false,
    "autogrowmode": 1,
    "canUpdateUI": true,
    "centerx": {
        "type": "number",
        "value": ""
    },
    "clipbounds": false,
    "containerweight": 0,
    "dataDiffs": {
        "btnCancel": {
            "__events__": {},
            "__info__": {
                "kuid": "bc18bd5b65e64b36bffb4bd66c28baac",
                "srcKUID": "j2dcdf72e3cc4fce86251015822e27cd",
                "wType": "Button"
            },
            "left": {
                "Default": {
                    "type": "number",
                    "value": ""
                }
            },
            "responsiveData": {
                "b1": {
                    "top": {
                        "type": "string",
                        "value": "20dp"
                    }
                },
                "b2": {
                    "top": {
                        "type": "string",
                        "value": "20dp"
                    }
                },
                "b3": {
                    "left": {
                        "type": "string",
                        "value": "2.50%"
                    },
                    "top": {
                        "type": "string",
                        "value": "20dp"
                    },
                    "width": {
                        "type": "string",
                        "value": "95%"
                    }
                },
                "b4": {
                    "top": {
                        "type": "string",
                        "value": "20dp"
                    }
                }
            },
            "top": {
                "Default": {
                    "type": "number",
                    "value": ""
                }
            },
            "width": {
                "Default": {
                    "type": "string",
                    "value": "150dp"
                }
            }
        },
        "btnContinue": {
            "__events__": {},
            "__info__": {
                "kuid": "f8ebb738272f46919ea2f0bcf22ac232",
                "srcKUID": "b9b8e62f2f4549d38e4142209e4ce39c",
                "wType": "Button"
            },
            "left": {
                "Default": {
                    "type": "number",
                    "value": ""
                }
            },
            "responsiveData": {
                "b1": {
                    "top": {
                        "type": "number",
                        "value": "20"
                    }
                },
                "b2": {
                    "top": {
                        "type": "number",
                        "value": "20"
                    }
                },
                "b3": {
                    "left": {
                        "type": "string",
                        "value": "2.50%"
                    },
                    "top": {
                        "type": "string",
                        "value": "20dp"
                    },
                    "width": {
                        "type": "string",
                        "value": "95%"
                    }
                },
                "b4": {
                    "top": {
                        "type": "number",
                        "value": "20"
                    }
                }
            },
            "top": {
                "Default": {
                    "type": "string",
                    "value": "0"
                }
            },
            "width": {
                "Default": {
                    "type": "string",
                    "value": "150dp"
                }
            }
        },
        "flxAmountDetails": {
            "__events__": {},
            "__info__": {
                "kuid": "bfabd8ce8c41463c9afa5304bc3aa234",
                "srcKUID": "dd5d8a2638f94faca900150440a1f329",
                "wType": "FlexContainer"
            }
        },
        "flxAmountKey": {
            "__events__": {},
            "__info__": {
                "kuid": "ebc4136f98fe41219aacb64cf9bc3334",
                "srcKUID": "gde1d17b005c402598091cf5fe7f0fa2",
                "wType": "FlexContainer"
            }
        },
        "flxAmountValue": {
            "__events__": {},
            "__info__": {
                "kuid": "gf76d5c50a574ecbb65ac03ae20671cb",
                "srcKUID": "d2e206a3203340199cf366620b4deafa",
                "wType": "FlexContainer"
            }
        },
        "flxButtons": {
            "__events__": {},
            "__info__": {
                "kuid": "e47d13d9d0af4981ab7e8cd2231c1c7c",
                "srcKUID": "ec0410e391a64d428e55e3f7282ac274",
                "wType": "FlexContainer"
            },
            "autogrowMode": {
                "Default": 0
            },
            "height": {
                "Default": {
                    "type": "ref",
                    "value": "preferred"
                }
            },
            "layoutType": 3,
            "responsiveData": {
                "b1": {
                    "height": {
                        "type": "string",
                        "value": "80dp"
                    }
                },
                "b2": {
                    "height": {
                        "type": "string",
                        "value": "80dp"
                    }
                },
                "b3": {
                    "height": {
                        "type": "string",
                        "value": "140dp"
                    },
                    "layoutType": 4
                },
                "b4": {
                    "height": {
                        "type": "string",
                        "value": "80dp"
                    }
                }
            },
            "reverseLayoutDirection": true
        },
        "flxError": {
            "__events__": {},
            "__info__": {
                "kuid": "fb522f6dce644167abca58af2b3ccb21",
                "srcKUID": "d553b62e8b284823b229b60af0bfab53",
                "wType": "FlexContainer"
            }
        },
        "flxHorzDetail1": {
            "__events__": {},
            "__info__": {
                "kuid": "a7a1e41108f94433a82befc6ca4ba60a",
                "srcKUID": "a3798f2107174151ac137d4a1a0a61bb",
                "wType": "FlexContainer"
            }
        },
        "flxHorzDetail2": {
            "__events__": {},
            "__info__": {
                "kuid": "id447d7bca02463f9b9f67b232064a4b",
                "srcKUID": "ea58ab21b7e349fd97600ee4145e795e",
                "wType": "FlexContainer"
            }
        },
        "flxHorzDetail3": {
            "__events__": {},
            "__info__": {
                "kuid": "ee1404101c6f4e4398644cf682a32c76",
                "srcKUID": "f5aa36b5c6c04130a2362aed4ab0f5b8",
                "wType": "FlexContainer"
            }
        },
        "flxHorzDetail4": {
            "__events__": {},
            "__info__": {
                "kuid": "d0adc311015d4ad98f402738afd5cc14",
                "srcKUID": "ced2e48fc5fd4030b3201a30e08274c2",
                "wType": "FlexContainer"
            }
        },
        "flxKey1": {
            "__events__": {},
            "__info__": {
                "kuid": "ed2015f4d4f549c4be846ca1a13ae3d2",
                "srcKUID": "f2bd3375a44a4c6384b713f60d0fd729",
                "wType": "FlexContainer"
            }
        },
        "flxKey2": {
            "__events__": {},
            "__info__": {
                "kuid": "ad89265bb7e74804813dbe269547273b",
                "srcKUID": "d0bd62eb7054428e81d0e96536f43878",
                "wType": "FlexContainer"
            }
        },
        "flxKey3": {
            "__events__": {},
            "__info__": {
                "kuid": "a34cbc78e53d4f09801d3127b576920a",
                "srcKUID": "e5b01b19f6d247499581d7a58a977ced",
                "wType": "FlexContainer"
            }
        },
        "flxKey4": {
            "__events__": {},
            "__info__": {
                "kuid": "g9a384cac402476fb12bc35019e4bb31",
                "srcKUID": "ebf8a2c8903e43499dbd81578333bb70",
                "wType": "FlexContainer"
            }
        },
        "flxSeparator": {
            "__events__": {},
            "__info__": {
                "kuid": "hc859f4462f44a5782c1e9ac02dd6fe7",
                "srcKUID": "geb52475c642448ba7ff6b9e5c55c409",
                "wType": "FlexContainer"
            }
        },
        "flxSeparator1": {
            "__events__": {},
            "__info__": {
                "kuid": "e7946d65a6dc46cb8044ff65ec5c47e6",
                "srcKUID": "faedb8ee9f3e47058108d1eb2b4c9a53",
                "wType": "FlexContainer"
            }
        },
        "flxValue1": {
            "__events__": {},
            "__info__": {
                "kuid": "b806aeb09c1e44ba85514af4a894cd7d",
                "srcKUID": "i03f1fd420b4494aa3f0274abd22df75",
                "wType": "FlexContainer"
            }
        },
        "flxValue2": {
            "__events__": {},
            "__info__": {
                "kuid": "g0b6bac6de304489a01bcfdb47db6fd2",
                "srcKUID": "ga0d9145454a42c2893756729122e37b",
                "wType": "FlexContainer"
            }
        },
        "flxValue3": {
            "__events__": {},
            "__info__": {
                "kuid": "i0133530687e471a8a184abf7648e8fc",
                "srcKUID": "d6430f9362f241a8b8ddb5ae05965ae3",
                "wType": "FlexContainer"
            }
        },
        "flxValue4": {
            "__events__": {},
            "__info__": {
                "kuid": "cc33392b1cfe437ab325b6a73649a709",
                "srcKUID": "b08aed121f76460ca6022a897d04f1de",
                "wType": "FlexContainer"
            }
        },
        "fundGoal": {
            "__events__": {},
            "__info__": {
                "isRoot": true,
                "kuid": "afbeda50b0234931a284af8d40483172",
                "srcKUID": "ffcbf19a8e5c4a42bc2c4f9e6abe3679",
                "wType": "FlexContainer"
            }
        },
        "lblAmount": {
            "__events__": {},
            "__info__": {
                "kuid": "hb4e700ac59f436f80c13435480ea408",
                "srcKUID": "d9ecf1073710491b81031dacd909642c",
                "wType": "Label"
            }
        },
        "lblCurrency": {
            "__events__": {},
            "__info__": {
                "kuid": "i381b2c4331a47d39347c5a183cc9634",
                "srcKUID": "faaafb86f2cb4448b5646374c0c8c440",
                "wType": "Label"
            }
        },
        "lblError": {
            "__events__": {},
            "__info__": {
                "kuid": "j9f2f493b1ae439b9ba26c8d9c0d1102",
                "srcKUID": "ba375e0121724e48af97888f7e106afa",
                "wType": "Label"
            }
        },
        "lblKey1": {
            "__events__": {},
            "__info__": {
                "kuid": "hec7adef332a4b7198e2c3ab2e4c4da6",
                "srcKUID": "g6bb682bcad542509efb22d8e41c375d",
                "wType": "Label"
            }
        },
        "lblKey2": {
            "__events__": {},
            "__info__": {
                "kuid": "ea98a8f83aa44766bbfb03a8d018ed1d",
                "srcKUID": "e46d24300b7c4816a087ad419e77d3ad",
                "wType": "Label"
            }
        },
        "lblKey3": {
            "__events__": {},
            "__info__": {
                "kuid": "e35ccd859e674eb0891b4c1ca0935745",
                "srcKUID": "a93aa76f72e940b18cd934c85a98f597",
                "wType": "Label"
            }
        },
        "lblKey4": {
            "__events__": {},
            "__info__": {
                "kuid": "e78f936adec44ae48bb9f3fb022fb6f7",
                "srcKUID": "d7f80fe93042478ca5b41a15174283b5",
                "wType": "Label"
            }
        },
        "lblValue1": {
            "__events__": {},
            "__info__": {
                "kuid": "a7f9a80631ef4d6db863e8021cf4ac33",
                "srcKUID": "b4748ca895f74742845aa7c58484779a",
                "wType": "Label"
            }
        },
        "lblValue2": {
            "__events__": {},
            "__info__": {
                "kuid": "b79531616a6341209c2d42b048646e0f",
                "srcKUID": "fa292066204a446bbf64039c81c9d083",
                "wType": "Label"
            }
        },
        "lblValue3": {
            "__events__": {},
            "__info__": {
                "kuid": "h85dbe5a8b4041c0968caa5b82d7f118",
                "srcKUID": "f9719cf454154e43a6f829432147ef9f",
                "wType": "Label"
            }
        },
        "lblValue4": {
            "__events__": {},
            "__info__": {
                "kuid": "g2253797e6644114886ae17efa140b73",
                "srcKUID": "f348bbc440e641f79068024fd9bb38d9",
                "wType": "Label"
            }
        },
        "tbxAmount": {
            "__events__": {},
            "__info__": {
                "kuid": "f216cfc0f5e549c9ab719948e4777e13",
                "srcKUID": "cc6c12fe7da9477a82dcd83759b66666",
                "wType": "TextField"
            }
        }
    },
    "enablescrolling": true,
    "id": "fundGoal",
    "info": null,
    "iscustomlayout": false,
    "isdatareferenced": false,
    "isvisible": true,
    "kuid": "afbeda50b0234931a284af8d40483172",
    "layouttype": 4,
    "masterType": 0,
    "minheight": {
        "type": "string",
        "value": "440dp"
    },
    "name": "kony.ui.UserWidgetInstance",
    "parent": "flxMain",
    "pf": "frmFundBudget",
    "retaincontentalignment": false,
    "retainflexpositionproperties": false,
    "retainflowhorizontalalignment": false,
    "snapgridsize": 10,
    "snaptogrid": true,
    "sourceUserWidget": "ffcbf19a8e5c4a42bc2c4f9e6abe3679",
    "wType": "UserWidgetInstance"
}