{
    "DNDConfig": null,
    "__parentReadjusting__": false,
    "_height_": {
        "type": "string",
        "value": "150dp"
    },
    "_left_": {
        "type": "string",
        "value": "0%"
    },
    "_margin_": [
        0,
        0,
        0,
        0
    ],
    "_orientation_": 6,
    "_padding_": [
        0,
        0,
        0,
        0
    ],
    "_percent_": true,
    "_right_": {
        "type": "number",
        "value": ""
    },
    "_skin_": "sdc143f0e5b64ae3a3f155f691c73fa7",
    "_top_": {
        "type": "string",
        "value": "0dp"
    },
    "_width_": {
        "type": "string",
        "value": "50%"
    },
    "allboxes": [],
    "canUpdateUI": true,
    "children": [
        "segEditBillerMobile"
    ],
    "clipbounds": false,
    "containerweight": 100,
    "enablescrolling": true,
    "id": "flxEditBillerSegmentMobile",
    "info": null,
    "isvisible": false,
    "kuid": "a748713eb1704fdc97654286f9145731",
    "layouttype": 2,
    "name": "kony.ui.FlexContainer",
    "parent": "flxEditBillerMobile",
    "pf": "frmManagePayees",
    "responsiveData": {
        "b1": {
            "isVisible": true
        },
        "b3": {
            "height": {
                "type": "string",
                "value": "670dp"
            },
            "isVisible": true,
            "layoutType": 4,
            "left": {
                "type": "string",
                "value": "10dp"
            },
            "right": {
                "type": "string",
                "value": "10dp"
            },
            "skin": "sdc143f0e5b64ae3a3f155f691c73fa7",
            "top": {
                "type": "string",
                "value": "110dp"
            },
            "width": {
                "type": "string",
                "value": ""
            }
        }
    },
    "snapgridsize": 10,
    "snaptogrid": true,
    "wType": "FlexContainer",
    "widgetalignment": 1,
    "zindex": 1
}