{
    "DNDConfig": null,
    "__parentReadjusting__": false,
    "_bottom_": {
        "type": "string",
        "value": "10dp"
    },
    "_height_": {
        "type": "ref",
        "value": "preferred"
    },
    "_left_": {
        "type": "string",
        "value": "0%"
    },
    "_margin_": [
        0,
        0,
        0,
        0
    ],
    "_orientation_": 6,
    "_padding_": [
        0,
        0,
        0,
        0
    ],
    "_percent_": true,
    "_skin_": "sdc143f0e5b64ae3a3f155f691c73fa7",
    "_top_": {
        "type": "string",
        "value": "0"
    },
    "_width_": {
        "type": "string",
        "value": "100%"
    },
    "allboxes": [],
    "autogrowmode": 1,
    "canUpdateUI": true,
    "children": [
        "btnUpdateAccntPreferences"
    ],
    "clipbounds": false,
    "containerweight": 100,
    "enablescrolling": true,
    "id": "flxActions",
    "ide_onClick": "AS_FlexContainer_f76b9a4d883543d9adfa649b1a1e3121",
    "info": null,
    "isvisible": false,
    "kuid": "c14e3c42f88a4de48f56f682c1e26d76",
    "layouttype": 4,
    "name": "kony.ui.FlexContainer",
    "parent": "flxRightContainer",
    "pf": "frmAccountsLandingNew",
    "responsiveData": {
        "b1": {
            "bottom": {
                "type": "string",
                "value": "15dp"
            },
            "top": {
                "type": "string",
                "value": "45dp"
            }
        },
        "b4": {
            "bottom": {
                "type": "string",
                "value": "15dp"
            },
            "top": {
                "type": "string",
                "value": "45dp"
            }
        }
    },
    "snapgridsize": 10,
    "snaptogrid": true,
    "wType": "FlexContainer",
    "widgetalignment": 1,
    "zindex": 1
}