{
    "DNDConfig": null,
    "__parentReadjusting__": false,
    "_height_": {
        "type": "string",
        "value": "100dp"
    },
    "_left_": {
        "type": "string",
        "value": "1.10%"
    },
    "_margin_": [
        0,
        0,
        0,
        0
    ],
    "_orientation_": 6,
    "_padding_": [
        0,
        0,
        0,
        0
    ],
    "_percent_": true,
    "_skin_": "sdc143f0e5b64ae3a3f155f691c73fa7",
    "_top_": {
        "type": "string",
        "value": "0"
    },
    "_width_": {
        "type": "string",
        "value": "28.48%"
    },
    "allboxes": [],
    "autogrowmode": 0,
    "canUpdateUI": true,
    "children": [
        "btnOpenNewAccount",
        "flxSeparator",
        "btnContactUs"
    ],
    "clipbounds": false,
    "containerweight": 100,
    "enablescrolling": true,
    "id": "flxPrimaryActions",
    "ide_onClick": "AS_FlexContainer_i527f59b287e40bd849cd109892d4432",
    "info": null,
    "isvisible": true,
    "kuid": "a22452c08e2f46b0be5a8ce805d57337",
    "layouttype": 4,
    "name": "kony.ui.FlexContainer",
    "parent": "flxRightContainer",
    "pf": "frmAccountsLandingNew",
    "responsiveData": {
        "b1": {
            "left": {
                "type": "string",
                "value": "0%"
            },
            "skin": "sdc143f0e5b64ae3a3f155f691c73fa7",
            "top": {
                "type": "number",
                "value": "0"
            },
            "width": {
                "type": "string",
                "value": "100%"
            }
        },
        "b4": {
            "left": {
                "type": "string",
                "value": "0%"
            },
            "width": {
                "type": "string",
                "value": "100%"
            }
        }
    },
    "snapgridsize": 10,
    "snaptogrid": true,
    "wType": "FlexContainer",
    "widgetalignment": 1,
    "zindex": 1
}