{
    "@class": "com.kony.gen.viz.model.component.KVizUserWidget",
    "DNDConfig": null,
    "__parentReadjusting__": false,
    "_android_": {},
    "_androidwearos_": {},
    "_children_": [],
    "_desktopweb_": {},
    "_height_": {
        "type": "ref",
        "value": "preferred"
    },
    "_ipad_": {},
    "_iphone_": {},
    "_kiosk_": {},
    "_left_": {
        "type": "string",
        "value": "6%"
    },
    "_margin_": [
        0,
        0,
        0,
        0
    ],
    "_orientation_": 1,
    "_padding_": [
        0,
        0,
        0,
        0
    ],
    "_percent_": true,
    "_render_": true,
    "_responsiveData_": {
        "b2": {
            "centerX": {
                "type": "string",
                "value": ""
            },
            "left": {
                "type": "string",
                "value": "24dp"
            },
            "width": {
                "type": "string",
                "value": "45.50%"
            }
        },
        "b3": {
            "height": {
                "type": "string",
                "value": "420dp"
            },
            "left": {
                "type": "string",
                "value": "10dp"
            },
            "right": {
                "type": "string",
                "value": "10dp"
            },
            "width": {
                "type": "string",
                "value": ""
            },
            "zIndex": 1
        },
        "b4": {
            "left": {
                "type": "string",
                "value": "85dp"
            }
        }
    },
    "_skin_": "sdc143f0e5b64ae3a3f155f691c73fa7",
    "_spa_": {},
    "_spaan_": {},
    "_spaandroidtablet_": {},
    "_spabb_": {},
    "_spaip_": {},
    "_spaipad_": {},
    "_spamobile_": {},
    "_spatablet_": {},
    "_spawindowstablet_": {},
    "_spawinphone8_": {},
    "_tabrcandroid_": {},
    "_top_": {
        "type": "string",
        "value": "0dp"
    },
    "_vizProps_": {
        "hidewidgethierarchy": false
    },
    "_width_": {
        "type": "string",
        "value": "28.50%"
    },
    "_windows10_": {},
    "_windows8_": {},
    "_winphone10_": {},
    "_winphone8_": {},
    "android": {},
    "androidwearos": {},
    "areflexpropsreferenced": false,
    "autogrowmode": 1,
    "canUpdateUI": true,
    "centerx": {
        "type": "number",
        "value": ""
    },
    "clipbounds": false,
    "containerweight": 0,
    "dataDiffs": {
        "flxHeader": {
            "__events__": {},
            "__info__": {
                "kuid": "ddf070815e924f90b370a1dd7ee2d5ce",
                "srcKUID": "caede16d9fd240a58aa21574b9a69042",
                "wType": "FlexContainer"
            }
        },
        "flxMySpending": {
            "__events__": {},
            "__info__": {
                "kuid": "cbfddab49315470cbd6a307fad8ab058",
                "srcKUID": "h126d56842c64634bca49f4ce27ca9dc",
                "wType": "FlexContainer"
            }
        },
        "flxMySpendingWrapper": {
            "__events__": {},
            "__info__": {
                "kuid": "h3cb4c549eda40b2ba79367f245fad43",
                "srcKUID": "b33da3a6995c4da690ee76e7e489cb5f",
                "wType": "FlexContainer"
            },
            "autogrowMode": {
                "Default": 0
            },
            "height": {
                "Default": {
                    "type": "string",
                    "value": "360dp"
                }
            },
            "isVisible": true,
            "left": {
                "Default": {
                    "type": "string",
                    "value": "0dp"
                }
            },
            "top": {
                "Default": {
                    "type": "string",
                    "value": "0dp"
                }
            }
        },
        "flxMySpendingWrapperdataUnavailable": {
            "__events__": {},
            "__info__": {
                "kuid": "d89a553ddb2346019d2584e54587ccd2",
                "srcKUID": "b9c0343f8b094f16a483993db8795853",
                "wType": "FlexContainer"
            },
            "isVisible": false,
            "width": {
                "Default": {
                    "type": "string",
                    "value": "100%"
                }
            }
        },
        "flxNoTransactionsMySpending": {
            "__events__": {},
            "__info__": {
                "kuid": "ac8ec32da99840988a20ed5687cef32a",
                "srcKUID": "a6bdcd8118d846f188e08920afca27bd",
                "wType": "FlexContainer"
            }
        },
        "flxSeparator": {
            "__events__": {},
            "__info__": {
                "kuid": "d50f6d2d516340e2acb1bb8dca2bf42d",
                "srcKUID": "gee91910a82e471fa558a27379d63f3d",
                "wType": "FlexContainer"
            },
            "responsiveData": {
                "b2": {
                    "isVisible": false
                },
                "b3": {
                    "isVisible": false
                }
            }
        },
        "flxSeparatorMySpending": {
            "__events__": {},
            "__info__": {
                "kuid": "d26878fa494b43f6befa67ac06c370a5",
                "srcKUID": "b225db61d55f4627bb2f7dec0f9da8ed",
                "wType": "FlexContainer"
            }
        },
        "flxServiceError": {
            "__events__": {},
            "__info__": {
                "kuid": "ad60983b5e41469b902c238bc016e805",
                "srcKUID": "h7d3d2c7010f4b9b8d3ef6353bfee783",
                "wType": "FlexContainer"
            },
            "isVisible": false
        },
        "flxServiceErrorWarning": {
            "__events__": {},
            "__info__": {
                "kuid": "fe76dbae95ca44839917b335735e2835",
                "srcKUID": "e5aeb13fb8414d52bd45f0f1c4f8f163",
                "wType": "FlexContainer"
            }
        },
        "imgInfoIconWarning": {
            "__events__": {},
            "__info__": {
                "kuid": "a3d74504f2ba479092bbc4ff7dbcd34a",
                "srcKUID": "h7b077d213cc4a06ab057ef8452536d4",
                "wType": "Image"
            },
            "src": "error_yellow.png"
        },
        "imgInfoMySpending": {
            "__events__": {},
            "__info__": {
                "kuid": "eaf7ff44fbc34a9c8fdd4271f8fc5ba6",
                "srcKUID": "a9dd9c90767542bd9ae9a9a1f5cb73a0",
                "wType": "Image"
            },
            "height": {},
            "left": {
                "Default": {
                    "type": "string",
                    "value": "4.5%"
                }
            },
            "responsiveData": {
                "b1": {
                    "height": {
                        "type": "string",
                        "value": "40dp"
                    },
                    "left": {
                        "type": "string",
                        "value": "30dp"
                    },
                    "width": {
                        "type": "string",
                        "value": "40dp"
                    }
                },
                "b2": {
                    "height": {
                        "type": "string",
                        "value": "40dp"
                    },
                    "left": {
                        "type": "string",
                        "value": "30dp"
                    },
                    "width": {
                        "type": "string",
                        "value": "40dp"
                    }
                },
                "b3": {
                    "height": {
                        "type": "string",
                        "value": "40dp"
                    },
                    "left": {
                        "type": "string",
                        "value": "10dp"
                    },
                    "width": {
                        "type": "string",
                        "value": "40dp"
                    }
                },
                "b4": {
                    "height": {
                        "type": "string",
                        "value": "40dp"
                    },
                    "left": {
                        "type": "string",
                        "value": "30dp"
                    },
                    "width": {
                        "type": "string",
                        "value": "40dp"
                    }
                }
            },
            "src": "info_large.png",
            "width": {}
        },
        "imgInfoMySpendingNoDat": {
            "__events__": {},
            "__info__": {
                "kuid": "aed3d00e92da44ebb803bf927d01890d",
                "srcKUID": "ge1ee661a63c442f8654f497bcaf697d",
                "wType": "Image"
            },
            "left": {
                "Default": {
                    "type": "string",
                    "value": "53dp"
                }
            },
            "responsiveData": {
                "b1": {
                    "left": {
                        "type": "string",
                        "value": "80dp"
                    }
                },
                "b2": {
                    "left": {
                        "type": "string",
                        "value": "80dp"
                    }
                },
                "b3": {
                    "left": {
                        "type": "string",
                        "value": "60dp"
                    }
                },
                "b4": {
                    "left": {
                        "type": "string",
                        "value": "80dp"
                    }
                }
            },
            "src": "grey_donut.png"
        },
        "imgMySpendingIcon": {
            "__events__": {},
            "__info__": {
                "kuid": "i5c8b47edd3f4db695a0b8e3cc1fdfdc",
                "srcKUID": "c4376320c2034d8ca932c15250a78949",
                "wType": "Label"
            }
        },
        "lblDataNotAvailable": {
            "__events__": {},
            "__info__": {
                "kuid": "a8d13ed55efe491aa88c733ff4b13e26",
                "srcKUID": "fe47eed5637e4be8ae63d73d291396ec",
                "wType": "Label"
            },
            "left": {
                "Default": {
                    "type": "string",
                    "value": "115dp"
                }
            },
            "top": {
                "Default": {
                    "type": "string",
                    "value": "235dp"
                }
            }
        },
        "lblHeader": {
            "__events__": {},
            "__info__": {
                "kuid": "e9a0d90b14fb40b3ad656353771c62c0",
                "srcKUID": "a9ff88173666427b976c29840addce89",
                "wType": "Label"
            },
            "i18n_text": "i18n.AccountsLanding.MySpendingThisMonth",
            "left": {},
            "responsiveData": {
                "b3": {
                    "left": {
                        "type": "string",
                        "value": "15dp"
                    }
                }
            },
            "text": "MY SPENDING LAST MONTH"
        },
        "lblImgMySpending": {
            "__events__": {},
            "__info__": {
                "kuid": "f7776b593d4d48dda863b738297c4492",
                "srcKUID": "j5281131516c4db9b431fd550441ceba",
                "wType": "Label"
            },
            "left": {
                "Default": {
                    "type": "string",
                    "value": "53dp"
                }
            },
            "responsiveData": {
                "b2": {},
                "b3": {
                    "left": {
                        "type": "string",
                        "value": "53dp"
                    }
                }
            }
        },
        "lblMySpending": {
            "__events__": {},
            "__info__": {
                "kuid": "i10a9f21068648cab5a23c79c802ba51",
                "srcKUID": "j1adf257c80d4b448665f94f333286c3",
                "wType": "Label"
            },
            "left": {
                "Default": {
                    "type": "string",
                    "value": "54dp"
                }
            },
            "responsiveData": {
                "b2": {},
                "b3": {
                    "left": {
                        "type": "string",
                        "value": "53dp"
                    }
                }
            }
        },
        "lblOverallSpendingAmount": {
            "__events__": {},
            "__info__": {
                "kuid": "e1fc004870cc4ce8baf247380e255ade",
                "srcKUID": "f7f615d67a6c49ca96622daf1e8309d0",
                "wType": "Label"
            }
        },
        "lblOverallSpendingMySpending": {
            "__events__": {},
            "__info__": {
                "kuid": "ef950e1b3ae84111b7fc0accded51f1d",
                "srcKUID": "g41e57a7f9784acaa2a52e385a630ba7",
                "wType": "Label"
            },
            "i18n_text": "i18n.Accounts.Spending",
            "left": {},
            "responsiveData": {
                "b3": {
                    "left": {
                        "type": "string",
                        "value": "15dp"
                    }
                }
            },
            "text": "Spending"
        },
        "lblServiceErrorWarning": {
            "__events__": {},
            "__info__": {
                "kuid": "d4a719d1750a46f3b4b1ae216025a3e6",
                "srcKUID": "c016077a1a3149b1b86f9678a7589da3",
                "wType": "Label"
            },
            "i18n_text": "i18n.AccountsLanding.UnableToFetchData"
        },
        "lblimgRound": {
            "__events__": {},
            "__info__": {
                "kuid": "habb70942f4d4c4085ca987b3d103abc",
                "srcKUID": "c031ccfd27bd4ed2a943c827cc312abb",
                "wType": "Label"
            }
        },
        "mySpending": {
            "__events__": {},
            "__info__": {
                "isRoot": true,
                "kuid": "e3115184a5da4f118560645fbe359913",
                "srcKUID": "dc2af2c2aa5b4357820d7433949b973a",
                "wType": "FlexContainer"
            },
            "autogrowMode": 1,
            "centerX": {},
            "height": {
                "Default": {
                    "type": "ref",
                    "value": "preferred"
                }
            },
            "left": {
                "Default": {
                    "type": "string",
                    "value": "6%"
                }
            },
            "minWidth": {
                "Default": {
                    "type": "string",
                    "value": ""
                }
            },
            "responsiveData": {
                "b1": {
                    "width": {
                        "type": "string",
                        "value": "28.40%"
                    }
                },
                "b2": {
                    "centerX": {
                        "type": "string",
                        "value": ""
                    },
                    "left": {
                        "type": "string",
                        "value": "24dp"
                    },
                    "width": {
                        "type": "string",
                        "value": "46.70%"
                    }
                },
                "b3": {
                    "height": {
                        "type": "string",
                        "value": "420dp"
                    },
                    "left": {
                        "type": "string",
                        "value": "10dp"
                    },
                    "right": {
                        "type": "string",
                        "value": "10dp"
                    },
                    "width": {
                        "type": "string",
                        "value": ""
                    },
                    "zIndex": 1
                },
                "b4": {
                    "left": {
                        "type": "string",
                        "value": "85dp"
                    }
                }
            },
            "right": {},
            "width": {
                "Default": {
                    "type": "string",
                    "value": "28.50%"
                }
            }
        }
    },
    "desktopweb": {},
    "id": "mySpending",
    "info": null,
    "ipad": {},
    "iphone": {},
    "isdatareferenced": false,
    "isvisible": true,
    "kiosk": {},
    "kuid": "e3115184a5da4f118560645fbe359913",
    "layouttype": 4,
    "masterType": 0,
    "minwidth": {
        "type": "string",
        "value": ""
    },
    "name": "kony.ui.UserWidgetInstance",
    "parent": "flxSecondaryDetailsRow",
    "pf": "frmAccountsLandingNew",
    "responsiveData": {
        "b1": {
            "width": {
                "type": "string",
                "value": "28.40%"
            }
        },
        "b2": {
            "centerX": {
                "type": "string",
                "value": ""
            },
            "left": {
                "type": "string",
                "value": "24dp"
            },
            "width": {
                "type": "string",
                "value": "46.70%"
            }
        },
        "b3": {
            "height": {
                "type": "string",
                "value": "420dp"
            },
            "left": {
                "type": "string",
                "value": "10dp"
            },
            "right": {
                "type": "string",
                "value": "10dp"
            },
            "width": {
                "type": "string",
                "value": ""
            },
            "zIndex": 1
        },
        "b4": {
            "left": {
                "type": "string",
                "value": "85dp"
            }
        }
    },
    "snapgridsize": 10,
    "snaptogrid": true,
    "sourceUserWidget": "dc2af2c2aa5b4357820d7433949b973a",
    "spa": {},
    "spaan": {},
    "spaandroidtablet": {},
    "spabb": {},
    "spaip": {},
    "spaipad": {},
    "spamobile": {},
    "spatablet": {},
    "spawindowstablet": {},
    "spawinphone8": {},
    "tabrcandroid": {},
    "vizProps": {
        "hidewidgethierarchy": false
    },
    "vizprops": {
        "hidewidgethierarchy": false
    },
    "wType": "UserWidgetInstance",
    "windows10": {},
    "windows8": {},
    "winphone10": {},
    "winphone8": {}
}