{
    "@class": "com.kony.gen.viz.model.component.KVizLabel",
    "DNDConfig": null,
    "_height_": {
        "type": "ref",
        "value": "preferred"
    },
    "_left_": {
        "type": "string",
        "value": "15dp"
    },
    "_margin_": [
        1,
        1,
        1,
        1
    ],
    "_padding_": [
        0,
        0,
        0,
        0
    ],
    "_skin_": "s9ec072cb6f54725baeef0b5bb191999",
    "_text_": "Label",
    "_top_": {
        "type": "string",
        "value": "12dp"
    },
    "_width_": {
        "type": "string",
        "value": "75%"
    },
    "_wrapping_": 2,
    "accessibilityconfig": {
        "a11yLabel": "Lets verify its you!"
    },
    "android": {
        "textStyle": {
            "letterSpacing": 0,
            "strikeThrough": false
        }
    },
    "canUpdateUI": true,
    "containerweight": 100,
    "contentalignment": 4,
    "id": "lblLetsVerify",
    "info": null,
    "ipad": {
        "psp": {
            "wrapping": 2
        }
    },
    "iphone": {
        "psp": {
            "wrapping": 2
        }
    },
    "isvisible": true,
    "kuid": "d6cc5af96e0d44f3a8a983d570a8c472",
    "name": "kony.ui.Label",
    "parent": "flxLetsVerifyCntr",
    "pf": "userwidgetmodel",
    "texti18n": "i18n.login.CantSignIn.Letsverifyitsyou",
    "tooltip": "",
    "wType": "Label",
    "zindex": 1
}