{
    "@class": "com.kony.gen.viz.model.component.KVizUserWidget",
    "DNDConfig": null,
    "__parentReadjusting__": false,
    "_children_": [],
    "_height_": {
        "type": "string",
        "value": "60dp"
    },
    "_left_": {
        "type": "string",
        "value": "0dp"
    },
    "_margin_": [
        0,
        0,
        0,
        0
    ],
    "_orientation_": 1,
    "_padding_": [
        0,
        0,
        0,
        0
    ],
    "_percent_": true,
    "_skin_": "se15a2ce22274d8bafc3956d7d10af30",
    "_top_": {
        "type": "string",
        "value": "30dp"
    },
    "_width_": {
        "type": "string",
        "value": "100%"
    },
    "areflexpropsreferenced": false,
    "autogrowmode": 0,
    "canUpdateUI": true,
    "centerx": {
        "type": "string",
        "value": "50.00%"
    },
    "clipbounds": false,
    "containerweight": 0,
    "dataDiffs": {
        "AlterneteActions": {
            "__events__": {},
            "__info__": {
                "isRoot": true,
                "kuid": "c8ed23615e2444939fc8d713845803af",
                "srcKUID": "ba68e7f06305436fa6ebfcbc05efdfaf",
                "wType": "FlexContainer"
            },
            "autogrowMode": {
                "Default": 0
            },
            "height": {
                "Default": {
                    "type": "string",
                    "value": "60dp"
                }
            },
            "top": {
                "Default": {
                    "type": "string",
                    "value": "30dp"
                }
            },
            "width": {
                "Default": {
                    "type": "string",
                    "value": "100%"
                }
            }
        },
        "flcVerticalBar": {
            "__events__": {},
            "__info__": {
                "kuid": "f6cb8c8d811a45eb9f0ee765d29a5c73",
                "srcKUID": "c1e3a82dec2c494da32fadaf2ab509f8",
                "wType": "FlexContainer"
            }
        },
        "flxImgContainer": {
            "__events__": {},
            "__info__": {
                "kuid": "fd18bb0276d342e3bd4f12921156928b",
                "srcKUID": "a5b043f56ff04c68b0d8766aeb55b239",
                "wType": "FlexContainer"
            }
        },
        "flxImgMain": {
            "__events__": {},
            "__info__": {
                "kuid": "f692958e17ce4ca18805562aa244d62e",
                "srcKUID": "b04cedab42e84d7dae9726a221da10c1",
                "wType": "FlexContainer"
            }
        },
        "fontIconOption": {
            "__events__": {},
            "__info__": {
                "kuid": "cd1a8c4a107746948749f7567e589bd3",
                "srcKUID": "ca39e4c59b8c42d9a5bc72d83c9a2ff8",
                "wType": "Label"
            },
            "bottom": {
                "Default": {
                    "type": "string",
                    "value": ""
                }
            },
            "centerY": {
                "Default": {
                    "type": "string",
                    "value": "50%"
                }
            },
            "text": "l"
        },
        "imgOptionKA": {
            "__events__": {},
            "__info__": {
                "kuid": "b9226d89e18c4192a35be5a99cd0adb4",
                "srcKUID": "a1d6b1a537f741ed86fe089d4f49bfdb",
                "wType": "Image"
            }
        },
        "imgRightTip": {
            "__events__": {},
            "__info__": {
                "kuid": "h531dde1403448108ddb2a8007a8549d",
                "srcKUID": "fd6a5a99442143d381c3d4fc2afbaf67",
                "wType": "Image"
            },
            "src": "lefy_arrow_white.png"
        },
        "rtxCVV": {
            "__events__": {},
            "__info__": {
                "kuid": "a76fa2747a2348f6adad5088828c489a",
                "srcKUID": "h34b4091f7d347fcb7805380e64df24f",
                "wType": "RichText"
            },
            "i18n_text": "i18n.common.loginNow"
        }
    },
    "enablescrolling": true,
    "focusskin": null,
    "id": "signInNow",
    "info": null,
    "isdatareferenced": false,
    "isvisible": true,
    "kuid": "c8ed23615e2444939fc8d713845803af",
    "layouttype": 2,
    "masterType": 0,
    "name": "kony.ui.UserWidgetInstance",
    "parent": "flxOptions",
    "pf": "userwidgetmodel",
    "snapgridsize": 10,
    "snaptogrid": true,
    "sourceUserWidget": "ba68e7f06305436fa6ebfcbc05efdfaf",
    "wType": "UserWidgetInstance"
}