{
    "@class": "com.kony.gen.viz.model.component.KVizLabel",
    "DNDConfig": null,
    "_bottom_": {
        "type": "number",
        "value": ""
    },
    "_height_": {
        "type": "ref",
        "value": "preferred"
    },
    "_left_": {
        "type": "string",
        "value": "52%"
    },
    "_margin_": [
        1,
        1,
        1,
        1
    ],
    "_padding_": [
        0,
        0,
        0,
        0
    ],
    "_skin_": "s63e81af6a184e7e8e891b0dbbe7895c",
    "_text_": "Address",
    "_top_": {
        "type": "string",
        "value": "150dp"
    },
    "_width_": {
        "type": "string",
        "value": "50%"
    },
    "_wrapping_": 2,
    "android": {
        "textStyle": {
            "letterSpacing": 0,
            "strikeThrough": false
        }
    },
    "canUpdateUI": true,
    "containerweight": 100,
    "contentalignment": 4,
    "id": "rtxDetailsValue4",
    "info": null,
    "ipad": {
        "psp": {
            "wrapping": 2
        }
    },
    "iphone": {
        "psp": {
            "wrapping": 2
        }
    },
    "iscustomlayout": false,
    "isvisible": true,
    "kuid": "f5ca0e76a96e477e9dc95ca6a1c25035",
    "name": "kony.ui.Label",
    "parent": "flxRecipientDetails",
    "pf": "frmWireTransferAddKonyAccountAck",
    "responsiveData": {
        "b1": {
            "width": {
                "type": "string",
                "value": "47%"
            }
        },
        "b2": {
            "width": {
                "type": "string",
                "value": "47%"
            }
        },
        "b3": {
            "bottom": {
                "type": "string",
                "value": ""
            },
            "contentAlignment": 1,
            "text": "Address"
        },
        "b4": {
            "width": {
                "type": "string",
                "value": "47%"
            }
        }
    },
    "retaincontentalignment": false,
    "retainflexpositionproperties": false,
    "tooltip": "",
    "wType": "Label",
    "zindex": 1
}