{
    "@class": "com.kony.gen.viz.model.component.KVizButton",
    "DNDConfig": null,
    "__parentReadjusting__": false,
    "_height_": {
        "type": "string",
        "value": "25dp"
    },
    "_left_": {
        "type": "string",
        "value": "0px"
    },
    "_margin_": [
        6,
        6,
        6,
        6
    ],
    "_padding_": [
        0,
        0,
        0,
        0
    ],
    "_skin_": "s41199c8c0df41048cbf47d26a9026d5",
    "_text_": "REQUEST",
    "_top_": {
        "type": "string",
        "value": "13dp"
    },
    "_width_": {
        "type": "ref",
        "value": "preferred"
    },
    "accessibilityconfig": {
        "a11yLabel": "REQUEST"
    },
    "canUpdateUI": true,
    "containerweight": 100,
    "contentalignment": 5,
    "displaytext": true,
    "focusskin": "sf44d06ca8224832827ea7fdff757013",
    "id": "btnRequest",
    "info": null,
    "isvisible": false,
    "kuid": "f69977adfcd14b318dd0879a6fb6c8ca",
    "name": "kony.ui.Button",
    "parent": "flxRequestAction",
    "pf": "userwidgetmodel",
    "wType": "Button",
    "zindex": 1
}