{
    "@class": "com.kony.gen.viz.model.component.KVizButton",
    "DNDConfig": null,
    "__parentReadjusting__": false,
    "_height_": {
        "type": "string",
        "value": "50dp"
    },
    "_left_": {
        "type": "string",
        "value": "63.85%"
    },
    "_margin_": [
        6,
        6,
        6,
        6
    ],
    "_padding_": [
        0,
        0,
        0,
        0
    ],
    "_skin_": "sea1525e3fa24829a889b1fd650f3f24",
    "_text_": "Send Reminder",
    "_top_": {
        "type": "string",
        "value": "30dp"
    },
    "_width_": {
        "type": "string",
        "value": "32.36%"
    },
    "accessibilityconfig": {
        "a11yLabel": "Send Reminder"
    },
    "canUpdateUI": true,
    "containerweight": 100,
    "contentalignment": 5,
    "desktopweb": {
        "psp": {
            "hoverSkin": "s81054b5e2b74f17a5261991df565427"
        }
    },
    "disabledSkins": {
        "focusSkin": "s30cdf4f9a6c4bbcb797e45d11425d8e"
    },
    "displaytext": true,
    "id": "btnSendReminder",
    "info": null,
    "isvisible": true,
    "kuid": "f2e7e4c1c61e4cba925f8e50ea7b1b43",
    "name": "kony.ui.Button",
    "parent": "flxbuttons",
    "pf": "userwidgetmodel",
    "tooltip": "Send Reminder",
    "wType": "Button",
    "zindex": 2
}