{
	 "@class": "com.kony.gen.viz.model.component.KVizImage2",
	 "DNDConfig": null,
	 "__parentReadjusting__": false,
	 "_base64_": null,
	 "_height_": {
		 "type": "string",
		 "value": "15dp"
	},
	 "_left_": {
		 "type": "string",
		 "value": "7dp"
	},
	 "_margin_": [
		 0,
		 0,
		 0,
		 0
	],
	 "_padding_": [
		 0,
		 0,
		 0,
		 0
	],
	 "_skin_": "s8ee487de5774c1eb668e74bf92f5cdd",
	 "_src_": "sortingfinal.png",
	 "_width_": {
		 "type": "string",
		 "value": "12dp"
	},
	 "accessibilityconfig": {
		 "a11yLabel": "Sort",
		 "a11yValue": ""
	},
	 "canUpdateUI": true,
	 "centery": {
		 "type": "string",
		 "value": "50%"
	},
	 "containerweight": 100,
	 "context": {
		 "channel": "desktop",
		 "formID": "uw294b249e1f264e78b48398d28b888f75",
		 "platform": "desktopweb",
		 "templateType": "userwidgets",
		 "topLevelBox": null
	},
	 "id": "imgSortPayee",
	 "imagescalemode": 1,
	 "imagewhiledownloading": "img_transparent.png",
	 "info": null,
	 "invokedProperty": "src",
	 "isvisible": true,
	 "kuid": "c50f7c66886a40468d86a5dd86866adb",
	 "name": "kony.ui.Image2",
	 "parent": "flxPayeeWrapper",
	 "pf": "userwidgetmodel",
	 "srcType": 1,
	 "tooltip": "Sort By Payee",
	 "wType": "Image",
	 "widgetalignment": 5,
	 "zindex": 1
}