{
    "@class": "com.kony.gen.viz.model.component.KVizUserWidget",
    "DNDConfig": null,
    "_children_": [],
    "_height_": {
        "type": "ref",
        "value": "preferred"
    },
    "_left_": {
        "type": "number",
        "value": "0"
    },
    "_margin_": [
        0,
        0,
        0,
        0
    ],
    "_orientation_": 1,
    "_padding_": [
        0,
        0,
        0,
        0
    ],
    "_percent_": true,
    "_render_": true,
    "_skin_": "s24c92fc23b14f5484b693ee9b8a9b35",
    "_top_": {
        "type": "string",
        "value": "0dp"
    },
    "_width_": {
        "type": "ref",
        "value": "preferred"
    },
    "canUpdateUI": true,
    "containerweight": 0,
    "data": {},
    "id": "securityQuestionsComponent",
    "info": null,
    "iscustomlayout": false,
    "issegmentchild": false,
    "isvisible": false,
    "kuid": "e98164a34b014191a90fce7365572788",
    "masterType": 1,
    "name": "kony.ui.UserWidgetInstance",
    "parent": "flxAnswerSecurityQuestions",
    "pf": "frmMFATransactions",
    "retaincontentalignment": false,
    "retainflexpositionproperties": false,
    "retainflowhorizontalalignment": false,
    "sourceUserWidget": "aab93bf7cb1347d4aad479c807110217",
    "wType": "UserWidgetInstance"
}