{
    "@class": "com.kony.gen.viz.model.component.KVizButton",
    "DNDConfig": null,
    "__parentReadjusting__": false,
    "_bottom_": {
        "type": "number",
        "value": ""
    },
    "_height_": {
        "type": "string",
        "value": "40px"
    },
    "_margin_": [
        6,
        6,
        6,
        6
    ],
    "_padding_": [
        0,
        0,
        0,
        0
    ],
    "_right_": {
        "type": "string",
        "value": "3%"
    },
    "_skin_": "s215ef7edf8c4ddb8f9f91fcc80f7b42",
    "_text_": "Cancel",
    "_top_": {
        "type": "string",
        "value": "30dp"
    },
    "_width_": {
        "type": "string",
        "value": "18%"
    },
    "accessibilityconfig": {
        "a11yLabel": "Cancel"
    },
    "canUpdateUI": true,
    "centery": {
        "type": "number",
        "value": ""
    },
    "containerweight": 100,
    "contentalignment": 5,
    "desktopweb": {
        "psp": {
            "hoverSkin": "s83729feaa224e359d660d5af05c4bac"
        }
    },
    "disabledSkins": {
        "focusSkin": "s35b7bf536354ff18a4f7f8e988f00e5"
    },
    "displaytext": true,
    "id": "btnCancelSettings",
    "info": null,
    "isvisible": true,
    "kuid": "j913534913b34488b67db2584b78fec0",
    "name": "kony.ui.Button",
    "parent": "CopyflxButtons0bb39ab102fd448",
    "pf": "frmP2PSettings",
    "responsiveData": {
        "b1": {
            "right": {
                "type": "string",
                "value": "23%"
            }
        },
        "b2": {
            "centerY": {
                "type": "string",
                "value": "50%"
            },
            "right": {
                "type": "string",
                "value": "23%"
            },
            "top": {
                "type": "string",
                "value": ""
            }
        },
        "b3": {
            "bottom": {
                "type": "string",
                "value": ""
            },
            "right": {
                "type": "string",
                "value": "23%"
            },
            "top": {
                "type": "string",
                "value": "80dp"
            }
        },
        "b4": {
            "right": {
                "type": "string",
                "value": "200dp"
            },
            "width": {
                "type": "string",
                "value": "150dp"
            }
        }
    },
    "texti18n": "i18n.transfers.Cancel",
    "tooltip": "Cancel",
    "wType": "Button",
    "zindex": 2
}