{
    "DNDConfig": null,
    "__parentReadjusting__": false,
    "_height_": {
        "type": "string",
        "value": "25px"
    },
    "_left_": {
        "type": "string",
        "value": "245dp"
    },
    "_margin_": [
        0,
        0,
        0,
        0
    ],
    "_orientation_": 6,
    "_padding_": [
        0,
        0,
        0,
        0
    ],
    "_percent_": true,
    "_right_": {
        "type": "string",
        "value": "4%"
    },
    "_skin_": "s24c92fc23b14f5484b693ee9b8a9b35",
    "_top_": {
        "type": "string",
        "value": "12px"
    },
    "_width_": {
        "type": "string",
        "value": "25px"
    },
    "allboxes": [],
    "canUpdateUI": true,
    "children": [
        "lblDefaultAccountUser"
    ],
    "clipbounds": true,
    "containerweight": 100,
    "enablescrolling": true,
    "id": "flxDefaultAccountUser",
    "info": null,
    "iscustomlayout": false,
    "isvisible": false,
    "kuid": "f177da5c87d14db4a2b35958e12e34ce",
    "layouttype": 2,
    "name": "kony.ui.FlexContainer",
    "parent": "flxRecipientNameValue",
    "pf": "frmP2PSettings",
    "responsiveData": {
        "b1": {
            "height": {
                "type": "string",
                "value": "20px"
            },
            "isVisible": false,
            "left": {
                "type": "string",
                "value": "0dp"
            },
            "right": {
                "type": "string",
                "value": "10px"
            },
            "top": {
                "type": "string",
                "value": "1px"
            },
            "width": {
                "type": "string",
                "value": "20px"
            }
        },
        "b2": {
            "isVisible": false,
            "left": {
                "type": "string",
                "value": "0dp"
            },
            "top": {
                "type": "string",
                "value": "0px"
            }
        },
        "b3": {
            "isVisible": false,
            "left": {
                "type": "string",
                "value": "2%"
            },
            "top": {
                "type": "string",
                "value": "0px"
            }
        },
        "b4": {
            "height": {
                "type": "string",
                "value": "20px"
            },
            "isVisible": false,
            "left": {
                "type": "string",
                "value": "0dp"
            },
            "right": {
                "type": "string",
                "value": "10px"
            },
            "top": {
                "type": "string",
                "value": "2px"
            },
            "width": {
                "type": "string",
                "value": "20px"
            }
        }
    },
    "retaincontentalignment": false,
    "retainflexpositionproperties": false,
    "retainflowhorizontalalignment": false,
    "snapgridsize": 10,
    "snaptogrid": true,
    "wType": "FlexContainer",
    "widgetalignment": 1
}