{
    "@class": "com.kony.gen.viz.model.component.KVizRichText",
    "DNDConfig": null,
    "__parentReadjusting__": false,
    "_height_": {
        "type": "ref",
        "value": "preferred"
    },
    "_left_": {
        "type": "string",
        "value": "35dp"
    },
    "_margin_": [
        0,
        0,
        0,
        0
    ],
    "_padding_": [
        0,
        0,
        0,
        0
    ],
    "_skin_": "sa7875ee0d0f446987db74d1dc49550e",
    "_text_": "RichText",
    "_top_": {
        "type": "string",
        "value": "8dp"
    },
    "_width_": {
        "type": "string",
        "value": "100%"
    },
    "_wrapping_": 2,
    "accessibilityconfig": {
        "a11yLabel": "Server error</br>.We could not complete your request to add the Account."
    },
    "canUpdateUI": true,
    "centery": {
        "type": "number",
        "value": ""
    },
    "containerweight": 100,
    "contentalignment": 4,
    "id": "rtxDowntimeWarning",
    "info": null,
    "iscustomlayout": false,
    "isvisible": true,
    "kuid": "bf593665a3e1402ca1569be8209747a3",
    "linkskin": "s68be632cc934210829c785f1cfb09f0",
    "name": "kony.ui.RichText",
    "parent": "flxDowntimeWarning",
    "pf": "frmP2PSettings",
    "responsiveData": {
        "b1": {
            "centerY": {
                "type": "string",
                "value": "50%"
            },
            "left": {
                "type": "string",
                "value": "20dp"
            },
            "top": {
                "type": "string",
                "value": ""
            },
            "width": {
                "type": "string",
                "value": "85%"
            }
        },
        "b2": {
            "centerY": {
                "type": "string",
                "value": "50%"
            },
            "left": {
                "type": "string",
                "value": "30dp"
            },
            "top": {
                "type": "string",
                "value": ""
            },
            "width": {
                "type": "string",
                "value": "85%"
            }
        },
        "b3": {
            "centerY": {
                "type": "string",
                "value": "50%"
            },
            "width": {
                "type": "string",
                "value": "83%"
            }
        },
        "b4": {
            "centerY": {
                "type": "string",
                "value": "50%"
            },
            "contentAlignment": 4,
            "left": {
                "type": "string",
                "value": "20dp"
            },
            "text": "There is some error in the server.</br>\nWe could not complete your request of adding the account.",
            "top": {
                "type": "string",
                "value": ""
            },
            "width": {
                "type": "string",
                "value": "85%"
            }
        }
    },
    "retaincontentalignment": false,
    "retainflexpositionproperties": false,
    "texti18n": "i18n.Transfers.ThereisomeerrorintheserverWecouldnotcompleteyourrequestofaddingtheaccount",
    "wType": "RichText",
    "widgetalignment": 5,
    "zindex": 1
}