{
    "@class": "com.kony.gen.viz.model.component.KVizListBox",
    "DNDConfig": null,
    "__markedForDelete__": true,
    "__parentReadjusting__": false,
    "_height_": {
        "type": "string",
        "value": "40dp"
    },
    "_left_": {
        "type": "string",
        "value": "30dp"
    },
    "_margin_": [
        0,
        0,
        0,
        0
    ],
    "_padding_": [
        2,
        0,
        2,
        0
    ],
    "_skin_": "s3bdd2043a464718a1f91154954f20e8",
    "_top_": {
        "type": "string",
        "value": "40px"
    },
    "_width_": {
        "type": "string",
        "value": "50%"
    },
    "canUpdateUI": true,
    "containerweight": 100,
    "contentalignment": 4,
    "context": {
        "channel": "desktop",
        "formID": "uwuf9fc2ea3a5e45ec8527a469199dabba",
        "platform": "desktopweb",
        "templateType": "userwidgets",
        "topLevelBox": null
    },
    "groupcells": false,
    "id": "lbxSelectFormat",
    "info": null,
    "isvisible": true,
    "kiosk": {
        "psp": {
            "placeholder": ""
        }
    },
    "kuid": "af70de46e69d46b1bd446299e31f222c",
    "masterdata": [
        [
            "lb1",
            "Select Category"
        ],
        [
            "lb2",
            "Rent"
        ],
        [
            "lb3",
            "Education"
        ]
    ],
    "name": "kony.ui.ListBox",
    "parent": "flxMiddle",
    "pf": "userwidgetmodel",
    "selectedkey": "lb1",
    "selectedkeys": null,
    "selectedkeyvalue": [
        "lb1",
        "Select Category"
    ],
    "selectedkeyvalues": null,
    "size": 18,
    "viewconfig": {
        "toggleViewConfig": {
            "viewStyle": 0
        }
    },
    "viewtype": 0,
    "wType": "ListBox",
    "zindex": 1,
    "focusskin": "s9eb08f78097439eb767801e8fdeb5cd"
}