{
    "@class": "com.kony.gen.viz.model.component.KVizUserWidget",
    "DNDConfig": null,
    "_children_": [],
    "_height_": {
        "type": "ref",
        "value": "preferred"
    },
    "_left_": {
        "type": "string",
        "value": "80.20%"
    },
    "_margin_": [
        0,
        0,
        0,
        0
    ],
    "_orientation_": 1,
    "_padding_": [
        0,
        0,
        0,
        0
    ],
    "_percent_": true,
    "_render_": true,
    "_skin_": "scbd4cac3526468089bf3013adff0549",
    "_top_": {
        "type": "string",
        "value": "180dp"
    },
    "_width_": {
        "type": "string",
        "value": "250dp"
    },
    "android": {},
    "androidwearos": {},
    "areflexpropsreferenced": false,
    "autogrowmode": 1,
    "canUpdateUI": true,
    "clipbounds": false,
    "containerweight": 0,
    "dataDiffs": {
        "AllForms": {
            "__events__": {},
            "__info__": {
                "isRoot": true,
                "kuid": "fa3a308d01a74961a6c6cd978830a146",
                "srcKUID": "aef6ac17436948abacbe12ea5a1d5e5b",
                "wType": "FlexContainer"
            },
            "isVisible": false,
            "left": {
                "Default": {
                    "type": "string",
                    "value": "80.20%"
                }
            },
            "responsiveData": {
                "b3": {}
            },
            "top": {
                "Default": {
                    "type": "string",
                    "value": "180dp"
                }
            },
            "width": {
                "Default": {
                    "type": "string",
                    "value": "250dp"
                }
            },
            "zIndex": {
                "Default": 20
            }
        },
        "RichTextInfo": {
            "__events__": {},
            "__info__": {
                "kuid": "f1c6070fb3bc496cb806c7ec2a282d1c",
                "srcKUID": "i86f020750564f6ba173ce46ea601ab5",
                "wType": "RichText"
            },
            "i18n_text": "i18n.AlertsMessages.msgInfo",
            "text": "If you dismiss an alert, it will be removed from your alerts list. This action cannot be reversed. ",
            "width": {
                "Default": {
                    "type": "string",
                    "value": "83%"
                }
            }
        },
        "flxAccountType": {
            "__events__": {},
            "__info__": {
                "kuid": "e69a950fe2f3481c937bdd1cbb1c7f92",
                "srcKUID": "ed52287fd449401ba9a5f005c99e3f35",
                "wType": "FlexContainer"
            }
        },
        "flxCross": {
            "__events__": {},
            "__info__": {
                "kuid": "d6108320aca14d76bd5754052e7cfb8b",
                "srcKUID": "d452c358ed1445a58e5fdff55685498f",
                "wType": "FlexContainer"
            }
        },
        "flxInformation": {
            "__events__": {},
            "__info__": {
                "kuid": "d9cd0cf34e82442587fb46dab1042318",
                "srcKUID": "be414255ea60408894eb2a9b719b864e",
                "wType": "FlexContainer"
            }
        },
        "flxInformationText": {
            "__events__": {},
            "__info__": {
                "kuid": "j44bb48d37ea47f6ba37192255a58875",
                "srcKUID": "fa4dbab87ecf4647a21060118b02bd03",
                "wType": "FlexContainer"
            }
        },
        "imgCross": {
            "__events__": {},
            "__info__": {
                "kuid": "f5278bfbbc714fee94f29d37719004ee",
                "srcKUID": "d86a08cea857467eae13f42ed033a771",
                "wType": "Image"
            },
            "src": "bbcloseicon.png"
        },
        "imgToolTip": {
            "__events__": {},
            "__info__": {
                "kuid": "a7103b61f44b495fbc27289d13a34f10",
                "srcKUID": "f9274528aa6b41bfb057f17c510b73b5",
                "wType": "Image"
            },
            "left": {
                "Default": {
                    "type": "string",
                    "value": "53.50%"
                }
            },
            "src": "tool_tip.png"
        },
        "lblInfo": {
            "__events__": {},
            "__info__": {
                "kuid": "j7d900837893455aa7ae7a45eb0f588d",
                "srcKUID": "c6ecc9c129c943b396152e99a30763f6",
                "wType": "Label"
            }
        },
        "lblSeperator": {
            "__events__": {},
            "__info__": {
                "kuid": "b0deed4a236b480c9943382170f1a1a9",
                "srcKUID": "f142d5aa44384a3fb94504a874cbbb95",
                "wType": "Label"
            }
        }
    },
    "desktopweb": {},
    "id": "AllForms",
    "info": null,
    "ipad": {},
    "iphone": {},
    "isdatareferenced": false,
    "isvisible": false,
    "kiosk": {},
    "kuid": "fa3a308d01a74961a6c6cd978830a146",
    "layouttype": 4,
    "masterType": 0,
    "name": "kony.ui.UserWidgetInstance",
    "parent": "flxMain",
    "pf": "frmNewMessages",
    "responsiveData": {
        "b3": {}
    },
    "snaptogrid": true,
    "sourceUserWidget": "aef6ac17436948abacbe12ea5a1d5e5b",
    "spa": {},
    "spaan": {},
    "spaandroidtablet": {},
    "spaip": {},
    "spaipad": {},
    "spamobile": {},
    "spatablet": {},
    "spawindowstablet": {},
    "spawinphone8": {},
    "tabrcandroid": {},
    "vizProps": {
        "hidewidgethierarchy": false
    },
    "vizprops": {
        "hidewidgethierarchy": false
    },
    "wType": "UserWidgetInstance",
    "windows10": {},
    "windows8": {},
    "winphone10": {},
    "winphone8": {},
    "zindex": 20
}