{
    "@class": "com.kony.gen.viz.model.component.KVizLabel",
    "DNDConfig": null,
    "_height_": {
        "type": "ref",
        "value": "preferred"
    },
    "_left_": {
        "type": "string",
        "value": "2.89%"
    },
    "_margin_": [
        1,
        1,
        1,
        1
    ],
    "_padding_": [
        0,
        0,
        0,
        0
    ],
    "_skin_": "sf45ca27a4704285be2caf389f55adc3",
    "_text_": "NEW MESSAGE",
    "_top_": {
        "type": "string",
        "value": "30dp"
    },
    "_width_": {
        "type": "ref",
        "value": "preferred"
    },
    "_wrapping_": 2,
    "accessibilityconfig": {
        "a11yLabel": "New Message"
    },
    "android": {
        "textStyle": {
            "letterSpacing": 0,
            "strikeThrough": false
        }
    },
    "canUpdateUI": true,
    "containerweight": 100,
    "contentalignment": 4,
    "id": "lblNewMessage",
    "info": null,
    "ipad": {
        "psp": {
            "wrapping": 2
        }
    },
    "iphone": {
        "psp": {
            "wrapping": 2
        }
    },
    "isvisible": true,
    "kuid": "h85453640a664586924246110ef43fb7",
    "name": "kony.ui.Label",
    "parent": "flxNewMessage",
    "pf": "frmNewMessages",
    "responsiveData": {
        "b3": {
            "isVisible": false
        }
    },
    "texti18n": "i18n.AlertsAndMessages.NewMessagesMod",
    "tooltip": "",
    "wType": "Label",
    "zindex": 1
}