{
    "@class": "com.kony.gen.viz.model.component.KVizButton",
    "DNDConfig": null,
    "__parentReadjusting__": false,
    "_height_": {
        "type": "ref",
        "value": "preferred"
    },
    "_left_": {
        "type": "string",
        "value": "0dp"
    },
    "_margin_": [
        6,
        6,
        6,
        6
    ],
    "_padding_": [
        0,
        0,
        0,
        0
    ],
    "_skin_": "s60296effcb54b82b4cdd8efc25af992",
    "_text_": "Download File",
    "_top_": {
        "type": "string",
        "value": "10dp"
    },
    "_width_": {
        "type": "ref",
        "value": "preferred"
    },
    "accessibilityconfig": {
        "a11yLabel": "DELETE"
    },
    "canUpdateUI": true,
    "containerId": true,
    "containerweight": 100,
    "contentalignment": 5,
    "desktopweb": {
        "psp": {
            "hoverSkin": "sd36babbd8f6461f8b492698ab830d13"
        }
    },
    "disabledSkins": {
        "focusSkin": "sf44d06ca8224832827ea7fdff757013"
    },
    "displaytext": true,
    "id": "btnDownload",
    "ide_onClick": "AS_Button_e7390436433e4b7fa2ca985a6a417a5a",
    "info": null,
    "isvisible": true,
    "kuid": "a84a67132ed24204a893a721e572a844",
    "name": "kony.ui.Button",
    "parent": "flxActions",
    "pf": "segBulkWireFilesSelected",
    "texti18n": "i18n.bulkWire.DownloadFile",
    "tooltip": "Download File",
    "wType": "Button",
    "zindex": 1
}