{
    "DNDConfig": null,
    "_height_": {
        "type": "string",
        "value": "120dp"
    },
    "_left_": {
        "type": "string",
        "value": "221dp"
    },
    "_margin_": [
        0,
        0,
        0,
        0
    ],
    "_orientation_": 6,
    "_padding_": [
        0,
        0,
        0,
        0
    ],
    "_percent_": true,
    "_skin_": "s203e287fa7648b38239f010a389a940",
    "_top_": {
        "type": "string",
        "value": "120dp"
    },
    "_width_": {
        "type": "string",
        "value": "400dp"
    },
    "allboxes": [],
    "autogrowmode": 0,
    "canUpdateUI": true,
    "centerx": {
        "type": "number",
        "value": ""
    },
    "children": [
        "lblInfoHeader3",
        "lblInfoText3",
        "imgCross3"
    ],
    "clipbounds": true,
    "containerweight": 100,
    "enablescrolling": true,
    "id": "flxInfo3",
    "info": null,
    "iscustomlayout": false,
    "isvisible": false,
    "kuid": "ga802129cbae4da89aa717cc29f8011c",
    "layouttype": 2,
    "name": "kony.ui.FlexContainer",
    "parent": "flxAddInternationalAccount",
    "pf": "userwidgetmodel",
    "responsiveData": {
        "b1": {
            "left": {
                "type": "string",
                "value": "260dp"
            },
            "top": {
                "type": "string",
                "value": "260dp"
            }
        },
        "b2": {
            "isVisible": false,
            "top": {
                "type": "string",
                "value": "260dp"
            }
        },
        "b3": {
            "centerX": {
                "type": "string",
                "value": "50%"
            },
            "isVisible": false,
            "left": {
                "type": "string",
                "value": ""
            },
            "top": {
                "type": "string",
                "value": "270dp"
            },
            "width": {
                "type": "string",
                "value": "350dp"
            }
        },
        "b4": {
            "isVisible": false,
            "left": {
                "type": "string",
                "value": "260dp"
            },
            "top": {
                "type": "string",
                "value": "260dp"
            }
        }
    },
    "retaincontentalignment": false,
    "retainflexpositionproperties": false,
    "retainflowhorizontalalignment": false,
    "snapgridsize": 10,
    "snaptogrid": true,
    "wType": "FlexContainer",
    "widgetalignment": 1,
    "zindex": 2
}