{
    "@class": "com.kony.gen.viz.model.component.KVizRichText",
    "DNDConfig": null,
    "_height_": {
        "type": "ref",
        "value": "preferred"
    },
    "_left_": {
        "type": "string",
        "value": "3%"
    },
    "_margin_": [
        0,
        0,
        0,
        0
    ],
    "_padding_": [
        0,
        0,
        0,
        0
    ],
    "_skin_": "s8e61c351f3c405db32f73088a3cb3cf",
    "_text_": "RichText",
    "_top_": {
        "type": "string",
        "value": "0dp"
    },
    "_width_": {
        "type": "string",
        "value": "94%"
    },
    "_wrapping_": 2,
    "canUpdateUI": true,
    "containerweight": 100,
    "contentalignment": 4,
    "id": "rtxtWarning",
    "info": null,
    "iscustomlayout": false,
    "isvisible": false,
    "kuid": "f9cc2fa8fbff4a4fbd2093df30d70d0a",
    "linkskin": "s68be632cc934210829c785f1cfb09f0",
    "name": "kony.ui.RichText",
    "parent": "flxDetails",
    "pf": "userwidgetmodel",
    "responsiveData": {
        "b1": {
            "skin": "s8e03f443e6b40edac09abf7e98a16fb",
            "top": {
                "type": "string",
                "value": "10dp"
            }
        },
        "b2": {
            "skin": "s8e03f443e6b40edac09abf7e98a16fb",
            "top": {
                "type": "string",
                "value": "10dp"
            }
        },
        "b3": {
            "skin": "s8e03f443e6b40edac09abf7e98a16fb",
            "top": {
                "type": "string",
                "value": "10dp"
            }
        },
        "b4": {
            "skin": "s8e03f443e6b40edac09abf7e98a16fb",
            "top": {
                "type": "string",
                "value": "10dp"
            }
        }
    },
    "retaincontentalignment": false,
    "retainflexpositionproperties": false,
    "wType": "RichText",
    "widgetalignment": 5,
    "zindex": 1
}