{
    "@class": "com.kony.gen.viz.model.container.KVizSegment2",
    "DNDConfig": null,
    "_data_": [
        {},
        {},
        {},
        {},
        {},
        {},
        {},
        {},
        {},
        {}
    ],
    "_height_": {
        "type": "ref",
        "value": "preferred"
    },
    "_indicator_": "none",
    "_left_": {
        "type": "string",
        "value": "0dp"
    },
    "_margin_": [
        0,
        0,
        0,
        0
    ],
    "_orientation_": 2,
    "_padding_": [
        0,
        0,
        0,
        0
    ],
    "_top_": {
        "type": "string",
        "value": "0dp"
    },
    "_width_": {
        "type": "string",
        "value": "100%"
    },
    "autogrowmode": 1,
    "canUpdateUI": true,
    "containerweight": 100,
    "counter": "00",
    "desktop": {
        "_data_": [
            {
                "imgBottonSeparator": {
                    "@class": "com.viz.ide.model.segment.ImageSegmentData",
                    "src": ""
                },
                "imgDropDown": {
                    "@class": "com.viz.ide.model.segment.ImageSegmentData",
                    "src": ""
                },
                "imgSample": {
                    "@class": "com.viz.ide.model.segment.ImageSegmentData",
                    "src": ""
                },
                "imgSampleHighlighter": {
                    "@class": "com.viz.ide.model.segment.ImageSegmentData",
                    "src": ""
                },
                "imgSeparatorHeader": {
                    "@class": "com.viz.ide.model.segment.ImageSegmentData",
                    "src": ""
                },
                "lblColumn1": {
                    "@class": "com.viz.ide.model.segment.SimpleTextSegmentData",
                    "text": ""
                },
                "lblColumn2": {
                    "@class": "com.viz.ide.model.segment.SimpleTextSegmentData",
                    "text": ""
                },
                "lblColumn3": {
                    "@class": "com.viz.ide.model.segment.SimpleTextSegmentData",
                    "text": ""
                },
                "lblContractIdentityNum": {
                    "@class": "com.viz.ide.model.segment.SimpleTextSegmentData",
                    "text": ""
                },
                "lblContractName": {
                    "@class": "com.viz.ide.model.segment.SimpleTextSegmentData",
                    "text": ""
                },
                "lblDetailsHighligher": {
                    "@class": "com.viz.ide.model.segment.SimpleTextSegmentData",
                    "text": ""
                },
                "lblDropdown": {
                    "@class": "com.viz.ide.model.segment.SimpleTextSegmentData",
                    "text": ""
                },
                "lblUserType": {
                    "@class": "com.viz.ide.model.segment.SimpleTextSegmentData",
                    "text": ""
                },
                "lbldetailHighlighterVertical": {
                    "@class": "com.viz.ide.model.segment.SimpleTextSegmentData",
                    "text": ""
                }
            }
        ],
        "rowTemplateId": "d5008a293fe84e669c2fc8f0c3405d6a",
        "rowtemplate": "flxContractConfirmScreenRowTemplate",
        "widgetdatamap": {
            "flxBottomSeperator": "flxBottomSeperator",
            "flxContractConfirmScreenRowTemplate": "flxContractConfirmScreenRowTemplate",
            "flxDetailsHighlighter": "flxDetailsHighlighter",
            "flxDropDown": "flxDropDown",
            "flxHeader": "flxHeader",
            "flxRow1": "flxRow1",
            "flxRowDetails": "flxRowDetails",
            "flxSeparatorForHeader": "flxSeparatorForHeader",
            "flxSeparatorVertical": "flxSeparatorVertical",
            "flxSubUserDetails": "flxSubUserDetails",
            "flxUserCommonRowHeader": "flxUserCommonRowHeader",
            "flxUserDetails": "flxUserDetails",
            "imgBottonSeparator": "imgBottonSeparator",
            "imgDropDown": "imgDropDown",
            "imgSample": "imgSample",
            "imgSampleHighlighter": "imgSampleHighlighter",
            "imgSeparatorHeader": "imgSeparatorHeader",
            "lblColumn1": "lblColumn1",
            "lblColumn2": "lblColumn2",
            "lblColumn3": "lblColumn3",
            "lblContractIdentityNum": "lblContractIdentityNum",
            "lblContractName": "lblContractName",
            "lblDetailsHighligher": "lblDetailsHighligher",
            "lblDropdown": "lblDropdown",
            "lblUserType": "lblUserType",
            "lbldetailHighlighterVertical": "lbldetailHighlighterVertical"
        }
    },
    "focusedindex": null,
    "focuseditem": null,
    "groupcells": false,
    "hasSections": false,
    "id": "segContracts",
    "info": null,
    "ipad": {
        "psp": {
            "indicator": "rowselect"
        }
    },
    "iphone": {
        "psp": {
            "indicator": "rowselect"
        }
    },
    "iscustomlayout": false,
    "isvisible": true,
    "kuid": "g4ae1eaaa94a480f8db98f31619a0d39",
    "masterdata": {},
    "name": "kony.ui.SegmentedUI2",
    "needpageindicator": true,
    "pageoffdotimage": "pageoffdot.png",
    "pageondotimage": "pageondot.png",
    "paginationconfig": {
        "position": "bottom"
    },
    "parent": "flxSegContainer",
    "pf": "userwidgetmodel",
    "responsiveData": {
        "b1": {},
        "b2": {}
    },
    "retaincontentalignment": false,
    "retainflexpositionproperties": false,
    "retainselection": false,
    "rowcounter": 0,
    "rowfocusskin": "s0f9bf3c1b3e4a7bb6bf9fd18b0211f2",
    "rowskin": "s3b5791b4ec34c1eb0c951cadcf1e264",
    "rowtemplate": "flxContractConfirmScreenRowTemplate",
    "screenlevelwidget": false,
    "seccounter": 0,
    "sectionheaderskin": "sdc4ff4ed1584272be2ae69045dfb29d",
    "selectedRows": null,
    "selectedState": false,
    "selectedindex": null,
    "selectedindices": null,
    "selecteditems": null,
    "selectedsectionindex": 0,
    "selectionbehavior": "default",
    "separatorcolor": "aaaaaa00",
    "separatorrequired": false,
    "separatorthickness": 1,
    "showscrollbars": false,
    "viewtype": "tableview",
    "vizProps": {},
    "wType": "Segment",
    "widgetalignment": 5,
    "widgetdatamap": {
        "flxBottomSeperator": "flxBottomSeperator",
        "flxContractConfirmScreenRowTemplate": "flxContractConfirmScreenRowTemplate",
        "flxDetailsHighlighter": "flxDetailsHighlighter",
        "flxDropDown": "flxDropDown",
        "flxHeader": "flxHeader",
        "flxRow1": "flxRow1",
        "flxRowDetails": "flxRowDetails",
        "flxSeparatorForHeader": "flxSeparatorForHeader",
        "flxSeparatorVertical": "flxSeparatorVertical",
        "flxSubUserDetails": "flxSubUserDetails",
        "flxUserCommonRowHeader": "flxUserCommonRowHeader",
        "flxUserDetails": "flxUserDetails",
        "imgBottonSeparator": "imgBottonSeparator",
        "imgDropDown": "imgDropDown",
        "imgSample": "imgSample",
        "imgSampleHighlighter": "imgSampleHighlighter",
        "imgSeparatorHeader": "imgSeparatorHeader",
        "lblColumn1": "lblColumn1",
        "lblColumn2": "lblColumn2",
        "lblColumn3": "lblColumn3",
        "lblContractIdentityNum": "lblContractIdentityNum",
        "lblContractName": "lblContractName",
        "lblDetailsHighligher": "lblDetailsHighligher",
        "lblDropdown": "lblDropdown",
        "lblUserType": "lblUserType",
        "lbldetailHighlighterVertical": "lbldetailHighlighterVertical"
    },
    "zindex": 1
}