{
    "classname": "TotalReceivablePayable",
    "definitions": {
        "apis": {
            "custom": [],
            "passthrough": []
        },
        "events": {
            "custom": [],
            "passthrough": []
        },
        "groups": {
            "apis": [],
            "events": [],
            "properties": [],
            "widgets": []
        },
        "properties": {
            "custom": [],
            "passthrough": [
                {
                    "access": "Enable",
                    "group": "General",
                    "kuid": "fe510d5211a44db0abe94e2476c071e7",
                    "originalPropertyKey": "src",
                    "propertyIndex": 1,
                    "propertyKey": "cashFlowTypeImgSource",
                    "pw": {
                        "access": "readwrite",
                        "category": "widget",
                        "dependentKeysKUIDs": null,
                        "displayName": "CashFlowTypeImage Source",
                        "srcWidget": "imgTotalReceivable",
                        "type": "string",
                        "uiConfig": {
                            "Button": {
                                "dataRetrieverId": "Imagelist",
                                "dataUpdaterId": "Imagelist",
                                "popupId": "Imagelist",
                                "type": "ImageEditBtn"
                            },
                            "Label": {}
                        },
                        "uiRepresentation": "Label-Label-Button",
                        "wType": "Image"
                    },
                    "srcWgtKUID": "cda76dcbd9454370b0ae8174544dccdb"
                },
                {
                    "access": "Enable",
                    "group": "General",
                    "kuid": "afb23f389cbb44f685cd3b93b8fea940",
                    "originalPropertyKey": "text",
                    "propertyIndex": 2,
                    "propertyKey": "totalCashFlowTypeTitle",
                    "pw": {
                        "access": "readwrite",
                        "category": "look",
                        "dependentKeysKUIDs": null,
                        "displayName": "TotalCashFlowTypeTitle ",
                        "srcWidget": "lblTotalCashFlowType",
                        "type": "string",
                        "uiRepresentation": "Label-Textbox",
                        "wType": "Label"
                    },
                    "srcWgtKUID": "gbcf23658d294a818bf75b4bf444dde1"
                },
                {
                    "access": "Enable",
                    "group": "General",
                    "kuid": "g2028680240741c5bbf87250fd29457e",
                    "originalPropertyKey": "text",
                    "propertyIndex": 3,
                    "propertyKey": "totalCashFlowTypeValue",
                    "pw": {
                        "access": "readwrite",
                        "category": "look",
                        "dependentKeysKUIDs": null,
                        "displayName": "TotalCashFlowTypeValue",
                        "srcWidget": "lblTotalCashFlowValue",
                        "type": "string",
                        "uiRepresentation": "Label-Textbox",
                        "wType": "Label"
                    },
                    "srcWgtKUID": "affbfaae3412442ab23329e8e42e52bf"
                }
            ]
        },
        "widgets": {
            "expose": [],
            "passthrough": []
        }
    },
    "namespace": "com.konyBB.account",
    "version": "1.0.0"
}