{
    "@class": "com.kony.gen.viz.model.component.KVizLabel",
    "DNDConfig": null,
    "__parentReadjusting__": false,
    "_bottom_": {
        "type": "string",
        "value": ""
    },
    "_height_": {
        "type": "ref",
        "value": "preferred"
    },
    "_left_": {
        "type": "string",
        "value": "6.07%"
    },
    "_margin_": [
        1,
        1,
        1,
        1
    ],
    "_padding_": [
        0,
        0,
        2,
        0
    ],
    "_skin_": "s2d800e3e18244b3b0795e5e5d6a0f77",
    "_text_": "Wire Transfer - Bulk Wires",
    "_top_": {
        "type": "string",
        "value": "30dp"
    },
    "_width_": {
        "type": "string",
        "value": "90%"
    },
    "_wrapping_": 2,
    "accessibilityconfig": {
        "a11yLabel": "Transfers"
    },
    "android": {
        "textStyle": {
            "letterSpacing": 0,
            "strikeThrough": false
        }
    },
    "canUpdateUI": true,
    "centerx": {
        "type": "number",
        "value": ""
    },
    "containerweight": 100,
    "contentalignment": 1,
    "id": "errorMsg",
    "info": null,
    "ipad": {
        "psp": {
            "wrapping": 2
        }
    },
    "iphone": {
        "psp": {
            "wrapping": 2
        }
    },
    "isvisible": false,
    "kuid": "a82794c1c6414dd0be87bb448b52ce98",
    "name": "kony.ui.Label",
    "paddinginpixel": false,
    "parent": "flxMain",
    "pf": "frmBWTemplateConfirmTransfer",
    "responsiveData": {
        "b1": {},
        "b2": {
            "centerX": {
                "type": "string",
                "value": "50%"
            },
            "text": "Error Occured",
            "width": {
                "type": "string",
                "value": "95%"
            }
        },
        "b3": {
            "height": {
                "type": "string",
                "value": "0dp"
            },
            "width": {
                "type": "string",
                "value": "0%"
            }
        },
        "b4": {
            "centerX": {
                "type": "string",
                "value": "50%"
            },
            "width": {
                "type": "string",
                "value": "1200dp"
            }
        }
    },
    "tooltip": "",
    "wType": "Label",
    "zindex": 1
}