{
    "@class": "com.kony.gen.viz.model.component.KVizImage2",
    "DNDConfig": null,
    "__parentReadjusting__": false,
    "_base64_": null,
    "_height_": {
        "type": "string",
        "value": "50dp"
    },
    "_left_": {
        "type": "string",
        "value": "4%"
    },
    "_margin_": [
        0,
        0,
        0,
        0
    ],
    "_padding_": [
        0,
        0,
        0,
        0
    ],
    "_skin_": "s78a5f26c9f14cec9ebed1bb46098f80",
    "_src_": "info_large.png",
    "_top_": {
        "type": "string",
        "value": "32dp"
    },
    "_width_": {
        "type": "string",
        "value": "6.30%"
    },
    "canUpdateUI": true,
    "containerweight": 100,
    "id": "imgInfo",
    "imagescalemode": 1,
    "info": null,
    "invokedProperty": "src",
    "iscustomlayout": false,
    "isvisible": true,
    "kuid": "h4c760c5ba4844bc81fa3f9751c77bcf",
    "name": "kony.ui.Image2",
    "parent": "flxNoTransactions",
    "pf": "frmBWTemplateConfirmTransfer",
    "retaincontentalignment": false,
    "retainflexpositionproperties": false,
    "srcType": 1,
    "wType": "Image",
    "widgetalignment": 5,
    "zindex": 1
}