{
    "@class": "com.kony.gen.viz.model.component.KVizUserWidget",
    "DNDConfig": null,
    "__parentReadjusting__": false,
    "_android_": {},
    "_androidwearos_": {},
    "_children_": [],
    "_desktopweb_": {},
    "_height_": {
        "type": "ref",
        "value": "preferred"
    },
    "_ipad_": {},
    "_iphone_": {},
    "_kiosk_": {},
    "_left_": {
        "type": "string",
        "value": "0dp"
    },
    "_margin_": [
        0,
        0,
        0,
        0
    ],
    "_orientation_": 1,
    "_padding_": [
        0,
        0,
        0,
        0
    ],
    "_percent_": true,
    "_render_": true,
    "_skin_": "sdc143f0e5b64ae3a3f155f691c73fa7",
    "_spa_": {},
    "_spaan_": {},
    "_spaandroidtablet_": {},
    "_spabb_": {},
    "_spaip_": {},
    "_spaipad_": {},
    "_spamobile_": {},
    "_spatablet_": {},
    "_spawindowstablet_": {},
    "_spawinphone8_": {},
    "_tabrcandroid_": {},
    "_top_": {
        "type": "string",
        "value": "0dp"
    },
    "_vizProps_": {
        "hidewidgethierarchy": false
    },
    "_width_": {
        "type": "string",
        "value": "100%"
    },
    "_windows10_": {},
    "_windows8_": {},
    "_winphone10_": {},
    "_winphone8_": {},
    "areflexpropsreferenced": false,
    "autogrowmode": 1,
    "canUpdateUI": true,
    "clipbounds": false,
    "containerweight": 0,
    "dataDiffs": {
        "Acknowledgment": {
            "__events__": {},
            "__info__": {
                "isRoot": true,
                "kuid": "e7030a81878a47ab9bc40b2e3cc983e1",
                "srcKUID": "a1bcf06fca97422481843d455fefa375",
                "wType": "FlexContainer"
            }
        },
        "btnAccountSummary": {
            "__events__": {},
            "__info__": {
                "kuid": "b60845d805d641f69a7c55e222d2fa31",
                "srcKUID": "cbb82dc82ff5427d811c41b9f51224a1",
                "wType": "Button"
            }
        },
        "btnAddMoreAccounts": {
            "__events__": {},
            "__info__": {
                "kuid": "dfad6aca751b43e4ace22da22e159a91",
                "srcKUID": "b2e4f6690c1a4e8189d8ccaf7ce839b3",
                "wType": "Button"
            }
        },
        "flxAcknowledgementButtons": {
            "__events__": {},
            "__info__": {
                "kuid": "fc05716b2c44456392d7c92064af3725",
                "srcKUID": "b5b65b237f934096a7b6ea61a33b5793",
                "wType": "FlexContainer"
            }
        },
        "flxAcknowledgementMain": {
            "__events__": {},
            "__info__": {
                "kuid": "a041b8305783413eaf0d0dabbaa11f48",
                "srcKUID": "d2ce62bf91de4a74bd6d9d858c3981f3",
                "wType": "FlexContainer"
            }
        },
        "flxAcknowledgementSeperator2": {
            "__events__": {},
            "__info__": {
                "kuid": "b8b1d330284a47c184619db20a31ae4f",
                "srcKUID": "d633b8aa14154e26966a790305e3a60b",
                "wType": "FlexContainer"
            }
        },
        "flxHeaderAcknowledgement": {
            "__events__": {},
            "__info__": {
                "kuid": "b4f2e5c9735341569505698b699244c0",
                "srcKUID": "a0fdc2f99e364d8c8ee3d02b0c2c5f1d",
                "wType": "FlexContainer"
            }
        },
        "flxSeparator": {
            "__events__": {},
            "__info__": {
                "kuid": "c54605cd362748298c2dedcbf346e967",
                "srcKUID": "iadb21deb2e14e36bcc00ae17bac602c",
                "wType": "FlexContainer"
            }
        },
        "imgSuccess": {
            "__events__": {},
            "__info__": {
                "kuid": "f359876a749f4281baf6d3487346e26c",
                "srcKUID": "ie9ce6cda71a4f12b1ada62991d02b2d",
                "wType": "Image"
            }
        },
        "lblAcknowledgementSeperator": {
            "__events__": {},
            "__info__": {
                "kuid": "a0fc2df82f6e4fc4a45374e5f230f51b",
                "srcKUID": "c3bbd5eb9e864679b787ab3494c745c4",
                "wType": "Label"
            }
        },
        "lblCongratulations": {
            "__events__": {},
            "__info__": {
                "kuid": "ddd67f9faa3140b2939b0f399cb28f2a",
                "srcKUID": "beecc0ae9ec54b81a271f84101526080",
                "wType": "Label"
            }
        },
        "lblSelectedAccounts": {
            "__events__": {},
            "__info__": {
                "kuid": "j179c06a8706473dae7e626b341645cb",
                "srcKUID": "hfe06ee4a13a4e2db688096db47197a1",
                "wType": "Label"
            }
        },
        "lblSuccessmsg": {
            "__events__": {},
            "__info__": {
                "kuid": "f49fdaeee6d24df8b5b77f0102a209d1",
                "srcKUID": "d80a7b8051e84c80b7408f893e0d0393",
                "wType": "Label"
            }
        },
        "lblUserInformation": {
            "__events__": {},
            "__info__": {
                "kuid": "j875f50cf87049cb842a41bcee8ad6ad",
                "srcKUID": "a951a9c0ac954481ac5b88ee3d39b871",
                "wType": "Label"
            }
        },
        "segSelectedAccounts": {
            "__events__": {},
            "__info__": {
                "kuid": "ddab2ab8d2e64f68afb77f0e66420855",
                "srcKUID": "f2aacb444d454f5ba8c9bb0762577645",
                "wType": "Segment"
            }
        }
    },
    "id": "Acknowledgment",
    "info": null,
    "iscustomlayout": false,
    "isdatareferenced": false,
    "isvisible": true,
    "kuid": "e7030a81878a47ab9bc40b2e3cc983e1",
    "layouttype": 4,
    "masterType": 0,
    "name": "kony.ui.UserWidgetInstance",
    "parent": "flxAcknowledgment",
    "pf": "userwidgetmodel",
    "retaincontentalignment": false,
    "retainflexpositionproperties": false,
    "snaptogrid": true,
    "sourceUserWidget": "a1bcf06fca97422481843d455fefa375",
    "wType": "UserWidgetInstance"
}