{
    "@class": "com.kony.gen.viz.model.component.KVizImage2",
    "DNDConfig": null,
    "_base64_": null,
    "_height_": {
        "type": "string",
        "value": "7dp"
    },
    "_left_": {
        "type": "string",
        "value": "5dp"
    },
    "_margin_": [
        0,
        0,
        0,
        0
    ],
    "_padding_": [
        0,
        0,
        0,
        0
    ],
    "_skin_": "s78a5f26c9f14cec9ebed1bb46098f80",
    "_src_": "arrow_down.png",
    "_width_": {
        "type": "string",
        "value": "14dp"
    },
    "accessibilityconfig": {
        "a11yLabel": "Dropdown",
        "a11yValue": ""
    },
    "canUpdateUI": true,
    "centery": {
        "type": "string",
        "value": "50%"
    },
    "containerId": true,
    "containerweight": 100,
    "id": "imgCategoryDropdown",
    "imagescalemode": 1,
    "imagewhiledownloading": "img_transparent.png",
    "info": null,
    "isvisible": true,
    "kuid": "b7607036ae154cc59a72f81bf3cf1968",
    "name": "kony.ui.Image2",
    "parent": "flxCategoryImage",
    "pf": "ICSegTransactionsRowSelectedSavings",
    "srcType": 1,
    "tooltip": "DropDownList",
    "wType": "Image",
    "widgetalignment": 5,
    "zindex": 1
}