{
    "@class": "com.kony.gen.viz.model.component.KVizImage2",
    "DNDConfig": null,
    "_base64_": null,
    "_height_": {
        "type": "string",
        "value": "20dp"
    },
    "_left_": {
        "type": "string",
        "value": "0dp"
    },
    "_margin_": [
        0,
        0,
        0,
        0
    ],
    "_padding_": [
        0,
        0,
        0,
        0
    ],
    "_skin_": "s8ee487de5774c1eb668e74bf92f5cdd",
    "_src_": "unchecked_box.png",
    "_top_": {
        "type": "string",
        "value": "0dp"
    },
    "_width_": {
        "type": "string",
        "value": "20dp"
    },
    "accessibilityconfig": {
        "a11yLabel": "Checkbox",
        "a11yValue": ""
    },
    "canUpdateUI": true,
    "containerId": true,
    "containerweight": 100,
    "id": "imgRememberCategory",
    "imagescalemode": 1,
    "imagewhiledownloading": "img_transparent.png",
    "info": null,
    "invokedProperty": "src",
    "isvisible": true,
    "kuid": "ec1738c4246342c7993ef9a9e54a2ff4",
    "name": "kony.ui.Image2",
    "parent": "flxRememberCategory",
    "pf": "ICSegTransactionsRowSelectedSavings",
    "srcType": 1,
    "tooltip": "Remember Category",
    "wType": "Image",
    "widgetalignment": 5,
    "zindex": 1
}