{
    "@class": "com.kony.gen.viz.model.component.KVizUserWidget",
    "DNDConfig": null,
    "_children_": [],
    "_height_": {
        "type": "ref",
        "value": "preferred"
    },
    "_left_": {
        "type": "string",
        "value": "0dp"
    },
    "_margin_": [
        0,
        0,
        0,
        0
    ],
    "_orientation_": 1,
    "_padding_": [
        0,
        0,
        0,
        0
    ],
    "_percent_": true,
    "_skin_": "s24c92fc23b14f5484b693ee9b8a9b35",
    "_top_": {
        "type": "string",
        "value": "0dp"
    },
    "_width_": {
        "type": "string",
        "value": "100%"
    },
    "areflexpropsreferenced": false,
    "autogrowmode": 1,
    "canUpdateUI": true,
    "clipbounds": true,
    "containerweight": 0,
    "dataDiffs": {
        "flxColumn1": {
            "__events__": {},
            "__info__": {
                "kuid": "f2f692091ed74d41a5bc5efa466427d9",
                "srcKUID": "ca2fa3f672ae4a959573870d37e7a3f8",
                "wType": "FlexContainer"
            }
        },
        "flxColumn2": {
            "__events__": {},
            "__info__": {
                "kuid": "bb3026f44e564b8185ef0b83f170cbda",
                "srcKUID": "f2e3442a5303475fa17201d983fdebf2",
                "wType": "FlexContainer"
            }
        },
        "flxColumn3": {
            "__events__": {},
            "__info__": {
                "kuid": "b24b53b778d74ff98dcc7bda0a67e095",
                "srcKUID": "dc37cc4e0c8749989a63876aef88763c",
                "wType": "FlexContainer"
            }
        },
        "flxHeader": {
            "__events__": {},
            "__info__": {
                "kuid": "e011636b242a4f29bd79e74008c9bb78",
                "srcKUID": "fec28b2520e94ea09cfa01883630fbf4",
                "wType": "FlexContainer"
            }
        },
        "flxHorizontalLine1": {
            "__events__": {},
            "__info__": {
                "kuid": "d7bf27ca93a146e483466df62b818509",
                "srcKUID": "ab19b02d38ec43c7bc80fee12299f7d6",
                "wType": "FlexContainer"
            }
        },
        "flxHorizontalLine2": {
            "__events__": {},
            "__info__": {
                "kuid": "e0999235a5eb432cbd16d465aa26e2e7",
                "srcKUID": "a9344250ce36447399e63467457459b4",
                "wType": "FlexContainer"
            },
            "isVisible": true,
            "responsiveData": {
                "b3": {
                    "isVisible": false
                }
            }
        },
        "flxHorizontalLine3": {
            "__events__": {},
            "__info__": {
                "kuid": "aa19a5eef2a546ddb10acc3bb3f3b3b8",
                "srcKUID": "a62d0c6bbf9941e0bbd687cfe0d1c206",
                "wType": "FlexContainer"
            }
        },
        "flxSegContainer": {
            "__events__": {},
            "__info__": {
                "kuid": "afe932c631304332a6b3dc73c6bf1cb0",
                "srcKUID": "bd3af797d3654f1bbd143ebb0dabfbfe",
                "wType": "FlexContainer"
            }
        },
        "flxSegmentHeader": {
            "__events__": {},
            "__info__": {
                "kuid": "c25fe2f58f9b4835825f9202e6e3c557",
                "srcKUID": "f65203aeba304219b53ed02003f1ba9c",
                "wType": "FlexContainer"
            }
        },
        "flxSortSixColumn": {
            "__events__": {},
            "__info__": {
                "kuid": "f7c5bd69aa9c4c5f91b45108c415bacc",
                "srcKUID": "f0f7004621b1469096cd7fb516fc7eec",
                "wType": "FlexContainer"
            }
        },
        "imgSortColumn1": {
            "__events__": {},
            "__info__": {
                "kuid": "b92e1ffad19e4aea85cef2200294cb14",
                "srcKUID": "f6b6f98f864c47e581b875aa476f24ab",
                "wType": "Image"
            }
        },
        "imgSortColumn2": {
            "__events__": {},
            "__info__": {
                "kuid": "ac77a31e1a084e16b3bc13a92f319bd6",
                "srcKUID": "bb3d8182186a4ec2b2048640abc70979",
                "wType": "Image"
            }
        },
        "lblColumn1": {
            "__events__": {},
            "__info__": {
                "kuid": "g6f65e3eb5434abbbed28f4ed37ca959",
                "srcKUID": "g7703d5f0426495f998d36effe98536e",
                "wType": "Label"
            }
        },
        "lblColumn2": {
            "__events__": {},
            "__info__": {
                "kuid": "g4f18f917d96465faf8e41a03c388db4",
                "srcKUID": "c0ca327d2a7a4c1dafaa9142d0771465",
                "wType": "Label"
            }
        },
        "lblColumn3": {
            "__events__": {},
            "__info__": {
                "kuid": "a54ed5262dab4354934c7a9d26c6faeb",
                "srcKUID": "f03d2a5e9c61445dba4a88e36bb62d0e",
                "wType": "Label"
            }
        },
        "lblHeaderContracts": {
            "__events__": {},
            "__info__": {
                "kuid": "j39cc3492afd4f29a70cb68bf51e3b69",
                "srcKUID": "a9a6908190794300a21532dfc5a53e41",
                "wType": "Label"
            }
        },
        "screenConfirm": {
            "__events__": {},
            "__info__": {
                "isRoot": true,
                "kuid": "bccc6ee48e884cdd9828f0a2f8c3be34",
                "srcKUID": "a4f7dc7591b4491caab8410be9f7bbb0",
                "wType": "FlexContainer"
            }
        },
        "segContracts": {
            "__events__": {},
            "__info__": {
                "kuid": "i33b83fd858245e8bbbece9532ea162c",
                "srcKUID": "f93de29ff28e4295b8de0c2d951a41c0",
                "wType": "Segment"
            }
        }
    },
    "enablescrolling": true,
    "id": "screenConfirm",
    "info": null,
    "iscustomlayout": false,
    "isdatareferenced": false,
    "isvisible": true,
    "kuid": "bccc6ee48e884cdd9828f0a2f8c3be34",
    "layouttype": 4,
    "masterType": 0,
    "name": "kony.ui.UserWidgetInstance",
    "parent": "flxContractsComponent",
    "pf": "frmWireTransferAddKonyAccountConfirm",
    "retaincontentalignment": false,
    "retainflexpositionproperties": false,
    "retainflowhorizontalalignment": false,
    "snapgridsize": 10,
    "snaptogrid": true,
    "sourceUserWidget": "a4f7dc7591b4491caab8410be9f7bbb0",
    "wType": "UserWidgetInstance"
}