{
    "@class": "com.kony.gen.viz.model.component.KVizLabel",
    "DNDConfig": null,
    "__parentReadjusting__": false,
    "_height_": {
        "type": "string",
        "value": "16dp"
    },
    "_left_": {
        "type": "string",
        "value": "89dp"
    },
    "_margin_": [
        1,
        1,
        1,
        1
    ],
    "_padding_": [
        0,
        0,
        0,
        0
    ],
    "_skin_": "s1bfe96009c34913888d962916ac55e0",
    "_text_": "",
    "_top_": {
        "type": "string",
        "value": "301dp"
    },
    "_width_": {
        "type": "string",
        "value": "16dp"
    },
    "_wrapping_": 2,
    "accessibilityconfig": {
        "a11yLabel": "randomValue"
    },
    "android": {
        "textStyle": {
            "letterSpacing": 0,
            "strikeThrough": false
        }
    },
    "canUpdateUI": true,
    "centerx": {
        "type": "string",
        "value": "33%"
    },
    "containerweight": 100,
    "contentalignment": 4,
    "id": "lblimgRound",
    "info": null,
    "ipad": {
        "psp": {
            "wrapping": 2
        }
    },
    "iphone": {
        "psp": {
            "wrapping": 2
        }
    },
    "isvisible": true,
    "kuid": "c031ccfd27bd4ed2a943c827cc312abb",
    "name": "kony.ui.Label",
    "parent": "flxNoTransactionsMySpending",
    "pf": "userwidgetmodel",
    "tooltip": "",
    "wType": "Label",
    "zindex": 1
}