{
    "@class": "com.kony.gen.viz.model.component.KVizLabel",
    "DNDConfig": null,
    "__parentReadjusting__": false,
    "_height_": {
        "type": "ref",
        "value": "preferred"
    },
    "_left_": {
        "type": "string",
        "value": "20px"
    },
    "_margin_": [
        1,
        1,
        1,
        1
    ],
    "_padding_": [
        0,
        0,
        0,
        0
    ],
    "_right_": {
        "type": "string",
        "value": "0px"
    },
    "_skin_": "s415be662ebd4bc8b09a3193c2067ba6",
    "_text_": "",
    "_top_": {
        "type": "string",
        "value": "1px"
    },
    "_wrapping_": 2,
    "accessibilityconfig": {
        "a11yLabel": "Benefit Description One"
    },
    "android": {
        "textStyle": {
            "letterSpacing": 0,
            "strikeThrough": false
        }
    },
    "canUpdateUI": true,
    "containerweight": 100,
    "contentalignment": 4,
    "id": "lblIns1",
    "info": null,
    "ipad": {
        "psp": {
            "wrapping": 2
        }
    },
    "iphone": {
        "psp": {
            "wrapping": 2
        }
    },
    "isvisible": true,
    "kuid": "ef6a518f873b459d8f9ee9e5bc009566",
    "name": "kony.ui.Label",
    "parent": "flxone",
    "pf": "userwidgetmodel",
    "texti18n": "i18n.CardManagement.BenefitDescriptionOne",
    "tooltip": "",
    "wType": "Label",
    "zindex": 1
}