{
    "@class": "com.kony.gen.viz.model.component.KVizButton",
    "DNDConfig": null,
    "__parentReadjusting__": false,
    "_height_": {
        "type": "string",
        "value": "25dp"
    },
    "_margin_": [
        6,
        6,
        6,
        6
    ],
    "_padding_": [
        0,
        0,
        0,
        0
    ],
    "_right_": {
        "type": "string",
        "value": "21.13%"
    },
    "_skin_": "s41199c8c0df41048cbf47d26a9026d5",
    "_text_": "MODIFY",
    "_top_": {
        "type": "string",
        "value": "13dp"
    },
    "_width_": {
        "type": "ref",
        "value": "preferred"
    },
    "accessibilityconfig": {
        "a11yLabel": "MODIFY"
    },
    "canUpdateUI": true,
    "containerId": true,
    "containerweight": 100,
    "contentalignment": 5,
    "disabledSkins": {
        "focusSkin": "sf44d06ca8224832827ea7fdff757013"
    },
    "displaytext": true,
    "id": "btnModify",
    "ide_onClick": "AS_Button_c8501a56b0ee410e9342f332af04abe6",
    "info": null,
    "isvisible": true,
    "kuid": "c161d783a0714b728a6405b18a03af57",
    "name": "kony.ui.Button",
    "parent": "flxModifyAction",
    "pf": "segSent",
    "wType": "Button",
    "zindex": 1
}