{
    "@class": "com.kony.gen.viz.model.component.KVizLabel",
    "DNDConfig": null,
    "_bottom_": {
        "type": "string",
        "value": ""
    },
    "_height_": {
        "type": "ref",
        "value": "preferred"
    },
    "_left_": {
        "type": "string",
        "value": "86dp"
    },
    "_margin_": [
        1,
        1,
        1,
        1
    ],
    "_padding_": [
        0,
        0,
        2,
        0
    ],
    "_skin_": "s18d3552bc4143569a7c5aef6bd5eaa1",
    "_text_": "Approval Matrix -  Customer Level Edit ",
    "_top_": {
        "type": "string",
        "value": "0dp"
    },
    "_width_": {
        "type": "string",
        "value": "88%"
    },
    "_wrapping_": 2,
    "accessibilityconfig": {
        "a11yLabel": "Foreign Exchange"
    },
    "android": {
        "textStyle": {
            "letterSpacing": 0,
            "strikeThrough": false
        }
    },
    "canUpdateUI": true,
    "centerx": {
        "type": "string",
        "value": "50%"
    },
    "containerweight": 100,
    "contentalignment": 1,
    "id": "lblApprovalMatrixHeader",
    "info": null,
    "ipad": {
        "psp": {
            "wrapping": 2
        }
    },
    "iphone": {
        "psp": {
            "wrapping": 2
        }
    },
    "isvisible": true,
    "kuid": "d6947a4b052f487d8613c91186e09e4d",
    "name": "kony.ui.Label",
    "paddinginpixel": false,
    "parent": "flxContent",
    "pf": "frmEditApprovalMatrixLimits",
    "responsiveData": {
        "b1": {
            "left": {
                "type": "string",
                "value": "6.07%"
            }
        },
        "b2": {
            "left": {
                "type": "string",
                "value": "2.50%"
            }
        },
        "b3": {
            "height": {
                "type": "string",
                "value": "0dp"
            },
            "isVisible": false,
            "left": {
                "type": "string",
                "value": "0dp"
            }
        }
    },
    "tooltip": "",
    "wType": "Label",
    "zindex": 1
}