{
    "DNDConfig": null,
    "_height_": {
        "type": "ref",
        "value": "preferred"
    },
    "_left_": {
        "type": "string",
        "value": "0"
    },
    "_margin_": [
        0,
        0,
        0,
        0
    ],
    "_orientation_": 6,
    "_padding_": [
        0,
        0,
        0,
        0
    ],
    "_percent_": true,
    "_skin_": "s24c92fc23b14f5484b693ee9b8a9b35",
    "_top_": {
        "type": "string",
        "value": "0"
    },
    "_width_": {
        "type": "string",
        "value": "100%"
    },
    "allboxes": [],
    "autogrowmode": 1,
    "canUpdateUI": true,
    "children": [
        "flxFeatureRow1",
        "flxFeatureRow2",
        "flxFeatureRow3",
        "flxFeatureRow4",
        "flxFeatureRow5",
        "flxFeatureRow6",
        "flxFeatureRow7",
        "flxFeatureRow8",
        "flxFeatureRow9",
        "flxFeatureRow10",
        "flxFeatureRow11",
        "flxFeatureRow12",
        "flxFeatureRow13",
        "flxFeatureRow14",
        "flxFeatureRow15",
        "flxFeatureRow16",
        "flxFeatureRow17",
        "flxFeatureRow18",
        "flxFeatureRow19",
        "flxFeatureRow20"
    ],
    "clipbounds": true,
    "containerId": true,
    "containerweight": 100,
    "enablescrolling": true,
    "id": "flxFeatureRows",
    "info": null,
    "iscustomlayout": false,
    "isvisible": true,
    "kuid": "f023b3fbc0c44f6ca4f5eb1368559183",
    "layouttype": 4,
    "name": "kony.ui.FlexContainer",
    "parent": "flxAvaivableSerives",
    "pf": "segAvailableFetaures",
    "retaincontentalignment": false,
    "retainflexpositionproperties": false,
    "retainflowhorizontalalignment": false,
    "snapgridsize": 10,
    "snaptogrid": true,
    "wType": "FlexContainer",
    "widgetalignment": 1,
    "zindex": 1
}