{
    "@class": "com.kony.gen.viz.model.component.KVizDateField",
    "DNDConfig": null,
    "Image": "calendar.png",
    "_data_": null,
    "_date_": [
        "1",
        "1",
        "2020"
    ],
    "_height_": {
        "type": "string",
        "value": "40dp"
    },
    "_left_": {
        "type": "string",
        "value": "0dp"
    },
    "_margin_": [
        0,
        0,
        0,
        0
    ],
    "_padding_": [
        3,
        0,
        0,
        0
    ],
    "_skin_": "s4edc97d2a814f43b38f77b1f77c1588",
    "_top_": {
        "type": "string",
        "value": "0dp"
    },
    "_width_": {
        "type": "string",
        "value": "100%"
    },
    "advview": "default",
    "calendaricon": "calendar.png",
    "canUpdateUI": true,
    "containerweight": 100,
    "contentalignment": 4,
    "datecomponents": [
        "1",
        "1",
        "2020"
    ],
    "dateeditable": true,
    "dateformat": "dd/MM/yyyy",
    "day": "1",
    "daytextalignmentincell": 5,
    "entereddate": "01/01/2020",
    "format": "dd/MM/yyyy",
    "formatteddate": "01/01/2020",
    "hidedaysheader": false,
    "hidemonthsheader": false,
    "hour": 0,
    "id": "clndrEndDate",
    "info": null,
    "iscustomlayout": false,
    "isvisible": true,
    "kuid": "geed0a8eeef04483b14fda8ddf2002c5",
    "luadate": [
        "1",
        "1",
        "2020"
    ],
    "minutes": 0,
    "month": "1",
    "name": "kony.ui.Calendar",
    "noofmonths": 1,
    "paddinginpixel": false,
    "pagedate": "/2020",
    "parent": "flxEndDate",
    "pf": "frmP2PSendMoney",
    "responsiveData": {
        "b3": {
            "padding": [
                3,
                0,
                0,
                0
            ]
        }
    },
    "retaincontentalignment": false,
    "retainflexpositionproperties": false,
    "seconds": 0,
    "selectdate": "//2020",
    "viewtype": "default",
    "wType": "Calendar",
    "widgetalignment": 5,
    "year": "2020",
    "zindex": 1
}