{
	 "@class": "com.kony.gen.viz.model.component.KVizImage2",
	 "DNDConfig": null,
	 "__parentReadjusting__": false,
	 "_base64_": null,
	 "_height_": {
		 "type": "string",
		 "value": "16dp"
	},
	 "_left_": {
		 "type": "string",
		 "value": "10dp"
	},
	 "_margin_": [
		 0,
		 0,
		 0,
		 0
	],
	 "_padding_": [
		 0,
		 0,
		 0,
		 0
	],
	 "_skin_": "s78a5f26c9f14cec9ebed1bb46098f80",
	 "_src_": "search_close.png",
	 "_top_": {
		 "type": "string",
		 "value": "0dp"
	},
	 "_width_": {
		 "type": "string",
		 "value": "16dp"
	},
	 "accessibilityconfig": {
		 "a11yLabel": "Search",
		 "a11yValue": ""
	},
	 "canUpdateUI": true,
	 "centery": {
		 "type": "string",
		 "value": "50%"
	},
	 "containerweight": 100,
	 "context": {
		 "channel": "desktop",
		 "formID": "uwu0cbd99fc4d94748a801faa82d1f10f0",
		 "platform": "desktopweb",
		 "templateType": "userwidgets",
		 "topLevelBox": null
	},
	 "id": "imgCancelFilter",
	 "imagescalemode": 1,
	 "imagewhiledownloading": "img_transparent.png",
	 "info": null,
	 "invokedProperty": "src",
	 "isvisible": true,
	 "kuid": "b526bca36ae64f76a4134b67e3d7dfaa",
	 "name": "kony.ui.Image2",
	 "parent": "flxCancelFilter",
	 "pf": "userwidgetmodel",
	 "srcType": 1,
	 "tooltip": "Remove",
	 "wType": "Image",
	 "widgetalignment": 5,
	 "zindex": 1
}