{
    "@class": "com.kony.gen.viz.model.component.KVizListBox",
    "DNDConfig": null,
    "__parentReadjusting__": false,
    "_height_": {
        "type": "string",
        "value": "40dp"
    },
    "_left_": {
        "type": "string",
        "value": "0dp"
    },
    "_margin_": [
        0,
        0,
        0,
        0
    ],
    "_padding_": [
        3,
        0,
        0,
        0
    ],
    "_skin_": "sfae4459590b4f39af6863186b5f2646",
    "_top_": {
        "type": "string",
        "value": "6dp"
    },
    "_width_": {
        "type": "string",
        "value": "100%"
    },
    "canUpdateUI": true,
    "containerweight": 100,
    "contentalignment": 4,
    "context": {
        "channel": "desktop",
        "formID": "uwu2b1d798d4594f63837ed9524b560443",
        "templateType": "userwidgets",
        "topLevelBox": null
    },
    "groupcells": false,
    "id": "lbxIntAccountTypeKA",
    "info": null,
    "isvisible": true,
    "kuid": "jb50f93425794d9ebca4276ab2a3404a",
    "masterdata": [
        [
            "lb1",
            "Savings"
        ],
        [
            "lb2",
            "Checking"
        ]
    ],
    "name": "kony.ui.ListBox",
    "parent": "flxIntAccountTypeKA",
    "pf": "userwidgetmodel",
    "selectedkey": "lb1",
    "selectedkeys": null,
    "selectedkeyvalue": [
        "lb1",
        "Savings"
    ],
    "selectedkeyvalues": null,
    "size": 18,
    "viewconfig": {
        "toggleViewConfig": {
            "viewStyle": 0
        }
    },
    "viewtype": 0,
    "wType": "ListBox",
    "zindex": 1,
    "focusskin": "s9eb08f78097439eb767801e8fdeb5cd"
}