{
    "@class": "com.kony.gen.viz.model.container.KVizSegment2",
    "DNDConfig": null,
    "__parentReadjusting__": false,
    "_data_": [
        {
            "imgRemoveAttachment": {
                "@class": "com.viz.ide.model.segment.ImageSegmentData",
                "src": "bbcloseicon.png"
            },
            "lblAttachedDocument": {
                "@class": "com.viz.ide.model.segment.SimpleTextSegmentData",
                "text": "Label"
            }
        },
        {
            "imgRemoveAttachment": {
                "@class": "com.viz.ide.model.segment.ImageSegmentData",
                "src": "bbcloseicon.png"
            },
            "lblAttachedDocument": {
                "@class": "com.viz.ide.model.segment.SimpleTextSegmentData",
                "text": "Label"
            }
        },
        {
            "imgRemoveAttachment": {
                "@class": "com.viz.ide.model.segment.ImageSegmentData",
                "src": "bbcloseicon.png"
            },
            "lblAttachedDocument": {
                "@class": "com.viz.ide.model.segment.SimpleTextSegmentData",
                "text": "Label"
            }
        }
    ],
    "_height_": {
        "type": "ref",
        "value": "preferred"
    },
    "_indicator_": "none",
    "_left_": {
        "type": "string",
        "value": "54dp"
    },
    "_margin_": [
        0,
        0,
        0,
        0
    ],
    "_orientation_": 2,
    "_padding_": [
        0,
        0,
        0,
        0
    ],
    "_top_": {
        "type": "string",
        "value": "6dp"
    },
    "_width_": {
        "type": "string",
        "value": "235dp"
    },
    "autogrowmode": 1,
    "canUpdateUI": true,
    "containerweight": 100,
    "counter": "02",
    "desktop": {
        "_data_": [
            {
                "imgRemoveAttachment": {
                    "@class": "com.viz.ide.model.segment.ImageSegmentData",
                    "src": "bbcloseicon.png"
                },
                "lblAttachedDocument": {
                    "@class": "com.viz.ide.model.segment.SimpleTextSegmentData",
                    "text": "Label"
                }
            },
            {
                "imgRemoveAttachment": {
                    "@class": "com.viz.ide.model.segment.ImageSegmentData",
                    "src": "bbcloseicon.png"
                },
                "lblAttachedDocument": {
                    "@class": "com.viz.ide.model.segment.SimpleTextSegmentData",
                    "text": "Label"
                }
            },
            {
                "imgRemoveAttachment": {
                    "@class": "com.viz.ide.model.segment.ImageSegmentData",
                    "src": "bbcloseicon.png"
                },
                "lblAttachedDocument": {
                    "@class": "com.viz.ide.model.segment.SimpleTextSegmentData",
                    "text": "Label"
                }
            }
        ],
        "rowTemplateId": "c4386a06ccb640ecbcc6cf6778029d62",
        "rowtemplate": "flxAttachmentsListTransfers",
        "widgetdatamap": {
            "flxAttachmentsListTransfers": "flxAttachmentsListTransfers",
            "imgRemoveAttachment": "imgRemoveAttachment",
            "lblAttachedDocument": "lblAttachedDocument"
        }
    },
    "focusedindex": null,
    "focuseditem": null,
    "groupcells": false,
    "hasSections": false,
    "id": "segAddedDocuments",
    "info": null,
    "ipad": {
        "psp": {
            "indicator": "rowselect"
        }
    },
    "iphone": {
        "psp": {
            "indicator": "rowselect"
        }
    },
    "iscustomlayout": false,
    "isvisible": true,
    "kuid": "d0f46b87f0854754b0d9598d28103918",
    "masterdata": {},
    "name": "kony.ui.SegmentedUI2",
    "needpageindicator": true,
    "pageoffdotimage": "pageoffdot.png",
    "pageondotimage": "pageondot.png",
    "paginationconfig": {
        "position": "bottom"
    },
    "parent": "flxAttachmentsList",
    "pf": "userwidgetmodel",
    "responsiveData": {},
    "retaincontentalignment": false,
    "retainflexpositionproperties": false,
    "retainselection": false,
    "rowcounter": 2,
    "rowfocusskin": "s0f9bf3c1b3e4a7bb6bf9fd18b0211f2",
    "rowskin": "scf5f90f6ac04976ab88b2a4f7153285",
    "screenlevelwidget": false,
    "seccounter": 0,
    "sectionheaderskin": "sdc4ff4ed1584272be2ae69045dfb29d",
    "selectedRows": null,
    "selectedState": false,
    "selectedindex": null,
    "selectedindices": null,
    "selecteditems": null,
    "selectedsectionindex": null,
    "selectionbehavior": "default",
    "separatorrequired": false,
    "showscrollbars": false,
    "viewtype": "tableview",
    "vizProps": {},
    "wType": "Segment",
    "widgetalignment": 5,
    "widgetdatamap": {
        "flxAttachmentsListTransfers": "flxAttachmentsListTransfers",
        "imgRemoveAttachment": "imgRemoveAttachment",
        "lblAttachedDocument": "lblAttachedDocument"
    },
    "zindex": 1
}