{
    "@class": "com.kony.gen.viz.model.component.KVizButton",
    "DNDConfig": null,
    "__parentReadjusting__": false,
    "_height_": {
        "type": "ref",
        "value": "preferred"
    },
    "_left_": {
        "type": "string",
        "value": "86.50%"
    },
    "_margin_": [
        6,
        6,
        6,
        6
    ],
    "_padding_": [
        0,
        0,
        0,
        0
    ],
    "_skin_": "sf6ca31ec68641e5a2df8232c58cd39a",
    "_text_": "Button",
    "_top_": {
        "type": "string",
        "value": "30px"
    },
    "_width_": {
        "type": "ref",
        "value": "preferred"
    },
    "accessibilityconfig": {
        "a11yLabel": "View E-Bill"
    },
    "canUpdateUI": true,
    "containerweight": 100,
    "contentalignment": 5,
    "disabledSkins": {
        "focusSkin": "sf44d06ca8224832827ea7fdff757013"
    },
    "displaytext": true,
    "id": "btnViewEbill",
    "info": null,
    "isvisible": true,
    "kuid": "b9c9f4619da445cc84b2973872c666fc",
    "name": "kony.ui.Button",
    "parent": "flxContainer4",
    "pf": "userwidgetmodel",
    "texti18n": "i18n.billPay.viewEBill",
    "tooltip": "View E-Bill",
    "wType": "Button",
    "zindex": 5
}