{
    "@class": "com.kony.gen.viz.model.container.KVizSegment2",
    "DNDConfig": null,
    "__parentReadjusting__": false,
    "_bottom_": {
        "type": "string",
        "value": "30dp"
    },
    "_data_": [],
    "_height_": {
        "type": "ref",
        "value": "preferred"
    },
    "_indicator_": "none",
    "_left_": {
        "type": "string",
        "value": "0dp"
    },
    "_margin_": [
        0,
        0,
        0,
        0
    ],
    "_orientation_": 2,
    "_padding_": [
        0,
        0,
        0,
        0
    ],
    "_top_": {
        "type": "string",
        "value": "0dp"
    },
    "_width_": {
        "type": "string",
        "value": "70%"
    },
    "autogrowmode": 1,
    "canUpdateUI": true,
    "containerweight": 100,
    "counter": "07",
    "desktop": {
        "_data_": [],
        "rowTemplateId": "iba3859c286b419e812ae46ef1f18d2b",
        "rowtemplate": "flxNUORule",
        "sectionHeaderTemplateId": null,
        "selectionBehaviorConfig": null,
        "widgetdatamap": {
            "flxNUORule": "flxNUORule",
            "flxRule1": "flxRule1",
            "imgRule1": "imgRule1",
            "lblRule1": "lblRule1"
        }
    },
    "focusedindex": null,
    "focuseditem": null,
    "groupcells": false,
    "hasSections": false,
    "id": "segBalRequirements",
    "info": null,
    "ipad": {
        "psp": {
            "indicator": "rowselect"
        }
    },
    "iphone": {
        "psp": {
            "indicator": "rowselect"
        }
    },
    "isvisible": true,
    "kuid": "b501e9382e294fda9832ee7a89b6441c",
    "masterdata": {},
    "mobile": {
        "rowTemplateId": null,
        "rowtemplate": null,
        "sectionHeaderTemplateId": null
    },
    "name": "kony.ui.SegmentedUI2",
    "needpageindicator": true,
    "pageoffdotimage": "pageoffdot.png",
    "pageondotimage": "pageondot.png",
    "paginationconfig": {
        "position": "bottom",
        "vdistance": 1
    },
    "parent": "flxRight",
    "pf": "userwidgetmodel",
    "retainselection": false,
    "rowcounter": 7,
    "rowfocusskin": "s9f69e977910472eb44c62ae28c41fe1",
    "rowskin": "s76d2ce1ed0442cf8ec1d5e836e4a361",
    "rowtemplate": "flxSegTransactionRowSelected",
    "screenlevelwidget": false,
    "seccounter": 0,
    "sectionheaderskin": "sdc4ff4ed1584272be2ae69045dfb29d",
    "sectionheadertemplate": "flxSegTransactionHeader",
    "selectedRows": null,
    "selectedState": false,
    "selectedindex": null,
    "selectedindices": null,
    "selecteditems": null,
    "selectedsectionindex": null,
    "selectionbehavior": "default",
    "separatorrequired": false,
    "showscrollbars": false,
    "swipeContext": {
        "currentPage": 0,
        "imageWidth": 1400,
        "widthRatio": 0
    },
    "viewtype": "tableview",
    "vizProps": {},
    "wType": "Segment",
    "widgetalignment": 5,
    "widgetdatamap": {
        "flxNUORule": "flxNUORule",
        "flxRule1": "flxRule1",
        "imgRule1": "imgRule1",
        "lblRule1": "lblRule1"
    },
    "zindex": 1
}