{
    "@class": "com.kony.gen.viz.model.component.KVizListBox",
    "DNDConfig": null,
    "_bottom_": {
        "type": "string",
        "value": "10dp"
    },
    "_height_": {
        "type": "string",
        "value": "40dp"
    },
    "_left_": {
        "type": "string",
        "value": "30dp"
    },
    "_margin_": [
        0,
        0,
        0,
        0
    ],
    "_padding_": [
        3,
        0,
        0,
        0
    ],
    "_placeholder_": "Please Select",
    "_skin_": "s1c521c929354eb7b852061c949fb57a",
    "_top_": {
        "type": "string",
        "value": "12dp"
    },
    "_width_": {
        "type": "string",
        "value": "88.70%"
    },
    "canUpdateUI": true,
    "containerweight": 100,
    "contentalignment": 4,
    "dropdownimage": "listboxarw.png",
    "focusskin": "s347ac8f0c3549608f5d05527258678f",
    "groupcells": false,
    "id": "lstCancellationReason",
    "info": null,
    "iscustomlayout": false,
    "isvisible": true,
    "kuid": "f3d5e88a72cf46cea4719cdd39079f39",
    "masterdata": [
        [
            "key1",
            "Other"
        ],
        [
            "key2",
            "reason"
        ]
    ],
    "name": "kony.ui.ListBox",
    "parent": "flxDropdown",
    "pf": "userwidgetmodel",
    "retaincontentalignment": false,
    "retainflexpositionproperties": false,
    "selectedkey": "key1",
    "selectedkeys": null,
    "selectedkeyvalue": null,
    "selectedkeyvalues": null,
    "size": 18,
    "viewconfig": {
        "toggleViewConfig": {
            "viewStyle": 0
        }
    },
    "viewtype": 0,
    "wType": "ListBox"
}