{
    "BusinessControllerConfig": {
        "CommandHandler": [],
        "BusinessControllerClass": "TransferEurModule/BusinessControllers/BusinessController"
    },
    "PresentationControllerConfig": {
        "Default": {
            "PresentationExtensions": [],
            "PresentationControllerClass": "TransferEurModule/PresentationControllers/PresentationController"
        }
    },
    "Forms": {
        "desktop": {
            "frmAcknowledgementEuro": {
                "ControllerExtensions": [],
                "FormController": "kony.mvc.MDAFormController",
                "Controller": "TransferEurModule/frmAcknowledgementEuroController",
                "FormName": "TransferEurModule/frmAcknowledgementEuro",
                "friendlyName": "frmAcknowledgementEuro"
            },
            "frmAddBeneficiaryAcknowledgementEuro": {
                "ControllerExtensions": [],
                "FormController": "kony.mvc.MDAFormController",
                "Controller": "TransferEurModule/frmAddBeneficiaryAcknowledgementEuroController",
                "FormName": "TransferEurModule/frmAddBeneficiaryAcknowledgementEuro",
                "friendlyName": "frmAddBeneficiaryAcknowledgementEuro"
            },
            "frmAddBeneficiaryConfirmEuro": {
                "ControllerExtensions": [],
                "FormController": "kony.mvc.MDAFormController",
                "Controller": "TransferEurModule/frmAddBeneficiaryConfirmEuroController",
                "FormName": "TransferEurModule/frmAddBeneficiaryConfirmEuro",
                "friendlyName": "frmAddBeneficiaryConfirmEuro"
            },
            "frmAddBeneficiaryEuro": {
                "ControllerExtensions": [],
                "FormController": "kony.mvc.MDAFormController",
                "Controller": "TransferEurModule/frmAddBeneficiaryEuroController",
                "FormName": "TransferEurModule/frmAddBeneficiaryEuro",
                "friendlyName": "frmAddBeneficiaryEuro"
            },
            "frmConfirmEuro": {
                "ControllerExtensions": [],
                "FormController": "kony.mvc.MDAFormController",
                "Controller": "TransferEurModule/frmConfirmEuroController",
                "FormName": "TransferEurModule/frmConfirmEuro",
                "friendlyName": "frmConfirmEuro"
            },
            "frmDirectDebitsEur": {
                "ControllerExtensions": [],
                "FormController": "kony.mvc.MDAFormController",
                "Controller": "TransferEurModule/frmDirectDebitsEurController",
                "FormName": "TransferEurModule/frmDirectDebitsEur",
                "friendlyName": "frmDirectDebitsEur"
            },
            "frmMakePayment": {
                "ControllerExtensions": [],
                "FormController": "kony.mvc.MDAFormController",
                "Controller": "TransferEurModule/frmMakePaymentController",
                "FormName": "TransferEurModule/frmMakePayment",
                "friendlyName": "frmMakePayment"
            },
            "frmManageBeneficiaries": {
                "ControllerExtensions": [],
                "FormController": "kony.mvc.MDAFormController",
                "Controller": "TransferEurModule/frmManageBeneficiariesController",
                "FormName": "TransferEurModule/frmManageBeneficiaries",
                "friendlyName": "frmManageBeneficiaries"
            },
            "frmPastPaymentsEurNew": {
                "ControllerExtensions": [],
                "FormController": "kony.mvc.MDAFormController",
                "Controller": "TransferEurModule/frmPastPaymentsEurNewController",
                "FormName": "TransferEurModule/frmPastPaymentsEurNew",
                "friendlyName": "frmPastPaymentsEurNew"
            },
            "frmScheduledPaymentsEurNew": {
                "ControllerExtensions": [],
                "FormController": "kony.mvc.MDAFormController",
                "Controller": "TransferEurModule/frmScheduledPaymentsEurNewController",
                "FormName": "TransferEurModule/frmScheduledPaymentsEurNew",
                "friendlyName": "frmScheduledPaymentsEurNew"
            }
        }
    },
    "ModuleName": "TransferEurModule"
}