{
    "@class": "com.kony.gen.viz.model.component.KVizButton",
    "DNDConfig": null,
    "_height_": {
        "type": "string",
        "value": "100%"
    },
    "_left_": {
        "type": "string",
        "value": "20dp"
    },
    "_margin_": [
        6,
        6,
        6,
        6
    ],
    "_padding_": [
        0,
        0,
        0,
        0
    ],
    "_skin_": "s6cc32f783a048e98fcfb83f1b046c84",
    "_text_": "ALERTS ()",
    "_width_": {
        "type": "ref",
        "value": "preferred"
    },
    "accessibilityconfig": {
        "a11yLabel": "ALERTS ()"
    },
    "canUpdateUI": true,
    "containerweight": 100,
    "contentalignment": 4,
    "disabledSkins": {},
    "displaytext": true,
    "focusskin": "s6cc32f783a048e98fcfb83f1b046c84",
    "id": "btnAlerts",
    "ide_onClick": "AS_Button_f7e70d19b178440d96c5c67f449cfb5a",
    "info": null,
    "isvisible": true,
    "kuid": "dc50918d0dff49d9a7881dc70fcbdd89",
    "name": "kony.ui.Button",
    "paddinginpixel": false,
    "parent": "flxTabs",
    "pf": "frmDeletedMessage",
    "tooltip": "Alerts",
    "wType": "Button",
    "zindex": 1
}