{
    "@class": "com.kony.gen.viz.model.component.KVizButton",
    "DNDConfig": null,
    "_height_": {
        "type": "string",
        "value": "100%"
    },
    "_left_": {
        "type": "string",
        "value": "20dp"
    },
    "_margin_": [
        6,
        6,
        6,
        6
    ],
    "_padding_": [
        0,
        0,
        0,
        0
    ],
    "_skin_": "s6cc32f783a048e98fcfb83f1b046c84",
    "_text_": "MY MESSAGES ()",
    "_width_": {
        "type": "ref",
        "value": "preferred"
    },
    "accessibilityconfig": {
        "a11yLabel": "MY MESSAGES ()"
    },
    "canUpdateUI": true,
    "containerweight": 100,
    "contentalignment": 5,
    "disabledSkins": {},
    "displaytext": true,
    "focusskin": "s6cc32f783a048e98fcfb83f1b046c84",
    "id": "btnMyMessages",
    "ide_onClick": "AS_Button_d4f4d3819d5f484f957a21ee9ee8af5a",
    "info": null,
    "isvisible": true,
    "kuid": "gaa8f27920b14b76bda102ac25f92e6e",
    "name": "kony.ui.Button",
    "paddinginpixel": false,
    "parent": "flxTabs",
    "pf": "frmDeletedMessage",
    "responsiveData": {
        "b3": {}
    },
    "tooltip": "My Messages",
    "wType": "Button",
    "zindex": 1
}