{
    "DNDConfig": null,
    "_height_": {
        "type": "string",
        "value": "80dp"
    },
    "_left_": {
        "type": "string",
        "value": "0dp"
    },
    "_margin_": [
        0,
        0,
        0,
        0
    ],
    "_orientation_": 6,
    "_padding_": [
        0,
        0,
        0,
        0
    ],
    "_percent_": true,
    "_skin_": "s24c92fc23b14f5484b693ee9b8a9b35",
    "_top_": {
        "type": "string",
        "value": "0dp"
    },
    "_width_": {
        "type": "string",
        "value": "100%"
    },
    "allboxes": [],
    "canUpdateUI": true,
    "children": [
        "flxSeach"
    ],
    "clipbounds": true,
    "containerweight": 100,
    "enablescrolling": true,
    "id": "flxSearchMain",
    "info": null,
    "iscustomlayout": false,
    "isvisible": true,
    "kuid": "b0011224b2984b759205a9ba28d4d641",
    "layouttype": 2,
    "name": "kony.ui.FlexContainer",
    "parent": "flxSegMessagesContainer",
    "pf": "frmDeletedMessage",
    "responsiveData": {
        "b3": {
            "height": {
                "type": "string",
                "value": "90dp"
            },
            "skin": "s330a36b89a94f72aa4ac72c87271388"
        }
    },
    "retaincontentalignment": false,
    "retainflexpositionproperties": false,
    "retainflowhorizontalalignment": false,
    "snapgridsize": 10,
    "snaptogrid": true,
    "wType": "FlexContainer",
    "widgetalignment": 1,
    "zindex": 1
}