{
    "@class": "com.kony.gen.viz.model.component.KVizTextBox2",
    "DNDConfig": null,
    "_height_": {
        "type": "string",
        "value": "50dp"
    },
    "_left_": {
        "type": "string",
        "value": "40px"
    },
    "_margin_": [
        0,
        0,
        0,
        0
    ],
    "_padding_": [
        0,
        0,
        0,
        0
    ],
    "_placeholder_": "",
    "_right_": {
        "type": "string",
        "value": "30px"
    },
    "_skin_": "s3d013339e7149dfa978ed96e58f1154",
    "_text_": "",
    "accessibilityconfig": {
        "a11yLabel": "Search Subject"
    },
    "autocapitalize": "none",
    "autocomplete": false,
    "autocorrect": false,
    "autofilter": false,
    "canUpdateUI": true,
    "centery": {
        "type": "string",
        "value": "50%"
    },
    "containerheight": "",
    "containerheightmode": 1,
    "containerweight": 100,
    "contentalignment": 4,
    "id": "txtSearch",
    "info": null,
    "isvisible": true,
    "keyboardtype": "A",
    "kiosk": {
        "psp": {
            "toolTip": "Search Keywords such as Name, Bank, Account Type etc..."
        }
    },
    "kuid": "ba39d770127346f09db52f51fddd6c3f",
    "mode": "A",
    "name": "kony.ui.TextBox2",
    "parent": "flxSeach",
    "pf": "frmDeletedMessage",
    "placeholderi18n": "i18n.NotificationsAndMessages.TexboxPlaceHOlder",
    "responsiveData": {
        "b3": {
            "height": {
                "type": "string",
                "value": "40dp"
            }
        }
    },
    "securetextentry": false,
    "textinputmode": "A",
    "viewtype": "default",
    "wType": "TextField",
    "zindex": 1
}