{
    "@class": "com.kony.gen.viz.model.component.KVizButton",
    "DNDConfig": null,
    "_height_": {
        "type": "string",
        "value": "25dp"
    },
    "_left_": {
        "type": "string",
        "value": "20dp"
    },
    "_margin_": [
        6,
        6,
        6,
        6
    ],
    "_padding_": [
        0,
        0,
        0,
        0
    ],
    "_skin_": "sc6cdb14f47c4fa3f50823717cf0f0a1",
    "_text_": "Button",
    "_width_": {
        "type": "string",
        "value": "36dp"
    },
    "accessibilityconfig": {
        "a11yLabel": "E-Bill"
    },
    "canUpdateUI": true,
    "centery": {
        "type": "string",
        "value": "50%"
    },
    "containerId": true,
    "containerweight": 100,
    "contentalignment": 5,
    "disabledSkins": {
        "focusSkin": "sf44d06ca8224832827ea7fdff757013"
    },
    "displaytext": true,
    "id": "btnEbill",
    "info": null,
    "isvisible": true,
    "kuid": "fb3eff54acc247e3b3f5c1a51bba85bc",
    "name": "kony.ui.Button",
    "parent": "flxColumn1",
    "pf": "segBillPayManagePayeesSelectedIC",
    "texti18n": "i18n.billPay.EBill",
    "tooltip": "eBill",
    "wType": "Button",
    "zindex": 5
}