{
    "@class": "com.kony.gen.viz.model.component.KVizUserWidget",
    "DNDConfig": null,
    "_children_": [],
    "_height_": {
        "type": "string",
        "value": "500dp"
    },
    "_left_": {
        "type": "string",
        "value": "50.58%"
    },
    "_margin_": [
        0,
        0,
        0,
        0
    ],
    "_orientation_": 1,
    "_padding_": [
        0,
        0,
        0,
        0
    ],
    "_percent_": true,
    "_render_": true,
    "_skin_": "sdc143f0e5b64ae3a3f155f691c73fa7",
    "_top_": {
        "type": "string",
        "value": "0dp"
    },
    "_width_": {
        "type": "string",
        "value": "43.26%"
    },
    "areflexpropsreferenced": false,
    "canUpdateUI": true,
    "clipbounds": false,
    "containerweight": 0,
    "dataDiffs": {
        "confirmDialog": {
            "__events__": {},
            "__info__": {
                "isRoot": true,
                "kuid": "feaa714350e74690b08f6efa8af54ea8",
                "srcKUID": "edce71f20d034d28a747a4ba28c40f24",
                "wType": "FlexContainer"
            },
            "autogrowMode": {
                "Default": 0
            },
            "height": {},
            "left": {
                "Default": {
                    "type": "string",
                    "value": "50.58%"
                }
            },
            "minHeight": {},
            "responsiveData": {
                "b1": {
                    "height": {
                        "type": "string",
                        "value": "500dp"
                    },
                    "left": null,
                    "minHeight": {
                        "type": "string",
                        "value": "300dp"
                    },
                    "top": null,
                    "width": null
                },
                "b2": {
                    "height": {
                        "type": "string",
                        "value": "500dp"
                    },
                    "left": null,
                    "top": null,
                    "width": null
                },
                "b3": {
                    "height": {
                        "type": "string",
                        "value": "500dp"
                    },
                    "left": {
                        "type": "string",
                        "value": "6%"
                    },
                    "top": null,
                    "width": {
                        "type": "string",
                        "value": "88%"
                    }
                },
                "b5": {
                    "left": {
                        "type": "string",
                        "value": "3%"
                    },
                    "width": {
                        "type": "string",
                        "value": "94%"
                    }
                }
            },
            "top": {
                "Default": {
                    "type": "string",
                    "value": "0dp"
                }
            },
            "width": {
                "Default": {
                    "type": "string",
                    "value": "43.26%"
                }
            }
        },
        "confirmHeaders": {
            "__events__": {},
            "__info__": {
                "kuid": "e91f5ec0a6de4434a785bbe8642a6565",
                "srcKUID": "e13566314fb14995a7259d7915b20842",
                "wType": "UserWidgetInstance"
            }
        },
        "confirmHeaders.flxHeader": {
            "__events__": {},
            "__info__": {
                "kuid": "cd6df877c3624379ae4cbe7a7c6f2453",
                "srcKUID": "bbfdaa62cc6b4311b56d9c893f3b7798",
                "wType": "FlexContainer"
            }
        },
        "confirmHeaders.lblHeading": {
            "__events__": {},
            "__info__": {
                "kuid": "a809dd8f3e4d4ea48bea8c93d0a25002",
                "srcKUID": "cb2cf97fc294432fb48cd874691ca15e",
                "wType": "Label"
            },
            "left": {},
            "responsiveData": {
                "b2": {
                    "left": {
                        "type": "string",
                        "value": "2.20%"
                    }
                }
            }
        },
        "flxContainerAmount": {
            "__events__": {},
            "__info__": {
                "kuid": "c630403e5fbb42f5be36262865a9576b",
                "srcKUID": "a4fd58795a9340a394aa39569a45cbc4",
                "wType": "FlexContainer"
            }
        },
        "flxContainerBalanceAmount": {
            "__events__": {},
            "__info__": {
                "kuid": "jf352ff4f21743a98d858e6f3f754143",
                "srcKUID": "d3187d0e4f084ba68f5959dac5c60c7a",
                "wType": "FlexContainer"
            },
            "responsiveData": {
                "b1": {
                    "top": {
                        "type": "string",
                        "value": "20dp"
                    }
                }
            },
            "top": {}
        },
        "flxContainerBillAmount": {
            "__events__": {},
            "__info__": {
                "kuid": "ed2f18db028a4baba12b45eb614768ba",
                "srcKUID": "fbb57d6607d142be8b0229e7664c3f43",
                "wType": "FlexContainer"
            }
        },
        "flxContainerDate": {
            "__events__": {},
            "__info__": {
                "kuid": "h415aabb29c24058a41bcefa252c61f4",
                "srcKUID": "i7b642e79b794d58b5cb7b1fa91a57c7",
                "wType": "FlexContainer"
            }
        },
        "flxContainerDescription": {
            "__events__": {},
            "__info__": {
                "kuid": "b43afbdebb1d41a3a73c52f83e04512c",
                "srcKUID": "be940e036bdf4e4c8bc7d6ff447a945e",
                "wType": "FlexContainer"
            }
        },
        "flxContainerFrom": {
            "__events__": {},
            "__info__": {
                "kuid": "ia76c556f4aa4118acf14e8bc0e8665d",
                "srcKUID": "e37a45a838e44380a4ccc0bdeb2adcc1",
                "wType": "FlexContainer"
            }
        },
        "flxContainerLateDue": {
            "__events__": {},
            "__info__": {
                "kuid": "d9921105dff64032b378f1092383d9e0",
                "srcKUID": "ca2c44675a8544d390d1d4162d92dc82",
                "wType": "FlexContainer"
            }
        },
        "flxContainerLoanEndDate": {
            "__events__": {},
            "__info__": {
                "kuid": "c67a0e28e3d640c0882a0d1bb5ef5924",
                "srcKUID": "e0c442861cc94c478aefeece2d953c97",
                "wType": "FlexContainer"
            }
        },
        "flxContainerPartial": {
            "__events__": {},
            "__info__": {
                "kuid": "aaa50bcc8b504f5fa52557470e5f486d",
                "srcKUID": "f0bb36f14157489781e3007c8db42ddb",
                "wType": "FlexContainer"
            }
        },
        "flxContainerPayDate": {
            "__events__": {},
            "__info__": {
                "kuid": "d62234f714ed4c4f8c0da2bcafc5ee81",
                "srcKUID": "dd9292a81be14e9d9849e72d20484dba",
                "wType": "FlexContainer"
            },
            "responsiveData": {
                "b1": {
                    "top": {
                        "type": "string",
                        "value": "20dp"
                    }
                }
            },
            "top": {}
        },
        "flxContainerPayOffdate": {
            "__events__": {},
            "__info__": {
                "kuid": "d9d6f6ae0e9f4dc1a0bec2ade7ebc353",
                "srcKUID": "h8aa6a2e1ecd412b8936e0b6cd22b437",
                "wType": "FlexContainer"
            }
        },
        "flxContainerPaying": {
            "__events__": {},
            "__info__": {
                "kuid": "ge180445b9384255aca969585320aed7",
                "srcKUID": "c75d3a10e55f4926b156a3aa2063f266",
                "wType": "FlexContainer"
            },
            "responsiveData": {
                "b1": {
                    "top": {
                        "type": "string",
                        "value": "20dp"
                    }
                }
            },
            "top": {}
        },
        "flxContainerPayoffAmount": {
            "__events__": {},
            "__info__": {
                "kuid": "ac5860bb7d6d4255a262033f935e20d0",
                "srcKUID": "ccd9af8818fb4d8b9f0d7ebf72a66a85",
                "wType": "FlexContainer"
            }
        },
        "flxContainerPayoffCharges": {
            "__events__": {},
            "__info__": {
                "kuid": "ida190973edf4a8d8ce7c8b7325dff84",
                "srcKUID": "j1e8363746034bd09af64be426e79261",
                "wType": "FlexContainer"
            }
        },
        "flxContainerPenaltyAmount": {
            "__events__": {},
            "__info__": {
                "kuid": "dc0f26c307cc4f5cb81c6d0e89c7be40",
                "srcKUID": "d9f0410e88c948e0922f58478c64cba0",
                "wType": "FlexContainer"
            }
        },
        "flxContainerTo": {
            "__events__": {},
            "__info__": {
                "kuid": "b9584e0ede3d4a49a0371e216a86ca8c",
                "srcKUID": "ebcb91c92a4b4172aefb7f6af6111600",
                "wType": "FlexContainer"
            }
        },
        "flxHorizontalLine": {
            "__events__": {},
            "__info__": {
                "kuid": "bbfcecd8fd29413e9e097869ab1d2d30",
                "srcKUID": "h79ba10ba9da426992eef27942c0c4d1",
                "wType": "FlexContainer"
            },
            "centerX": {},
            "responsiveData": {
                "b2": {
                    "centerX": {
                        "type": "string",
                        "value": "50%"
                    },
                    "width": {
                        "type": "string",
                        "value": "95.60%"
                    }
                }
            },
            "width": {}
        },
        "flxKey": {
            "__events__": {},
            "__info__": {
                "kuid": "cfdecd6e3d2b4f8abf0050d9dcbdbba9",
                "srcKUID": "df79ddec9092433fbb564e669b8f2a34",
                "wType": "FlexContainer"
            },
            "responsiveData": {
                "b1": {
                    "width": {
                        "type": "string",
                        "value": "25%"
                    }
                }
            },
            "width": {}
        },
        "flxKeyAmount": {
            "__events__": {},
            "__info__": {
                "kuid": "ib6bd0a9c9974bd9acac7727747be4a5",
                "srcKUID": "d86eae811cc440da82596be1e7f67a74",
                "wType": "FlexContainer"
            },
            "responsiveData": {
                "b1": {
                    "width": {
                        "type": "string",
                        "value": "25%"
                    }
                }
            },
            "width": {}
        },
        "flxKeyBalanceAmount": {
            "__events__": {},
            "__info__": {
                "kuid": "b923d95cf94143a58e0edb221afdce62",
                "srcKUID": "gf2a16fa2a7549d4a75d6e96992ebd31",
                "wType": "FlexContainer"
            },
            "responsiveData": {
                "b1": {
                    "width": {
                        "type": "string",
                        "value": "27%"
                    }
                }
            },
            "width": {
                "Default": {
                    "type": "string",
                    "value": "27%"
                }
            }
        },
        "flxKeyBillAmount": {
            "__events__": {},
            "__info__": {
                "kuid": "ab3d78e4abd14d04be484d1c0375a447",
                "srcKUID": "f8f511da20a747489b21096d93e1003d",
                "wType": "FlexContainer"
            },
            "responsiveData": {
                "b1": {
                    "width": {
                        "type": "string",
                        "value": "25%"
                    }
                }
            },
            "width": {}
        },
        "flxKeyDate": {
            "__events__": {},
            "__info__": {
                "kuid": "afd59ce6daf44d3bb7a0299b743617f9",
                "srcKUID": "ia70c674d5a849d98da4396473a4725c",
                "wType": "FlexContainer"
            }
        },
        "flxKeyDescription": {
            "__events__": {},
            "__info__": {
                "kuid": "ebeb03e8a95d4cb3bff5097a36e28f13",
                "srcKUID": "cc4711a0c01d4867ac1b853e8a835387",
                "wType": "FlexContainer"
            },
            "responsiveData": {
                "b1": {
                    "width": {
                        "type": "string",
                        "value": "25%"
                    }
                }
            },
            "width": {}
        },
        "flxKeyLateCharges": {
            "__events__": {},
            "__info__": {
                "kuid": "ec2b3b84f3aa43c396ff2ac8d0d05802",
                "srcKUID": "fcdc68b2bfc24c11b488023ddca5ea23",
                "wType": "FlexContainer"
            }
        },
        "flxKeyLoanEndDate": {
            "__events__": {},
            "__info__": {
                "kuid": "d26678cb207440978459523a71647f9c",
                "srcKUID": "f9eae3afe5284bf2ba550b8a9f0ecb6a",
                "wType": "FlexContainer"
            },
            "responsiveData": {
                "b1": {
                    "width": {
                        "type": "string",
                        "value": "25%"
                    }
                }
            },
            "width": {}
        },
        "flxKeyPartial": {
            "__events__": {},
            "__info__": {
                "kuid": "e654638edc014a038838d79c3fa64b5f",
                "srcKUID": "bfe5ec1140914b3b865becae71a2320d",
                "wType": "FlexContainer"
            },
            "responsiveData": {
                "b1": {
                    "width": {
                        "type": "string",
                        "value": "25%"
                    }
                }
            },
            "width": {}
        },
        "flxKeyPayDate": {
            "__events__": {},
            "__info__": {
                "kuid": "bf86531ad661454884c52b95634f8218",
                "srcKUID": "a72371e666fc4cce90650fc14dd21e48",
                "wType": "FlexContainer"
            },
            "responsiveData": {
                "b1": {
                    "width": {
                        "type": "string",
                        "value": "25%"
                    }
                }
            },
            "width": {
                "Default": {
                    "type": "string",
                    "value": "20%"
                }
            }
        },
        "flxKeyPayOffDate": {
            "__events__": {},
            "__info__": {
                "kuid": "c3d50191edb3438992d4b737eedebaef",
                "srcKUID": "c9bcf8ec6ca047bb9cc645fb88d3929b",
                "wType": "FlexContainer"
            }
        },
        "flxKeyPaying": {
            "__events__": {},
            "__info__": {
                "kuid": "f6a462b5a7804fe08d32a8f22d95e11c",
                "srcKUID": "eb1f705c62aa4c7a9cd328d78b5c606f",
                "wType": "FlexContainer"
            },
            "responsiveData": {
                "b1": {
                    "width": {
                        "type": "string",
                        "value": "25%"
                    }
                }
            },
            "width": {}
        },
        "flxKeyPayoffCharges": {
            "__events__": {},
            "__info__": {
                "kuid": "ac463c49404d4586a10f0762adc6bd0e",
                "srcKUID": "ba7f651237b740b7a42ca96b73295b47",
                "wType": "FlexContainer"
            }
        },
        "flxKeyPayoffamount": {
            "__events__": {},
            "__info__": {
                "kuid": "ca102501d0b0455eb4361df37485d792",
                "srcKUID": "jd150d906cda4a358b32cc66d77e02d6",
                "wType": "FlexContainer"
            }
        },
        "flxKeyPenalityAmount": {
            "__events__": {},
            "__info__": {
                "kuid": "fc7553d6ed624f8eab71c84c5c21e04c",
                "srcKUID": "g953ab26971249b6b20c826dc8fc5328",
                "wType": "FlexContainer"
            },
            "responsiveData": {
                "b1": {
                    "width": {
                        "type": "string",
                        "value": "25%"
                    }
                }
            },
            "width": {}
        },
        "flxKeyTo": {
            "__events__": {},
            "__info__": {
                "kuid": "a5a4417593624fc8b09fbc39725d0cff",
                "srcKUID": "fa377cd2e0c944fa9f8cda11a1e6dc5e",
                "wType": "FlexContainer"
            },
            "responsiveData": {
                "b1": {
                    "width": {
                        "type": "string",
                        "value": "25%"
                    }
                }
            },
            "width": {}
        },
        "flxMain": {
            "__events__": {},
            "__info__": {
                "kuid": "d2d4db8fbf23429da072395e6a1ac2ed",
                "srcKUID": "bccdf5998bef414b9588207b188b5b22",
                "wType": "FlexContainer"
            },
            "autogrowMode": {
                "Default": 1
            },
            "clipBounds": false,
            "height": {},
            "responsiveData": {
                "b1": {
                    "height": {
                        "type": "ref",
                        "value": "preferred"
                    }
                },
                "b2": {
                    "height": {
                        "type": "ref",
                        "value": "preferred"
                    }
                }
            }
        },
        "flxPartial": {
            "__events__": {},
            "__info__": {
                "kuid": "d3cfd78f93bc424a9a75943914efb798",
                "srcKUID": "a4b01cac30954aad9b0225fffaf03347",
                "wType": "FlexContainer"
            },
            "autogrowMode": {
                "Default": 0
            },
            "bottom": {},
            "height": {
                "Default": {
                    "type": "string",
                    "value": "215dp"
                }
            },
            "isVisible": false,
            "responsiveData": {
                "b1": {
                    "bottom": {
                        "type": "string",
                        "value": "10dp"
                    },
                    "height": {
                        "type": "string",
                        "value": "260dp"
                    },
                    "layoutType": 4
                },
                "b2": {
                    "height": {
                        "type": "string",
                        "value": "170dp"
                    }
                },
                "b3": {
                    "isVisible": true
                }
            }
        },
        "flxSeparator": {
            "__events__": {},
            "__info__": {
                "kuid": "afe6e2695a454054a82def979858d993",
                "srcKUID": "ede30dc6f4954c2095f83a462f594bac",
                "wType": "FlexContainer"
            },
            "centerX": {},
            "responsiveData": {
                "b2": {
                    "centerX": {
                        "type": "string",
                        "value": "50%"
                    },
                    "width": {
                        "type": "string",
                        "value": "95.60%"
                    }
                }
            },
            "width": {}
        },
        "flxValue": {
            "__events__": {},
            "__info__": {
                "kuid": "a37899126b494b2faf88ce603bfc3abe",
                "srcKUID": "ie537dabb5304f50bd7ffb17942a033a",
                "wType": "FlexContainer"
            },
            "width": {
                "Default": {
                    "type": "string",
                    "value": "62%"
                }
            }
        },
        "flxValueAmount": {
            "__events__": {},
            "__info__": {
                "kuid": "i7189bb41f96412689ad132c0d04037c",
                "srcKUID": "c6bd4d258ebb45cea3e903c6bffaba3e",
                "wType": "FlexContainer"
            },
            "width": {
                "Default": {
                    "type": "string",
                    "value": "62%"
                }
            }
        },
        "flxValueBalanceAmount": {
            "__events__": {},
            "__info__": {
                "kuid": "gf606c0e686845d0ba5e1bbb5ddb23dd",
                "srcKUID": "f912757763614056869be54f98ea8faf",
                "wType": "FlexContainer"
            }
        },
        "flxValueBillAmount": {
            "__events__": {},
            "__info__": {
                "kuid": "g6a32203596e4d6ba0f873a958ca54f5",
                "srcKUID": "f0b82e31569640f5b132e84131574550",
                "wType": "FlexContainer"
            }
        },
        "flxValueDate": {
            "__events__": {},
            "__info__": {
                "kuid": "iadbf944a5964fde9aba469acaa7958b",
                "srcKUID": "hb1b209c9f644460a454922703f6bb98",
                "wType": "FlexContainer"
            }
        },
        "flxValueDescription": {
            "__events__": {},
            "__info__": {
                "kuid": "abd67a407ad748ccaf9c4af5a1b4dea8",
                "srcKUID": "ad4a644079c64efbbb5bea3b767b8455",
                "wType": "FlexContainer"
            },
            "width": {
                "Default": {
                    "type": "string",
                    "value": "62%"
                }
            }
        },
        "flxValueLateCharges": {
            "__events__": {},
            "__info__": {
                "kuid": "e7ddbd6ea4604b6c879f6a27c12b5141",
                "srcKUID": "d6a3b172d21646dbb0d2ca1f7bf0faae",
                "wType": "FlexContainer"
            }
        },
        "flxValueLoanEndDate": {
            "__events__": {},
            "__info__": {
                "kuid": "fd3323d75fc04ab4b38a98c2d3c90bfa",
                "srcKUID": "c7f98406adc04940a5b977741b035886",
                "wType": "FlexContainer"
            },
            "width": {
                "Default": {
                    "type": "string",
                    "value": "62%"
                }
            }
        },
        "flxValuePartial": {
            "__events__": {},
            "__info__": {
                "kuid": "c8ea7c2ca0944907bfd3bb34fe68dcd1",
                "srcKUID": "i2644c2d58804bb1a8b5822261b3757a",
                "wType": "FlexContainer"
            }
        },
        "flxValuePayDate": {
            "__events__": {},
            "__info__": {
                "kuid": "c1a57e675b3147dd9f8c01111a26fd75",
                "srcKUID": "cab2e09db88d499d8831f3512f38da61",
                "wType": "FlexContainer"
            }
        },
        "flxValuePayOffDate": {
            "__events__": {},
            "__info__": {
                "kuid": "bac98e4087344885bae5b5f970c6a154",
                "srcKUID": "cfc02120d0ba4b7c9769f16b2920335e",
                "wType": "FlexContainer"
            }
        },
        "flxValuePaying": {
            "__events__": {},
            "__info__": {
                "kuid": "abb5d0cd8dd045fe88eb9e7baa0a6825",
                "srcKUID": "jf46913977b745eebc1a740cd377affe",
                "wType": "FlexContainer"
            }
        },
        "flxValuePayoffCharges": {
            "__events__": {},
            "__info__": {
                "kuid": "ef36f1f2cbd14633a5e3cff7fd75a9f9",
                "srcKUID": "ec77d9e5ed3c4052a3d3736065326f3a",
                "wType": "FlexContainer"
            }
        },
        "flxValuePayoffamount": {
            "__events__": {},
            "__info__": {
                "kuid": "c973136e1d61468b93cebfdc728c8620",
                "srcKUID": "j72725adc09c48a4a5927ad5e3f0b17b",
                "wType": "FlexContainer"
            }
        },
        "flxValuePenalityAmount": {
            "__events__": {},
            "__info__": {
                "kuid": "da1b4d19ab614f05ad596bd8af9878f3",
                "srcKUID": "c87ac49f67e943cfbd92f0936d0c219c",
                "wType": "FlexContainer"
            }
        },
        "flxValueTo": {
            "__events__": {},
            "__info__": {
                "kuid": "c80e7f63023e48d8b4d4f70a81d86501",
                "srcKUID": "e621326855044f0fbba2c3cc3ac85979",
                "wType": "FlexContainer"
            },
            "width": {
                "Default": {
                    "type": "string",
                    "value": "62%"
                }
            }
        },
        "lblKey": {
            "__events__": {},
            "__info__": {
                "kuid": "bd0fb7559ca34acaa59e4fbf80b17408",
                "srcKUID": "g6d6aa152d3c4503902d6c377be12a2c",
                "wType": "Label"
            },
            "responsiveData": {
                "b1": {
                    "width": {
                        "type": "string",
                        "value": "100%"
                    }
                },
                "b3": {}
            },
            "text": "From: ",
            "width": {
                "Default": {
                    "type": "ref",
                    "value": "preferred"
                }
            }
        },
        "lblKeyAmount": {
            "__events__": {},
            "__info__": {
                "kuid": "d9710efd6b1f45ed8190ddaeb43a0abf",
                "srcKUID": "e331e620c115402cbf4f78d024deb8e3",
                "wType": "Label"
            },
            "responsiveData": {
                "b1": {
                    "width": {
                        "type": "string",
                        "value": "100%"
                    }
                },
                "b3": {
                    "width": {
                        "type": "string",
                        "value": "95%"
                    }
                }
            },
            "width": {}
        },
        "lblKeyBalanceAmount": {
            "__events__": {},
            "__info__": {
                "kuid": "edc1169116e740688425479a52b02674",
                "srcKUID": "d2491d373e204204b17b643b85b726f4",
                "wType": "Label"
            },
            "i18n_text": "i18n.PayDueAmount.BalanceAmount",
            "responsiveData": {
                "b3": {
                    "width": {
                        "type": "string",
                        "value": "95%"
                    }
                }
            },
            "width": {
                "Default": {
                    "type": "string",
                    "value": "100%"
                }
            }
        },
        "lblKeyBillAmount": {
            "__events__": {},
            "__info__": {
                "kuid": "e38f0a79b8914ad3a51b456720901bc6",
                "srcKUID": "j197ac5ca60a4e9e933ed824043558b1",
                "wType": "Label"
            },
            "i18n_text": "i18n.PayDueAmount.YourBillAmount",
            "responsiveData": {
                "b1": {
                    "width": {
                        "type": "string",
                        "value": "100%"
                    }
                },
                "b3": {
                    "width": {
                        "type": "string",
                        "value": "95%"
                    }
                }
            },
            "width": {}
        },
        "lblKeyDate": {
            "__events__": {},
            "__info__": {
                "kuid": "i2f8eb06d85d4901b5460ece166fd09d",
                "srcKUID": "f12ec741dbe04c8dabebb6aac42606ac",
                "wType": "Label"
            },
            "responsiveData": {
                "b3": {
                    "width": {
                        "type": "string",
                        "value": "95%"
                    }
                }
            },
            "width": {
                "Default": {
                    "type": "ref",
                    "value": "preferred"
                }
            }
        },
        "lblKeyDescription": {
            "__events__": {},
            "__info__": {
                "kuid": "h567d8989ba343b9874e9a9317998f87",
                "srcKUID": "bfeeebd6a627425f9ed6b3488f23bbd9",
                "wType": "Label"
            },
            "i18n_text": "i18n.StopCheckPayments.Description",
            "responsiveData": {
                "b1": {
                    "width": {
                        "type": "string",
                        "value": "100%"
                    }
                },
                "b3": {
                    "width": {
                        "type": "string",
                        "value": "95%"
                    }
                }
            },
            "width": {}
        },
        "lblKeyLateCharges": {
            "__events__": {},
            "__info__": {
                "kuid": "e137d2554d5a47398d216a9848d5e473",
                "srcKUID": "e12e49e5c3db4157abda51aa984519aa",
                "wType": "Label"
            }
        },
        "lblKeyLoanEndDate": {
            "__events__": {},
            "__info__": {
                "kuid": "fc66a04aba7546509bbb07e30755c9e6",
                "srcKUID": "c7f44a8c99e44008a17acbc9f25c389c",
                "wType": "Label"
            },
            "i18n_text": null,
            "responsiveData": {
                "b1": {
                    "width": {
                        "type": "string",
                        "value": "100%"
                    }
                }
            },
            "width": {}
        },
        "lblKeyPartial": {
            "__events__": {},
            "__info__": {
                "kuid": "d0028b79d3794cf4bab633aebd0f7cc6",
                "srcKUID": "c4ce29a62e3740f2a6ebe709cb294ca9",
                "wType": "Label"
            },
            "responsiveData": {
                "b1": {
                    "width": {
                        "type": "string",
                        "value": "100%"
                    }
                }
            },
            "width": {}
        },
        "lblKeyPayDate": {
            "__events__": {},
            "__info__": {
                "kuid": "a36659ffb81642d38c15f4404b8ee6d4",
                "srcKUID": "hc2439aa02554def8efd6f2f6b70f00a",
                "wType": "Label"
            },
            "responsiveData": {
                "b1": {
                    "width": {
                        "type": "string",
                        "value": "100%"
                    }
                },
                "b3": {
                    "width": {
                        "type": "string",
                        "value": "95%"
                    }
                }
            },
            "width": {}
        },
        "lblKeyPayOffDate": {
            "__events__": {},
            "__info__": {
                "kuid": "dc080202f641416fa21ac280911e8c1f",
                "srcKUID": "ibe99ef3de6949f2af30612f3143b46e",
                "wType": "Label"
            }
        },
        "lblKeyPaying": {
            "__events__": {},
            "__info__": {
                "kuid": "d1dca610eeac418b9f6aa6c6d8037201",
                "srcKUID": "d2413b581bd5499f99dd9914a9d356d9",
                "wType": "Label"
            },
            "i18n_text": "i18n.PayDueAmount.YouarePaying",
            "responsiveData": {
                "b1": {
                    "width": {
                        "type": "string",
                        "value": "100%"
                    }
                },
                "b3": {
                    "width": {
                        "type": "string",
                        "value": "95%"
                    }
                }
            },
            "width": {}
        },
        "lblKeyPayoffCharges": {
            "__events__": {},
            "__info__": {
                "kuid": "a1c8551e1d31461c8c9bd41d5c35a011",
                "srcKUID": "dc335a178e094671accaa3619943eec4",
                "wType": "Label"
            }
        },
        "lblKeyPenalityAmount": {
            "__events__": {},
            "__info__": {
                "kuid": "edb2f59b55e74515bfc612d7c1b05e87",
                "srcKUID": "j9ee3ea61408470483fe969d65598167",
                "wType": "Label"
            },
            "responsiveData": {
                "b1": {
                    "width": {
                        "type": "string",
                        "value": "100%"
                    }
                }
            },
            "width": {}
        },
        "lblKeyTo": {
            "__events__": {},
            "__info__": {
                "kuid": "be2d905da4d14f3f830eda54300699cc",
                "srcKUID": "e870a779379b4ed99e97d7e1d18d37a1",
                "wType": "Label"
            },
            "responsiveData": {
                "b1": {
                    "width": {
                        "type": "string",
                        "value": "100%"
                    }
                }
            },
            "text": "To: ",
            "width": {}
        },
        "lblKeypayoffamount": {
            "__events__": {},
            "__info__": {
                "kuid": "a9c03466729a40a68f276702bbc7a8e3",
                "srcKUID": "d645c25dc6284191a8958c4607ea40cd",
                "wType": "Label"
            }
        },
        "lblValue": {
            "__events__": {},
            "__info__": {
                "kuid": "e27bf32b3bc94ae2a3e0bd93feb958cc",
                "srcKUID": "fb7ae32f557743de843472604205e32f",
                "wType": "Label"
            },
            "width": {
                "Default": {
                    "type": "string",
                    "value": "100%"
                }
            }
        },
        "lblValueAmount": {
            "__events__": {},
            "__info__": {
                "kuid": "e520f5b6fbff4028bf9af0e024b4532c",
                "srcKUID": "g0c06aec9b9f4350a33ccd5a59c3ccef",
                "wType": "Label"
            }
        },
        "lblValueBalanceAmount": {
            "__events__": {},
            "__info__": {
                "kuid": "i1ae57cb7d254c77af1a91eeb98b8942",
                "srcKUID": "d6e5c2eb16fe4a6b9f5336292c9dafc7",
                "wType": "Label"
            }
        },
        "lblValueBillAmount": {
            "__events__": {},
            "__info__": {
                "kuid": "g31f519f40774c70890f76ceb40826cf",
                "srcKUID": "b9f3448c87014f41a2ba6d9ca75fb03e",
                "wType": "Label"
            }
        },
        "lblValueDate": {
            "__events__": {},
            "__info__": {
                "kuid": "h51dd2952f184a3199cdf0faace17b4d",
                "srcKUID": "f33f998cc65e421cb6c79b484b5979bd",
                "wType": "Label"
            }
        },
        "lblValueDescription": {
            "__events__": {},
            "__info__": {
                "kuid": "d72122aa0c29466babe9d9c7f4e53bea",
                "srcKUID": "g28e463cafbe4df18e60ec686e128344",
                "wType": "Label"
            },
            "text": "Car Loan EMI for July ",
            "width": {
                "Default": {
                    "type": "string",
                    "value": "100%"
                }
            }
        },
        "lblValueLateCharges": {
            "__events__": {},
            "__info__": {
                "kuid": "bec3dc20c9cb4877baa8c96367790fec",
                "srcKUID": "e012bf0047e94991925e933bac1020be",
                "wType": "Label"
            }
        },
        "lblValueLoanEndDate": {
            "__events__": {},
            "__info__": {
                "kuid": "i37d28bf567e4d54a690c5ea88d98af8",
                "srcKUID": "gdb979637b9040aa82e6db45cc6c7318",
                "wType": "Label"
            }
        },
        "lblValuePartial": {
            "__events__": {},
            "__info__": {
                "kuid": "a503e40466e04041a0e939266db46011",
                "srcKUID": "e63b1420b1904febb7c8afdfa2916ae8",
                "wType": "Label"
            }
        },
        "lblValuePayDate": {
            "__events__": {},
            "__info__": {
                "kuid": "bb4aac99c2f248a0b065f2f7576d26a1",
                "srcKUID": "e00b3f343b63439c901371b3f2c4c703",
                "wType": "Label"
            }
        },
        "lblValuePayOffDate": {
            "__events__": {},
            "__info__": {
                "kuid": "h3135a62e2a6480296307f8d941b3364",
                "srcKUID": "j3dddc56f2fe47039e31f5daa57e2e1b",
                "wType": "Label"
            }
        },
        "lblValuePaying": {
            "__events__": {},
            "__info__": {
                "kuid": "d09f4857abc14169b1b324544a169a6a",
                "srcKUID": "h200a61a655c4cde8913614b4fb27da4",
                "wType": "Label"
            }
        },
        "lblValuePayoffCharges": {
            "__events__": {},
            "__info__": {
                "kuid": "a1db977a31be4fc4961c8260d37a0772",
                "srcKUID": "c8cb62f8a6e94711b4a462037be23fa7",
                "wType": "Label"
            }
        },
        "lblValuePayoffamount": {
            "__events__": {},
            "__info__": {
                "kuid": "a6dc92b600a64919a8166dc6e1e3d10b",
                "srcKUID": "cb4a3ba9c44447fd8c4925a188cb4b88",
                "wType": "Label"
            }
        },
        "lblValuePenaltyAmount": {
            "__events__": {},
            "__info__": {
                "kuid": "caf05f7c35fa43da8a6a034557c962bd",
                "srcKUID": "g3a9d0aae04a40bc937d9acc4d56393f",
                "wType": "Label"
            }
        },
        "lblValueTo": {
            "__events__": {},
            "__info__": {
                "kuid": "f02f3cedb0844aa2a5ce03a050ee6b50",
                "srcKUID": "b25ab6d0e69d427586494f063cde4ba5",
                "wType": "Label"
            },
            "width": {
                "Default": {
                    "type": "string",
                    "value": "100%"
                }
            }
        }
    },
    "id": "confirmDialog",
    "info": null,
    "isdatareferenced": false,
    "issegmentchild": false,
    "isvisible": true,
    "kuid": "a4dc889e786241548bff695992848d2a",
    "layouttype": 2,
    "masterType": 0,
    "minheight": {
        "type": "number",
        "value": ""
    },
    "name": "kony.ui.UserWidgetInstance",
    "parent": "flxMainAcknowledgment",
    "pf": "frmPayDueAmount",
    "snaptogrid": true,
    "sourceUserWidget": "edce71f20d034d28a747a4ba28c40f24",
    "vizprops": {
        "hidewidgethierarchy": false
    },
    "wType": "UserWidgetInstance"
}