{
    "DNDConfig": null,
    "_height_": {
        "type": "ref",
        "value": "preferred"
    },
    "_left_": {
        "type": "string",
        "value": "0dp"
    },
    "_margin_": [
        0,
        0,
        0,
        0
    ],
    "_orientation_": 6,
    "_padding_": [
        0,
        0,
        0,
        0
    ],
    "_percent_": true,
    "_skin_": "sf4c85c506de4687bf0645de2533a314",
    "_top_": {
        "type": "string",
        "value": "10dp"
    },
    "_width_": {
        "type": "string",
        "value": "100%"
    },
    "allboxes": [],
    "autogrowmode": 1,
    "canUpdateUI": true,
    "children": [
        "lblStatementBalance",
        "flxNUORadioBtn2",
        "lblStatementBalanceValue"
    ],
    "clipbounds": true,
    "containerweight": 100,
    "enablescrolling": true,
    "id": "flxOption2",
    "info": null,
    "isvisible": false,
    "kuid": "ff7ac26d6c5849fa84764d8e88ad3933",
    "layouttype": 2,
    "name": "kony.ui.FlexContainer",
    "parent": "flxContainer3",
    "pf": "frmFastTransfers",
    "responsiveData": {
        "b1": {
            "isVisible": false,
            "left": {
                "type": "string",
                "value": "10dp"
            }
        },
        "b3": {
            "isVisible": false,
            "top": {
                "type": "string",
                "value": "20dp"
            }
        },
        "b4": {
            "isVisible": false
        },
        "b5": {
            "isVisible": false
        }
    },
    "snapgridsize": 10,
    "snaptogrid": true,
    "wType": "FlexContainer",
    "widgetalignment": 1,
    "zindex": 5
}