{
    "@class": "com.kony.gen.viz.model.component.KVizLabel",
    "DNDConfig": null,
    "_height_": {
        "type": "string",
        "value": "28px"
    },
    "_left_": {
        "type": "string",
        "value": "0%"
    },
    "_margin_": [
        1,
        1,
        1,
        1
    ],
    "_padding_": [
        0,
        0,
        0,
        0
    ],
    "_skin_": "s511b289cca7431eadc6b6e81633df04",
    "_text_": "The scheduled date is later than the due date",
    "_top_": {
        "type": "string",
        "value": "1dp"
    },
    "_width_": {
        "type": "string",
        "value": "40%"
    },
    "_wrapping_": 2,
    "accessibilityconfig": {
        "a11yLabel": "The scheduled date is later than the due date"
    },
    "android": {
        "textStyle": {
            "letterSpacing": 0,
            "strikeThrough": false
        }
    },
    "canUpdateUI": true,
    "containerweight": 100,
    "contentalignment": 4,
    "id": "lblDueDate1",
    "info": null,
    "ipad": {
        "psp": {
            "wrapping": 2
        }
    },
    "iphone": {
        "psp": {
            "wrapping": 2
        }
    },
    "isvisible": true,
    "kuid": "f32fd7996a3541078d8f259bb0632fb0",
    "name": "kony.ui.Label",
    "parent": "flxInfoDueDate",
    "pf": "frmFastTransfers",
    "responsiveData": {
        "b3": {
            "width": {
                "type": "string",
                "value": "90%"
            }
        }
    },
    "tooltip": "",
    "wType": "Label",
    "zindex": 2
}