{
    "@class": "com.kony.gen.viz.model.component.KVizLabel",
    "DNDConfig": null,
    "_height_": {
        "type": "string",
        "value": "20dp"
    },
    "_left_": {
        "type": "string",
        "value": "9.7%"
    },
    "_margin_": [
        1,
        1,
        1,
        1
    ],
    "_padding_": [
        0,
        0,
        0,
        0
    ],
    "_skin_": "s10e8b1e874b43f8b3545d6a1375c8b5",
    "_text_": "Minimum Due Balance",
    "_top_": {
        "type": "string",
        "value": "1dp"
    },
    "_width_": {
        "type": "ref",
        "value": "preferred"
    },
    "_wrapping_": 2,
    "accessibilityconfig": {
        "a11yLabel": "Minimum Due Balance"
    },
    "android": {
        "textStyle": {
            "letterSpacing": 0,
            "strikeThrough": false
        }
    },
    "canUpdateUI": true,
    "containerweight": 100,
    "contentalignment": 4,
    "id": "lblMinimumDueBalance",
    "info": null,
    "ipad": {
        "psp": {
            "wrapping": 2
        }
    },
    "iphone": {
        "psp": {
            "wrapping": 2
        }
    },
    "isvisible": true,
    "kuid": "f4ef1bf918fd45a4a5ad0ed24e6831a5",
    "name": "kony.ui.Label",
    "parent": "flxOption3",
    "pf": "frmFastTransfers",
    "responsiveData": {
        "b1": {
            "left": {
                "type": "string",
                "value": "7.699999999999999%"
            }
        },
        "b4": {
            "left": {
                "type": "string",
                "value": "7.699999999999999%"
            }
        },
        "b5": {
            "left": {
                "type": "string",
                "value": "7.699999999999999%"
            }
        }
    },
    "tooltip": "",
    "wType": "Label",
    "zindex": 1
}