{
    "@class": "com.kony.gen.viz.model.component.KVizTextBox2",
    "DNDConfig": null,
    "_height_": {
        "type": "string",
        "value": "40dp"
    },
    "_left_": {
        "type": "string",
        "value": "35dp"
    },
    "_margin_": [
        0,
        0,
        0,
        0
    ],
    "_padding_": [
        0,
        0,
        0,
        0
    ],
    "_placeholder_": "0.00",
    "_skin_": "sb049626e4a048c682930b6769048b65",
    "_text_": "",
    "_width_": {
        "type": "string",
        "value": "90.28%"
    },
    "accessibilityconfig": {
        "a11yLabel": "Amount"
    },
    "autocapitalize": "none",
    "autocomplete": false,
    "autocorrect": false,
    "autofilter": false,
    "canUpdateUI": true,
    "centery": "49.29%",
    "containerheight": "",
    "containerheightmode": 1,
    "containerweight": 100,
    "contentalignment": 4,
    "disabledSkins": {
        "focusSkin": "s5f5a9f8c3a548e281fa49915b760e95"
    },
    "id": "tbxAmount",
    "info": null,
    "isvisible": true,
    "keyboardtype": "A",
    "kuid": "aea6cb01469c4997bd9b2c60683b0972",
    "mode": "A",
    "name": "kony.ui.TextBox2",
    "parent": "flxAmount",
    "pf": "frmFastTransfers",
    "responsiveData": {
        "b1": {
            "centerY": {
                "type": "string",
                "value": "50%"
            },
            "left": {
                "type": "string",
                "value": "24dp"
            }
        },
        "b3": {
            "centerY": {
                "type": "string",
                "value": "50%"
            },
            "height": {
                "type": "string",
                "value": "40dp"
            },
            "left": {
                "type": "string",
                "value": "24dp"
            },
            "text": ""
        },
        "b4": {
            "centerY": {
                "type": "string",
                "value": "50%"
            },
            "left": {
                "type": "string",
                "value": "24dp"
            }
        },
        "b5": {
            "centerY": {
                "type": "string",
                "value": "50%"
            },
            "left": {
                "type": "string",
                "value": "24dp"
            }
        }
    },
    "securetextentry": false,
    "textinputmode": "A",
    "viewtype": "default",
    "wType": "TextField",
    "zindex": 1
}