{
    "@class": "com.kony.gen.viz.model.component.KVizTextBox2",
    "DNDConfig": null,
    "_height_": {
        "type": "string",
        "value": "40dp"
    },
    "_left_": {
        "type": "string",
        "value": "3%"
    },
    "_margin_": [
        0,
        0,
        0,
        0
    ],
    "_padding_": [
        3,
        0,
        0,
        0
    ],
    "_placeholder_": "Optional",
    "_skin_": "sc880ba82fc446cb917e225c57ec524d",
    "_text_": "",
    "_top_": {
        "type": "string",
        "value": "5dp"
    },
    "_width_": {
        "type": "string",
        "value": "94%"
    },
    "accessibilityconfig": {
        "a11yLabel": "Optional"
    },
    "autocapitalize": "none",
    "autocomplete": false,
    "autocorrect": false,
    "autofilter": false,
    "canUpdateUI": true,
    "containerheight": "",
    "containerheightmode": 1,
    "containerweight": 100,
    "contentalignment": 1,
    "desktopweb": {},
    "focusskin": "s2faf9c2766d4142ab33d0bf97445ae0",
    "id": "tbxOptional",
    "info": null,
    "isvisible": true,
    "keyboardtype": "A",
    "kuid": "fc0f0acfdd104d5ca622b3503f5ea663",
    "mode": "A",
    "name": "kony.ui.TextBox2",
    "paddinginpixel": false,
    "parent": "flxLoanpayDue",
    "pf": "frmFastTransfers",
    "securetextentry": false,
    "textinputmode": "A",
    "viewtype": "default",
    "wType": "TextField",
    "zindex": 1
}