{
    "@class": "com.kony.gen.viz.model.component.KVizUserWidget",
    "DNDConfig": null,
    "_bottom_": {
        "type": "number",
        "value": ""
    },
    "_children_": [],
    "_height_": {
        "type": "ref",
        "value": "preferred"
    },
    "_left_": {
        "type": "string",
        "value": "0dp"
    },
    "_margin_": [
        0,
        0,
        0,
        0
    ],
    "_orientation_": 1,
    "_padding_": [
        0,
        0,
        0,
        0
    ],
    "_percent_": true,
    "_render_": true,
    "_skin_": "sdc143f0e5b64ae3a3f155f691c73fa7",
    "_top_": {
        "type": "string",
        "value": "0dp"
    },
    "_width_": {
        "type": "string",
        "value": "100%"
    },
    "android": {},
    "androidwearos": {},
    "areflexpropsreferenced": false,
    "autogrowmode": 1,
    "canUpdateUI": true,
    "clipbounds": false,
    "containerweight": 0,
    "dataDiffs": {
        "TermsAndConditions": {
            "__events__": {},
            "__info__": {
                "isRoot": true,
                "kuid": "e5b30b18cd3646c3be3e335fa0fe262c",
                "srcKUID": "a8480f15fde34d11bc6965fe0c8ecc99",
                "wType": "FlexContainer"
            },
            "autogrowMode": {
                "Default": 1
            },
            "bottom": {},
            "height": {
                "Default": {
                    "type": "ref",
                    "value": "preferred"
                }
            },
            "responsiveData": {
                "b1": {
                    "bottom": {
                        "type": "string",
                        "value": "5dp"
                    },
                    "top": {
                        "type": "string",
                        "value": "5dp"
                    }
                },
                "b3": {
                    "right": {
                        "type": "string",
                        "value": "0dp"
                    },
                    "width": {
                        "type": "string",
                        "value": "100%"
                    }
                }
            },
            "right": {},
            "top": {},
            "width": {}
        },
        "flxTwo": {
            "__events__": {},
            "__info__": {
                "kuid": "d9afd2c853654901b75acf192b5e6be9",
                "srcKUID": "f26f991270e848e581148425d8b5c034",
                "wType": "FlexContainer"
            },
            "autogrowMode": {
                "Default": 1
            },
            "bottom": {
                "Default": {
                    "type": "string",
                    "value": "10dp"
                }
            },
            "height": {
                "Default": {
                    "type": "ref",
                    "value": "preferred"
                }
            },
            "responsiveData": {
                "b3": {
                    "width": {
                        "type": "string",
                        "value": "95%"
                    }
                },
                "b5": {}
            },
            "top": {
                "Default": {
                    "type": "string",
                    "value": "5dp"
                }
            },
            "width": {}
        },
        "flxbullet": {
            "__events__": {},
            "__info__": {
                "kuid": "bcdf044045354c62a92a20d20fb44c14",
                "srcKUID": "af9d0b87ab074dcca904dc67e3ad980f",
                "wType": "FlexContainer"
            },
            "centerY": {
                "Default": {
                    "type": "string",
                    "value": ""
                }
            },
            "responsiveData": {
                "b3": {
                    "width": {
                        "type": "string",
                        "value": "8dp"
                    }
                },
                "b5": {
                    "width": {
                        "type": "string",
                        "value": "8dp"
                    }
                }
            },
            "top": {
                "Default": {
                    "type": "string",
                    "value": "9dp"
                }
            },
            "width": {}
        },
        "flxbulletTwo": {
            "__events__": {},
            "__info__": {
                "kuid": "jd7d565def8b4a7d9294a0584d6bc805",
                "srcKUID": "j0f810a7b1654b1e944f574958cb01ff",
                "wType": "FlexContainer"
            },
            "centerY": {
                "Default": {
                    "type": "string",
                    "value": ""
                }
            },
            "responsiveData": {
                "b1": {},
                "b3": {
                    "width": {
                        "type": "string",
                        "value": "8dp"
                    }
                },
                "b4": {},
                "b5": {
                    "top": {
                        "type": "string",
                        "value": "5dp"
                    },
                    "width": {
                        "type": "string",
                        "value": "8dp"
                    }
                }
            },
            "top": {
                "Default": {
                    "type": "string",
                    "value": "10dp"
                }
            },
            "width": {}
        },
        "flxone": {
            "__events__": {},
            "__info__": {
                "kuid": "e66e69cd36c5446cacbd46d2a9146239",
                "srcKUID": "ha4037e46c2f4e028e9f09568f14d7dd",
                "wType": "FlexContainer"
            },
            "autogrowMode": {
                "Default": 1
            },
            "height": {
                "Default": {
                    "type": "ref",
                    "value": "preferred"
                }
            },
            "left": {
                "Default": {
                    "type": "string",
                    "value": "1%"
                }
            },
            "responsiveData": {
                "b3": {
                    "right": {
                        "type": "string",
                        "value": ""
                    },
                    "width": {
                        "type": "string",
                        "value": "95%"
                    }
                }
            },
            "right": {},
            "width": {}
        },
        "lblIns1": {
            "__events__": {},
            "__info__": {
                "kuid": "a28e8c2a68724ed4b5f2803dea94d73f",
                "srcKUID": "ada00d25eeb748f9a72213c91ddf3fd0",
                "wType": "Label"
            },
            "height": {},
            "i18n_text": "i18n.BillPay.TermsAndConditionsPoint1",
            "left": {},
            "responsiveData": {
                "b3": {
                    "left": {
                        "type": "string",
                        "value": "5dp"
                    },
                    "width": {
                        "type": "string",
                        "value": "80%"
                    }
                },
                "b5": {
                    "height": {
                        "type": "string",
                        "value": "20px"
                    },
                    "left": {
                        "type": "string",
                        "value": "5dp"
                    },
                    "width": {
                        "type": "string",
                        "value": "90%"
                    }
                }
            },
            "top": {
                "Default": {
                    "type": "string",
                    "value": "4dp"
                }
            },
            "width": {}
        },
        "lblInsTwo": {
            "__events__": {},
            "__info__": {
                "kuid": "ad1d8b27af934629833859573b42151c",
                "srcKUID": "cd4650df46484705b2c865df9bbd297d",
                "wType": "Label"
            },
            "height": {
                "Default": {
                    "type": "string",
                    "value": "40px"
                }
            },
            "i18n_text": "i18n.BillPay.TermsAndConditionsPoint2",
            "left": {},
            "responsiveData": {
                "b3": {
                    "height": {
                        "type": "string",
                        "value": "50px"
                    },
                    "left": {
                        "type": "string",
                        "value": "5dp"
                    },
                    "right": {
                        "type": "string",
                        "value": ""
                    },
                    "text": "Upto $500.00 can be sent through this service."
                },
                "b4": {
                    "top": {
                        "type": "string",
                        "value": "6dp"
                    }
                },
                "b5": {
                    "height": {
                        "type": "ref",
                        "value": "preferred"
                    },
                    "left": {
                        "type": "string",
                        "value": "5dp"
                    },
                    "top": {
                        "type": "string",
                        "value": ""
                    },
                    "width": {
                        "type": "string",
                        "value": "90%"
                    }
                }
            },
            "right": {},
            "top": {
                "Default": {
                    "type": "string",
                    "value": "6dp"
                }
            },
            "width": {
                "Default": {
                    "type": "string",
                    "value": "93%"
                }
            }
        },
        "lblTerms": {
            "__events__": {},
            "__info__": {
                "kuid": "e7c35babeaa242fea9ecf894530fa803",
                "srcKUID": "fea04eddb3874312b7732090df0a2c2d",
                "wType": "Label"
            }
        }
    },
    "desktopweb": {},
    "id": "TermsAndConditions1",
    "info": null,
    "ipad": {},
    "iphone": {},
    "isdatareferenced": false,
    "issegmentchild": false,
    "isvisible": true,
    "kiosk": {},
    "kuid": "e5b30b18cd3646c3be3e335fa0fe262c",
    "layouttype": 4,
    "masterType": 0,
    "name": "kony.ui.UserWidgetInstance",
    "parent": "flxTermsAndConditions",
    "pf": "frmFastTransfers",
    "responsiveData": {
        "b1": {
            "bottom": {
                "type": "string",
                "value": "5dp"
            },
            "top": {
                "type": "string",
                "value": "5dp"
            }
        },
        "b3": {
            "right": {
                "type": "string",
                "value": "0dp"
            },
            "width": {
                "type": "string",
                "value": "100%"
            }
        }
    },
    "snaptogrid": true,
    "sourceUserWidget": "a8480f15fde34d11bc6965fe0c8ecc99",
    "spa": {},
    "spaan": {},
    "spaandroidtablet": {},
    "spabb": {},
    "spaip": {},
    "spaipad": {},
    "spamobile": {},
    "spatablet": {},
    "spawindowstablet": {},
    "spawinphone8": {},
    "tabrcandroid": {},
    "vizProps": {
        "hidewidgethierarchy": false
    },
    "vizprops": {
        "hidewidgethierarchy": false
    },
    "wType": "UserWidgetInstance",
    "windows10": {},
    "windows8": {},
    "winphone10": {},
    "winphone8": {}
}