{
    "@class": "com.kony.gen.viz.model.component.KVizButton",
    "DNDConfig": null,
    "__parentReadjusting__": false,
    "_height_": {
        "type": "ref",
        "value": "preferred"
    },
    "_margin_": [
        6,
        6,
        6,
        6
    ],
    "_padding_": [
        0,
        0,
        0,
        0
    ],
    "_skin_": "se4cbdf6e51f48eda9966caa941c6a19",
    "_text_": "Cancel Series",
    "_top_": {
        "type": "string",
        "value": "10dp"
    },
    "_width_": {
        "type": "ref",
        "value": "preferred"
    },
    "accessibilityconfig": {
        "a11yLabel": "REPEAT"
    },
    "canUpdateUI": true,
    "containerId": true,
    "containerweight": 100,
    "contentalignment": 4,
    "desktopweb": {
        "psp": {}
    },
    "disabledSkins": {
        "focusSkin": "sf44d06ca8224832827ea7fdff757013"
    },
    "displaytext": true,
    "id": "btnCancel2",
    "ide_onClick": "AS_Button_d22b7bb27f554732a202b70dab579524",
    "info": null,
    "isvisible": true,
    "kuid": "aa50d3df520c4c7b958e37fb4ed447b1",
    "name": "kony.ui.Button",
    "parent": "flxActions",
    "pf": "segRecentTransfersNewSelected",
    "tooltip": "REPEAT",
    "wType": "Button",
    "zindex": 1
}