{
    "DNDConfig": null,
    "_height_": {
        "type": "string",
        "value": "275dp"
    },
    "_left_": {
        "type": "string",
        "value": "0dp"
    },
    "_margin_": [
        0,
        0,
        0,
        0
    ],
    "_orientation_": 6,
    "_padding_": [
        0,
        0,
        0,
        0
    ],
    "_percent_": true,
    "_skin_": "s1988c0c8423430ca0c13c2459967a95",
    "_top_": {
        "type": "string",
        "value": "0dp"
    },
    "_width_": {
        "type": "string",
        "value": "5px"
    },
    "allboxes": [],
    "autogrowmode": 0,
    "canUpdateUI": true,
    "children": [
        "lblIdentifier"
    ],
    "clipbounds": true,
    "containerId": true,
    "containerweight": 100,
    "enablescrolling": true,
    "id": "flxIdentifier",
    "info": null,
    "isvisible": true,
    "kuid": "b83813d7829d4725bb348f608a3a49ad",
    "layouttype": 2,
    "name": "kony.ui.FlexContainer",
    "parent": "flxExternalAccountsFastTransfersSelectedMobileIC",
    "pf": "segExternalAccountsFastTransfersSelectedMobileIC",
    "snapgridsize": 10,
    "snaptogrid": true,
    "wType": "FlexContainer",
    "widgetalignment": 1,
    "zindex": 11
}