{
	 "@class": "com.kony.gen.viz.model.component.KVizImage2",
	 "DNDConfig": null,
	 "__parentReadjusting__": false,
	 "_base64_": null,
	 "_height_": {
		 "type": "string",
		 "value": "16dp"
	},
	 "_left_": {
		 "type": "string",
		 "value": "67dp"
	},
	 "_margin_": [
		 0,
		 0,
		 0,
		 0
	],
	 "_padding_": [
		 0,
		 0,
		 0,
		 0
	],
	 "_skin_": "s78a5f26c9f14cec9ebed1bb46098f80",
	 "_src_": "error_yellow.png",
	 "_top_": {
		 "type": "string",
		 "value": "-42dp"
	},
	 "_width_": {
		 "type": "string",
		 "value": "16dp"
	},
	 "canUpdateUI": true,
	 "containerId": true,
	 "containerweight": 100,
	 "context": {
		 "channel": "desktop",
		 "platform": "desktopweb",
		 "templateType": "segments",
		 "topLevelBox": null
	},
	 "id": "imgError",
	 "imagescalemode": 1,
	 "info": null,
	 "invokedProperty": "src",
	 "iscustomlayout": false,
	 "isvisible": true,
	 "kuid": "f93c08f821a34adeb16d39cdb045ab1f",
	 "name": "kony.ui.Image2",
	 "parent": "flxRowOne",
	 "pf": "segRecentTransfersMobileSelected",
	 "retaincontentalignment": false,
	 "retainflexpositionproperties": false,
	 "srcType": 1,
	 "wType": "Image",
	 "widgetalignment": 5,
	 "zindex": 1,
	 "accessibilityconfig": {
		 "a11yHidden": true,
		 "a11yARIA": {
			 "tabindex": -1
		},
		 "a11yValue": ""
	}
}