{
    "@class": "com.kony.gen.viz.model.component.KVizUserWidget",
    "DNDConfig": null,
    "__parentReadjusting__": false,
    "_android_": {},
    "_androidwearos_": {},
    "_children_": [],
    "_desktopweb_": {},
    "_height_": {
        "type": "string",
        "value": "52dp"
    },
    "_ipad_": {},
    "_iphone_": {},
    "_kiosk_": {},
    "_left_": {
        "type": "string",
        "value": "0dp"
    },
    "_margin_": [
        0,
        0,
        0,
        0
    ],
    "_orientation_": 1,
    "_padding_": [
        0,
        0,
        0,
        0
    ],
    "_percent_": true,
    "_render_": true,
    "_responsiveData_": {
        "b3": {}
    },
    "_skin_": "s2ce93a13331476c8dd4bdd20e9a2e14",
    "_spa_": {},
    "_spaan_": {},
    "_spaandroidtablet_": {},
    "_spabb_": {},
    "_spaip_": {},
    "_spaipad_": {},
    "_spamobile_": {},
    "_spatablet_": {},
    "_spawindowstablet_": {},
    "_spawinphone8_": {},
    "_tabrcandroid_": {},
    "_top_": {
        "type": "string",
        "value": "0dp"
    },
    "_vizProps_": {
        "hidewidgethierarchy": false
    },
    "_width_": {
        "type": "string",
        "value": "100%"
    },
    "_windows10_": {},
    "_windows8_": {},
    "_winphone10_": {},
    "_winphone8_": {},
    "areflexpropsreferenced": false,
    "autogrowmode": 0,
    "canUpdateUI": true,
    "clipbounds": true,
    "containerweight": 0,
    "dataDiffs": {
        "breadcrumb": {
            "__events__": {},
            "__info__": {
                "isRoot": true,
                "kuid": "b375211aa004404ab3b62e2170be061a",
                "srcKUID": "jdbd779e0c7743739197ebb17ae3c27e",
                "wType": "FlexContainer"
            },
            "autogrowMode": {
                "Default": 0
            },
            "height": {
                "Default": {
                    "type": "string",
                    "value": "52dp"
                }
            },
            "isVisible": false,
            "left": {
                "Default": {
                    "type": "string",
                    "value": "0dp"
                }
            },
            "responsiveData": {
                "b3": {}
            },
            "top": {
                "Default": {
                    "type": "string",
                    "value": "0dp"
                }
            },
            "zIndex": {
                "Default": 1
            }
        },
        "btnBreadcrumb1": {
            "__events__": {},
            "__info__": {
                "kuid": "g4f613ad092141ad930f8cb3126b9795",
                "srcKUID": "j8c10426f5ad4cc5abe5b3dafa2dbb1c",
                "wType": "Button"
            },
            "i18n_text": "i18n.AccountDetails.MAKETRANSFER",
            "text": "MAKE TRANSFER"
        },
        "btnBreadcrumb2": {
            "__events__": {},
            "__info__": {
                "kuid": "efcfa0b5a13d442e868c1e337712bb77",
                "srcKUID": "e8107b226c2b40cf90a9a46174bc7f1d",
                "wType": "Button"
            },
            "i18n_text": "i18n.AccountDetails.MAKETRANSFER"
        },
        "flxBottomBorder": {
            "__events__": {},
            "__info__": {
                "kuid": "f4e2febdfcff46238915875f4280ad41",
                "srcKUID": "i0ec1627a998464aade04cd886ef46aa",
                "wType": "FlexContainer"
            }
        },
        "flxBreadcrumbcontainer": {
            "__events__": {},
            "__info__": {
                "kuid": "g7501600fcf148368045fa55e2d4c2b6",
                "srcKUID": "j0c7057677fd4a26b82f7fa59cdd360e",
                "wType": "FlexContainer"
            },
            "autogrowMode": {
                "Default": 0
            },
            "centerX": {
                "Default": {
                    "type": "string",
                    "value": "50%"
                }
            },
            "height": {
                "Default": {
                    "type": "string",
                    "value": "50dp"
                }
            },
            "responsiveData": {
                "b1": {
                    "width": {
                        "type": "string",
                        "value": "100%"
                    }
                }
            },
            "top": {
                "Default": {
                    "type": "string",
                    "value": "1dp"
                }
            },
            "width": {
                "Default": {
                    "type": "string",
                    "value": "1366dp"
                }
            }
        },
        "flxTopBorder": {
            "__events__": {},
            "__info__": {
                "kuid": "d385a9e419af4b739ba141c936ed6bca",
                "srcKUID": "bb6bda1822574264b7678002ffe888d6",
                "wType": "FlexContainer"
            },
            "top": {
                "Default": {
                    "type": "string",
                    "value": "0dp"
                }
            }
        },
        "imgBreadcrumb": {
            "__events__": {},
            "__info__": {
                "kuid": "hb00ffa02fe2419e976853486b60d0f7",
                "srcKUID": "f5a4304fad2f41a3b5b783c4326dfc7f",
                "wType": "Image"
            }
        },
        "imgBreadcrumb2": {
            "__events__": {},
            "__info__": {
                "kuid": "g019339a1fed4057aa705fa5354afcee",
                "srcKUID": "ec657451494941c9970301e279e7bf1a",
                "wType": "Image"
            }
        },
        "lblBreadcrumb2": {
            "__events__": {},
            "__info__": {
                "kuid": "i330af5c9064401da8cfa78ad22739c6",
                "srcKUID": "c087aea595bb4c9fa3e64e58b7e245f9",
                "wType": "Label"
            }
        },
        "lblBreadcrumb3": {
            "__events__": {},
            "__info__": {
                "kuid": "bfd2bdb3d5b440a896566bb9523d04a7",
                "srcKUID": "ec107db8650a4c9db78a5676ab665c29",
                "wType": "Label"
            }
        }
    },
    "id": "breadcrumb",
    "info": null,
    "isdatareferenced": false,
    "isvisible": false,
    "kuid": "b375211aa004404ab3b62e2170be061a",
    "layouttype": 2,
    "masterType": 0,
    "name": "kony.ui.UserWidgetInstance",
    "parent": "flxMain",
    "pf": "frmTransfersGateway",
    "snaptogrid": true,
    "sourceUserWidget": "jdbd779e0c7743739197ebb17ae3c27e",
    "vizprops": {
        "hidewidgethierarchy": false
    },
    "wType": "UserWidgetInstance",
    "zindex": 1
}