{
    "@class": "com.kony.gen.viz.model.component.KVizButton",
    "DNDConfig": null,
    "__parentReadjusting__": false,
    "_height_": {
        "type": "string",
        "value": "100%"
    },
    "_left_": {
        "type": "string",
        "value": "15dp"
    },
    "_margin_": [
        6,
        6,
        6,
        6
    ],
    "_padding_": [
        1,
        0,
        1,
        0
    ],
    "_skin_": "s364791b23424563b19f89706acedb03",
    "_text_": "Transfer Money",
    "_top_": {
        "type": "string",
        "value": "0dp"
    },
    "_width_": {
        "type": "ref",
        "value": "preferred"
    },
    "accessibilityconfig": {
        "a11yLabel": "Transfer Money"
    },
    "canUpdateUI": true,
    "centery": {
        "type": "string",
        "value": "50%"
    },
    "containerweight": 100,
    "contentalignment": 5,
    "desktopweb": {
        "psp": {}
    },
    "disabledSkins": {
        "focusSkin": "sf44d06ca8224832827ea7fdff757013",
        "hoverSkin": "sd5fb4525cc9414e911580d4f0b6f580"
    },
    "displaytext": true,
    "id": "btnMakeTransfer",
    "info": null,
    "isvisible": true,
    "kuid": "d6ef39156b7d448cb24b5bf53ba84c6c",
    "name": "kony.ui.Button",
    "paddinginpixel": false,
    "parent": "flxTabsChecking",
    "pf": "frmTransfersGateway",
    "texti18n": "i18n.billPay.BillPayMakeTransfer",
    "tooltip": "Make Transfer",
    "wType": "Button",
    "zindex": 1
}