{
    "@class": "com.kony.gen.viz.model.component.KVizButton",
    "DNDConfig": null,
    "__parentReadjusting__": false,
    "_height_": {
        "type": "string",
        "value": "100%"
    },
    "_left_": {
        "type": "string",
        "value": "20px"
    },
    "_margin_": [
        6,
        6,
        6,
        6
    ],
    "_padding_": [
        1,
        0,
        1,
        0
    ],
    "_skin_": "s6cc32f783a048e98fcfb83f1b046c84",
    "_text_": "TRANSFERS",
    "_width_": {
        "type": "ref",
        "value": "preferred"
    },
    "accessibilityconfig": {
        "a11yLabel": "Scheduled"
    },
    "canUpdateUI": true,
    "centery": {
        "type": "string",
        "value": "50%"
    },
    "containerweight": 100,
    "contentalignment": 5,
    "desktopweb": {
        "psp": {}
    },
    "disabledSkins": {
        "focusSkin": "sf44d06ca8224832827ea7fdff757013",
        "hoverSkin": "sd5fb4525cc9414e911580d4f0b6f580"
    },
    "displaytext": true,
    "id": "btnScheduled",
    "info": null,
    "isvisible": true,
    "kuid": "b683f06c4ff6473e9605cc58f11a6485",
    "name": "kony.ui.Button",
    "paddinginpixel": false,
    "parent": "flxTabsChecking",
    "pf": "frmTransfersGateway",
    "texti18n": "i18n.billPay.scheduled",
    "tooltip": "Scheduled",
    "wType": "Button",
    "zindex": 1
}