{
    "DNDConfig": null,
    "__parentReadjusting__": false,
    "_bottom_": {
        "type": "number",
        "value": ""
    },
    "_height_": {
        "type": "ref",
        "value": "preferred"
    },
    "_left_": {
        "type": "string",
        "value": "0dp"
    },
    "_margin_": [
        0,
        0,
        0,
        0
    ],
    "_orientation_": 6,
    "_padding_": [
        0,
        0,
        0,
        0
    ],
    "_percent_": true,
    "_skin_": "sdc143f0e5b64ae3a3f155f691c73fa7",
    "_top_": {
        "type": "string",
        "value": "0px"
    },
    "_width_": {
        "type": "string",
        "value": "100%"
    },
    "allboxes": [],
    "autogrowmode": 1,
    "canUpdateUI": true,
    "children": [
        "flxChangeTransferTypeHeader",
        "segChangeTransferType"
    ],
    "clipbounds": false,
    "containerweight": 100,
    "enablescrolling": true,
    "id": "flxChangeTransferType",
    "info": null,
    "isvisible": true,
    "kuid": "b7bb1b7ce729414eaf4080c2bb08820e",
    "layouttype": 4,
    "name": "kony.ui.FlexContainer",
    "parent": "flxRightBar",
    "pf": "frmTransfersGateway",
    "responsiveData": {
        "b1": {
            "bottom": {
                "type": "string",
                "value": "15dp"
            },
            "isVisible": false,
            "skin": "sdc143f0e5b64ae3a3f155f691c73fa7",
            "top": {
                "type": "string",
                "value": "0px"
            }
        },
        "b3": {},
        "b4": {
            "bottom": {
                "type": "string",
                "value": "15dp"
            },
            "isVisible": false,
            "skin": "sdc143f0e5b64ae3a3f155f691c73fa7",
            "width": {
                "type": "string",
                "value": "100%"
            }
        },
        "b5": {
            "isVisible": false,
            "width": {
                "type": "string",
                "value": "100%"
            }
        }
    },
    "snapgridsize": 10,
    "snaptogrid": true,
    "wType": "FlexContainer",
    "widgetalignment": 1,
    "zindex": 1
}