{
    "@class": "com.kony.gen.viz.model.container.KVizScrollFlexForm",
    "DNDConfig": null,
    "_margin_": [
        0,
        0,
        0,
        0
    ],
    "_orientation_": 1,
    "_padding_": [
        0,
        0,
        0,
        0
    ],
    "_percent_": true,
    "_skin_": "s2f58a140c5647b8a643edf5a6309600",
    "_title_": null,
    "addWidgetsdone": false,
    "allboxes": [],
    "android": {
        "psp": {
            "windowSoftInputMode": 2
        }
    },
    "breakpointInfo": {
        "b1": {
            "width": 1366
        },
        "b3": {
            "width": 640
        },
        "b4": {
            "width": 1380
        },
        "b5": {
            "width": 1024
        }
    },
    "canUpdateUI": true,
    "canvasWidth": 2000,
    "children": [
        "flxHeader",
        "flxMain",
        "flxLogout",
        "flxDelete",
        "flxTransferViewReport",
        "flxLoading",
        "flxCancelPopup",
        "flxFooter"
    ],
    "containerweight": 100,
    "controllerInfo": {
        "default": {
            "channel": "desktop",
            "name": "frmTransfersGatewayController"
        }
    },
    "currentBreakpoint": {
        "kuid": "b3",
        "width": 640
    },
    "currentLocale": "default",
    "desktopweb": {
        "ide_onBreakpointChange": "AS_Form_b274a608bd254b2ea27f86b398ae7ec3",
        "needAppMenu": false
    },
    "device": "desktopweb",
    "displayorientation": 1,
    "enabledforidletimeout": true,
    "friendlyName": "frmTransfersGateway",
    "id": "frmTransfersGateway",
    "ide_init": "AS_Form_g8b999a5329045869cc51191e9b0dd76",
    "ide_onDeviceBack": "AS_Form_c19eed724b57466ea509c5803cc6ca2d",
    "ide_onTouchEnd": "AS_Form_i364d65c6f574708903770999eb6e963",
    "ide_postShow": "AS_Form_da100ee263ca4f7ba32db1e4a057a9bd",
    "ide_preShow": "AS_Form_f20e3dfe89634c188e2bac81e363ba03",
    "info": null,
    "initdone": false,
    "inputaccessoryviewtype": 4,
    "ipad": {
        "psp": {
            "inputAccessoryViewType": 4
        }
    },
    "iphone": {
        "psp": {
            "inputAccessoryViewType": 4
        }
    },
    "isvisible": true,
    "kiosk": {
        "psp": {
            "enableScrolling": false
        }
    },
    "kuid": "f52cee97e2344f239205585b7ea81b33",
    "layouttype": 2,
    "name": "kony.ui.Form2",
    "needappmenu": true,
    "paddinginpixel": false,
    "platform": "desktopweb",
    "prevDevice": "desktopweb",
    "prevPlatform": "desktopweb",
    "retainscrollposition": false,
    "shellCSS": "desktop",
    "snapgridsize": 10,
    "snaptogrid": true,
    "titleBarSkin": "s2e24ee0a8ca46b089d8a5bea8a1a32e",
    "titlebar": true,
    "type": 3,
    "vizProps": {
        "globalRespDesignEnabled": false
    },
    "wType": "Form"
}