{
    "DNDConfig": null,
    "_height_": {
        "type": "string",
        "value": "80dp"
    },
    "_margin_": [
        0,
        0,
        0,
        0
    ],
    "_orientation_": 6,
    "_padding_": [
        0,
        0,
        0,
        0
    ],
    "_percent_": true,
    "_skin_": "s24c92fc23b14f5484b693ee9b8a9b35",
    "allboxes": [],
    "autogrowmode": 0,
    "canUpdateUI": true,
    "children": [
        "lblSeparator",
        "segBWTEditRecipientFileUnselectedWrapper",
        "imgArrow"
    ],
    "clipbounds": true,
    "containerId": true,
    "containerweight": 100,
    "controllerInfo": {
        "default": {
            "channel": "desktop",
            "name": "flxUserManagementSelectCompanyNamesController"
        }
    },
    "desktopweb": {
        "psp": {}
    },
    "enablescrolling": true,
    "friendlyName": "flxUserManagementSelectCompanyNames",
    "id": "flxUserManagementSelectCompanyNames",
    "info": null,
    "isTemplate": true,
    "isvisible": true,
    "kuid": "e5eb2b66a4d544dbacce9d70ad97bf41",
    "layouttype": 3,
    "name": "kony.ui.FlexContainer",
    "parent": "segUserManagementSelectCompanyNames",
    "pf": "segUserManagementSelectCompanyNames",
    "snapgridsize": 10,
    "snaptogrid": true,
    "wType": "FlexContainer",
    "widgetalignment": 1
}