{
    "@class": "com.kony.gen.viz.model.component.KVizUserWidget",
    "DNDConfig": null,
    "_children_": [],
    "_height_": {
        "type": "ref",
        "value": "preferred"
    },
    "_left_": {
        "type": "string",
        "value": "10dp"
    },
    "_margin_": [
        0,
        0,
        0,
        0
    ],
    "_orientation_": 1,
    "_padding_": [
        0,
        0,
        0,
        0
    ],
    "_percent_": true,
    "_right_": {
        "type": "string",
        "value": "10dp"
    },
    "_skin_": "scbd4cac3526468089bf3013adff0549",
    "_top_": {
        "type": "string",
        "value": "30dp"
    },
    "areflexpropsreferenced": false,
    "autogrowmode": 1,
    "canUpdateUI": true,
    "clipbounds": false,
    "containerweight": 0,
    "dataDiffs": {
        "AllForms": {
            "__events__": {},
            "__info__": {
                "isRoot": true,
                "kuid": "g6f581e7c0114dcdb20c57e5cda91d35",
                "srcKUID": "aef6ac17436948abacbe12ea5a1d5e5b",
                "wType": "FlexContainer"
            },
            "isVisible": false,
            "left": {
                "Default": {
                    "type": "string",
                    "value": "10dp"
                }
            },
            "responsiveData": {
                "b3": {
                    "isVisible": false,
                    "zIndex": 10
                }
            },
            "right": {
                "Default": {
                    "type": "string",
                    "value": "10dp"
                }
            },
            "top": {
                "Default": {
                    "type": "string",
                    "value": "30dp"
                }
            },
            "width": {
                "Default": {
                    "type": "string",
                    "value": ""
                }
            },
            "zIndex": {
                "Default": 10
            }
        },
        "RichTextInfo": {
            "__events__": {},
            "__info__": {
                "kuid": "h8b07f92f2704c9fb5655d16a992a0e8",
                "srcKUID": "i86f020750564f6ba173ce46ea601ab5",
                "wType": "RichText"
            },
            "i18n_text": "i18n.AlertsMessages.msgInfo",
            "isVisible": true,
            "responsiveData": {},
            "text": "If you dismiss an Alert, it will be removed from your\nAlerts list. This action cannot be reversed."
        },
        "flxAccountType": {
            "__events__": {},
            "__info__": {
                "kuid": "if0285480e3d4dd5a570150d0efd9301",
                "srcKUID": "ed52287fd449401ba9a5f005c99e3f35",
                "wType": "FlexContainer"
            }
        },
        "flxCross": {
            "__events__": {},
            "__info__": {
                "kuid": "f0d3c1ecd9734817bb4ddae7cac7d9fe",
                "srcKUID": "d452c358ed1445a58e5fdff55685498f",
                "wType": "FlexContainer"
            },
            "responsiveData": {},
            "right": {
                "Default": {
                    "type": "string",
                    "value": "10dp"
                }
            }
        },
        "flxInformation": {
            "__events__": {},
            "__info__": {
                "kuid": "ad1d038a96324dab87bf9077219287bc",
                "srcKUID": "be414255ea60408894eb2a9b719b864e",
                "wType": "FlexContainer"
            }
        },
        "flxInformationText": {
            "__events__": {},
            "__info__": {
                "kuid": "j2eac022bbac4879938b2e381113d260",
                "srcKUID": "fa4dbab87ecf4647a21060118b02bd03",
                "wType": "FlexContainer"
            }
        },
        "imgCross": {
            "__events__": {},
            "__info__": {
                "kuid": "e6f584d2eea4475dbe13888e35cb7687",
                "srcKUID": "d86a08cea857467eae13f42ed033a771",
                "wType": "Image"
            },
            "src": "bbcloseicon.png"
        },
        "imgToolTip": {
            "__events__": {},
            "__info__": {
                "kuid": "da865ce0172246b8b60de3afd3fe3270",
                "srcKUID": "f9274528aa6b41bfb057f17c510b73b5",
                "wType": "Image"
            },
            "src": "tool_tip.png"
        },
        "lblInfo": {
            "__events__": {},
            "__info__": {
                "kuid": "h81ed876f17140699317fb6099ba4bd0",
                "srcKUID": "c6ecc9c129c943b396152e99a30763f6",
                "wType": "Label"
            }
        },
        "lblSeperator": {
            "__events__": {},
            "__info__": {
                "kuid": "cb3ce6e88b8541ecb7b52a53633392ba",
                "srcKUID": "f142d5aa44384a3fb94504a874cbbb95",
                "wType": "Label"
            }
        }
    },
    "enablescrolling": true,
    "id": "AllForms",
    "info": null,
    "isdatareferenced": false,
    "isvisible": false,
    "kuid": "g6f581e7c0114dcdb20c57e5cda91d35",
    "layouttype": 4,
    "masterType": 0,
    "name": "kony.ui.UserWidgetInstance",
    "parent": "flxMessagesHeader",
    "pf": "frmMessgaeDetailsMobile",
    "snapgridsize": 10,
    "snaptogrid": true,
    "sourceUserWidget": "aef6ac17436948abacbe12ea5a1d5e5b",
    "wType": "UserWidgetInstance",
    "zindex": 10
}