{
    "DNDConfig": null,
    "_height_": {
        "type": "ref",
        "value": "preferred"
    },
    "_left_": {
        "type": "string",
        "value": "0%"
    },
    "_margin_": [
        0,
        0,
        0,
        0
    ],
    "_orientation_": 6,
    "_padding_": [
        0,
        0,
        0,
        0
    ],
    "_percent_": true,
    "_right_": {
        "type": "number",
        "value": ""
    },
    "_skin_": "s24c92fc23b14f5484b693ee9b8a9b35",
    "_top_": {
        "type": "string",
        "value": "0dp"
    },
    "_width_": {
        "type": "string",
        "value": "100%"
    },
    "allboxes": [],
    "autogrowmode": 1,
    "canUpdateUI": true,
    "children": [
        "lblHeadingNotification",
        "lblDateAndTime",
        "flxRightNotificationsWrapper"
    ],
    "clipbounds": true,
    "containerweight": 100,
    "enablescrolling": true,
    "id": "flxAlertBody",
    "info": null,
    "isvisible": false,
    "kuid": "a093278faa824c7da23e6daef24537a9",
    "layouttype": 2,
    "name": "kony.ui.FlexContainer",
    "parent": "flxAlertsMobile",
    "pf": "frmMessgaeDetailsMobile",
    "responsiveData": {
        "b3": {
            "isVisible": true,
            "skin": "s24c92fc23b14f5484b693ee9b8a9b35",
            "zIndex": 1
        }
    },
    "snapgridsize": 10,
    "snaptogrid": true,
    "wType": "FlexContainer",
    "widgetalignment": 1,
    "zindex": 10
}