{
    "DNDConfig": null,
    "_height_": {
        "type": "string",
        "value": "50dp"
    },
    "_left_": {
        "type": "string",
        "value": "0dp"
    },
    "_margin_": [
        0,
        0,
        0,
        0
    ],
    "_orientation_": 6,
    "_padding_": [
        0,
        0,
        0,
        0
    ],
    "_percent_": true,
    "_skin_": "sdc143f0e5b64ae3a3f155f691c73fa7",
    "_top_": {
        "type": "string",
        "value": "-2dp"
    },
    "_width_": {
        "type": "string",
        "value": "100%"
    },
    "allboxes": [],
    "autogrowmode": 0,
    "canUpdateUI": true,
    "children": [
        "btnBackToMessages"
    ],
    "clipbounds": false,
    "containerweight": 100,
    "enablescrolling": true,
    "id": "flxBackToMessagesheader",
    "info": null,
    "isvisible": true,
    "kuid": "cf6830f69ecd4da8bc0ce0fa7a1197c2",
    "layouttype": 2,
    "name": "kony.ui.FlexContainer",
    "parent": "flxMyMessageDetails",
    "pf": "frmMessgaeDetailsMobile",
    "responsiveData": {
        "b3": {
            "skin": "sb8e5196987c4800a69169f3827ea06e"
        }
    },
    "snapgridsize": 10,
    "snaptogrid": true,
    "wType": "FlexContainer",
    "widgetalignment": 1,
    "zindex": 2
}