{
    "DNDConfig": null,
    "_bottom_": {
        "type": "string",
        "value": "0dp"
    },
    "_height_": {
        "type": "string",
        "value": "80dp"
    },
    "_left_": {
        "type": "string",
        "value": "0dp"
    },
    "_margin_": [
        0,
        0,
        0,
        0
    ],
    "_orientation_": 6,
    "_padding_": [
        0,
        0,
        0,
        0
    ],
    "_percent_": true,
    "_skin_": "s24c92fc23b14f5484b693ee9b8a9b35",
    "_width_": {
        "type": "string",
        "value": "100%"
    },
    "allboxes": [],
    "autogrowmode": 0,
    "canUpdateUI": true,
    "children": [
        "flxReplyImageAttachment",
        "btnSendReply",
        "btnCancelReply",
        "lblWarningNotMoreThan5files"
    ],
    "clipbounds": true,
    "containerweight": 100,
    "enablescrolling": true,
    "id": "flxReplyMessageButtons",
    "info": null,
    "isvisible": true,
    "kuid": "h0e7cbe3f44c4fe8b25505ec533e332e",
    "layouttype": 2,
    "name": "kony.ui.FlexContainer",
    "parent": "flxReply",
    "pf": "frmMessgaeDetailsMobile",
    "responsiveData": {},
    "snapgridsize": 10,
    "snaptogrid": true,
    "wType": "FlexContainer",
    "widgetalignment": 1,
    "zindex": 1
}