{
    "@class": "com.kony.gen.viz.model.component.KVizLabel",
    "DNDConfig": null,
    "_height_": {
        "type": "ref",
        "value": "preferred"
    },
    "_left_": {
        "type": "string",
        "value": "70dp"
    },
    "_margin_": [
        1,
        1,
        1,
        1
    ],
    "_padding_": [
        0,
        0,
        0,
        0
    ],
    "_skin_": "s9b31b8c637a493eb541061f894ca8c5",
    "_text_": "Maximum of five attachments allowed.",
    "_width_": {
        "type": "string",
        "value": "40%"
    },
    "_wrapping_": 2,
    "android": {
        "textStyle": {
            "letterSpacing": 0,
            "strikeThrough": false
        }
    },
    "canUpdateUI": true,
    "centery": {
        "type": "string",
        "value": "45%"
    },
    "containerweight": 100,
    "contentalignment": 4,
    "id": "lblWarningNotMoreThan5files",
    "info": null,
    "ipad": {
        "psp": {
            "wrapping": 2
        }
    },
    "iphone": {
        "psp": {
            "wrapping": 2
        }
    },
    "iscustomlayout": false,
    "isvisible": false,
    "kuid": "e30fd078d8144f0492ad299cf70ef77e",
    "name": "kony.ui.Label",
    "parent": "flxReplyMessageButtons",
    "pf": "frmMessgaeDetailsMobile",
    "responsiveData": {
        "b3": {
            "isVisible": true,
            "width": {
                "type": "string",
                "value": "36%"
            }
        }
    },
    "retaincontentalignment": false,
    "retainflexpositionproperties": false,
    "texti18n": "i18n.NotificationsAndMessages.Maximum5AttachmentsAllowed",
    "tooltip": "",
    "wType": "Label",
    "zindex": 1
}