{
    "@class": "com.kony.gen.viz.model.container.KVizSegment2",
    "DNDConfig": null,
    "_data_": [{
            "imgDownloadAttachment1": {
                "@class": "com.viz.ide.model.segment.ImageSegmentData",
                "src": "bbdownloadicon_1.png"
            },
            "imgDownloadAttachment2": {
                "@class": "com.viz.ide.model.segment.ImageSegmentData",
                "src": "download_blue.png"
            },
            "imgDownloadAttachment3": {
                "@class": "com.viz.ide.model.segment.ImageSegmentData",
                "src": "download_blue.png"
            },
            "imgDownloadAttachment4": {
                "@class": "com.viz.ide.model.segment.ImageSegmentData",
                "src": "download_blue.png"
            },
            "imgDownloadAttachment5": {
                "@class": "com.viz.ide.model.segment.ImageSegmentData",
                "src": "download_blue.png"
            },
            "imgPDF1": {
                "@class": "com.viz.ide.model.segment.ImageSegmentData",
                "src": "pdf_image.png"
            },
            "imgPDF2": {
                "@class": "com.viz.ide.model.segment.ImageSegmentData",
                "src": "pdf_image.png"
            },
            "imgPDF3": {
                "@class": "com.viz.ide.model.segment.ImageSegmentData",
                "src": "pdf_image.png"
            },
            "imgPDF4": {
                "@class": "com.viz.ide.model.segment.ImageSegmentData",
                "src": "pdf_image.png"
            },
            "imgPDF5": {
                "@class": "com.viz.ide.model.segment.ImageSegmentData",
                "src": "pdf_image.png"
            },
            "imgRemoveAttachment1": {
                "@class": "com.viz.ide.model.segment.ImageSegmentData",
                "src": "icon_close_grey.png"
            },
            "imgRemoveAttachment2": {
                "@class": "com.viz.ide.model.segment.ImageSegmentData",
                "src": "icon_close_grey.png"
            },
            "imgRemoveAttachment3": {
                "@class": "com.viz.ide.model.segment.ImageSegmentData",
                "src": "icon_close_grey.png"
            },
            "imgRemoveAttachment4": {
                "@class": "com.viz.ide.model.segment.ImageSegmentData",
                "src": "icon_close_grey.png"
            },
            "imgRemoveAttachment5": {
                "@class": "com.viz.ide.model.segment.ImageSegmentData",
                "src": "icon_close_grey.png"
            },
            "imgToolTip": {
                "@class": "com.viz.ide.model.segment.ImageSegmentData",
                "src": "reply_arrowtip.png"
            },
            "imgUser": {
                "@class": "com.viz.ide.model.segment.ImageSegmentData",
                "src": "bank_circle_icon_mod.png"
            },
            "lblDate": {
                "@class": "com.viz.ide.model.segment.SimpleTextSegmentData",
                "text": "07/05/2017, 6:10 am"
            },
            "lblDocName1": {
                "@class": "com.viz.ide.model.segment.SimpleTextSegmentData",
                "text": "Platinum card.pdf xxxxxxxxxxxxxxxxxxxxxxxxxx"
            },
            "lblDocName2": {
                "@class": "com.viz.ide.model.segment.SimpleTextSegmentData",
                "text": "Platinum card.pdf"
            },
            "lblDocName3": {
                "@class": "com.viz.ide.model.segment.SimpleTextSegmentData",
                "text": "Platinum card.pdf"
            },
            "lblDocName4": {
                "@class": "com.viz.ide.model.segment.SimpleTextSegmentData",
                "text": "Platinum card.pdf"
            },
            "lblDocName5": {
                "@class": "com.viz.ide.model.segment.SimpleTextSegmentData",
                "text": "Platinum card.pdf"
            },
            "lblDummy": {
                "@class": "com.viz.ide.model.segment.SimpleTextSegmentData",
                "text": " "
            },
            "lblRowSeperator": {
                "@class": "com.viz.ide.model.segment.SimpleTextSegmentData",
                "text": ""
            },
            "lblShowAll": {
                "@class": "com.viz.ide.model.segment.SimpleTextSegmentData",
                "i18nkey": "i18n.Notifications&Messages.ShowAll",
                "text": "Platinum card.pdf"
            },
            "lblSize1": {
                "@class": "com.viz.ide.model.segment.SimpleTextSegmentData",
                "text": "(54KB)"
            },
            "lblSize2": {
                "@class": "com.viz.ide.model.segment.SimpleTextSegmentData",
                "text": "(54KB)"
            },
            "lblSize3": {
                "@class": "com.viz.ide.model.segment.SimpleTextSegmentData",
                "text": "(54KB)"
            },
            "lblSize4": {
                "@class": "com.viz.ide.model.segment.SimpleTextSegmentData",
                "text": "(54KB)"
            },
            "lblSize5": {
                "@class": "com.viz.ide.model.segment.SimpleTextSegmentData",
                "text": "(54KB)"
            },
            "lblUser": {
                "@class": "com.viz.ide.model.segment.SimpleTextSegmentData",
                "text": "Kony_Bank"
            },
            "rtxMessage": {
                "@class": "com.viz.ide.model.segment.SimpleTextSegmentData",
                "text": "Hi! You are our priviledged customer. Renew your account by simply\nClickable link to be provided here.Hi! You are our priviledged customer. Renew your account by simply\nClickable link to be provided here."
            }
        },
        {
            "imgDownloadAttachment1": {
                "@class": "com.viz.ide.model.segment.ImageSegmentData",
                "src": "bbdownloadicon_1.png"
            },
            "imgDownloadAttachment2": {
                "@class": "com.viz.ide.model.segment.ImageSegmentData",
                "src": "download_blue.png"
            },
            "imgDownloadAttachment3": {
                "@class": "com.viz.ide.model.segment.ImageSegmentData",
                "src": "download_blue.png"
            },
            "imgDownloadAttachment4": {
                "@class": "com.viz.ide.model.segment.ImageSegmentData",
                "src": "download_blue.png"
            },
            "imgDownloadAttachment5": {
                "@class": "com.viz.ide.model.segment.ImageSegmentData",
                "src": "download_blue.png"
            },
            "imgPDF1": {
                "@class": "com.viz.ide.model.segment.ImageSegmentData",
                "src": "pdf_image.png"
            },
            "imgPDF2": {
                "@class": "com.viz.ide.model.segment.ImageSegmentData",
                "src": "pdf_image.png"
            },
            "imgPDF3": {
                "@class": "com.viz.ide.model.segment.ImageSegmentData",
                "src": "pdf_image.png"
            },
            "imgPDF4": {
                "@class": "com.viz.ide.model.segment.ImageSegmentData",
                "src": "pdf_image.png"
            },
            "imgPDF5": {
                "@class": "com.viz.ide.model.segment.ImageSegmentData",
                "src": "pdf_image.png"
            },
            "imgRemoveAttachment1": {
                "@class": "com.viz.ide.model.segment.ImageSegmentData",
                "src": "icon_close_grey.png"
            },
            "imgRemoveAttachment2": {
                "@class": "com.viz.ide.model.segment.ImageSegmentData",
                "src": "icon_close_grey.png"
            },
            "imgRemoveAttachment3": {
                "@class": "com.viz.ide.model.segment.ImageSegmentData",
                "src": "icon_close_grey.png"
            },
            "imgRemoveAttachment4": {
                "@class": "com.viz.ide.model.segment.ImageSegmentData",
                "src": "icon_close_grey.png"
            },
            "imgRemoveAttachment5": {
                "@class": "com.viz.ide.model.segment.ImageSegmentData",
                "src": "icon_close_grey.png"
            },
            "imgToolTip": {
                "@class": "com.viz.ide.model.segment.ImageSegmentData",
                "src": "reply_arrowtip.png"
            },
            "imgUser": {
                "@class": "com.viz.ide.model.segment.ImageSegmentData",
                "src": "bank_circle_icon_mod.png"
            },
            "lblDate": {
                "@class": "com.viz.ide.model.segment.SimpleTextSegmentData",
                "text": "07/05/2017, 6:10 am"
            },
            "lblDocName1": {
                "@class": "com.viz.ide.model.segment.SimpleTextSegmentData",
                "text": "Platinum card.pdf xxxxxxxxxxxxxxxxxxxxxxxxxx"
            },
            "lblDocName2": {
                "@class": "com.viz.ide.model.segment.SimpleTextSegmentData",
                "text": "Platinum card.pdf"
            },
            "lblDocName3": {
                "@class": "com.viz.ide.model.segment.SimpleTextSegmentData",
                "text": "Platinum card.pdf"
            },
            "lblDocName4": {
                "@class": "com.viz.ide.model.segment.SimpleTextSegmentData",
                "text": "Platinum card.pdf"
            },
            "lblDocName5": {
                "@class": "com.viz.ide.model.segment.SimpleTextSegmentData",
                "text": "Platinum card.pdf"
            },
            "lblDummy": {
                "@class": "com.viz.ide.model.segment.SimpleTextSegmentData",
                "text": " "
            },
            "lblRowSeperator": {
                "@class": "com.viz.ide.model.segment.SimpleTextSegmentData",
                "text": ""
            },
            "lblShowAll": {
                "@class": "com.viz.ide.model.segment.SimpleTextSegmentData",
                "i18nkey": "i18n.Notifications&Messages.ShowAll",
                "text": "Platinum card.pdf"
            },
            "lblSize1": {
                "@class": "com.viz.ide.model.segment.SimpleTextSegmentData",
                "text": "(54KB)"
            },
            "lblSize2": {
                "@class": "com.viz.ide.model.segment.SimpleTextSegmentData",
                "text": "(54KB)"
            },
            "lblSize3": {
                "@class": "com.viz.ide.model.segment.SimpleTextSegmentData",
                "text": "(54KB)"
            },
            "lblSize4": {
                "@class": "com.viz.ide.model.segment.SimpleTextSegmentData",
                "text": "(54KB)"
            },
            "lblSize5": {
                "@class": "com.viz.ide.model.segment.SimpleTextSegmentData",
                "text": "(54KB)"
            },
            "lblUser": {
                "@class": "com.viz.ide.model.segment.SimpleTextSegmentData",
                "text": "Kony_Bank"
            },
            "rtxMessage": {
                "@class": "com.viz.ide.model.segment.SimpleTextSegmentData",
                "text": "Hi! You are our priviledged customer. Renew your account by simply\nClickable link to be provided here.Hi! You are our priviledged customer. Renew your account by simply\nClickable link to be provided here."
            }
        },
        {
            "imgDownloadAttachment1": {
                "@class": "com.viz.ide.model.segment.ImageSegmentData",
                "src": "bbdownloadicon_1.png"
            },
            "imgDownloadAttachment2": {
                "@class": "com.viz.ide.model.segment.ImageSegmentData",
                "src": "download_blue.png"
            },
            "imgDownloadAttachment3": {
                "@class": "com.viz.ide.model.segment.ImageSegmentData",
                "src": "download_blue.png"
            },
            "imgDownloadAttachment4": {
                "@class": "com.viz.ide.model.segment.ImageSegmentData",
                "src": "download_blue.png"
            },
            "imgDownloadAttachment5": {
                "@class": "com.viz.ide.model.segment.ImageSegmentData",
                "src": "download_blue.png"
            },
            "imgPDF1": {
                "@class": "com.viz.ide.model.segment.ImageSegmentData",
                "src": "pdf_image.png"
            },
            "imgPDF2": {
                "@class": "com.viz.ide.model.segment.ImageSegmentData",
                "src": "pdf_image.png"
            },
            "imgPDF3": {
                "@class": "com.viz.ide.model.segment.ImageSegmentData",
                "src": "pdf_image.png"
            },
            "imgPDF4": {
                "@class": "com.viz.ide.model.segment.ImageSegmentData",
                "src": "pdf_image.png"
            },
            "imgPDF5": {
                "@class": "com.viz.ide.model.segment.ImageSegmentData",
                "src": "pdf_image.png"
            },
            "imgRemoveAttachment1": {
                "@class": "com.viz.ide.model.segment.ImageSegmentData",
                "src": "icon_close_grey.png"
            },
            "imgRemoveAttachment2": {
                "@class": "com.viz.ide.model.segment.ImageSegmentData",
                "src": "icon_close_grey.png"
            },
            "imgRemoveAttachment3": {
                "@class": "com.viz.ide.model.segment.ImageSegmentData",
                "src": "icon_close_grey.png"
            },
            "imgRemoveAttachment4": {
                "@class": "com.viz.ide.model.segment.ImageSegmentData",
                "src": "icon_close_grey.png"
            },
            "imgRemoveAttachment5": {
                "@class": "com.viz.ide.model.segment.ImageSegmentData",
                "src": "icon_close_grey.png"
            },
            "imgToolTip": {
                "@class": "com.viz.ide.model.segment.ImageSegmentData",
                "src": "reply_arrowtip.png"
            },
            "imgUser": {
                "@class": "com.viz.ide.model.segment.ImageSegmentData",
                "src": "bank_circle_icon_mod.png"
            },
            "lblDate": {
                "@class": "com.viz.ide.model.segment.SimpleTextSegmentData",
                "text": "07/05/2017, 6:10 am"
            },
            "lblDocName1": {
                "@class": "com.viz.ide.model.segment.SimpleTextSegmentData",
                "text": "Platinum card.pdf xxxxxxxxxxxxxxxxxxxxxxxxxx"
            },
            "lblDocName2": {
                "@class": "com.viz.ide.model.segment.SimpleTextSegmentData",
                "text": "Platinum card.pdf"
            },
            "lblDocName3": {
                "@class": "com.viz.ide.model.segment.SimpleTextSegmentData",
                "text": "Platinum card.pdf"
            },
            "lblDocName4": {
                "@class": "com.viz.ide.model.segment.SimpleTextSegmentData",
                "text": "Platinum card.pdf"
            },
            "lblDocName5": {
                "@class": "com.viz.ide.model.segment.SimpleTextSegmentData",
                "text": "Platinum card.pdf"
            },
            "lblDummy": {
                "@class": "com.viz.ide.model.segment.SimpleTextSegmentData",
                "text": " "
            },
            "lblRowSeperator": {
                "@class": "com.viz.ide.model.segment.SimpleTextSegmentData",
                "text": ""
            },
            "lblShowAll": {
                "@class": "com.viz.ide.model.segment.SimpleTextSegmentData",
                "i18nkey": "i18n.Notifications&Messages.ShowAll",
                "text": "Platinum card.pdf"
            },
            "lblSize1": {
                "@class": "com.viz.ide.model.segment.SimpleTextSegmentData",
                "text": "(54KB)"
            },
            "lblSize2": {
                "@class": "com.viz.ide.model.segment.SimpleTextSegmentData",
                "text": "(54KB)"
            },
            "lblSize3": {
                "@class": "com.viz.ide.model.segment.SimpleTextSegmentData",
                "text": "(54KB)"
            },
            "lblSize4": {
                "@class": "com.viz.ide.model.segment.SimpleTextSegmentData",
                "text": "(54KB)"
            },
            "lblSize5": {
                "@class": "com.viz.ide.model.segment.SimpleTextSegmentData",
                "text": "(54KB)"
            },
            "lblUser": {
                "@class": "com.viz.ide.model.segment.SimpleTextSegmentData",
                "text": "Kony_Bank"
            },
            "rtxMessage": {
                "@class": "com.viz.ide.model.segment.SimpleTextSegmentData",
                "text": "Hi! You are our priviledged customer. Renew your account by simply\nClickable link to be provided here.Hi! You are our priviledged customer. Renew your account by simply\nClickable link to be provided here."
            }
        }
    ],
    "_height_": {
        "type": "ref",
        "value": "preferred"
    },
    "_indicator_": "none",
    "_left_": {
        "type": "string",
        "value": "0dp"
    },
    "_margin_": [
        0,
        0,
        0,
        0
    ],
    "_orientation_": 2,
    "_padding_": [
        0,
        0,
        0,
        0
    ],
    "_top_": {
        "type": "string",
        "value": "10dp"
    },
    "_width_": {
        "type": "string",
        "value": "100%"
    },
    "autogrowmode": 1,
    "canUpdateUI": true,
    "containerweight": 100,
    "counter": "02",
    "focusedindex": null,
    "focuseditem": null,
    "groupcells": false,
    "hasSections": false,
    "id": "segDeletedMessages",
    "info": null,
    "ipad": {
        "psp": {
            "indicator": "rowselect"
        }
    },
    "iphone": {
        "psp": {
            "indicator": "rowselect"
        }
    },
    "iscustomlayout": false,
    "isvisible": true,
    "kuid": "d551245844c74185957e52618145ae87",
    "masterdata": {},
    "name": "kony.ui.SegmentedUI2",
    "needpageindicator": true,
    "pageoffdotimage": "pageoffdot.png",
    "pageondotimage": "pageondot.png",
    "paginationconfig": {
        "position": "bottom"
    },
    "parent": "flxDeletedMessageDetails",
    "pf": "frmMessgaeDetailsMobile",
    "retaincontentalignment": false,
    "retainflexpositionproperties": false,
    "retainselection": false,
    "rowTemplateId": "ded88bcf0d3a4c9f99866e6c231c6a83",
    "rowcounter": 2,
    "rowfocusskin": "s0f9bf3c1b3e4a7bb6bf9fd18b0211f2",
    "rowskin": "scf5f90f6ac04976ab88b2a4f7153285",
    "rowtemplate": "flxMessagesLeft",
    "screenlevelwidget": false,
    "seccounter": 0,
    "sectionheaderskin": "sdc4ff4ed1584272be2ae69045dfb29d",
    "selectedRows": null,
    "selectedState": false,
    "selectedindex": null,
    "selectedindices": null,
    "selecteditems": null,
    "selectedsectionindex": 0,
    "selectionbehavior": "default",
    "separatorrequired": false,
    "showscrollbars": false,
    "viewtype": "tableview",
    "vizProps": {},
    "wType": "Segment",
    "widgetalignment": 5,
    "widgetdatamap": {
        "flxAttachmentName1": "flxAttachmentName1",
        "flxAttachmentName2": "flxAttachmentName2",
        "flxAttachmentName3": "flxAttachmentName3",
        "flxAttachmentName4": "flxAttachmentName4",
        "flxAttachmentName5": "flxAttachmentName5",
        "flxDocAttachment1": "flxDocAttachment1",
        "flxDocAttachment2": "flxDocAttachment2",
        "flxDocAttachment3": "flxDocAttachment3",
        "flxDocAttachment4": "flxDocAttachment4",
        "flxDocAttachment5": "flxDocAttachment5",
        "flxDownloadAttachment1": "flxDownloadAttachment1",
        "flxDownloadAttachment2": "flxDownloadAttachment2",
        "flxDownloadAttachment3": "flxDownloadAttachment3",
        "flxDownloadAttachment4": "flxDownloadAttachment4",
        "flxDownloadAttachment5": "flxDownloadAttachment5",
        "flxDummy": "flxDummy",
        "flxMessage": "flxMessage",
        "flxMessagesLeft": "flxMessagesLeft",
        "flxNameDate": "flxNameDate",
        "flxRemoveAttachment1": "flxRemoveAttachment1",
        "flxRemoveAttachment2": "flxRemoveAttachment2",
        "flxRemoveAttachment3": "flxRemoveAttachment3",
        "flxRemoveAttachment4": "flxRemoveAttachment4",
        "flxRemoveAttachment5": "flxRemoveAttachment5",
        "flxSeparator2": "flxSeparator2",
        "flxVerticalMiniSeparator1": "flxVerticalMiniSeparator1",
        "flxVerticalMiniSeparator2": "flxVerticalMiniSeparator2",
        "flxVerticalMiniSeparator3": "flxVerticalMiniSeparator3",
        "flxVerticalMiniSeparator4": "flxVerticalMiniSeparator4",
        "flxVerticalMiniSeparator5": "flxVerticalMiniSeparator5",
        "imgDownloadAttachment1": "imgDownloadAttachment1",
        "imgDownloadAttachment2": "imgDownloadAttachment2",
        "imgDownloadAttachment3": "imgDownloadAttachment3",
        "imgDownloadAttachment4": "imgDownloadAttachment4",
        "imgDownloadAttachment5": "imgDownloadAttachment5",
        "imgPDF1": "imgPDF1",
        "imgPDF2": "imgPDF2",
        "imgPDF3": "imgPDF3",
        "imgPDF4": "imgPDF4",
        "imgPDF5": "imgPDF5",
        "imgRemoveAttachment1": "imgRemoveAttachment1",
        "imgRemoveAttachment2": "imgRemoveAttachment2",
        "imgRemoveAttachment3": "imgRemoveAttachment3",
        "imgRemoveAttachment4": "imgRemoveAttachment4",
        "imgRemoveAttachment5": "imgRemoveAttachment5",
        "imgToolTip": "imgToolTip",
        "imgUser": "imgUser",
        "lblDate": "lblDate",
        "lblDocName1": "lblDocName1",
        "lblDocName2": "lblDocName2",
        "lblDocName3": "lblDocName3",
        "lblDocName4": "lblDocName4",
        "lblDocName5": "lblDocName5",
        "lblDummy": "lblDummy",
        "lblRowSeperator": "lblRowSeperator",
        "lblShowAll": "lblShowAll",
        "lblSize1": "lblSize1",
        "lblSize2": "lblSize2",
        "lblSize3": "lblSize3",
        "lblSize4": "lblSize4",
        "lblSize5": "lblSize5",
        "lblUser": "lblUser",
        "rtxMessage": "rtxMessage"
    },
    "zindex": 1
}