{
	 "@class": "com.kony.gen.viz.model.component.KVizImage2",
	 "DNDConfig": null,
	 "__parentReadjusting__": false,
	 "_base64_": null,
	 "_height_": {
		 "type": "string",
		 "value": "25dp"
	},
	 "_left_": {
		 "type": "string",
		 "value": "17.50%"
	},
	 "_margin_": [
		 0,
		 0,
		 0,
		 0
	],
	 "_padding_": [
		 0,
		 0,
		 0,
		 0
	],
	 "_skin_": "s78a5f26c9f14cec9ebed1bb46098f80",
	 "_src_": "info_grey.png",
	 "_top_": {
		 "type": "string",
		 "value": "0dp"
	},
	 "_width_": {
		 "type": "string",
		 "value": "25dp"
	},
	 "canUpdateUI": true,
	 "containerweight": 100,
	 "context": {
		 "channel": "desktop",
		 "formID": "uwafabae3ee08a42ceb378ac563fb0a18c",
		 "platform": "desktopweb",
		 "templateType": "userwidgets",
		 "topLevelBox": null
	},
	 "id": "imgInfo",
	 "imagescalemode": 1,
	 "info": null,
	 "isvisible": false,
	 "kuid": "ae93d6fc38cc4972b98b77b64c0f6284",
	 "name": "kony.ui.Image2",
	 "parent": "flxAddFeatureRequest",
	 "pf": "userwidgetmodel",
	 "srcType": 1,
	 "wType": "Image",
	 "widgetalignment": 5,
	 "zindex": 5,
	 "accessibilityconfig": {
		 "a11yLabel": "Info",
		 "a11yValue": ""
	}
}