{
    "DNDConfig": null,
    "__parentReadjusting__": false,
    "_height_": {
        "type": "string",
        "value": "90%"
    },
    "_margin_": [
        0,
        0,
        0,
        0
    ],
    "_orientation_": 6,
    "_padding_": [
        0,
        0,
        0,
        0
    ],
    "_percent_": true,
    "_right_": {
        "type": "string",
        "value": "0%"
    },
    "_skin_": "s6cd32362a7945fd82243b7478a90ee8",
    "_top_": {
        "type": "string",
        "value": "0dp"
    },
    "_width_": {
        "type": "string",
        "value": "70%"
    },
    "allboxes": [],
    "autogrowmode": 0,
    "canUpdateUI": true,
    "centery": {
        "type": "string",
        "value": "50%"
    },
    "children": [
        "btnPrint",
        "btnRepeat",
        "btnDisputeTransaction",
        "btnDownload",
        "lblDisputedWarning",
        "btnViewRequests",
        "imgError"
    ],
    "clipbounds": false,
    "containerId": true,
    "containerweight": 100,
    "enablescrolling": true,
    "id": "flxActionsWrapper",
    "info": null,
    "isvisible": true,
    "kuid": "ide1d1bddf494fb7a911a13b85d04fb3",
    "layouttype": 4,
    "name": "kony.ui.FlexContainer",
    "parent": "flxActions",
    "pf": "segTransactionsRowSelectedSavings",
    "snapgridsize": 10,
    "snaptogrid": true,
    "wType": "FlexContainer",
    "widgetalignment": 1,
    "zindex": 1
}