{
    "@class": "com.kony.gen.viz.model.component.KVizLabel",
    "DNDConfig": null,
    "_height_": {
        "type": "ref",
        "value": "preferred"
    },
    "_left_": {
        "type": "string",
        "value": "0dp"
    },
    "_margin_": [
        1,
        1,
        1,
        1
    ],
    "_padding_": [
        0,
        0,
        0,
        0
    ],
    "_skin_": "s46c6ec6d8d94d48b53af15aec144ca9",
    "_text_": "Label",
    "_top_": {
        "type": "string",
        "value": "10dp"
    },
    "_width_": {
        "type": "ref",
        "value": "preferred"
    },
    "_wrapping_": 2,
    "android": {
        "textStyle": {
            "letterSpacing": 0,
            "strikeThrough": false
        }
    },
    "canUpdateUI": true,
    "containerweight": 100,
    "contentalignment": 4,
    "id": "lblDefaultAccountDeposit",
    "info": null,
    "ipad": {
        "psp": {
            "wrapping": 2
        }
    },
    "iphone": {
        "psp": {
            "wrapping": 2
        }
    },
    "iscustomlayout": false,
    "isvisible": true,
    "kuid": "b1acf624378d4201afa5e9c8b94177de",
    "name": "kony.ui.Label",
    "parent": "flxinfogroup1",
    "pf": "frmP2PSettingsReview",
    "retaincontentalignment": false,
    "retainflexpositionproperties": false,
    "texti18n": "i18n.PayPerson.defaultAccountForDeposit",
    "tooltip": "",
    "wType": "Label",
    "zindex": 1
}