{
    "@class": "com.kony.gen.viz.model.component.KVizLabel",
    "DNDConfig": null,
    "_height_": {
        "type": "ref",
        "value": "preferred"
    },
    "_left_": {
        "type": "string",
        "value": "0dp"
    },
    "_margin_": [
        1,
        1,
        1,
        1
    ],
    "_padding_": [
        0,
        0,
        0,
        0
    ],
    "_skin_": "s575c3b3144e40cf911f587474d3ad72",
    "_text_": "Label",
    "_top_": {
        "type": "string",
        "value": "10dp"
    },
    "_width_": {
        "type": "ref",
        "value": "preferred"
    },
    "_wrapping_": 2,
    "android": {
        "textStyle": {
            "letterSpacing": 0,
            "strikeThrough": false
        }
    },
    "canUpdateUI": true,
    "containerweight": 100,
    "contentalignment": 4,
    "id": "lblRegisteredPhoneValue",
    "info": null,
    "ipad": {
        "psp": {
            "wrapping": 2
        }
    },
    "iphone": {
        "psp": {
            "wrapping": 2
        }
    },
    "iscustomlayout": false,
    "isvisible": true,
    "kuid": "d63200658ae74d7385b8592df8e99399",
    "name": "kony.ui.Label",
    "parent": "flxRegisteredPhone",
    "pf": "frmP2PSettingsReview",
    "responsiveData": {
        "b1": {
            "left": {
                "type": "string",
                "value": "23%"
            }
        },
        "b2": {
            "left": {
                "type": "string",
                "value": "40%"
            }
        },
        "b3": {
            "top": {
                "type": "string",
                "value": "35dp"
            },
            "width": {
                "type": "string",
                "value": "94%"
            }
        },
        "b4": {
            "left": {
                "type": "string",
                "value": "23%"
            }
        }
    },
    "retaincontentalignment": false,
    "retainflexpositionproperties": false,
    "tooltip": "",
    "wType": "Label",
    "zindex": 1
}