{
    "@class": "com.kony.gen.viz.model.component.KVizImage2",
    "DNDConfig": null,
    "_base64_": null,
    "_height_": {
        "type": "string",
        "value": "15px"
    },
    "_margin_": [
        0,
        0,
        0,
        0
    ],
    "_padding_": [
        0,
        0,
        0,
        0
    ],
    "_skin_": "s78a5f26c9f14cec9ebed1bb46098f80",
    "_src_": "arrow_up.png",
    "_width_": {
        "type": "string",
        "value": "15px"
    },
    "accessibilityconfig": {
        "a11yLabel": "Section Dropdown",
        "a11yValue": ""
    },
    "canUpdateUI": true,
    "centerx": {
        "type": "string",
        "value": "50%"
    },
    "centery": {
        "type": "string",
        "value": "50%"
    },
    "containerId": true,
    "containerweight": 100,
    "id": "imgRowSelected",
    "imagescalemode": 1,
    "imagewhiledownloading": "img_transparent.png",
    "info": null,
    "invokedProperty": "src",
    "isvisible": true,
    "kuid": "h17ee120a9df4e55b9c92a002017a446",
    "name": "kony.ui.Image2",
    "parent": "flxDropdown",
    "pf": "segSendRequestSelectedMobileP2P",
    "srcType": 1,
    "tooltip": "Hide Transaction Details",
    "wType": "Image",
    "widgetalignment": 5,
    "zindex": 1
}