{
    "@class": "com.kony.gen.viz.model.component.KVizButton",
    "DNDConfig": null,
    "_height_": {
        "type": "string",
        "value": "100%"
    },
    "_left_": {
        "type": "string",
        "value": "0dp"
    },
    "_margin_": [
        6,
        6,
        6,
        6
    ],
    "_padding_": [
        2,
        0,
        2,
        0
    ],
    "_right_": {
        "type": "string",
        "value": "0.80%"
    },
    "_skin_": "s7c03a67da7f437395974eb07e972971",
    "_text_": "Tab6",
    "_top_": {
        "type": "string",
        "value": "0dp"
    },
    "_width_": {
        "type": "ref",
        "value": "preferred"
    },
    "canUpdateUI": true,
    "centery": {
        "type": "string",
        "value": "50%"
    },
    "containerweight": 100,
    "contentalignment": 5,
    "displaytext": true,
    "focusskin": "s7c03a67da7f437395974eb07e972971",
    "id": "btnTab6",
    "ide_onClick": "AS_Button_dfc4b13c20b14ef2b7f6b7d8f6dba4b7",
    "info": null,
    "iscustomlayout": false,
    "isvisible": true,
    "kuid": "g628c95171f44d478ee4d4f795b39b3d",
    "name": "kony.ui.Button",
    "parent": "TabsHeaderNew",
    "pf": "userwidgetmodel",
    "retaincontentalignment": false,
    "retainflexpositionproperties": false,
    "wType": "Button",
    "zindex": 1
}