{
    "DNDConfig": null,
    "__parentReadjusting__": false,
    "_height_": {
        "type": "string",
        "value": "53dp"
    },
    "_left_": {
        "type": "string",
        "value": "0dp"
    },
    "_margin_": [
        0,
        0,
        0,
        0
    ],
    "_orientation_": 6,
    "_padding_": [
        0,
        0,
        0,
        0
    ],
    "_percent_": true,
    "_skin_": "sba5a7627a5d4fa3befc93e669f0f2b0",
    "_top_": {
        "type": "string",
        "value": "0dp"
    },
    "_width_": {
        "type": "string",
        "value": "100%"
    },
    "allboxes": [],
    "allowhorizontalbounce": false,
    "allowverticalbounce": true,
    "bounces": true,
    "canUpdateUI": true,
    "children": [
        "btnTab1",
        "btnTab2",
        "btnTab3",
        "btnTab4",
        "btnTab5",
        "btnTab6"
    ],
    "clipbounds": true,
    "containerweight": 100,
    "decelerat": false,
    "dragg": false,
    "enablescrolling": true,
    "horizontalscrollindicator": true,
    "id": "TabsHeaderNew",
    "ide_preShow": "AS_FlexScrollContainer_c54138f7252541e0a148d21f513dca54",
    "info": null,
    "iscustomlayout": false,
    "isvisible": true,
    "kuid": "c1df3f4349e245ceb11b7679369987ac",
    "layouttype": 3,
    "name": "kony.ui.FlexScrollContainer",
    "pagingenabled": false,
    "parent": "userwidgetmodel",
    "pf": "userwidgetmodel",
    "retaincontentalignment": false,
    "retainflexpositionproperties": false,
    "scrolldirection": 2,
    "snapgridsize": 10,
    "snaptogrid": true,
    "track": false,
    "verticalscrollindicator": true,
    "vizProps": {
        "hidewidgethierarchy": false
    },
    "wType": "FlexScrollContainer",
    "widgetalignment": 1,
    "zindex": 1
}