{
    "@class": "com.kony.gen.viz.model.component.KVizButton",
    "DNDConfig": null,
    "__parentReadjusting__": false,
    "_height_": {
        "type": "string",
        "value": "40dp"
    },
    "_left_": {
        "type": "number",
        "value": "0"
    },
    "_margin_": [
        6,
        6,
        6,
        6
    ],
    "_padding_": [
        0,
        0,
        0,
        0
    ],
    "_right_": {
        "type": "string",
        "value": "44.20%"
    },
    "_skin_": "s4fe0674a3c84b76a21524a90bad4282",
    "_text_": "",
    "_top_": {
        "type": "number",
        "value": ""
    },
    "_width_": {
        "type": "string",
        "value": "48.20%"
    },
    "accessibilityconfig": {
        "a11yLabel": "Transfer Money"
    },
    "canUpdateUI": true,
    "centery": {
        "type": "string",
        "value": "50%"
    },
    "containerweight": 100,
    "contentalignment": 5,
    "desktopweb": {
        "psp": {
            "hoverSkin": "s81054b5e2b74f17a5261991df565427"
        }
    },
    "displaytext": true,
    "focusskin": "s5a4f67acd3e47b9be6d6910a7a6686f",
    "id": "btnMakeTransfer",
    "ide_onClick": "AS_Button_f3c813bc89944fe69b18cd06f4b6eede",
    "info": null,
    "isvisible": true,
    "kuid": "fb04b4cb40aa41bda126e7421f1a953b",
    "name": "kony.ui.Button",
    "parent": "flxAcknowledgeActions",
    "pf": "frmVerifyAccount",
    "responsiveData": {
        "b2": {
            "left": {
                "type": "string",
                "value": "42%"
            },
            "right": {
                "type": "string",
                "value": ""
            },
            "width": {
                "type": "string",
                "value": "27.60%"
            }
        },
        "b3": {
            "centerY": {
                "type": "string",
                "value": ""
            },
            "left": {
                "type": "string",
                "value": "0%"
            },
            "right": {
                "type": "string",
                "value": "0%"
            },
            "top": {
                "type": "string",
                "value": "20dp"
            },
            "width": {
                "type": "string",
                "value": "100%"
            }
        }
    },
    "texti18n": "i18n.billPay.BillPayMakeTransfer",
    "tooltip": "MAKE TRANSFER",
    "wType": "Button",
    "zindex": 1
}