{
    "@class": "com.kony.gen.viz.model.component.KVizUserWidget",
    "DNDConfig": null,
    "__parentReadjusting__": false,
    "_android_": {},
    "_androidwearos_": {},
    "_children_": [],
    "_desktopweb_": {},
    "_height_": {
        "type": "string",
        "value": "410px"
    },
    "_ipad_": {},
    "_iphone_": {},
    "_kiosk_": {},
    "_left_": {
        "type": "string",
        "value": "0dp"
    },
    "_margin_": [
        0,
        0,
        0,
        0
    ],
    "_orientation_": 1,
    "_padding_": [
        0,
        0,
        0,
        0
    ],
    "_percent_": true,
    "_render_": true,
    "_responsiveData_": {
        "b3": {}
    },
    "_skin_": "s4b3bfcb27c14526bcdce6dec3972d8d",
    "_spa_": {},
    "_spaan_": {},
    "_spaandroidtablet_": {},
    "_spabb_": {},
    "_spaip_": {},
    "_spaipad_": {},
    "_spamobile_": {},
    "_spatablet_": {},
    "_spawindowstablet_": {},
    "_spawinphone8_": {},
    "_tabrcandroid_": {},
    "_top_": {
        "type": "string",
        "value": "0dp"
    },
    "_vizProps_": {
        "hidewidgethierarchy": false
    },
    "_width_": {
        "type": "string",
        "value": "100%"
    },
    "_windows10_": {},
    "_windows8_": {},
    "_winphone10_": {},
    "_winphone8_": {},
    "areflexpropsreferenced": false,
    "canUpdateUI": true,
    "clipbounds": true,
    "containerweight": 0,
    "dataDiffs": {
        "FlexContainer0b1276e9df29f47": {
            "__events__": {},
            "__info__": {
                "kuid": "dc9c61b650cb47048df90a52c6afe81d",
                "srcKUID": "aa044766863f44afafa21103f655a7c6",
                "wType": "FlexContainer"
            }
        },
        "Label0bf3401c4b9de45": {
            "__events__": {},
            "__info__": {
                "kuid": "a2b8deab0d884bc8813f6d43e0e86cf8",
                "srcKUID": "c963ed0fa8d54dfc89d4042bb1cfee64",
                "wType": "Label"
            },
            "i18n_text": "i18n.VerifyAccount.VerifyByBankAccountTC"
        },
        "flxBabkCredentials": {
            "__events__": {},
            "__info__": {
                "kuid": "bde404f2cca443618696615783c012b1",
                "srcKUID": "f43bf0c76ca34d63b2fd4e6528f5a2b5",
                "wType": "FlexContainer"
            },
            "left": {
                "Default": {
                    "type": "string",
                    "value": "20.80%"
                }
            },
            "responsiveData": {
                "b3": {
                    "width": {
                        "type": "string",
                        "value": "62%"
                    }
                }
            },
            "width": {}
        },
        "flxBankTrailDeposits": {
            "__events__": {},
            "__info__": {
                "kuid": "h3ea3a950d864f31b7648b89bfab19f7",
                "srcKUID": "g6b0880dc8754072b14544e3fbda1371",
                "wType": "FlexContainer"
            },
            "responsiveData": {
                "b3": {
                    "width": {
                        "type": "string",
                        "value": "62%"
                    }
                }
            },
            "width": {}
        },
        "flxHeader": {
            "__events__": {},
            "__info__": {
                "kuid": "i94f3a2f3d8e41449112481b2d06889b",
                "srcKUID": "f9b0656badab49dbb1c8b74e5ac7661d",
                "wType": "FlexContainer"
            }
        },
        "flxSeperator": {
            "__events__": {},
            "__info__": {
                "kuid": "fe847424ac054ee997b3db6d986e35de",
                "srcKUID": "ebad4efe6da44b928d5120590ebdd06a",
                "wType": "FlexContainer"
            }
        },
        "lblBankCredentials": {
            "__events__": {},
            "__info__": {
                "kuid": "bfac607ccf8b475d92474bbbb6371fe2",
                "srcKUID": "b3aaf9063f864cf6a4ae6d9c9b28577e",
                "wType": "Label"
            },
            "responsiveData": {
                "b3": {
                    "width": {
                        "type": "string",
                        "value": "90%"
                    }
                }
            },
            "width": {}
        },
        "lblBankTrailDeposits": {
            "__events__": {},
            "__info__": {
                "kuid": "d706991308a34d0485568a5996f2f437",
                "srcKUID": "bc6d4e7027924e7bb06f359a82e6a64b",
                "wType": "Label"
            },
            "responsiveData": {
                "b3": {
                    "width": {
                        "type": "string",
                        "value": "90%"
                    }
                }
            },
            "width": {}
        },
        "lblHeading": {
            "__events__": {},
            "__info__": {
                "kuid": "g4551457669343a79b1e0451f118ed55",
                "srcKUID": "ee55089c77504fb9a5a675ee4b3bce18",
                "wType": "Label"
            }
        },
        "lblRadioType1": {
            "__events__": {
                "ide_onTouchEnd": "AS_Label_bb051568637b44f7b01c079c19d2cefa"
            },
            "__info__": {
                "kuid": "e23c3e44f9ce49b28929b6c164c294c2",
                "srcKUID": "beb92530d15e48cd9f770322e3101501",
                "wType": "Label"
            },
            "left": {
                "Default": {
                    "type": "string",
                    "value": "0dp"
                }
            },
            "responsiveData": {},
            "top": {
                "Default": {
                    "type": "string",
                    "value": "2dp"
                }
            },
            "width": {
                "Default": {
                    "type": "string",
                    "value": "22dp"
                }
            }
        },
        "lblRadioType2": {
            "__events__": {
                "ide_onTouchEnd": "AS_Label_bc8ec096a97d4fa8864e233e441c5bbb"
            },
            "__info__": {
                "kuid": "gdd7e4eed0f9445fa7a1ba8ac0ecdf52",
                "srcKUID": "e0370771a2a74963b76c00cfbb2e282c",
                "wType": "Label"
            },
            "responsiveData": {},
            "width": {
                "Default": {
                    "type": "string",
                    "value": "22dp"
                }
            }
        },
        "orline": {
            "__events__": {},
            "__info__": {
                "kuid": "ifc60d5f8b3e41aeb241f21af7fe4156",
                "srcKUID": "bfaff5362e394516be251eb89650173f",
                "wType": "UserWidgetInstance"
            },
            "isVisible": true
        },
        "orline.imgOr": {
            "__events__": {},
            "__info__": {
                "kuid": "c3287bd38b6b49a897dc257d8167446a",
                "srcKUID": "d82c06fa5cf84f02895f2175cd152ae8",
                "wType": "Image"
            },
            "src": "or_circle.png"
        },
        "orline.lblCrossOr": {
            "__events__": {},
            "__info__": {
                "kuid": "ge6e1ba09f3346d3b91e9120e78b3a22",
                "srcKUID": "h2846c1d599841fda371fa8de4a4bb6a",
                "wType": "Label"
            }
        },
        "rbtVerifyBankCredential": {
            "__events__": {
                "ide_onSelection": "AS_RadioButtonGroup_i077d13867974af5a2257dff13d26461"
            },
            "__info__": {
                "kuid": "fa03bbb72b09406c8e7794e2518600a0",
                "srcKUID": "h8fd3ac6b9d64d3eb237177dc6576622",
                "wType": "RadioButtonGroup"
            },
            "isVisible": true,
            "masterData": [
                [
                    "rbg1",
                    "Radiobutton One",
                    "i18n.VerifyAccount.VerifyByBankAccountBtn1"
                ]
            ],
            "selectedKey": "rbg1",
            "width": {
                "Default": {
                    "type": "string",
                    "value": "70%"
                }
            }
        },
        "rbtVerifyByDeposits": {
            "__events__": {
                "ide_onSelection": "AS_RadioButtonGroup_h2da6337379e4989af06c18b2a3b5223"
            },
            "__info__": {
                "kuid": "f7551aea254145279b0ba027a3651c8c",
                "srcKUID": "j428403e8da44d36b5a9a98b3bb6624e",
                "wType": "RadioButtonGroup"
            },
            "masterData": [
                [
                    "rbg1",
                    "Radiobutton One",
                    "i18n.VerifyAccount.VerifyByBankAccountBtn2"
                ]
            ],
            "selectedKey": "rbg1",
            "width": {
                "Default": {
                    "type": "string",
                    "value": "65%"
                }
            }
        },
        "verifyBankAccount": {
            "__events__": {},
            "__info__": {
                "isRoot": true,
                "kuid": "f1406b664bfb4a9b87adc932b6956890",
                "srcKUID": "a528fd11ea934b8092eff753cacbe36a",
                "wType": "FlexContainer"
            },
            "isVisible": false,
            "responsiveData": {
                "b3": {}
            }
        }
    },
    "id": "verifyBankAccount",
    "info": null,
    "isdatareferenced": false,
    "isvisible": false,
    "kuid": "b8fde01343974b48b601794e99f5bfcb",
    "layouttype": 4,
    "masterType": 0,
    "name": "kony.ui.UserWidgetInstance",
    "parent": "FlexContainer0gf34865911e248",
    "pf": "frmVerifyAccount",
    "snaptogrid": true,
    "sourceUserWidget": "a528fd11ea934b8092eff753cacbe36a",
    "vizprops": {
        "hidewidgethierarchy": false
    },
    "wType": "UserWidgetInstance"
}