{
    "@class": "com.kony.gen.viz.model.component.KVizUserWidget",
    "DNDConfig": null,
    "__parentReadjusting__": false,
    "_android_": {},
    "_androidwearos_": {},
    "_children_": [],
    "_desktopweb_": {},
    "_height_": {
        "type": "string",
        "value": "410dp"
    },
    "_ipad_": {},
    "_iphone_": {},
    "_kiosk_": {},
    "_left_": {
        "type": "string",
        "value": "0dp"
    },
    "_margin_": [
        0,
        0,
        0,
        0
    ],
    "_orientation_": 1,
    "_padding_": [
        0,
        0,
        0,
        0
    ],
    "_percent_": true,
    "_render_": true,
    "_responsiveData_": {
        "b3": {
            "height": {
                "type": "ref",
                "value": "preferred"
            }
        },
        "b4": {
            "height": {
                "type": "ref",
                "value": "preferred"
            }
        }
    },
    "_skin_": "s4b3bfcb27c14526bcdce6dec3972d8d",
    "_spa_": {},
    "_spaan_": {},
    "_spaandroidtablet_": {},
    "_spabb_": {},
    "_spaip_": {},
    "_spaipad_": {},
    "_spamobile_": {},
    "_spatablet_": {},
    "_spawindowstablet_": {},
    "_spawinphone8_": {},
    "_tabrcandroid_": {},
    "_top_": {
        "type": "string",
        "value": "0dp"
    },
    "_vizProps_": {
        "hidewidgethierarchy": false
    },
    "_width_": {
        "type": "string",
        "value": "100%"
    },
    "_windows10_": {},
    "_windows8_": {},
    "_winphone10_": {},
    "_winphone8_": {},
    "areflexpropsreferenced": false,
    "canUpdateUI": true,
    "clipbounds": true,
    "containerweight": 0,
    "dataDiffs": {
        "CopyflxWarning0h5850664f5724c": {
            "__events__": {},
            "__info__": {
                "kuid": "hb321fa7f8444ee69746ddaef7849774",
                "srcKUID": "c5530350acbc4fa28a4a3bc55945eefb",
                "wType": "FlexContainer"
            }
        },
        "Label0f96e5b8496f040": {
            "__events__": {},
            "__info__": {
                "kuid": "fc77d7d2ab84406bba87482d8bcaa986",
                "srcKUID": "d4d045d9f0eb433fa3a01c1c7981615d",
                "wType": "Label"
            },
            "left": {},
            "responsiveData": {
                "b3": {
                    "isVisible": true,
                    "left": {
                        "type": "string",
                        "value": "2%"
                    },
                    "width": {
                        "type": "string",
                        "value": "96%"
                    }
                }
            },
            "top": {
                "Default": {
                    "type": "string",
                    "value": "15dp"
                }
            },
            "width": {}
        },
        "btnTermsAndConditions": {
            "__events__": {},
            "__info__": {
                "kuid": "g26ecd6c491749cf871d1befb0c9da0b",
                "srcKUID": "j27b0b61525b4f0ca8626b5618ac51de",
                "wType": "Button"
            }
        },
        "flxCheckbox": {
            "__events__": {},
            "__info__": {
                "kuid": "eb72eb29c91a4930aae400af6e4ca637",
                "srcKUID": "iabd6377840147c6a4553b3e44870f2f",
                "wType": "FlexContainer"
            }
        },
        "flxHeader": {
            "__events__": {},
            "__info__": {
                "kuid": "c114914c0b93443d90166808eb55e8d5",
                "srcKUID": "804066e776134aae9e092ef3a89553fe",
                "wType": "FlexContainer"
            }
        },
        "flxIAgree": {
            "__events__": {},
            "__info__": {
                "kuid": "d07198276ba74a368bea6c1d31bbe62a",
                "srcKUID": "fe897e3d447e4bdf9974aa523c885e71",
                "wType": "FlexContainer"
            }
        },
        "flxMain": {
            "__events__": {},
            "__info__": {
                "kuid": "d2ef91c4ddf24a56ac6775a8ba21716c",
                "srcKUID": "dc603711150f4d6fb368f2e7b30f7457",
                "wType": "FlexContainer"
            },
            "left": {
                "Default": {
                    "type": "string",
                    "value": "0dp"
                }
            },
            "top": {
                "Default": {
                    "type": "string",
                    "value": "0dp"
                }
            }
        },
        "flxPassword": {
            "__events__": {},
            "__info__": {
                "kuid": "b03023467d4840f5aadacf66839218ea",
                "srcKUID": "b85c2a59f7064cfa9c635f0310eb2753",
                "wType": "FlexContainer"
            },
            "autogrowMode": {
                "Default": 0
            },
            "height": {},
            "responsiveData": {
                "b3": {
                    "height": {
                        "type": "string",
                        "value": "80dp"
                    }
                }
            }
        },
        "flxSeperator": {
            "__events__": {},
            "__info__": {
                "kuid": "a1e5e13a7bc7401baa326347191b4ac7",
                "srcKUID": "d6088fd2d3e1437e92fdedfdacf7e1f7",
                "wType": "FlexContainer"
            }
        },
        "flxUsername": {
            "__events__": {},
            "__info__": {
                "kuid": "aa4fe1eb6d8c491f84f5abe2440a1cf6",
                "srcKUID": "fe84d726187a446aaec39a6062ab0db7",
                "wType": "FlexContainer"
            },
            "autogrowMode": {
                "Default": 0
            },
            "height": {},
            "responsiveData": {
                "b3": {
                    "height": {
                        "type": "string",
                        "value": "80dp"
                    }
                }
            }
        },
        "flxWarning": {
            "__events__": {},
            "__info__": {
                "kuid": "af647de48f08414c9d5e09963cd62e4b",
                "srcKUID": "e4c58b96b76f4c5d91ef6179fabc6180",
                "wType": "FlexContainer"
            },
            "left": {},
            "responsiveData": {
                "b3": {
                    "left": {
                        "type": "string",
                        "value": "2%"
                    },
                    "width": {
                        "type": "string",
                        "value": "96%"
                    }
                }
            },
            "width": {}
        },
        "imgChecbox": {
            "__events__": {},
            "__info__": {
                "kuid": "a13d02bf5c3d4591844252958a96b022",
                "srcKUID": "b9bb9687552f402d975e3564b0d8530c",
                "wType": "Image"
            },
            "src": "unchecked_box.png"
        },
        "imgWarning": {
            "__events__": {},
            "__info__": {
                "kuid": "i2b504869dff4d10a5409ec40e65f873",
                "srcKUID": "e6b81f8766644bfd804e390fff4f7061",
                "wType": "Image"
            },
            "src": "error_yellow.png"
        },
        "lblAgree": {
            "__events__": {},
            "__info__": {
                "kuid": "d520376d09464cb28b55647d88e288f0",
                "srcKUID": "id536b6f86ee4a089be9d1752974667c",
                "wType": "Label"
            },
            "responsiveData": {
                "b3": {}
            },
            "text": "I agree to the"
        },
        "lblChecbox": {
            "__events__": {},
            "__info__": {
                "kuid": "f2f4e9b6c22e4ce087adcd2166e0bc7e",
                "srcKUID": "a6f2a5791bc041c49ec44ba5a6b88064",
                "wType": "Label"
            }
        },
        "lblHeading": {
            "__events__": {},
            "__info__": {
                "kuid": "e1e2ed81843040e0a1336ad53ce44dde",
                "srcKUID": "fa76edf286544ecfa6c5e6560217ff25",
                "wType": "Label"
            },
            "left": {},
            "responsiveData": {
                "b3": {
                    "left": {
                        "type": "string",
                        "value": "2%"
                    },
                    "width": {
                        "type": "string",
                        "value": "96%"
                    }
                }
            },
            "width": {}
        },
        "lblPassword": {
            "__events__": {},
            "__info__": {
                "kuid": "ded8607465724beab9f67de840b8298d",
                "srcKUID": "b3e2d0982a654c54a28bd6c84d3dad1c",
                "wType": "Label"
            },
            "centerY": {},
            "left": {},
            "responsiveData": {
                "b1": {
                    "width": {
                        "type": "string",
                        "value": "32%"
                    }
                },
                "b2": {
                    "width": {
                        "type": "string",
                        "value": "32%"
                    }
                },
                "b3": {
                    "centerY": {
                        "type": "string",
                        "value": ""
                    },
                    "left": {
                        "type": "string",
                        "value": "2%"
                    },
                    "top": {
                        "type": "string",
                        "value": "0dp"
                    },
                    "width": {
                        "type": "string",
                        "value": "96%"
                    }
                },
                "b4": {
                    "width": {
                        "type": "string",
                        "value": "32%"
                    }
                }
            },
            "top": {},
            "width": {}
        },
        "lblPleaseVerifyAccount": {
            "__events__": {},
            "__info__": {
                "kuid": "jf7e49cbfb5347d5a83b006a3f3d22e1",
                "srcKUID": "df532fc7570c47638359af7b07230e05",
                "wType": "Label"
            },
            "i18n_text": "i18n.VerifyAccount.VerifybyBankingCredentials",
            "left": {},
            "responsiveData": {
                "b3": {
                    "left": {
                        "type": "string",
                        "value": "2%"
                    },
                    "width": {
                        "type": "string",
                        "value": "96%"
                    }
                }
            },
            "width": {}
        },
        "lblUsername": {
            "__events__": {},
            "__info__": {
                "kuid": "af838cb91d274066b2958901798bae39",
                "srcKUID": "f6bf8a4416ee4111ba23d165ad59ecea",
                "wType": "Label"
            },
            "centerY": {},
            "left": {},
            "responsiveData": {
                "b1": {
                    "width": {
                        "type": "string",
                        "value": "32%"
                    }
                },
                "b2": {
                    "width": {
                        "type": "string",
                        "value": "32%"
                    }
                },
                "b3": {
                    "centerY": {
                        "type": "string",
                        "value": ""
                    },
                    "left": {
                        "type": "string",
                        "value": "2%"
                    },
                    "top": {
                        "type": "string",
                        "value": "0dp"
                    },
                    "width": {
                        "type": "string",
                        "value": "96%"
                    }
                },
                "b4": {
                    "width": {
                        "type": "string",
                        "value": "32%"
                    }
                }
            },
            "top": {},
            "width": {}
        },
        "rtxWarning": {
            "__events__": {},
            "__info__": {
                "kuid": "b00b4252223f40a398d0d535aae23a6b",
                "srcKUID": "b0ddfa94414f47018add8cffa72c0092",
                "wType": "RichText"
            }
        },
        "tbxPassword": {
            "__events__": {
                "ide_onTextChange": "AS_TextField_ib3741735390451dbd74ded877b18551"
            },
            "__info__": {
                "kuid": "eb4696a22c95424aa2e72e4dd6189e7c",
                "srcKUID": "fe114720313649098894c7303b35c97d",
                "wType": "TextField"
            },
            "left": {},
            "responsiveData": {
                "b1": {
                    "left": {
                        "type": "string",
                        "value": "42%"
                    }
                },
                "b2": {
                    "left": {
                        "type": "string",
                        "value": "42%"
                    }
                },
                "b3": {
                    "left": {
                        "type": "string",
                        "value": "2%"
                    },
                    "right": {
                        "type": "string",
                        "value": "2%"
                    },
                    "top": {
                        "type": "string",
                        "value": "25dp"
                    },
                    "width": {
                        "type": "string",
                        "value": "96%"
                    }
                },
                "b4": {
                    "left": {
                        "type": "string",
                        "value": "42%"
                    }
                }
            },
            "right": {},
            "top": {},
            "width": {}
        },
        "tbxUsername": {
            "__events__": {
                "ide_onTextChange": "AS_TextField_e93c2707b28445b0a93fd5d9e9126bab"
            },
            "__info__": {
                "kuid": "hc7a3bc3e5f14a18a78298f9fdaf4b7a",
                "srcKUID": "d3209f57b94943638ad7b804294c8333",
                "wType": "TextField"
            },
            "left": {},
            "responsiveData": {
                "b1": {
                    "left": {
                        "type": "string",
                        "value": "42%"
                    }
                },
                "b2": {
                    "left": {
                        "type": "string",
                        "value": "42%"
                    }
                },
                "b3": {
                    "left": {
                        "type": "string",
                        "value": "2%"
                    },
                    "right": {
                        "type": "string",
                        "value": ""
                    },
                    "top": {
                        "type": "string",
                        "value": "25dp"
                    },
                    "width": {
                        "type": "string",
                        "value": "96%"
                    }
                },
                "b4": {
                    "left": {
                        "type": "string",
                        "value": "42%"
                    }
                }
            },
            "right": {},
            "top": {},
            "width": {}
        },
        "verifyByCredential": {
            "__events__": {},
            "__info__": {
                "isRoot": true,
                "kuid": "habe71a3dcbb43968f910b8bbc37b948",
                "srcKUID": "9da9601cf8ec4b4c89ee3dda67717dbb",
                "wType": "FlexContainer"
            },
            "autogrowMode": {
                "Default": 1
            },
            "height": {
                "Default": {
                    "type": "string",
                    "value": "410dp"
                }
            },
            "isVisible": false,
            "left": {
                "Default": {
                    "type": "string",
                    "value": "0dp"
                }
            },
            "responsiveData": {
                "b3": {
                    "height": {
                        "type": "ref",
                        "value": "preferred"
                    }
                },
                "b4": {
                    "height": {
                        "type": "ref",
                        "value": "preferred"
                    }
                }
            },
            "top": {
                "Default": {
                    "type": "string",
                    "value": "0dp"
                }
            },
            "zIndex": {
                "Default": 1
            }
        }
    },
    "id": "verifyByCredential",
    "info": null,
    "isdatareferenced": false,
    "isvisible": false,
    "kuid": "hf6758e40fed41848772eb3d82f3ca5f",
    "layouttype": 4,
    "masterType": 0,
    "name": "kony.ui.UserWidgetInstance",
    "parent": "FlexContainer0gf34865911e248",
    "pf": "frmVerifyAccount",
    "snapgridsize": 10,
    "snaptogrid": true,
    "sourceUserWidget": "9da9601cf8ec4b4c89ee3dda67717dbb",
    "vizprops": {
        "hidewidgethierarchy": false
    },
    "wType": "UserWidgetInstance",
    "zindex": 1
}