{
    "@class": "com.kony.gen.viz.model.component.KVizUserWidget",
    "DNDConfig": null,
    "__parentReadjusting__": false,
    "_children_": [],
    "_height_": {
        "type": "ref",
        "value": "preferred"
    },
    "_left_": {
        "type": "string",
        "value": "0dp"
    },
    "_margin_": [
        0,
        0,
        0,
        0
    ],
    "_orientation_": 1,
    "_padding_": [
        0,
        0,
        0,
        0
    ],
    "_percent_": true,
    "_render_": true,
    "_skin_": "scbd4cac3526468089bf3013adff0549",
    "_top_": {
        "type": "string",
        "value": "0dp"
    },
    "_width_": {
        "type": "string",
        "value": "100%"
    },
    "areflexpropsreferenced": false,
    "autogrowmode": 1,
    "canUpdateUI": true,
    "clipbounds": false,
    "containerweight": 0,
    "dataDiffs": {
        "AllForms": {
            "__events__": {},
            "__info__": {
                "isRoot": true,
                "kuid": "c23c166216ca4de18db1a967fed074a7",
                "srcKUID": "aef6ac17436948abacbe12ea5a1d5e5b",
                "wType": "FlexContainer"
            },
            "left": {},
            "responsiveData": {
                "b1": {
                    "isVisible": false,
                    "left": {
                        "type": "string",
                        "value": "225dp"
                    },
                    "top": {
                        "type": "string",
                        "value": "382dp"
                    },
                    "width": {
                        "type": "string",
                        "value": "41.93%"
                    }
                },
                "b2": {
                    "isVisible": false,
                    "left": {
                        "type": "string",
                        "value": "51dp"
                    },
                    "top": {
                        "type": "string",
                        "value": "355dp"
                    },
                    "width": {
                        "type": "string",
                        "value": "37.46%"
                    }
                },
                "b3": {
                    "isVisible": false,
                    "left": {
                        "type": "string",
                        "value": "164dp"
                    },
                    "top": {
                        "type": "string",
                        "value": "346dp"
                    },
                    "width": {
                        "type": "string",
                        "value": "42.28%"
                    }
                },
                "b4": {
                    "isVisible": false,
                    "left": {
                        "type": "string",
                        "value": "48dp"
                    },
                    "top": {
                        "type": "string",
                        "value": "362dp"
                    },
                    "width": {
                        "type": "string",
                        "value": "44.61%"
                    }
                }
            },
            "top": {}
        },
        "RichTextInfo": {
            "__events__": {},
            "__info__": {
                "kuid": "df8c3e11e65741859ff68303c4e81cbc",
                "srcKUID": "i86f020750564f6ba173ce46ea601ab5",
                "wType": "RichText"
            }
        },
        "flxAccountType": {
            "__events__": {},
            "__info__": {
                "kuid": "c6bfdf4c3ad34fe4a18c8489f95bb85d",
                "srcKUID": "ed52287fd449401ba9a5f005c99e3f35",
                "wType": "FlexContainer"
            }
        },
        "flxCross": {
            "__events__": {},
            "__info__": {
                "kuid": "e43c0110bcad405ab7cafa55886d5579",
                "srcKUID": "d452c358ed1445a58e5fdff55685498f",
                "wType": "FlexContainer"
            }
        },
        "flxInformation": {
            "__events__": {},
            "__info__": {
                "kuid": "g54bba1303d94f6eaced683fed098622",
                "srcKUID": "be414255ea60408894eb2a9b719b864e",
                "wType": "FlexContainer"
            }
        },
        "flxInformationText": {
            "__events__": {},
            "__info__": {
                "kuid": "b94ec07231d64f31b560e5dca84cfda0",
                "srcKUID": "fa4dbab87ecf4647a21060118b02bd03",
                "wType": "FlexContainer"
            },
            "responsiveData": {
                "b3": {
                    "isVisible": true
                }
            }
        },
        "imgCross": {
            "__events__": {},
            "__info__": {
                "kuid": "db4a99cdebb14ff39b4823805761b969",
                "srcKUID": "d86a08cea857467eae13f42ed033a771",
                "wType": "Image"
            },
            "responsiveData": {
                "b2": {
                    "src": "bbcloseicon.png"
                },
                "b4": {
                    "src": "bbcloseicon.png"
                }
            },
            "src": "icon_close_grey.png"
        },
        "imgToolTip": {
            "__events__": {},
            "__info__": {
                "kuid": "jc5f8f19add0444d87225b501717a06c",
                "srcKUID": "f9274528aa6b41bfb057f17c510b73b5",
                "wType": "Image"
            },
            "left": {},
            "responsiveData": {
                "b1": {
                    "left": {
                        "type": "string",
                        "value": "5%"
                    }
                },
                "b2": {
                    "left": {
                        "type": "string",
                        "value": "69.10%"
                    }
                },
                "b3": {
                    "left": {
                        "type": "string",
                        "value": "11%"
                    }
                },
                "b4": {
                    "left": {
                        "type": "string",
                        "value": "65%"
                    }
                }
            },
            "src": "tool_tip.png"
        },
        "lblInfo": {
            "__events__": {},
            "__info__": {
                "kuid": "b096f5289c544bf5be0bf417ec505c81",
                "srcKUID": "c6ecc9c129c943b396152e99a30763f6",
                "wType": "Label"
            }
        },
        "lblSeperator": {
            "__events__": {},
            "__info__": {
                "kuid": "deae0929a9bc44c9abb198a36b38c2d3",
                "srcKUID": "f142d5aa44384a3fb94504a874cbbb95",
                "wType": "Label"
            }
        }
    },
    "id": "AllForms",
    "info": null,
    "isdatareferenced": false,
    "isvisible": true,
    "kuid": "b5ee672dc2414bb7ad937e5fa3661699",
    "layouttype": 4,
    "masterType": 0,
    "name": "kony.ui.UserWidgetInstance",
    "parent": "flxVerification",
    "pf": "frmLogin",
    "snaptogrid": true,
    "sourceUserWidget": "aef6ac17436948abacbe12ea5a1d5e5b",
    "vizprops": {
        "hidewidgethierarchy": false
    },
    "wType": "UserWidgetInstance"
}