{
    "@class": "com.kony.gen.viz.model.component.KVizUserWidget",
    "DNDConfig": null,
    "__parentReadjusting__": false,
    "_children_": [],
    "_height_": {
        "type": "string",
        "value": "14%"
    },
    "_left_": {
        "type": "string",
        "value": "0dp"
    },
    "_margin_": [
        0,
        0,
        0,
        0
    ],
    "_orientation_": 1,
    "_padding_": [
        0,
        0,
        0,
        0
    ],
    "_percent_": true,
    "_render_": true,
    "_skin_": "se15a2ce22274d8bafc3956d7d10af30",
    "_top_": {
        "type": "string",
        "value": "8.80%"
    },
    "_width_": {
        "type": "string",
        "value": "85%"
    },
    "areflexpropsreferenced": false,
    "autogrowmode": 0,
    "canUpdateUI": true,
    "centerx": {
        "type": "string",
        "value": "50.00%"
    },
    "clipbounds": false,
    "containerweight": 0,
    "dataDiffs": {
        "AlterneteActions": {
            "__events__": {
                "ide_onTouchStart": "AS_UWI_ed53609c73864a7187559ff06aed44c6"
            },
            "__info__": {
                "isRoot": true,
                "kuid": "if1e209ff8584cafaf22a45b14fcd16c",
                "srcKUID": "ba68e7f06305436fa6ebfcbc05efdfaf",
                "wType": "FlexContainer"
            },
            "autogrowMode": {
                "Default": 0
            },
            "centerX": {},
            "height": {
                "Default": {
                    "type": "string",
                    "value": "14%"
                }
            },
            "responsiveData": {
                "b1": {
                    "centerX": {
                        "type": "string",
                        "value": "50%"
                    },
                    "height": {
                        "type": "string",
                        "value": "60dp"
                    },
                    "right": {
                        "type": "number",
                        "value": "0"
                    },
                    "top": {
                        "type": "string",
                        "value": "0.040000000000000036%"
                    },
                    "width": {
                        "type": "string",
                        "value": "68%"
                    }
                },
                "b2": {
                    "height": {
                        "type": "string",
                        "value": "60dp"
                    },
                    "top": {
                        "type": "string",
                        "value": "2.50%"
                    },
                    "width": {
                        "type": "string",
                        "value": "70%"
                    }
                },
                "b3": {
                    "height": {
                        "type": "string",
                        "value": "60dp"
                    },
                    "top": {
                        "type": "string",
                        "value": "0.8000000000000007%"
                    },
                    "width": {
                        "type": "string",
                        "value": "70%"
                    }
                },
                "b4": {
                    "height": {
                        "type": "string",
                        "value": "60dp"
                    },
                    "top": {
                        "type": "string",
                        "value": "0.04%"
                    },
                    "width": {
                        "type": "string",
                        "value": "80%"
                    }
                }
            },
            "right": {},
            "top": {
                "Default": {
                    "type": "string",
                    "value": "8.80%"
                }
            },
            "width": {
                "Default": {
                    "type": "string",
                    "value": "85%"
                }
            }
        },
        "flcVerticalBar": {
            "__events__": {},
            "__info__": {
                "kuid": "jfbecee77f344613a0a5ae0a4a29a533",
                "srcKUID": "c1e3a82dec2c494da32fadaf2ab509f8",
                "wType": "FlexContainer"
            }
        },
        "flxImgContainer": {
            "__events__": {},
            "__info__": {
                "kuid": "d2fecd531a574aacb3b235e473543bf7",
                "srcKUID": "a5b043f56ff04c68b0d8766aeb55b239",
                "wType": "FlexContainer"
            }
        },
        "flxImgMain": {
            "__events__": {},
            "__info__": {
                "kuid": "fbd8ff0640eb44e793f8c8eaa923ebea",
                "srcKUID": "b04cedab42e84d7dae9726a221da10c1",
                "wType": "FlexContainer"
            }
        },
        "fontIconOption": {
            "__events__": {},
            "__info__": {
                "kuid": "f01c5a03243547b7a1def689009846da",
                "srcKUID": "ca39e4c59b8c42d9a5bc72d83c9a2ff8",
                "wType": "Label"
            },
            "responsiveData": {
                "b1": {
                    "text": "x",
                    "top": {
                        "type": "string",
                        "value": "18dp"
                    }
                }
            },
            "text": "x"
        },
        "imgOptionKA": {
            "__events__": {},
            "__info__": {
                "kuid": "bf80771921ae445d81cc24a9bdf6ffb8",
                "srcKUID": "a1d6b1a537f741ed86fe089d4f49bfdb",
                "wType": "Image"
            },
            "responsiveData": {
                "b1": {
                    "isVisible": false
                }
            },
            "src": "active_cvv_icon.png"
        },
        "imgRightTip": {
            "__events__": {},
            "__info__": {
                "kuid": "g238390576ed496b898d1b19fad81856",
                "srcKUID": "fd6a5a99442143d381c3d4fc2afbaf67",
                "wType": "Image"
            },
            "src": "lefy_arrow_white.png"
        },
        "rtxCVV": {
            "__events__": {},
            "__info__": {
                "kuid": "cfd2b5f576774f1a9f1b09f52a4d9648",
                "srcKUID": "h34b4091f7d347fcb7805380e64df24f",
                "wType": "RichText"
            },
            "centerY": {},
            "i18n_text": "i18n.login.EnterCvvCodeInfo",
            "left": {
                "Default": {
                    "type": "string",
                    "value": "85dp"
                }
            },
            "responsiveData": {
                "b3": {
                    "centerY": {
                        "type": "string",
                        "value": "50%"
                    },
                    "right": {
                        "type": "string",
                        "value": "10dp"
                    },
                    "top": {
                        "type": "string",
                        "value": ""
                    },
                    "width": {
                        "type": "string",
                        "value": ""
                    }
                }
            },
            "right": {},
            "top": {},
            "width": {
                "Default": {
                    "type": "string",
                    "value": "61.90%"
                }
            }
        }
    },
    "focusskin": "sf1574277292476397ab9eb9b65c1761",
    "id": "AlterneteActionsEnterCVV",
    "ide_onTouchStart": "AS_UWI_ed53609c73864a7187559ff06aed44c6",
    "info": null,
    "isdatareferenced": false,
    "isvisible": true,
    "kuid": "if1e209ff8584cafaf22a45b14fcd16c",
    "layouttype": 2,
    "masterType": 0,
    "name": "kony.ui.UserWidgetInstance",
    "ontouchstart": "AS_UWI_ed53609c73864a7187559ff06aed44c6",
    "parent": "flxResetPassBtns",
    "pf": "frmLogin",
    "snapgridsize": 10,
    "snaptogrid": true,
    "sourceUserWidget": "ba68e7f06305436fa6ebfcbc05efdfaf",
    "vizprops": {
        "hidewidgethierarchy": false
    },
    "wType": "UserWidgetInstance"
}