{
    "@class": "com.kony.gen.viz.model.component.KVizUserWidget",
    "DNDConfig": null,
    "__parentReadjusting__": false,
    "_children_": [],
    "_height_": {
        "type": "string",
        "value": "14%"
    },
    "_left_": {
        "type": "string",
        "value": "0dp"
    },
    "_margin_": [
        0,
        0,
        0,
        0
    ],
    "_orientation_": 1,
    "_padding_": [
        0,
        0,
        0,
        0
    ],
    "_percent_": true,
    "_render_": true,
    "_skin_": "se15a2ce22274d8bafc3956d7d10af30",
    "_top_": {
        "type": "string",
        "value": "5.28%"
    },
    "_width_": {
        "type": "string",
        "value": "85%"
    },
    "areflexpropsreferenced": false,
    "autogrowmode": 0,
    "canUpdateUI": true,
    "centerx": {
        "type": "string",
        "value": "50.00%"
    },
    "clipbounds": false,
    "containerweight": 0,
    "dataDiffs": {
        "AlterneteActions": {
            "__events__": {
                "ide_onTouchStart": "AS_UWI_d63f35e0cf744eaab601100605282f5d"
            },
            "__info__": {
                "isRoot": true,
                "kuid": "gfd0e327349a44a4a96df6a3baef7ad7",
                "srcKUID": "ba68e7f06305436fa6ebfcbc05efdfaf",
                "wType": "FlexContainer"
            },
            "autogrowMode": {
                "Default": 0
            },
            "centerX": {},
            "height": {
                "Default": {
                    "type": "string",
                    "value": "14%"
                }
            },
            "left": {},
            "responsiveData": {
                "b1": {
                    "centerX": {
                        "type": "string",
                        "value": "50%"
                    },
                    "height": {
                        "type": "string",
                        "value": "60dp"
                    },
                    "top": {
                        "type": "string",
                        "value": "62%"
                    },
                    "width": {
                        "type": "string",
                        "value": "68%"
                    }
                },
                "b2": {
                    "centerX": {
                        "type": "string",
                        "value": "50%"
                    },
                    "height": {
                        "type": "string",
                        "value": "60dp"
                    },
                    "top": {
                        "type": "string",
                        "value": "76.28%"
                    },
                    "width": {
                        "type": "string",
                        "value": "70%"
                    }
                },
                "b3": {
                    "height": {
                        "type": "string",
                        "value": "60dp"
                    },
                    "left": {
                        "type": "string",
                        "value": ""
                    },
                    "top": {
                        "type": "string",
                        "value": "72.28%"
                    },
                    "width": {
                        "type": "string",
                        "value": "70%"
                    }
                },
                "b4": {
                    "height": {
                        "type": "string",
                        "value": "60dp"
                    },
                    "top": {
                        "type": "string",
                        "value": "72.2%"
                    },
                    "width": {
                        "type": "string",
                        "value": "80%"
                    }
                }
            },
            "top": {
                "Default": {
                    "type": "string",
                    "value": "5.28%"
                }
            },
            "width": {
                "Default": {
                    "type": "string",
                    "value": "85%"
                }
            }
        },
        "flcVerticalBar": {
            "__events__": {},
            "__info__": {
                "kuid": "b5fdae7310a5425dbae74e7cbf763e4e",
                "srcKUID": "c1e3a82dec2c494da32fadaf2ab509f8",
                "wType": "FlexContainer"
            }
        },
        "flxImgContainer": {
            "__events__": {},
            "__info__": {
                "kuid": "i29c26e3f1f54d54bd265703005df1d1",
                "srcKUID": "a5b043f56ff04c68b0d8766aeb55b239",
                "wType": "FlexContainer"
            }
        },
        "flxImgMain": {
            "__events__": {},
            "__info__": {
                "kuid": "d126ebf9345d486eb2327cb372ba985a",
                "srcKUID": "b04cedab42e84d7dae9726a221da10c1",
                "wType": "FlexContainer"
            }
        },
        "fontIconOption": {
            "__events__": {},
            "__info__": {
                "kuid": "f58d18c98c214437a6c6bf47280f3acf",
                "srcKUID": "ca39e4c59b8c42d9a5bc72d83c9a2ff8",
                "wType": "Label"
            },
            "responsiveData": {
                "b1": {
                    "text": "y",
                    "top": {
                        "type": "string",
                        "value": "17dp"
                    }
                }
            },
            "text": "y"
        },
        "imgOptionKA": {
            "__events__": {},
            "__info__": {
                "kuid": "ceb63bbb83734929976ad9b872abcac7",
                "srcKUID": "a1d6b1a537f741ed86fe089d4f49bfdb",
                "wType": "Image"
            },
            "src": "active_send_pin.png"
        },
        "imgRightTip": {
            "__events__": {},
            "__info__": {
                "kuid": "aec6bcef3a5e4b6abb42985eb99eb08e",
                "srcKUID": "fd6a5a99442143d381c3d4fc2afbaf67",
                "wType": "Image"
            },
            "src": "lefy_arrow_white.png"
        },
        "rtxCVV": {
            "__events__": {},
            "__info__": {
                "kuid": "f3d07519fbc94a06b988c7f7e6ba2908",
                "srcKUID": "h34b4091f7d347fcb7805380e64df24f",
                "wType": "RichText"
            },
            "i18n_text": "i18n.login.SendPIN",
            "responsiveData": {
                "b3": {
                    "right": {
                        "type": "string",
                        "value": "10dp"
                    },
                    "width": {
                        "type": "string",
                        "value": ""
                    }
                }
            },
            "right": {},
            "width": {}
        }
    },
    "focusskin": "sf1574277292476397ab9eb9b65c1761",
    "id": "AlterneteActionsEnterPIN",
    "ide_onTouchStart": "AS_UWI_d63f35e0cf744eaab601100605282f5d",
    "info": null,
    "isdatareferenced": false,
    "isvisible": true,
    "kuid": "gfd0e327349a44a4a96df6a3baef7ad7",
    "layouttype": 2,
    "masterType": 0,
    "name": "kony.ui.UserWidgetInstance",
    "ontouchstart": "AS_UWI_hdc630e43d2e49e3b04de842f781e184",
    "parent": "flxResetPassBtns",
    "pf": "frmLogin",
    "snapgridsize": 10,
    "snaptogrid": true,
    "sourceUserWidget": "ba68e7f06305436fa6ebfcbc05efdfaf",
    "vizprops": {
        "hidewidgethierarchy": false
    },
    "wType": "UserWidgetInstance"
}