{
    "@class": "com.kony.gen.viz.model.component.KVizButton",
    "DNDConfig": null,
    "__parentReadjusting__": false,
    "_height_": {
        "type": "ref",
        "value": "preferred"
    },
    "_left_": {
        "type": "string",
        "value": "35dp"
    },
    "_margin_": [
        6,
        6,
        6,
        6
    ],
    "_padding_": [
        0,
        0,
        1,
        0
    ],
    "_skin_": "sc4f4d62bde944aa823144bdf1cabdec",
    "_text_": "Contact Us",
    "_top_": {
        "type": "number",
        "value": ""
    },
    "_width_": {
        "type": "ref",
        "value": "preferred"
    },
    "accessibilityconfig": {
        "a11yLabel": "Contact Us"
    },
    "canUpdateUI": true,
    "centerx": {
        "type": "number",
        "value": ""
    },
    "centery": {
        "type": "string",
        "value": "50%"
    },
    "containerweight": 100,
    "contentalignment": 5,
    "desktopweb": {
        "psp": {
            "hoverSkin": "s0d853c8b5284c03a08be1232819c24b"
        }
    },
    "displaytext": true,
    "focusskin": "s264339940904f6b9d3e47b6fdc9e327",
    "hoverskin": "",
    "id": "btnContactUs",
    "info": null,
    "isvisible": true,
    "kuid": "je60b5a7a76e42c880ab0fe98720659f",
    "name": "kony.ui.Button",
    "paddinginpixel": false,
    "parent": "flxFooterContainer",
    "pf": "frmLogin",
    "responsiveData": {
        "b1": {
            "centerX": {
                "type": "string",
                "value": ""
            },
            "centerY": {
                "type": "string",
                "value": "50%"
            },
            "contentAlignment": 2,
            "desktopweb": {
                "psp": {
                    "hoverSkin": "sc4f4d62bde944aa823144bdf1cabdec"
                }
            },
            "focusSkin": "sc4f4d62bde944aa823144bdf1cabdec",
            "left": {
                "type": "string",
                "value": "13px"
            },
            "padding": [
                0,
                0,
                0,
                0
            ],
            "skin": "sc4f4d62bde944aa823144bdf1cabdec",
            "top": {
                "type": "number",
                "value": "0"
            },
            "width": {
                "type": "ref",
                "value": "preferred"
            }
        },
        "b2": {
            "left": {
                "type": "string",
                "value": "15dp"
            },
            "padding": [
                0,
                0,
                0,
                0
            ],
            "skin": "sc4f4d62bde944aa823144bdf1cabdec"
        },
        "b3": {
            "centerY": {
                "type": "string",
                "value": "52%"
            },
            "left": {
                "type": "string",
                "value": "12dp"
            },
            "skin": "sc4f4d62bde944aa823144bdf1cabdec",
            "width": {
                "type": "ref",
                "value": "preferred"
            }
        },
        "b4": {
            "left": {
                "type": "string",
                "value": "15dp"
            },
            "skin": "sc4f4d62bde944aa823144bdf1cabdec"
        }
    },
    "texti18n": "i18n.footer.contactUs",
    "tooltip": "Contact Us",
    "wType": "Button",
    "zindex": 1
}