{
    "@class": "com.kony.gen.viz.model.component.KVizUserWidget",
    "DNDConfig": null,
    "__parentReadjusting__": false,
    "_children_": [],
    "_height_": {
        "type": "string",
        "value": "400dp"
    },
    "_left_": {
        "type": "string",
        "value": "0dp"
    },
    "_margin_": [
        0,
        0,
        0,
        0
    ],
    "_orientation_": 1,
    "_padding_": [
        0,
        0,
        0,
        0
    ],
    "_percent_": true,
    "_render_": true,
    "_skin_": "s1d5d3417cb74ec9883e5f01b8521945",
    "_top_": {
        "type": "string",
        "value": "0dp"
    },
    "_width_": {
        "type": "string",
        "value": "100%"
    },
    "areflexpropsreferenced": false,
    "autogrowmode": 0,
    "canUpdateUI": true,
    "clipbounds": false,
    "containerweight": 0,
    "dataDiffs": {
        "EnrollAlert": {
            "__events__": {},
            "__info__": {
                "isRoot": true,
                "kuid": "be088585538346a98495c55eda1cb330",
                "srcKUID": "ee3deacff03c42e1aec4c400b664be9e",
                "wType": "FlexContainer"
            },
            "autogrowMode": {
                "Default": 0
            },
            "centerX": {},
            "height": {},
            "left": {},
            "responsiveData": {
                "b1": {
                    "height": {
                        "type": "string",
                        "value": "100%"
                    }
                },
                "b2": {
                    "height": {
                        "type": "string",
                        "value": "100%"
                    }
                },
                "b3": {
                    "height": {
                        "type": "string",
                        "value": "100%"
                    }
                },
                "b4": {
                    "centerX": {
                        "type": "string",
                        "value": ""
                    },
                    "height": {
                        "type": "string",
                        "value": "100%"
                    },
                    "left": {
                        "type": "number",
                        "value": "0"
                    }
                }
            }
        },
        "btnBackToLogin": {
            "__events__": {
                "ide_onClick": "AS_Button_hb4e02e809db4e1bae0ba4b9556b99ea"
            },
            "__info__": {
                "kuid": "bb85e646fcdf4f918b1d6091bbc6b256",
                "srcKUID": "dd40b1427455401ab18fd695ea81360b",
                "wType": "Button"
            },
            "height": {},
            "i18n_text": "i18n.login.backToLoginCaps",
            "responsiveData": {
                "b1": {
                    "height": {
                        "type": "string",
                        "value": "40dp"
                    },
                    "isVisible": true,
                    "top": {
                        "type": "string",
                        "value": "24dp"
                    },
                    "width": {
                        "type": "string",
                        "value": "68%"
                    }
                },
                "b2": {
                    "top": {
                        "type": "string",
                        "value": "34dp"
                    },
                    "width": {
                        "type": "string",
                        "value": "68%"
                    }
                },
                "b3": {
                    "width": {
                        "type": "string",
                        "value": "70%"
                    }
                },
                "b4": {
                    "top": {
                        "type": "string",
                        "value": "34dp"
                    },
                    "width": {
                        "type": "string",
                        "value": "70%"
                    }
                }
            },
            "top": {},
            "width": {}
        },
        "btnEnroll": {
            "__events__": {
                "ide_onClick": "AS_Button_e5560a494d924458bc9240c27758a826"
            },
            "__info__": {
                "kuid": "cee7fb054b0445b9b86d934851e69d07",
                "srcKUID": "d7b4457ad12d4995a5e216e17659083a",
                "wType": "Button"
            },
            "height": {},
            "responsiveData": {
                "b1": {
                    "height": {
                        "type": "string",
                        "value": "40dp"
                    },
                    "isVisible": false,
                    "top": {
                        "type": "string",
                        "value": "24dp"
                    },
                    "width": {
                        "type": "string",
                        "value": "68%"
                    }
                }
            },
            "width": {}
        },
        "flxServerError": {
            "__events__": {},
            "__info__": {
                "kuid": "bbff7b816ebb47dcaa7097886b816163",
                "srcKUID": "f4e9d39c57a24cffaa79cb4600ebbd14",
                "wType": "FlexContainer"
            },
            "autogrowMode": {
                "Default": 0
            },
            "centerX": {},
            "height": {},
            "responsiveData": {
                "b1": {
                    "centerX": {
                        "type": "string",
                        "value": "50%"
                    },
                    "height": {
                        "type": "string",
                        "value": "175dp"
                    },
                    "top": {
                        "type": "string",
                        "value": "15%"
                    },
                    "width": {
                        "type": "string",
                        "value": "68%"
                    }
                },
                "b2": {
                    "centerX": {
                        "type": "string",
                        "value": "50%"
                    },
                    "height": {
                        "type": "string",
                        "value": "175dp"
                    },
                    "top": {
                        "type": "string",
                        "value": "120dp"
                    }
                },
                "b3": {
                    "centerX": {
                        "type": "string",
                        "value": "50%"
                    },
                    "height": {
                        "type": "string",
                        "value": "175dp"
                    },
                    "top": {
                        "type": "string",
                        "value": "120dp"
                    }
                },
                "b4": {
                    "centerX": {
                        "type": "string",
                        "value": "50%"
                    },
                    "height": {
                        "type": "string",
                        "value": "175dp"
                    },
                    "top": {
                        "type": "string",
                        "value": "120dp"
                    }
                }
            },
            "top": {},
            "width": {}
        },
        "imgEnroll": {
            "__events__": {},
            "__info__": {
                "kuid": "feff27b68dc64ee7a47939ad8067fc3b",
                "srcKUID": "hc8a4faa750b46e48d812f2cde021e04",
                "wType": "Image"
            },
            "responsiveData": {
                "b1": {
                    "top": {
                        "type": "string",
                        "value": "1dp"
                    }
                },
                "b2": {
                    "top": {
                        "type": "string",
                        "value": "1dp"
                    }
                },
                "b3": {
                    "top": {
                        "type": "string",
                        "value": "35dp"
                    }
                }
            },
            "src": "server_error.png",
            "top": {}
        },
        "lblAppTitle": {
            "__events__": {},
            "__info__": {
                "kuid": "gcba587db6914ce6ab47a32175c12eae",
                "srcKUID": "d5ff2501a9f4406196644facea6b731b",
                "wType": "Label"
            },
            "centerX": {},
            "left": {},
            "responsiveData": {
                "b1": {
                    "centerX": {
                        "type": "string",
                        "value": ""
                    },
                    "left": {
                        "type": "number",
                        "value": "74"
                    },
                    "top": {
                        "type": "string",
                        "value": "15%"
                    }
                },
                "b2": {
                    "centerX": {
                        "type": "string",
                        "value": "50%"
                    },
                    "top": {
                        "type": "string",
                        "value": "130dp"
                    }
                },
                "b3": {
                    "centerX": {
                        "type": "string",
                        "value": "50%"
                    },
                    "top": {
                        "type": "string",
                        "value": "100dp"
                    }
                },
                "b4": {
                    "centerX": {
                        "type": "string",
                        "value": "50%"
                    },
                    "top": {
                        "type": "string",
                        "value": "130dp"
                    }
                }
            },
            "top": {}
        },
        "lblHowToEnroll": {
            "__events__": {
                "ide_onTouchStart": "AS_Label_hbeccaed576f4fe2b9a931795bd748aa"
            },
            "__info__": {
                "kuid": "jf7310f0ed4f4f6a86f70e05198e9340",
                "srcKUID": "i153217e20f14b7c93c07a2d2aa196b2",
                "wType": "Label"
            }
        },
        "lblNotYetEnrolledOrError": {
            "__events__": {},
            "__info__": {
                "kuid": "hef3c94e39094819a03ea97d80b6fd8a",
                "srcKUID": "if92671d622945cd9ff31874c2e608ff",
                "wType": "Label"
            },
            "responsiveData": {
                "b1": {
                    "isVisible": false
                }
            }
        },
        "rtxServerError": {
            "__events__": {},
            "__info__": {
                "kuid": "fdb1fda70bcf484a8347efd264305a67",
                "srcKUID": "c34b04f6deb54d29807f28caa8576e53",
                "wType": "RichText"
            },
            "responsiveData": {
                "b1": {
                    "centerX": {
                        "type": "string",
                        "value": "50%"
                    },
                    "text": "It seems our servers are having some difficulties. The data displayed may be inaccurate. Please refresh the page and try logging in again",
                    "top": {
                        "type": "string",
                        "value": "85dp"
                    },
                    "width": {
                        "type": "string",
                        "value": "100%"
                    }
                },
                "b2": {
                    "top": {
                        "type": "string",
                        "value": "95dp"
                    },
                    "width": {
                        "type": "string",
                        "value": "70%"
                    }
                },
                "b3": {
                    "centerX": {
                        "type": "string",
                        "value": "50%"
                    },
                    "width": {
                        "type": "string",
                        "value": "77.21%"
                    }
                }
            },
            "width": {}
        }
    },
    "id": "EnrollAlert",
    "info": null,
    "isdatareferenced": false,
    "isvisible": true,
    "kuid": "be088585538346a98495c55eda1cb330",
    "layouttype": 4,
    "masterType": 0,
    "name": "kony.ui.UserWidgetInstance",
    "parent": "flxEnrollOrServerError",
    "pf": "frmLogin",
    "snapgridsize": 10,
    "snaptogrid": true,
    "sourceUserWidget": "ee3deacff03c42e1aec4c400b664be9e",
    "vizprops": {
        "hidewidgethierarchy": false
    },
    "wType": "UserWidgetInstance"
}