{
    "@class": "com.kony.gen.viz.model.component.KVizUserWidget",
    "DNDConfig": null,
    "__parentReadjusting__": false,
    "_children_": [],
    "_height_": {
        "type": "string",
        "value": "100%"
    },
    "_left_": {
        "type": "string",
        "value": "0dp"
    },
    "_margin_": [
        0,
        0,
        0,
        0
    ],
    "_orientation_": 1,
    "_padding_": [
        0,
        0,
        0,
        0
    ],
    "_percent_": true,
    "_render_": true,
    "_skin_": "s1d5d3417cb74ec9883e5f01b8521945",
    "_top_": {
        "type": "string",
        "value": "0dp"
    },
    "_width_": {
        "type": "string",
        "value": "100%"
    },
    "areflexpropsreferenced": false,
    "autogrowmode": 0,
    "canUpdateUI": true,
    "clipbounds": false,
    "containerweight": 0,
    "dataDiffs": {
        "EnrollAlert": {
            "__events__": {},
            "__info__": {
                "isRoot": true,
                "kuid": "cbc994d04cc04806ba4d8c4e5c794dcf",
                "srcKUID": "ee3deacff03c42e1aec4c400b664be9e",
                "wType": "FlexContainer"
            },
            "autogrowMode": {
                "Default": 0
            },
            "height": {
                "Default": {
                    "type": "string",
                    "value": "100%"
                }
            },
            "responsiveData": {
                "b1": {
                    "top": {
                        "type": "string",
                        "value": "80dp"
                    }
                },
                "b2": {
                    "top": {
                        "type": "string",
                        "value": "80dp"
                    }
                },
                "b3": {
                    "top": {
                        "type": "string",
                        "value": "0dp"
                    }
                },
                "b4": {
                    "top": {
                        "type": "string",
                        "value": "0dp"
                    }
                }
            },
            "top": {}
        },
        "btnBackToLogin": {
            "__events__": {},
            "__info__": {
                "kuid": "gde8e6dd6fb04a3bbb891b9c666f17bd",
                "srcKUID": "dd40b1427455401ab18fd695ea81360b",
                "wType": "Button"
            },
            "i18n_text": "i18n.common.HowToEnroll",
            "responsiveData": {
                "b1": {
                    "width": {
                        "type": "string",
                        "value": "68%"
                    }
                },
                "b2": {
                    "top": {
                        "type": "string",
                        "value": "34dp"
                    },
                    "width": {
                        "type": "string",
                        "value": "68%"
                    }
                },
                "b3": {
                    "top": {
                        "type": "string",
                        "value": "40dp"
                    }
                }
            },
            "width": {},
            "zIndex": {
                "Default": 1
            }
        },
        "btnEnroll": {
            "__events__": {},
            "__info__": {
                "kuid": "j4a7944b33e94f5d8efef4dd862e9a63",
                "srcKUID": "d7b4457ad12d4995a5e216e17659083a",
                "wType": "Button"
            },
            "i18n_text": "i18n.common.EnrollLabel",
            "responsiveData": {
                "b1": {
                    "top": {
                        "type": "string",
                        "value": "28dp"
                    },
                    "width": {
                        "type": "string",
                        "value": "68%"
                    }
                }
            },
            "top": {},
            "width": {}
        },
        "flxServerError": {
            "__events__": {},
            "__info__": {
                "kuid": "c076dd684da54a3cbfba0a75ff1013f6",
                "srcKUID": "f4e9d39c57a24cffaa79cb4600ebbd14",
                "wType": "FlexContainer"
            },
            "autogrowMode": {
                "Default": 0
            },
            "centerX": {},
            "height": {},
            "responsiveData": {
                "b1": {
                    "centerX": {
                        "type": "string",
                        "value": "50%"
                    },
                    "height": {
                        "type": "string",
                        "value": "160dp"
                    },
                    "top": {
                        "type": "string",
                        "value": "80dp"
                    },
                    "width": {
                        "type": "string",
                        "value": "85%"
                    }
                },
                "b2": {
                    "height": {
                        "type": "string",
                        "value": "160dp"
                    },
                    "top": {
                        "type": "string",
                        "value": "70dp"
                    }
                },
                "b3": {
                    "centerX": {
                        "type": "string",
                        "value": "50%"
                    },
                    "top": {
                        "type": "string",
                        "value": "115dp"
                    }
                },
                "b4": {
                    "top": {
                        "type": "string",
                        "value": "136dp"
                    }
                }
            },
            "top": {},
            "width": {}
        },
        "imgEnroll": {
            "__events__": {},
            "__info__": {
                "kuid": "j878c53eeba3444c94a247e2ef35fe04",
                "srcKUID": "hc8a4faa750b46e48d812f2cde021e04",
                "wType": "Image"
            },
            "responsiveData": {
                "b1": {
                    "top": {
                        "type": "string",
                        "value": "0dp"
                    }
                },
                "b2": {
                    "top": {
                        "type": "string",
                        "value": "1dp"
                    }
                },
                "b3": {
                    "top": {
                        "type": "string",
                        "value": "3dp"
                    }
                },
                "b4": {
                    "top": {
                        "type": "string",
                        "value": "5dp"
                    }
                }
            },
            "src": "server_error.png"
        },
        "lblAppTitle": {
            "__events__": {},
            "__info__": {
                "kuid": "eea87aaed3a74a84bbc1541b26e331fb",
                "srcKUID": "d5ff2501a9f4406196644facea6b731b",
                "wType": "Label"
            },
            "centerX": {},
            "left": {},
            "responsiveData": {
                "b1": {
                    "centerX": {
                        "type": "string",
                        "value": ""
                    },
                    "left": {
                        "type": "string",
                        "value": "78dp"
                    },
                    "top": {
                        "type": "string",
                        "value": "130dp"
                    }
                },
                "b2": {
                    "centerX": {
                        "type": "string",
                        "value": "50%"
                    },
                    "top": {
                        "type": "string",
                        "value": "131dp"
                    }
                },
                "b3": {
                    "centerX": {
                        "type": "string",
                        "value": "50%"
                    },
                    "top": {
                        "type": "string",
                        "value": "100dp"
                    }
                },
                "b4": {
                    "centerX": {
                        "type": "string",
                        "value": "50%"
                    },
                    "top": {
                        "type": "string",
                        "value": "130dp"
                    }
                }
            }
        },
        "lblHowToEnroll": {
            "__events__": {},
            "__info__": {
                "kuid": "j29634e7d8dc41738da7dd0826468834",
                "srcKUID": "i153217e20f14b7c93c07a2d2aa196b2",
                "wType": "Label"
            }
        },
        "lblNotYetEnrolledOrError": {
            "__events__": {},
            "__info__": {
                "kuid": "e277d04a55bb43b8a7fe07fe3bfe9c60",
                "srcKUID": "if92671d622945cd9ff31874c2e608ff",
                "wType": "Label"
            }
        },
        "rtxServerError": {
            "__events__": {},
            "__info__": {
                "kuid": "h96637e271dc44adb5d92cc4085802f9",
                "srcKUID": "c34b04f6deb54d29807f28caa8576e53",
                "wType": "RichText"
            },
            "responsiveData": {
                "b1": {
                    "centerX": {
                        "type": "string",
                        "value": "50%"
                    },
                    "top": {
                        "type": "string",
                        "value": "85dp"
                    },
                    "width": {
                        "type": "string",
                        "value": "80%"
                    }
                },
                "b2": {
                    "top": {
                        "type": "string",
                        "value": "95dp"
                    },
                    "width": {
                        "type": "string",
                        "value": "70%"
                    }
                },
                "b3": {
                    "isVisible": true,
                    "top": {
                        "type": "string",
                        "value": "90dp"
                    }
                }
            },
            "top": {},
            "width": {}
        }
    },
    "id": "EnrollPromptScreen",
    "info": null,
    "isdatareferenced": false,
    "issegmentchild": false,
    "isvisible": true,
    "kuid": "cbc994d04cc04806ba4d8c4e5c794dcf",
    "layouttype": 4,
    "masterType": 0,
    "name": "kony.ui.UserWidgetInstance",
    "parent": "flxEnroll",
    "pf": "frmLogin",
    "snaptogrid": true,
    "sourceUserWidget": "ee3deacff03c42e1aec4c400b664be9e",
    "vizprops": {
        "hidewidgethierarchy": false
    },
    "wType": "UserWidgetInstance"
}