{
    "DNDConfig": null,
    "__parentReadjusting__": false,
    "_height_": {
        "type": "string",
        "value": "50dp"
    },
    "_margin_": [
        0,
        0,
        0,
        0
    ],
    "_orientation_": 6,
    "_padding_": [
        0,
        0,
        0,
        0
    ],
    "_percent_": true,
    "_right_": {
        "type": "string",
        "value": "51dp"
    },
    "_skin_": "s680c9bafb594fe4bfa388d84acc43b2",
    "_top_": {
        "type": "string",
        "value": "31dp"
    },
    "_width_": {
        "type": "string",
        "value": "299dp"
    },
    "accessibilityconfig": {
        "a11yARIA": {
            "tabindex": 1
        }
    },
    "allboxes": [],
    "autogrowmode": 0,
    "canUpdateUI": true,
    "children": [
        "lblCheckBox",
        "imgDropdown",
        "lblLanguage"
    ],
    "clipbounds": false,
    "containerweight": 100,
    "enablescrolling": true,
    "id": "flxDropdown",
    "info": null,
    "isvisible": true,
    "kuid": "e4bb2a44017c4519b35afb633cd27c2b",
    "layouttype": 2,
    "name": "kony.ui.FlexContainer",
    "parent": "flxMain",
    "pf": "frmLogin",
    "responsiveData": {
        "b1": {
            "isVisible": true,
            "right": {
                "type": "string",
                "value": "50dp"
            },
            "top": {
                "type": "string",
                "value": "30dp"
            },
            "width": {
                "type": "string",
                "value": "300dp"
            }
        },
        "b2": {
            "isVisible": true,
            "right": {
                "type": "string",
                "value": "24.50%"
            },
            "top": {
                "type": "string",
                "value": "90dp"
            },
            "width": {
                "type": "string",
                "value": "250dp"
            }
        },
        "b3": {
            "isVisible": true,
            "right": {
                "type": "string",
                "value": "13.88%"
            },
            "top": {
                "type": "string",
                "value": "60dp"
            },
            "width": {
                "type": "string",
                "value": "220dp"
            }
        },
        "b4": {
            "isVisible": true,
            "right": {
                "type": "string",
                "value": "20.25%"
            },
            "top": {
                "type": "string",
                "value": "90dp"
            },
            "width": {
                "type": "string",
                "value": "250dp"
            }
        }
    },
    "snapgridsize": 10,
    "snaptogrid": true,
    "wType": "FlexContainer",
    "widgetalignment": 1,
    "zindex": 4
}