{
    "DNDConfig": null,
    "__parentReadjusting__": false,
    "_height_": {
        "type": "string",
        "value": "568dp"
    },
    "_left_": {
        "type": "number",
        "value": ""
    },
    "_margin_": [
        0,
        0,
        0,
        0
    ],
    "_orientation_": 6,
    "_padding_": [
        0,
        0,
        0,
        0
    ],
    "_percent_": true,
    "_skin_": "s24c92fc23b14f5484b693ee9b8a9b35",
    "_top_": {
        "type": "string",
        "value": "110dp"
    },
    "_width_": {
        "type": "string",
        "value": "399dp"
    },
    "allboxes": [],
    "canUpdateUI": true,
    "centerx": {
        "type": "string",
        "value": "50%"
    },
    "children": [
        "MFAFlow",
        "MFA"
    ],
    "clipbounds": false,
    "containerweight": 100,
    "enablescrolling": true,
    "id": "flxLoginMFA",
    "info": null,
    "isvisible": false,
    "kuid": "d9421549af2845f6a10bf160fa317a97",
    "layouttype": 4,
    "name": "kony.ui.FlexContainer",
    "parent": "flxMain",
    "pf": "frmLogin",
    "responsiveData": {
        "b1": {
            "centerX": {
                "type": "string",
                "value": ""
            },
            "height": {
                "type": "string",
                "value": "100%"
            },
            "isVisible": false,
            "left": {
                "type": "string",
                "value": "0dp"
            },
            "top": {
                "type": "string",
                "value": "0dp"
            },
            "width": {
                "type": "string",
                "value": "500dp"
            }
        },
        "b2": {
            "height": {
                "type": "string",
                "value": "630dp"
            }
        },
        "b3": {
            "centerX": {
                "type": "string",
                "value": "50%"
            },
            "height": {
                "type": "string",
                "value": "630dp"
            },
            "isVisible": false,
            "top": {
                "type": "string",
                "value": "40dp"
            }
        },
        "b4": {
            "height": {
                "type": "string",
                "value": "630dp"
            }
        }
    },
    "snapgridsize": 10,
    "snaptogrid": true,
    "wType": "FlexContainer",
    "widgetalignment": 1,
    "zindex": 1
}