{
    "DNDConfig": null,
    "__parentReadjusting__": false,
    "_height_": {
        "type": "string",
        "value": "220dp"
    },
    "_left_": {
        "type": "string",
        "value": "78dp"
    },
    "_margin_": [
        0,
        0,
        0,
        0
    ],
    "_orientation_": 6,
    "_padding_": [
        0,
        0,
        0,
        0
    ],
    "_percent_": true,
    "_skin_": "s24c92fc23b14f5484b693ee9b8a9b35",
    "_top_": {
        "type": "string",
        "value": "0dp"
    },
    "_width_": {
        "type": "string",
        "value": "100%"
    },
    "allboxes": [],
    "canUpdateUI": true,
    "centerx": {
        "type": "number",
        "value": ""
    },
    "children": [
        "flxResetUserImg",
        "lvlVerificationNotice"
    ],
    "clipbounds": true,
    "containerweight": 100,
    "enablescrolling": true,
    "id": "flxResetContent",
    "info": null,
    "iscustomlayout": false,
    "isvisible": true,
    "kuid": "a63c102071b348d2b0ce3c65c9e5a738",
    "layouttype": 2,
    "name": "kony.ui.FlexContainer",
    "parent": "flxResetPasswordOptions",
    "pf": "frmLogin",
    "responsiveData": {
        "b1": {
            "height": {
                "type": "string",
                "value": "100dp"
            },
            "left": {
                "type": "string",
                "value": "79dp"
            },
            "top": {
                "type": "string",
                "value": "14dp"
            },
            "width": {
                "type": "string",
                "value": "84%"
            }
        },
        "b2": {
            "centerX": {
                "type": "string",
                "value": "50%"
            },
            "height": {
                "type": "string",
                "value": "120dp"
            },
            "left": {
                "type": "string",
                "value": ""
            },
            "top": {
                "type": "string",
                "value": "33dp"
            }
        },
        "b3": {
            "centerX": {
                "type": "string",
                "value": "50%"
            },
            "height": {
                "type": "string",
                "value": "130dp"
            },
            "left": {
                "type": "string",
                "value": ""
            },
            "top": {
                "type": "string",
                "value": "31dp"
            }
        },
        "b4": {
            "centerX": {
                "type": "string",
                "value": "50.00%"
            },
            "height": {
                "type": "string",
                "value": "120dp"
            },
            "left": {
                "type": "string",
                "value": ""
            },
            "top": {
                "type": "number",
                "value": "32"
            }
        }
    },
    "retaincontentalignment": false,
    "retainflexpositionproperties": false,
    "snapgridsize": 10,
    "snaptogrid": true,
    "wType": "FlexContainer",
    "widgetalignment": 1,
    "zindex": 1
}