{
    "@class": "com.kony.gen.viz.model.component.KVizImage2",
    "DNDConfig": null,
    "__parentReadjusting__": false,
    "_base64_": null,
    "_bottom_": {
        "type": "number",
        "value": ""
    },
    "_height_": {
        "type": "string",
        "value": "150dp"
    },
    "_left_": {
        "type": "string",
        "value": "95dp"
    },
    "_margin_": [
        0,
        0,
        0,
        0
    ],
    "_padding_": [
        0,
        0,
        0,
        0
    ],
    "_skin_": "s78a5f26c9f14cec9ebed1bb46098f80",
    "_src_": "appstore_2x.png",
    "_top_": {
        "type": "string",
        "value": "0dp"
    },
    "_width_": {
        "type": "string",
        "value": "100%"
    },
    "accessibilityconfig": {
        "a11yLabel": "Go to AppStore",
        "a11yValue": ""
    },
    "canUpdateUI": true,
    "centerx": {
        "type": "string",
        "value": "50%"
    },
    "containerweight": 100,
    "id": "imgAppstore",
    "imagescalemode": 1,
    "info": null,
    "invokedProperty": "src",
    "iscustomlayout": false,
    "isvisible": true,
    "kuid": "fbf97118af2e4c16863e851b0289ebc7",
    "name": "kony.ui.Image2",
    "paddinginpixel": false,
    "parent": "flxAppStore",
    "pf": "frmLogin",
    "responsiveData": {
        "b1": {
            "isVisible": false
        },
        "b2": {
            "height": {
                "type": "ref",
                "value": "preferred"
            },
            "isVisible": true,
            "left": {
                "type": "number",
                "value": "0"
            },
            "src": "appstore_2x.png"
        },
        "b3": {
            "bottom": {
                "type": "string",
                "value": ""
            },
            "height": {
                "type": "ref",
                "value": "preferred"
            },
            "left": {
                "type": "string",
                "value": ""
            },
            "src": "appstore_2x.png"
        },
        "b4": {
            "height": {
                "type": "ref",
                "value": "preferred"
            },
            "left": {
                "type": "number",
                "value": "0"
            },
            "src": "appstore_2x.png"
        }
    },
    "retaincontentalignment": false,
    "retainflexpositionproperties": false,
    "srcType": 1,
    "wType": "Image",
    "widgetalignment": 5,
    "zindex": 1
}