{
    "@class": "com.kony.gen.viz.model.component.KVizImage2",
    "DNDConfig": null,
    "__parentReadjusting__": false,
    "_base64_": null,
    "_height_": {
        "type": "string",
        "value": "44dp"
    },
    "_margin_": [
        0,
        0,
        0,
        0
    ],
    "_padding_": [
        0,
        0,
        0,
        0
    ],
    "_skin_": "s78a5f26c9f14cec9ebed1bb46098f80",
    "_src_": "default_username.png",
    "_width_": {
        "type": "string",
        "value": "44dp"
    },
    "accessibilityconfig": {
        "a11yARIA": {
            "tabindex": -1
        },
        "a11yHidden": true,
        "a11yValue": ""
    },
    "canUpdateUI": true,
    "centerx": {
        "type": "string",
        "value": "50%"
    },
    "centery": {
        "type": "string",
        "value": "50%"
    },
    "containerweight": 100,
    "id": "imgVerifiedUser",
    "imagescalemode": 1,
    "imagewhiledownloading": "img_transparent.png",
    "info": null,
    "invokedProperty": "src",
    "isvisible": true,
    "kuid": "aedda8dac7b44a168362c4a651b9319a",
    "name": "kony.ui.Image2",
    "parent": "flxWelcomeUserImage",
    "pf": "frmLogin",
    "responsiveData": {
        "b1": {
            "height": {
                "type": "string",
                "value": "54dp"
            },
            "width": {
                "type": "string",
                "value": "54dp"
            }
        },
        "b2": {
            "height": {
                "type": "string",
                "value": "52dp"
            },
            "width": {
                "type": "string",
                "value": "52dp"
            }
        }
    },
    "srcType": 1,
    "wType": "Image",
    "widgetalignment": 5,
    "zindex": 1
}