{
    "@class": "com.kony.gen.viz.model.component.KVizLabel",
    "DNDConfig": null,
    "__parentReadjusting__": false,
    "_bottom_": {
        "type": "number",
        "value": ""
    },
    "_height_": {
        "type": "ref",
        "value": "preferred"
    },
    "_left_": {
        "type": "string",
        "value": "10dp"
    },
    "_margin_": [
        1,
        1,
        1,
        1
    ],
    "_padding_": [
        0,
        0,
        0,
        0
    ],
    "_skin_": "s292454106504b3884e14bf2d65f8621",
    "_text_": "Label",
    "_top_": {
        "type": "number",
        "value": ""
    },
    "_width_": {
        "type": "string",
        "value": "75%"
    },
    "_wrapping_": 2,
    "accessibilityconfig": {
        "a11yLabel": "\\u00a9 Copyright Kony Retail Banking. All rights reserved. Your savings are federally insured to at least $250,000 and backed by the full faith and credit of the Government."
    },
    "android": {
        "textStyle": {
            "letterSpacing": 0,
            "strikeThrough": false
        }
    },
    "canUpdateUI": true,
    "centerx": {
        "type": "number",
        "value": ""
    },
    "containerweight": 100,
    "contentalignment": 4,
    "id": "lblCopyright",
    "info": null,
    "ipad": {
        "psp": {
            "wrapping": 2
        }
    },
    "iphone": {
        "psp": {
            "wrapping": 2
        }
    },
    "isvisible": true,
    "kuid": "hd10e78011d045e89baf0415fee5668b",
    "maxwidth": {
        "type": "number",
        "value": ""
    },
    "name": "kony.ui.Label",
    "paddinginpixel": false,
    "parent": "flxCopyRight",
    "pf": "frmLogin",
    "responsiveData": {
        "b1": {
            "bottom": {
                "type": "string",
                "value": ""
            },
            "contentAlignment": 1,
            "height": {
                "type": "string",
                "value": "40dp"
            },
            "isVisible": true,
            "padding": [
                0,
                0,
                0,
                0
            ],
            "skin": "s292454106504b3884e14bf2d65f8621",
            "top": {
                "type": "string",
                "value": "2dp"
            }
        },
        "b2": {
            "centerX": {
                "type": "string",
                "value": ""
            },
            "contentAlignment": 1,
            "height": {
                "type": "string",
                "value": "40dp"
            },
            "isVisible": true,
            "left": {
                "type": "string",
                "value": "10dp"
            },
            "skin": "s1792a0de97a4a129dbf161c3228b209",
            "top": {
                "type": "string",
                "value": "2dp"
            },
            "width": {
                "type": "ref",
                "value": "preferred"
            }
        },
        "b3": {
            "bottom": {
                "type": "string",
                "value": ""
            },
            "centerX": {
                "type": "string",
                "value": "50%"
            },
            "contentAlignment": 5,
            "height": {
                "type": "string",
                "value": "20dp"
            },
            "left": {
                "type": "string",
                "value": ""
            },
            "maxWidth": {
                "type": "string",
                "value": "90%"
            },
            "skin": "s1792a0de97a4a129dbf161c3228b209",
            "top": {
                "type": "string",
                "value": "30dp"
            }
        },
        "b4": {
            "centerX": {
                "type": "string",
                "value": ""
            },
            "contentAlignment": 1,
            "height": {
                "type": "string",
                "value": "40dp"
            },
            "isVisible": true,
            "left": {
                "type": "string",
                "value": "10dp"
            },
            "skin": "s1792a0de97a4a129dbf161c3228b209",
            "top": {
                "type": "string",
                "value": "1dp"
            }
        }
    },
    "texti18n": "i18n.footer.copyright",
    "tooltip": "",
    "wType": "Label",
    "zindex": 1
}