{
    "@class": "com.kony.gen.viz.model.component.KVizLabel",
    "DNDConfig": null,
    "__parentReadjusting__": false,
    "_height_": {
        "type": "string",
        "value": "25dp"
    },
    "_margin_": [
        1,
        1,
        1,
        1
    ],
    "_padding_": [
        0,
        0,
        0,
        0
    ],
    "_right_": {
        "type": "string",
        "value": "50dp"
    },
    "_skin_": "sb21459f022449ceba61957e28f76983",
    "_text_": "m",
    "_width_": {
        "type": "string",
        "value": "70%"
    },
    "_wrapping_": 2,
    "accessibilityconfig": {
        "a11yLabel": "English"
    },
    "android": {
        "textStyle": {
            "letterSpacing": 0,
            "strikeThrough": false
        }
    },
    "canUpdateUI": true,
    "centery": {
        "type": "string",
        "value": "50.00%"
    },
    "containerweight": 100,
    "contentalignment": 6,
    "id": "lblLanguage",
    "info": null,
    "ipad": {
        "psp": {
            "wrapping": 2
        }
    },
    "iphone": {
        "psp": {
            "wrapping": 2
        }
    },
    "isvisible": true,
    "kuid": "gcdd58688cdb4330a73d337d7a8b3dc1",
    "name": "kony.ui.Label",
    "paddinginpixel": false,
    "parent": "flxDropdown",
    "pf": "frmLogin",
    "responsiveData": {
        "b1": {
            "skin": "s2a1de65ddd542a5bd16d1b98f5cd9da"
        },
        "b2": {
            "right": {
                "type": "string",
                "value": "30dp"
            },
            "skin": "sb21459f022449ceba61957e28f76983",
            "width": {
                "type": "string",
                "value": "80%"
            }
        },
        "b3": {
            "right": {
                "type": "string",
                "value": "25dp"
            },
            "skin": "sb21459f022449ceba61957e28f76983",
            "width": {
                "type": "string",
                "value": "75%"
            }
        },
        "b4": {
            "right": {
                "type": "string",
                "value": "25dp"
            },
            "skin": "sb21459f022449ceba61957e28f76983"
        }
    },
    "texti18n": "i18n.common.English",
    "tooltip": "English",
    "wType": "Label",
    "zindex": 1
}