{
    "@class": "com.kony.gen.viz.model.component.KVizLabel",
    "DNDConfig": null,
    "__parentReadjusting__": false,
    "_height_": {
        "type": "ref",
        "value": "preferred"
    },
    "_left_": {
        "type": "string",
        "value": "63dp"
    },
    "_margin_": [
        1,
        1,
        1,
        1
    ],
    "_padding_": [
        0,
        0,
        1,
        0
    ],
    "_skin_": "s18d3552bc4143569a7c5aef6bd5eaa1",
    "_text_": "Label",
    "_top_": {
        "type": "string",
        "value": "10.70%"
    },
    "_width_": {
        "type": "ref",
        "value": "preferred"
    },
    "_wrapping_": 2,
    "accessibilityconfig": {
        "a11yLabel": "Reset Your Password"
    },
    "android": {
        "textStyle": {
            "letterSpacing": 0,
            "strikeThrough": false
        }
    },
    "canUpdateUI": true,
    "centerx": {
        "type": "number",
        "value": ""
    },
    "containerweight": 100,
    "contentalignment": 5,
    "id": "lblResetYourPassword",
    "info": null,
    "ipad": {
        "psp": {
            "wrapping": 2
        }
    },
    "iphone": {
        "psp": {
            "wrapping": 2
        }
    },
    "isvisible": true,
    "kuid": "ef2838b80bc64f3581f36af7ec990f85",
    "name": "kony.ui.Label",
    "paddinginpixel": false,
    "parent": "flxResetPasswordOptions",
    "pf": "frmLogin",
    "responsiveData": {
        "b1": {
            "contentAlignment": 1,
            "isVisible": true,
            "left": {
                "type": "string",
                "value": "79dp"
            },
            "padding": [
                0,
                0,
                1,
                0
            ],
            "skin": "s18d3552bc4143569a7c5aef6bd5eaa1",
            "top": {
                "type": "string",
                "value": "112dp"
            }
        },
        "b2": {
            "centerX": {
                "type": "string",
                "value": "50.00%"
            },
            "left": {
                "type": "string",
                "value": ""
            },
            "padding": [
                1,
                0,
                1,
                0
            ],
            "top": {
                "type": "string",
                "value": "86dp"
            }
        },
        "b3": {
            "centerX": {
                "type": "string",
                "value": "50%"
            },
            "left": {
                "type": "string",
                "value": ""
            },
            "top": {
                "type": "string",
                "value": "56dp"
            }
        },
        "b4": {
            "centerX": {
                "type": "string",
                "value": "50.00%"
            },
            "left": {
                "type": "string",
                "value": "0dp"
            },
            "top": {
                "type": "string",
                "value": "86dp"
            }
        }
    },
    "texti18n": "i18n.login.ResetPassword",
    "tooltip": "",
    "wType": "Label",
    "zindex": 1
}