{
    "@class": "com.kony.gen.viz.model.component.KVizLabel",
    "DNDConfig": null,
    "__parentReadjusting__": false,
    "_height_": {
        "type": "ref",
        "value": "preferred"
    },
    "_left_": {
        "type": "string",
        "value": "70dp"
    },
    "_margin_": [
        1,
        1,
        1,
        1
    ],
    "_padding_": [
        0,
        0,
        0,
        0
    ],
    "_skin_": "s28684f6ec084ccd9a9b010ce46443bf",
    "_text_": "John.Bailey",
    "_top_": {
        "type": "string",
        "value": "25.50%"
    },
    "_width_": {
        "type": "ref",
        "value": "preferred"
    },
    "_wrapping_": 2,
    "accessibilityconfig": {
        "a11yLabel": "John.Bailey"
    },
    "android": {
        "textStyle": {
            "letterSpacing": 0,
            "strikeThrough": false
        }
    },
    "canUpdateUI": true,
    "centerx": {
        "type": "number",
        "value": ""
    },
    "containerweight": 100,
    "contentalignment": 5,
    "id": "lblVerifiedUsername",
    "info": null,
    "ipad": {
        "psp": {
            "wrapping": 2
        }
    },
    "iphone": {
        "psp": {
            "wrapping": 2
        }
    },
    "isvisible": true,
    "kuid": "i433395f26f14b96a7064bff6a16c13c",
    "name": "kony.ui.Label",
    "paddinginpixel": false,
    "parent": "flxUserContent",
    "pf": "frmLogin",
    "responsiveData": {
        "b1": {
            "left": {
                "type": "string",
                "value": "70dp"
            },
            "top": {
                "type": "string",
                "value": "32.5%"
            }
        },
        "b2": {
            "centerX": {
                "type": "string",
                "value": "50%"
            },
            "left": {
                "type": "string",
                "value": ""
            },
            "top": {
                "type": "string",
                "value": "63.5%"
            }
        },
        "b3": {
            "centerX": {
                "type": "string",
                "value": "50%"
            },
            "left": {
                "type": "string",
                "value": ""
            },
            "skin": "s28684f6ec084ccd9a9b010ce46443bf",
            "top": {
                "type": "string",
                "value": "56.5%"
            }
        },
        "b4": {
            "centerX": {
                "type": "string",
                "value": "50%"
            },
            "left": {
                "type": "string",
                "value": ""
            },
            "top": {
                "type": "string",
                "value": "52.5%"
            }
        }
    },
    "texti18n": "i18n.WelcomeBack.JohnBailey",
    "tooltip": "",
    "wType": "Label",
    "zindex": 1
}