{
    "@class": "com.kony.gen.viz.model.component.KVizListBox",
    "DNDConfig": null,
    "__parentReadjusting__": false,
    "_height_": {
        "type": "string",
        "value": "40dp"
    },
    "_left_": {
        "type": "string",
        "value": "80dp"
    },
    "_margin_": [
        0,
        0,
        0,
        0
    ],
    "_padding_": [
        2,
        0,
        1,
        0
    ],
    "_skin_": "s189b23a5b774a0bbb1dfe1f2b6f676f",
    "_top_": {
        "type": "string",
        "value": "10dp"
    },
    "_width_": {
        "type": "string",
        "value": "69%"
    },
    "canUpdateUI": true,
    "containerweight": 100,
    "contentalignment": 4,
    "groupcells": false,
    "id": "lstBoxSelectUsername",
    "info": null,
    "isvisible": true,
    "kuid": "f4390e6324ac4a6eba648c42725bbddf",
    "masterdata": [
        [
            "lb1",
            "John.Bailey"
        ]
    ],
    "name": "kony.ui.ListBox",
    "paddinginpixel": false,
    "parent": "flxSelectUsername",
    "pf": "frmLogin",
    "responsiveData": {
        "b1": {
            "padding": [
                4,
                0,
                1,
                0
            ]
        },
        "b2": {
            "centerX": {
                "type": "string",
                "value": "50%"
            }
        },
        "b3": {
            "centerX": {
                "type": "string",
                "value": "50%"
            },
            "width": {
                "type": "string",
                "value": "85%"
            }
        },
        "b4": {
            "centerX": {
                "type": "string",
                "value": "50%"
            },
            "width": {
                "type": "string",
                "value": "79%"
            }
        }
    },
    "selectedkeys": null,
    "selectedkeyvalue": null,
    "selectedkeyvalues": null,
    "size": 18,
    "viewconfig": {
        "toggleViewConfig": {
            "viewStyle": 0
        }
    },
    "viewtype": 0,
    "wType": "ListBox",
    "zindex": 5,
    "focusskin": "s9eb08f78097439eb767801e8fdeb5cd"
}