{
    "@class": "com.kony.gen.viz.model.component.KVizUserWidget",
    "DNDConfig": null,
    "__parentReadjusting__": false,
    "_children_": [],
    "_height_": {
        "type": "string",
        "value": "100%"
    },
    "_left_": {
        "type": "string",
        "value": "0dp"
    },
    "_margin_": [
        0,
        0,
        0,
        0
    ],
    "_orientation_": 1,
    "_padding_": [
        0,
        0,
        0,
        0
    ],
    "_percent_": true,
    "_render_": true,
    "_skin_": "s1d5d3417cb74ec9883e5f01b8521945",
    "_top_": {
        "type": "string",
        "value": "0dp"
    },
    "_width_": {
        "type": "string",
        "value": "100%"
    },
    "areflexpropsreferenced": false,
    "autogrowmode": 0,
    "canUpdateUI": true,
    "clipbounds": false,
    "containerweight": 0,
    "dataDiffs": {
        "btnNext": {
            "__events__": {
                "ide_onClick": "AS_Button_g8926370565949d99200dc018568c10c"
            },
            "__info__": {
                "kuid": "adab90b640824e5ba4fb2111a4fc2486",
                "srcKUID": "ha74558ac4b64423bc64cf8ed3d56c50",
                "wType": "Button"
            },
            "responsiveData": {
                "b1": {
                    "top": {
                        "type": "string",
                        "value": "30dp"
                    }
                },
                "b2": {
                    "top": {
                        "type": "string",
                        "value": "30dp"
                    }
                },
                "b3": {
                    "top": {
                        "type": "string",
                        "value": "30dp"
                    }
                },
                "b4": {
                    "top": {
                        "type": "string",
                        "value": "30dp"
                    },
                    "width": {
                        "type": "string",
                        "value": "85%"
                    }
                }
            },
            "top": {},
            "width": {
                "Default": {
                    "type": "string",
                    "value": "68%"
                }
            }
        },
        "flxHeaderNError": {
            "__events__": {},
            "__info__": {
                "kuid": "bfaec214a2db4308a753e0bc28a2e32b",
                "srcKUID": "be67d34df6b34253a4229edb83b6d969",
                "wType": "FlexContainer"
            },
            "responsiveData": {
                "b1": {
                    "top": {
                        "type": "string",
                        "value": "156dp"
                    }
                }
            }
        },
        "flxImageUser": {
            "__events__": {},
            "__info__": {
                "kuid": "a3260de897064b59bcc2f0af02bb48a7",
                "srcKUID": "e16a4a02fec442beb94a567e15219095",
                "wType": "FlexContainer"
            }
        },
        "flxMain": {
            "__events__": {},
            "__info__": {
                "kuid": "a87ccfcdb1794d94adf5e2416129a77c",
                "srcKUID": "fc644dc49d94459487d7a3d5021abcee",
                "wType": "FlexContainer"
            },
            "autogrowMode": {
                "Default": 0
            },
            "height": {
                "Default": {
                    "type": "string",
                    "value": "610dp"
                }
            },
            "responsiveData": {
                "b1": {}
            }
        },
        "flxMatchPassword": {
            "__events__": {},
            "__info__": {
                "kuid": "jd330d8fb8f048a99fc8d9004dde7ec3",
                "srcKUID": "c30320db83634d369f658e44808ffd76",
                "wType": "FlexContainer"
            },
            "responsiveData": {
                "b1": {
                    "top": {
                        "type": "string",
                        "value": "20dp"
                    }
                },
                "b2": {
                    "top": {
                        "type": "string",
                        "value": "3.50%"
                    }
                },
                "b3": {
                    "top": {
                        "type": "string",
                        "value": "3.50%"
                    }
                },
                "b4": {
                    "top": {
                        "type": "string",
                        "value": "3.50%"
                    },
                    "width": {
                        "type": "string",
                        "value": "85%"
                    }
                }
            },
            "top": {},
            "width": {
                "Default": {
                    "type": "string",
                    "value": "68%"
                }
            }
        },
        "flxNewPassword": {
            "__events__": {},
            "__info__": {
                "kuid": "b1087f086eb941c8a4d53adf4d3d5530",
                "srcKUID": "hbe60c95017a45e3a4cebb146a710d9d",
                "wType": "FlexContainer"
            },
            "responsiveData": {
                "b1": {
                    "top": {
                        "type": "string",
                        "value": "3.50%"
                    }
                },
                "b2": {
                    "top": {
                        "type": "string",
                        "value": "3.50%"
                    }
                },
                "b3": {
                    "top": {
                        "type": "string",
                        "value": "3.50%"
                    }
                },
                "b4": {
                    "top": {
                        "type": "string",
                        "value": "3.50%"
                    },
                    "width": {
                        "type": "string",
                        "value": "85%"
                    }
                }
            },
            "top": {},
            "width": {
                "Default": {
                    "type": "string",
                    "value": "68%"
                }
            }
        },
        "flxNewUserName": {
            "__events__": {},
            "__info__": {
                "kuid": "f5e4f2d4f44e4c439158b1cbd3a72f5a",
                "srcKUID": "bfe22d660f704640988902e87ae494f6",
                "wType": "FlexContainer"
            }
        },
        "flxPasswordResetContent": {
            "__events__": {},
            "__info__": {
                "kuid": "a8322f3407a34dcca61272f5be05b63e",
                "srcKUID": "f97cc7f82cfb49c49fbf938a560fdec5",
                "wType": "FlexContainer"
            },
            "responsiveData": {
                "b1": {
                    "isVisible": false
                }
            }
        },
        "flxPasswordRules": {
            "__events__": {},
            "__info__": {
                "kuid": "c98fc8b574764bd48988f8b5c32997ad",
                "srcKUID": "g80e1e0f18d94faba6712ae08a739548",
                "wType": "FlexContainer"
            }
        },
        "flxRulesPassword": {
            "__events__": {},
            "__info__": {
                "kuid": "b43d95f772a0490bb77edef8936e55ec",
                "srcKUID": "caa77885104b4124a407e2b66cc214ca",
                "wType": "FlexScrollContainer"
            },
            "centerX": {
                "Default": {
                    "type": "string",
                    "value": "50%"
                }
            },
            "height": {},
            "isVisible": false,
            "responsiveData": {
                "b1": {},
                "b3": {
                    "height": {
                        "type": "string",
                        "value": "140dp"
                    },
                    "top": {
                        "type": "string",
                        "value": "6dp"
                    }
                },
                "b4": {
                    "width": {
                        "type": "string",
                        "value": "85%"
                    }
                }
            },
            "width": {
                "Default": {
                    "type": "string",
                    "value": "68%"
                }
            }
        },
        "imgPasswordMatched": {
            "__events__": {},
            "__info__": {
                "kuid": "gc6feb41f7e4410eb7e5e948c89d1623",
                "srcKUID": "ce0dde2c71434d4b8f120b7a8d335da4",
                "wType": "Image"
            },
            "responsiveData": {
                "b1": {
                    "right": {
                        "type": "string",
                        "value": "3.03%"
                    }
                },
                "b2": {
                    "right": {
                        "type": "string",
                        "value": "3.03%"
                    }
                },
                "b3": {
                    "right": {
                        "type": "string",
                        "value": "3.03%"
                    }
                },
                "b4": {
                    "right": {
                        "type": "string",
                        "value": "3.03%"
                    }
                }
            },
            "right": {},
            "src": "success_icon.png"
        },
        "imgRules": {
            "__events__": {},
            "__info__": {
                "kuid": "b5fbc83797d6470cbc0424921fc90eca",
                "srcKUID": "fe8f0426f7f84849ae53f38a059f26d7",
                "wType": "Image"
            },
            "src": "info.png"
        },
        "imgUser": {
            "__events__": {},
            "__info__": {
                "kuid": "f22c106fe4fd4608ad0b31cba6eef7a2",
                "srcKUID": "heee5fb5afd14537a387d546f28e405f",
                "wType": "Image"
            },
            "src": "default_username.png"
        },
        "imgUserOutline": {
            "__events__": {},
            "__info__": {
                "kuid": "i4400b2dd34a4947813ecb7d1d6d820e",
                "srcKUID": "ia8eec2d31bc4a618f0ed768a14ad888",
                "wType": "Image"
            },
            "src": "user_reset_password_frame.png"
        },
        "imgValidPassword": {
            "__events__": {},
            "__info__": {
                "kuid": "ec8ffd0399714dbe9511f9e2a78ef197",
                "srcKUID": "i11eba2f111d4ad8b23437132cd1e8fe",
                "wType": "Image"
            },
            "responsiveData": {
                "b1": {
                    "right": {
                        "type": "string",
                        "value": "3.03%"
                    }
                },
                "b2": {
                    "right": {
                        "type": "string",
                        "value": "3.03%"
                    }
                },
                "b3": {
                    "right": {
                        "type": "string",
                        "value": "3.03%"
                    }
                },
                "b4": {
                    "right": {
                        "type": "string",
                        "value": "3.03%"
                    }
                }
            },
            "right": {},
            "src": "success_icon.png"
        },
        "lblErrorInfo": {
            "__events__": {},
            "__info__": {
                "kuid": "ia1b0a9f345a41b8bedd2dc601e01cf4",
                "srcKUID": "h1988ddb94724246a13419365ff1df91",
                "wType": "Label"
            },
            "centerX": {},
            "left": {},
            "responsiveData": {
                "b1": {
                    "centerX": {
                        "type": "string",
                        "value": ""
                    },
                    "isVisible": false,
                    "left": {
                        "type": "string",
                        "value": "80dp"
                    },
                    "top": {
                        "type": "string",
                        "value": "40%"
                    }
                },
                "b3": {
                    "centerX": {
                        "type": "string",
                        "value": "50%"
                    },
                    "isVisible": false,
                    "width": {
                        "type": "string",
                        "value": "80%"
                    }
                }
            },
            "top": {},
            "width": {}
        },
        "lblResetPasswordTitle": {
            "__events__": {},
            "__info__": {
                "kuid": "befdb66f5e4043b8ae9e855ebfafe3f4",
                "srcKUID": "b9ae712e847e47a8a6d21e6d4ca508cb",
                "wType": "Label"
            },
            "centerX": {},
            "left": {},
            "responsiveData": {
                "b1": {
                    "centerX": {
                        "type": "string",
                        "value": ""
                    },
                    "left": {
                        "type": "string",
                        "value": "80dp"
                    },
                    "top": {
                        "type": "string",
                        "value": "0%"
                    }
                },
                "b3": {
                    "centerX": {
                        "type": "string",
                        "value": "50%"
                    }
                }
            }
        },
        "lblRules": {
            "__events__": {},
            "__info__": {
                "kuid": "h878fcaaf757437784e46885829c0e43",
                "srcKUID": "b2495e32c2834c2cae3c994c6e63013c",
                "wType": "Label"
            }
        },
        "newpasswordsetting": {
            "__events__": {},
            "__info__": {
                "isRoot": true,
                "kuid": "ae8e201aebee432b9092aa89fcc768bd",
                "srcKUID": "j3f999b3ae124481b8129e743f357da4",
                "wType": "FlexContainer"
            },
            "autogrowMode": {
                "Default": 0
            },
            "height": {},
            "responsiveData": {
                "b1": {
                    "height": {
                        "type": "string",
                        "value": "100%"
                    },
                    "isVisible": true
                }
            }
        },
        "rtxRulesPassword": {
            "__events__": {},
            "__info__": {
                "kuid": "if0797f637544b7f8a25408558055031",
                "srcKUID": "e5aae2c73b844a5fbe674c0f5b9be417",
                "wType": "RichText"
            },
            "height": {
                "Default": {
                    "type": "ref",
                    "value": "preferred"
                }
            },
            "responsiveData": {}
        },
        "tbxMatchPassword": {
            "__events__": {},
            "__info__": {
                "kuid": "f51532f337024c7ca7c56f59227145f6",
                "srcKUID": "f0f72d188d7e4a9fac986ddeeea35042",
                "wType": "TextField"
            },
            "responsiveData": {
                "b1": {
                    "top": {
                        "type": "string",
                        "value": ""
                    }
                }
            },
            "top": {}
        },
        "tbxNewPassword": {
            "__events__": {},
            "__info__": {
                "kuid": "c00c2d2c79124342871355dc23d973e9",
                "srcKUID": "e0997dd1c45d46a58a2803d42f96e693",
                "wType": "TextField"
            },
            "responsiveData": {
                "b3": {
                    "right": {
                        "type": "string",
                        "value": ""
                    }
                }
            },
            "right": {},
            "secureTextEntry": true
        },
        "tbxNewUserName": {
            "__events__": {},
            "__info__": {
                "kuid": "d4e87b361df64328a40cd5ba288b0b78",
                "srcKUID": "d3e2702c4fbc4d00b646d222210b3ec3",
                "wType": "TextField"
            }
        }
    },
    "id": "newpasswordsetting",
    "info": null,
    "isdatareferenced": false,
    "isvisible": true,
    "kuid": "ae8e201aebee432b9092aa89fcc768bd",
    "layouttype": 4,
    "masterType": 0,
    "name": "kony.ui.UserWidgetInstance",
    "parent": "flxResetPassword",
    "pf": "frmLogin",
    "snapgridsize": 10,
    "snaptogrid": true,
    "sourceUserWidget": "j3f999b3ae124481b8129e743f357da4",
    "vizprops": {
        "hidewidgethierarchy": false
    },
    "wType": "UserWidgetInstance"
}