{
    "@class": "com.kony.gen.viz.model.component.KVizUserWidget",
    "DNDConfig": null,
    "__parentReadjusting__": false,
    "_children_": [],
    "_height_": {
        "type": "string",
        "value": "30dp"
    },
    "_left_": {
        "type": "string",
        "value": "0dp"
    },
    "_margin_": [
        0,
        0,
        0,
        0
    ],
    "_orientation_": 1,
    "_padding_": [
        0,
        0,
        0,
        0
    ],
    "_percent_": true,
    "_render_": true,
    "_skin_": "s24c92fc23b14f5484b693ee9b8a9b35",
    "_top_": {
        "type": "string",
        "value": "5.28%"
    },
    "_width_": {
        "type": "string",
        "value": "85%"
    },
    "areflexpropsreferenced": false,
    "autogrowmode": 0,
    "canUpdateUI": true,
    "centerx": {
        "type": "string",
        "value": "50%"
    },
    "clipbounds": true,
    "containerweight": 0,
    "dataDiffs": {
        "imgOr": {
            "__events__": {},
            "__info__": {
                "kuid": "f7d60eeb3ef9470a9cc4bef49499131e",
                "srcKUID": "b28d750c2e2c4d88a54b1597d8388d82",
                "wType": "Image"
            },
            "src": "or_circle.png"
        },
        "lblCrossOr": {
            "__events__": {},
            "__info__": {
                "kuid": "g54285df7af942b4830a21a7893a6054",
                "srcKUID": "d1da309e592b4180b6a9bcb5fdbfa537",
                "wType": "Label"
            }
        },
        "orline": {
            "__events__": {},
            "__info__": {
                "isRoot": true,
                "kuid": "fe0dafe29dc34923ad3b632b7d3a4f30",
                "srcKUID": "ddc3b57c039f44e2a41c9ebd04cbe726",
                "wType": "FlexContainer"
            },
            "autogrowMode": {
                "Default": 0
            },
            "centerX": {
                "Default": {
                    "type": "string",
                    "value": "50%"
                }
            },
            "height": {
                "Default": {
                    "type": "string",
                    "value": "30dp"
                }
            },
            "responsiveData": {
                "b1": {
                    "height": {
                        "type": "string",
                        "value": "35dp"
                    },
                    "top": {
                        "type": "string",
                        "value": "36.6%"
                    },
                    "width": {
                        "type": "string",
                        "value": "60%"
                    }
                },
                "b2": {
                    "height": {
                        "type": "string",
                        "value": "35dp"
                    },
                    "top": {
                        "type": "string",
                        "value": "45%"
                    },
                    "width": {
                        "type": "string",
                        "value": "60%"
                    }
                },
                "b3": {
                    "height": {
                        "type": "string",
                        "value": "35dp"
                    },
                    "top": {
                        "type": "string",
                        "value": "45%"
                    },
                    "width": {
                        "type": "string",
                        "value": "60%"
                    }
                },
                "b4": {
                    "height": {
                        "type": "string",
                        "value": "35dp"
                    },
                    "top": {
                        "type": "string",
                        "value": "42.28%"
                    },
                    "width": {
                        "type": "string",
                        "value": "60%"
                    }
                }
            },
            "top": {
                "Default": {
                    "type": "string",
                    "value": "5.28%"
                }
            },
            "width": {
                "Default": {
                    "type": "string",
                    "value": "85%"
                }
            }
        }
    },
    "id": "OrLineForCVVandPIN",
    "info": null,
    "isdatareferenced": false,
    "isvisible": true,
    "kuid": "fe0dafe29dc34923ad3b632b7d3a4f30",
    "layouttype": 2,
    "masterType": 0,
    "name": "kony.ui.UserWidgetInstance",
    "parent": "flxResetPassBtns",
    "pf": "frmLogin",
    "snaptogrid": true,
    "sourceUserWidget": "ddc3b57c039f44e2a41c9ebd04cbe726",
    "vizprops": {
        "hidewidgethierarchy": false
    },
    "wType": "UserWidgetInstance"
}