{
    "@class": "com.kony.gen.viz.model.component.KVizButton",
    "DNDConfig": null,
    "__parentReadjusting__": false,
    "_bottom_": {
        "type": "string",
        "value": "0px"
    },
    "_height_": {
        "type": "string",
        "value": "25px"
    },
    "_left_": {
        "type": "string",
        "value": "4.7%"
    },
    "_margin_": [
        6,
        6,
        6,
        6
    ],
    "_padding_": [
        0,
        0,
        0,
        0
    ],
    "_right_": {
        "type": "string",
        "value": "0px"
    },
    "_skin_": "sf6ca31ec68641e5a2df8232c58cd39a",
    "_text_": "VIEW DETAILS",
    "_top_": {
        "type": "string",
        "value": "80px"
    },
    "_width_": {
        "type": "string",
        "value": "24%"
    },
    "accessibilityconfig": {
        "a11yLabel": "View Details"
    },
    "canUpdateUI": true,
    "containerId": true,
    "containerweight": 100,
    "contentalignment": 4,
    "desktopweb": {
        "psp": {
            "hoverSkin": "sd36babbd8f6461f8b492698ab830d13"
        }
    },
    "disabledSkins": {
        "focusSkin": "s39489ea44db4833b71044279e89eff9"
    },
    "displaytext": true,
    "id": "btnviewdetails",
    "ide_onClick": "AS_Button_jb4be355388a4261a514696d16a334c8",
    "info": null,
    "isvisible": true,
    "kuid": "jaa5af5bdaa642ee8308ad80c961e7ec",
    "name": "kony.ui.Button",
    "parent": "flxsegment",
    "pf": "segAccountList",
    "texti18n": "i18n.common.ViewDetails",
    "tooltip": "View Details",
    "wType": "Button",
    "zindex": 1
}