{
    "DNDConfig": null,
    "_height_": {
        "type": "string",
        "value": "125px"
    },
    "_margin_": [
        0,
        0,
        0,
        0
    ],
    "_orientation_": 6,
    "_padding_": [
        0,
        0,
        0,
        0
    ],
    "_percent_": true,
    "_skin_": "sd889fdd715146e8a9f5e62b2940da1d",
    "allboxes": [],
    "autogrowmode": 0,
    "canUpdateUI": true,
    "children": [
        "lblAccount",
        "lblbank",
        "btnviewdetails",
        "btnMakeTransfer",
        "lblstatus",
        "flxsegmentseperator"
    ],
    "clipbounds": true,
    "containerId": true,
    "containerweight": 100,
    "controllerInfo": {
        "default": {
            "channel": "desktop",
            "name": "flxsegmentController"
        }
    },
    "enablescrolling": true,
    "id": "flxsegment",
    "info": null,
    "isTemplate": true,
    "isvisible": true,
    "kuid": "ae5664d7ebdd4c49902d4bfbdd6c8d92",
    "layouttype": 2,
    "name": "kony.ui.FlexContainer",
    "parent": "segAccountList",
    "pf": "segAccountList",
    "snapgridsize": 10,
    "snaptogrid": true,
    "wType": "FlexContainer",
    "widgetalignment": 1
}