{
    "@class": "com.kony.gen.viz.model.component.KVizUserWidget",
    "DNDConfig": null,
    "_children_": [],
    "_height_": {
        "type": "ref",
        "value": "preferred"
    },
    "_left_": {
        "type": "string",
        "value": "0dp"
    },
    "_margin_": [
        0,
        0,
        0,
        0
    ],
    "_orientation_": 1,
    "_padding_": [
        0,
        0,
        0,
        0
    ],
    "_percent_": true,
    "_skin_": "s24c92fc23b14f5484b693ee9b8a9b35",
    "_top_": {
        "type": "string",
        "value": "0dp"
    },
    "_width_": {
        "type": "string",
        "value": "100%"
    },
    "canUpdateUI": true,
    "containerweight": 0,
    "data": {
        "ackSectionTitle1": "{   \"$.BREAKPTS.BP1\": \"{i.i18n.transfers.Acknowledgement}\",   \"default\": \"{i.i18n.transfers.Acknowledgement}\" }",
        "ackSectionTitle2": "{   \"$.BREAKPTS.BP1\": \"{i.i18n.transfers.accountDetails}\",   \"default\": \"{i.i18n.transfers.accountDetails}\" }",
        "attachedFileList": "",
        "button2": "",
        "chargeValue": "",
        "chargesLabel": "",
        "field10Label": "",
        "field10Value": "",
        "field11Label": "",
        "field11Value": "",
        "field12Label": "",
        "field12Value": "",
        "field13Label": "",
        "field13Value": "",
        "field14Label": "",
        "field14Value": "",
        "field15Label": "",
        "field15Value": "",
        "field16Label": "",
        "field16Value": "",
        "field17Label": "",
        "field17Value": "",
        "field18Label": "",
        "field18Value": "",
        "field19Label": "",
        "field19Value": "",
        "field1Label": "{\"$.BREAKPTS.BP1\": \"{i.i18n.konybb.transfers.TransferType}:\", \"default\": \"{i.i18n.konybb.transfers.TransferType}:\"   }",
        "field1Value": "{    \"text\": \"{$.c.transferType}\",     \"fieldType\": \"Label\" }",
        "field20Label": "{   \"$.BREAKPTS.BP1\": \"{i.i18n.konybb.manageUser.PhoneNo}:\",   \"default\": \"{i.i18n.konybb.manageUser.PhoneNo}:\" }",
        "field20Value": "{   \"text\": \"{$.c.phoneNumberData}\",   \"fieldType\": \"Label\" }",
        "field21Label": "{   \"$.BREAKPTS.BP1\": \"{i.i18n.konybb.manageUser.EmailID}:\",   \"default\": \"{i.i18n.konybb.manageUser.EmailID}:\" }",
        "field21Value": "{   \"text\": \"{$.c.emailID}\",   \"fieldType\": \"Label\" }",
        "field22Label": "{   \"$.BREAKPTS.BP1\": \"{i.i18n.billpay.payeeAddress}:\",   \"default\": \"{i.i18n.billpay.payeeAddress}:\" }",
        "field22Value": "",
        "field2Label": "{   \"$.BREAKPTS.BP1\": \"{i.i18n.ChequeManagement.PayeeName}:\",   \"default\": \"{i.i18n.ChequeManagement.PayeeName}:\" }",
        "field2Value": "{   \"text\": \"{$.c.payeeName}\",   \"fieldType\": \"Label\" }",
        "field3Label": "{   \"$.BREAKPTS.BP1\": \"{i.i18n.common.accountNumber}:\",   \"default\": \"{i.i18n.common.accountNumber}:\" }",
        "field3Value": "{   \"text\": \"{$.c.accountNumber}\",   \"fieldType\": \"Label\" }",
        "field4Label": "{   \"$.BREAKPTS.BP1\": \"{i.i18n.TransfersEur.BICSWIFT}:\",   \"default\": \"{i.i18n.TransfersEur.BICSWIFT}:\" }",
        "field4Value": "{   \"text\": \"{$.c.BICCode}\",   \"fieldType\": \"Label\" }",
        "field5Label": "{   \"$.BREAKPTS.BP1\": \"{i.i18n.UnifiedTransfer.ClearingCode1}\",   \"default\": \"{i.i18n.UnifiedTransfer.ClearingCode1}\" }",
        "field5Value": "{   \"text\": \"{$.c.clearingCode1}\",   \"fieldType\": \"Label\" }",
        "field6Label": "{   \"$.BREAKPTS.BP1\": \"{i.i18n.UnifiedTransfer.ClearingCode2}:\",   \"default\": \"{i.i18n.UnifiedTransfer.ClearingCode2}:\" }",
        "field6Value": "{   \"text\": \"{$.c.clearingCode2}\",   \"fieldType\": \"Label\" }",
        "field7Label": "{\"$.BREAKPTS.BP1\":\"{i.i18n.payee.bankname}\",\"default\":\"{i.i18n.payee.bankname}\"}",
        "field7Value": "{   \"text\": \"{$.c.bankName}\",   \"fieldType\": \"Label\" }",
        "field8Label": "{   \"$.BREAKPTS.BP1\": \"{i.i18n.transfers.accountNickName}:\",   \"default\": \"{i.i18n.transfers.accountNickName}:\" }",
        "field8Value": "{   \"text\": \"{$.c.nickName}\",   \"fieldType\": \"Label\" }",
        "field9Label": "",
        "field9Value": "",
        "referenceNumberText": "{   \"$.BREAKPTS.BP1\": \"{i.i18n.ChequeManagement.ReferenceNumber}\",   \"default\": \"{i.i18n.ChequeManagement.ReferenceNumber}\" }",
        "sknAckText": "{\"$.BREAKPTS.BP1\":\"ICSknSSPRegular42424215Px\",\"default\":\"ICSknBBLabelSSP42424220px\"}",
        "sknFieldLabel": "{\"$.BREAKPTS.BP1\":\"ICSknSSP72727213Px\",\"default\":\"ICSknSSPRegular727272op10015px\"} ",
        "sknFocusPrimaryButton": "{\"$.BREAKPTS.BP1\":\"ICSknbtnEnabed003e7513px\",\"default\":\"ICSknUTFBtnSSPffffff15pxBg0273e3\"}",
        "sknFocusSecondaryButton": "{\"$.BREAKPTS.BP1\":\"sknBtnffffff13pxBorder0273e31pxRadius2px\",\"default\":\"ICSknBtnSSPRegular003E7515Px\"}",
        "sknHoverPrimaryButton": "{\"$.BREAKPTS.BP1\":\"ICSknbtnEnabed003e7513px\",\"default\":\"ICSknUTFBtnSSPffffff15pxBg0273e3\"}",
        "sknHoverSecondaryButton": "{\"$.BREAKPTS.BP1\":\"sknBtnffffff13pxBorder0273e31pxRadius2px\",\"default\":\"ICSknBtnSSPRegular003E7515Px\"}",
        "sknPrimaryButton": "{\"$.BREAKPTS.BP1\":\"ICSknbtnEnabed003e7513px\",\"default\":\"ICSknUTFBtnSSPffffff15pxBg0273e3\"}",
        "sknReferenceNumberValue": "{\"$.BREAKPTS.BP1\":\"ICSknBBLabelSSP42424220px\",\"default\":\"ICSknLbl424242SSPRegular24px\"}",
        "sknSecondaryButton": "{\"$.BREAKPTS.BP1\":\"sknBtnffffff13pxBorder0273e31pxRadius2px\",\"default\":\"ICSknBtnSSPRegular003E7515Px\"}",
        "supportingDocsLabel": ""
    },
    "id": "TransferAcknowledgement",
    "info": null,
    "iscustomlayout": false,
    "isvisible": true,
    "kuid": "da752239f63a4f9d8d187f9e4c14cbd0",
    "masterType": 1,
    "name": "kony.ui.UserWidgetInstance",
    "parent": "flxMain",
    "pf": "frmInternationalAddBeneAcknowledgement",
    "responsiveData": {
        "b1": {
            "top": {
                "type": "string",
                "value": "10dp"
            }
        },
        "b2": {
            "top": {
                "type": "string",
                "value": "5dp"
            }
        },
        "b4": {
            "top": {
                "type": "string",
                "value": "10dp"
            }
        }
    },
    "retaincontentalignment": false,
    "retainflexpositionproperties": false,
    "retainflowhorizontalalignment": false,
    "sourceUserWidget": "d30f7377907e4df0b577a322451f671b",
    "wType": "UserWidgetInstance"
}