{
    "@class": "com.kony.gen.viz.model.component.KVizButton",
    "DNDConfig": null,
    "__parentReadjusting__": false,
    "_height_": {
        "type": "ref",
        "value": "preferred"
    },
    "_left_": {
        "type": "string",
        "value": "35dp"
    },
    "_margin_": [
        6,
        6,
        6,
        6
    ],
    "_padding_": [
        0,
        0,
        0,
        0
    ],
    "_skin_": "sc4f4d62bde944aa823144bdf1cabdec",
    "_text_": "Contact Us",
    "_top_": {
        "type": "number",
        "value": ""
    },
    "_width_": {
        "type": "ref",
        "value": "preferred"
    },
    "accessibilityconfig": {
        "a11yLabel": "Terms & Conditions"
    },
    "canUpdateUI": true,
    "centerx": {
        "type": "number",
        "value": ""
    },
    "centery": {
        "type": "string",
        "value": "50%"
    },
    "containerweight": 100,
    "contentalignment": 5,
    "desktopweb": {
        "psp": {
            "hoverSkin": "sc4f4d62bde944aa823144bdf1cabdec"
        }
    },
    "displaytext": true,
    "focusskin": "sc4f4d62bde944aa823144bdf1cabdec",
    "id": "btnTermsAndConditions",
    "info": null,
    "isvisible": true,
    "kuid": "jf3579fef28e4cc0b959262159790407",
    "name": "kony.ui.Button",
    "paddinginpixel": false,
    "parent": "flxFooterContainer",
    "pf": "frmLogout",
    "responsiveData": {
        "b1": {
            "centerX": {
                "type": "string",
                "value": ""
            },
            "centerY": {
                "type": "string",
                "value": "50%"
            },
            "left": {
                "type": "string",
                "value": "13px"
            },
            "padding": [
                0,
                0,
                0,
                0
            ],
            "skin": "sc4f4d62bde944aa823144bdf1cabdec",
            "text": "Terms & Conditions",
            "top": {
                "type": "number",
                "value": "0"
            },
            "width": {
                "type": "ref",
                "value": "preferred"
            }
        },
        "b2": {
            "left": {
                "type": "string",
                "value": "15dp"
            },
            "padding": [
                0,
                0,
                0,
                0
            ],
            "skin": "sc4f4d62bde944aa823144bdf1cabdec"
        },
        "b3": {
            "isVisible": false
        },
        "b4": {
            "left": {
                "type": "string",
                "value": "15dp"
            },
            "skin": "sc4f4d62bde944aa823144bdf1cabdec"
        }
    },
    "texti18n": "i18n.common.TnC",
    "tooltip": "Terms & Conditions",
    "wType": "Button",
    "zindex": 1
}