{
    "DNDConfig": null,
    "__parentReadjusting__": false,
    "_height_": {
        "type": "string",
        "value": "100%"
    },
    "_left_": {
        "type": "string",
        "value": "0px"
    },
    "_margin_": [
        0,
        0,
        0,
        0
    ],
    "_orientation_": 6,
    "_padding_": [
        0,
        0,
        0,
        0
    ],
    "_percent_": true,
    "_skin_": "s7be51e57f434f5bb73003c5abb9f94d",
    "_top_": {
        "type": "string",
        "value": "0dp"
    },
    "_width_": {
        "type": "string",
        "value": "100%"
    },
    "allboxes": [],
    "canUpdateUI": true,
    "children": [
        "flxLoadingWrapperChangeLang",
        "lblChangeLang"
    ],
    "clipbounds": true,
    "containerweight": 100,
    "enablescrolling": true,
    "id": "flxLoadingChangeLanguage",
    "info": null,
    "isvisible": false,
    "kuid": "f4b72cc5434b47ccaa0dca7c43d5ad23",
    "layouttype": 2,
    "name": "kony.ui.FlexContainer",
    "parent": "frmLogout",
    "pf": "frmLogout",
    "responsiveData": {
        "b1": {
            "height": {
                "type": "string",
                "value": "100%"
            },
            "isVisible": false,
            "layoutType": 4,
            "left": {
                "type": "string",
                "value": "0px"
            },
            "skin": "s7be51e57f434f5bb73003c5abb9f94d",
            "top": {
                "type": "string",
                "value": "0dp"
            }
        },
        "b2": {
            "layoutType": 4,
            "skin": "s7be51e57f434f5bb73003c5abb9f94d"
        },
        "b3": {
            "skin": "s7be51e57f434f5bb73003c5abb9f94d"
        },
        "b4": {
            "layoutType": 2,
            "skin": "s7be51e57f434f5bb73003c5abb9f94d",
            "top": {
                "type": "string",
                "value": "0dp"
            }
        }
    },
    "snapgridsize": 10,
    "snaptogrid": true,
    "wType": "FlexContainer",
    "widgetalignment": 1,
    "zindex": 1000
}