{
    "@class": "com.kony.gen.viz.model.component.KVizLabel",
    "DNDConfig": null,
    "__parentReadjusting__": false,
    "_height_": {
        "type": "ref",
        "value": "preferred"
    },
    "_left_": {
        "type": "string",
        "value": "595dp"
    },
    "_margin_": [
        1,
        1,
        1,
        1
    ],
    "_padding_": [
        0,
        0,
        0,
        0
    ],
    "_skin_": "s1f60a6d51a6450e9fb01c504d007b1f",
    "_text_": "",
    "_top_": {
        "type": "string",
        "value": "250dp"
    },
    "_width_": {
        "type": "ref",
        "value": "preferred"
    },
    "_wrapping_": 2,
    "accessibilityconfig": {
        "a11yLabel": "Relationships Beyond Banking"
    },
    "android": {
        "textStyle": {
            "letterSpacing": 0,
            "strikeThrough": false
        }
    },
    "canUpdateUI": true,
    "containerweight": 100,
    "contentalignment": 4,
    "id": "lblBeyondBanking",
    "info": null,
    "ipad": {
        "psp": {
            "wrapping": 2
        }
    },
    "iphone": {
        "psp": {
            "wrapping": 2
        }
    },
    "iscustomlayout": false,
    "isvisible": true,
    "kuid": "d3e3e15b679f4d7a95504346ea005aa9",
    "name": "kony.ui.Label",
    "parent": "flxMain",
    "pf": "frmLogout",
    "responsiveData": {
        "b1": {
            "left": {
                "type": "string",
                "value": "565dp"
            },
            "skin": "s1f60a6d51a6450e9fb01c504d007b1f",
            "width": {
                "type": "string",
                "value": "55%"
            }
        },
        "b2": {
            "isVisible": false
        },
        "b3": {
            "isVisible": false
        },
        "b4": {
            "isVisible": false
        }
    },
    "retaincontentalignment": false,
    "retainflexpositionproperties": false,
    "texti18n": "i18n.login.BeyondBanking",
    "tooltip": "",
    "wType": "Label",
    "zindex": 1
}