{
    "@class": "com.kony.gen.viz.model.component.KVizUserWidget",
    "DNDConfig": null,
    "__parentReadjusting__": false,
    "_children_": [],
    "_height_": {
        "type": "string",
        "value": "80dp"
    },
    "_left_": {
        "type": "string",
        "value": "0dp"
    },
    "_margin_": [
        0,
        0,
        0,
        0
    ],
    "_orientation_": 1,
    "_padding_": [
        0,
        0,
        0,
        0
    ],
    "_percent_": true,
    "_render_": true,
    "_skin_": "s24c92fc23b14f5484b693ee9b8a9b35",
    "_top_": {
        "type": "string",
        "value": "0dp"
    },
    "_width_": {
        "type": "string",
        "value": "100%"
    },
    "areflexpropsreferenced": false,
    "autogrowmode": 0,
    "canUpdateUI": true,
    "clipbounds": false,
    "containerweight": 0,
    "dataDiffs": {
        "Search": {
            "__events__": {},
            "__info__": {
                "isRoot": true,
                "kuid": "hef3b56a3bd34182b2e96e74674cf3a1",
                "srcKUID": "afd57c04bad743bba99d0e5529f286ef",
                "wType": "FlexContainer"
            },
            "autogrowMode": {
                "Default": 0
            },
            "height": {
                "Default": {
                    "type": "string",
                    "value": "80dp"
                }
            },
            "left": {
                "Default": {
                    "type": "string",
                    "value": "0dp"
                }
            },
            "top": {
                "Default": {
                    "type": "string",
                    "value": "0dp"
                }
            },
            "zIndex": {
                "Default": 1
            }
        },
        "btnConfirm": {
            "__events__": {},
            "__info__": {
                "kuid": "h206b965d3a745789bd310796fcb54a3",
                "srcKUID": "e9702e4808614e879fc1c538e8418494",
                "wType": "FlexContainer"
            },
            "centerX": {
                "Default": {
                    "type": "string",
                    "value": ""
                }
            },
            "left": {
                "Default": {
                    "type": "string",
                    "value": "15px"
                }
            },
            "responsiveData": {},
            "width": {
                "Default": {
                    "type": "string",
                    "value": "25dp"
                }
            }
        },
        "btnConfirm1": {
            "__events__": {},
            "__info__": {
                "kuid": "cd3d06a21cf04b9a9da8090283ca3209",
                "srcKUID": "af76dace2e82450d9f162b8462c58110",
                "wType": "Button"
            }
        },
        "flxClearBtn": {
            "__events__": {},
            "__info__": {
                "kuid": "j39e5bb80f9b483da8781d1a45b3e9ab",
                "srcKUID": "d3fe792123d04455b5f0b964efb41461",
                "wType": "FlexContainer"
            },
            "isVisible": false,
            "width": {
                "Default": {
                    "type": "string",
                    "value": "40dp"
                }
            }
        },
        "flxtxtSearchandClearbtn": {
            "__events__": {},
            "__info__": {
                "kuid": "a45b2761ac554943a125e5fa0dc2980e",
                "srcKUID": "c09f8d65274f4847b9b386da774ae9ed",
                "wType": "FlexContainer"
            },
            "autogrowMode": {
                "Default": 0
            },
            "height": {
                "Default": {
                    "type": "string",
                    "value": "50dp"
                }
            },
            "layoutType": 2,
            "left": {
                "Default": {
                    "type": "string",
                    "value": "2%"
                }
            },
            "responsiveData": {},
            "right": {
                "Default": {
                    "type": "string",
                    "value": "2%"
                }
            },
            "top": {
                "Default": {
                    "type": "string",
                    "value": "0dp"
                }
            }
        },
        "imgCross": {
            "__events__": {},
            "__info__": {
                "kuid": "de341d12d7024803bd9c4c7cd84870c6",
                "srcKUID": "eaa7b734e8034d52976bb1bb5a6ef8df",
                "wType": "Image"
            },
            "src": "search_close.png"
        },
        "lblSearch": {
            "__events__": {},
            "__info__": {
                "kuid": "fcd3d0e2a49948bdada961727b555c91",
                "srcKUID": "ha872e5f14bd4b81be4c93f1a3c18480",
                "wType": "Label"
            },
            "height": {
                "Default": {
                    "type": "string",
                    "value": "100%"
                }
            },
            "responsiveData": {},
            "width": {
                "Default": {
                    "type": "string",
                    "value": "100%"
                }
            }
        },
        "txtSearch": {
            "__events__": {},
            "__info__": {
                "kuid": "d152120a42b84b4ea23d2b3a48b22017",
                "srcKUID": "i3f8ddcc8538436280c67c4c0ccc7cb6",
                "wType": "TextField"
            },
            "i18n_placeholder": "i18n.billpay.searchForKeywords",
            "left": {
                "Default": {
                    "type": "string",
                    "value": "42px"
                }
            },
            "placeholder": "Search for keywords",
            "responsiveData": {
                "b2": {
                    "text": ""
                }
            },
            "right": {
                "Default": {
                    "type": "string",
                    "value": "40px"
                }
            },
            "text": "",
            "width": {
                "Default": {
                    "type": "string",
                    "value": ""
                }
            }
        }
    },
    "id": "Search",
    "info": null,
    "isdatareferenced": false,
    "isvisible": true,
    "kuid": "hef3b56a3bd34182b2e96e74674cf3a1",
    "layouttype": 2,
    "masterType": 0,
    "name": "kony.ui.UserWidgetInstance",
    "parent": "flxSearch",
    "pf": "frmMakeBulkTransferTemplate",
    "snapgridsize": 10,
    "snaptogrid": true,
    "sourceUserWidget": "afd57c04bad743bba99d0e5529f286ef",
    "wType": "UserWidgetInstance",
    "zindex": 1
}