{
    "@class": "com.kony.gen.viz.model.component.KVizUserWidget",
    "DNDConfig": null,
    "__parentReadjusting__": false,
    "_bottom_": {
        "Default": {
            "type": "string",
            "value": ""
        }
    },
    "_children_": [],
    "_height_": {
        "type": "string",
        "value": "60dp"
    },
    "_left_": {
        "type": "string",
        "value": "44dp"
    },
    "_margin_": [
        0,
        0,
        0,
        0
    ],
    "_orientation_": 1,
    "_padding_": [
        0,
        0,
        0,
        0
    ],
    "_percent_": true,
    "_render_": true,
    "_skin_": "s24c92fc23b14f5484b693ee9b8a9b35",
    "_top_": {
        "type": "string",
        "value": "0"
    },
    "_width_": {
        "type": "string",
        "value": "100%"
    },
    "areflexpropsreferenced": false,
    "autogrowmode": 0,
    "canUpdateUI": true,
    "clipbounds": true,
    "containerweight": 0,
    "dataDiffs": {
        "flxPaginationFirst": {
            "__events__": {},
            "__info__": {
                "kuid": "cbee936011094cc5b9ad45ceed5033ba",
                "srcKUID": "dc5425bcffde40bba077f3ef27070e02",
                "wType": "FlexContainer"
            },
            "left": {
                "Default": {
                    "Default": {
                        "type": "string",
                        "value": "30dp"
                    }
                }
            }
        },
        "flxPaginationLast": {
            "__events__": {},
            "__info__": {
                "kuid": "e836c58c149149d3abc5c01f11558452",
                "srcKUID": "e5732cffb816477cbfc5cacac88a046a",
                "wType": "FlexContainer"
            }
        },
        "flxPaginationNext": {
            "__events__": {},
            "__info__": {
                "kuid": "fb0a75f71ada4b19835fdc1fdd35555b",
                "srcKUID": "f98d1324102c48ce890e02e4539c1c49",
                "wType": "FlexContainer"
            }
        },
        "flxPaginationPrevious": {
            "__events__": {},
            "__info__": {
                "kuid": "ffa0016dcb7348318d9d00beac38df02",
                "srcKUID": "h7d55c477073421abc369f7b38c6c8ac",
                "wType": "FlexContainer"
            }
        },
        "tablePagination": {
            "__events__": {},
            "__info__": {
                "isRoot": true,
                "kuid": "c1bbf44d68e1424cbd2c16620316999a",
                "srcKUID": "d0682091242b4be393889732aa217f2b",
                "wType": "FlexContainer"
            },
            "autogrowMode": {
                "Default": 0
            },
            "bottom": {
                "Default": {
                    "Default": {
                        "type": "string",
                        "value": ""
                    }
                }
            },
            "height": {
                "Default": {
                    "type": "string",
                    "value": "60dp"
                }
            },
            "isVisible": true,
            "left": {
                "Default": {
                    "type": "string",
                    "value": "44dp"
                }
            },
            "responsiveData": {
                "b1": {
                    "top": {
                        "type": "string",
                        "value": "10dp"
                    }
                },
                "b2": {
                    "centerY": {
                        "type": "string",
                        "value": ""
                    },
                    "desktopweb": {
                        "centerY": {
                            "type": "string",
                            "value": ""
                        }
                    },
                    "top": {
                        "type": "string",
                        "value": "10dp"
                    }
                },
                "b3": {
                    "centerY": {
                        "type": "string",
                        "value": ""
                    },
                    "desktopweb": {
                        "centerY": {
                            "type": "string",
                            "value": ""
                        }
                    },
                    "top": {
                        "type": "string",
                        "value": "10dp"
                    }
                }
            },
            "top": {
                "Default": {
                    "type": "string",
                    "value": "0"
                }
            }
        }
    },
    "id": "tablePaginationWireTransfer",
    "info": null,
    "isdatareferenced": false,
    "issegmentchild": false,
    "isvisible": true,
    "kuid": "c1bbf44d68e1424cbd2c16620316999a",
    "layouttype": 2,
    "masterType": 0,
    "name": "kony.ui.UserWidgetInstance",
    "parent": "flxWireTransferActivityWindowMain",
    "pf": "frmMakeBulkTransferTemplate",
    "snaptogrid": true,
    "sourceUserWidget": "d0682091242b4be393889732aa217f2b",
    "wType": "UserWidgetInstance"
}