{
    "@class": "com.kony.gen.viz.model.component.KVizLabel",
    "DNDConfig": null,
    "_height_": {
        "type": "ref",
        "value": "preferred"
    },
    "_left_": {
        "type": "string",
        "value": "90dp"
    },
    "_margin_": [
        1,
        1,
        1,
        1
    ],
    "_padding_": [
        0,
        0,
        0,
        0
    ],
    "_skin_": "s1eb974185cd45669fe7758225fa0206",
    "_text_": "Label",
    "_top_": {
        "type": "string",
        "value": "17dp"
    },
    "_width_": {
        "type": "ref",
        "value": "preferred"
    },
    "_wrapping_": 2,
    "android": {
        "textStyle": {
            "letterSpacing": 0,
            "strikeThrough": false
        }
    },
    "canUpdateUI": true,
    "containerweight": 100,
    "contentalignment": 4,
    "id": "lblError1",
    "info": null,
    "ipad": {
        "psp": {
            "wrapping": 2
        }
    },
    "iphone": {
        "psp": {
            "wrapping": 2
        }
    },
    "iscustomlayout": false,
    "isvisible": true,
    "kuid": "j91bb6c6dc8943259bd05db5aa307aa5",
    "name": "kony.ui.Label",
    "parent": "flxError",
    "pf": "frmPayaPersonAddBeneficiary",
    "responsiveData": {
        "b1": {
            "skin": "s762f9c8672a4dcc986b5607797915ff"
        },
        "b2": {
            "skin": "s762f9c8672a4dcc986b5607797915ff",
            "text": "Label"
        },
        "b3": {
            "left": {
                "type": "string",
                "value": "48dp"
            },
            "skin": "s8ce199ccf0641b7a6a4df0b62e2080a",
            "text": "Label",
            "top": {
                "type": "string",
                "value": "10dp"
            }
        },
        "b4": {
            "skin": "s762f9c8672a4dcc986b5607797915ff"
        }
    },
    "retaincontentalignment": false,
    "retainflexpositionproperties": false,
    "tooltip": "",
    "wType": "Label"
}