{
    "@class": "com.kony.gen.viz.model.component.KVizButton",
    "DNDConfig": null,
    "_height_": {
        "type": "string",
        "value": "45dp"
    },
    "_left_": {
        "type": "string",
        "value": "2%"
    },
    "_margin_": [
        6,
        6,
        6,
        6
    ],
    "_padding_": [
        0,
        0,
        0,
        0
    ],
    "_skin_": "sc569d5db4eb4d8aa6a7f0400662d66f",
    "_text_": "Back",
    "_top_": {
        "type": "number",
        "value": ""
    },
    "_width_": {
        "type": "string",
        "value": "180dp"
    },
    "canUpdateUI": true,
    "centery": {
        "type": "string",
        "value": "50%"
    },
    "containerweight": 100,
    "contentalignment": 5,
    "desktopweb": {
        "psp": {
            "hoverSkin": "s83729feaa224e359d660d5af05c4bac"
        }
    },
    "disabledSkins": {
        "focusSkin": "sf44d06ca8224832827ea7fdff757013"
    },
    "displaytext": true,
    "id": "btnCancelRoles",
    "info": null,
    "isvisible": true,
    "kuid": "acea80d889394859b9736c8518039a18",
    "minwidth": {
        "type": "number",
        "value": ""
    },
    "name": "kony.ui.Button",
    "parent": "flxSelectRoleControl",
    "pf": "frmUpdatePermissionsInBulk",
    "responsiveData": {
        "b1": {
            "centerY": {
                "type": "string",
                "value": ""
            },
            "height": {
                "type": "string",
                "value": "40dp"
            },
            "left": {
                "type": "string",
                "value": "2.00%"
            },
            "minWidth": {
                "type": "string",
                "value": ""
            },
            "top": {
                "type": "string",
                "value": "30px"
            }
        },
        "b2": {
            "centerY": {
                "type": "string",
                "value": ""
            },
            "height": {
                "type": "string",
                "value": "40dp"
            },
            "top": {
                "type": "string",
                "value": "30px"
            }
        },
        "b3": {
            "top": {
                "type": "string",
                "value": "70dp"
            }
        },
        "b4": {
            "centerY": {
                "type": "string",
                "value": ""
            },
            "height": {
                "type": "string",
                "value": "40dp"
            },
            "top": {
                "type": "string",
                "value": "30px"
            }
        }
    },
    "texti18n": "i18n.CardManagement.Back",
    "tooltip": "Cancel",
    "wType": "Button",
    "zindex": 1
}