{
    "DNDConfig": null,
    "_bottom_": {
        "type": "string",
        "value": "20dp"
    },
    "_height_": {
        "type": "ref",
        "value": "preferred"
    },
    "_left_": {
        "type": "string",
        "value": "18dp"
    },
    "_margin_": [
        0,
        0,
        0,
        0
    ],
    "_orientation_": 6,
    "_padding_": [
        0,
        0,
        0,
        0
    ],
    "_percent_": true,
    "_right_": {
        "type": "string",
        "value": "20dp"
    },
    "_skin_": "s7ed081a427e4ea9b3f14b72363b3f11",
    "_top_": {
        "type": "string",
        "value": "20dp"
    },
    "_width_": {
        "type": "string",
        "value": "97%"
    },
    "allboxes": [],
    "autogrowmode": 1,
    "canUpdateUI": true,
    "centerx": {
        "type": "number",
        "value": ""
    },
    "children": [
        "flxAccntHeader",
        "imgArrow",
        "flxAccountSelectSeperator",
        "flxFeatureContainer",
        "flxAction",
        "flxSelectAccountBottom",
        "flxAccntsSelceted"
    ],
    "clipbounds": false,
    "containerweight": 100,
    "enablescrolling": true,
    "id": "flxSelectAccounts",
    "info": null,
    "iscustomlayout": false,
    "isvisible": true,
    "kuid": "b77851c0c0354c47938958b4d0e0069f",
    "layouttype": 2,
    "name": "kony.ui.FlexContainer",
    "parent": "flxSelectPermissionsBulk",
    "pf": "frmUpdatePermissionsInBulk",
    "responsiveData": {
        "b1": {
            "zIndex": 6
        },
        "b4": {
            "centerX": {
                "type": "string",
                "value": "50%"
            },
            "zIndex": 7
        }
    },
    "retaincontentalignment": false,
    "retainflexpositionproperties": false,
    "retainflowhorizontalalignment": false,
    "snapgridsize": 10,
    "snaptogrid": true,
    "wType": "FlexContainer",
    "widgetalignment": 1,
    "zindex": 2
}