{
	 "@class": "com.kony.gen.viz.model.component.KVizLabel",
	 "DNDConfig": null,
	 "__parentReadjusting__": false,
	 "_height_": {
		 "type": "ref",
		 "value": "preferred"
	},
	 "_margin_": [
		 1,
		 1,
		 1,
		 1
	],
	 "_padding_": [
		 0,
		 0,
		 0,
		 0
	],
	 "_skin_": "s7e72f0016774dfe9007b38b611383f6",
	 "_text_": "C",
	 "_width_": {
		 "type": "string",
		 "value": "25px"
	},
	 "_wrapping_": 2,
	 "android": {
		 "textStyle": {
			 "letterSpacing": 0,
			 "strikeThrough": false
		}
	},
	 "canUpdateUI": true,
	 "centerx": {
		 "type": "string",
		 "value": "50%"
	},
	 "centery": {
		 "type": "string",
		 "value": "50%"
	},
	 "containerId": true,
	 "containerweight": 100,
	 "contentalignment": 5,
	 "id": "lblCheckTransaction",
	 "info": null,
	 "ipad": {
		 "psp": {
			 "wrapping": 2
		}
	},
	 "iphone": {
		 "psp": {
			 "wrapping": 2
		}
	},
	 "iscustomlayout": false,
	 "isvisible": true,
	 "kuid": "f50faebdec53499fa3d771d7bdc669e9",
	 "name": "kony.ui.Label",
	 "parent": "flxImgCheckTransaction",
	 "pf": "segBBAccountsCheckable",
	 "retaincontentalignment": false,
	 "retainflexpositionproperties": false,
	 "tooltip": "",
	 "wType": "Label",
	 "zindex": 1,
	 "accessibilityconfig": {
		 "a11yLabel": "Checkbox"
	}
}