{
    "@class": "com.kony.gen.viz.model.component.KVizButton",
    "DNDConfig": null,
    "_height_": {
        "type": "string",
        "value": "25dp"
    },
    "_left_": {
        "type": "string",
        "value": "0%"
    },
    "_margin_": [
        6,
        6,
        6,
        6
    ],
    "_padding_": [
        0,
        0,
        0,
        0
    ],
    "_skin_": "se4cbdf6e51f48eda9966caa941c6a19",
    "_text_": "EDIT",
    "_top_": {
        "type": "string",
        "value": "13px"
    },
    "_width_": {
        "type": "ref",
        "value": "preferred"
    },
    "accessibilityconfig": {
        "a11yLabel": "EDIT"
    },
    "canUpdateUI": true,
    "containerId": true,
    "containerweight": 100,
    "contentalignment": 5,
    "desktopweb": {
        "psp": {
            "hoverSkin": "sd36babbd8f6461f8b492698ab830d13"
        }
    },
    "disabledSkins": {},
    "displaytext": true,
    "focusskin": "se4cbdf6e51f48eda9966caa941c6a19",
    "id": "btnEdit",
    "ide_onClick": "AS_Button_e79465538fb847eeb8fe352d307c8524",
    "info": null,
    "isvisible": true,
    "kuid": "j0c0be026f694a8b869725f959dbf7cd",
    "name": "kony.ui.Button",
    "parent": "flxEditAction",
    "pf": "segManageRecipientSelectedP2P",
    "wType": "Button",
    "zindex": 1
}