{
    "@class": "com.kony.gen.viz.model.component.KVizBrowser",
    "DNDConfig": null,
    "_height_": {
        "type": "string",
        "value": "220dp"
    },
    "_left_": {
        "type": "string",
        "value": "30dp"
    },
    "_margin_": [
        0,
        0,
        0,
        0
    ],
    "_padding_": [
        0,
        0,
        0,
        0
    ],
    "_top_": {
        "type": "string",
        "value": "0dp"
    },
    "_type_": 5,
    "_width_": {
        "type": "string",
        "value": "220dp"
    },
    "androidwearos": {
        "render": false
    },
    "canUpdateUI": true,
    "centerx": {
        "type": "number",
        "value": ""
    },
    "centery": {
        "type": "string",
        "value": "50%"
    },
    "containerweight": 69,
    "detecttelnumber": true,
    "enablenativecommunication": false,
    "htmlstring": "Browser",
    "id": "totalAssetsChart",
    "info": null,
    "iscustomlayout": false,
    "isvisible": true,
    "kuid": "d04b4d301d4f47f1a0968f4c5e62291b",
    "localurl": "w5fd9642b3704e789b8add2291eb6e65",
    "margininpixel": false,
    "method": "get",
    "name": "kony.ui.Browser",
    "paddinginpixel": false,
    "parent": "flxContent",
    "pf": "userwidgetmodel",
    "requesturlconfig": {
        "URL": "",
        "requestMethod": "get"
    },
    "responsiveData": {},
    "retaincontentalignment": false,
    "retainflexpositionproperties": false,
    "screenlevelwidget": false,
    "url": "",
    "wType": "Browser",
    "zindex": 2
}