{
    "DNDConfig": null,
    "_height_": {
        "type": "string",
        "value": "70dp"
    },
    "_margin_": [
        0,
        0,
        0,
        0
    ],
    "_orientation_": 6,
    "_padding_": [
        0,
        0,
        0,
        0
    ],
    "_percent_": true,
    "_right_": {
        "type": "string",
        "value": "80dp"
    },
    "_skin_": "s4554df0b23a4035958ca4e00a77cbba",
    "_top_": {
        "type": "string",
        "value": "0dp"
    },
    "_width_": {
        "type": "string",
        "value": "100%"
    },
    "allboxes": [],
    "autogrowmode": 0,
    "canUpdateUI": true,
    "children": [
        "flxNotifications",
        "flxSeparator1",
        "flxUser",
        "flxSeperator2",
        "btnLogout",
        "imgLogout",
        "flxWarning",
        "flxMessages",
        "flxVerticalSeperator3"
    ],
    "clipbounds": false,
    "containerweight": 100,
    "enablescrolling": true,
    "id": "flxActionsMenu",
    "info": null,
    "isvisible": true,
    "kuid": "f5fec7baee6841e7b95c2a53379aeea3",
    "layouttype": 2,
    "name": "kony.ui.FlexContainer",
    "parent": "flxLogoAndActionsWrapper",
    "pf": "userwidgetmodel",
    "snapgridsize": 10,
    "snaptogrid": true,
    "vizProps": {
        "hidewidgethierarchy": false
    },
    "wType": "FlexContainer",
    "widgetalignment": 1
}