{
    "@class": "com.kony.gen.viz.model.component.KVizImage2",
    "DNDConfig": null,
    "__parentReadjusting__": false,
    "_base64_": null,
    "_height_": {
        "type": "string",
        "value": "30dp"
    },
    "_margin_": [
        0,
        0,
        0,
        0
    ],
    "_padding_": [
        0,
        0,
        0,
        0
    ],
    "_skin_": "s78a5f26c9f14cec9ebed1bb46098f80",
    "_src_": "notification_flag.png",
    "_width_": {
        "type": "string",
        "value": "25dp"
    },
    "accessibilityconfig": {
        "a11yLabel": "Alerts",
        "a11yValue": ""
    },
    "canUpdateUI": true,
    "centerx": {
        "type": "string",
        "value": "50%"
    },
    "centery": {
        "type": "string",
        "value": "45%"
    },
    "containerweight": 100,
    "context": {
        "channel": "desktop",
        "formID": "uwi629e1393b4c4ebb8876a4450824eaab",
        "platform": "desktopweb",
        "templateType": "userwidgets",
        "topLevelBox": null
    },
    "id": "imgNotifications",
    "imagescalemode": 0,
    "imagewhiledownloading": "img_transparent.png",
    "info": null,
    "invokedProperty": "src",
    "isvisible": true,
    "kuid": "a6e8c4a6887349caac366cd06a1a61c7",
    "name": "kony.ui.Image2",
    "parent": "flxMessages",
    "pf": "userwidgetmodel",
    "srcType": 1,
    "tooltip": "Alerts and Messages",
    "wType": "Image",
    "widgetalignment": 5,
    "zindex": 1
}