{
    "@class": "com.kony.gen.viz.model.component.KVizButton",
    "DNDConfig": null,
    "__parentReadjusting__": false,
    "_height_": {
        "type": "string",
        "value": "40px"
    },
    "_left_": {
        "type": "number",
        "value": ""
    },
    "_margin_": [
        6,
        6,
        6,
        6
    ],
    "_padding_": [
        0,
        0,
        0,
        0
    ],
    "_right_": {
        "type": "string",
        "value": "37dp"
    },
    "_skin_": "s4fe0674a3c84b76a21524a90bad4282",
    "_text_": "Button",
    "_top_": {
        "type": "string",
        "value": "430dp"
    },
    "_width_": {
        "type": "string",
        "value": "250px"
    },
    "canUpdateUI": true,
    "containerweight": 100,
    "contentalignment": 5,
    "desktopweb": {
        "psp": {
            "hoverSkin": "s7ab6326aaf94c28b90b61fcb1b54547"
        }
    },
    "disabledSkins": {},
    "displaytext": true,
    "focusskin": "sfd0ce0d7f454c9f83c7e815a90a8a55",
    "id": "btnAccounts",
    "info": null,
    "iscustomlayout": false,
    "isvisible": true,
    "kuid": "f1535aec38f64d4ebc8a891aba21ba43",
    "name": "kony.ui.Button",
    "parent": "flxDeActivateAcknowledgement",
    "pf": "frmFastDeActiveRecipienttAcknowledgement",
    "responsiveData": {
        "b1": {
            "right": {
                "type": "string",
                "value": "6%"
            }
        },
        "b2": {
            "right": {
                "type": "string",
                "value": "2.50%"
            },
            "top": {
                "type": "string",
                "value": "20dp"
            },
            "width": {
                "type": "string",
                "value": "22%"
            }
        },
        "b3": {
            "left": {
                "type": "string",
                "value": "2%"
            },
            "right": {
                "type": "string",
                "value": "2%"
            },
            "top": {
                "type": "string",
                "value": "20dp"
            },
            "width": {
                "type": "string",
                "value": "96%"
            }
        },
        "b4": {
            "right": {
                "type": "string",
                "value": "6%"
            }
        }
    },
    "retaincontentalignment": false,
    "retainflexpositionproperties": false,
    "texti18n": "i18n.topmenu.accounts",
    "wType": "Button",
    "zindex": 1,
    "accessibilityconfig": {
        "a11yLabel": "Accounts"
    }
}