{
    "@class": "com.kony.gen.viz.model.component.KVizLabel",
    "DNDConfig": null,
    "_height_": {
        "type": "string",
        "value": "28px"
    },
    "_left_": {
        "type": "string",
        "value": "0dp"
    },
    "_margin_": [
        1,
        1,
        1,
        1
    ],
    "_padding_": [
        0,
        0,
        0,
        0
    ],
    "_skin_": "s9739fe0569d4851a6e139a20b64dd6e",
    "_text_": "You can change your receiving medium of Secure Access Code from",
    "_top_": {
        "type": "number",
        "value": "0"
    },
    "_width_": {
        "type": "ref",
        "value": "preferred"
    },
    "_wrapping_": 2,
    "accessibilityconfig": {
        "a11yLabel": "Didnt receive our text? Please use the"
    },
    "android": {
        "textStyle": {
            "letterSpacing": 0,
            "strikeThrough": false
        }
    },
    "canUpdateUI": true,
    "containerweight": 100,
    "contentalignment": 4,
    "id": "lblSecureAccessCodeNotes",
    "info": null,
    "ipad": {
        "psp": {
            "wrapping": 2
        }
    },
    "iphone": {
        "psp": {
            "wrapping": 2
        }
    },
    "isvisible": true,
    "kuid": "i81d7135256e4599aa32eff38e69772e",
    "name": "kony.ui.Label",
    "parent": "flxExtendedNotes",
    "pf": "userwidgetmodel",
    "texti18n": "i18n.mfa.changeMediumSecureAccessCode",
    "tooltip": "",
    "wType": "Label",
    "zindex": 2
}