{
    "@class": "com.kony.gen.viz.model.component.KVizLabel",
    "DNDConfig": null,
    "__parentReadjusting__": false,
    "_height_": {
        "type": "ref",
        "value": "preferred"
    },
    "_left_": {
        "type": "string",
        "value": "67.40%"
    },
    "_margin_": [
        1,
        1,
        1,
        1
    ],
    "_padding_": [
        0,
        0,
        2,
        0
    ],
    "_skin_": "s835d20fd78247ff97f8620ed0ff4805",
    "_text_": "Label",
    "_width_": {
        "type": "ref",
        "value": "preferred"
    },
    "_wrapping_": 2,
    "accessibilityconfig": {
        "a11yLabel": "Send On"
    },
    "android": {
        "textStyle": {
            "letterSpacing": 0,
            "strikeThrough": false
        }
    },
    "canUpdateUI": true,
    "centery": {
        "type": "string",
        "value": "50%"
    },
    "containerweight": 100,
    "contentalignment": 4,
    "id": "CopylblDeliverBy0g589ce171f8942",
    "info": null,
    "ipad": {
        "psp": {
            "wrapping": 2
        }
    },
    "iphone": {
        "psp": {
            "wrapping": 2
        }
    },
    "isvisible": true,
    "kuid": "bfb7121813654d86b597520a5958da09",
    "name": "kony.ui.Label",
    "paddinginpixel": false,
    "parent": "flxSubHeader",
    "pf": "frmPaymentDueAcknowledgement",
    "responsiveData": {
        "b1": {
            "left": {
                "type": "string",
                "value": "45.30%"
            }
        },
        "b2": {
            "left": {
                "type": "string",
                "value": "45.30%"
            }
        },
        "b4": {
            "left": {
                "type": "string",
                "value": "45.30%"
            }
        }
    },
    "texti18n": "i18n.transfers.send_on",
    "tooltip": "",
    "wType": "Label",
    "zindex": 1
}