{
    "@class": "com.kony.gen.viz.model.component.KVizLabel",
    "DNDConfig": null,
    "__parentReadjusting__": false,
    "_height_": {
        "type": "ref",
        "value": "preferred"
    },
    "_left_": {
        "type": "string",
        "value": "2.50%"
    },
    "_margin_": [
        1,
        1,
        1,
        1
    ],
    "_padding_": [
        0,
        0,
        2,
        0
    ],
    "_skin_": "saba7a95163a455f8f2f131435e16122",
    "_text_": "Label\\",
    "_top_": {
        "type": "string",
        "value": "21dp"
    },
    "_width_": {
        "type": "ref",
        "value": "preferred"
    },
    "_wrapping_": 2,
    "accessibilityconfig": {
        "a11yLabel": "Transaction Details"
    },
    "android": {
        "textStyle": {
            "letterSpacing": 0,
            "strikeThrough": false
        }
    },
    "canUpdateUI": true,
    "centery": {
        "type": "string",
        "value": "50%"
    },
    "containerweight": 100,
    "contentalignment": 4,
    "id": "lblHeading",
    "info": null,
    "ipad": {
        "psp": {
            "wrapping": 2
        }
    },
    "iphone": {
        "psp": {
            "wrapping": 2
        }
    },
    "isvisible": true,
    "kuid": "d55317a4ffd549abbe0165ce2a87749f",
    "name": "kony.ui.Label",
    "paddinginpixel": false,
    "parent": "flxHeaderbulkpay",
    "pf": "frmPaymentDueAcknowledgement",
    "texti18n": "i18n.billPay.TransactionDetails",
    "tooltip": "",
    "wType": "Label",
    "zindex": 1
}