{
    "@class": "com.kony.gen.viz.model.component.KVizLabel",
    "DNDConfig": null,
    "_bottom_": {
        "type": "string",
        "value": "15px"
    },
    "_height_": {
        "type": "string",
        "value": "30px"
    },
    "_left_": {
        "type": "string",
        "value": "5.12%"
    },
    "_margin_": [
        1,
        1,
        1,
        1
    ],
    "_padding_": [
        0,
        0,
        0,
        0
    ],
    "_skin_": "saba7a95163a455f8f2f131435e16122",
    "_text_": "MY REGISTERED PAYEES",
    "_width_": {
        "type": "string",
        "value": "80.40%"
    },
    "_wrapping_": 2,
    "accessibilityconfig": {
        "a11yLabel": "My Registered Payees"
    },
    "android": {
        "textStyle": {
            "letterSpacing": 0,
            "strikeThrough": false
        }
    },
    "canUpdateUI": true,
    "centery": {
        "type": "string",
        "value": "50%"
    },
    "containerweight": 100,
    "contentalignment": 4,
    "id": "lblMyRegisteredPayees",
    "info": null,
    "ipad": {
        "psp": {
            "wrapping": 2
        }
    },
    "iphone": {
        "psp": {
            "wrapping": 2
        }
    },
    "isvisible": true,
    "kuid": "d1b5ec2e0e874cd0970a21b5baf4e07b",
    "name": "kony.ui.Label",
    "parent": "flxMyRegisteredPayees",
    "pf": "frmAddPayee1",
    "texti18n": "i18n.AddPayee.MYREGISTEREDPAYEES",
    "tooltip": "",
    "wType": "Label",
    "zindex": 1
}