{
    "BusinessControllerConfig": {
        "BusinessControllerClass": "PayAPersonModule/BusinessControllers/BusinessController",
        "CommandHandler": []
    },
    "Forms": {
        "desktop": {
            "frmPayAPerson": {
                "Controller": "PayAPersonModule/frmPayAPersonController",
                "ControllerExtensions": [],
                "FormController": "kony.mvc.MDAFormController",
                "FormName": "PayAPersonModule/frmPayAPerson",
                "friendlyName": "frmPayAPerson"
            }
        }
    },
    "ModuleName": "PayAPersonModule",
    "PresentationControllerConfig": {
        "Default": {
            "PresentationControllerClass": "PayAPersonModule/PresentationControllers/PresentationController",
            "PresentationExtensions": [
                "PayAPersonModule/PresentationControllers/PresentationController_Extn"
            ]
        }
    }
}