{
    "BusinessControllerConfig": {
        "BusinessControllerClass": "TransferModule/BusinessControllers/BusinessController",
        "CommandHandler": []
    },
    "Forms": {
        "desktop": {
            "frmTransfersGateway": {
                "Controller": "TransferModule/frmTransfersGatewayController",
                "ControllerExtensions": [],
                "FormController": "kony.mvc.MDAFormController",
                "FormName": "TransferModule/frmTransfersGateway",
                "friendlyName": "frmTransfersGateway"
            },
            "frmAcknowledgement": {
                "Controller": "BillPayModule/frmAcknowledgementController",
                "ControllerExtensions": [],
                "FormController": "kony.mvc.MDAFormController",
                "FormName": "BillPayModule/frmAcknowledgement",
                "friendlyName": "frmAcknowledgement"
            },
            "frmAddExternalAccount": {
                "Controller": "TransferModule/frmAddExternalAccountController",
                "ControllerExtensions": [],
                "FormController": "kony.mvc.MDAFormController",
                "FormName": "TransferModule/frmAddExternalAccount",
                "friendlyName": "frmAddExternalAccount"
            },
            "frmAddInternalAccount": {
                "Controller": "TransferModule/frmAddInternalAccountController",
                "ControllerExtensions": [],
                "FormController": "kony.mvc.MDAFormController",
                "FormName": "TransferModule/frmAddInternalAccount",
                "friendlyName": "frmAddInternalAccount"
            },
            "frmConfirm": {
                "Controller": "BillPayModule/frmConfirmController",
                "ControllerExtensions": [],
                "FormController": "kony.mvc.MDAFormController",
                "FormName": "BillPayModule/frmConfirm",
                "friendlyName": "frmConfirm"
            },
            "frmConfirmAccount": {
                "Controller": "TransferModule/frmConfirmAccountController",
                "ControllerExtensions": [],
                "FormController": "kony.mvc.MDAFormController",
                "FormName": "TransferModule/frmConfirmAccount",
                "friendlyName": "frmConfirmAccount"
            },
            "frmPrintTransfer": {
                "Controller": "AccountsModule/frmPrintTransferController",
                "ControllerExtensions": [],
                "FormController": "kony.mvc.MDAFormController",
                "FormName": "AccountsModule/frmPrintTransfer",
                "friendlyName": "frmPrintTransfer"
            },
            "frmTransfers": {
                "Controller": "TransferModule/frmTransfersController",
                "ControllerExtensions": [],
                "FormController": "kony.mvc.MDAFormController",
                "FormName": "TransferModule/frmTransfers",
                "friendlyName": "frmTransfers"
            },
            "frmVerifyAccount": {
                "Controller": "TransferModule/frmVerifyAccountController",
                "ControllerExtensions": [],
                "FormController": "kony.mvc.MDAFormController",
                "FormName": "TransferModule/frmVerifyAccount",
                "friendlyName": "frmVerifyAccount"
            }
        }
    },
    "ModuleName": "TransferModule",
    "PresentationControllerConfig": {
        "Default": {
            "PresentationControllerClass": "TransferModule/PresentationControllers/PresentationController",
            "PresentationExtensions": []
        }
    },
    "EUROPE": {
        "BusinessControllerConfig": {
            "BusinessControllerClass": "TransferModule/EUROPE/BusinessControllers/BusinessController",
            "CommandHandler": []
        },
        "Forms": {
            "desktop": {
                "frmAcknowledgementEur": {
                    "Controller": "TransferEurModule/frmAcknowledgementEurController",
                    "ControllerExtensions": [],
                    "FormController": "kony.mvc.MDAFormController",
                    "FormName": "TransferEurModule/frmAcknowledgementEur",
                    "friendlyName": "frmAcknowledgementEur"
                },
                "frmAddExternalAccountEur": {
                    "Controller": "TransferEurModule/frmAddExternalAccountEurController",
                    "ControllerExtensions": [],
                    "FormController": "kony.mvc.MDAFormController",
                    "FormName": "TransferEurModule/frmAddExternalAccountEur",
                    "friendlyName": "frmAddExternalAccountEur"
                },
                "frmAddInternalAccountEur": {
                    "Controller": "TransferEurModule/frmAddInternalAccountEurController",
                    "ControllerExtensions": [],
                    "FormController": "kony.mvc.MDAFormController",
                    "FormName": "TransferEurModule/frmAddInternalAccountEur",
                    "friendlyName": "frmAddInternalAccountEur"
                },
                "frmConfirmEur": {
                    "Controller": "TransferEurModule/frmConfirmEurController",
                    "ControllerExtensions": [],
                    "FormController": "kony.mvc.MDAFormController",
                    "FormName": "TransferEurModule/frmConfirmEur",
                    "friendlyName": "frmConfirmEur"
                },
                "frmConfirmAccount": {
                    "Controller": "TransferModule/frmConfirmAccountController",
                    "ControllerExtensions": [],
                    "FormController": "kony.mvc.MDAFormController",
                    "FormName": "TransferModule/frmConfirmAccount",
                    "friendlyName": "frmConfirmAccount"
                },
                "frmPrintTransfer": {
                    "Controller": "AccountsModule/frmPrintTransferController",
                    "ControllerExtensions": [],
                    "FormController": "kony.mvc.MDAFormController",
                    "FormName": "AccountsModule/frmPrintTransfer",
                    "friendlyName": "frmPrintTransfer"
                },
                "frmTransfersEur": {
                    "Controller": "TransferEurModule/frmTransfersEurController",
                    "ControllerExtensions": [],
                    "FormController": "kony.mvc.MDAFormController",
                    "FormName": "TransferEurModule/frmTransfersEur",
                    "friendlyName": "frmTransfersEur"
                },
                "frmVerifyAccountEur": {
                    "Controller": "TransferEurModule/frmVerifyAccountEurController",
                    "ControllerExtensions": [],
                    "FormController": "kony.mvc.MDAFormController",
                    "FormName": "TransferEurModule/frmVerifyAccountEur",
                    "friendlyName": "frmVerifyAccountEur"
                }
            }
        },
        "PresentationControllerConfig": {
            "Default": {
                "PresentationControllerClass": "TransferModule/EUROPE/PresentationControllers/PresentationController",
                "PresentationExtensions": []
            }
        }
    }
}