{
    "@class": "com.kony.gen.viz.model.component.KVizLabel",
    "DNDConfig": null,
    "__parentReadjusting__": false,
    "_height_": {
        "type": "ref",
        "value": "preferred"
    },
    "_left_": {
        "type": "string",
        "value": "2.20%"
    },
    "_margin_": [
        1,
        1,
        1,
        1
    ],
    "_padding_": [
        0,
        0,
        0,
        0
    ],
    "_skin_": "sd764fb8c2624a41846d5917f2fa2cc5",
    "_text_": "Now your Available Balance in",
    "_top_": {
        "type": "string",
        "value": "19dp"
    },
    "_width_": {
        "type": "string",
        "value": "55%"
    },
    "_wrapping_": 2,
    "accessibilityconfig": {
        "a11yLabel": "Now your Available Balance in"
    },
    "android": {
        "textStyle": {
            "letterSpacing": 0,
            "strikeThrough": false
        }
    },
    "canUpdateUI": true,
    "containerweight": 100,
    "contentalignment": 4,
    "id": "lblAvailableBalance",
    "info": null,
    "ipad": {
        "psp": {
            "wrapping": 2
        }
    },
    "iphone": {
        "psp": {
            "wrapping": 2
        }
    },
    "isvisible": true,
    "kuid": "b277319aa873488e9d71c985e9405746",
    "name": "kony.ui.Label",
    "parent": "flxAvailableBalance",
    "pf": "frmOneTimePaymentAcknowledgement",
    "tooltip": "",
    "wType": "Label",
    "zindex": 1
}