{
    "DNDConfig": null,
    "_height_": {
        "type": "string",
        "value": "75dp"
    },
    "_margin_": [
        0,
        0,
        0,
        0
    ],
    "_orientation_": 6,
    "_padding_": [
        0,
        0,
        0,
        0
    ],
    "_percent_": true,
    "_skin_": "sd3ac82253ad487098482e066a19fdd5",
    "_top_": {
        "type": "string",
        "value": "0dp"
    },
    "_width_": {
        "type": "string",
        "value": "100%"
    },
    "allboxes": [],
    "canUpdateUI": true,
    "centery": {
        "type": "number",
        "value": ""
    },
    "children": [
        "lblAlertsWarningImageNew",
        "lblWarning"
    ],
    "clipbounds": true,
    "containerweight": 100,
    "enablescrolling": true,
    "id": "flxWarning",
    "info": null,
    "isvisible": true,
    "kuid": "g946a3185a4748d58a50001e98b34427",
    "layouttype": 3,
    "minheight": {
        "type": "number",
        "value": ""
    },
    "name": "kony.ui.FlexContainer",
    "parent": "flxOptGoalsHeader",
    "pf": "frmEditGoal",
    "responsiveData": {
        "b1": {
            "centerY": {
                "type": "string",
                "value": ""
            }
        },
        "b2": {},
        "b3": {
            "height": {
                "type": "string",
                "value": "80dp"
            },
            "minHeight": {
                "type": "string",
                "value": "130dp"
            }
        },
        "b4": {}
    },
    "snapgridsize": 10,
    "snaptogrid": true,
    "wType": "FlexContainer",
    "widgetalignment": 1,
    "zindex": 1
}