{
    "@class": "com.kony.gen.viz.model.component.KVizLabel",
    "DNDConfig": null,
    "_height_": {
        "type": "string",
        "value": "18px"
    },
    "_left_": {
        "type": "string",
        "value": "2%"
    },
    "_margin_": [
        1,
        1,
        1,
        1
    ],
    "_padding_": [
        0,
        0,
        0,
        0
    ],
    "_skin_": "s089a30edc014fedb2eb54b3b16a7723",
    "_text_": "45",
    "_top_": {
        "type": "string",
        "value": "0dp"
    },
    "_width_": {
        "type": "ref",
        "value": "preferred"
    },
    "_wrapping_": 2,
    "accessibilityconfig": {
        "a11yLabel": "Loan Payoff Amount"
    },
    "android": {
        "textStyle": {
            "letterSpacing": 0,
            "strikeThrough": false
        }
    },
    "canUpdateUI": true,
    "containerweight": 100,
    "contentalignment": 4,
    "id": "lblMonthValue",
    "info": null,
    "ipad": {
        "psp": {
            "wrapping": 2
        }
    },
    "iphone": {
        "psp": {
            "wrapping": 2
        }
    },
    "isvisible": true,
    "kuid": "b7a97a9a226b4285bdf7cc7528edb67e",
    "name": "kony.ui.Label",
    "parent": "flxMonthDetails",
    "pf": "frmEditGoal",
    "responsiveData": {
        "b2": {
            "left": {
                "type": "string",
                "value": "2%"
            },
            "width": {
                "type": "string",
                "value": "49%"
            }
        },
        "b3": {
            "skin": "s63e81af6a184e7e8e891b0dbbe7895c"
        }
    },
    "tooltip": "",
    "wType": "Label",
    "zindex": 1
}