{
    "@class": "com.kony.gen.viz.model.component.KVizDateField",
    "DNDConfig": null,
    "Image": "calendar.png",
    "__id": "uwudd9d31efcba4acdbb3a846d25a17888_CalDeliverBy",
    "__input": "CalDeliverBy",
    "__parentReadjusting__": false,
    "_data_": null,
    "_date_": "9/7/2017",
    "_height_": {
        "type": "string",
        "value": "40dp"
    },
    "_left_": {
        "type": "string",
        "value": "30dp"
    },
    "_margin_": [
        0,
        0,
        0,
        0
    ],
    "_padding_": [
        0,
        0,
        0,
        0
    ],
    "_right_": {
        "type": "number",
        "value": ""
    },
    "_skin_": "s309f86f067941bbb828e53b34e06a77",
    "_top_": {
        "type": "string",
        "value": "30dp"
    },
    "_width_": {
        "type": "string",
        "value": "359dp"
    },
    "advview": "default",
    "calendaricon": "calbtn.png",
    "canUpdateUI": true,
    "containerweight": 100,
    "contentalignment": 5,
    "datecomponents": [
        9,
        7,
        2017,
        0,
        0,
        0
    ],
    "dateeditable": true,
    "dateformat": "dd/MM/yyyy",
    "datesGroup": [],
    "datesState": 0,
    "day": 9,
    "daytextalignmentincell": 5,
    "desktopweb": {
        "calendarIcon": "calendar.png",
        "contentAlignment": 5
    },
    "displayedMonths": [
        7,
        2017
    ],
    "entereddate": [
        9,
        7,
        2017,
        0,
        0,
        0
    ],
    "format": "dd/MM/yyyy",
    "formatteddate": "09/07/2017",
    "gridCellInactiveDaysSkin": "sd35029800e247beb86f04d6851b1b8d",
    "gridCellSelectedSkin": "se25cb8945064b57bbc9a41b3cd425f7",
    "gridCellSkin": "s5f875a55e8d4ce4bd8a22d01f285405",
    "gridCellTodaySkin": "s544d961e8084f759a5352dec12df3c8",
    "gridCellWeekendSkin": "s5f875a55e8d4ce4bd8a22d01f285405",
    "gridSkin": "s996ecb9dbc14113a367b19b028a1ef4",
    "hidedaysheader": false,
    "hidemonthsheader": false,
    "hour": 0,
    "id": "CalDeliverBy",
    "info": null,
    "invokedProperty": "rightNavigationImage",
    "isvisible": false,
    "kiosk": {
        "contentAlignment": 5
    },
    "kuid": "b0d466a331fe418290545816f93630ee",
    "minutes": 0,
    "month": 7,
    "monthsinrow": 3,
    "name": "kony.ui.Calendar",
    "navigatorAlert": "Invalid Selection",
    "noofmonths": 1,
    "pagedate": "/2017",
    "parent": "flxDeliverBy",
    "pf": "frmPayABill",
    "popupHeight": "auto",
    "popupWidth": "auto",
    "responsiveData": {
        "b2": {
            "left": {
                "type": "string",
                "value": "2.50%"
            },
            "width": {
                "type": "string",
                "value": "45%"
            }
        },
        "b3": {
            "left": {
                "type": "string",
                "value": "7dp"
            },
            "right": {
                "type": "string",
                "value": "10dp"
            },
            "width": {
                "type": "string",
                "value": ""
            }
        },
        "b4": {
            "left": {
                "type": "string",
                "value": "3%"
            },
            "width": {
                "type": "string",
                "value": "45%"
            }
        }
    },
    "seconds": 0,
    "selectdate": "//2017",
    "startDay": 0,
    "viewconfig": {
        "gridConfig": {
            "gridCellInactiveDaysSkin": "sd35029800e247beb86f04d6851b1b8d",
            "gridCellSelectedSkin": "se25cb8945064b57bbc9a41b3cd425f7",
            "gridCellSkin": "s5f875a55e8d4ce4bd8a22d01f285405",
            "gridCellTodaySkin": "s544d961e8084f759a5352dec12df3c8",
            "gridCellWeekendSkin": "s5f875a55e8d4ce4bd8a22d01f285405",
            "gridSkin": "s996ecb9dbc14113a367b19b028a1ef4",
            "leftNavigationImage": "arrow_left.png",
            "rightNavigationImage": "arrow_right.png"
        }
    },
    "viewtype": "default",
    "wType": "Calendar",
    "widgetalignment": 5,
    "widths": [
        "14.2857%;",
        "14.2857%;",
        "14.2857%;",
        "14.2857%;",
        "14.2857%;",
        "14.2857%;",
        "14.2857%;"
    ],
    "year": 2017,
    "zindex": 5,
    "focusskin": "seb8ea02d2bd442ebe692e7030860d3f"
}