{
    "DNDConfig": null,
    "__parentReadjusting__": false,
    "_bottom_": {
        "type": "number",
        "value": ""
    },
    "_height_": {
        "type": "ref",
        "value": "preferred"
    },
    "_left_": {
        "type": "string",
        "value": "0dp"
    },
    "_margin_": [
        0,
        0,
        0,
        0
    ],
    "_orientation_": 6,
    "_padding_": [
        0,
        0,
        0,
        0
    ],
    "_percent_": true,
    "_skin_": "s24c92fc23b14f5484b693ee9b8a9b35",
    "_top_": {
        "type": "string",
        "value": "0dp"
    },
    "_width_": {
        "type": "string",
        "value": "100%"
    },
    "allboxes": [],
    "autogrowmode": 1,
    "canUpdateUI": true,
    "children": [
        "lblBill",
        "lblBillValue",
        "btnViewEbillMobile"
    ],
    "clipbounds": true,
    "containerweight": 100,
    "enablescrolling": true,
    "id": "flxBill",
    "info": null,
    "iscustomlayout": false,
    "isvisible": true,
    "kuid": "c5f8360c300c43bb9739b761b1baa771",
    "layouttype": 2,
    "name": "kony.ui.FlexContainer",
    "parent": "flxContainerPayeeInfo",
    "pf": "frmPayABill",
    "responsiveData": {
        "b1": {
            "left": {
                "type": "string",
                "value": "45%"
            },
            "width": {
                "type": "string",
                "value": "30%"
            }
        },
        "b2": {
            "left": {
                "type": "string",
                "value": "45%"
            },
            "width": {
                "type": "string",
                "value": "30%"
            }
        },
        "b3": {
            "bottom": {
                "type": "string",
                "value": "10dp"
            }
        },
        "b4": {
            "left": {
                "type": "string",
                "value": "45%"
            },
            "width": {
                "type": "string",
                "value": "30%"
            }
        }
    },
    "retaincontentalignment": false,
    "retainflexpositionproperties": false,
    "retainflowhorizontalalignment": false,
    "snapgridsize": 10,
    "snaptogrid": true,
    "wType": "FlexContainer",
    "widgetalignment": 1
}