{
    "DNDConfig": null,
    "__parentReadjusting__": false,
    "_bottom_": {
        "type": "string",
        "value": "10dp"
    },
    "_height_": {
        "type": "ref",
        "value": "preferred"
    },
    "_left_": {
        "type": "string",
        "value": "0dp"
    },
    "_margin_": [
        0,
        0,
        0,
        0
    ],
    "_orientation_": 6,
    "_padding_": [
        0,
        0,
        0,
        0
    ],
    "_percent_": true,
    "_skin_": "sdc143f0e5b64ae3a3f155f691c73fa7",
    "_top_": {
        "type": "string",
        "value": "0dp"
    },
    "_width_": {
        "type": "string",
        "value": "100%"
    },
    "allboxes": [],
    "autogrowmode": 1,
    "canUpdateUI": true,
    "children": [
        "flxPayee",
        "flxDate",
        "flxBill",
        "lblPaymentAccount",
        "flxEnterAmount"
    ],
    "clipbounds": false,
    "containerweight": 100,
    "enablescrolling": true,
    "id": "flxContainerPayeeInfo",
    "info": null,
    "iscustomlayout": false,
    "isvisible": true,
    "kuid": "e7a7fbcad1db40409bc810a0cc48c14a",
    "layouttype": 2,
    "name": "kony.ui.FlexContainer",
    "parent": "flxBillPayeeInfo",
    "pf": "frmPayABill",
    "responsiveData": {
        "b1": {
            "skin": "s24c92fc23b14f5484b693ee9b8a9b35"
        },
        "b2": {
            "skin": "s24c92fc23b14f5484b693ee9b8a9b35"
        },
        "b3": {
            "layoutType": 4,
            "skin": "s839015d5b9d43659d011241feb48bd6"
        },
        "b4": {
            "skin": "s24c92fc23b14f5484b693ee9b8a9b35"
        }
    },
    "retaincontentalignment": false,
    "retainflexpositionproperties": false,
    "snapgridsize": 10,
    "snaptogrid": true,
    "wType": "FlexContainer",
    "widgetalignment": 1,
    "zindex": 1
}