{
    "@class": "com.kony.gen.viz.model.component.KVizLabel",
    "DNDConfig": null,
    "__parentReadjusting__": false,
    "_height_": {
        "type": "ref",
        "value": "preferred"
    },
    "_margin_": [
        1,
        1,
        1,
        1
    ],
    "_padding_": [
        0,
        0,
        0,
        0
    ],
    "_right_": {
        "type": "string",
        "value": "59dp"
    },
    "_skin_": "saba7a95163a455f8f2f131435e16122",
    "_text_": "Transfer From",
    "_width_": {
        "type": "string",
        "value": "100dp"
    },
    "_wrapping_": 2,
    "accessibilityconfig": {
        "a11yLabel": "Transfer From"
    },
    "android": {
        "textStyle": {
            "letterSpacing": 0,
            "strikeThrough": false
        }
    },
    "canUpdateUI": true,
    "centery": {
        "type": "string",
        "value": "50%"
    },
    "containerweight": 100,
    "contentalignment": 6,
    "id": "lblFromAmount",
    "info": null,
    "ipad": {
        "psp": {
            "wrapping": 2
        }
    },
    "iphone": {
        "psp": {
            "wrapping": 2
        }
    },
    "isvisible": false,
    "kuid": "a928df6933764b0994bf6423ee715107",
    "name": "kony.ui.Label",
    "parent": "flxFrom",
    "pf": "frmPayABill",
    "responsiveData": {
        "b1": {},
        "b2": {
            "right": {
                "type": "string",
                "value": "3%"
            }
        },
        "b3": {
            "right": {
                "type": "string",
                "value": "25dp"
            }
        }
    },
    "tooltip": "",
    "wType": "Label",
    "zindex": 1
}