{
    "@class": "com.kony.gen.viz.model.component.KVizLabel",
    "DNDConfig": null,
    "__parentReadjusting__": false,
    "_height_": {
        "type": "ref",
        "value": "preferred"
    },
    "_left_": {
        "type": "string",
        "value": "150dp"
    },
    "_margin_": [
        1,
        1,
        1,
        1
    ],
    "_padding_": [
        0,
        0,
        0,
        0
    ],
    "_skin_": "se56454286124fef97a46e7249497088",
    "_text_": "Transaction Date :",
    "_top_": {
        "type": "number",
        "value": ""
    },
    "_width_": {
        "type": "ref",
        "value": "preferred"
    },
    "_wrapping_": 2,
    "accessibilityconfig": {
        "a11yLabel": "Transaction Date"
    },
    "android": {
        "textStyle": {
            "letterSpacing": 0,
            "strikeThrough": false
        }
    },
    "canUpdateUI": true,
    "centery": {
        "type": "string",
        "value": "52%"
    },
    "containerweight": 100,
    "contentalignment": 4,
    "id": "lblDateTitle",
    "info": null,
    "ipad": {
        "psp": {
            "wrapping": 2
        }
    },
    "iphone": {
        "psp": {
            "wrapping": 2
        }
    },
    "isvisible": true,
    "kuid": "b19ae4c8bfae4096ac168850c16d4d9f",
    "name": "kony.ui.Label",
    "parent": "flxFileDetails",
    "pf": "frmBulkWireActivityAll",
    "responsiveData": {
        "b2": {
            "centerY": {
                "type": "string",
                "value": ""
            },
            "left": {
                "type": "string",
                "value": "20dp"
            },
            "top": {
                "type": "string",
                "value": "53dp"
            }
        }
    },
    "texti18n": "i18n.bulkWire.transactionDate",
    "tooltip": "",
    "wType": "Label",
    "zindex": 1
}