{
    "@class": "com.kony.gen.viz.model.component.KVizUserWidget",
    "DNDConfig": null,
    "__parentReadjusting__": false,
    "_children_": [],
    "_height_": {
        "type": "ref",
        "value": "preferred"
    },
    "_left_": {
        "type": "string",
        "value": "0dp"
    },
    "_margin_": [
        0,
        0,
        0,
        0
    ],
    "_orientation_": 1,
    "_padding_": [
        0,
        0,
        0,
        0
    ],
    "_percent_": true,
    "_render_": true,
    "_skin_": "scbd4cac3526468089bf3013adff0549",
    "_top_": {
        "type": "string",
        "value": "0dp"
    },
    "_width_": {
        "type": "string",
        "value": "100%"
    },
    "android": {},
    "androidwearos": {},
    "areflexpropsreferenced": false,
    "autogrowmode": 1,
    "canUpdateUI": true,
    "clipbounds": false,
    "containerweight": 0,
    "dataDiffs": {
        "AccountsDescription": {
            "__events__": {},
            "__info__": {
                "isRoot": true,
                "kuid": "h448dde075804aa7b2a1d78fc06fc3c3",
                "srcKUID": "f1dc0df1a4c44d4795dd68f1f28e8e27",
                "wType": "FlexContainer"
            },
            "isVisible": true,
            "responsiveData": {
                "b1": {
                    "isVisible": true
                },
                "b2": {
                    "width": {
                        "type": "string",
                        "value": "100%"
                    }
                }
            },
            "top": {
                "Default": {
                    "type": "string",
                    "value": "0dp"
                }
            },
            "width": {}
        },
        "btnAccountsDescriptionCancel": {
            "__events__": {},
            "__info__": {
                "kuid": "ee175ed41b4e458693c147d3f0b8fdcb",
                "srcKUID": "bae6352d810743d38934db3606e3c8f1",
                "wType": "Button"
            },
            "bottom": {},
            "centerX": {},
            "height": {},
            "responsiveData": {
                "b1": {
                    "bottom": {
                        "type": "string",
                        "value": "10dp"
                    },
                    "height": {
                        "type": "string",
                        "value": "40dp"
                    },
                    "right": {
                        "type": "string",
                        "value": "220dp"
                    },
                    "top": {
                        "type": "string",
                        "value": "30dp"
                    },
                    "width": {
                        "type": "string",
                        "value": "150dp"
                    }
                },
                "b2": {
                    "bottom": {
                        "type": "string",
                        "value": "10dp"
                    },
                    "height": {
                        "type": "string",
                        "value": "40dp"
                    },
                    "right": {
                        "type": "string",
                        "value": "220dp"
                    },
                    "top": {
                        "type": "string",
                        "value": "30dp"
                    },
                    "width": {
                        "type": "string",
                        "value": "150dp"
                    }
                },
                "b3": {
                    "bottom": {
                        "type": "string",
                        "value": "20dp"
                    },
                    "centerX": {
                        "type": "string",
                        "value": "50%"
                    },
                    "height": {
                        "type": "string",
                        "value": "40dp"
                    },
                    "right": {
                        "type": "string",
                        "value": ""
                    },
                    "top": {
                        "type": "string",
                        "value": "90dp"
                    },
                    "width": {
                        "type": "string",
                        "value": "92.50%"
                    }
                },
                "b4": {
                    "bottom": {
                        "type": "string",
                        "value": "10dp"
                    },
                    "height": {
                        "type": "string",
                        "value": "40dp"
                    },
                    "right": {
                        "type": "string",
                        "value": "220dp"
                    },
                    "width": {
                        "type": "string",
                        "value": "150dp"
                    }
                }
            },
            "right": {},
            "top": {},
            "width": {}
        },
        "btnAccountsDescriptionProceed": {
            "__events__": {},
            "__info__": {
                "kuid": "ec82987b2682435faaa283822f561ad6",
                "srcKUID": "hecc169a0a26493780b16e3631dddd8d",
                "wType": "Button"
            },
            "centerX": {},
            "height": {},
            "responsiveData": {
                "b1": {
                    "height": {
                        "type": "string",
                        "value": "40dp"
                    },
                    "right": {
                        "type": "string",
                        "value": "4.50%"
                    },
                    "top": {
                        "type": "string",
                        "value": "30dp"
                    },
                    "width": {
                        "type": "string",
                        "value": "150dp"
                    }
                },
                "b2": {
                    "height": {
                        "type": "string",
                        "value": "40dp"
                    },
                    "top": {
                        "type": "string",
                        "value": "30dp"
                    },
                    "width": {
                        "type": "string",
                        "value": "150dp"
                    }
                },
                "b3": {
                    "centerX": {
                        "type": "string",
                        "value": "50%"
                    },
                    "height": {
                        "type": "string",
                        "value": "40dp"
                    },
                    "right": {
                        "type": "string",
                        "value": ""
                    },
                    "width": {
                        "type": "string",
                        "value": "92.50%"
                    }
                },
                "b4": {
                    "height": {
                        "type": "string",
                        "value": "40dp"
                    },
                    "width": {
                        "type": "string",
                        "value": "150dp"
                    }
                }
            },
            "right": {},
            "top": {},
            "width": {}
        },
        "flxAccountsDescription": {
            "__events__": {},
            "__info__": {
                "kuid": "h76a24e0e2b1455eb2fef3f9255d7d2a",
                "srcKUID": "c725ff77ca3a4893a0cc371faf912a55",
                "wType": "FlexContainer"
            },
            "responsiveData": {
                "b1": {},
                "b2": {},
                "b3": {
                    "top": {
                        "type": "string",
                        "value": "30dp"
                    }
                },
                "b4": {}
            },
            "top": {
                "Default": {
                    "type": "string",
                    "value": "60dp"
                }
            }
        },
        "flxAccountsDescriptionButtons": {
            "__events__": {},
            "__info__": {
                "kuid": "f43b040d6ace442880111eb069ad3b82",
                "srcKUID": "c7063ecf08bb4db58e1a3490412f55e6",
                "wType": "FlexContainer"
            },
            "autogrowMode": {
                "Default": 1
            },
            "bottom": {},
            "height": {},
            "responsiveData": {
                "b1": {
                    "bottom": {
                        "type": "string",
                        "value": "20dp"
                    },
                    "height": {
                        "type": "ref",
                        "value": "preferred"
                    }
                },
                "b2": {
                    "bottom": {
                        "type": "string",
                        "value": "20dp"
                    },
                    "height": {
                        "type": "ref",
                        "value": "preferred"
                    }
                },
                "b3": {
                    "height": {
                        "type": "ref",
                        "value": "preferred"
                    }
                },
                "b4": {
                    "bottom": {
                        "type": "string",
                        "value": "10dp"
                    },
                    "height": {
                        "type": "ref",
                        "value": "preferred"
                    }
                }
            },
            "top": {
                "Default": {
                    "type": "string",
                    "value": "0dp"
                }
            }
        },
        "flxAccountsDescriptionContainer": {
            "__events__": {},
            "__info__": {
                "kuid": "fb3da71563c14f86b43a9bca89685d9b",
                "srcKUID": "da5e84b3fd3947ba8addb13de39219aa",
                "wType": "FlexContainer"
            },
            "responsiveData": {
                "b1": {
                    "layoutType": 3
                },
                "b2": {
                    "layoutType": 3
                },
                "b3": {
                    "layoutType": 4
                },
                "b4": {
                    "layoutType": 3
                }
            }
        },
        "flxAccountsDescriptionHeader": {
            "__events__": {},
            "__info__": {
                "kuid": "h8c65473357546abaccba43e53fd92bd",
                "srcKUID": "eecce3473ba44ca5a77caeca7a9868e4",
                "wType": "FlexContainer"
            },
            "responsiveData": {
                "b1": {
                    "isVisible": false
                },
                "b2": {
                    "isVisible": false
                },
                "b3": {
                    "isVisible": false
                },
                "b4": {
                    "isVisible": false
                }
            },
            "top": {
                "Default": {
                    "type": "string",
                    "value": "5dp"
                }
            },
            "zIndex": {
                "Default": 5
            }
        },
        "flxAccountsDescriptionMain": {
            "__events__": {},
            "__info__": {
                "kuid": "bc263550abc7432fa00dc82262d4e689",
                "srcKUID": "de3f8ad782a94ba09f7143584b6e2b51",
                "wType": "FlexContainer"
            },
            "responsiveData": {
                "b1": {
                    "top": {
                        "type": "string",
                        "value": "30dp"
                    }
                },
                "b3": {
                    "layoutType": 2,
                    "top": {
                        "type": "string",
                        "value": "25dp"
                    }
                },
                "b4": {
                    "top": {
                        "type": "string",
                        "value": "25dp"
                    }
                }
            },
            "top": {}
        },
        "flxAccountsDescriptionSeperator": {
            "__events__": {},
            "__info__": {
                "kuid": "d6748f269076469a875c4b6087f4cd08",
                "srcKUID": "bdc6c13bb0fc4f9087e96610952a322e",
                "wType": "FlexContainer"
            }
        },
        "flxAccountsDescriptionSeperator2": {
            "__events__": {},
            "__info__": {
                "kuid": "bdeacd78bdaa43c69c866c953cfd6556",
                "srcKUID": "b22994d71f0c486a939b9f72c6da0097",
                "wType": "FlexContainer"
            }
        },
        "flxLeft": {
            "__events__": {},
            "__info__": {
                "kuid": "d7b000eb19e74a0ca2aa526620e1e278",
                "srcKUID": "b64de9a65d1f49c7838863a356cf7454",
                "wType": "FlexContainer"
            },
            "left": {},
            "responsiveData": {
                "b1": {
                    "left": {
                        "type": "string",
                        "value": "30dp"
                    },
                    "top": {
                        "type": "string",
                        "value": "0dp"
                    }
                },
                "b2": {
                    "left": {
                        "type": "string",
                        "value": "30dp"
                    }
                },
                "b3": {
                    "left": {
                        "type": "string",
                        "value": "20dp"
                    }
                },
                "b4": {
                    "left": {
                        "type": "string",
                        "value": "20dp"
                    }
                }
            },
            "top": {}
        },
        "flxRight": {
            "__events__": {},
            "__info__": {
                "kuid": "ja4ef08a6c004443a4e848fc207b0e6f",
                "srcKUID": "f3bcc623c4bb43a690540f20a0e1b099",
                "wType": "FlexContainer"
            },
            "bottom": {},
            "left": {},
            "responsiveData": {
                "b1": {
                    "bottom": {
                        "type": "string",
                        "value": "30dp"
                    },
                    "layoutType": 4,
                    "left": {
                        "type": "string",
                        "value": "20dp"
                    },
                    "width": {
                        "type": "string",
                        "value": "60%"
                    }
                },
                "b3": {
                    "left": {
                        "type": "string",
                        "value": "20dp"
                    },
                    "width": {
                        "type": "string",
                        "value": "92%"
                    }
                }
            },
            "top": {
                "Default": {
                    "type": "string",
                    "value": "0dp"
                }
            },
            "width": {}
        },
        "flxSendOTPflxAccountsDescription": {
            "__events__": {},
            "__info__": {
                "kuid": "h3717ac807cc4f31980a0a4d5ef864a7",
                "srcKUID": "ef6b6b3bf87b4f7caeb1aef89802998d",
                "wType": "Label"
            },
            "responsiveData": {
                "b1": {
                    "centerY": {
                        "type": "string",
                        "value": "56%"
                    }
                },
                "b3": {
                    "isVisible": false
                }
            }
        },
        "imgflxAccountsDescription": {
            "__events__": {},
            "__info__": {
                "kuid": "ab9ec0c23ceb45e9bfaaeed90238e8b6",
                "srcKUID": "cfe747932bd64095882699d3b4ab47e8",
                "wType": "Image"
            },
            "left": {},
            "responsiveData": {
                "b1": {
                    "left": {
                        "type": "string",
                        "value": "0dp"
                    },
                    "width": {
                        "type": "string",
                        "value": "100%"
                    }
                }
            },
            "src": "nuo_savings.png",
            "width": {}
        },
        "lblAccountName": {
            "__events__": {},
            "__info__": {
                "kuid": "h4da01e5014142be91e743ebe46ea00e",
                "srcKUID": "iea52857101245bf996ed7f0c6d8d9da",
                "wType": "Label"
            }
        },
        "lblFeature": {
            "__events__": {},
            "__info__": {
                "kuid": "cd9c7778b3724adfb074a7e5aa3bc4f3",
                "srcKUID": "bb07b1041c3e42ce9b7ecf94e9068d61",
                "wType": "Label"
            }
        },
        "lblReadyForWhatComesNext": {
            "__events__": {},
            "__info__": {
                "kuid": "hacdf66bd114493fa7766e903ec7c295",
                "srcKUID": "e7472189992f42299d2525ae90a96def",
                "wType": "Label"
            }
        },
        "lblSavingsAccountsMakesItEasy": {
            "__events__": {},
            "__info__": {
                "kuid": "f88567bafc174797a8041dc992d0121f",
                "srcKUID": "ad441f3bceee4e41b7f7e95b1b48d665",
                "wType": "Label"
            }
        },
        "segFeatures": {
            "__events__": {},
            "__info__": {
                "kuid": "g6a431ed9e8c47fa8d522375dffbb94e",
                "srcKUID": "b351b3be8cb44dbf9bbe1dae38a3b8f2",
                "wType": "Segment"
            },
            "responsiveData": {
                "b1": {
                    "width": {
                        "type": "string",
                        "value": "100%"
                    }
                },
                "b4": {
                    "width": {
                        "type": "string",
                        "value": "87%"
                    }
                }
            },
            "width": {}
        }
    },
    "desktopweb": {},
    "id": "AccountsDescription",
    "info": null,
    "ipad": {},
    "iphone": {},
    "iscustomlayout": false,
    "isdatareferenced": false,
    "issegmentchild": false,
    "isvisible": true,
    "kiosk": {},
    "kuid": "h448dde075804aa7b2a1d78fc06fc3c3",
    "layouttype": 4,
    "masterType": 0,
    "name": "kony.ui.UserWidgetInstance",
    "parent": "flxAccountsDescription",
    "pf": "frmNAO",
    "responsiveData": {
        "b1": {
            "isVisible": true
        },
        "b2": {
            "width": {
                "type": "string",
                "value": "100%"
            }
        }
    },
    "retaincontentalignment": false,
    "retainflexpositionproperties": false,
    "snaptogrid": true,
    "sourceUserWidget": "f1dc0df1a4c44d4795dd68f1f28e8e27",
    "spa": {},
    "spaan": {},
    "spaandroidtablet": {},
    "spabb": {},
    "spaip": {},
    "spaipad": {},
    "spamobile": {},
    "spatablet": {},
    "spawindowstablet": {},
    "spawinphone8": {},
    "tabrcandroid": {},
    "vizProps": {
        "hidewidgethierarchy": false
    },
    "wType": "UserWidgetInstance",
    "windows10": {},
    "windows8": {},
    "winphone10": {},
    "winphone8": {}
}