{
    "@class": "com.kony.gen.viz.model.component.KVizButton",
    "DNDConfig": null,
    "__parentReadjusting__": false,
    "_height_": {
        "type": "string",
        "value": "50dp"
    },
    "_left_": {
        "type": "string",
        "value": "68.12%"
    },
    "_margin_": [
        6,
        6,
        6,
        6
    ],
    "_padding_": [
        0,
        0,
        0,
        0
    ],
    "_right_": {
        "type": "number",
        "value": ""
    },
    "_skin_": "sfbbba35ede4457b94eb681b72349b98",
    "_text_": "",
    "_top_": {
        "type": "string",
        "value": "20dp"
    },
    "_width_": {
        "type": "string",
        "value": "29.47%"
    },
    "accessibilityconfig": {
        "a11yLabel": "Continue"
    },
    "canUpdateUI": true,
    "centerx": {
        "type": "number",
        "value": ""
    },
    "centery": {
        "type": "number",
        "value": ""
    },
    "containerweight": 100,
    "contentalignment": 5,
    "desktopweb": {
        "psp": {
            "hoverSkin": "s81054b5e2b74f17a5261991df565427"
        }
    },
    "disabledSkins": {
        "focusSkin": "sf44d06ca8224832827ea7fdff757013"
    },
    "displaytext": true,
    "id": "btnContinueProceed",
    "info": null,
    "isvisible": true,
    "kuid": "h5d61e9a7638436c9ddd0eb8d9d86146",
    "name": "kony.ui.Button",
    "parent": "flxContinueButton",
    "pf": "frmNAO",
    "responsiveData": {
        "b1": {
            "centerY": {
                "type": "string",
                "value": "50%"
            },
            "height": {
                "type": "string",
                "value": "40dp"
            },
            "left": {
                "type": "string",
                "value": ""
            },
            "right": {
                "type": "string",
                "value": "0%"
            },
            "skin": "sfbbba35ede4457b94eb681b72349b98",
            "top": {
                "type": "string",
                "value": "14dp"
            },
            "width": {
                "type": "string",
                "value": "150dp"
            }
        },
        "b2": {
            "height": {
                "type": "string",
                "value": "40dp"
            },
            "left": {
                "type": "string",
                "value": ""
            },
            "right": {
                "type": "string",
                "value": "4%"
            },
            "width": {
                "type": "string",
                "value": "150dp"
            }
        },
        "b3": {
            "centerX": {
                "type": "string",
                "value": "50%"
            },
            "centerY": {
                "type": "string",
                "value": "50%"
            },
            "height": {
                "type": "string",
                "value": "40dp"
            },
            "isVisible": true,
            "left": {
                "type": "string",
                "value": "10dp"
            },
            "minWidth": {
                "type": "string",
                "value": ""
            },
            "right": {
                "type": "string",
                "value": "10dp"
            },
            "top": {
                "type": "string",
                "value": ""
            },
            "width": {
                "type": "ref",
                "value": "preferred"
            }
        },
        "b4": {
            "centerX": {
                "type": "string",
                "value": ""
            },
            "height": {
                "type": "string",
                "value": "40dp"
            },
            "left": {
                "type": "string",
                "value": ""
            },
            "right": {
                "type": "string",
                "value": "4.50%"
            },
            "width": {
                "type": "string",
                "value": "150dp"
            }
        }
    },
    "texti18n": "i18n.common.proceed",
    "tooltip": "Continue",
    "wType": "Button",
    "zindex": 1
}