{
    "@class": "com.kony.gen.viz.model.component.KVizButton",
    "DNDConfig": null,
    "__parentReadjusting__": false,
    "_height_": {
        "type": "ref",
        "value": "preferred"
    },
    "_left_": {
        "type": "string",
        "value": "102dp"
    },
    "_margin_": [
        6,
        6,
        6,
        6
    ],
    "_padding_": [
        0,
        0,
        0,
        0
    ],
    "_skin_": "se4cbdf6e51f48eda9966caa941c6a19",
    "_text_": "Button",
    "_top_": {
        "type": "string",
        "value": "2dp"
    },
    "_width_": {
        "type": "string",
        "value": "170dp"
    },
    "accessibilityconfig": {
        "a11yLabel": "Terms & Conditions"
    },
    "canUpdateUI": true,
    "containerweight": 100,
    "contentalignment": 5,
    "disabledSkins": {
        "focusSkin": "sf44d06ca8224832827ea7fdff757013"
    },
    "displaytext": true,
    "focusskin": null,
    "id": "btnTermsAndConditionsOld2",
    "info": null,
    "isvisible": true,
    "kuid": "c5be3da72c964b66ba35dcb53aed28c5",
    "name": "kony.ui.Button",
    "parent": "flxTermsWrapperOld",
    "pf": "frmNAO",
    "responsiveData": {
        "b1": {
            "left": {
                "type": "string",
                "value": "65dp"
            },
            "skin": "se4cbdf6e51f48eda9966caa941c6a19",
            "top": {
                "type": "string",
                "value": "1dp"
            },
            "width": {
                "type": "ref",
                "value": "preferred"
            }
        },
        "b2": {
            "left": {
                "type": "string",
                "value": "59dp"
            },
            "top": {
                "type": "string",
                "value": "1dp"
            },
            "width": {
                "type": "ref",
                "value": "preferred"
            }
        },
        "b3": {
            "left": {
                "type": "string",
                "value": "58dp"
            },
            "top": {
                "type": "string",
                "value": "1dp"
            },
            "width": {
                "type": "ref",
                "value": "preferred"
            }
        },
        "b4": {
            "left": {
                "type": "string",
                "value": "64dp"
            },
            "top": {
                "type": "string",
                "value": "1dp"
            },
            "width": {
                "type": "ref",
                "value": "preferred"
            }
        }
    },
    "texti18n": "i18n.common.TnC",
    "tooltip": "Terms & Conditions",
    "wType": "Button",
    "zindex": 1
}