{
    "@class": "com.kony.gen.viz.model.component.KVizUserWidget",
    "DNDConfig": null,
    "__parentReadjusting__": false,
    "_android_": {},
    "_androidwearos_": {},
    "_children_": [],
    "_desktopweb_": {},
    "_height_": {
        "type": "ref",
        "value": "preferred"
    },
    "_ipad_": {},
    "_iphone_": {},
    "_kiosk_": {},
    "_left_": {
        "type": "string",
        "value": "0dp"
    },
    "_margin_": [
        0,
        0,
        0,
        0
    ],
    "_orientation_": 1,
    "_padding_": [
        0,
        0,
        0,
        0
    ],
    "_percent_": true,
    "_render_": true,
    "_responsiveData_": {
        "b4": {
            "left": {
                "type": "string",
                "value": "0dp"
            },
            "right": {
                "type": "string",
                "value": "0dp"
            }
        }
    },
    "_skin_": "sba491fef8854b43a72027d930d449be",
    "_spa_": {},
    "_spaan_": {},
    "_spaandroidtablet_": {},
    "_spabb_": {},
    "_spaip_": {},
    "_spaipad_": {},
    "_spamobile_": {},
    "_spatablet_": {},
    "_spawindowstablet_": {},
    "_spawinphone8_": {},
    "_tabrcandroid_": {},
    "_top_": {
        "type": "string",
        "value": "0dp"
    },
    "_vizProps_": {
        "hidewidgethierarchy": false
    },
    "_width_": {
        "type": "string",
        "value": "100%"
    },
    "_windows10_": {},
    "_windows8_": {},
    "_winphone10_": {},
    "_winphone8_": {},
    "areflexpropsreferenced": false,
    "autogrowmode": 1,
    "canUpdateUI": true,
    "clipbounds": true,
    "containerweight": 0,
    "dataDiffs": {
        "CreditCheckNAO": {
            "__events__": {},
            "__info__": {
                "isRoot": true,
                "kuid": "c36bb95451cf420fb3d61c290f40b1f5",
                "srcKUID": "b19568942d4c4e7fb5bd3934089ae56d",
                "wType": "FlexContainer"
            },
            "left": {},
            "responsiveData": {
                "b4": {
                    "left": {
                        "type": "string",
                        "value": "0dp"
                    },
                    "right": {
                        "type": "string",
                        "value": "0dp"
                    }
                }
            },
            "right": {}
        },
        "btnCreditCheckClose": {
            "__events__": {},
            "__info__": {
                "kuid": "c378cde265244d9b9b97da58b11300d9",
                "srcKUID": "ea122c5f165643adbc569229a9458c8c",
                "wType": "Button"
            },
            "centerY": {},
            "height": {},
            "responsiveData": {
                "b1": {
                    "centerY": {
                        "type": "string",
                        "value": "50%"
                    },
                    "height": {
                        "type": "string",
                        "value": "40dp"
                    },
                    "width": {
                        "type": "string",
                        "value": "150dp"
                    }
                },
                "b2": {
                    "centerY": {
                        "type": "string",
                        "value": "50%"
                    },
                    "height": {
                        "type": "string",
                        "value": "40dp"
                    },
                    "width": {
                        "type": "string",
                        "value": "150dp"
                    }
                },
                "b4": {
                    "height": {
                        "type": "string",
                        "value": "40dp"
                    },
                    "width": {
                        "type": "string",
                        "value": "150dp"
                    }
                }
            },
            "width": {}
        },
        "btnCreditCheckSeperator": {
            "__events__": {},
            "__info__": {
                "kuid": "ga195bb7553c4e328d6a4839ca3f4f99",
                "srcKUID": "b2ef13cc5f7540d48f69437107fd479d",
                "wType": "FlexContainer"
            }
        },
        "flxColorLine": {
            "__events__": {},
            "__info__": {
                "kuid": "h21c5c62dc1f4b2288ad063783f1894c",
                "srcKUID": "he2749aac77b4116a86314ebc03f74b8",
                "wType": "FlexContainer"
            }
        },
        "flxCreditCheck": {
            "__events__": {},
            "__info__": {
                "kuid": "gb078be982d74ab5808923fa09682f46",
                "srcKUID": "fd4643df4f444bf3ab36b46d8585ea3a",
                "wType": "FlexContainer"
            }
        },
        "flxCreditCheckButtons": {
            "__events__": {},
            "__info__": {
                "kuid": "eddc47cdd552480588068b783ef54712",
                "srcKUID": "a99e63f57a594316916b557dd2308ac2",
                "wType": "FlexContainer"
            }
        },
        "flxCreditCheckContainer": {
            "__events__": {},
            "__info__": {
                "kuid": "he84a2f0e0b44868a090ade96a8da2af",
                "srcKUID": "c5ec528d06a048699a90ed562166a3ff",
                "wType": "FlexContainer"
            },
            "responsiveData": {
                "b4": {
                    "top": {
                        "type": "string",
                        "value": "20dp"
                    }
                }
            }
        },
        "flxCreditCheckMessageBox": {
            "__events__": {},
            "__info__": {
                "kuid": "c298ed1a67354c2ebdb4bbfa4351762b",
                "srcKUID": "b4191140f9564d19ad4c7cafe56782e3",
                "wType": "FlexContainer"
            }
        },
        "flxCreditCheckWrapper": {
            "__events__": {},
            "__info__": {
                "kuid": "e51c441f1c224caab7cb984563d40ae4",
                "srcKUID": "b46a194c65cf44a3ae1955a64a2964bf",
                "wType": "FlexContainer"
            },
            "left": {},
            "responsiveData": {
                "b1": {
                    "top": {
                        "type": "string",
                        "value": "0dp"
                    }
                },
                "b4": {
                    "left": {
                        "type": "string",
                        "value": "0dp"
                    },
                    "top": {
                        "type": "string",
                        "value": "0dp"
                    }
                }
            },
            "top": {}
        },
        "flxCreditCheckimage": {
            "__events__": {},
            "__info__": {
                "kuid": "a6f43a7ca42f45fa9f016917bb06c3d4",
                "srcKUID": "jb64e322cf0947bfa93a06c772ae3d98",
                "wType": "FlexContainer"
            }
        },
        "flxHeaderCreditCheck": {
            "__events__": {},
            "__info__": {
                "kuid": "hbf8e24f10d641dc8603f761815fc514",
                "srcKUID": "c3a8af25940545a4b36c9aa29f0a19b2",
                "wType": "FlexContainer"
            },
            "responsiveData": {
                "b4": {
                    "top": {
                        "type": "string",
                        "value": "0dp"
                    }
                }
            }
        },
        "flxSeparator": {
            "__events__": {},
            "__info__": {
                "kuid": "f416918be97747928b626e70a150722b",
                "srcKUID": "a0c66e51e58145a6a7fe3df80f4a9f28",
                "wType": "FlexContainer"
            }
        },
        "imgflxCreditCheck": {
            "__events__": {},
            "__info__": {
                "kuid": "cb9d551363c046098fb9747b0de1a6c8",
                "srcKUID": "fe6ec918942c418fae56ed251f8bb8ba",
                "wType": "Image"
            },
            "src": "nuo_credit_check_failure.png"
        },
        "lblCreditCheck": {
            "__events__": {},
            "__info__": {
                "kuid": "aad43367fe18438fa4022a3031a468d4",
                "srcKUID": "d38e565acefa4a9facf001419a68bf03",
                "wType": "Label"
            }
        },
        "lblMessage": {
            "__events__": {},
            "__info__": {
                "kuid": "a79acee951094c8eab184dd3046da876",
                "srcKUID": "g9304118ec7a49ddaff838e36c11b878",
                "wType": "Label"
            },
            "responsiveData": {
                "b4": {
                    "top": {
                        "type": "string",
                        "value": "0dp"
                    },
                    "width": {
                        "type": "string",
                        "value": "94.66%"
                    }
                }
            },
            "top": {}
        },
        "lblMessageHeading": {
            "__events__": {},
            "__info__": {
                "kuid": "db8f8fb8403942c491ccee459a7cab7b",
                "srcKUID": "c5f8526e6ca14e3e915cd8a3c3ba34bf",
                "wType": "Label"
            }
        }
    },
    "id": "CreditCheckNAO",
    "info": null,
    "iscustomlayout": false,
    "isdatareferenced": false,
    "isvisible": true,
    "kuid": "c36bb95451cf420fb3d61c290f40b1f5",
    "layouttype": 4,
    "masterType": 0,
    "name": "kony.ui.UserWidgetInstance",
    "parent": "flxCreditCheck",
    "pf": "frmNAO",
    "retaincontentalignment": false,
    "retainflexpositionproperties": false,
    "snaptogrid": true,
    "sourceUserWidget": "b19568942d4c4e7fb5bd3934089ae56d",
    "vizprops": {
        "hidewidgethierarchy": false
    },
    "wType": "UserWidgetInstance"
}