{
    "DNDConfig": null,
    "_height_": {
        "type": "string",
        "value": "60dp"
    },
    "_left_": {
        "type": "number",
        "value": ""
    },
    "_margin_": [
        0,
        0,
        0,
        0
    ],
    "_orientation_": 6,
    "_padding_": [
        0,
        0,
        0,
        0
    ],
    "_percent_": true,
    "_right_": {
        "type": "number",
        "value": ""
    },
    "_skin_": "sacf9eef45684134bada424f2a1c336d",
    "_top_": {
        "type": "string",
        "value": "30dp"
    },
    "_width_": {
        "type": "string",
        "value": "86%"
    },
    "allboxes": [],
    "canUpdateUI": true,
    "centerx": {
        "type": "string",
        "value": "50%"
    },
    "children": [
        "imgDowntimeWarning",
        "rtxDowntimeWarning"
    ],
    "clipbounds": true,
    "containerweight": 100,
    "enablescrolling": true,
    "id": "flxDownTimeWarning",
    "info": null,
    "isvisible": false,
    "kuid": "f906e8e012e8452fa1b1d90589e8690f",
    "layouttype": 3,
    "name": "kony.ui.FlexContainer",
    "parent": "flxContainer",
    "pf": "frmNAO",
    "responsiveData": {
        "b1": {
            "width": {
                "type": "string",
                "value": "78%"
            }
        },
        "b2": {
            "width": {
                "type": "string",
                "value": "78%"
            }
        },
        "b3": {
            "height": {
                "type": "string",
                "value": "75dp"
            },
            "layoutType": 2,
            "width": {
                "type": "string",
                "value": "96%"
            }
        },
        "b4": {
            "left": {
                "type": "string",
                "value": "2%"
            },
            "right": {
                "type": "string",
                "value": "24dp"
            },
            "width": {
                "type": "string",
                "value": "96%"
            }
        }
    },
    "snapgridsize": 10,
    "snaptogrid": true,
    "wType": "FlexContainer",
    "widgetalignment": 1,
    "zindex": 1
}