{
    "DNDConfig": null,
    "__parentReadjusting__": false,
    "_bottom_": {
        "type": "string",
        "value": "20dp"
    },
    "_height_": {
        "type": "string",
        "value": "130dp"
    },
    "_left_": {
        "type": "string",
        "value": "30dp"
    },
    "_margin_": [
        0,
        0,
        0,
        0
    ],
    "_orientation_": 6,
    "_padding_": [
        0,
        0,
        0,
        0
    ],
    "_percent_": true,
    "_skin_": "scc2774b4e4a4154a91ef50a36c5fe42",
    "_top_": {
        "type": "string",
        "value": "20dp"
    },
    "_width_": {
        "type": "string",
        "value": "92.50%"
    },
    "allboxes": [],
    "autogrowmode": 0,
    "canUpdateUI": true,
    "centerx": {
        "type": "number",
        "value": ""
    },
    "centery": {
        "type": "number",
        "value": ""
    },
    "children": [
        "flxFollowingPoints",
        "lblThisServicesIsChargeble",
        "lblInfoMessage",
        "flxTCCheckBox"
    ],
    "clipbounds": true,
    "containerweight": 100,
    "enablescrolling": true,
    "id": "flxPleaseNoteTheFollowingPoints",
    "info": null,
    "isvisible": true,
    "kuid": "ccc34abab7a84e48a0a6a777468d9f42",
    "layouttype": 4,
    "name": "kony.ui.FlexContainer",
    "parent": "flxPleaseNoteWrapper",
    "pf": "frmNAO",
    "responsiveData": {
        "b1": {
            "bottom": {
                "type": "number",
                "value": "0"
            },
            "centerX": {
                "type": "string",
                "value": "50%"
            },
            "height": {
                "type": "string",
                "value": "130dp"
            },
            "left": {
                "type": "string",
                "value": ""
            },
            "top": {
                "type": "string",
                "value": ""
            }
        },
        "b2": {
            "bottom": {
                "type": "number",
                "value": "0"
            },
            "centerX": {
                "type": "string",
                "value": "50%"
            },
            "height": {
                "type": "string",
                "value": "130dp"
            },
            "left": {
                "type": "string",
                "value": ""
            },
            "top": {
                "type": "string",
                "value": ""
            }
        },
        "b3": {
            "bottom": {
                "type": "string",
                "value": ""
            },
            "centerX": {
                "type": "string",
                "value": ""
            },
            "height": {
                "type": "string",
                "value": "150dp"
            },
            "layoutType": 4,
            "left": {
                "type": "string",
                "value": "2%"
            },
            "right": {
                "type": "string",
                "value": "2%"
            },
            "top": {
                "type": "string",
                "value": ""
            },
            "width": {
                "type": "string",
                "value": "96%"
            }
        },
        "b4": {
            "bottom": {
                "type": "string",
                "value": ""
            },
            "centerX": {
                "type": "string",
                "value": "50%"
            },
            "centerY": {
                "type": "string",
                "value": "50%"
            },
            "height": {
                "type": "string",
                "value": "130dp"
            },
            "left": {
                "type": "string",
                "value": ""
            },
            "top": {
                "type": "string",
                "value": ""
            },
            "width": {
                "type": "string",
                "value": "92%"
            }
        }
    },
    "snapgridsize": 10,
    "snaptogrid": true,
    "wType": "FlexContainer",
    "widgetalignment": 1,
    "zindex": 1
}