{
    "DNDConfig": null,
    "__parentReadjusting__": false,
    "_height_": {
        "type": "string",
        "value": "80dp"
    },
    "_left_": {
        "type": "string",
        "value": "0dp"
    },
    "_margin_": [
        0,
        0,
        0,
        0
    ],
    "_orientation_": 6,
    "_padding_": [
        0,
        0,
        0,
        0
    ],
    "_percent_": true,
    "_skin_": "sba491fef8854b43a72027d930d449be",
    "_top_": {
        "type": "string",
        "value": "0dp"
    },
    "_width_": {
        "type": "string",
        "value": "100%"
    },
    "allboxes": [],
    "autogrowmode": 0,
    "canUpdateUI": true,
    "children": [
        "lblReviewApplicationHeader"
    ],
    "clipbounds": true,
    "containerweight": 100,
    "enablescrolling": true,
    "id": "flxReviewApplicationTitle",
    "info": null,
    "isvisible": true,
    "kuid": "gfb4e1eb795044d8b4ded50c4ecafb9d",
    "layouttype": 2,
    "name": "kony.ui.FlexContainer",
    "parent": "flxReviewApplication",
    "pf": "frmNAO",
    "responsiveData": {
        "b1": {
            "left": {
                "type": "string",
                "value": "1dp"
            },
            "skin": "sba491fef8854b43a72027d930d449be",
            "zIndex": 22
        },
        "b2": {
            "zIndex": 22
        },
        "b3": {
            "isVisible": false,
            "left": {
                "type": "string",
                "value": "0dp"
            },
            "zIndex": 22
        },
        "b4": {
            "left": {
                "type": "string",
                "value": "1dp"
            },
            "zIndex": 22
        }
    },
    "snapgridsize": 10,
    "snaptogrid": true,
    "wType": "FlexContainer",
    "widgetalignment": 1,
    "zindex": 1
}