{
    "DNDConfig": null,
    "__parentReadjusting__": false,
    "_bottom_": {
        "type": "number",
        "value": ""
    },
    "_height_": {
        "type": "ref",
        "value": "preferred"
    },
    "_left_": {
        "type": "string",
        "value": "0%"
    },
    "_margin_": [
        0,
        0,
        0,
        0
    ],
    "_orientation_": 6,
    "_padding_": [
        0,
        0,
        0,
        0
    ],
    "_percent_": true,
    "_skin_": "sdc143f0e5b64ae3a3f155f691c73fa7",
    "_top_": {
        "type": "string",
        "value": "0px"
    },
    "_width_": {
        "type": "string",
        "value": "100%"
    },
    "allboxes": [],
    "autogrowmode": 1,
    "canUpdateUI": true,
    "centerx": {
        "type": "number",
        "value": ""
    },
    "children": [
        "flxSeparator",
        "segProductsNAO",
        "flxNotesSeperator",
        "flxPleaseNoteWrapper",
        "flxContinueButton",
        "flxPleaseNoteTheFollowingPointsOld"
    ],
    "clipbounds": false,
    "containerweight": 100,
    "enablescrolling": true,
    "id": "flxSelectProducts",
    "info": null,
    "isvisible": true,
    "kuid": "jb78293d52054b5e8af4269bf7f91053",
    "layouttype": 4,
    "name": "kony.ui.FlexContainer",
    "parent": "flxMain",
    "pf": "frmNAO",
    "responsiveData": {
        "b1": {
            "top": {
                "type": "string",
                "value": "0px"
            }
        },
        "b3": {
            "bottom": {
                "type": "string",
                "value": ""
            },
            "centerX": {
                "type": "string",
                "value": "50%"
            },
            "isVisible": true,
            "left": {
                "type": "string",
                "value": "0dp"
            },
            "top": {
                "type": "string",
                "value": "0dp"
            },
            "width": {
                "type": "string",
                "value": "100%"
            }
        }
    },
    "snapgridsize": 10,
    "snaptogrid": true,
    "wType": "FlexContainer",
    "widgetalignment": 1,
    "zindex": 1
}