{
    "DNDConfig": null,
    "__parentReadjusting__": false,
    "_bottom_": {
        "type": "string",
        "value": "20dp"
    },
    "_height_": {
        "type": "string",
        "value": "20dp"
    },
    "_left_": {
        "type": "string",
        "value": "0dp"
    },
    "_margin_": [
        0,
        0,
        0,
        0
    ],
    "_orientation_": 6,
    "_padding_": [
        0,
        0,
        0,
        0
    ],
    "_percent_": true,
    "_skin_": "s24c92fc23b14f5484b693ee9b8a9b35",
    "_top_": {
        "type": "string",
        "value": "20dp"
    },
    "_width_": {
        "type": "string",
        "value": "100%"
    },
    "allboxes": [],
    "autogrowmode": 0,
    "canUpdateUI": true,
    "children": [
        "flxTCContentsCheckboxOld",
        "flxTermsWrapperOld",
        "lblIAccept1Old",
        "lblTCOld",
        "btnTermsAndConditionsOld"
    ],
    "clipbounds": true,
    "containerweight": 100,
    "enablescrolling": true,
    "id": "flxTCCheckBoxOld",
    "info": null,
    "isvisible": true,
    "kuid": "f58b3832a4084de5bef378699deccb9b",
    "layouttype": 2,
    "name": "kony.ui.FlexContainer",
    "parent": "flxPleaseNoteTheFollowingPointsOld",
    "pf": "frmNAO",
    "responsiveData": {
        "b3": {
            "layoutType": 3,
            "width": {
                "type": "string",
                "value": "90%"
            }
        }
    },
    "snapgridsize": 10,
    "snaptogrid": true,
    "wType": "FlexContainer",
    "widgetalignment": 1,
    "zindex": 1
}