{
    "@class": "com.kony.gen.viz.model.component.KVizImage2",
    "DNDConfig": null,
    "__parentReadjusting__": false,
    "_base64_": null,
    "_height_": {
        "type": "string",
        "value": "20dp"
    },
    "_left_": {
        "type": "string",
        "value": "0dp"
    },
    "_margin_": [
        0,
        0,
        0,
        0
    ],
    "_padding_": [
        0,
        0,
        0,
        0
    ],
    "_skin_": "s78a5f26c9f14cec9ebed1bb46098f80",
    "_src_": "unchecked_box.png",
    "_top_": {
        "type": "string",
        "value": "0px"
    },
    "_width_": {
        "type": "string",
        "value": "20dp"
    },
    "accessibilityconfig": {
        "a11yLabel": "Terms and Conditions Checkbox",
        "a11yValue": ""
    },
    "canUpdateUI": true,
    "containerweight": 100,
    "context": {
        "channel": "desktop",
        "formID": "frmNAO",
        "platform": "desktopweb",
        "templateType": "forms",
        "topLevelBox": null
    },
    "id": "imgTCContentsCheckbox",
    "imagescalemode": 1,
    "info": null,
    "invokedProperty": "src",
    "isvisible": true,
    "kuid": "cca3be3fca2e493ea69f7f5ccff0c3d6",
    "name": "kony.ui.Image2",
    "parent": "flxTCContentsCheckbox",
    "pf": "frmNAO",
    "responsiveData": {
        "b1": {
            "top": {
                "type": "string",
                "value": "0px"
            }
        }
    },
    "srcType": 1,
    "tooltip": "checkbox",
    "wType": "Image",
    "widgetalignment": 5,
    "zindex": 1
}