{
    "DNDConfig": null,
    "_height_": {
        "type": "string",
        "value": "13dp"
    },
    "_margin_": [
        0,
        0,
        0,
        0
    ],
    "_orientation_": 6,
    "_padding_": [
        0,
        0,
        0,
        0
    ],
    "_percent_": true,
    "_skin_": "sec33ce747114bec824bad2508e6968f",
    "_width_": {
        "type": "string",
        "value": "13dp"
    },
    "allboxes": [],
    "autogrowmode": 0,
    "canUpdateUI": true,
    "centerx": {
        "type": "string",
        "value": "3%"
    },
    "centery": {
        "type": "string",
        "value": "50%"
    },
    "children": [
        "imgDropDown"
    ],
    "clipbounds": true,
    "containerId": true,
    "containerweight": 100,
    "enablescrolling": true,
    "id": "flxDropDown",
    "ide_onClick": "AS_FlexContainer_c018e9e9a11e45e2a0b4d460c283766b",
    "info": null,
    "iscustomlayout": false,
    "isvisible": true,
    "kuid": "f6d03379444d45388d10170723978de3",
    "layouttype": 2,
    "name": "kony.ui.FlexContainer",
    "parent": "flxMyApprovalsRowHeader",
    "pf": "segApprovependingRowTemplate",
    "retaincontentalignment": false,
    "retainflexpositionproperties": false,
    "snapgridsize": 10,
    "snaptogrid": true,
    "wType": "FlexContainer",
    "widgetalignment": 1,
    "zindex": 1
}