{
    "DNDConfig": null,
    "_height_": {
        "type": "string",
        "value": "60dp"
    },
    "_left_": {
        "type": "string",
        "value": "5%"
    },
    "_margin_": [
        0,
        0,
        0,
        0
    ],
    "_orientation_": 6,
    "_padding_": [
        0,
        0,
        0,
        0
    ],
    "_percent_": true,
    "_skin_": "s24c92fc23b14f5484b693ee9b8a9b35",
    "_top_": {
        "type": "string",
        "value": "0dp"
    },
    "_width_": {
        "type": "string",
        "value": "93%"
    },
    "allboxes": [],
    "autogrowmode": 0,
    "canUpdateUI": true,
    "children": [
        "lblApprovetypeval",
        "lblSentDateVal",
        "lblSentByVal",
        "lblApprovalDateval",
        "flxTrActions"
    ],
    "clipbounds": true,
    "containerId": true,
    "containerweight": 100,
    "enablescrolling": true,
    "id": "flxTransactionMain",
    "info": null,
    "iscustomlayout": false,
    "isvisible": true,
    "kuid": "iff6259ebd5847e696212c6df0a1c754",
    "layouttype": 2,
    "name": "kony.ui.FlexContainer",
    "parent": "flxMyApprovalsRowHeader",
    "pf": "segApprovependingRowTemplate",
    "retaincontentalignment": false,
    "retainflexpositionproperties": false,
    "snapgridsize": 10,
    "snaptogrid": true,
    "wType": "FlexContainer",
    "widgetalignment": 1
}