{
	 "DNDConfig": null,
	 "__parentReadjusting__": false,
	 "_height_": {
		 "type": "string",
		 "value": "15dp"
	},
	 "_margin_": [
		 0,
		 0,
		 0,
		 0
	],
	 "_orientation_": 6,
	 "_padding_": [
		 0,
		 0,
		 0,
		 0
	],
	 "_percent_": true,
	 "_right_": {
		 "type": "string",
		 "value": "4.08%"
	},
	 "_skin_": "scbd4cac3526468089bf3013adff0549",
	 "_width_": {
		 "type": "string",
		 "value": "15dp"
	},
	 "allboxes": [],
	 "autogrowmode": 0,
	 "canUpdateUI": true,
	 "centery": {
		 "type": "string",
		 "value": "50%"
	},
	 "children": [
		 "imgClose"
	],
	 "clipbounds": true,
	 "containerweight": 100,
	 "desktopweb": {
		 "psp": {
			 "hoverSkin": "s3e0ac30f9774278a868cb7c73908a76"
		}
	},
	 "enablescrolling": true,
	 "id": "flxClose",
	 "info": null,
	 "isvisible": true,
	 "kuid": "c5f8286be87a4d038ee1ed9977a8cefa",
	 "layouttype": 2,
	 "name": "kony.ui.FlexContainer",
	 "parent": "flxTermsAndConditionsHeader",
	 "pf": "frmBBMyApprovals",
	 "snapgridsize": 10,
	 "snaptogrid": true,
	 "wType": "FlexContainer",
	 "widgetalignment": 1,
	 "zindex": 1,
	 "accessibilityconfig": {
		 "a11yARIA": {
			 "tabindex": 1
		}
	}
}