{
    "@class": "com.kony.gen.viz.model.component.KVizLabel",
    "DNDConfig": null,
    "__parentReadjusting__": false,
    "_height_": {
        "type": "ref",
        "value": "preferred"
    },
    "_left_": {
        "type": "string",
        "value": "20dp"
    },
    "_margin_": [
        1,
        1,
        1,
        1
    ],
    "_padding_": [
        0,
        0,
        0,
        0
    ],
    "_skin_": "se56454286124fef97a46e7249497088",
    "_text_": "Our online banking application will be unavailable on 13/04/2017 between 12:00 AM to 4:00 AM while we upgrade our system to provide you a better banking experience.",
    "_width_": {
        "type": "string",
        "value": "85%"
    },
    "_wrapping_": 2,
    "android": {
        "textStyle": {
            "letterSpacing": 0,
            "strikeThrough": false
        }
    },
    "canUpdateUI": true,
    "centery": {
        "type": "string",
        "value": "50%"
    },
    "containerweight": 100,
    "contentalignment": 4,
    "id": "lblDowntimeWarning",
    "info": null,
    "ipad": {
        "psp": {
            "wrapping": 2
        }
    },
    "iphone": {
        "psp": {
            "wrapping": 2
        }
    },
    "isvisible": true,
    "kuid": "j9327478ca8c4a0faec5d78b46dceb96",
    "name": "kony.ui.Label",
    "parent": "flxDowntimeWarning",
    "pf": "frmBBMyApprovals",
    "texti18n": "i18n.AccountsLanding.Ouronlinebankingapplicationwillbeunavailableon13042017between",
    "tooltip": "",
    "wType": "Label",
    "zindex": 1
}