{
    "DNDConfig": null,
    "_height_": {
        "type": "string",
        "value": "100%"
    },
    "_margin_": [
        0,
        0,
        0,
        0
    ],
    "_orientation_": 6,
    "_padding_": [
        0,
        0,
        0,
        0
    ],
    "_percent_": true,
    "_skin_": "sba491fef8854b43a72027d930d449be",
    "_width_": {
        "type": "string",
        "value": "150dp"
    },
    "allboxes": [],
    "autogrowmode": 0,
    "canUpdateUI": true,
    "centerx": {
        "type": "string",
        "value": "50%"
    },
    "centery": {
        "type": "string",
        "value": "50%"
    },
    "children": [
        "lblWeeklyTransDenialSymbol",
        "tbxWeeklyTransDenialAmount"
    ],
    "clipbounds": false,
    "containerId": true,
    "containerweight": 100,
    "enablescrolling": true,
    "id": "flxWeeklyTransDenialLimit",
    "info": null,
    "iscustomlayout": false,
    "isvisible": true,
    "kuid": "ee1ee6535f4342d7a51904a51d937413",
    "layouttype": 2,
    "name": "kony.ui.FlexContainer",
    "parent": "flxWeeklyTransDenialLimitHolder",
    "pf": "segAdvanceTransLimitRow",
    "retaincontentalignment": false,
    "retainflexpositionproperties": false,
    "retainflowhorizontalalignment": false,
    "snapgridsize": 10,
    "snaptogrid": true,
    "wType": "FlexContainer",
    "widgetalignment": 1
}