{
    "DNDConfig": null,
    "__parentReadjusting__": false,
    "_height_": {
        "type": "string",
        "value": "30dp"
    },
    "_left_": {
        "type": "number",
        "value": "0"
    },
    "_margin_": [
        0,
        0,
        0,
        0
    ],
    "_orientation_": 6,
    "_padding_": [
        0,
        0,
        0,
        0
    ],
    "_percent_": true,
    "_skin_": "s24c92fc23b14f5484b693ee9b8a9b35",
    "_top_": {
        "type": "string",
        "value": "2dp"
    },
    "_width_": {
        "type": "number",
        "value": "30"
    },
    "allboxes": [],
    "autogrowmode": 0,
    "canUpdateUI": true,
    "children": [
        "imgchecked",
        "lblchecked"
    ],
    "clipbounds": true,
    "containerweight": 100,
    "enablescrolling": true,
    "id": "flxcheckbox",
    "ide_onClick": "AS_FlexContainer_eb8f3aca277748d289ca7830807408fa",
    "info": null,
    "isvisible": true,
    "kuid": "fa34d846580e415a9bcfd97cd225873e",
    "layouttype": 2,
    "name": "kony.ui.FlexContainer",
    "parent": "flxCheckboxKA",
    "pf": "userwidgetmodel",
    "snapgridsize": 10,
    "snaptogrid": true,
    "wType": "FlexContainer",
    "widgetalignment": 1,
    "zindex": 1
}