{
	 "@class": "com.kony.gen.viz.model.component.KVizLabel",
	 "DNDConfig": null,
	 "__parentReadjusting__": false,
	 "_bottom_": {
		 "type": "string",
		 "value": "20dp"
	},
	 "_height_": {
		 "type": "string",
		 "value": "60dp"
	},
	 "_left_": {
		 "type": "string",
		 "value": "975dp"
	},
	 "_margin_": [
		 1,
		 1,
		 1,
		 1
	],
	 "_padding_": [
		 0,
		 0,
		 0,
		 0
	],
	 "_skin_": "sf45ca27a4704285be2caf389f55adc3",
	 "_text_": "We have detected that you are logging in from a new device.",
	 "_top_": {
		 "type": "string",
		 "value": "38dp"
	},
	 "_width_": {
		 "type": "string",
		 "value": "350dp"
	},
	 "_wrapping_": 2,
	 "accessibilityconfig": {
		 "a11yLabel": "Note: Your CVV number is confidential. Please dont share this number with anyone!"
	},
	 "android": {
		 "textStyle": {
			 "letterSpacing": 0,
			 "strikeThrough": false
		}
	},
	 "canUpdateUI": true,
	 "centerx": {
		 "type": "string",
		 "value": "50%"
	},
	 "containerweight": 100,
	 "contentalignment": 4,
	 "id": "lblNoteSecureAccessCode",
	 "info": null,
	 "ipad": {
		 "psp": {
			 "wrapping": 2
		}
	},
	 "iphone": {
		 "psp": {
			 "wrapping": 2
		}
	},
	 "isvisible": false,
	 "kuid": "de02bae9b2da40b884eccd1aa6c1c390",
	 "name": "kony.ui.Label",
	 "parent": "flxEnterOTP",
	 "pf": "userwidgetmodel",
	 "texti18n": "i18n.MFA.newDeviceMessage",
	 "tooltip": "",
	 "wType": "Label",
	 "zindex": 1
}