{
	 "@class": "com.kony.gen.viz.model.component.KVizLabel",
	 "DNDConfig": null,
	 "__parentReadjusting__": false,
	 "_height_": {
		 "type": "ref",
		 "value": "preferred"
	},
	 "_left_": {
		 "type": "string",
		 "value": "75dp"
	},
	 "_margin_": [
		 1,
		 1,
		 1,
		 1
	],
	 "_padding_": [
		 0,
		 0,
		 0,
		 0
	],
	 "_skin_": "sf45ca27a4704285be2caf389f55adc3",
	 "_text_": "Registered Email:",
	 "_top_": {
		 "type": "string",
		 "value": "36dp"
	},
	 "_width_": {
		 "type": "string",
		 "value": "350dp"
	},
	 "_wrapping_": 2,
	 "accessibilityconfig": {
		 "a11yLabel": "Note: Your CVV number is confidential. Please dont share this number with anyone!"
	},
	 "android": {
		 "textStyle": {
			 "letterSpacing": 0,
			 "strikeThrough": false
		}
	},
	 "canUpdateUI": true,
	 "centerx": {
		 "type": "string",
		 "value": "50%"
	},
	 "containerweight": 100,
	 "contentalignment": 4,
	 "id": "lblRegisteredEmail",
	 "info": null,
	 "ipad": {
		 "psp": {
			 "wrapping": 2
		}
	},
	 "iphone": {
		 "psp": {
			 "wrapping": 2
		}
	},
	 "isvisible": true,
	 "kuid": "e89c65c37c724096a3f39aeee4d891f8",
	 "name": "kony.ui.Label",
	 "parent": "flxEnterOTP",
	 "pf": "userwidgetmodel",
	 "texti18n": "i18n.CardManagement.RegisteredEmailID",
	 "tooltip": "",
	 "wType": "Label",
	 "zindex": 1
}