{
    "@class": "com.kony.gen.viz.model.component.KVizButton",
    "DNDConfig": null,
    "__parentReadjusting__": false,
    "_height_": {
        "type": "string",
        "value": "40dp"
    },
    "_left_": {
        "type": "number",
        "value": ""
    },
    "_margin_": [
        6,
        6,
        6,
        6
    ],
    "_padding_": [
        0,
        0,
        0,
        0
    ],
    "_right_": {
        "type": "string",
        "value": "22.18%"
    },
    "_skin_": "sa611611b2f24e93bcfd09e1606c0d86",
    "_text_": "MODIFY",
    "_top_": {
        "type": "number",
        "value": ""
    },
    "_width_": {
        "type": "string",
        "value": "18.80%"
    },
    "accessibilityconfig": {
        "a11yLabel": "Modify"
    },
    "canUpdateUI": true,
    "centery": {
        "type": "string",
        "value": "50%"
    },
    "containerweight": 100,
    "contentalignment": 5,
    "desktopweb": {
        "psp": {
            "hoverSkin": "s83729feaa224e359d660d5af05c4bac"
        }
    },
    "displaytext": true,
    "focusskin": "sb23593b913b4005add4a246020aa1cc",
    "id": "btnModify",
    "ide_onClick": "AS_Button_g6e364db63494107ab35957aa8acbb1d",
    "info": null,
    "isvisible": true,
    "kuid": "jaaf8f88ab894d19b4ebf892f2b73dd8",
    "name": "kony.ui.Button",
    "parent": "flxActions",
    "pf": "frmPayBillConfirm",
    "responsiveData": {
        "b2": {
            "right": {
                "type": "string",
                "value": "196dp"
            },
            "width": {
                "type": "string",
                "value": "150dp"
            }
        },
        "b3": {
            "centerY": {
                "type": "string",
                "value": ""
            },
            "left": {
                "type": "string",
                "value": "2.50%"
            },
            "right": {
                "type": "string",
                "value": "2.50%"
            },
            "skin": "s8e36b0f445c4bdebea8a7bf912a6e2a",
            "top": {
                "type": "string",
                "value": "20dp"
            },
            "width": {
                "type": "string",
                "value": "95%"
            }
        },
        "b4": {
            "right": {
                "type": "string",
                "value": "196dp"
            },
            "width": {
                "type": "string",
                "value": "150dp"
            }
        }
    },
    "texti18n": "i18n.transfers.Modify",
    "tooltip": "Modify",
    "wType": "Button",
    "zindex": 1
}