{
    "DNDConfig": null,
    "__parentReadjusting__": false,
    "_height_": {
        "type": "ref",
        "value": "preferred"
    },
    "_left_": {
        "type": "string",
        "value": "0dp"
    },
    "_margin_": [
        0,
        0,
        0,
        0
    ],
    "_orientation_": 6,
    "_padding_": [
        0,
        0,
        0,
        0
    ],
    "_percent_": true,
    "_skin_": "sdc143f0e5b64ae3a3f155f691c73fa7",
    "_top_": {
        "type": "string",
        "value": "0dp"
    },
    "_width_": {
        "type": "string",
        "value": "100%"
    },
    "allboxes": [],
    "autogrowmode": 1,
    "canUpdateUI": true,
    "children": [
        "flxHeader",
        "flxSeperator",
        "flxscrollTabs",
        "flxSearch",
        "flxSearchSortSeparator",
        "flxSort",
        "flxSortExternal",
        "flxSortScheduled",
        "flxRowSeperator",
        "flxTransfersGateway",
        "flxMakeTransferForm",
        "flxNoTransactions",
        "flxSegment"
    ],
    "clipbounds": false,
    "containerweight": 100,
    "enablescrolling": true,
    "id": "flxMainContainerTable",
    "info": null,
    "isvisible": true,
    "kuid": "832c025b3ff74f11a0817e8b126f9db7",
    "layouttype": 4,
    "name": "kony.ui.FlexContainer",
    "parent": "transfermain",
    "pf": "userwidgetmodel",
    "snapgridsize": 10,
    "snaptogrid": true,
    "wType": "FlexContainer",
    "widgetalignment": 1,
    "zindex": 1
}