{
    "@class": "com.kony.gen.viz.model.component.KVizLabel",
    "DNDConfig": null,
    "__parentReadjusting__": false,
    "_height_": {
        "type": "ref",
        "value": "preferred"
    },
    "_left_": {
        "type": "string",
        "value": "2.80%"
    },
    "_margin_": [
        1,
        1,
        1,
        1
    ],
    "_padding_": [
        0,
        0,
        0,
        0
    ],
    "_skin_": "sdfd15d3ea794a0d9f7af92d2e46715c",
    "_text_": "Select From Existing Recipients",
    "_width_": {
        "type": "ref",
        "value": "preferred"
    },
    "_wrapping_": 2,
    "accessibilityconfig": {
        "a11yLabel": "Wire Transfer Activity"
    },
    "android": {
        "textStyle": {
            "letterSpacing": 0,
            "strikeThrough": false
        }
    },
    "canUpdateUI": true,
    "centery": {
        "type": "string",
        "value": "50%"
    },
    "containerweight": 100,
    "contentalignment": 4,
    "id": "lblHeader",
    "info": null,
    "ipad": {
        "psp": {
            "wrapping": 2
        }
    },
    "iphone": {
        "psp": {
            "wrapping": 2
        }
    },
    "isvisible": true,
    "kuid": "b59ff57f4b274ac9948659c99b193278",
    "name": "kony.ui.Label",
    "parent": "flxHeaderViewActivity",
    "pf": "frmCreateTempSelectRecipients",
    "responsiveData": {
        "b1": {
            "left": {
                "type": "string",
                "value": "1.80%"
            }
        },
        "b2": {
            "left": {
                "type": "string",
                "value": "1.80%"
            },
            "skin": "sdfd15d3ea794a0d9f7af92d2e46715c"
        },
        "b3": {
            "left": {
                "type": "string",
                "value": "2.80%"
            }
        }
    },
    "tooltip": "",
    "wType": "Label",
    "zindex": 1
}