{
    "@class": "com.kony.gen.viz.model.component.KVizButton",
    "DNDConfig": null,
    "__parentReadjusting__": false,
    "_height_": {
        "type": "ref",
        "value": "preferred"
    },
    "_left_": {
        "type": "string",
        "value": "0dp"
    },
    "_margin_": [
        6,
        6,
        6,
        6
    ],
    "_padding_": [
        0,
        0,
        0,
        0
    ],
    "_skin_": "s611bd2c5d324490aa9f7ed9d412984f",
    "_text_": "Delete",
    "_width_": {
        "type": "string",
        "value": "20%"
    },
    "accessibilityconfig": {
        "a11yLabel": "Delete"
    },
    "canUpdateUI": true,
    "centery": {
        "type": "string",
        "value": "50%"
    },
    "containerId": true,
    "containerweight": 100,
    "contentalignment": 5,
    "desktopweb": {
        "psp": {
            "hoverSkin": "s611bd2c5d324490aa9f7ed9d412984f"
        }
    },
    "disabledSkins": {
        "focusSkin": "sf44d06ca8224832827ea7fdff757013"
    },
    "displaytext": true,
    "id": "btnDelete",
    "ide_onClick": "AS_Button_de343c1d168f46909120bee6ae394466",
    "info": null,
    "isvisible": true,
    "kuid": "f53d295ea8c24aa0b9ea3b37b7b42475",
    "name": "kony.ui.Button",
    "parent": "flxActions",
    "pf": "segExternalAccountSelected",
    "tooltip": "DELETE",
    "wType": "Button",
    "zindex": 1
}