{
    "@class": "com.kony.gen.viz.model.component.KVizTextBox2",
    "DNDConfig": null,
    "_height_": {
        "type": "string",
        "value": "40dp"
    },
    "_left_": {
        "type": "string",
        "value": "0%"
    },
    "_margin_": [
        0,
        0,
        0,
        0
    ],
    "_padding_": [
        2,
        0,
        0,
        0
    ],
    "_placeholder_": "Type your answer here",
    "_skin_": "saf81d7c9f3544f4890963da89a43ff3",
    "_text_": "",
    "_top_": {
        "type": "string",
        "value": "9dp"
    },
    "_width_": {
        "type": "string",
        "value": "100%"
    },
    "accessibilityconfig": {
        "a11yLabel": "Type your answer here."
    },
    "autocapitalize": "none",
    "autocomplete": false,
    "autocorrect": false,
    "autofilter": false,
    "canUpdateUI": true,
    "containerheight": "",
    "containerheightmode": 1,
    "containerweight": 100,
    "contentalignment": 4,
    "desktopweb": {
        "ide_onEndEditing": "AS_TextField_d27e4aeecf274f46ac5897f875a0aa78",
        "ide_onKeyUp": "AS_TextField_c177500c8acd4fd0ba9fe79256112435",
        "placeholderSkin": "s3e4ba4131a24efb9c8d31326b108327",
        "psp": {
            "hoverSkin": "s80a8c5539a441ee9b9b49917cc45cc2"
        }
    },
    "disabledSkins": {},
    "focusskin": "s80a8c5539a441ee9b9b49917cc45cc2",
    "id": "tbxAnswers2",
    "info": null,
    "isvisible": true,
    "keyboardtype": "A",
    "kuid": "c182257ba9dc44e8a2da360647ec363b",
    "mode": "A",
    "name": "kony.ui.TextBox2",
    "parent": "flxAnswerSecurityQuestionsQASet2",
    "pf": "userwidgetmodel",
    "placeholderskin": "s3e4ba4131a24efb9c8d31326b108327",
    "securetextentry": false,
    "textinputmode": "A",
    "viewtype": "default",
    "wType": "TextField",
    "zindex": 1
}