{
    "@class": "com.kony.gen.viz.model.component.KVizButton",
    "DNDConfig": null,
    "__parentReadjusting__": false,
    "_height_": {
        "type": "string",
        "value": "40dp"
    },
    "_left_": {
        "type": "string",
        "value": "2.50%"
    },
    "_margin_": [
        6,
        6,
        6,
        6
    ],
    "_padding_": [
        0,
        0,
        0,
        0
    ],
    "_skin_": "sa611611b2f24e93bcfd09e1606c0d86",
    "_text_": "CANCEL",
    "_top_": {
        "type": "string",
        "value": "20dp"
    },
    "_width_": {
        "type": "string",
        "value": "95%"
    },
    "accessibilityconfig": {
        "a11yLabel": "CANCEL"
    },
    "canUpdateUI": true,
    "containerId": true,
    "containerweight": 100,
    "contentalignment": 5,
    "desktopweb": {
        "psp": {
            "hoverSkin": "sb6e78b4178d435fa5be5d1f96342e33"
        }
    },
    "disabledSkins": {},
    "displaytext": true,
    "focusskin": "s434743e49c446699565893e4974ec52",
    "id": "btnCancel",
    "ide_onClick": "AS_Button_g46b8c80649248dc9a5d02f3c7400ffe",
    "info": null,
    "isvisible": true,
    "kuid": "ca20dbbecd304d219a1d77365af36108",
    "name": "kony.ui.Button",
    "parent": "flxSaveCancelAction",
    "pf": "segBillPaymentManagePayeesEditMobile",
    "tooltip": "CANCEL",
    "wType": "Button",
    "zindex": 1
}