{
    "@class": "com.kony.gen.viz.model.component.KVizButton",
    "DNDConfig": null,
    "__parentReadjusting__": false,
    "_height_": {
        "type": "string",
        "value": "40dp"
    },
    "_left_": {
        "type": "string",
        "value": "2.50%"
    },
    "_margin_": [
        6,
        6,
        6,
        6
    ],
    "_padding_": [
        0,
        0,
        0,
        0
    ],
    "_skin_": "sea1525e3fa24829a889b1fd650f3f24",
    "_text_": "SAVE",
    "_top_": {
        "type": "string",
        "value": "0"
    },
    "_width_": {
        "type": "string",
        "value": "95%"
    },
    "accessibilityconfig": {
        "a11yLabel": "SAVE"
    },
    "canUpdateUI": true,
    "containerId": true,
    "containerweight": 100,
    "contentalignment": 5,
    "desktopweb": {
        "psp": {
            "hoverSkin": "s7ab6326aaf94c28b90b61fcb1b54547"
        }
    },
    "disabledSkins": {},
    "displaytext": true,
    "focusskin": "sfd0ce0d7f454c9f83c7e815a90a8a55",
    "id": "btnSave",
    "ide_onClick": "AS_Button_af9bde1935e24f78a5008fbf9d08cf7e",
    "info": null,
    "isvisible": true,
    "kuid": "g2bc6e15f08145b695c4c804f7f9e543",
    "name": "kony.ui.Button",
    "parent": "flxSaveCancelAction",
    "pf": "segBillPaymentManagePayeesEditMobile",
    "tooltip": "SAVE",
    "wType": "Button",
    "zindex": 1
}