{
    "@class": "com.kony.gen.viz.model.component.KVizUserWidget",
    "DNDConfig": null,
    "_children_": [],
    "_height_": {
        "type": "string",
        "value": "121px"
    },
    "_left_": {
        "type": "string",
        "value": "0dp"
    },
    "_margin_": [
        0,
        0,
        0,
        0
    ],
    "_orientation_": 1,
    "_padding_": [
        0,
        0,
        0,
        0
    ],
    "_percent_": true,
    "_skin_": "s24c92fc23b14f5484b693ee9b8a9b35",
    "_top_": {
        "type": "string",
        "value": "0dp"
    },
    "_width_": {
        "type": "string",
        "value": "100%"
    },
    "areflexpropsreferenced": false,
    "autogrowmode": 0,
    "canUpdateUI": true,
    "clipbounds": false,
    "containerweight": 0,
    "dataDiffs": {
        "CopyLabel0a8b12f7002084d": {
            "__events__": {},
            "__info__": {
                "kuid": "b53d92abf7c341ef8bdffad076e508b5",
                "srcKUID": "cb34c29df04d41f58c12dbf5f1600bcf",
                "wType": "Label"
            }
        },
        "CopyLabel0bb648d916e554d": {
            "__events__": {},
            "__info__": {
                "kuid": "f9145d419d14469c871c3594e35bca13",
                "srcKUID": "c8238c4264144e7391f46d2a256dfbba",
                "wType": "Label"
            }
        },
        "CopyLabel0h9e71b8a76ad44": {
            "__events__": {},
            "__info__": {
                "kuid": "b4af154d024344c4a0e805685ceef56f",
                "srcKUID": "jdc721e253c844bf9eb85dc6aee46d25",
                "wType": "Label"
            }
        },
        "CopyflxSeperator0dfcbfe80de1946": {
            "__events__": {},
            "__info__": {
                "kuid": "bab9424decf24761b1f69616f158b97a",
                "srcKUID": "b7894266c99044dcbcafe5383e83d3db",
                "wType": "FlexContainer"
            }
        },
        "CopyflxUserDetails0b35eb5be884043": {
            "__events__": {},
            "__info__": {
                "kuid": "f1881d69d37441968ea9bf2591ecf157",
                "srcKUID": "e9caaacc452a4302b7932fe3f9374adc",
                "wType": "FlexContainer"
            }
        },
        "CopyimgToolTip0i580d9acc07c42": {
            "__events__": {},
            "__info__": {
                "kuid": "a151806c833e45dda2f83b74417ee93d",
                "srcKUID": "a30ef82b1166480faddbd6e0b99e677d",
                "wType": "Image"
            }
        },
        "FlexContainer0g7f570b54a4d4e": {
            "__events__": {},
            "__info__": {
                "kuid": "be6d214e486f49748177f4d6edf9d827",
                "srcKUID": "ccc99354aa50423c98c026de8d1c689f",
                "wType": "FlexContainer"
            }
        },
        "Label0dcf00103bdba46": {
            "__events__": {},
            "__info__": {
                "kuid": "bfbd6d28cde24b21a3c438dfa90d9aab",
                "srcKUID": "c56fe5fc01b543ad82b37aeb33af56d3",
                "wType": "Label"
            }
        },
        "btnLogout": {
            "__events__": {},
            "__info__": {
                "kuid": "c10ee19a295748da9c910f85017288bc",
                "srcKUID": "dbe084cfcd054a6cb77dabb8ab42f077",
                "wType": "Button"
            }
        },
        "customheadernew": {
            "__events__": {},
            "__info__": {
                "isRoot": true,
                "kuid": "id2db09e5b2b4ef0b6e678c9eedba6c0",
                "srcKUID": "g57ea9eb26d54f30b5f191c7fbd35c51",
                "wType": "FlexContainer"
            }
        },
        "flxAccounts": {
            "__events__": {},
            "__info__": {
                "kuid": "c20451f6e720475d86ec1861a03f05ab",
                "srcKUID": "e621bc1a1e0848afaf99419615e517b7",
                "wType": "FlexContainer"
            }
        },
        "flxActionsMenu": {
            "__events__": {},
            "__info__": {
                "kuid": "a85a572ed8eb4e5d893fe81ad215d1b2",
                "srcKUID": "f5fec7baee6841e7b95c2a53379aeea3",
                "wType": "FlexContainer"
            }
        },
        "flxClose": {
            "__events__": {},
            "__info__": {
                "kuid": "i273890d7a3d4923bcdb850365487764",
                "srcKUID": "f974fd9704ee48f08006fb2cce1bb1ba",
                "wType": "FlexContainer"
            }
        },
        "flxContextualMenu": {
            "__events__": {},
            "__info__": {
                "kuid": "b39f670f56d54682bb1c1af42da894dd",
                "srcKUID": "j3e46f4bdd64418ba7c405b38661d948",
                "wType": "FlexContainer"
            }
        },
        "flxFeedback": {
            "__events__": {},
            "__info__": {
                "kuid": "dc280515bd504bf8a6cc1ba3e3638cc8",
                "srcKUID": "b8e6354ee0aa42a684fe29b1d98a8db0",
                "wType": "FlexContainer"
            }
        },
        "flxHamburger": {
            "__events__": {},
            "__info__": {
                "kuid": "caf7bb89df774da5ac2775a4c11afaaa",
                "srcKUID": "bb94b45671994d859ad514157efbe460",
                "wType": "FlexContainer"
            }
        },
        "flxHamburgerBack": {
            "__events__": {},
            "__info__": {
                "kuid": "a01c4f6b3f494ad1bbca005bece63463",
                "srcKUID": "c83e44fca25e458f8c5f4cca992018c1",
                "wType": "FlexContainer"
            }
        },
        "flxHamburgerHeader": {
            "__events__": {},
            "__info__": {
                "kuid": "cf544e9362e542ea950222f14df15624",
                "srcKUID": "ff14c903773f49fea07675bf1dc6d3aa",
                "wType": "FlexContainer"
            }
        },
        "flxHamburgerMenu": {
            "__events__": {},
            "__info__": {
                "kuid": "bf05360a54d44113a799c0b998517468",
                "srcKUID": "f70dbadab9194d9cab80ed58a380e355",
                "wType": "FlexScrollContainer"
            }
        },
        "flxHelp": {
            "__events__": {},
            "__info__": {
                "kuid": "c3bb76aaf7024b6abf061fb221a58cd4",
                "srcKUID": "ab6d787fe40b471184a4baf8371012d8",
                "wType": "FlexContainer"
            }
        },
        "flxImgUser": {
            "__events__": {},
            "__info__": {
                "kuid": "b10fd038d682478f9b6084d8e07bc352",
                "srcKUID": "c8bbffe16c9e4322a9c1f2e978bfe397",
                "wType": "FlexContainer"
            }
        },
        "flxLogoAndActions": {
            "__events__": {},
            "__info__": {
                "kuid": "e1a45bf21cac4eccb4566d306a9a9558",
                "srcKUID": "c6cc3d5c40ad4387b5989655ced7897b",
                "wType": "FlexContainer"
            }
        },
        "flxLogoAndActionsWrapper": {
            "__events__": {},
            "__info__": {
                "kuid": "h9a8a2787d6d41b78baec05a1892a92e",
                "srcKUID": "j19f0c12db9c4a62aca336bb621f2240",
                "wType": "FlexContainer"
            }
        },
        "flxLogout": {
            "__events__": {},
            "__info__": {
                "kuid": "b8043814cbca4712ab97f9b340246ac0",
                "srcKUID": "b9455970cb324605a7d8d8423734c5d3",
                "wType": "FlexContainer"
            }
        },
        "flxLogoutSeparator": {
            "__events__": {},
            "__info__": {
                "kuid": "acd85cfb3a424924a91f001853ccbbd5",
                "srcKUID": "e307a629419a4a5cb5e6b3dd241e8d33",
                "wType": "FlexContainer"
            }
        },
        "flxLogoutWrapper": {
            "__events__": {},
            "__info__": {
                "kuid": "a269da117c5a43ecacb3eae4e01bd814",
                "srcKUID": "a3a6fced7d8c48c9b292f13fa15f5eb8",
                "wType": "FlexContainer"
            }
        },
        "flxMenu": {
            "__events__": {},
            "__info__": {
                "kuid": "e1ba7cdc6aca40d7af59164a6541f128",
                "srcKUID": "c49e3f9c246b4c9eb2037a25593f5949",
                "wType": "FlexContainer"
            }
        },
        "flxMenuContainer": {
            "__events__": {},
            "__info__": {
                "kuid": "faaa6b65267d45e9bf7a4f5b5dfa7abe",
                "srcKUID": "gbe4ab8dec9249a5b1c796d6f8196f51",
                "wType": "FlexContainer"
            }
        },
        "flxMenuItem": {
            "__events__": {},
            "__info__": {
                "kuid": "j23e982930324fa68880ed493b875066",
                "srcKUID": "b77d75a793c14f2580b76ac27da67298",
                "wType": "FlexContainer"
            }
        },
        "flxMenuItemCollapse": {
            "__events__": {},
            "__info__": {
                "kuid": "cff6761e25de49ee9d3e6e382d0553ca",
                "srcKUID": "b9bab656b60e4d929d0cb26e88d05324",
                "wType": "FlexContainer"
            }
        },
        "flxMenuLeft": {
            "__events__": {},
            "__info__": {
                "kuid": "fb4dced9fa09483e886236295dffa471",
                "srcKUID": "ea55f1f130bd498e94b6a730ef3a2340",
                "wType": "FlexContainer"
            }
        },
        "flxMenuRight": {
            "__events__": {},
            "__info__": {
                "kuid": "da13199ab85b43c09045f71f5c058893",
                "srcKUID": "c7c28fc54fd64c58bc606c327d1900c1",
                "wType": "FlexContainer"
            }
        },
        "flxMenuWrapper": {
            "__events__": {},
            "__info__": {
                "kuid": "i3f6a706e46f471d979f827d68ac5c8b",
                "srcKUID": "d0eec1a4de1646d3ab5d92996f569aa7",
                "wType": "FlexContainer"
            }
        },
        "flxMessages": {
            "__events__": {},
            "__info__": {
                "kuid": "c2d30a8ed7f445618ff511b0ea42c3c3",
                "srcKUID": "fb1a5b65fc494f30bc1e21391fa09491",
                "wType": "FlexContainer"
            }
        },
        "flxMyBills": {
            "__events__": {},
            "__info__": {
                "kuid": "e97c12b0e5df46e99df44a37e0bdd04a",
                "srcKUID": "a8bbbc89f77949f4b8140963ab148dce",
                "wType": "FlexContainer"
            }
        },
        "flxNotifications": {
            "__events__": {},
            "__info__": {
                "kuid": "ba65701ee4174fac8ffd8d599f0a16e1",
                "srcKUID": "b957e06250dd45ac951449c7bdd6ff51",
                "wType": "FlexContainer"
            }
        },
        "flxPayBills": {
            "__events__": {},
            "__info__": {
                "kuid": "ba658dd7718a4011a622d9d548958c4c",
                "srcKUID": "dfdcb7d977c545c1b7af04aa7b4b38cf",
                "wType": "FlexContainer"
            }
        },
        "flxPayMultipleBeneficiaries": {
            "__events__": {},
            "__info__": {
                "kuid": "cb70b7caff5b470bb6eaffdd712b8723",
                "srcKUID": "f7d21575b7d34f5bac8b07a002b6a76f",
                "wType": "FlexContainer"
            }
        },
        "flxSendMoney": {
            "__events__": {},
            "__info__": {
                "kuid": "f822c6ecac924127aff3cc2579a2b21f",
                "srcKUID": "f44ec678efe1449f84d827b60e0ae264",
                "wType": "FlexContainer"
            }
        },
        "flxSeparator1": {
            "__events__": {},
            "__info__": {
                "kuid": "ie218f5127ce4a8c95b4c37c2be98a5c",
                "srcKUID": "b2a298aba680466d8f60575b80e1934e",
                "wType": "FlexContainer"
            }
        },
        "flxSeparatorNew": {
            "__events__": {},
            "__info__": {
                "kuid": "ib813096a0834bb68dcd6a30d1e122aa",
                "srcKUID": "ea67f93ff0f94128a71262c9f88d2dbe",
                "wType": "FlexContainer"
            }
        },
        "flxSeperator1": {
            "__events__": {},
            "__info__": {
                "kuid": "iff76b75d8c14dcd813a7edc3cc026d2",
                "srcKUID": "db259fcb819a47079972d09155429c2c",
                "wType": "FlexContainer"
            }
        },
        "flxSeperator2": {
            "__events__": {},
            "__info__": {
                "kuid": "j4d152160211407c868c1f2806a3db25",
                "srcKUID": "c329b2e37feb4e6384dc95c9e268eedb",
                "wType": "FlexContainer"
            }
        },
        "flxSeperatorMenuItem": {
            "__events__": {},
            "__info__": {
                "kuid": "b83b727fd69c43a6a8ba32a55fbf0a52",
                "srcKUID": "dc614efa32034c87a72487baa94c4619",
                "wType": "FlexContainer"
            }
        },
        "flxShadowContainer": {
            "__events__": {},
            "__info__": {
                "kuid": "aaefc6f55b26467da3c1f04f89b4b9df",
                "srcKUID": "c247bb7332fa47d5bd417b916c7abfec",
                "wType": "FlexContainer"
            }
        },
        "flxSubMenu": {
            "__events__": {},
            "__info__": {
                "kuid": "c044443ec1e24fe6994dbd12913eb289",
                "srcKUID": "dc6c7628618b483a80fcf0bae2dac6db",
                "wType": "FlexContainer"
            }
        },
        "flxSubMenuItem": {
            "__events__": {},
            "__info__": {
                "kuid": "dd79fe0e16ca45f3a4cec08cb92f5054",
                "srcKUID": "ecc2da3d45e348e0aed2982aed7e9e98",
                "wType": "FlexContainer"
            }
        },
        "flxTransferMoney": {
            "__events__": {},
            "__info__": {
                "kuid": "b12b4110fd7a44a0a208ff2735e5696c",
                "srcKUID": "fc180c87f1494b08bd7335e029745f05",
                "wType": "FlexContainer"
            }
        },
        "flxTransfersAndPay": {
            "__events__": {},
            "__info__": {
                "kuid": "af69b32ccdc04ef1b0c1b0985b86a177",
                "srcKUID": "je4acb4201274a92bebc604f30a7947a",
                "wType": "FlexContainer"
            }
        },
        "flxUser": {
            "__events__": {},
            "__info__": {
                "kuid": "jec30da8abf44e61b7ba85ba7fcceec4",
                "srcKUID": "g4f3d73c7f364988900a280daf5753d8",
                "wType": "FlexContainer"
            }
        },
        "flxUserActions": {
            "__events__": {},
            "__info__": {
                "kuid": "j4d0599591c141ff9e63bb75c5654e1d",
                "srcKUID": "c82435ddffbe4a299e1b432baa97fe80",
                "wType": "FlexContainer"
            }
        },
        "flxUserActionsWrapper": {
            "__events__": {},
            "__info__": {
                "kuid": "c3ac9f94bdcc49258cf49cde6b5918f2",
                "srcKUID": "bfea9c9b15964d019ae9a28ded0b7d9d",
                "wType": "FlexContainer"
            }
        },
        "flxVerticalSeperator3": {
            "__events__": {},
            "__info__": {
                "kuid": "g7cfb555ce7f4ca99c0560ba6b5420c8",
                "srcKUID": "e3cc9979f7a04363b4152d09c867783a",
                "wType": "FlexContainer"
            }
        },
        "flxWarning": {
            "__events__": {},
            "__info__": {
                "kuid": "b90d290133ce4c39b8b5723025c67dce",
                "srcKUID": "c7ae9fe97da545ebad3bd6254cb34391",
                "wType": "FlexContainer"
            }
        },
        "flxWireMoney": {
            "__events__": {},
            "__info__": {
                "kuid": "f1555b8c935f452388afee66f9313a85",
                "srcKUID": "a7e3790fa138476e9b408a269f31269d",
                "wType": "FlexContainer"
            }
        },
        "flxverseperator2": {
            "__events__": {},
            "__info__": {
                "kuid": "d55063457c4d4be48a5d72778d143302",
                "srcKUID": "b5adbb16a78e40f4aa5b53cf5caa919d",
                "wType": "FlexContainer"
            }
        },
        "imgClose": {
            "__events__": {},
            "__info__": {
                "kuid": "f651b42003aa4635b67be9927c654845",
                "srcKUID": "f0059293a90844408fdc2a3c558f25b9",
                "wType": "Image"
            }
        },
        "imgCollapseMenuItem": {
            "__events__": {},
            "__info__": {
                "kuid": "d824b3b5741b4c4caea13291dec2f68b",
                "srcKUID": "ba746db189ad42989176b888b25ae78b",
                "wType": "Image"
            }
        },
        "imgKony": {
            "__events__": {},
            "__info__": {
                "kuid": "dcdbc3e4baf84b6da5445e9d42c05365",
                "srcKUID": "c55a5df1953849bc921a9a84a2cf5e70",
                "wType": "Image"
            }
        },
        "imgKonyHamburger": {
            "__events__": {},
            "__info__": {
                "kuid": "bc9c3e781ab14d2cabdc117f0ba2db59",
                "srcKUID": "b77eae507bff4b2d91fbf7670574d59e",
                "wType": "Image"
            }
        },
        "imgLblTransfers": {
            "__events__": {},
            "__info__": {
                "kuid": "d3dbf4562fa94787914ae1f60cab9410",
                "srcKUID": "ffe510df4f16410e92dc6721f851a592",
                "wType": "Label"
            }
        },
        "imgLogout": {
            "__events__": {},
            "__info__": {
                "kuid": "hf70b5fef0914de099996aab3e114a56",
                "srcKUID": "d67b5f46dcd44029b4cba5d652ef4e4a",
                "wType": "Image"
            }
        },
        "imgMenu": {
            "__events__": {},
            "__info__": {
                "kuid": "caf88a6342a942a1ae49f3a34ff5ee2d",
                "srcKUID": "fc4d7ba517c748f08b831479a140671f",
                "wType": "Image"
            }
        },
        "imgMessages": {
            "__events__": {},
            "__info__": {
                "kuid": "a7c424dc71f84c7383bb0232f7321199",
                "srcKUID": "f1f230dd87ef4b47b5974acaf9e328d5",
                "wType": "Label"
            }
        },
        "imgNotifications": {
            "__events__": {},
            "__info__": {
                "kuid": "d83c0f2f2c10485cb22bd87f7b0dfeba",
                "srcKUID": "a6e8c4a6887349caac366cd06a1a61c7",
                "wType": "Image"
            }
        },
        "imgToolTip": {
            "__events__": {},
            "__info__": {
                "kuid": "b7d1a250e6234bbe858a4b7066f309eb",
                "srcKUID": "j6d5d0d57c4d4c51bb3c07fc94674e0b",
                "wType": "Image"
            }
        },
        "imgUser": {
            "__events__": {},
            "__info__": {
                "kuid": "daee55dc24f64781a35da68f4cfaadac",
                "srcKUID": "c653f12789ff45178bc1061b44158c51",
                "wType": "Image"
            }
        },
        "imgWarning": {
            "__events__": {},
            "__info__": {
                "kuid": "b9cfe1a2f80d43828ad66de8b34d4765",
                "srcKUID": "a008b61365884da1aeefa554430f6343",
                "wType": "Image"
            }
        },
        "lblAccounts": {
            "__events__": {},
            "__info__": {
                "kuid": "fc4c40975edb44a8a56fae7d7bd1e31b",
                "srcKUID": "a44ff4b384ce41fbbd285f88cde71bc7",
                "wType": "Label"
            }
        },
        "lblFeedback": {
            "__events__": {},
            "__info__": {
                "kuid": "idf0759a12364f4e994f9e8f7c65db3c",
                "srcKUID": "f221b6bbddac4ec097577e0e2abbf72a",
                "wType": "Label"
            }
        },
        "lblHeaderMobile": {
            "__events__": {},
            "__info__": {
                "kuid": "e0fe61e3d6c2429daf846e06523694fe",
                "srcKUID": "fc0477569a7346b79ef7b5d61246a700",
                "wType": "Label"
            },
            "responsiveData": {
                "b3": {
                    "text": "Bill Pay"
                }
            },
            "text": ""
        },
        "lblHelp": {
            "__events__": {},
            "__info__": {
                "kuid": "e220265986c6474696181968cac8a844",
                "srcKUID": "fbd3358a503c410282a41bea6a18f47d",
                "wType": "Label"
            }
        },
        "lblLogout": {
            "__events__": {},
            "__info__": {
                "kuid": "d96b724d4d9a4b8ba83426ab55d3c8a5",
                "srcKUID": "e2654abf270340819750f9f33e4dbfc3",
                "wType": "Label"
            }
        },
        "lblLogoutIcon": {
            "__events__": {},
            "__info__": {
                "kuid": "da57d2707ce64b2baae928ae4ace424f",
                "srcKUID": "f7201d67d487488f8b79f6de86dac851",
                "wType": "Label"
            }
        },
        "lblMenuItemIcon": {
            "__events__": {},
            "__info__": {
                "kuid": "h3547fac02aa45feb20308b14c391d00",
                "srcKUID": "b0f1d3eb6b5c4edfb845c0cadd9a65b2",
                "wType": "Label"
            }
        },
        "lblMenuItemTitle": {
            "__events__": {},
            "__info__": {
                "kuid": "b2ab0dd1974840ed91037aa7095461d8",
                "srcKUID": "h5445b09c22d41dba82780d50a162e5d",
                "wType": "Label"
            }
        },
        "lblMyAccounts": {
            "__events__": {},
            "__info__": {
                "kuid": "a34448b3a587488d91751d271b0d9e05",
                "srcKUID": "a7ae02bf520e467bad62d17620dbcd9c",
                "wType": "Label"
            }
        },
        "lblMyBills": {
            "__events__": {},
            "__info__": {
                "kuid": "g26f11b1d80d441ca7b359f71f3dc13b",
                "srcKUID": "f07f6e1e108847c893514c948793123d",
                "wType": "Label"
            }
        },
        "lblName": {
            "__events__": {},
            "__info__": {
                "kuid": "fd76630c830a448da722ac1038062148",
                "srcKUID": "df2a7db2a13842f8b69f45d798f91ca4",
                "wType": "Label"
            }
        },
        "lblNewMessages": {
            "__events__": {},
            "__info__": {
                "kuid": "ida84fd36c7442b6ae059a5faa3ea189",
                "srcKUID": "b0381d20648a4eed9bbc9d20d2705f0f",
                "wType": "Label"
            }
        },
        "lblNewNotifications": {
            "__events__": {},
            "__info__": {
                "kuid": "af6e79fb3c234ca882af03ab256b6975",
                "srcKUID": "e390473ef6224482b645ddbbabb4246e",
                "wType": "Label"
            }
        },
        "lblPayMultipleBeneficiaries": {
            "__events__": {},
            "__info__": {
                "kuid": "c915d174b23543c7b5345fc7a2c0e26d",
                "srcKUID": "ib0cb6bd824744998bee9f5e6612b486",
                "wType": "Label"
            }
        },
        "lblTransferAndPay": {
            "__events__": {},
            "__info__": {
                "kuid": "d5ef468d79fa44489aa17f3afdae2ccf",
                "srcKUID": "b16c43dc82314d26bd801952202150c1",
                "wType": "Label"
            }
        },
        "lblUserEmail": {
            "__events__": {},
            "__info__": {
                "kuid": "e72d2ed687dd4604b53a66954556f198",
                "srcKUID": "j0626d5e09c04c8e82eefdb4d6a5a20b",
                "wType": "RichText"
            }
        },
        "rtxWarning": {
            "__events__": {},
            "__info__": {
                "kuid": "e6df8d401bb14b88a6c2292b9a9cdef4",
                "srcKUID": "bcfca1ce25a742b4a4fe3ffb534a8743",
                "wType": "RichText"
            }
        },
        "segUserActions": {
            "__events__": {},
            "__info__": {
                "kuid": "iae744ddd14b485abcd6578e198724cf",
                "srcKUID": "d628530db75f48cfaf1e94b7e138808a",
                "wType": "Segment"
            }
        }
    },
    "enablescrolling": true,
    "id": "customheadernew",
    "info": null,
    "isdatareferenced": false,
    "isvisible": true,
    "kuid": "id2db09e5b2b4ef0b6e678c9eedba6c0",
    "layouttype": 2,
    "masterType": 0,
    "name": "kony.ui.UserWidgetInstance",
    "parent": "flxHeader",
    "pf": "frmPaymentActivity",
    "snapgridsize": 10,
    "snaptogrid": true,
    "sourceUserWidget": "g57ea9eb26d54f30b5f191c7fbd35c51",
    "wType": "UserWidgetInstance",
    "zindex": 1000
}