{
    "DNDConfig": null,
    "_height_": {
        "type": "ref",
        "value": "preferred"
    },
    "_left_": {
        "type": "string",
        "value": "0%"
    },
    "_margin_": [
        0,
        0,
        0,
        0
    ],
    "_orientation_": 6,
    "_padding_": [
        0,
        0,
        0,
        0
    ],
    "_percent_": true,
    "_skin_": "s24c92fc23b14f5484b693ee9b8a9b35",
    "_top_": {
        "type": "string",
        "value": "0dp"
    },
    "_width_": {
        "type": "string",
        "value": "100%"
    },
    "allboxes": [],
    "autogrowmode": 1,
    "canUpdateUI": true,
    "centerx": {
        "type": "number",
        "value": ""
    },
    "children": [
        "flxActivityHeader",
        "flxSeparator",
        "flxDetails",
        "flxSeparatorDetails",
        "flxSort",
        "flxSeparatorSort",
        "flxSegment",
        "flxNoRecords"
    ],
    "clipbounds": false,
    "containerweight": 100,
    "enablescrolling": true,
    "id": "flxActivityMain",
    "info": null,
    "isvisible": true,
    "kuid": "g7ded44795b44331a08a50b50518713d",
    "layouttype": 4,
    "name": "kony.ui.FlexContainer",
    "parent": "flxLeft",
    "pf": "frmPaymentActivity",
    "responsiveData": {
        "b1": {
            "skin": "sdc143f0e5b64ae3a3f155f691c73fa7"
        },
        "b2": {
            "centerX": {
                "type": "string",
                "value": "50%"
            },
            "skin": "sdc143f0e5b64ae3a3f155f691c73fa7"
        },
        "b3": {
            "centerX": {
                "type": "string",
                "value": "50%"
            },
            "skin": "sdc143f0e5b64ae3a3f155f691c73fa7"
        },
        "b4": {
            "skin": "sdc143f0e5b64ae3a3f155f691c73fa7"
        }
    },
    "snapgridsize": 10,
    "snaptogrid": true,
    "wType": "FlexContainer",
    "widgetalignment": 1,
    "zindex": 1
}