{
    "@class": "com.kony.gen.viz.model.component.KVizLabel",
    "DNDConfig": null,
    "_height_": {
        "type": "ref",
        "value": "preferred"
    },
    "_left_": {
        "type": "string",
        "value": "0dp"
    },
    "_margin_": [
        1,
        1,
        1,
        1
    ],
    "_padding_": [
        0,
        0,
        0,
        0
    ],
    "_skin_": "s14b5921a566439e9ae8c94da666e722",
    "_text_": "Paid Date",
    "_width_": {
        "type": "ref",
        "value": "preferred"
    },
    "_wrapping_": 2,
    "accessibilityconfig": {
        "a11yLabel": "Paid Date"
    },
    "android": {
        "textStyle": {
            "letterSpacing": 0,
            "strikeThrough": false
        }
    },
    "canUpdateUI": true,
    "centery": {
        "type": "string",
        "value": "50%"
    },
    "containerweight": 100,
    "contentalignment": 4,
    "id": "lblDate",
    "info": null,
    "ipad": {
        "psp": {
            "wrapping": 2
        }
    },
    "iphone": {
        "psp": {
            "wrapping": 2
        }
    },
    "isvisible": true,
    "kuid": "ibaf260fbb1b462cbefa0a61b8d8dfd7",
    "name": "kony.ui.Label",
    "parent": "flxDate",
    "pf": "frmPaymentActivity",
    "responsiveData": {
        "b1": {
            "skin": "s575c3b3144e40cf911f587474d3ad72"
        },
        "b2": {
            "skin": "s575c3b3144e40cf911f587474d3ad72"
        },
        "b4": {
            "skin": "s575c3b3144e40cf911f587474d3ad72"
        }
    },
    "tooltip": "",
    "wType": "Label",
    "zindex": 1
}