{
    "@class": "com.kony.gen.viz.model.component.KVizLabel",
    "DNDConfig": null,
    "_height_": {
        "type": "ref",
        "value": "preferred"
    },
    "_left_": {
        "type": "string",
        "value": "0"
    },
    "_margin_": [
        1,
        1,
        1,
        1
    ],
    "_padding_": [
        0,
        0,
        0,
        0
    ],
    "_skin_": "s0026354d2504769abe144f678e6cc95",
    "_text_": "L",
    "_top_": {
        "type": "string",
        "value": "0"
    },
    "_width_": {
        "type": "ref",
        "value": "preferred"
    },
    "_wrapping_": 2,
    "android": {
        "textStyle": {
            "letterSpacing": 0,
            "strikeThrough": false
        }
    },
    "canUpdateUI": true,
    "centerx": {
        "type": "string",
        "value": "50%"
    },
    "centery": {
        "type": "string",
        "value": "50%"
    },
    "containerweight": 100,
    "contentalignment": 4,
    "id": "lblFromUser",
    "info": null,
    "ipad": {
        "psp": {
            "wrapping": 2
        }
    },
    "iphone": {
        "psp": {
            "wrapping": 2
        }
    },
    "iscustomlayout": false,
    "isvisible": true,
    "kuid": "ee129d9c38094011adb866d75be46775",
    "name": "kony.ui.Label",
    "parent": "flxFromUser",
    "pf": "frmPaymentActivity",
    "responsiveData": {
        "b1": {
            "centerX": {
                "type": "string",
                "value": "50%"
            },
            "height": {
                "type": "string",
                "value": "100%"
            },
            "isVisible": true,
            "left": {
                "type": "number",
                "value": "0"
            },
            "skin": "s099ef7f06a448f4829720e965b61e70",
            "text": "g",
            "top": {
                "type": "number",
                "value": "0"
            },
            "width": {
                "type": "string",
                "value": "100%"
            }
        },
        "b2": {
            "height": {
                "type": "string",
                "value": "100%"
            },
            "left": {
                "type": "number",
                "value": "0"
            },
            "skin": "s099ef7f06a448f4829720e965b61e70",
            "text": "g",
            "width": {
                "type": "string",
                "value": "100%"
            }
        },
        "b3": {
            "height": {
                "type": "string",
                "value": "100%"
            },
            "left": {
                "type": "number",
                "value": "0"
            },
            "skin": "s099ef7f06a448f4829720e965b61e70",
            "text": "g",
            "width": {
                "type": "string",
                "value": "100%"
            }
        },
        "b4": {
            "height": {
                "type": "string",
                "value": "100%"
            },
            "left": {
                "type": "number",
                "value": "0"
            },
            "skin": "s099ef7f06a448f4829720e965b61e70",
            "text": "g",
            "width": {
                "type": "string",
                "value": "100%"
            }
        }
    },
    "retaincontentalignment": false,
    "retainflexpositionproperties": false,
    "tooltip": "",
    "wType": "Label"
}