{
    "@class": "com.kony.gen.viz.model.component.KVizUserWidget",
    "DNDConfig": null,
    "__parentReadjusting__": false,
    "_children_": [],
    "_height_": {
        "type": "ref",
        "value": "preferred"
    },
    "_left_": {
        "type": "string",
        "value": "1.10%"
    },
    "_margin_": [
        0,
        0,
        0,
        0
    ],
    "_orientation_": 1,
    "_padding_": [
        0,
        0,
        0,
        0
    ],
    "_percent_": true,
    "_skin_": "s24c92fc23b14f5484b693ee9b8a9b35",
    "_top_": {
        "type": "string",
        "value": "0dp"
    },
    "_width_": {
        "type": "string",
        "value": "28.68%"
    },
    "android": {},
    "androidwearos": {},
    "areflexpropsreferenced": false,
    "autogrowmode": 1,
    "canUpdateUI": true,
    "clipbounds": true,
    "containerweight": 0,
    "dataDiffs": {
        "btnAction1": {
            "__events__": {},
            "__info__": {
                "kuid": "gba374412cbe426c97a3e105e372d9df",
                "srcKUID": "f8e6d1f8b09d49a1a6b1edb8e091a32c",
                "wType": "Button"
            },
            "i18n_text": "i18n.kony.BulkPayments.uploadFilesAndMakePayment",
            "left": {},
            "responsiveData": {
                "b2": {
                    "left": {
                        "type": "string",
                        "value": "30dp"
                    },
                    "right": {
                        "type": "string",
                        "value": ""
                    }
                }
            },
            "right": {},
            "text": " "
        },
        "btnAction2": {
            "__events__": {},
            "__info__": {
                "kuid": "f92facec33d94b7d8f1ed063dab3c0ca",
                "srcKUID": "b88aa1a0c2a949478f4c87cb6d9e9b51",
                "wType": "Button"
            },
            "i18n_text": "i18n.kony.BulkPayments.DownloadCSVTemplate",
            "responsiveData": {},
            "text": ""
        },
        "btnAction3": {
            "__events__": {},
            "__info__": {
                "kuid": "b7dd96bb6841461d8a199038ac70a053",
                "srcKUID": "c932ddf30c264dbba8dd7c9dbd669ee5",
                "wType": "Button"
            },
            "responsiveData": {},
            "text": " "
        },
        "dbRightContainerNew": {
            "__events__": {},
            "__info__": {
                "isRoot": true,
                "kuid": "abab104e69ce4f4999d5d4ab096ee906",
                "srcKUID": "jdba55d4bf8f4f2891f690f16348aed9",
                "wType": "FlexContainer"
            },
            "responsiveData": {
                "b3": {
                    "isVisible": false,
                    "width": {
                        "type": "string",
                        "value": "0%"
                    }
                },
                "b4": {
                    "isVisible": false,
                    "width": {
                        "type": "string",
                        "value": "0%"
                    }
                }
            },
            "top": {
                "Default": {
                    "type": "string",
                    "value": "0dp"
                }
            },
            "width": {
                "Default": {
                    "type": "string",
                    "value": "28.68%"
                }
            }
        },
        "flxACtionSeperator2": {
            "__events__": {},
            "__info__": {
                "kuid": "f56870edd8f443a9847f0d345af38751",
                "srcKUID": "e189d4c981a844888bd8eb875bd04bbf",
                "wType": "FlexContainer"
            }
        },
        "flxAction2": {
            "__events__": {},
            "__info__": {
                "kuid": "ea284820789f43ef94a400f4c526227e",
                "srcKUID": "j32443ed79ae4faf9a5d4fa653691161",
                "wType": "FlexContainer"
            }
        },
        "flxAction3": {
            "__events__": {},
            "__info__": {
                "kuid": "ee54df82e9ef41cc92b7fcb382203e06",
                "srcKUID": "ad1a0f941a894dafb702551e12b494e2",
                "wType": "FlexContainer"
            }
        },
        "flxActionHeaderSeperator": {
            "__events__": {},
            "__info__": {
                "kuid": "d0ad0d72d73f4e959f2e9b26103e4bdc",
                "srcKUID": "g39234c80d1d45028e89d3d5e6ed1663",
                "wType": "FlexContainer"
            }
        },
        "flxActionSeperator": {
            "__events__": {},
            "__info__": {
                "kuid": "ed7fd360de1847a685c01ec9e0ed4182",
                "srcKUID": "f4e45159a1a4401cbf7d54b1084d8106",
                "wType": "FlexContainer"
            }
        },
        "flxActions": {
            "__events__": {},
            "__info__": {
                "kuid": "d45d7ffda5a54514817701c2556e974b",
                "srcKUID": "f50aaba7bfce43a58436f67bbd5a6e15",
                "wType": "FlexContainer"
            }
        },
        "flxBannerWrapper": {
            "__events__": {},
            "__info__": {
                "kuid": "fde364fca320466eb5d15e9d2aa2ee82",
                "srcKUID": "b45afe35609247f08f1b8027ca6747c1",
                "wType": "FlexContainer"
            }
        },
        "flxImgBanner": {
            "__events__": {},
            "__info__": {
                "kuid": "h1fd4e74044c4f4e890f65d10c207a06",
                "srcKUID": "h48df03bb80746b0a36c52c5db8a7465",
                "wType": "FlexContainer"
            }
        },
        "imgBanner": {
            "__events__": {},
            "__info__": {
                "kuid": "j22f873dcf664e2fbd1847e76135b38b",
                "srcKUID": "c484beaeb8644ab99e3e821a46a9c517",
                "wType": "Image"
            },
            "src": "nuo_banner_1.png"
        },
        "lblActionHeader": {
            "__events__": {},
            "__info__": {
                "kuid": "gddf258231434ec78018891a525297e9",
                "srcKUID": "ba33bd21ac5a4ca4a4ad4405630b52e9",
                "wType": "Label"
            },
            "responsiveData": {},
            "text": " "
        }
    },
    "desktopweb": {},
    "enablescrolling": true,
    "id": "dbRightContainerNew",
    "info": null,
    "ipad": {},
    "iphone": {},
    "iscustomlayout": false,
    "isdatareferenced": false,
    "isvisible": true,
    "kiosk": {},
    "kuid": "abab104e69ce4f4999d5d4ab096ee906",
    "layouttype": 4,
    "masterType": 0,
    "name": "kony.ui.UserWidgetInstance",
    "parent": "flxContentDashBoard",
    "pf": "frmBulkPaymentsDashboard",
    "responsiveData": {
        "b3": {
            "isVisible": false,
            "width": {
                "type": "string",
                "value": "0%"
            }
        },
        "b4": {
            "isVisible": false,
            "width": {
                "type": "string",
                "value": "0%"
            }
        }
    },
    "retaincontentalignment": false,
    "retainflexpositionproperties": false,
    "snapgridsize": 10,
    "snaptogrid": true,
    "sourceUserWidget": "jdba55d4bf8f4f2891f690f16348aed9",
    "spa": {},
    "spaan": {},
    "spaandroidtablet": {},
    "spabb": {},
    "spaip": {},
    "spaipad": {},
    "spamobile": {},
    "spatablet": {},
    "spawindowstablet": {},
    "spawinphone8": {},
    "tabrcandroid": {},
    "vizProps": {
        "hidewidgethierarchy": false
    },
    "wType": "UserWidgetInstance",
    "windows10": {},
    "windows8": {},
    "winphone10": {},
    "winphone8": {},
    "zindex": 1
}