{
    "@class": "com.kony.gen.viz.model.component.KVizButton",
    "DNDConfig": null,
    "__parentReadjusting__": false,
    "_height_": {
        "type": "ref",
        "value": "preferred"
    },
    "_left_": {
        "type": "string",
        "value": "0dp"
    },
    "_margin_": [
        6,
        6,
        6,
        6
    ],
    "_padding_": [
        0,
        0,
        0,
        0
    ],
    "_skin_": "s611bd2c5d324490aa9f7ed9d412984f",
    "_text_": "Make Transfer",
    "_width_": {
        "type": "string",
        "value": "33.33%"
    },
    "accessibilityconfig": {
        "a11yLabel": "Make Transfer"
    },
    "canUpdateUI": true,
    "centery": {
        "type": "string",
        "value": "50%"
    },
    "containerId": true,
    "containerweight": 100,
    "contentalignment": 5,
    "desktopweb": {
        "psp": {
            "hoverSkin": "s611bd2c5d324490aa9f7ed9d412984f"
        }
    },
    "disabledSkins": {
        "focusSkin": "sf44d06ca8224832827ea7fdff757013"
    },
    "displaytext": true,
    "id": "btnAction",
    "ide_onClick": "AS_Button_ga3cd3d7832d4cc6833dcd1b0c695613",
    "info": null,
    "isvisible": true,
    "kuid": "ff9010c6a05547b6a47d8f3a07aa4b02",
    "name": "kony.ui.Button",
    "parent": "flxActions",
    "pf": "segExternalAccountsEdit",
    "tooltip": "MAKE TRANSFER",
    "wType": "Button",
    "zindex": 1
}