{
    "DNDConfig": null,
    "_height_": {
        "type": "string",
        "value": "20dp"
    },
    "_left_": {
        "type": "string",
        "value": "23%"
    },
    "_margin_": [
        0,
        0,
        0,
        0
    ],
    "_orientation_": 6,
    "_padding_": [
        0,
        0,
        0,
        0
    ],
    "_percent_": true,
    "_skin_": "s24c92fc23b14f5484b693ee9b8a9b35",
    "_top_": {
        "type": "string",
        "value": "0dp"
    },
    "_width_": {
        "type": "string",
        "value": "20dp"
    },
    "allboxes": [],
    "autogrowmode": 0,
    "canUpdateUI": true,
    "children": [
        "imgIAgree"
    ],
    "clipbounds": true,
    "containerweight": 100,
    "enablescrolling": true,
    "id": "flxIAgree",
    "info": null,
    "iscustomlayout": false,
    "isvisible": true,
    "kuid": "hedbe1295fb84957a3c7591c595ffbce",
    "layouttype": 2,
    "name": "kony.ui.FlexContainer",
    "parent": "flxTnCAgree",
    "pf": "frmP2PSettingsEdit",
    "responsiveData": {
        "b2": {
            "left": {
                "type": "string",
                "value": "40%"
            }
        },
        "b3": {
            "left": {
                "type": "string",
                "value": "0%"
            }
        }
    },
    "retaincontentalignment": false,
    "retainflexpositionproperties": false,
    "retainflowhorizontalalignment": false,
    "snapgridsize": 10,
    "snaptogrid": true,
    "wType": "FlexContainer",
    "widgetalignment": 1,
    "zindex": 1
}