{
    "classname": "dateRangeCalendar",
    "definitions": {
        "apis": {
            "custom": [
                {
                    "group": "General",
                    "kuid": "g11153d192634e01b8a64f9c9ad76067",
                    "paramList": [],
                    "propertyKey": "preShow",
                    "pw": {
                        "displayName": "preShow",
                        "uiRepresentation": "Label-Label-Button-Button"
                    },
                    "srcWgtKUID": "h652ac750c4d413796f5850c4de18bda",
                    "type": "event"
                },
                {
                    "group": "General",
                    "kuid": "c936e259546c4c2b8f0d2234b7afa505",
                    "paramList": [],
                    "propertyKey": "updateDateBullets",
                    "pw": {
                        "displayName": "updateDateBullets",
                        "uiRepresentation": "Label-Label-Button-Button"
                    },
                    "srcWgtKUID": "h652ac750c4d413796f5850c4de18bda",
                    "type": "event"
                },
                {
                    "group": "General",
                    "kuid": "e2c012dce3574e5e8426aebac2dba433",
                    "paramList": [],
                    "propertyKey": "setFirstEnabledDate",
                    "pw": {
                        "displayName": "setFirstEnabledDate",
                        "uiRepresentation": "Label-Label-Button-Button"
                    },
                    "srcWgtKUID": "h652ac750c4d413796f5850c4de18bda",
                    "type": "event"
                },
                {
                    "group": "General",
                    "kuid": "gbddb8a38dff4930bbb1453c9491fb98",
                    "paramList": [],
                    "propertyKey": "setLastEnabledDate",
                    "pw": {
                        "displayName": "setLastEnabledDate",
                        "uiRepresentation": "Label-Label-Button-Button"
                    },
                    "srcWgtKUID": "h652ac750c4d413796f5850c4de18bda",
                    "type": "event"
                },
                {
                    "group": "General",
                    "kuid": "ie39bf2247ce4eaaa47adf7a430dd868",
                    "paramList": [],
                    "propertyKey": "setSelectedDate",
                    "pw": {
                        "displayName": "setSelectedDate",
                        "uiRepresentation": "Label-Label-Button-Button"
                    },
                    "srcWgtKUID": "h652ac750c4d413796f5850c4de18bda",
                    "type": "event"
                },
                {
                    "group": "General",
                    "kuid": "c91b07dd8d8e4569951836d21c3cf1b4",
                    "paramList": [],
                    "propertyKey": "resetCal",
                    "pw": {
                        "displayName": "resetCal",
                        "uiRepresentation": "Label-Label-Button-Button"
                    },
                    "srcWgtKUID": "h652ac750c4d413796f5850c4de18bda",
                    "type": "event"
                },
                {
                    "group": "General",
                    "kuid": "e2f740bca28640ed8c18d8c40bf7c6bd",
                    "paramList": [],
                    "propertyKey": "setMonthLabelText",
                    "pw": {
                        "displayName": "setMonthLabelText",
                        "uiRepresentation": "Label-Label-Button-Button"
                    },
                    "srcWgtKUID": "h652ac750c4d413796f5850c4de18bda",
                    "type": "event"
                },
                {
                    "group": "General",
                    "kuid": "i71e35da7a044eb4be0cb7bb1293ca9a",
                    "paramList": [],
                    "propertyKey": "preShowTo",
                    "pw": {
                        "displayName": "preShowTo",
                        "uiRepresentation": "Label-Label-Button-Button"
                    },
                    "srcWgtKUID": "h652ac750c4d413796f5850c4de18bda",
                    "type": "event"
                },
                {
                    "group": "General",
                    "kuid": "i43bfccdb9694bc19bd0bf74c0034515",
                    "paramList": [],
                    "propertyKey": "updateDateBulletsTo",
                    "pw": {
                        "displayName": "updateDateBulletsTo",
                        "uiRepresentation": "Label-Label-Button-Button"
                    },
                    "srcWgtKUID": "h652ac750c4d413796f5850c4de18bda",
                    "type": "event"
                },
                {
                    "group": "General",
                    "kuid": "abb95c25b7d94e67ba98fed8a6113ed1",
                    "paramList": [],
                    "propertyKey": "setFirstEnabledDateTo",
                    "pw": {
                        "displayName": "setFirstEnabledDateTo",
                        "uiRepresentation": "Label-Label-Button-Button"
                    },
                    "srcWgtKUID": "h652ac750c4d413796f5850c4de18bda",
                    "type": "event"
                },
                {
                    "group": "General",
                    "kuid": "hbb11e74f5cd43318c6fee86d85f03f4",
                    "paramList": [],
                    "propertyKey": "setLastEnabledDateTo",
                    "pw": {
                        "displayName": "setLastEnabledDateTo",
                        "uiRepresentation": "Label-Label-Button-Button"
                    },
                    "srcWgtKUID": "h652ac750c4d413796f5850c4de18bda",
                    "type": "event"
                },
                {
                    "group": "General",
                    "kuid": "e88a8863f3ed49ad94f5b1883366e5a4",
                    "paramList": [],
                    "propertyKey": "setSelectedDateTo",
                    "pw": {
                        "displayName": "setSelectedDateTo",
                        "uiRepresentation": "Label-Label-Button-Button"
                    },
                    "srcWgtKUID": "h652ac750c4d413796f5850c4de18bda",
                    "type": "event"
                },
                {
                    "group": "General",
                    "kuid": "g7a9ee34b2af4d988b05703a730a5af4",
                    "paramList": [],
                    "propertyKey": "resetCalTo",
                    "pw": {
                        "displayName": "resetCalTo",
                        "uiRepresentation": "Label-Label-Button-Button"
                    },
                    "srcWgtKUID": "h652ac750c4d413796f5850c4de18bda",
                    "type": "event"
                },
                {
                    "group": "General",
                    "kuid": "ff3b5ed3188f45a88f7128f8fd18d2b0",
                    "paramList": [],
                    "propertyKey": "setMonthLabelTextTo",
                    "pw": {
                        "displayName": "setMonthLabelTextTo",
                        "uiRepresentation": "Label-Label-Button-Button"
                    },
                    "srcWgtKUID": "h652ac750c4d413796f5850c4de18bda",
                    "type": "event"
                },
                {
                    "group": "General",
                    "kuid": "f844c3c62c814f2194976630fba74890",
                    "paramList": [],
                    "propertyKey": "setMonthData",
                    "pw": {
                        "displayName": "setMonthData",
                        "uiRepresentation": "Label-Label-Button-Button"
                    },
                    "srcWgtKUID": "h652ac750c4d413796f5850c4de18bda",
                    "type": "event"
                },
                {
                    "group": "General",
                    "kuid": "gf6ca8881be44df1a8455acc80426a4f",
                    "paramList": [],
                    "propertyKey": "setMonthDataTo",
                    "pw": {
                        "displayName": "setMonthDataTo",
                        "uiRepresentation": "Label-Label-Button-Button"
                    },
                    "srcWgtKUID": "h652ac750c4d413796f5850c4de18bda",
                    "type": "event"
                },
                {
                    "group": "General",
                    "kuid": "fec61de38231468f896e4f90f793b7ad",
                    "paramList": [],
                    "propertyKey": "reRenderCurrentMonthSkins",
                    "pw": {
                        "displayName": "reRenderCurrentMonthSkins",
                        "uiRepresentation": "Label-Label-Button-Button"
                    },
                    "srcWgtKUID": "h652ac750c4d413796f5850c4de18bda",
                    "type": "event"
                },
                {
                    "group": "General",
                    "kuid": "g2f9a4a595684c1c867a44bb2ce97b4f",
                    "paramList": [],
                    "propertyKey": "reRenderCurrentMonthSkinsTo",
                    "pw": {
                        "displayName": "reRenderCurrentMonthSkinsTo",
                        "uiRepresentation": "Label-Label-Button-Button"
                    },
                    "srcWgtKUID": "h652ac750c4d413796f5850c4de18bda",
                    "type": "event"
                }
            ],
            "passthrough": []
        },
        "events": {
            "custom": [],
            "passthrough": []
        },
        "groups": {
            "apis": [
                "General"
            ],
            "events": [],
            "properties": [],
            "widgets": []
        },
        "properties": {
            "custom": [],
            "passthrough": []
        },
        "widgets": {
            "expose": [],
            "passthrough": []
        }
    },
    "namespace": "com.temenos.infinityComponent",
    "version": "1.0.0"
}