{
    "@class": "com.kony.gen.viz.model.component.KVizUserWidget",
    "DNDConfig": null,
    "__parentReadjusting__": false,
    "_android_": {},
    "_androidwearos_": {},
    "_children_": [],
    "_desktopweb_": {},
    "_height_": {
        "type": "ref",
        "value": "preferred"
    },
    "_ipad_": {},
    "_iphone_": {},
    "_kiosk_": {},
    "_left_": {
        "type": "string",
        "value": "0dp"
    },
    "_margin_": [
        0,
        0,
        0,
        0
    ],
    "_orientation_": 1,
    "_padding_": [
        0,
        0,
        0,
        0
    ],
    "_percent_": true,
    "_render_": true,
    "_responsiveData_": {
        "b1": {
            "top": {
                "type": "string",
                "value": "0dp"
            }
        },
        "b2": {
            "top": {
                "type": "string",
                "value": "0dp"
            }
        },
        "b3": {
            "top": {
                "type": "string",
                "value": "0dp"
            }
        },
        "b4": {
            "isVisible": true,
            "top": {
                "type": "string",
                "value": "0dp"
            }
        }
    },
    "_skin_": "sdc143f0e5b64ae3a3f155f691c73fa7",
    "_spa_": {},
    "_spaan_": {},
    "_spaandroidtablet_": {},
    "_spabb_": {},
    "_spaip_": {},
    "_spaipad_": {},
    "_spamobile_": {},
    "_spatablet_": {},
    "_spawindowstablet_": {},
    "_spawinphone8_": {},
    "_tabrcandroid_": {},
    "_top_": {
        "type": "string",
        "value": "24dp"
    },
    "_vizProps_": {
        "hidewidgethierarchy": false
    },
    "_width_": {
        "type": "string",
        "value": "100%"
    },
    "_windows10_": {},
    "_windows8_": {},
    "_winphone10_": {},
    "_winphone8_": {},
    "areflexpropsreferenced": false,
    "autogrowmode": 1,
    "canUpdateUI": true,
    "clipbounds": false,
    "containerweight": 0,
    "dataDiffs": {
        "Image0hc68dc38bab04d": {
            "__events__": {},
            "__info__": {
                "kuid": "be11c085237b44afb7dabd3bee3668ac",
                "srcKUID": "ede8d3970f8e4a958c24fc45b3cbdf0b",
                "wType": "Image"
            },
            "src": "info_grey.png"
        },
        "btnCancel": {
            "__events__": {},
            "__info__": {
                "kuid": "i6d5577fc70b49fdb2f4a34f9f64ff17",
                "srcKUID": "c5dd0d2dda29498aa5858a8373341516",
                "wType": "Button"
            },
            "bottom": {},
            "centerY": {},
            "height": {},
            "left": {},
            "responsiveData": {
                "b1": {
                    "height": {
                        "type": "string",
                        "value": "40dp"
                    }
                },
                "b2": {
                    "height": {
                        "type": "string",
                        "value": "40dp"
                    }
                },
                "b3": {
                    "bottom": {
                        "type": "string",
                        "value": ""
                    },
                    "centerY": {
                        "type": "string",
                        "value": ""
                    },
                    "height": {
                        "type": "string",
                        "value": "40dp"
                    },
                    "left": {
                        "type": "string",
                        "value": "15dp"
                    },
                    "right": {
                        "type": "string",
                        "value": "15dp"
                    },
                    "top": {
                        "type": "string",
                        "value": "140dp"
                    },
                    "width": {
                        "type": "string",
                        "value": ""
                    }
                },
                "b4": {
                    "height": {
                        "type": "string",
                        "value": "40dp"
                    },
                    "right": {
                        "type": "string",
                        "value": "49%"
                    },
                    "width": {
                        "type": "string",
                        "value": "21%"
                    }
                }
            },
            "right": {},
            "top": {},
            "width": {}
        },
        "btnConfirm": {
            "__events__": {},
            "__info__": {
                "kuid": "b3663e79813343e889fcfe047e8e7304",
                "srcKUID": "f773d3fdeaf84b898a11edca5937b0ab",
                "wType": "Button"
            },
            "bottom": {},
            "centerY": {},
            "height": {},
            "left": {},
            "responsiveData": {
                "b1": {
                    "height": {
                        "type": "string",
                        "value": "40dp"
                    }
                },
                "b2": {
                    "height": {
                        "type": "string",
                        "value": "40dp"
                    }
                },
                "b3": {
                    "bottom": {
                        "type": "string",
                        "value": ""
                    },
                    "centerY": {
                        "type": "string",
                        "value": ""
                    },
                    "height": {
                        "type": "string",
                        "value": "40dp"
                    },
                    "left": {
                        "type": "string",
                        "value": "15dp"
                    },
                    "right": {
                        "type": "string",
                        "value": "15dp"
                    },
                    "top": {
                        "type": "string",
                        "value": "20dp"
                    },
                    "width": {
                        "type": "string",
                        "value": ""
                    }
                },
                "b4": {
                    "height": {
                        "type": "string",
                        "value": "40dp"
                    },
                    "right": {
                        "type": "string",
                        "value": "3%"
                    },
                    "width": {
                        "type": "string",
                        "value": "21%"
                    }
                }
            },
            "right": {},
            "top": {},
            "width": {}
        },
        "btnModify": {
            "__events__": {},
            "__info__": {
                "kuid": "h3dee9343aef4e88a5ae444ff51aff94",
                "srcKUID": "he727f955b6e4fafaa5b5b9559fc7fa4",
                "wType": "Button"
            },
            "bottom": {},
            "centerY": {},
            "height": {},
            "left": {},
            "responsiveData": {
                "b1": {
                    "height": {
                        "type": "string",
                        "value": "40dp"
                    }
                },
                "b2": {
                    "height": {
                        "type": "string",
                        "value": "40dp"
                    }
                },
                "b3": {
                    "bottom": {
                        "type": "string",
                        "value": ""
                    },
                    "centerY": {
                        "type": "string",
                        "value": ""
                    },
                    "height": {
                        "type": "string",
                        "value": "40dp"
                    },
                    "left": {
                        "type": "string",
                        "value": "15dp"
                    },
                    "right": {
                        "type": "string",
                        "value": "15dp"
                    },
                    "top": {
                        "type": "string",
                        "value": "80dp"
                    },
                    "width": {
                        "type": "string",
                        "value": ""
                    }
                },
                "b4": {
                    "height": {
                        "type": "string",
                        "value": "40dp"
                    },
                    "right": {
                        "type": "string",
                        "value": "26%"
                    },
                    "width": {
                        "type": "string",
                        "value": "21%"
                    }
                }
            },
            "right": {},
            "top": {},
            "width": {}
        },
        "btnTandC": {
            "__events__": {},
            "__info__": {
                "kuid": "bfac77ddf36148dca62005232202130d",
                "srcKUID": "cb20829e7aa94fad845eebd26f2c1b11",
                "wType": "Button"
            }
        },
        "confirmDetails": {
            "__events__": {},
            "__info__": {
                "isRoot": true,
                "kuid": "b6fda6cda7dc443390bd62d506e3fee0",
                "srcKUID": "ab2e96f774d447a68adac2810f8eb3a9",
                "wType": "FlexContainer"
            },
            "isVisible": true,
            "responsiveData": {
                "b1": {
                    "top": {
                        "type": "string",
                        "value": "0dp"
                    }
                },
                "b2": {
                    "top": {
                        "type": "string",
                        "value": "0dp"
                    }
                },
                "b3": {
                    "top": {
                        "type": "string",
                        "value": "0dp"
                    }
                },
                "b4": {
                    "isVisible": true,
                    "top": {
                        "type": "string",
                        "value": "0dp"
                    }
                }
            },
            "top": {
                "Default": {
                    "type": "string",
                    "value": "24dp"
                }
            }
        },
        "flxAgree": {
            "__events__": {},
            "__info__": {
                "kuid": "d91ab3d529904dba87d891dad83fb2d5",
                "srcKUID": "j8479d16917a462aa525ef6b6d266659",
                "wType": "FlexContainer"
            },
            "isVisible": false,
            "responsiveData": {
                "b1": {},
                "b2": {
                    "isVisible": false
                },
                "b3": {},
                "b4": {}
            }
        },
        "flxBankDetails": {
            "__events__": {},
            "__info__": {
                "kuid": "e68810e60c92441ea05085f3decc207e",
                "srcKUID": "af7a2df1f1444d75904870ad36c04555",
                "wType": "FlexContainer"
            },
            "left": {},
            "responsiveData": {
                "b3": {
                    "isVisible": true,
                    "left": {
                        "type": "string",
                        "value": "15dp"
                    },
                    "right": {
                        "type": "string",
                        "value": "15dp"
                    },
                    "top": {
                        "type": "string",
                        "value": "340dp"
                    },
                    "width": {
                        "type": "string",
                        "value": ""
                    }
                },
                "b4": {
                    "isVisible": true,
                    "left": {
                        "type": "string",
                        "value": "30dp"
                    },
                    "right": {
                        "type": "string",
                        "value": "30dp"
                    },
                    "top": {
                        "type": "string",
                        "value": "305dp"
                    },
                    "width": {
                        "type": "string",
                        "value": ""
                    }
                }
            },
            "right": {},
            "top": {},
            "width": {}
        },
        "flxConfirmHeader": {
            "__events__": {},
            "__info__": {
                "kuid": "caa1affe6cb4440580ee5855d98f64fd",
                "srcKUID": "b7752ed478564c28b4a9033a65058a46",
                "wType": "FlexContainer"
            },
            "autogrowMode": {
                "Default": 0
            },
            "height": {},
            "responsiveData": {
                "b3": {
                    "height": {
                        "type": "string",
                        "value": "40dp"
                    }
                },
                "b4": {
                    "height": {
                        "type": "string",
                        "value": "50dp"
                    }
                }
            }
        },
        "flxDetails": {
            "__events__": {},
            "__info__": {
                "kuid": "h7c200d693264cb9a23f4168fb7ab63a",
                "srcKUID": "f56304cfa2724f29a1cf4a65bf3eea37",
                "wType": "FlexContainer"
            },
            "responsiveData": {
                "b3": {
                    "isVisible": true
                }
            }
        },
        "flxFromAccount": {
            "__events__": {},
            "__info__": {
                "kuid": "hc6e04d168604aafb365bc3500ebd0b8",
                "srcKUID": "b27f6477710744c38c43749fde122660",
                "wType": "FlexContainer"
            }
        },
        "flxHeaderSeperator": {
            "__events__": {},
            "__info__": {
                "kuid": "dd3c0d7785464b7c8ff29c1763fafe2b",
                "srcKUID": "f95087da2418401ea288443af728a1d3",
                "wType": "FlexContainer"
            },
            "left": {},
            "responsiveData": {
                "b3": {
                    "left": {
                        "type": "string",
                        "value": "15dp"
                    },
                    "right": {
                        "type": "string",
                        "value": "15dp"
                    }
                }
            },
            "right": {}
        },
        "flxRecipientDetails": {
            "__events__": {},
            "__info__": {
                "kuid": "b01b4397d41341cb9a4b37968e14e14d",
                "srcKUID": "ad9d96b7ec214cb6a9dcf3778697692d",
                "wType": "FlexContainer"
            },
            "autogrowMode": {
                "Default": 0
            },
            "bottom": {},
            "height": {},
            "left": {
                "Default": {
                    "type": "string",
                    "value": "30dp"
                }
            },
            "responsiveData": {
                "b3": {
                    "bottom": {
                        "type": "string",
                        "value": ""
                    },
                    "height": {
                        "type": "string",
                        "value": "240dp"
                    },
                    "left": {
                        "type": "string",
                        "value": "15dp"
                    },
                    "right": {
                        "type": "string",
                        "value": "15dp"
                    },
                    "top": {
                        "type": "string",
                        "value": "50dp"
                    },
                    "width": {
                        "type": "string",
                        "value": ""
                    }
                },
                "b4": {
                    "height": {
                        "type": "string",
                        "value": "200dp"
                    },
                    "left": {
                        "type": "string",
                        "value": "30dp"
                    },
                    "right": {
                        "type": "string",
                        "value": "30dp"
                    },
                    "width": {
                        "type": "string",
                        "value": ""
                    }
                }
            },
            "right": {},
            "top": {},
            "width": {}
        },
        "flxRow1": {
            "__events__": {},
            "__info__": {
                "kuid": "ea6cae835f9e49ee8d83605a93707d5b",
                "srcKUID": "i788964018984a47ab65691dbe482fac",
                "wType": "FlexContainer"
            }
        },
        "flxRow2": {
            "__events__": {},
            "__info__": {
                "kuid": "a5eee071d84e4e82aa201df03f0e6541",
                "srcKUID": "g602f18e08694e79a688629fb2f44f27",
                "wType": "FlexContainer"
            }
        },
        "flxRow3": {
            "__events__": {},
            "__info__": {
                "kuid": "b5e67d0a369d43838b3874ed3ddb0b84",
                "srcKUID": "ddd5ef044403401ca93b874089c632fb",
                "wType": "FlexContainer"
            }
        },
        "flxRow4": {
            "__events__": {},
            "__info__": {
                "kuid": "dd41b1401c0c4e1086a83d12f68e7325",
                "srcKUID": "db50225db0dc410b81b43d814dd1aebd",
                "wType": "FlexContainer"
            }
        },
        "flxRow5": {
            "__events__": {},
            "__info__": {
                "kuid": "he8188935e844128b8b2781937912255",
                "srcKUID": "de25dbe3145d4353ac0f4377b670949d",
                "wType": "FlexContainer"
            }
        },
        "flxRow6": {
            "__events__": {},
            "__info__": {
                "kuid": "dcb54b959aac4fcaa33e983664a66b60",
                "srcKUID": "a098cc7390e040889b18f1ca577fd943",
                "wType": "FlexContainer"
            }
        },
        "flxSeparator": {
            "__events__": {},
            "__info__": {
                "kuid": "j97cd8b0aec6469aa3326b8425e07790",
                "srcKUID": "f562989a9b0e4173abe3b18416d7eb76",
                "wType": "FlexContainer"
            }
        },
        "flxSeperator": {
            "__events__": {},
            "__info__": {
                "kuid": "ef663b08cdd84a238a6f83dfff426c8c",
                "srcKUID": "ef560289ea7946f3b2ec52ac25683617",
                "wType": "FlexContainer"
            }
        },
        "flxSeperatorWrapper": {
            "__events__": {},
            "__info__": {
                "kuid": "e09f1f57f5fa407a8f3960c512a609fd",
                "srcKUID": "ae06371f3b21414084160c0f8b0ab586",
                "wType": "FlexContainer"
            }
        },
        "flxStep2ButtonSeperator": {
            "__events__": {},
            "__info__": {
                "kuid": "h19aafb5de0845e085a28f731bcdbb13",
                "srcKUID": "aada7883a29145719720ca1accdb04d9",
                "wType": "FlexContainer"
            }
        },
        "flxStep2Buttons": {
            "__events__": {},
            "__info__": {
                "kuid": "d1ac1adddf014bfd824e9bd3385078e1",
                "srcKUID": "c1dad8dcc62942c0b04d12e13b9386f9",
                "wType": "FlexContainer"
            },
            "autogrowMode": {
                "Default": 0
            },
            "height": {},
            "responsiveData": {
                "b3": {
                    "height": {
                        "type": "string",
                        "value": "220dp"
                    }
                }
            }
        },
        "flxToAccount": {
            "__events__": {},
            "__info__": {
                "kuid": "f31b09a185294b9885474d5f0f4f8f8a",
                "srcKUID": "df4425052aa9418bb78b1fbc152eed3f",
                "wType": "FlexContainer"
            }
        },
        "flxTransactionDetails": {
            "__events__": {},
            "__info__": {
                "kuid": "f12244ec130844f3a206de0abd09871e",
                "srcKUID": "bdced4a6175a4809b62d77ea0a02da7a",
                "wType": "FlexContainer"
            },
            "autogrowMode": {
                "Default": 1
            },
            "height": {
                "Default": {
                    "type": "ref",
                    "value": "preferred"
                }
            },
            "responsiveData": {
                "b3": {},
                "b4": {}
            }
        },
        "flxTransactionDetailsRow1": {
            "__events__": {},
            "__info__": {
                "kuid": "c9f006ba8ad549f091bbca53a4e526d4",
                "srcKUID": "c0a9fc34a66141c7a49f05e80bc02b07",
                "wType": "FlexContainer"
            },
            "responsiveData": {
                "b3": {
                    "layoutType": 4
                },
                "b4": {
                    "isVisible": true
                }
            }
        },
        "flxTransactionDetailsRow2": {
            "__events__": {},
            "__info__": {
                "kuid": "fe6afaf8ec474174bb736e6d62d8e6f7",
                "srcKUID": "a35c2359abf34d01a148fff39ebeed79",
                "wType": "FlexContainer"
            }
        },
        "flxTransactionDetailsRow3": {
            "__events__": {},
            "__info__": {
                "kuid": "dbafeff9728048be92a2446b363f40c7",
                "srcKUID": "da32f40fb2724b30aa7b1e0b2979bf48",
                "wType": "FlexContainer"
            }
        },
        "flxTransactionFeeInfo": {
            "__events__": {},
            "__info__": {
                "kuid": "dec3587f1a654d6bbddb8b57409e50f5",
                "srcKUID": "f60e25249f894821a6ed3176282793da",
                "wType": "FlexContainer"
            }
        },
        "flxTransctionFee": {
            "__events__": {},
            "__info__": {
                "kuid": "cbc91e23e47b48c6835fc56f4798b3be",
                "srcKUID": "f1235f2c29794b588569161093ade8f8",
                "wType": "FlexContainer"
            },
            "bottom": {},
            "responsiveData": {
                "b3": {
                    "bottom": {
                        "type": "string",
                        "value": ""
                    },
                    "width": {
                        "type": "string",
                        "value": "40%"
                    }
                },
                "b4": {
                    "width": {
                        "type": "string",
                        "value": "25%"
                    }
                }
            },
            "width": {}
        },
        "lblAmountKey": {
            "__events__": {},
            "__info__": {
                "kuid": "a63a235ce4df4f1db4702b9685671313",
                "srcKUID": "g463e0b531b14c128c4156cd6e699e6a",
                "wType": "Label"
            },
            "i18n_text": "i18n.transfers.lblAmount",
            "left": {},
            "responsiveData": {
                "b3": {
                    "left": {
                        "type": "string",
                        "value": "15dp"
                    }
                }
            }
        },
        "lblBankDetails": {
            "__events__": {},
            "__info__": {
                "kuid": "a0c71000139b4ec9a1956c591c342971",
                "srcKUID": "ge3fb01d0d644e8ea32329f33fbcd3f3",
                "wType": "Label"
            },
            "i18n_text": "i18n.transfers.bankDetails",
            "left": {},
            "responsiveData": {
                "b3": {
                    "left": {
                        "type": "string",
                        "value": "15dp"
                    },
                    "top": {
                        "type": "string",
                        "value": "310dp"
                    }
                },
                "b4": {
                    "left": {
                        "type": "string",
                        "value": "30dp"
                    },
                    "top": {
                        "type": "string",
                        "value": "270dp"
                    }
                }
            },
            "top": {}
        },
        "lblBankDetailsKey1": {
            "__events__": {},
            "__info__": {
                "kuid": "b37aefde97f241469685b00cd7a4ebb7",
                "srcKUID": "j039041168c540bcab5d065cb9c9187f",
                "wType": "Label"
            },
            "i18n_text": "i18n.accounts.swiftCode",
            "left": {},
            "responsiveData": {
                "b3": {
                    "left": {
                        "type": "string",
                        "value": "10dp"
                    }
                }
            }
        },
        "lblBankDetailsKey2": {
            "__events__": {},
            "__info__": {
                "kuid": "ff56885b0c8c4822a894092db4d90c71",
                "srcKUID": "dcd20435a4494780b7799f18e5fdd252",
                "wType": "Label"
            },
            "i18n_text": "i18n.WireTransfers.InternationalBankAccountNo",
            "left": {},
            "responsiveData": {
                "b3": {
                    "left": {
                        "type": "string",
                        "value": "10dp"
                    },
                    "width": {
                        "type": "string",
                        "value": "45%"
                    }
                }
            },
            "width": {}
        },
        "lblBankDetailsKey3": {
            "__events__": {},
            "__info__": {
                "kuid": "cc941fa9347e476eb29b581509b7765b",
                "srcKUID": "f4043ada830c491ea22d03b45b90887b",
                "wType": "Label"
            },
            "height": {},
            "i18n_text": "i18n.WireTransfer.recipientAccountNumber",
            "left": {},
            "responsiveData": {
                "b3": {
                    "left": {
                        "type": "string",
                        "value": "10dp"
                    }
                },
                "b4": {
                    "height": {
                        "type": "string",
                        "value": "17dp"
                    },
                    "width": {
                        "type": "ref",
                        "value": "preferred"
                    }
                }
            },
            "width": {
                "Default": {
                    "type": "string",
                    "value": "44%"
                }
            }
        },
        "lblBankDetailsKey4": {
            "__events__": {},
            "__info__": {
                "kuid": "d513008a582545d69e0e43f43f631198",
                "srcKUID": "a5c43d03f56542799dabc429cca613a0",
                "wType": "Label"
            },
            "i18n_text": "i18n.common.reasonForTransfer",
            "left": {},
            "responsiveData": {
                "b3": {
                    "left": {
                        "type": "string",
                        "value": "10dp"
                    },
                    "top": {
                        "type": "string",
                        "value": "23dp"
                    },
                    "width": {
                        "type": "string",
                        "value": "45%"
                    }
                }
            },
            "top": {},
            "width": {}
        },
        "lblBankDetailsKey5": {
            "__events__": {},
            "__info__": {
                "kuid": "ddfc4a66ef7845d88100d6683ab6e60d",
                "srcKUID": "haefcf59e8924758a840cbd459ea3fbf",
                "wType": "Label"
            },
            "i18n_text": "i18n.transfers.accountNickName",
            "left": {},
            "responsiveData": {
                "b3": {
                    "left": {
                        "type": "string",
                        "value": "10dp"
                    },
                    "width": {
                        "type": "string",
                        "value": "45%"
                    }
                }
            },
            "width": {}
        },
        "lblBankDetailsKey6": {
            "__events__": {},
            "__info__": {
                "kuid": "if32ed6a3ad043749c5307aa732bb883",
                "srcKUID": "hf1dda72699c43b9ba9886eb59b3230d",
                "wType": "Label"
            },
            "i18n_text": "i18n.WireTransfer.recipientBank&Address",
            "left": {},
            "responsiveData": {
                "b3": {
                    "left": {
                        "type": "string",
                        "value": "10dp"
                    },
                    "right": {
                        "type": "string",
                        "value": "50%"
                    }
                }
            },
            "right": {}
        },
        "lblConfirmHeader": {
            "__events__": {},
            "__info__": {
                "kuid": "e7e7be489129403e913bc17f4996690c",
                "srcKUID": "jebeeb45ea8b4c20990ece21aee09c8b",
                "wType": "Label"
            },
            "centerY": {},
            "i18n_text": "i18n.wiretransfers.confirmDetails",
            "left": {},
            "responsiveData": {
                "b3": {
                    "centerY": {
                        "type": "string",
                        "value": "50%"
                    },
                    "left": {
                        "type": "string",
                        "value": "15dp"
                    },
                    "top": {
                        "type": "string",
                        "value": ""
                    }
                },
                "b4": {
                    "centerY": {
                        "type": "string",
                        "value": "50%"
                    }
                }
            },
            "top": {}
        },
        "lblCurrencyKey": {
            "__events__": {},
            "__info__": {
                "kuid": "f2b54e7ce70645d59ae6adac2b6393c5",
                "srcKUID": "fe8a875c8a0345d1a0cda2809f5fbf89",
                "wType": "Label"
            },
            "i18n_text": "i18n.common.Currency",
            "left": {},
            "responsiveData": {
                "b3": {
                    "left": {
                        "type": "string",
                        "value": "15dp"
                    },
                    "top": {
                        "type": "string",
                        "value": "35dp"
                    }
                },
                "b4": {
                    "left": {
                        "type": "string",
                        "value": "30dp"
                    },
                    "top": {
                        "type": "string",
                        "value": "35dp"
                    }
                }
            },
            "top": {}
        },
        "lblDetailsKey1": {
            "__events__": {},
            "__info__": {
                "kuid": "e7555640f18148328d489bf929fc41fc",
                "srcKUID": "g4a5e2a80f3a408c8c563688aec2fdfd",
                "wType": "Label"
            },
            "i18n_text": "i18n.PayPerson.recipientName",
            "left": {},
            "responsiveData": {
                "b3": {
                    "left": {
                        "type": "string",
                        "value": "10dp"
                    }
                }
            }
        },
        "lblDetailsKey2": {
            "__events__": {},
            "__info__": {
                "kuid": "jf4d9e8dca86430bb0cfd0a465f414bb",
                "srcKUID": "d9b6b22ef0c445769ddc57d815e7c974",
                "wType": "Label"
            },
            "i18n_text": "i18n.WireTransfer.recipientType",
            "left": {},
            "responsiveData": {
                "b3": {
                    "left": {
                        "type": "string",
                        "value": "10dp"
                    }
                }
            }
        },
        "lblDetailsKey3": {
            "__events__": {},
            "__info__": {
                "kuid": "ed4c2967e6b441e79044d7b2dddd5391",
                "srcKUID": "d1281f2415f0431c9987f380551eac39",
                "wType": "Label"
            },
            "i18n_text": "i18n.transfers.accountType",
            "left": {},
            "responsiveData": {
                "b3": {
                    "left": {
                        "type": "string",
                        "value": "10dp"
                    }
                }
            }
        },
        "lblDetailsKey4": {
            "__events__": {},
            "__info__": {
                "kuid": "bcb0dd771d82422c83ebca19e194a444",
                "srcKUID": "ac29e1f983294f1b9b6ca956507180e2",
                "wType": "Label"
            },
            "i18n_text": "i18n.WireTransfer.RecipientAddress",
            "left": {},
            "responsiveData": {
                "b3": {
                    "left": {
                        "type": "string",
                        "value": "10dp"
                    },
                    "right": {
                        "type": "string",
                        "value": "45%"
                    }
                }
            },
            "right": {}
        },
        "lblFavoriteEmailCheckBox": {
            "__events__": {},
            "__info__": {
                "kuid": "f5e17320c10e429a894e757afe5377c8",
                "srcKUID": "g1d9b42f9a6e44dcaea43dd0812a6787",
                "wType": "Label"
            },
            "responsiveData": {
                "b2": {
                    "text": "D"
                }
            },
            "text": "C"
        },
        "lblFromAccountKey": {
            "__events__": {},
            "__info__": {
                "kuid": "c3740dd08da14e61aee692719535866b",
                "srcKUID": "b63da6a3802b4bc9899f62da7c361027",
                "wType": "Label"
            },
            "i18n_text": "i18n.transfers.fromAccount",
            "left": {},
            "responsiveData": {
                "b3": {
                    "left": {
                        "type": "string",
                        "value": "15dp"
                    }
                }
            }
        },
        "lblIAccept": {
            "__events__": {},
            "__info__": {
                "kuid": "fec893d87f7540e99cb6b57405b994f9",
                "srcKUID": "c61980829cd6492bac6fbf2bc62e3749",
                "wType": "Label"
            }
        },
        "lblNoteKey": {
            "__events__": {},
            "__info__": {
                "kuid": "g17faaa2d6494025b87c5dfa5c7eb955",
                "srcKUID": "dc9a4308d3504518824b2339a80eb111",
                "wType": "Label"
            },
            "i18n_text": "i18n.common.reasonForTransfer",
            "left": {},
            "responsiveData": {
                "b3": {
                    "left": {
                        "type": "string",
                        "value": "15dp"
                    },
                    "top": {
                        "type": "string",
                        "value": "50dp"
                    }
                },
                "b4": {
                    "left": {
                        "type": "string",
                        "value": "30dp"
                    },
                    "top": {
                        "type": "string",
                        "value": "35dp"
                    }
                }
            },
            "top": {}
        },
        "lblRecipientDetails": {
            "__events__": {},
            "__info__": {
                "kuid": "a441338531d94ef1946ee6c60591a576",
                "srcKUID": "hf7a8c06c016478dbfb85c49928c3772",
                "wType": "Label"
            },
            "i18n_text": "i18n.payaperson.RecipientDetails",
            "left": {},
            "responsiveData": {
                "b3": {
                    "left": {
                        "type": "string",
                        "value": "15dp"
                    }
                }
            }
        },
        "lblToAccountKey": {
            "__events__": {},
            "__info__": {
                "kuid": "j4db7fe362bb48e1ae26d0d37acc5e53",
                "srcKUID": "j370999954da41e983111cbe1faddbf8",
                "wType": "Label"
            },
            "i18n_text": "i18n.transfers.lblTo",
            "left": {},
            "responsiveData": {
                "b3": {
                    "left": {
                        "type": "string",
                        "value": "15dp"
                    },
                    "top": {
                        "type": "string",
                        "value": "0dp"
                    }
                },
                "b4": {
                    "left": {
                        "type": "string",
                        "value": "30dp"
                    },
                    "top": {
                        "type": "string",
                        "value": "50dp"
                    }
                }
            },
            "top": {}
        },
        "lblTransactionFeeKey": {
            "__events__": {},
            "__info__": {
                "kuid": "e7fabab5423b4389812215c0685ec7cc",
                "srcKUID": "f0d1f48ab77b4644a424b681a800812f",
                "wType": "Label"
            },
            "bottom": {},
            "i18n_text": "i18n.WireTransfer.TransactionFee",
            "left": {},
            "responsiveData": {
                "b3": {
                    "bottom": {
                        "type": "string",
                        "value": "16dp"
                    },
                    "left": {
                        "type": "string",
                        "value": "15dp"
                    },
                    "width": {
                        "type": "string",
                        "value": "60%"
                    }
                }
            },
            "width": {}
        },
        "rtxAmountValue": {
            "__events__": {},
            "__info__": {
                "kuid": "ffed11998b22480e9045520cbddc4d98",
                "srcKUID": "gcd240bb39f24223aecc642579084fc3",
                "wType": "Label"
            },
            "left": {},
            "responsiveData": {
                "b3": {
                    "left": {
                        "type": "string",
                        "value": "44%"
                    },
                    "right": {
                        "type": "string",
                        "value": "2%"
                    }
                },
                "b4": {
                    "left": {
                        "type": "string",
                        "value": "25%"
                    }
                }
            },
            "right": {},
            "top": {
                "Default": {
                    "type": "string",
                    "value": "0dp"
                }
            }
        },
        "rtxBankDetailsValue1": {
            "__events__": {},
            "__info__": {
                "kuid": "g492e4e5547a433f968e9442de6132f3",
                "srcKUID": "i2d2966f6a8842b99820bb8466fef7fa",
                "wType": "Label"
            },
            "left": {},
            "responsiveData": {
                "b3": {
                    "left": {
                        "type": "string",
                        "value": "52%"
                    }
                },
                "b4": {
                    "left": {
                        "type": "string",
                        "value": "45%"
                    }
                }
            }
        },
        "rtxBankDetailsValue2": {
            "__events__": {},
            "__info__": {
                "kuid": "d66360949a9b4d5eace5721b253b258b",
                "srcKUID": "debb4cf7d3dc4be68ccff7c5be79a232",
                "wType": "Label"
            },
            "left": {},
            "responsiveData": {
                "b3": {
                    "left": {
                        "type": "string",
                        "value": "52%"
                    }
                }
            }
        },
        "rtxBankDetailsValue3": {
            "__events__": {},
            "__info__": {
                "kuid": "eefafdeff33e407cbb8f22e7cf0e9e19",
                "srcKUID": "i926a8895a4045a0883b9d98dd59f8ab",
                "wType": "Label"
            },
            "left": {},
            "responsiveData": {
                "b3": {
                    "left": {
                        "type": "string",
                        "value": "52%"
                    }
                },
                "b4": {
                    "left": {
                        "type": "string",
                        "value": "45%"
                    }
                }
            }
        },
        "rtxBankDetailsValue4": {
            "__events__": {},
            "__info__": {
                "kuid": "bc08e148b7a14db697d1473b85d2f7a5",
                "srcKUID": "c2e6fc30551149e6a95c0231a00c839a",
                "wType": "Label"
            },
            "left": {},
            "responsiveData": {
                "b3": {
                    "left": {
                        "type": "string",
                        "value": "52%"
                    }
                }
            }
        },
        "rtxBankDetailsValue5": {
            "__events__": {},
            "__info__": {
                "kuid": "b6610414aea44bbcaed0b13e3b50456e",
                "srcKUID": "aa8793faedd24dd9a5c9f4be08b9b938",
                "wType": "Label"
            },
            "left": {},
            "responsiveData": {
                "b3": {
                    "left": {
                        "type": "string",
                        "value": "52%"
                    }
                },
                "b4": {
                    "left": {
                        "type": "string",
                        "value": "45%"
                    }
                }
            }
        },
        "rtxBankDetailsValue6": {
            "__events__": {},
            "__info__": {
                "kuid": "e45b9e3d730946d98992fe05215539eb",
                "srcKUID": "d269ba9f353b403fbe1285100022b694",
                "wType": "Label"
            },
            "left": {},
            "responsiveData": {
                "b1": {
                    "width": {
                        "type": "string",
                        "value": "50%"
                    }
                },
                "b2": {
                    "width": {
                        "type": "string",
                        "value": "50%"
                    }
                },
                "b3": {
                    "left": {
                        "type": "string",
                        "value": "52%"
                    },
                    "right": {
                        "type": "string",
                        "value": "10dp"
                    },
                    "width": {
                        "type": "string",
                        "value": "47%"
                    }
                },
                "b4": {
                    "left": {
                        "type": "string",
                        "value": "45%"
                    },
                    "width": {
                        "type": "string",
                        "value": "50%"
                    }
                }
            },
            "right": {},
            "width": {}
        },
        "rtxCurrencyValue": {
            "__events__": {},
            "__info__": {
                "kuid": "e816e98aa3f04317bcae1d97065ac566",
                "srcKUID": "db78d12b866c41099557e15579a5ca50",
                "wType": "Label"
            },
            "left": {},
            "responsiveData": {
                "b3": {
                    "left": {
                        "type": "string",
                        "value": "44%"
                    },
                    "right": {
                        "type": "string",
                        "value": "2%"
                    },
                    "top": {
                        "type": "string",
                        "value": "35dp"
                    }
                },
                "b4": {
                    "left": {
                        "type": "string",
                        "value": "25%"
                    },
                    "top": {
                        "type": "string",
                        "value": "35dp"
                    }
                }
            }
        },
        "rtxDetailsValue1": {
            "__events__": {},
            "__info__": {
                "kuid": "h6af7ef1d9354454b395485902cb0cd9",
                "srcKUID": "hffd1f0c798548e1883ec3815cf1df6f",
                "wType": "Label"
            },
            "responsiveData": {
                "b3": {
                    "left": {
                        "type": "string",
                        "value": "46.82%"
                    }
                }
            }
        },
        "rtxDetailsValue2": {
            "__events__": {},
            "__info__": {
                "kuid": "dbb48aa89d6d441a853eaea2588876aa",
                "srcKUID": "ceb047ae0848467fb1faaa8e58b53228",
                "wType": "Label"
            },
            "responsiveData": {
                "b3": {
                    "left": {
                        "type": "string",
                        "value": "46.82%"
                    }
                }
            }
        },
        "rtxDetailsValue3": {
            "__events__": {},
            "__info__": {
                "kuid": "iddd008ad34c49b081d5df6b52fde13f",
                "srcKUID": "h8002819a6c5470581c2df0bd1acb83e",
                "wType": "Label"
            },
            "responsiveData": {
                "b3": {
                    "left": {
                        "type": "string",
                        "value": "46.82%"
                    }
                }
            }
        },
        "rtxDetailsValue4": {
            "__events__": {},
            "__info__": {
                "kuid": "c8f2611deb8444b7a808ff9b529767f4",
                "srcKUID": "gded90c81d40444abfef07735a4852cc",
                "wType": "Label"
            },
            "bottom": {},
            "left": {},
            "responsiveData": {
                "b1": {
                    "width": {
                        "type": "string",
                        "value": "53%"
                    }
                },
                "b2": {
                    "width": {
                        "type": "string",
                        "value": "53%"
                    }
                },
                "b3": {
                    "bottom": {
                        "type": "string",
                        "value": "10dp"
                    },
                    "left": {
                        "type": "string",
                        "value": "46.82%"
                    },
                    "right": {
                        "type": "string",
                        "value": ""
                    },
                    "width": {
                        "type": "string",
                        "value": "52%"
                    }
                },
                "b4": {
                    "width": {
                        "type": "string",
                        "value": "53%"
                    }
                }
            },
            "right": {},
            "width": {}
        },
        "rtxFromAccountValue": {
            "__events__": {},
            "__info__": {
                "kuid": "e475606b7669415090655b5fb207a849",
                "srcKUID": "a30e356f9e8d4cd79ce74067f5d9e05a",
                "wType": "Label"
            },
            "left": {},
            "responsiveData": {
                "b3": {
                    "left": {
                        "type": "string",
                        "value": "44%"
                    },
                    "right": {
                        "type": "string",
                        "value": "2%"
                    }
                },
                "b4": {
                    "left": {
                        "type": "string",
                        "value": "25%"
                    },
                    "width": {
                        "type": "string",
                        "value": "90%"
                    }
                }
            },
            "right": {},
            "width": {}
        },
        "rtxNoteValue": {
            "__events__": {},
            "__info__": {
                "kuid": "i431bda212d74152b7d8707703b29838",
                "srcKUID": "f1b7a51dc505454d8d36f6e1f686f4d1",
                "wType": "Label"
            },
            "left": {},
            "responsiveData": {
                "b3": {
                    "left": {
                        "type": "string",
                        "value": "44%"
                    },
                    "top": {
                        "type": "string",
                        "value": "50dp"
                    }
                },
                "b4": {
                    "left": {
                        "type": "string",
                        "value": "25%"
                    },
                    "top": {
                        "type": "string",
                        "value": "35dp"
                    }
                }
            },
            "top": {}
        },
        "rtxToAccountValue": {
            "__events__": {},
            "__info__": {
                "kuid": "e834aab9bfea41019f36bc4abb592be7",
                "srcKUID": "bc28770641c34746a53cf05f998a92dd",
                "wType": "Label"
            },
            "left": {},
            "responsiveData": {
                "b3": {
                    "left": {
                        "type": "string",
                        "value": "44%"
                    },
                    "right": {
                        "type": "string",
                        "value": "2dp"
                    },
                    "top": {
                        "type": "string",
                        "value": "0dp"
                    }
                },
                "b4": {
                    "left": {
                        "type": "string",
                        "value": "25%"
                    },
                    "top": {
                        "type": "string",
                        "value": "50dp"
                    },
                    "width": {
                        "type": "ref",
                        "value": "preferred"
                    }
                }
            },
            "right": {},
            "top": {},
            "width": {}
        },
        "rtxTransactionFeeValue": {
            "__events__": {},
            "__info__": {
                "kuid": "ed09be271e274d78af9018d5c33ff6ce",
                "srcKUID": "e45b2b56829a444cac0cd2d0ea9e932b",
                "wType": "Label"
            },
            "left": {},
            "responsiveData": {
                "b3": {
                    "left": {
                        "type": "string",
                        "value": "44%"
                    },
                    "right": {
                        "type": "string",
                        "value": "2%"
                    }
                },
                "b4": {
                    "left": {
                        "type": "string",
                        "value": "25%"
                    }
                }
            },
            "right": {}
        }
    },
    "id": "confirmDetails",
    "info": null,
    "isdatareferenced": false,
    "issegmentchild": false,
    "isvisible": true,
    "kuid": "b6fda6cda7dc443390bd62d506e3fee0",
    "layouttype": 4,
    "masterType": 0,
    "name": "kony.ui.UserWidgetInstance",
    "parent": "flxConfirmDetails",
    "pf": "frmWireTransfer",
    "snaptogrid": true,
    "sourceUserWidget": "ab2e96f774d447a68adac2810f8eb3a9",
    "vizprops": {
        "hidewidgethierarchy": false
    },
    "wType": "UserWidgetInstance"
}