{
    "DNDConfig": null,
    "__parentReadjusting__": false,
    "_bottom_": {
        "type": "string",
        "value": "0dp"
    },
    "_height_": {
        "type": "string",
        "value": "100px"
    },
    "_left_": {
        "type": "string",
        "value": "0dp"
    },
    "_margin_": [
        0,
        0,
        0,
        0
    ],
    "_orientation_": 6,
    "_padding_": [
        0,
        0,
        0,
        0
    ],
    "_percent_": true,
    "_skin_": "sdc143f0e5b64ae3a3f155f691c73fa7",
    "_top_": {
        "type": "string",
        "value": "10dp"
    },
    "_width_": {
        "type": "string",
        "value": "100%"
    },
    "allboxes": [],
    "canUpdateUI": true,
    "children": [
        "flxConfirmHeader",
        "lblSuccessAcknowledgement",
        "imgAcknowledged",
        "lblRefrenceNumber",
        "lblRefrenceNumberValue"
    ],
    "clipbounds": false,
    "containerweight": 100,
    "enablescrolling": true,
    "id": "flxSuccessMessage",
    "info": null,
    "isvisible": false,
    "kuid": "eff3706abfc04d7ab17a5abbf3701260",
    "layouttype": 2,
    "name": "kony.ui.FlexContainer",
    "parent": "flxConfirmDetails",
    "pf": "frmWireTransfer",
    "responsiveData": {
        "b1": {
            "bottom": {
                "type": "string",
                "value": "10dp"
            }
        },
        "b2": {
            "bottom": {
                "type": "string",
                "value": "10dp"
            }
        },
        "b3": {
            "bottom": {
                "type": "string",
                "value": "20dp"
            },
            "height": {
                "type": "string",
                "value": "300px"
            },
            "isVisible": true,
            "layoutType": 4
        },
        "b4": {
            "bottom": {
                "type": "string",
                "value": "20dp"
            },
            "isVisible": true
        }
    },
    "snapgridsize": 10,
    "snaptogrid": true,
    "wType": "FlexContainer",
    "widgetalignment": 1,
    "zindex": 1
}