{
    "@class": "com.kony.gen.viz.model.component.KVizLabel",
    "DNDConfig": null,
    "__parentReadjusting__": false,
    "_height_": {
        "type": "ref",
        "value": "preferred"
    },
    "_left_": {
        "type": "string",
        "value": "7.69%"
    },
    "_margin_": [
        1,
        1,
        1,
        1
    ],
    "_padding_": [
        0,
        0,
        0,
        0
    ],
    "_skin_": "s05b70b0610449d8939073c37f0aa778",
    "_text_": "Label",
    "_width_": {
        "type": "ref",
        "value": "preferred"
    },
    "_wrapping_": 2,
    "accessibilityconfig": {
        "a11yLabel": "Transfer Money Once"
    },
    "android": {
        "textStyle": {
            "letterSpacing": 0,
            "strikeThrough": false
        }
    },
    "canUpdateUI": true,
    "centery": {
        "type": "string",
        "value": "50%"
    },
    "containerweight": 100,
    "contentalignment": 4,
    "id": "lblAddInternationalAccount",
    "info": null,
    "ipad": {
        "psp": {
            "wrapping": 2
        }
    },
    "iphone": {
        "psp": {
            "wrapping": 2
        }
    },
    "isvisible": true,
    "kuid": "ed09534e797f494f97c54c2d6977b473",
    "name": "kony.ui.Label",
    "parent": "flxAddInternationalAccount",
    "pf": "frmWireTransfer",
    "responsiveData": {
        "b1": {
            "width": {
                "type": "ref",
                "value": "preferred"
            }
        },
        "b2": {}
    },
    "texti18n": "i18n.WireTransfer.MakeOneTimeTransfer",
    "tooltip": "Transfer Money Once",
    "wType": "Label",
    "zindex": 1
}