{
    "@class": "com.kony.gen.viz.model.component.KVizLabel",
    "DNDConfig": null,
    "__parentReadjusting__": false,
    "_bottom_": {
        "type": "string",
        "value": "1dp"
    },
    "_height_": {
        "type": "string",
        "value": "1dp"
    },
    "_left_": {
        "type": "string",
        "value": "0dp"
    },
    "_margin_": [
        1,
        1,
        1,
        1
    ],
    "_padding_": [
        0,
        0,
        0,
        0
    ],
    "_skin_": "s09349f2265649b3ae4b14f3130733b2",
    "_text_": "a",
    "_width_": {
        "type": "string",
        "value": "100%"
    },
    "_wrapping_": 2,
    "accessibilityconfig": {
        "a11yHidden": true,
        "a11yLabel": "a",
        "a11yARIA": {
            "tabindex": -1
        }
    },
    "android": {
        "textStyle": {
            "letterSpacing": 0,
            "strikeThrough": false
        }
    },
    "canUpdateUI": true,
    "containerweight": 100,
    "contentalignment": 4,
    "id": "lblSeparator3",
    "info": null,
    "ipad": {
        "psp": {
            "wrapping": 2
        }
    },
    "iphone": {
        "psp": {
            "wrapping": 2
        }
    },
    "isvisible": true,
    "kuid": "ib1ce2f8ec2543578454ae24014c44db",
    "name": "kony.ui.Label",
    "parent": "flxAddInternationalAccount",
    "pf": "frmWireTransfer",
    "responsiveData": {
        "b1": {
            "left": {
                "type": "string",
                "value": "-53%"
            }
        },
        "b2": {
            "left": {
                "type": "string",
                "value": "-53%"
            }
        }
    },
    "tooltip": "",
    "wType": "Label",
    "zindex": 1
}