{
    "DNDConfig": null,
    "_height_": {
        "type": "string",
        "value": "220dp"
    },
    "_left_": {
        "type": "string",
        "value": "0"
    },
    "_margin_": [
        0,
        0,
        0,
        0
    ],
    "_orientation_": 6,
    "_padding_": [
        0,
        0,
        0,
        0
    ],
    "_percent_": true,
    "_right_": {
        "type": "number",
        "value": ""
    },
    "_skin_": "s24c92fc23b14f5484b693ee9b8a9b35",
    "_top_": {
        "type": "string",
        "value": "0"
    },
    "_width_": {
        "type": "string",
        "value": "100%"
    },
    "allboxes": [],
    "canUpdateUI": true,
    "children": [
        "imgCloseIcon",
        "imgFail",
        "lblError1",
        "lblError2"
    ],
    "clipbounds": true,
    "containerweight": 100,
    "enablescrolling": true,
    "id": "flxError",
    "info": null,
    "iscustomlayout": false,
    "isvisible": true,
    "kuid": "i489cd024deb4ff98366ab90db796188",
    "layouttype": 2,
    "name": "kony.ui.FlexContainer",
    "parent": "flxMain",
    "pf": "frmSameBankAddBeneficiary",
    "responsiveData": {
        "b1": {
            "desktopweb": {},
            "height": {
                "type": "string",
                "value": "90dp"
            },
            "isVisible": false,
            "left": {
                "type": "number",
                "value": "85"
            },
            "right": {
                "type": "string",
                "value": ""
            },
            "skin": "sfa77fa8edbe48c0b2a353776df1cb24",
            "top": {
                "type": "string",
                "value": "20dp"
            },
            "width": {
                "type": "string",
                "value": "1205dp"
            }
        },
        "b2": {
            "height": {
                "type": "string",
                "value": "90dp"
            },
            "isVisible": false,
            "left": {
                "type": "string",
                "value": "3%"
            },
            "skin": "sfa77fa8edbe48c0b2a353776df1cb24",
            "top": {
                "type": "number",
                "value": "20"
            },
            "width": {
                "type": "string",
                "value": "94%"
            }
        },
        "b3": {
            "height": {
                "type": "string",
                "value": "90dp"
            },
            "isVisible": false,
            "left": {
                "type": "string",
                "value": "3%"
            },
            "skin": "sfa77fa8edbe48c0b2a353776df1cb24",
            "top": {
                "type": "string",
                "value": "20dp"
            },
            "width": {
                "type": "string",
                "value": "94%"
            }
        },
        "b4": {
            "height": {
                "type": "string",
                "value": "90dp"
            },
            "isVisible": false,
            "left": {
                "type": "string",
                "value": "85dp"
            },
            "skin": "sfa77fa8edbe48c0b2a353776df1cb24",
            "top": {
                "type": "string",
                "value": "20dp"
            },
            "width": {
                "type": "string",
                "value": "1205dp"
            }
        }
    },
    "retaincontentalignment": false,
    "retainflexpositionproperties": false,
    "retainflowhorizontalalignment": false,
    "snapgridsize": 10,
    "snaptogrid": true,
    "wType": "FlexContainer",
    "widgetalignment": 1
}