{
    "@class": "com.kony.gen.viz.model.component.KVizLabel",
    "DNDConfig": null,
    "_bottom_": {
        "type": "number",
        "value": ""
    },
    "_height_": {
        "type": "ref",
        "value": "preferred"
    },
    "_left_": {
        "type": "string",
        "value": "90dp"
    },
    "_margin_": [
        1,
        1,
        1,
        1
    ],
    "_padding_": [
        0,
        0,
        0,
        0
    ],
    "_skin_": "s70eb60f779d4ac09dfd672713815b0a",
    "_text_": "Label",
    "_top_": {
        "type": "string",
        "value": "53dp"
    },
    "_width_": {
        "type": "ref",
        "value": "preferred"
    },
    "_wrapping_": 2,
    "android": {
        "textStyle": {
            "letterSpacing": 0,
            "strikeThrough": false
        }
    },
    "canUpdateUI": true,
    "containerweight": 100,
    "contentalignment": 4,
    "id": "lblError2",
    "info": null,
    "ipad": {
        "psp": {
            "wrapping": 2
        }
    },
    "iphone": {
        "psp": {
            "wrapping": 2
        }
    },
    "iscustomlayout": false,
    "isvisible": true,
    "kuid": "c1c01f940ba54a5a9bbe6707c48c8916",
    "name": "kony.ui.Label",
    "parent": "flxError",
    "pf": "frmSameBankAddBeneficiary",
    "responsiveData": {
        "b1": {
            "skin": "seff254d2b5341bb96ea272b4a149c97"
        },
        "b2": {
            "skin": "seff254d2b5341bb96ea272b4a149c97"
        },
        "b3": {
            "bottom": {
                "type": "string",
                "value": "12dp"
            },
            "left": {
                "type": "string",
                "value": "48dp"
            },
            "skin": "sdb2c419b39f45dfbf29e225f4c55dd5",
            "text": "Label",
            "top": {
                "type": "string",
                "value": "27dp"
            },
            "width": {
                "type": "string",
                "value": "85%"
            }
        },
        "b4": {
            "skin": "seff254d2b5341bb96ea272b4a149c97"
        }
    },
    "retaincontentalignment": false,
    "retainflexpositionproperties": false,
    "tooltip": "",
    "wType": "Label"
}