{
    "DNDConfig": null,
    "__parentReadjusting__": false,
    "_height_": {
        "type": "ref",
        "value": "preferred"
    },
    "_left_": {
        "type": "string",
        "value": "0dp"
    },
    "_margin_": [
        0,
        0,
        0,
        0
    ],
    "_orientation_": 6,
    "_padding_": [
        0,
        0,
        0,
        0
    ],
    "_percent_": true,
    "_skin_": "sdc143f0e5b64ae3a3f155f691c73fa7",
    "_top_": {
        "type": "string",
        "value": "0dp"
    },
    "_width_": {
        "type": "string",
        "value": "100%"
    },
    "allboxes": [],
    "autogrowmode": 1,
    "canUpdateUI": true,
    "children": [
        "flxEditRecipientHeader",
        "flxSearchSortSeparator",
        "flxError",
        "flxViewAllRecipients",
        "flxSearch",
        "flxApplyChanges",
        "flxViewOnlySeletced",
        "flxSortSeparator",
        "flxSort",
        "flxShadowSort",
        "flxNoRecipients",
        "flxSegment",
        "flxNoTransactions",
        "flxRowSeperator"
    ],
    "clipbounds": false,
    "containerweight": 100,
    "enablescrolling": true,
    "id": "flxContent",
    "info": null,
    "iscustomlayout": false,
    "isvisible": true,
    "kuid": "e0cec07a9b6b427a8039e7667570cae0",
    "layouttype": 4,
    "name": "kony.ui.FlexContainer",
    "parent": "bulkwireEdit",
    "pf": "frmBulkWireEditRecipient",
    "responsiveData": {
        "b2": {
            "skin": "sdc143f0e5b64ae3a3f155f691c73fa7"
        }
    },
    "retaincontentalignment": false,
    "retainflexpositionproperties": false,
    "retainflowhorizontalalignment": false,
    "snapgridsize": 10,
    "snaptogrid": true,
    "wType": "FlexContainer",
    "widgetalignment": 1
}