{
    "@class": "com.kony.gen.viz.model.component.KVizLabel",
    "DNDConfig": null,
    "__parentReadjusting__": false,
    "_bottom_": {
        "type": "string",
        "value": ""
    },
    "_height_": {
        "type": "ref",
        "value": "preferred"
    },
    "_left_": {
        "type": "string",
        "value": "20dp"
    },
    "_margin_": [
        1,
        1,
        1,
        1
    ],
    "_padding_": [
        0,
        0,
        0,
        0
    ],
    "_right_": {
        "type": "number",
        "value": ""
    },
    "_skin_": "saba7a95163a455f8f2f131435e16122",
    "_text_": "Wire Transfer - Bulk Wires",
    "_top_": {
        "type": "string",
        "value": "50dp"
    },
    "_width_": {
        "type": "string",
        "value": "500dp"
    },
    "_wrapping_": 2,
    "accessibilityconfig": {
        "a11yLabel": "Transfers"
    },
    "android": {
        "textStyle": {
            "letterSpacing": 0,
            "strikeThrough": false
        }
    },
    "canUpdateUI": true,
    "centerx": {
        "type": "number",
        "value": ""
    },
    "containerweight": 100,
    "contentalignment": 1,
    "id": "lblRemoveRecipients",
    "info": null,
    "ipad": {
        "psp": {
            "wrapping": 2
        }
    },
    "iphone": {
        "psp": {
            "wrapping": 2
        }
    },
    "isvisible": true,
    "kuid": "e8f0e38562774a77a3e280d51a305dda",
    "name": "kony.ui.Label",
    "paddinginpixel": false,
    "parent": "flxApplyChanges",
    "pf": "frmBulkWireEditRecipient",
    "responsiveData": {
        "b1": {
            "contentAlignment": 5,
            "left": {
                "type": "string",
                "value": "80%"
            },
            "skin": "saba7a95163a455f8f2f131435e16122",
            "text": "Remove recipients from bulk transfer",
            "top": {
                "type": "string",
                "value": "15dp"
            },
            "width": {
                "type": "string",
                "value": "16%"
            }
        },
        "b2": {
            "centerX": {
                "type": "string",
                "value": ""
            },
            "contentAlignment": 2,
            "isVisible": true,
            "left": {
                "type": "string",
                "value": ""
            },
            "right": {
                "type": "string",
                "value": "20dp"
            },
            "skin": "saba7a95163a455f8f2f131435e16122",
            "text": "Remove recipients from bulk transfer",
            "top": {
                "type": "string",
                "value": "60dp"
            },
            "width": {
                "type": "string",
                "value": "20%"
            }
        },
        "b3": {
            "height": {
                "type": "string",
                "value": "0dp"
            },
            "isVisible": false
        },
        "b4": {
            "contentAlignment": 5,
            "left": {
                "type": "string",
                "value": "945dp"
            },
            "padding": [
                0,
                0,
                0,
                0
            ],
            "skin": "saba7a95163a455f8f2f131435e16122",
            "text": "Remove Recipients from bulk transfer",
            "top": {
                "type": "string",
                "value": "15dp"
            },
            "width": {
                "type": "string",
                "value": "15%"
            }
        }
    },
    "texti18n": "i18n.bulkwires.removerecipienttext",
    "tooltip": "Remove Recipients from bulk transfer",
    "wType": "Label",
    "zindex": 1
}