{
    "@class": "com.kony.gen.viz.model.component.KVizLabel",
    "DNDConfig": null,
    "__parentReadjusting__": false,
    "_height_": {
        "type": "ref",
        "value": "preferred"
    },
    "_left_": {
        "type": "string",
        "value": "418dp"
    },
    "_margin_": [
        1,
        1,
        1,
        1
    ],
    "_padding_": [
        0,
        0,
        0,
        0
    ],
    "_right_": {
        "type": "number",
        "value": ""
    },
    "_skin_": "sd9fada740124e4a99edc1f0a05ec2d0",
    "_text_": "International Routing Number",
    "_top_": {
        "type": "string",
        "value": "16dp"
    },
    "_width_": {
        "type": "ref",
        "value": "preferred"
    },
    "_wrapping_": 2,
    "accessibilityconfig": {
        "a11yLabel": "Zipcode"
    },
    "android": {
        "textStyle": {
            "letterSpacing": 0,
            "strikeThrough": false
        }
    },
    "canUpdateUI": true,
    "containerweight": 100,
    "contentalignment": 4,
    "id": "lblInternationalRoutingNumber",
    "info": null,
    "ipad": {
        "psp": {
            "wrapping": 2
        }
    },
    "iphone": {
        "psp": {
            "wrapping": 2
        }
    },
    "isvisible": true,
    "kuid": "i9376cf31dd947b9894a5dcf44ce3877",
    "name": "kony.ui.Label",
    "parent": "flxSwiftCode",
    "pf": "frmCreateTempAddInternational",
    "responsiveData": {
        "b2": {},
        "b3": {},
        "b4": {
            "right": {
                "type": "string",
                "value": "15dp"
            }
        }
    },
    "tooltip": "",
    "wType": "Label",
    "zindex": 1
}