{
	 "@class": "com.kony.gen.viz.model.component.KVizLabel",
	 "DNDConfig": null,
	 "__parentReadjusting__": false,
	 "_height_": {
		 "type": "string",
		 "value": "28px"
	},
	 "_left_": {
		 "type": "string",
		 "value": "2.30%"
	},
	 "_margin_": [
		 1,
		 1,
		 1,
		 1
	],
	 "_padding_": [
		 0,
		 0,
		 0,
		 0
	],
	 "_skin_": "s9739fe0569d4851a6e139a20b64dd6e",
	 "_text_": "I agree all the terms and conditions",
	 "_top_": {
		 "type": "number",
		 "value": "16"
	},
	 "_width_": {
		 "type": "ref",
		 "value": "preferred"
	},
	 "_wrapping_": 2,
	 "android": {
		 "textStyle": {
			 "letterSpacing": 0,
			 "strikeThrough": false
		}
	},
	 "canUpdateUI": true,
	 "containerweight": 100,
	 "contentalignment": 4,
	 "id": "lblResendOption1",
	 "info": null,
	 "ipad": {
		 "psp": {
			 "wrapping": 2
		}
	},
	 "iphone": {
		 "psp": {
			 "wrapping": 2
		}
	},
	 "isvisible": true,
	 "kuid": "a43988ade9704601852e66121f0b0aef",
	 "name": "kony.ui.Label",
	 "parent": "flxResendOption",
	 "pf": "userwidgetmodel",
	 "texti18n": "i18n.MFA.NoteIfYouHaveNotReceivedAnyCode",
	 "tooltip": "",
	 "wType": "Label",
	 "zindex": 2,
	 "accessibilityconfig": {
		 "a11yLabel": "Didnt receive our text? Please use the"
	}
}