{
    "@class": "com.kony.gen.viz.model.component.KVizButton",
    "DNDConfig": null,
    "_bottom_": {
        "type": "string",
        "value": "20dp"
    },
    "_height_": {
        "type": "string",
        "value": "40dp"
    },
    "_left_": {
        "type": "string",
        "value": ""
    },
    "_margin_": [
        6,
        6,
        6,
        6
    ],
    "_padding_": [
        0,
        0,
        0,
        0
    ],
    "_right_": {
        "type": "string",
        "value": "21dp"
    },
    "_skin_": "s95376e131db404ebbe858e3b39046ef",
    "_text_": "Continue",
    "_top_": {
        "type": "number",
        "value": ""
    },
    "_width_": {
        "type": "string",
        "value": "120dp"
    },
    "accessibilityconfig": {
        "a11yLabel": "Continue"
    },
    "canUpdateUI": true,
    "centery": {
        "type": "string",
        "value": "50%"
    },
    "containerweight": 100,
    "contentalignment": 5,
    "desktopweb": {
        "psp": {
            "hoverSkin": "s7ab6326aaf94c28b90b61fcb1b54547"
        }
    },
    "displaytext": true,
    "focusskin": "sfd0ce0d7f454c9f83c7e815a90a8a55",
    "id": "btnDownload",
    "info": null,
    "isvisible": true,
    "kuid": "a21a2cd0e6cf4a6d9922511a9bf9a08b",
    "name": "kony.ui.Button",
    "parent": "flxButtons",
    "pf": "frmPastPaymentsNew",
    "responsiveData": {
        "b1": {},
        "b2": {},
        "b3": {
            "bottom": {
                "type": "string",
                "value": "0dp"
            },
            "centerY": {
                "type": "string",
                "value": ""
            },
            "top": {
                "type": "string",
                "value": ""
            }
        },
        "b4": {
            "height": {
                "type": "string",
                "value": "100%"
            }
        }
    },
    "texti18n": "i18n.common.Download",
    "tooltip": "Continue",
    "wType": "Button",
    "zindex": 1
}