{
    "@class": "com.kony.gen.viz.model.component.KVizLabel",
    "DNDConfig": null,
    "_height_": {
        "type": "ref",
        "value": "preferred"
    },
    "_left_": {
        "type": "string",
        "value": "7.69%"
    },
    "_margin_": [
        1,
        1,
        1,
        1
    ],
    "_padding_": [
        0,
        0,
        0,
        0
    ],
    "_skin_": "s5b2ae836f9d48878f7a7e388a361f08",
    "_text_": "Label",
    "_top_": {
        "type": "number",
        "value": ""
    },
    "_width_": {
        "type": "ref",
        "value": "preferred"
    },
    "_wrapping_": 2,
    "accessibilityconfig": {
        "a11yLabel": "Add International Account"
    },
    "android": {
        "textStyle": {
            "letterSpacing": 0,
            "strikeThrough": false
        }
    },
    "canUpdateUI": true,
    "containerweight": 100,
    "contentalignment": 4,
    "id": "lblAddNonKonyAccount",
    "info": null,
    "ipad": {
        "psp": {
            "wrapping": 2
        }
    },
    "iphone": {
        "psp": {
            "wrapping": 2
        }
    },
    "isvisible": true,
    "kuid": "e9f7860dd1a743e6842e099cfc806cd3",
    "name": "kony.ui.Label",
    "parent": "flxAddNonKonyAccount",
    "pf": "frmPastPaymentsNew",
    "responsiveData": {
        "b1": {
            "height": {
                "type": "string",
                "value": "49dp"
            },
            "top": {
                "type": "string",
                "value": "0dp"
            }
        },
        "b4": {
            "height": {
                "type": "string",
                "value": "49dp"
            },
            "top": {
                "type": "string",
                "value": "0dp"
            }
        }
    },
    "texti18n": "i18n.FastTransfers.AddInternationalAccount",
    "wType": "Label",
    "zindex": 1
}