{
    "@class": "com.kony.gen.viz.model.component.KVizLabel",
    "DNDConfig": null,
    "__parentReadjusting__": false,
    "_height_": {
        "type": "ref",
        "value": "preferred"
    },
    "_left_": {
        "type": "string",
        "value": "0dp"
    },
    "_margin_": [
        1,
        1,
        1,
        1
    ],
    "_padding_": [
        0,
        0,
        0,
        0
    ],
    "_skin_": "se56454286124fef97a46e7249497088",
    "_text_": "Check Deposit I Check number: 235005 I TransactionDate 23 Nov 2019 I To: John Bailey I From: My Savings Account 2345  I Amount $1,000.00 I Reference Number: 9898279382479823",
    "_top_": {
        "type": "string",
        "value": "10dp"
    },
    "_width_": {
        "type": "string",
        "value": "99%"
    },
    "_wrapping_": 2,
    "accessibilityconfig": {
        "a11yLabel": "Time Warner Cable On-Line "
    },
    "android": {
        "textStyle": {
            "letterSpacing": 0,
            "strikeThrough": false
        }
    },
    "canUpdateUI": true,
    "containerId": true,
    "containerweight": 100,
    "contentalignment": 4,
    "id": "lblDescription",
    "info": null,
    "ipad": {
        "psp": {
            "wrapping": 2
        }
    },
    "iphone": {
        "psp": {
            "wrapping": 2
        }
    },
    "isvisible": true,
    "kuid": "if82374c12d04fa28691724333902244",
    "name": "kony.ui.Label",
    "parent": "flxDescription",
    "pf": "segDisputedTransactions",
    "tooltip": "",
    "wType": "Label",
    "zindex": 1
}