{
    "@class": "com.kony.gen.viz.model.component.KVizLabel",
    "DNDConfig": null,
    "__parentReadjusting__": false,
    "_bottom_": {
        "type": "string",
        "value": ""
    },
    "_height_": {
        "type": "ref",
        "value": "preferred"
    },
    "_left_": {
        "type": "string",
        "value": "20dp"
    },
    "_margin_": [
        1,
        1,
        1,
        1
    ],
    "_padding_": [
        0,
        0,
        2,
        0
    ],
    "_skin_": "s2d800e3e18244b3b0795e5e5d6a0f77",
    "_text_": "Wire Transfer - Bulk Wires",
    "_top_": {
        "type": "string",
        "value": "12dp"
    },
    "_width_": {
        "type": "string",
        "value": "90%"
    },
    "_wrapping_": 2,
    "accessibilityconfig": {
        "a11yLabel": "Transfers"
    },
    "android": {
        "textStyle": {
            "letterSpacing": 0,
            "strikeThrough": false
        }
    },
    "canUpdateUI": true,
    "containerweight": 100,
    "contentalignment": 1,
    "id": "lblError",
    "info": null,
    "ipad": {
        "psp": {
            "wrapping": 2
        }
    },
    "iphone": {
        "psp": {
            "wrapping": 2
        }
    },
    "isvisible": true,
    "kuid": "jf745e505b7448819b767a23094b6b10",
    "name": "kony.ui.Label",
    "paddinginpixel": false,
    "parent": "flxError",
    "pf": "frmBulkWireTransferRemovedRecipients",
    "responsiveData": {
        "b1": {
            "isVisible": true,
            "left": {
                "type": "string",
                "value": "20dp"
            },
            "skin": "s2d800e3e18244b3b0795e5e5d6a0f77",
            "text": "The entry was invalid. Please try again.",
            "top": {
                "type": "string",
                "value": "20dp"
            },
            "width": {
                "type": "ref",
                "value": "preferred"
            }
        },
        "b2": {
            "skin": "s2d800e3e18244b3b0795e5e5d6a0f77",
            "text": "The entry was invalid. Please try again."
        },
        "b3": {
            "skin": "s2d800e3e18244b3b0795e5e5d6a0f77",
            "text": "The entry was invalid. Please try again.",
            "width": {
                "type": "string",
                "value": "95%"
            }
        },
        "b4": {
            "height": {
                "type": "string",
                "value": "0dp"
            },
            "isVisible": false,
            "width": {
                "type": "string",
                "value": "0%"
            }
        }
    },
    "texti18n": "i18n.bulkwires.EditAmoumterror",
    "tooltip": "",
    "wType": "Label",
    "zindex": 1
}