{
    "@class": "com.kony.gen.viz.model.component.KVizUserWidget",
    "DNDConfig": null,
    "_children_": [],
    "_height_": {
        "type": "string",
        "value": "100dp"
    },
    "_left_": {
        "type": "string",
        "value": "0dp"
    },
    "_margin_": [
        0,
        0,
        0,
        0
    ],
    "_orientation_": 1,
    "_padding_": [
        0,
        0,
        0,
        0
    ],
    "_percent_": true,
    "_render_": true,
    "_skin_": "s24c92fc23b14f5484b693ee9b8a9b35",
    "_top_": {
        "type": "string",
        "value": "0dp"
    },
    "_width_": {
        "type": "string",
        "value": "1366dp"
    },
    "android": {},
    "androidwearos": {},
    "areflexpropsreferenced": false,
    "canUpdateUI": true,
    "centerx": {
        "type": "string",
        "value": "50%"
    },
    "clipbounds": true,
    "containerweight": 0,
    "dataDiffs": {
        "btnContactUs": {
            "__events__": {},
            "__info__": {
                "kuid": "fdef62ab6f7848239b61c68d6cfffe35",
                "srcKUID": "c47b0c9af1b84e63aa01af59eb52124a",
                "wType": "Button"
            },
            "i18n_text": "i18n.footer.contactUs",
            "left": {},
            "responsiveData": {
                "b4": {
                    "left": {
                        "type": "string",
                        "value": "20dp"
                    }
                }
            },
            "text": "Contact Us"
        },
        "btnFaqs": {
            "__events__": {},
            "__info__": {
                "kuid": "d9c32bb99cd342da888ea942b61dbff5",
                "srcKUID": "ced702d00bc5426892e4632faec9df5d",
                "wType": "Button"
            },
            "responsiveData": {
                "b4": {
                    "isVisible": false
                }
            }
        },
        "btnLocateUs": {
            "__events__": {},
            "__info__": {
                "kuid": "aa282c3f33cc4a6aa9a9ab7b651ae604",
                "srcKUID": "i52587cdcb68471f9e389671ddc5f138",
                "wType": "Button"
            },
            "centerX": {},
            "i18n_text": "i18n.footer.locateUs",
            "left": {},
            "responsiveData": {
                "b3": {
                    "left": {
                        "type": "string",
                        "value": "0dp"
                    }
                },
                "b4": {
                    "centerX": {
                        "type": "string",
                        "value": ""
                    },
                    "left": {
                        "type": "string",
                        "value": "0%"
                    }
                }
            },
            "text": "Locate Us"
        },
        "btnPrivacy": {
            "__events__": {},
            "__info__": {
                "kuid": "abd65b3d2dd546e7b08942774be5d0e0",
                "srcKUID": "c3810888a2304c409e04db4cd519b8ee",
                "wType": "Button"
            },
            "responsiveData": {
                "b4": {
                    "isVisible": false
                }
            }
        },
        "btnTermsAndConditions": {
            "__events__": {},
            "__info__": {
                "kuid": "g0e1d9114ba84af9a61a516d3eb170dd",
                "srcKUID": "baf7c8f817b34b618b7e1f148f49770a",
                "wType": "Button"
            },
            "responsiveData": {
                "b4": {
                    "isVisible": false
                }
            }
        },
        "customfooter": {
            "__events__": {},
            "__info__": {
                "isRoot": true,
                "kuid": "je056ee4f2474a5e88f490b1e0938bd6",
                "srcKUID": "a142e816812a4b5b80f84484dcef7232",
                "wType": "FlexContainer"
            },
            "autogrowMode": {
                "Default": 0
            },
            "centerX": {
                "Default": {
                    "type": "string",
                    "value": "50%"
                }
            },
            "height": {
                "Default": {
                    "type": "string",
                    "value": "100dp"
                }
            },
            "responsiveData": {
                "b2": {
                    "width": {
                        "type": "string",
                        "value": "100%"
                    }
                },
                "b3": {
                    "centerX": {
                        "type": "string",
                        "value": ""
                    },
                    "width": {
                        "type": "string",
                        "value": "100%"
                    }
                },
                "b4": {
                    "height": {
                        "type": "string",
                        "value": "100dp"
                    },
                    "width": {
                        "type": "string",
                        "value": "100%"
                    }
                }
            },
            "width": {
                "Default": {
                    "type": "string",
                    "value": "1366dp"
                }
            },
            "zIndex": {
                "Default": 2
            }
        },
        "flxFooterMenu": {
            "__events__": {},
            "__info__": {
                "kuid": "ebbfe92559fb45e3a79b1ed6e007938e",
                "srcKUID": "e6b5bc6faf00428680c4dedfe25a0b9a",
                "wType": "FlexContainer"
            },
            "centerX": {
                "Default": {
                    "type": "string",
                    "value": "50%"
                }
            },
            "left": {
                "Default": {
                    "type": "string",
                    "value": ""
                }
            },
            "responsiveData": {
                "b2": {
                    "centerX": {
                        "type": "string",
                        "value": ""
                    },
                    "left": {
                        "type": "string",
                        "value": "6%"
                    },
                    "width": {
                        "type": "string",
                        "value": "87%"
                    }
                },
                "b3": {
                    "centerX": {
                        "type": "string",
                        "value": ""
                    },
                    "left": {
                        "type": "string",
                        "value": "2.80%"
                    },
                    "width": {
                        "type": "string",
                        "value": "90%"
                    }
                },
                "b4": {
                    "top": {
                        "type": "string",
                        "value": "10dp"
                    },
                    "width": {
                        "type": "string",
                        "value": "180dp"
                    }
                }
            },
            "top": {
                "Default": {
                    "type": "string",
                    "value": "26.60%"
                }
            },
            "width": {
                "Default": {
                    "type": "string",
                    "value": "1200dp"
                }
            }
        },
        "flxVBar1": {
            "__events__": {},
            "__info__": {
                "kuid": "gd4ecc4675f94e49b1889d2cc405a6c7",
                "srcKUID": "f31fd58a22cc496a93899a924cf2927d",
                "wType": "FlexContainer"
            },
            "centerX": {},
            "left": {},
            "responsiveData": {
                "b4": {
                    "centerX": {
                        "type": "string",
                        "value": ""
                    },
                    "left": {
                        "type": "string",
                        "value": "20dp"
                    }
                }
            }
        },
        "flxVBar2": {
            "__events__": {},
            "__info__": {
                "kuid": "ad49d8e654ba4b518ffdfc19a858808c",
                "srcKUID": "j39a662286e64bbc9be78a96bb491e27",
                "wType": "FlexContainer"
            },
            "responsiveData": {
                "b4": {
                    "isVisible": false
                }
            }
        },
        "flxVBar3": {
            "__events__": {},
            "__info__": {
                "kuid": "cc5f7149d91e404ab3dd51bf090cf969",
                "srcKUID": "a6990ffd77914b8e8757540cb40cad1a",
                "wType": "FlexContainer"
            },
            "responsiveData": {
                "b4": {
                    "isVisible": false
                }
            }
        },
        "flxVBar4": {
            "__events__": {},
            "__info__": {
                "kuid": "i8a71067040d489ea55b90c86563ccad",
                "srcKUID": "e75f96d248634147afa5b6848252df6e",
                "wType": "FlexContainer"
            },
            "responsiveData": {
                "b4": {
                    "isVisible": false
                }
            }
        },
        "imgFooterIconOne": {
            "__events__": {},
            "__info__": {
                "kuid": "dff1a5164a684b28908e7a78641ea5c1",
                "srcKUID": "f2305e3d65bb448e9d68f5608421f28a",
                "wType": "Image"
            },
            "centerY": {},
            "responsiveData": {
                "b3": {
                    "centerY": {
                        "type": "string",
                        "value": "75%"
                    },
                    "isVisible": false,
                    "right": {
                        "type": "string",
                        "value": "10dp"
                    }
                },
                "b4": {
                    "isVisible": false
                }
            },
            "right": {}
        },
        "imgFooterIconThree": {
            "__events__": {},
            "__info__": {
                "kuid": "bc2e7c4e8a50432eb74e20cb5516ffd8",
                "srcKUID": "hc27193bc4d14f24b60f03ac3c2bddb7",
                "wType": "Image"
            },
            "centerY": {},
            "responsiveData": {
                "b3": {
                    "centerY": {
                        "type": "string",
                        "value": "40%"
                    },
                    "isVisible": false,
                    "right": {
                        "type": "string",
                        "value": "60dp"
                    }
                },
                "b4": {
                    "isVisible": false
                }
            },
            "right": {}
        },
        "imgFooterIconTwo": {
            "__events__": {},
            "__info__": {
                "kuid": "ja5a76b8fb404e8991a798adfc0bafb3",
                "srcKUID": "cf67ed169e364ace9f62b5aa10dcf1d8",
                "wType": "Image"
            },
            "centerY": {},
            "responsiveData": {
                "b3": {
                    "centerY": {
                        "type": "string",
                        "value": "40%"
                    },
                    "isVisible": false,
                    "right": {
                        "type": "string",
                        "value": "10dp"
                    }
                },
                "b4": {
                    "isVisible": false
                }
            },
            "right": {}
        },
        "lblCopyright": {
            "__events__": {},
            "__info__": {
                "kuid": "hf5452abfdb94caba4eec12ccaf8996f",
                "srcKUID": "a696ff4e198a4124810242908deae798",
                "wType": "Label"
            },
            "centerX": {
                "Default": {
                    "type": "string",
                    "value": ""
                }
            },
            "left": {
                "Default": {
                    "type": "string",
                    "value": "6%"
                }
            },
            "responsiveData": {
                "b2": {},
                "b3": {
                    "left": {
                        "type": "string",
                        "value": "2.50%"
                    },
                    "width": {
                        "type": "string",
                        "value": "91%"
                    }
                },
                "b4": {
                    "text": "© Copyright Infinity Retail Banking. All rights reserved.",
                    "top": {
                        "type": "string",
                        "value": "45dp"
                    }
                }
            },
            "top": {
                "Default": {
                    "type": "string",
                    "value": "75dp"
                }
            },
            "width": {
                "Default": {
                    "type": "ref",
                    "value": "preferred"
                }
            }
        }
    },
    "desktopweb": {
        "render": true
    },
    "id": "customfooter",
    "info": null,
    "ipad": {},
    "iphone": {},
    "isdatareferenced": false,
    "issegmentchild": false,
    "isvisible": true,
    "kiosk": {
        "render": true
    },
    "kuid": "je056ee4f2474a5e88f490b1e0938bd6",
    "layouttype": 2,
    "masterType": 0,
    "name": "kony.ui.UserWidgetInstance",
    "parent": "flxFooter",
    "pf": "frmBulkPaymentsTemplate",
    "responsiveData": {
        "b2": {
            "width": {
                "type": "string",
                "value": "100%"
            }
        },
        "b3": {
            "centerX": {
                "type": "string",
                "value": ""
            },
            "width": {
                "type": "string",
                "value": "100%"
            }
        },
        "b4": {
            "height": {
                "type": "string",
                "value": "100dp"
            },
            "width": {
                "type": "string",
                "value": "100%"
            }
        }
    },
    "snaptogrid": true,
    "sourceUserWidget": "a142e816812a4b5b80f84484dcef7232",
    "spa": {},
    "spaan": {},
    "spaandroidtablet": {},
    "spabb": {},
    "spaip": {},
    "spaipad": {},
    "spamobile": {},
    "spatablet": {},
    "spawindowstablet": {},
    "spawinphone8": {},
    "tabrcandroid": {},
    "vizProps": {
        "hidewidgethierarchy": false
    },
    "vizprops": {
        "hidewidgethierarchy": false
    },
    "wType": "UserWidgetInstance",
    "windows10": {},
    "windows8": {},
    "winphone10": {},
    "winphone8": {},
    "zindex": 2
}