{
    "DNDConfig": null,
    "_bottom_": {
        "type": "string",
        "value": "0dp"
    },
    "_height_": {
        "type": "string",
        "value": "1dp"
    },
    "_left_": {
        "type": "string",
        "value": "1.32%"
    },
    "_margin_": [
        0,
        0,
        0,
        0
    ],
    "_orientation_": 6,
    "_padding_": [
        0,
        0,
        0,
        0
    ],
    "_percent_": true,
    "_right_": {
        "type": "string",
        "value": "1.54%"
    },
    "_skin_": "s8823f92dd17459d8dbd603fe9224e85",
    "_width_": {
        "type": "string",
        "value": "97%"
    },
    "allboxes": [],
    "autogrowmode": 0,
    "canUpdateUI": true,
    "children": [],
    "clipbounds": true,
    "containerweight": 100,
    "enablescrolling": true,
    "id": "flxStep1Seperator",
    "info": null,
    "isvisible": true,
    "kuid": "a1b172e3f9114fa986e495a9e7518403",
    "layouttype": 2,
    "name": "kony.ui.FlexContainer",
    "parent": "flxAddManuallyHeader",
    "pf": "frmBulkPaymentsTemplate",
    "responsiveData": {
        "b4": {}
    },
    "snapgridsize": 10,
    "snaptogrid": true,
    "wType": "FlexContainer",
    "widgetalignment": 1,
    "zindex": 1
}