{
    "DNDConfig": null,
    "_height_": {
        "type": "string",
        "value": "100%"
    },
    "_left_": {
        "type": "string",
        "value": "1.50%"
    },
    "_margin_": [
        0,
        0,
        0,
        0
    ],
    "_orientation_": 6,
    "_padding_": [
        0,
        0,
        0,
        0
    ],
    "_percent_": true,
    "_skin_": "s24c92fc23b14f5484b693ee9b8a9b35",
    "_top_": {
        "type": "string",
        "value": "0dp"
    },
    "_width_": {
        "type": "string",
        "value": "100%"
    },
    "allboxes": [],
    "autogrowmode": 0,
    "canUpdateUI": true,
    "children": [
        "lblViewOnlySelectedBen",
        "flxStatus1"
    ],
    "clipbounds": true,
    "containerweight": 100,
    "enablescrolling": true,
    "id": "flxViewOnlySeletcedBen",
    "info": null,
    "iscustomlayout": false,
    "isvisible": true,
    "kuid": "g0ac0975242842ee97997e681813e692",
    "layouttype": 2,
    "maxheight": {
        "type": "string",
        "value": ""
    },
    "name": "kony.ui.FlexContainer",
    "parent": "flxSearchBar",
    "pf": "frmBulkPaymentsTemplate",
    "responsiveData": {
        "b1": {
            "left": {
                "type": "string",
                "value": "1.50%"
            },
            "top": {
                "type": "string",
                "value": "0dp"
            },
            "width": {
                "type": "string",
                "value": "20%"
            }
        },
        "b2": {
            "left": {
                "type": "string",
                "value": "3.50%"
            },
            "top": {
                "type": "string",
                "value": "1dp"
            },
            "width": {
                "type": "string",
                "value": "25%"
            }
        },
        "b3": {
            "desktopweb": {
                "maxHeight": {
                    "type": "string",
                    "value": ""
                }
            },
            "maxHeight": {
                "type": "string",
                "value": ""
            },
            "top": {
                "type": "string",
                "value": "10dp"
            },
            "width": {
                "type": "string",
                "value": "36%"
            }
        }
    },
    "retaincontentalignment": false,
    "retainflexpositionproperties": false,
    "retainflowhorizontalalignment": false,
    "snapgridsize": 10,
    "snaptogrid": true,
    "wType": "FlexContainer",
    "widgetalignment": 1,
    "zindex": 1
}