{
    "@class": "com.kony.gen.viz.model.component.KVizLabel",
    "DNDConfig": null,
    "_height_": {
        "type": "ref",
        "value": "preferred"
    },
    "_left_": {
        "type": "string",
        "value": "1.32%"
    },
    "_margin_": [
        1,
        1,
        1,
        1
    ],
    "_padding_": [
        0,
        0,
        0,
        0
    ],
    "_skin_": "sdfd15d3ea794a0d9f7af92d2e46715c",
    "_text_": "Provide  New Beneficiary Details",
    "_width_": {
        "type": "ref",
        "value": "preferred"
    },
    "_wrapping_": 2,
    "accessibilityconfig": {
        "a11yLabel": "STEP 1 : RECIPIENT DETAILS"
    },
    "android": {
        "textStyle": {
            "letterSpacing": 0,
            "strikeThrough": false
        }
    },
    "canUpdateUI": true,
    "centery": {
        "type": "string",
        "value": "50%"
    },
    "containerweight": 100,
    "contentalignment": 4,
    "id": "lblAddHeader",
    "info": null,
    "ipad": {
        "psp": {
            "wrapping": 2
        }
    },
    "iphone": {
        "psp": {
            "wrapping": 2
        }
    },
    "isvisible": true,
    "kuid": "a3f5a8a222de44338bc971d3c6db71e9",
    "name": "kony.ui.Label",
    "parent": "flxAddManuallyHeader",
    "pf": "frmBulkPaymentsTemplate",
    "responsiveData": {
        "b3": {},
        "b4": {}
    },
    "tooltip": "",
    "wType": "Label",
    "zindex": 1
}