{
    "@class": "com.kony.gen.viz.model.component.KVizLabel",
    "DNDConfig": null,
    "_height_": {
        "type": "ref",
        "value": "preferred"
    },
    "_left_": {
        "type": "string",
        "value": "12.60%"
    },
    "_margin_": [
        1,
        1,
        1,
        1
    ],
    "_padding_": [
        0,
        0,
        0,
        0
    ],
    "_skin_": "s7ba7631a66e45428057d53f8fcd709e",
    "_text_": "Label",
    "_top_": {
        "type": "string",
        "value": "107dp"
    },
    "_width_": {
        "type": "ref",
        "value": "preferred"
    },
    "_wrapping_": 2,
    "accessibilityconfig": {
        "a11yLabel": "Transfer Money"
    },
    "android": {
        "textStyle": {
            "letterSpacing": 0,
            "strikeThrough": false
        }
    },
    "canUpdateUI": true,
    "containerweight": 100,
    "contentalignment": 4,
    "id": "lblScheduleAPayment",
    "info": null,
    "ipad": {
        "psp": {
            "wrapping": 2
        }
    },
    "iphone": {
        "psp": {
            "wrapping": 2
        }
    },
    "isvisible": true,
    "kuid": "be7305305a9e4d6584deaed2a65b17f1",
    "name": "kony.ui.Label",
    "parent": "flxNoTransactions",
    "pf": "frmBulkPaymentsTemplate",
    "texti18n": "i18n.billPay.BillPayMakeTransfer",
    "tooltip": "MAKE TRANSFER",
    "wType": "Label",
    "zindex": 1
}