{
    "@class": "com.kony.gen.viz.model.component.KVizLabel",
    "DNDConfig": null,
    "_height_": {
        "type": "ref",
        "value": "preferred"
    },
    "_left_": {
        "type": "string",
        "value": "273dp"
    },
    "_margin_": [
        1,
        1,
        1,
        1
    ],
    "_padding_": [
        0,
        0,
        0,
        0
    ],
    "_skin_": "se56454286124fef97a46e7249497088",
    "_text_": "Total Beneficiaries :",
    "_top_": {
        "type": "number",
        "value": ""
    },
    "_width_": {
        "type": "ref",
        "value": "preferred"
    },
    "_wrapping_": 2,
    "accessibilityconfig": {
        "a11yLabel": "Transaction Date"
    },
    "android": {
        "textStyle": {
            "letterSpacing": 0,
            "strikeThrough": false
        }
    },
    "canUpdateUI": true,
    "centery": {
        "type": "string",
        "value": "52%"
    },
    "containerweight": 100,
    "contentalignment": 4,
    "id": "lblTotalBeneficiariesTitle",
    "info": null,
    "ipad": {
        "psp": {
            "wrapping": 2
        }
    },
    "iphone": {
        "psp": {
            "wrapping": 2
        }
    },
    "isvisible": true,
    "kuid": "g9301053415445c693144da5de7a0c98",
    "name": "kony.ui.Label",
    "parent": "flxTemplateDetails",
    "pf": "frmBulkPaymentsTemplate",
    "responsiveData": {
        "b1": {
            "left": {
                "type": "string",
                "value": "5%"
            }
        },
        "b2": {
            "left": {
                "type": "string",
                "value": "5%"
            }
        },
        "b3": {
            "centerY": {
                "type": "string",
                "value": ""
            },
            "left": {
                "type": "string",
                "value": "350dp"
            },
            "top": {
                "type": "string",
                "value": "19dp"
            }
        }
    },
    "tooltip": "",
    "wType": "Label",
    "zindex": 1
}