{
    "@class": "com.kony.gen.viz.model.component.KVizListBox",
    "DNDConfig": null,
    "_height_": {
        "type": "string",
        "value": "100%"
    },
    "_left_": {
        "type": "string",
        "value": "0dp"
    },
    "_margin_": [
        0,
        0,
        0,
        0
    ],
    "_padding_": [
        2,
        0,
        1,
        0
    ],
    "_placeholder_": "Please Select",
    "_skin_": "s67028ba4fed4f2287f6b20aadfaa3ba",
    "_top_": {
        "type": "string",
        "value": "0dp"
    },
    "_width_": {
        "type": "string",
        "value": "100%"
    },
    "canUpdateUI": true,
    "containerweight": 100,
    "contentalignment": 4,
    "desktopweb": {
        "psp": {}
    },
    "focusskin": "s67028ba4fed4f2287f6b20aadfaa3ba",
    "groupcells": false,
    "id": "lstbProcessingMode",
    "info": null,
    "iscustomlayout": false,
    "isvisible": true,
    "kiosk": {
        "psp": {
            "placeholder": "Select"
        }
    },
    "kuid": "ca19629b191647e5864742b9db3a46d0",
    "masterdata": [
        [
            "lblMulti",
            "Multiple"
        ],
        [
            "lblSingle",
            "Single"
        ]
    ],
    "name": "kony.ui.ListBox",
    "paddinginpixel": false,
    "parent": "flxProcessingMode",
    "pf": "frmBulkPaymentsTemplate",
    "responsiveData": {
        "b1": {
            "padding": [
                3,
                0,
                1,
                0
            ]
        },
        "b2": {
            "padding": [
                2,
                0,
                1,
                0
            ]
        },
        "b3": {
            "padding": [
                2,
                0,
                1,
                0
            ]
        },
        "b4": {
            "padding": [
                2,
                0,
                1,
                0
            ]
        }
    },
    "retaincontentalignment": false,
    "retainflexpositionproperties": false,
    "selectedkey": "lblMulti",
    "selectedkeys": null,
    "selectedkeyvalue": [
        "lblMulti",
        "Multiple"
    ],
    "selectedkeyvalues": null,
    "size": 18,
    "viewconfig": {
        "toggleViewConfig": {
            "viewStyle": 0
        }
    },
    "viewtype": 0,
    "wType": "ListBox",
    "zindex": 1
}