{
    "@class": "com.kony.gen.viz.model.container.KVizSegment2",
    "DNDConfig": null,
    "_bottom_": {
        "type": "string",
        "value": "2dp"
    },
    "_data_": [
        [{
                "lblHeader": {
                    "@class": "com.viz.ide.model.segment.SimpleTextSegmentData",
                    "text": "Label"
                },
                "lblSelectAll": {
                    "@class": "com.viz.ide.model.segment.SimpleTextSegmentData",
                    "text": ""
                },
                "lblSeparator": {
                    "@class": "com.viz.ide.model.segment.SimpleTextSegmentData",
                    "text": ""
                },
                "lblStatusHeader": {
                    "@class": "com.viz.ide.model.segment.SimpleTextSegmentData",
                    "text": "D"
                }
            },
            [{
                    "lblAmount": {
                        "@class": "com.viz.ide.model.segment.SimpleTextSegmentData",
                        "text": "$ 45,009"
                    },
                    "lblBeneficiaryName": {
                        "@class": "com.viz.ide.model.segment.SimpleTextSegmentData",
                        "text": "Eliza Walsh"
                    },
                    "lblDropdown": {
                        "@class": "com.viz.ide.model.segment.SimpleTextSegmentData",
                        "text": "O"
                    },
                    "lblFeesPaidBy": {
                        "@class": "com.viz.ide.model.segment.SimpleTextSegmentData",
                        "text": "Banking"
                    },
                    "lblIcon": {
                        "@class": "com.viz.ide.model.segment.SimpleTextSegmentData",
                        "text": "r"
                    },
                    "lblSeparator": {
                        "@class": "com.viz.ide.model.segment.SimpleTextSegmentData",
                        "text": ""
                    }
                },
                {
                    "lblAmount": {
                        "@class": "com.viz.ide.model.segment.SimpleTextSegmentData",
                        "text": "$ 45,009"
                    },
                    "lblBeneficiaryName": {
                        "@class": "com.viz.ide.model.segment.SimpleTextSegmentData",
                        "text": "Eliza Walsh"
                    },
                    "lblDropdown": {
                        "@class": "com.viz.ide.model.segment.SimpleTextSegmentData",
                        "text": "O"
                    },
                    "lblFeesPaidBy": {
                        "@class": "com.viz.ide.model.segment.SimpleTextSegmentData",
                        "text": "Banking"
                    },
                    "lblIcon": {
                        "@class": "com.viz.ide.model.segment.SimpleTextSegmentData",
                        "text": "r"
                    },
                    "lblSeparator": {
                        "@class": "com.viz.ide.model.segment.SimpleTextSegmentData",
                        "text": ""
                    }
                },
                {
                    "lblAmount": {
                        "@class": "com.viz.ide.model.segment.SimpleTextSegmentData",
                        "text": "$ 45,009"
                    },
                    "lblBeneficiaryName": {
                        "@class": "com.viz.ide.model.segment.SimpleTextSegmentData",
                        "text": "Eliza Walsh"
                    },
                    "lblDropdown": {
                        "@class": "com.viz.ide.model.segment.SimpleTextSegmentData",
                        "text": "O"
                    },
                    "lblFeesPaidBy": {
                        "@class": "com.viz.ide.model.segment.SimpleTextSegmentData",
                        "text": "Banking"
                    },
                    "lblIcon": {
                        "@class": "com.viz.ide.model.segment.SimpleTextSegmentData",
                        "text": "r"
                    },
                    "lblSeparator": {
                        "@class": "com.viz.ide.model.segment.SimpleTextSegmentData",
                        "text": ""
                    }
                },
                {
                    "lblAmount": {
                        "@class": "com.viz.ide.model.segment.SimpleTextSegmentData",
                        "text": "$ 45,009"
                    },
                    "lblBeneficiaryName": {
                        "@class": "com.viz.ide.model.segment.SimpleTextSegmentData",
                        "text": "Eliza Walsh"
                    },
                    "lblDropdown": {
                        "@class": "com.viz.ide.model.segment.SimpleTextSegmentData",
                        "text": "O"
                    },
                    "lblFeesPaidBy": {
                        "@class": "com.viz.ide.model.segment.SimpleTextSegmentData",
                        "text": "Banking"
                    },
                    "lblIcon": {
                        "@class": "com.viz.ide.model.segment.SimpleTextSegmentData",
                        "text": "r"
                    },
                    "lblSeparator": {
                        "@class": "com.viz.ide.model.segment.SimpleTextSegmentData",
                        "text": ""
                    }
                },
                {
                    "lblAmount": {
                        "@class": "com.viz.ide.model.segment.SimpleTextSegmentData",
                        "text": "$ 45,009"
                    },
                    "lblBeneficiaryName": {
                        "@class": "com.viz.ide.model.segment.SimpleTextSegmentData",
                        "text": "Eliza Walsh"
                    },
                    "lblDropdown": {
                        "@class": "com.viz.ide.model.segment.SimpleTextSegmentData",
                        "text": "O"
                    },
                    "lblFeesPaidBy": {
                        "@class": "com.viz.ide.model.segment.SimpleTextSegmentData",
                        "text": "Banking"
                    },
                    "lblIcon": {
                        "@class": "com.viz.ide.model.segment.SimpleTextSegmentData",
                        "text": "r"
                    },
                    "lblSeparator": {
                        "@class": "com.viz.ide.model.segment.SimpleTextSegmentData",
                        "text": ""
                    }
                },
                {
                    "lblAmount": {
                        "@class": "com.viz.ide.model.segment.SimpleTextSegmentData",
                        "text": "$ 45,009"
                    },
                    "lblBeneficiaryName": {
                        "@class": "com.viz.ide.model.segment.SimpleTextSegmentData",
                        "text": "Eliza Walsh"
                    },
                    "lblDropdown": {
                        "@class": "com.viz.ide.model.segment.SimpleTextSegmentData",
                        "text": "O"
                    },
                    "lblFeesPaidBy": {
                        "@class": "com.viz.ide.model.segment.SimpleTextSegmentData",
                        "text": "Banking"
                    },
                    "lblIcon": {
                        "@class": "com.viz.ide.model.segment.SimpleTextSegmentData",
                        "text": "r"
                    },
                    "lblSeparator": {
                        "@class": "com.viz.ide.model.segment.SimpleTextSegmentData",
                        "text": ""
                    }
                },
                {
                    "lblAmount": {
                        "@class": "com.viz.ide.model.segment.SimpleTextSegmentData",
                        "text": "$ 45,009"
                    },
                    "lblBeneficiaryName": {
                        "@class": "com.viz.ide.model.segment.SimpleTextSegmentData",
                        "text": "Eliza Walsh"
                    },
                    "lblDropdown": {
                        "@class": "com.viz.ide.model.segment.SimpleTextSegmentData",
                        "text": "O"
                    },
                    "lblFeesPaidBy": {
                        "@class": "com.viz.ide.model.segment.SimpleTextSegmentData",
                        "text": "Banking"
                    },
                    "lblIcon": {
                        "@class": "com.viz.ide.model.segment.SimpleTextSegmentData",
                        "text": "r"
                    },
                    "lblSeparator": {
                        "@class": "com.viz.ide.model.segment.SimpleTextSegmentData",
                        "text": ""
                    }
                },
                {
                    "lblAmount": {
                        "@class": "com.viz.ide.model.segment.SimpleTextSegmentData",
                        "text": "$ 45,009"
                    },
                    "lblBeneficiaryName": {
                        "@class": "com.viz.ide.model.segment.SimpleTextSegmentData",
                        "text": "Eliza Walsh"
                    },
                    "lblDropdown": {
                        "@class": "com.viz.ide.model.segment.SimpleTextSegmentData",
                        "text": "O"
                    },
                    "lblFeesPaidBy": {
                        "@class": "com.viz.ide.model.segment.SimpleTextSegmentData",
                        "text": "Banking"
                    },
                    "lblIcon": {
                        "@class": "com.viz.ide.model.segment.SimpleTextSegmentData",
                        "text": "r"
                    },
                    "lblSeparator": {
                        "@class": "com.viz.ide.model.segment.SimpleTextSegmentData",
                        "text": ""
                    }
                },
                {
                    "lblAmount": {
                        "@class": "com.viz.ide.model.segment.SimpleTextSegmentData",
                        "text": "$ 45,009"
                    },
                    "lblBeneficiaryName": {
                        "@class": "com.viz.ide.model.segment.SimpleTextSegmentData",
                        "text": "Eliza Walsh"
                    },
                    "lblDropdown": {
                        "@class": "com.viz.ide.model.segment.SimpleTextSegmentData",
                        "text": "O"
                    },
                    "lblFeesPaidBy": {
                        "@class": "com.viz.ide.model.segment.SimpleTextSegmentData",
                        "text": "Banking"
                    },
                    "lblIcon": {
                        "@class": "com.viz.ide.model.segment.SimpleTextSegmentData",
                        "text": "r"
                    },
                    "lblSeparator": {
                        "@class": "com.viz.ide.model.segment.SimpleTextSegmentData",
                        "text": ""
                    }
                },
                {
                    "lblAmount": {
                        "@class": "com.viz.ide.model.segment.SimpleTextSegmentData",
                        "text": "$ 45,009"
                    },
                    "lblBeneficiaryName": {
                        "@class": "com.viz.ide.model.segment.SimpleTextSegmentData",
                        "text": "Eliza Walsh"
                    },
                    "lblDropdown": {
                        "@class": "com.viz.ide.model.segment.SimpleTextSegmentData",
                        "text": "O"
                    },
                    "lblFeesPaidBy": {
                        "@class": "com.viz.ide.model.segment.SimpleTextSegmentData",
                        "text": "Banking"
                    },
                    "lblIcon": {
                        "@class": "com.viz.ide.model.segment.SimpleTextSegmentData",
                        "text": "r"
                    },
                    "lblSeparator": {
                        "@class": "com.viz.ide.model.segment.SimpleTextSegmentData",
                        "text": ""
                    }
                },
                {
                    "lblAmount": {
                        "@class": "com.viz.ide.model.segment.SimpleTextSegmentData",
                        "text": "$ 45,009"
                    },
                    "lblBeneficiaryName": {
                        "@class": "com.viz.ide.model.segment.SimpleTextSegmentData",
                        "text": "Eliza Walsh"
                    },
                    "lblDropdown": {
                        "@class": "com.viz.ide.model.segment.SimpleTextSegmentData",
                        "text": "O"
                    },
                    "lblFeesPaidBy": {
                        "@class": "com.viz.ide.model.segment.SimpleTextSegmentData",
                        "text": "Banking"
                    },
                    "lblIcon": {
                        "@class": "com.viz.ide.model.segment.SimpleTextSegmentData",
                        "text": "r"
                    },
                    "lblSeparator": {
                        "@class": "com.viz.ide.model.segment.SimpleTextSegmentData",
                        "text": ""
                    }
                },
                {
                    "lblAmount": {
                        "@class": "com.viz.ide.model.segment.SimpleTextSegmentData",
                        "text": "$ 45,009"
                    },
                    "lblBeneficiaryName": {
                        "@class": "com.viz.ide.model.segment.SimpleTextSegmentData",
                        "text": "Eliza Walsh"
                    },
                    "lblDropdown": {
                        "@class": "com.viz.ide.model.segment.SimpleTextSegmentData",
                        "text": "O"
                    },
                    "lblFeesPaidBy": {
                        "@class": "com.viz.ide.model.segment.SimpleTextSegmentData",
                        "text": "Banking"
                    },
                    "lblIcon": {
                        "@class": "com.viz.ide.model.segment.SimpleTextSegmentData",
                        "text": "r"
                    },
                    "lblSeparator": {
                        "@class": "com.viz.ide.model.segment.SimpleTextSegmentData",
                        "text": ""
                    }
                },
                {
                    "lblAmount": {
                        "@class": "com.viz.ide.model.segment.SimpleTextSegmentData",
                        "text": "$ 45,009"
                    },
                    "lblBeneficiaryName": {
                        "@class": "com.viz.ide.model.segment.SimpleTextSegmentData",
                        "text": "Eliza Walsh"
                    },
                    "lblDropdown": {
                        "@class": "com.viz.ide.model.segment.SimpleTextSegmentData",
                        "text": "O"
                    },
                    "lblFeesPaidBy": {
                        "@class": "com.viz.ide.model.segment.SimpleTextSegmentData",
                        "text": "Banking"
                    },
                    "lblIcon": {
                        "@class": "com.viz.ide.model.segment.SimpleTextSegmentData",
                        "text": "r"
                    },
                    "lblSeparator": {
                        "@class": "com.viz.ide.model.segment.SimpleTextSegmentData",
                        "text": ""
                    }
                },
                {
                    "lblAmount": {
                        "@class": "com.viz.ide.model.segment.SimpleTextSegmentData",
                        "text": "$ 45,009"
                    },
                    "lblBeneficiaryName": {
                        "@class": "com.viz.ide.model.segment.SimpleTextSegmentData",
                        "text": "Eliza Walsh"
                    },
                    "lblDropdown": {
                        "@class": "com.viz.ide.model.segment.SimpleTextSegmentData",
                        "text": "O"
                    },
                    "lblFeesPaidBy": {
                        "@class": "com.viz.ide.model.segment.SimpleTextSegmentData",
                        "text": "Banking"
                    },
                    "lblIcon": {
                        "@class": "com.viz.ide.model.segment.SimpleTextSegmentData",
                        "text": "r"
                    },
                    "lblSeparator": {
                        "@class": "com.viz.ide.model.segment.SimpleTextSegmentData",
                        "text": ""
                    }
                },
                {
                    "lblAmount": {
                        "@class": "com.viz.ide.model.segment.SimpleTextSegmentData",
                        "text": "$ 45,009"
                    },
                    "lblBeneficiaryName": {
                        "@class": "com.viz.ide.model.segment.SimpleTextSegmentData",
                        "text": "Eliza Walsh"
                    },
                    "lblDropdown": {
                        "@class": "com.viz.ide.model.segment.SimpleTextSegmentData",
                        "text": "O"
                    },
                    "lblFeesPaidBy": {
                        "@class": "com.viz.ide.model.segment.SimpleTextSegmentData",
                        "text": "Banking"
                    },
                    "lblIcon": {
                        "@class": "com.viz.ide.model.segment.SimpleTextSegmentData",
                        "text": "r"
                    },
                    "lblSeparator": {
                        "@class": "com.viz.ide.model.segment.SimpleTextSegmentData",
                        "text": ""
                    }
                },
                {
                    "lblAmount": {
                        "@class": "com.viz.ide.model.segment.SimpleTextSegmentData",
                        "text": "$ 45,009"
                    },
                    "lblBeneficiaryName": {
                        "@class": "com.viz.ide.model.segment.SimpleTextSegmentData",
                        "text": "Eliza Walsh"
                    },
                    "lblDropdown": {
                        "@class": "com.viz.ide.model.segment.SimpleTextSegmentData",
                        "text": "O"
                    },
                    "lblFeesPaidBy": {
                        "@class": "com.viz.ide.model.segment.SimpleTextSegmentData",
                        "text": "Banking"
                    },
                    "lblIcon": {
                        "@class": "com.viz.ide.model.segment.SimpleTextSegmentData",
                        "text": "r"
                    },
                    "lblSeparator": {
                        "@class": "com.viz.ide.model.segment.SimpleTextSegmentData",
                        "text": ""
                    }
                },
                {
                    "lblAmount": {
                        "@class": "com.viz.ide.model.segment.SimpleTextSegmentData",
                        "text": "$ 45,009"
                    },
                    "lblBeneficiaryName": {
                        "@class": "com.viz.ide.model.segment.SimpleTextSegmentData",
                        "text": "Eliza Walsh"
                    },
                    "lblDropdown": {
                        "@class": "com.viz.ide.model.segment.SimpleTextSegmentData",
                        "text": "O"
                    },
                    "lblFeesPaidBy": {
                        "@class": "com.viz.ide.model.segment.SimpleTextSegmentData",
                        "text": "Banking"
                    },
                    "lblIcon": {
                        "@class": "com.viz.ide.model.segment.SimpleTextSegmentData",
                        "text": "r"
                    },
                    "lblSeparator": {
                        "@class": "com.viz.ide.model.segment.SimpleTextSegmentData",
                        "text": ""
                    }
                },
                {
                    "lblAmount": {
                        "@class": "com.viz.ide.model.segment.SimpleTextSegmentData",
                        "text": "$ 45,009"
                    },
                    "lblBeneficiaryName": {
                        "@class": "com.viz.ide.model.segment.SimpleTextSegmentData",
                        "text": "Eliza Walsh"
                    },
                    "lblDropdown": {
                        "@class": "com.viz.ide.model.segment.SimpleTextSegmentData",
                        "text": "O"
                    },
                    "lblFeesPaidBy": {
                        "@class": "com.viz.ide.model.segment.SimpleTextSegmentData",
                        "text": "Banking"
                    },
                    "lblIcon": {
                        "@class": "com.viz.ide.model.segment.SimpleTextSegmentData",
                        "text": "r"
                    },
                    "lblSeparator": {
                        "@class": "com.viz.ide.model.segment.SimpleTextSegmentData",
                        "text": ""
                    }
                },
                {
                    "lblAmount": {
                        "@class": "com.viz.ide.model.segment.SimpleTextSegmentData",
                        "text": "$ 45,009"
                    },
                    "lblBeneficiaryName": {
                        "@class": "com.viz.ide.model.segment.SimpleTextSegmentData",
                        "text": "Eliza Walsh"
                    },
                    "lblDropdown": {
                        "@class": "com.viz.ide.model.segment.SimpleTextSegmentData",
                        "text": "O"
                    },
                    "lblFeesPaidBy": {
                        "@class": "com.viz.ide.model.segment.SimpleTextSegmentData",
                        "text": "Banking"
                    },
                    "lblIcon": {
                        "@class": "com.viz.ide.model.segment.SimpleTextSegmentData",
                        "text": "r"
                    },
                    "lblSeparator": {
                        "@class": "com.viz.ide.model.segment.SimpleTextSegmentData",
                        "text": ""
                    }
                },
                {
                    "lblAmount": {
                        "@class": "com.viz.ide.model.segment.SimpleTextSegmentData",
                        "text": "$ 45,009"
                    },
                    "lblBeneficiaryName": {
                        "@class": "com.viz.ide.model.segment.SimpleTextSegmentData",
                        "text": "Eliza Walsh"
                    },
                    "lblDropdown": {
                        "@class": "com.viz.ide.model.segment.SimpleTextSegmentData",
                        "text": "O"
                    },
                    "lblFeesPaidBy": {
                        "@class": "com.viz.ide.model.segment.SimpleTextSegmentData",
                        "text": "Banking"
                    },
                    "lblIcon": {
                        "@class": "com.viz.ide.model.segment.SimpleTextSegmentData",
                        "text": "r"
                    },
                    "lblSeparator": {
                        "@class": "com.viz.ide.model.segment.SimpleTextSegmentData",
                        "text": ""
                    }
                }
            ]
        ],
        [{
                "lblHeader": {
                    "@class": "com.viz.ide.model.segment.SimpleTextSegmentData",
                    "text": "Label"
                },
                "lblSelectAll": {
                    "@class": "com.viz.ide.model.segment.SimpleTextSegmentData",
                    "text": ""
                },
                "lblSeparator": {
                    "@class": "com.viz.ide.model.segment.SimpleTextSegmentData",
                    "text": ""
                },
                "lblStatusHeader": {
                    "@class": "com.viz.ide.model.segment.SimpleTextSegmentData",
                    "text": "D"
                }
            },
            [{
                    "lblAmount": {
                        "@class": "com.viz.ide.model.segment.SimpleTextSegmentData",
                        "text": "$ 45,009"
                    },
                    "lblBeneficiaryName": {
                        "@class": "com.viz.ide.model.segment.SimpleTextSegmentData",
                        "text": "Eliza Walsh"
                    },
                    "lblDropdown": {
                        "@class": "com.viz.ide.model.segment.SimpleTextSegmentData",
                        "text": "O"
                    },
                    "lblFeesPaidBy": {
                        "@class": "com.viz.ide.model.segment.SimpleTextSegmentData",
                        "text": "Banking"
                    },
                    "lblIcon": {
                        "@class": "com.viz.ide.model.segment.SimpleTextSegmentData",
                        "text": "r"
                    },
                    "lblSeparator": {
                        "@class": "com.viz.ide.model.segment.SimpleTextSegmentData",
                        "text": ""
                    }
                },
                {
                    "lblAmount": {
                        "@class": "com.viz.ide.model.segment.SimpleTextSegmentData",
                        "text": "$ 45,009"
                    },
                    "lblBeneficiaryName": {
                        "@class": "com.viz.ide.model.segment.SimpleTextSegmentData",
                        "text": "Eliza Walsh"
                    },
                    "lblDropdown": {
                        "@class": "com.viz.ide.model.segment.SimpleTextSegmentData",
                        "text": "O"
                    },
                    "lblFeesPaidBy": {
                        "@class": "com.viz.ide.model.segment.SimpleTextSegmentData",
                        "text": "Banking"
                    },
                    "lblIcon": {
                        "@class": "com.viz.ide.model.segment.SimpleTextSegmentData",
                        "text": "r"
                    },
                    "lblSeparator": {
                        "@class": "com.viz.ide.model.segment.SimpleTextSegmentData",
                        "text": ""
                    }
                },
                {
                    "lblAmount": {
                        "@class": "com.viz.ide.model.segment.SimpleTextSegmentData",
                        "text": "$ 45,009"
                    },
                    "lblBeneficiaryName": {
                        "@class": "com.viz.ide.model.segment.SimpleTextSegmentData",
                        "text": "Eliza Walsh"
                    },
                    "lblDropdown": {
                        "@class": "com.viz.ide.model.segment.SimpleTextSegmentData",
                        "text": "O"
                    },
                    "lblFeesPaidBy": {
                        "@class": "com.viz.ide.model.segment.SimpleTextSegmentData",
                        "text": "Banking"
                    },
                    "lblIcon": {
                        "@class": "com.viz.ide.model.segment.SimpleTextSegmentData",
                        "text": "r"
                    },
                    "lblSeparator": {
                        "@class": "com.viz.ide.model.segment.SimpleTextSegmentData",
                        "text": ""
                    }
                },
                {
                    "lblAmount": {
                        "@class": "com.viz.ide.model.segment.SimpleTextSegmentData",
                        "text": "$ 45,009"
                    },
                    "lblBeneficiaryName": {
                        "@class": "com.viz.ide.model.segment.SimpleTextSegmentData",
                        "text": "Eliza Walsh"
                    },
                    "lblDropdown": {
                        "@class": "com.viz.ide.model.segment.SimpleTextSegmentData",
                        "text": "O"
                    },
                    "lblFeesPaidBy": {
                        "@class": "com.viz.ide.model.segment.SimpleTextSegmentData",
                        "text": "Banking"
                    },
                    "lblIcon": {
                        "@class": "com.viz.ide.model.segment.SimpleTextSegmentData",
                        "text": "r"
                    },
                    "lblSeparator": {
                        "@class": "com.viz.ide.model.segment.SimpleTextSegmentData",
                        "text": ""
                    }
                },
                {
                    "lblAmount": {
                        "@class": "com.viz.ide.model.segment.SimpleTextSegmentData",
                        "text": "$ 45,009"
                    },
                    "lblBeneficiaryName": {
                        "@class": "com.viz.ide.model.segment.SimpleTextSegmentData",
                        "text": "Eliza Walsh"
                    },
                    "lblDropdown": {
                        "@class": "com.viz.ide.model.segment.SimpleTextSegmentData",
                        "text": "O"
                    },
                    "lblFeesPaidBy": {
                        "@class": "com.viz.ide.model.segment.SimpleTextSegmentData",
                        "text": "Banking"
                    },
                    "lblIcon": {
                        "@class": "com.viz.ide.model.segment.SimpleTextSegmentData",
                        "text": "r"
                    },
                    "lblSeparator": {
                        "@class": "com.viz.ide.model.segment.SimpleTextSegmentData",
                        "text": ""
                    }
                },
                {
                    "lblAmount": {
                        "@class": "com.viz.ide.model.segment.SimpleTextSegmentData",
                        "text": "$ 45,009"
                    },
                    "lblBeneficiaryName": {
                        "@class": "com.viz.ide.model.segment.SimpleTextSegmentData",
                        "text": "Eliza Walsh"
                    },
                    "lblDropdown": {
                        "@class": "com.viz.ide.model.segment.SimpleTextSegmentData",
                        "text": "O"
                    },
                    "lblFeesPaidBy": {
                        "@class": "com.viz.ide.model.segment.SimpleTextSegmentData",
                        "text": "Banking"
                    },
                    "lblIcon": {
                        "@class": "com.viz.ide.model.segment.SimpleTextSegmentData",
                        "text": "r"
                    },
                    "lblSeparator": {
                        "@class": "com.viz.ide.model.segment.SimpleTextSegmentData",
                        "text": ""
                    }
                },
                {
                    "lblAmount": {
                        "@class": "com.viz.ide.model.segment.SimpleTextSegmentData",
                        "text": "$ 45,009"
                    },
                    "lblBeneficiaryName": {
                        "@class": "com.viz.ide.model.segment.SimpleTextSegmentData",
                        "text": "Eliza Walsh"
                    },
                    "lblDropdown": {
                        "@class": "com.viz.ide.model.segment.SimpleTextSegmentData",
                        "text": "O"
                    },
                    "lblFeesPaidBy": {
                        "@class": "com.viz.ide.model.segment.SimpleTextSegmentData",
                        "text": "Banking"
                    },
                    "lblIcon": {
                        "@class": "com.viz.ide.model.segment.SimpleTextSegmentData",
                        "text": "r"
                    },
                    "lblSeparator": {
                        "@class": "com.viz.ide.model.segment.SimpleTextSegmentData",
                        "text": ""
                    }
                },
                {
                    "lblAmount": {
                        "@class": "com.viz.ide.model.segment.SimpleTextSegmentData",
                        "text": "$ 45,009"
                    },
                    "lblBeneficiaryName": {
                        "@class": "com.viz.ide.model.segment.SimpleTextSegmentData",
                        "text": "Eliza Walsh"
                    },
                    "lblDropdown": {
                        "@class": "com.viz.ide.model.segment.SimpleTextSegmentData",
                        "text": "O"
                    },
                    "lblFeesPaidBy": {
                        "@class": "com.viz.ide.model.segment.SimpleTextSegmentData",
                        "text": "Banking"
                    },
                    "lblIcon": {
                        "@class": "com.viz.ide.model.segment.SimpleTextSegmentData",
                        "text": "r"
                    },
                    "lblSeparator": {
                        "@class": "com.viz.ide.model.segment.SimpleTextSegmentData",
                        "text": ""
                    }
                },
                {
                    "lblAmount": {
                        "@class": "com.viz.ide.model.segment.SimpleTextSegmentData",
                        "text": "$ 45,009"
                    },
                    "lblBeneficiaryName": {
                        "@class": "com.viz.ide.model.segment.SimpleTextSegmentData",
                        "text": "Eliza Walsh"
                    },
                    "lblDropdown": {
                        "@class": "com.viz.ide.model.segment.SimpleTextSegmentData",
                        "text": "O"
                    },
                    "lblFeesPaidBy": {
                        "@class": "com.viz.ide.model.segment.SimpleTextSegmentData",
                        "text": "Banking"
                    },
                    "lblIcon": {
                        "@class": "com.viz.ide.model.segment.SimpleTextSegmentData",
                        "text": "r"
                    },
                    "lblSeparator": {
                        "@class": "com.viz.ide.model.segment.SimpleTextSegmentData",
                        "text": ""
                    }
                },
                {
                    "lblAmount": {
                        "@class": "com.viz.ide.model.segment.SimpleTextSegmentData",
                        "text": "$ 45,009"
                    },
                    "lblBeneficiaryName": {
                        "@class": "com.viz.ide.model.segment.SimpleTextSegmentData",
                        "text": "Eliza Walsh"
                    },
                    "lblDropdown": {
                        "@class": "com.viz.ide.model.segment.SimpleTextSegmentData",
                        "text": "O"
                    },
                    "lblFeesPaidBy": {
                        "@class": "com.viz.ide.model.segment.SimpleTextSegmentData",
                        "text": "Banking"
                    },
                    "lblIcon": {
                        "@class": "com.viz.ide.model.segment.SimpleTextSegmentData",
                        "text": "r"
                    },
                    "lblSeparator": {
                        "@class": "com.viz.ide.model.segment.SimpleTextSegmentData",
                        "text": ""
                    }
                },
                {
                    "lblAmount": {
                        "@class": "com.viz.ide.model.segment.SimpleTextSegmentData",
                        "text": "$ 45,009"
                    },
                    "lblBeneficiaryName": {
                        "@class": "com.viz.ide.model.segment.SimpleTextSegmentData",
                        "text": "Eliza Walsh"
                    },
                    "lblDropdown": {
                        "@class": "com.viz.ide.model.segment.SimpleTextSegmentData",
                        "text": "O"
                    },
                    "lblFeesPaidBy": {
                        "@class": "com.viz.ide.model.segment.SimpleTextSegmentData",
                        "text": "Banking"
                    },
                    "lblIcon": {
                        "@class": "com.viz.ide.model.segment.SimpleTextSegmentData",
                        "text": "r"
                    },
                    "lblSeparator": {
                        "@class": "com.viz.ide.model.segment.SimpleTextSegmentData",
                        "text": ""
                    }
                },
                {
                    "lblAmount": {
                        "@class": "com.viz.ide.model.segment.SimpleTextSegmentData",
                        "text": "$ 45,009"
                    },
                    "lblBeneficiaryName": {
                        "@class": "com.viz.ide.model.segment.SimpleTextSegmentData",
                        "text": "Eliza Walsh"
                    },
                    "lblDropdown": {
                        "@class": "com.viz.ide.model.segment.SimpleTextSegmentData",
                        "text": "O"
                    },
                    "lblFeesPaidBy": {
                        "@class": "com.viz.ide.model.segment.SimpleTextSegmentData",
                        "text": "Banking"
                    },
                    "lblIcon": {
                        "@class": "com.viz.ide.model.segment.SimpleTextSegmentData",
                        "text": "r"
                    },
                    "lblSeparator": {
                        "@class": "com.viz.ide.model.segment.SimpleTextSegmentData",
                        "text": ""
                    }
                },
                {
                    "lblAmount": {
                        "@class": "com.viz.ide.model.segment.SimpleTextSegmentData",
                        "text": "$ 45,009"
                    },
                    "lblBeneficiaryName": {
                        "@class": "com.viz.ide.model.segment.SimpleTextSegmentData",
                        "text": "Eliza Walsh"
                    },
                    "lblDropdown": {
                        "@class": "com.viz.ide.model.segment.SimpleTextSegmentData",
                        "text": "O"
                    },
                    "lblFeesPaidBy": {
                        "@class": "com.viz.ide.model.segment.SimpleTextSegmentData",
                        "text": "Banking"
                    },
                    "lblIcon": {
                        "@class": "com.viz.ide.model.segment.SimpleTextSegmentData",
                        "text": "r"
                    },
                    "lblSeparator": {
                        "@class": "com.viz.ide.model.segment.SimpleTextSegmentData",
                        "text": ""
                    }
                },
                {
                    "lblAmount": {
                        "@class": "com.viz.ide.model.segment.SimpleTextSegmentData",
                        "text": "$ 45,009"
                    },
                    "lblBeneficiaryName": {
                        "@class": "com.viz.ide.model.segment.SimpleTextSegmentData",
                        "text": "Eliza Walsh"
                    },
                    "lblDropdown": {
                        "@class": "com.viz.ide.model.segment.SimpleTextSegmentData",
                        "text": "O"
                    },
                    "lblFeesPaidBy": {
                        "@class": "com.viz.ide.model.segment.SimpleTextSegmentData",
                        "text": "Banking"
                    },
                    "lblIcon": {
                        "@class": "com.viz.ide.model.segment.SimpleTextSegmentData",
                        "text": "r"
                    },
                    "lblSeparator": {
                        "@class": "com.viz.ide.model.segment.SimpleTextSegmentData",
                        "text": ""
                    }
                },
                {
                    "lblAmount": {
                        "@class": "com.viz.ide.model.segment.SimpleTextSegmentData",
                        "text": "$ 45,009"
                    },
                    "lblBeneficiaryName": {
                        "@class": "com.viz.ide.model.segment.SimpleTextSegmentData",
                        "text": "Eliza Walsh"
                    },
                    "lblDropdown": {
                        "@class": "com.viz.ide.model.segment.SimpleTextSegmentData",
                        "text": "O"
                    },
                    "lblFeesPaidBy": {
                        "@class": "com.viz.ide.model.segment.SimpleTextSegmentData",
                        "text": "Banking"
                    },
                    "lblIcon": {
                        "@class": "com.viz.ide.model.segment.SimpleTextSegmentData",
                        "text": "r"
                    },
                    "lblSeparator": {
                        "@class": "com.viz.ide.model.segment.SimpleTextSegmentData",
                        "text": ""
                    }
                },
                {
                    "lblAmount": {
                        "@class": "com.viz.ide.model.segment.SimpleTextSegmentData",
                        "text": "$ 45,009"
                    },
                    "lblBeneficiaryName": {
                        "@class": "com.viz.ide.model.segment.SimpleTextSegmentData",
                        "text": "Eliza Walsh"
                    },
                    "lblDropdown": {
                        "@class": "com.viz.ide.model.segment.SimpleTextSegmentData",
                        "text": "O"
                    },
                    "lblFeesPaidBy": {
                        "@class": "com.viz.ide.model.segment.SimpleTextSegmentData",
                        "text": "Banking"
                    },
                    "lblIcon": {
                        "@class": "com.viz.ide.model.segment.SimpleTextSegmentData",
                        "text": "r"
                    },
                    "lblSeparator": {
                        "@class": "com.viz.ide.model.segment.SimpleTextSegmentData",
                        "text": ""
                    }
                },
                {
                    "lblAmount": {
                        "@class": "com.viz.ide.model.segment.SimpleTextSegmentData",
                        "text": "$ 45,009"
                    },
                    "lblBeneficiaryName": {
                        "@class": "com.viz.ide.model.segment.SimpleTextSegmentData",
                        "text": "Eliza Walsh"
                    },
                    "lblDropdown": {
                        "@class": "com.viz.ide.model.segment.SimpleTextSegmentData",
                        "text": "O"
                    },
                    "lblFeesPaidBy": {
                        "@class": "com.viz.ide.model.segment.SimpleTextSegmentData",
                        "text": "Banking"
                    },
                    "lblIcon": {
                        "@class": "com.viz.ide.model.segment.SimpleTextSegmentData",
                        "text": "r"
                    },
                    "lblSeparator": {
                        "@class": "com.viz.ide.model.segment.SimpleTextSegmentData",
                        "text": ""
                    }
                },
                {
                    "lblAmount": {
                        "@class": "com.viz.ide.model.segment.SimpleTextSegmentData",
                        "text": "$ 45,009"
                    },
                    "lblBeneficiaryName": {
                        "@class": "com.viz.ide.model.segment.SimpleTextSegmentData",
                        "text": "Eliza Walsh"
                    },
                    "lblDropdown": {
                        "@class": "com.viz.ide.model.segment.SimpleTextSegmentData",
                        "text": "O"
                    },
                    "lblFeesPaidBy": {
                        "@class": "com.viz.ide.model.segment.SimpleTextSegmentData",
                        "text": "Banking"
                    },
                    "lblIcon": {
                        "@class": "com.viz.ide.model.segment.SimpleTextSegmentData",
                        "text": "r"
                    },
                    "lblSeparator": {
                        "@class": "com.viz.ide.model.segment.SimpleTextSegmentData",
                        "text": ""
                    }
                },
                {
                    "lblAmount": {
                        "@class": "com.viz.ide.model.segment.SimpleTextSegmentData",
                        "text": "$ 45,009"
                    },
                    "lblBeneficiaryName": {
                        "@class": "com.viz.ide.model.segment.SimpleTextSegmentData",
                        "text": "Eliza Walsh"
                    },
                    "lblDropdown": {
                        "@class": "com.viz.ide.model.segment.SimpleTextSegmentData",
                        "text": "O"
                    },
                    "lblFeesPaidBy": {
                        "@class": "com.viz.ide.model.segment.SimpleTextSegmentData",
                        "text": "Banking"
                    },
                    "lblIcon": {
                        "@class": "com.viz.ide.model.segment.SimpleTextSegmentData",
                        "text": "r"
                    },
                    "lblSeparator": {
                        "@class": "com.viz.ide.model.segment.SimpleTextSegmentData",
                        "text": ""
                    }
                },
                {
                    "lblAmount": {
                        "@class": "com.viz.ide.model.segment.SimpleTextSegmentData",
                        "text": "$ 45,009"
                    },
                    "lblBeneficiaryName": {
                        "@class": "com.viz.ide.model.segment.SimpleTextSegmentData",
                        "text": "Eliza Walsh"
                    },
                    "lblDropdown": {
                        "@class": "com.viz.ide.model.segment.SimpleTextSegmentData",
                        "text": "O"
                    },
                    "lblFeesPaidBy": {
                        "@class": "com.viz.ide.model.segment.SimpleTextSegmentData",
                        "text": "Banking"
                    },
                    "lblIcon": {
                        "@class": "com.viz.ide.model.segment.SimpleTextSegmentData",
                        "text": "r"
                    },
                    "lblSeparator": {
                        "@class": "com.viz.ide.model.segment.SimpleTextSegmentData",
                        "text": ""
                    }
                }
            ]
        ]
    ],
    "_height_": {
        "type": "ref",
        "value": "preferred"
    },
    "_indicator_": "none",
    "_left_": {
        "type": "string",
        "value": "0dp"
    },
    "_margin_": [
        0,
        0,
        0,
        0
    ],
    "_orientation_": 2,
    "_padding_": [
        0,
        0,
        0,
        0
    ],
    "_top_": {
        "type": "string",
        "value": "0dp"
    },
    "_width_": {
        "type": "string",
        "value": "100%"
    },
    "autogrowmode": 1,
    "canUpdateUI": true,
    "containerweight": 100,
    "counter": "119",
    "disabledSkins": {},
    "focusedindex": null,
    "focuseditem": null,
    "groupcells": false,
    "hasSections": true,
    "id": "segmentViewTemplateData",
    "info": null,
    "ipad": {
        "psp": {
            "indicator": "rowselect"
        }
    },
    "iphone": {
        "psp": {
            "indicator": "rowselect"
        }
    },
    "isvisible": true,
    "kuid": "h2581ac3e094469ebb3784baf2edf27d",
    "masterdata": {},
    "name": "kony.ui.SegmentedUI2",
    "needpageindicator": true,
    "pageoffdotimage": "pageoffdot.png",
    "pageondotimage": "pageondot.png",
    "paginationconfig": {
        "position": "bottom"
    },
    "parent": "flxViewTemplateSegment",
    "pf": "frmBulkPaymentsTemplate",
    "responsiveData": {
        "b2": {
            "bottom": {
                "type": "string",
                "value": ""
            }
        },
        "b3": {
            "width": {
                "type": "string",
                "value": "100%"
            }
        }
    },
    "retainselection": false,
    "rowTemplateId": "ecb860a6e346498389b8e1ab370c3eb2",
    "rowcounter": 19,
    "rowfocusskin": "s9f69e977910472eb44c62ae28c41fe1",
    "rowskin": "scf5f90f6ac04976ab88b2a4f7153285",
    "rowtemplate": "flxBulkPaymentViewTemplateRow",
    "screenlevelwidget": false,
    "seccounter": 1,
    "sectionHeaderTemplateId": "i012063fa5334465ad97e9175eb597ab",
    "sectionheaderskin": "sdc4ff4ed1584272be2ae69045dfb29d",
    "sectionheadertemplate": "flxBulkPaymentViewTemplateHeader",
    "selectedRows": null,
    "selectedState": false,
    "selectedindex": null,
    "selectedindices": null,
    "selecteditems": null,
    "selectedsectionindex": 0,
    "selectionbehavior": "default",
    "separatorrequired": false,
    "showscrollbars": false,
    "viewtype": "tableview",
    "vizProps": {},
    "wType": "Segment",
    "widgetalignment": 5,
    "widgetdatamap": {
        "flxAmount": "flxAmount",
        "flxBeneficiaryName": "flxBeneficiaryName",
        "flxBulkPaymentViewTemplateHeader": "flxBulkPaymentViewTemplateHeader",
        "flxBulkPaymentViewTemplateRow": "flxBulkPaymentViewTemplateRow",
        "flxDropdown": "flxDropdown",
        "flxFeesPaidBy": "flxFeesPaidBy",
        "flxSegBulkPaymentViewTemplateWrapper": "flxSegBulkPaymentViewTemplateWrapper",
        "flxSelectAll": "flxSelectAll",
        "flxStatusHeader": "flxStatusHeader",
        "flxWrapper": "flxWrapper",
        "lblAmount": "lblAmount",
        "lblBeneficiaryName": "lblBeneficiaryName",
        "lblDropdown": "lblDropdown",
        "lblFeesPaidBy": "lblFeesPaidBy",
        "lblHeader": "lblHeader",
        "lblIcon": "lblIcon",
        "lblSelectAll": "lblSelectAll",
        "lblSeparator": "lblSeparator",
        "lblStatusHeader": "lblStatusHeader"
    },
    "zindex": 1
}