{
    "@class": "com.kony.gen.viz.model.component.KVizTextBox2",
    "DNDConfig": null,
    "_height_": {
        "type": "string",
        "value": "100%"
    },
    "_left_": {
        "type": "string",
        "value": "34dp"
    },
    "_margin_": [
        0,
        0,
        0,
        0
    ],
    "_padding_": [
        3,
        0,
        0,
        0
    ],
    "_placeholder_": "",
    "_skin_": "s125de0fb2094e22a73b3ac2549fb05c",
    "_text_": "",
    "_top_": {
        "type": "string",
        "value": "10dp"
    },
    "_width_": {
        "type": "string",
        "value": "100%"
    },
    "autocapitalize": "none",
    "autocomplete": false,
    "autocorrect": false,
    "autofilter": false,
    "canUpdateUI": true,
    "centerx": {
        "type": "string",
        "value": "50%"
    },
    "centery": {
        "type": "string",
        "value": "50%"
    },
    "containerheight": "",
    "containerheightmode": 1,
    "containerweight": 100,
    "contentalignment": 4,
    "desktopweb": {
        "placeholderSkin": "s38834f7b6374aa597f26c3d9367ae84"
    },
    "disabledSkins": {},
    "focusskin": "s125de0fb2094e22a73b3ac2549fb05c",
    "id": "tbxTemplateDescription",
    "info": null,
    "iscustomlayout": false,
    "isvisible": true,
    "keyboardtype": "A",
    "kuid": "h0f22faeb37f411e872e9ec3c8091bf7",
    "mode": "A",
    "name": "kony.ui.TextBox2",
    "paddinginpixel": false,
    "parent": "flxTemplateDescription",
    "pf": "frmBulkPaymentsTemplate",
    "placeholderskin": "s38834f7b6374aa597f26c3d9367ae84",
    "responsiveData": {
        "b1": {
            "skin": "s125de0fb2094e22a73b3ac2549fb05c"
        },
        "b3": {
            "padding": [
                2,
                0,
                0,
                0
            ]
        }
    },
    "retaincontentalignment": false,
    "retainflexpositionproperties": false,
    "securetextentry": false,
    "textinputmode": "A",
    "tooltip": "",
    "viewtype": "default",
    "wType": "TextField",
    "zindex": 1
}