{
    "DNDConfig": null,
    "_height_": {
        "type": "string",
        "value": "240dp"
    },
    "_left_": {
        "type": "string",
        "value": "0dp"
    },
    "_margin_": [
        0,
        0,
        0,
        0
    ],
    "_orientation_": 6,
    "_padding_": [
        0,
        0,
        0,
        0
    ],
    "_percent_": true,
    "_skin_": "s53f49af3c0b48ce84224ff45ee570ec",
    "_top_": {
        "type": "string",
        "value": "0"
    },
    "_width_": {
        "type": "string",
        "value": "0.37%"
    },
    "allboxes": [],
    "autogrowmode": 0,
    "canUpdateUI": true,
    "children": [
        "CopyimgSample0h544e7378d6e46"
    ],
    "clipbounds": true,
    "containerId": true,
    "containerweight": 100,
    "enablescrolling": true,
    "id": "flxDetilsHighlighterMain",
    "info": null,
    "iscustomlayout": false,
    "isvisible": false,
    "kuid": "a9d92f0468f2422690d521b5f8987b83",
    "layouttype": 2,
    "name": "kony.ui.FlexContainer",
    "parent": "flxApprovalHistoryRowTemplate",
    "pf": "segApprovalHistoryRowTemplate",
    "retaincontentalignment": false,
    "retainflexpositionproperties": false,
    "snapgridsize": 10,
    "snaptogrid": true,
    "wType": "FlexContainer",
    "widgetalignment": 1,
    "zindex": 1
}