{
    "DNDConfig": null,
    "_height_": {
        "type": "string",
        "value": "220dp"
    },
    "_left_": {
        "type": "string",
        "value": "14dp"
    },
    "_margin_": [
        0,
        0,
        0,
        0
    ],
    "_orientation_": 6,
    "_padding_": [
        0,
        0,
        0,
        0
    ],
    "_percent_": true,
    "_right_": {
        "type": "number",
        "value": ""
    },
    "_skin_": "s24c92fc23b14f5484b693ee9b8a9b35",
    "_top_": {
        "type": "string",
        "value": "4dp"
    },
    "_width_": {
        "type": "string",
        "value": "100%"
    },
    "accessibilityconfig": {
        "a11yARIA": {
            "tabindex": 1
        }
    },
    "allboxes": [],
    "canUpdateUI": true,
    "children": [
        "lblMapView",
        "lblMapViewIcon"
    ],
    "clipbounds": true,
    "containerweight": 100,
    "enablescrolling": true,
    "id": "flxShowMapView",
    "info": null,
    "iscustomlayout": false,
    "isvisible": true,
    "kuid": "d85830ea50e040a6b27261b6b63dfaaa",
    "layouttype": 2,
    "name": "kony.ui.FlexContainer",
    "parent": "flxButtonsWrapper",
    "pf": "frmLocateUsBranchTab",
    "responsiveData": {
        "b3": {
            "height": {
                "type": "string",
                "value": "40dp"
            },
            "isVisible": true,
            "left": {
                "type": "string",
                "value": ""
            },
            "right": {
                "type": "number",
                "value": "0"
            },
            "skin": "s24c92fc23b14f5484b693ee9b8a9b35",
            "top": {
                "type": "string",
                "value": "0dp"
            },
            "width": {
                "type": "string",
                "value": "50%"
            }
        }
    },
    "retaincontentalignment": false,
    "retainflexpositionproperties": false,
    "snapgridsize": 10,
    "snaptogrid": true,
    "wType": "FlexContainer",
    "widgetalignment": 1,
    "zindex": 1
}