{
    "DNDConfig": null,
    "_height_": {
        "type": "string",
        "value": "40dp"
    },
    "_margin_": [
        0,
        0,
        0,
        0
    ],
    "_orientation_": 6,
    "_padding_": [
        0,
        0,
        0,
        0
    ],
    "_percent_": true,
    "_right_": {
        "type": "string",
        "value": "2.88%"
    },
    "_skin_": "s96c1ab807354105a41f9db9f44c1d73",
    "_top_": {
        "type": "string",
        "value": "20dp"
    },
    "_width_": {
        "type": "string",
        "value": "81px"
    },
    "allboxes": [],
    "autogrowmode": 0,
    "canUpdateUI": true,
    "children": [
        "flxZoomIn",
        "flxZoomSeperator",
        "flxZoomOut"
    ],
    "clipbounds": true,
    "containerweight": 100,
    "enablescrolling": true,
    "id": "flxZoom",
    "info": null,
    "isvisible": true,
    "kuid": "d8879d33085a401a9d3ac16a509e7794",
    "layouttype": 2,
    "name": "kony.ui.FlexContainer",
    "parent": "flxRightContent",
    "pf": "frmLocateUsBranchTab",
    "responsiveData": {
        "b3": {
            "isVisible": false
        }
    },
    "snapgridsize": 10,
    "snaptogrid": true,
    "wType": "FlexContainer",
    "widgetalignment": 1,
    "zindex": 2
}