{
    "@class": "com.kony.gen.viz.model.container.KVizSegment2",
    "DNDConfig": null,
    "_bottom_": {
        "type": "string",
        "value": "0dp"
    },
    "_data_": [{
            "imgBuildingType": {
                "@class": "com.viz.ide.model.segment.ImageSegmentData",
                "src": "bank_icon.png"
            },
            "imgGo": {
                "@class": "com.viz.ide.model.segment.SimpleTextSegmentData",
                "text": "Q"
            },
            "imgIndicator": {
                "@class": "com.viz.ide.model.segment.ImageSegmentData",
                "src": "accounts_sidebar_blue.png"
            },
            "lblAddress": {
                "@class": "com.viz.ide.model.segment.SimpleTextSegmentData",
                "text": "504, Market street, Austin504, Market street, Austin504, Market street, Austin"
            },
            "lblClosed": {
                "@class": "com.viz.ide.model.segment.SimpleTextSegmentData",
                "text": "CLOSED"
            },
            "lblDistance": {
                "@class": "com.viz.ide.model.segment.SimpleTextSegmentData",
                "text": "2.2 Miles"
            },
            "lblName": {
                "@class": "com.viz.ide.model.segment.SimpleTextSegmentData",
                "text": "Branch Name Once"
            },
            "lblOpen": {
                "@class": "com.viz.ide.model.segment.SimpleTextSegmentData",
                "text": "OPEN"
            },
            "lblSeperator": {
                "@class": "com.viz.ide.model.segment.SimpleTextSegmentData",
                "text": ""
            }
        },
        {
            "imgBuildingType": {
                "@class": "com.viz.ide.model.segment.ImageSegmentData",
                "src": "bank_icon.png"
            },
            "imgGo": {
                "@class": "com.viz.ide.model.segment.SimpleTextSegmentData",
                "text": "Q"
            },
            "imgIndicator": {
                "@class": "com.viz.ide.model.segment.ImageSegmentData",
                "src": "accounts_sidebar_blue.png"
            },
            "lblAddress": {
                "@class": "com.viz.ide.model.segment.SimpleTextSegmentData",
                "text": "504, Market street, Austin504, Market street, Austin504, Market street, Austin"
            },
            "lblClosed": {
                "@class": "com.viz.ide.model.segment.SimpleTextSegmentData",
                "text": "CLOSED"
            },
            "lblDistance": {
                "@class": "com.viz.ide.model.segment.SimpleTextSegmentData",
                "text": "2.2 Miles"
            },
            "lblName": {
                "@class": "com.viz.ide.model.segment.SimpleTextSegmentData",
                "text": "Branch Name Once"
            },
            "lblOpen": {
                "@class": "com.viz.ide.model.segment.SimpleTextSegmentData",
                "text": "OPEN"
            },
            "lblSeperator": {
                "@class": "com.viz.ide.model.segment.SimpleTextSegmentData",
                "text": ""
            }
        },
        {
            "imgBuildingType": {
                "@class": "com.viz.ide.model.segment.ImageSegmentData",
                "src": "bank_icon.png"
            },
            "imgGo": {
                "@class": "com.viz.ide.model.segment.SimpleTextSegmentData",
                "text": "Q"
            },
            "imgIndicator": {
                "@class": "com.viz.ide.model.segment.ImageSegmentData",
                "src": "accounts_sidebar_blue.png"
            },
            "lblAddress": {
                "@class": "com.viz.ide.model.segment.SimpleTextSegmentData",
                "text": "504, Market street, Austin504, Market street, Austin504, Market street, Austin"
            },
            "lblClosed": {
                "@class": "com.viz.ide.model.segment.SimpleTextSegmentData",
                "text": "CLOSED"
            },
            "lblDistance": {
                "@class": "com.viz.ide.model.segment.SimpleTextSegmentData",
                "text": "2.2 Miles"
            },
            "lblName": {
                "@class": "com.viz.ide.model.segment.SimpleTextSegmentData",
                "text": "Branch Name Once"
            },
            "lblOpen": {
                "@class": "com.viz.ide.model.segment.SimpleTextSegmentData",
                "text": "OPEN"
            },
            "lblSeperator": {
                "@class": "com.viz.ide.model.segment.SimpleTextSegmentData",
                "text": ""
            }
        },
        {
            "imgBuildingType": {
                "@class": "com.viz.ide.model.segment.ImageSegmentData",
                "src": "bank_icon.png"
            },
            "imgGo": {
                "@class": "com.viz.ide.model.segment.SimpleTextSegmentData",
                "text": "Q"
            },
            "imgIndicator": {
                "@class": "com.viz.ide.model.segment.ImageSegmentData",
                "src": "accounts_sidebar_blue.png"
            },
            "lblAddress": {
                "@class": "com.viz.ide.model.segment.SimpleTextSegmentData",
                "text": "504, Market street, Austin504, Market street, Austin504, Market street, Austin"
            },
            "lblClosed": {
                "@class": "com.viz.ide.model.segment.SimpleTextSegmentData",
                "text": "CLOSED"
            },
            "lblDistance": {
                "@class": "com.viz.ide.model.segment.SimpleTextSegmentData",
                "text": "2.2 Miles"
            },
            "lblName": {
                "@class": "com.viz.ide.model.segment.SimpleTextSegmentData",
                "text": "Branch Name Once"
            },
            "lblOpen": {
                "@class": "com.viz.ide.model.segment.SimpleTextSegmentData",
                "text": "OPEN"
            },
            "lblSeperator": {
                "@class": "com.viz.ide.model.segment.SimpleTextSegmentData",
                "text": ""
            }
        },
        {
            "imgBuildingType": {
                "@class": "com.viz.ide.model.segment.ImageSegmentData",
                "src": "bank_icon.png"
            },
            "imgGo": {
                "@class": "com.viz.ide.model.segment.SimpleTextSegmentData",
                "text": "Q"
            },
            "imgIndicator": {
                "@class": "com.viz.ide.model.segment.ImageSegmentData",
                "src": "accounts_sidebar_blue.png"
            },
            "lblAddress": {
                "@class": "com.viz.ide.model.segment.SimpleTextSegmentData",
                "text": "504, Market street, Austin504, Market street, Austin504, Market street, Austin"
            },
            "lblClosed": {
                "@class": "com.viz.ide.model.segment.SimpleTextSegmentData",
                "text": "CLOSED"
            },
            "lblDistance": {
                "@class": "com.viz.ide.model.segment.SimpleTextSegmentData",
                "text": "2.2 Miles"
            },
            "lblName": {
                "@class": "com.viz.ide.model.segment.SimpleTextSegmentData",
                "text": "Branch Name Once"
            },
            "lblOpen": {
                "@class": "com.viz.ide.model.segment.SimpleTextSegmentData",
                "text": "OPEN"
            },
            "lblSeperator": {
                "@class": "com.viz.ide.model.segment.SimpleTextSegmentData",
                "text": ""
            }
        },
        {
            "imgBuildingType": {
                "@class": "com.viz.ide.model.segment.ImageSegmentData",
                "src": "bank_icon.png"
            },
            "imgGo": {
                "@class": "com.viz.ide.model.segment.SimpleTextSegmentData",
                "text": "Q"
            },
            "imgIndicator": {
                "@class": "com.viz.ide.model.segment.ImageSegmentData",
                "src": "accounts_sidebar_blue.png"
            },
            "lblAddress": {
                "@class": "com.viz.ide.model.segment.SimpleTextSegmentData",
                "text": "504, Market street, Austin504, Market street, Austin504, Market street, Austin"
            },
            "lblClosed": {
                "@class": "com.viz.ide.model.segment.SimpleTextSegmentData",
                "text": "CLOSED"
            },
            "lblDistance": {
                "@class": "com.viz.ide.model.segment.SimpleTextSegmentData",
                "text": "2.2 Miles"
            },
            "lblName": {
                "@class": "com.viz.ide.model.segment.SimpleTextSegmentData",
                "text": "Branch Name Once"
            },
            "lblOpen": {
                "@class": "com.viz.ide.model.segment.SimpleTextSegmentData",
                "text": "OPEN"
            },
            "lblSeperator": {
                "@class": "com.viz.ide.model.segment.SimpleTextSegmentData",
                "text": ""
            }
        },
        {
            "imgBuildingType": {
                "@class": "com.viz.ide.model.segment.ImageSegmentData",
                "src": "bank_icon.png"
            },
            "imgGo": {
                "@class": "com.viz.ide.model.segment.SimpleTextSegmentData",
                "text": "Q"
            },
            "imgIndicator": {
                "@class": "com.viz.ide.model.segment.ImageSegmentData",
                "src": "accounts_sidebar_blue.png"
            },
            "lblAddress": {
                "@class": "com.viz.ide.model.segment.SimpleTextSegmentData",
                "text": "504, Market street, Austin504, Market street, Austin504, Market street, Austin"
            },
            "lblClosed": {
                "@class": "com.viz.ide.model.segment.SimpleTextSegmentData",
                "text": "CLOSED"
            },
            "lblDistance": {
                "@class": "com.viz.ide.model.segment.SimpleTextSegmentData",
                "text": "2.2 Miles"
            },
            "lblName": {
                "@class": "com.viz.ide.model.segment.SimpleTextSegmentData",
                "text": "Branch Name Once"
            },
            "lblOpen": {
                "@class": "com.viz.ide.model.segment.SimpleTextSegmentData",
                "text": "OPEN"
            },
            "lblSeperator": {
                "@class": "com.viz.ide.model.segment.SimpleTextSegmentData",
                "text": ""
            }
        }
    ],
    "_height_": {
        "type": "string",
        "value": "510dp"
    },
    "_indicator_": "none",
    "_left_": {
        "type": "string",
        "value": "0dp"
    },
    "_margin_": [
        0,
        0,
        0,
        0
    ],
    "_orientation_": 2,
    "_padding_": [
        0,
        0,
        0,
        0
    ],
    "_top_": {
        "type": "string",
        "value": "20dp"
    },
    "_width_": {
        "type": "string",
        "value": "100%"
    },
    "autogrowmode": 0,
    "canUpdateUI": true,
    "containerweight": 100,
    "counter": "06",
    "focusedindex": null,
    "focuseditem": null,
    "groupcells": false,
    "hasSections": false,
    "id": "segLoacteUsSearchResults",
    "info": null,
    "ipad": {
        "psp": {
            "indicator": "rowselect"
        }
    },
    "iphone": {
        "psp": {
            "indicator": "rowselect"
        }
    },
    "iscustomlayout": false,
    "isvisible": true,
    "kuid": "c519e40864184a0f8dc7283268c1c258",
    "masterdata": {},
    "name": "kony.ui.SegmentedUI2",
    "needpageindicator": true,
    "pageoffdotimage": "pageoffdot.png",
    "pageondotimage": "pageondot.png",
    "paginationconfig": {
        "position": "bottom"
    },
    "parent": "flxLeftContent",
    "pf": "frmLocateUsBranchTab",
    "retaincontentalignment": false,
    "retainflexpositionproperties": false,
    "retainselection": false,
    "rowTemplateId": "j5b2aaed29564ceaa587c1b1e213f752",
    "rowcounter": 6,
    "rowfocusskin": "s0f9bf3c1b3e4a7bb6bf9fd18b0211f2",
    "rowskin": "scf5f90f6ac04976ab88b2a4f7153285",
    "rowtemplate": "flxSearchResults",
    "screenlevelwidget": false,
    "seccounter": 0,
    "sectionheaderskin": "sdc4ff4ed1584272be2ae69045dfb29d",
    "selectedRows": null,
    "selectedState": false,
    "selectedindex": null,
    "selectedindices": null,
    "selecteditems": null,
    "selectedsectionindex": 0,
    "selectionbehavior": "default",
    "separatorrequired": false,
    "showscrollbars": false,
    "viewtype": "tableview",
    "vizProps": {},
    "wType": "Segment",
    "widgetalignment": 5,
    "widgetdatamap": {
        "flxDetails": "flxDetails",
        "flxDistanceAndGo": "flxDistanceAndGo",
        "flxIndicator": "flxIndicator",
        "flxSearchResults": "flxSearchResults",
        "imgBuildingType": "imgBuildingType",
        "imgGo": "imgGo",
        "imgIndicator": "imgIndicator",
        "lblAddress": "lblAddress",
        "lblClosed": "lblClosed",
        "lblDistance": "lblDistance",
        "lblName": "lblName",
        "lblOpen": "lblOpen",
        "lblSeperator": "lblSeperator"
    },
    "zindex": 1
}