{
    "@class": "com.kony.gen.viz.model.component.KVizButton",
    "DNDConfig": null,
    "_height_": {
        "type": "ref",
        "value": "preferred"
    },
    "_left_": {
        "type": "string",
        "value": "85%"
    },
    "_margin_": [
        6,
        6,
        6,
        6
    ],
    "_padding_": [
        0,
        0,
        0,
        0
    ],
    "_skin_": "sda6b496fd94462ba06feb36e449fe30",
    "_text_": "Remove",
    "_top_": {
        "type": "string",
        "value": "0dp"
    },
    "_width_": {
        "type": "ref",
        "value": "preferred"
    },
    "canUpdateUI": true,
    "containerId": true,
    "containerweight": 100,
    "contentalignment": 5,
    "displaytext": true,
    "focusskin": "se4cbdf6e51f48eda9966caa941c6a19",
    "id": "btnAction",
    "info": null,
    "iscustomlayout": false,
    "isvisible": true,
    "kuid": "b747785eb2514b6e8690434cea0a38e6",
    "name": "kony.ui.Button",
    "parent": "flxAccountInfo",
    "pf": "segAddedAccounts",
    "retaincontentalignment": false,
    "retainflexpositionproperties": false,
    "wType": "Button"
}