{
    "@class": "com.kony.gen.viz.model.component.KVizButton",
    "DNDConfig": null,
    "_height_": {
        "type": "string",
        "value": "40dp"
    },
    "_left_": {
        "type": "string",
        "value": "20dp"
    },
    "_margin_": [
        6,
        6,
        6,
        6
    ],
    "_padding_": [
        0,
        0,
        0,
        0
    ],
    "_right_": {
        "type": "string",
        "value": ""
    },
    "_skin_": "sa611611b2f24e93bcfd09e1606c0d86",
    "_text_": "Cancel",
    "_top_": {
        "type": "number",
        "value": ""
    },
    "_width_": {
        "type": "string",
        "value": "120dp"
    },
    "accessibilityconfig": {
        "a11yLabel": "Cancel"
    },
    "canUpdateUI": true,
    "centery": {
        "type": "string",
        "value": "50.00%"
    },
    "containerweight": 100,
    "contentalignment": 5,
    "desktopweb": {
        "psp": {
            "hoverSkin": "s83729feaa224e359d660d5af05c4bac"
        }
    },
    "disabledSkins": {},
    "displaytext": true,
    "focusskin": "s434743e49c446699565893e4974ec52",
    "id": "btnCancel",
    "info": null,
    "isvisible": true,
    "kuid": "d97ecb95590b44f7a4a691050184ae5a",
    "name": "kony.ui.Button",
    "parent": "flxButtons",
    "pf": "frmScheduledPaymentsNew",
    "responsiveData": {
        "b1": {},
        "b2": {},
        "b3": {
            "centerY": {
                "type": "string",
                "value": ""
            },
            "top": {
                "type": "string",
                "value": "0dp"
            }
        },
        "b4": {
            "height": {
                "type": "string",
                "value": "100%"
            }
        }
    },
    "texti18n": "i18n.common.close",
    "tooltip": "Cancel",
    "wType": "Button",
    "zindex": 1
}