{
    "@class": "com.kony.gen.viz.model.component.KVizLabel",
    "DNDConfig": null,
    "__parentReadjusting__": false,
    "_height_": {
        "type": "ref",
        "value": "preferred"
    },
    "_margin_": [
        0,
        0,
        0,
        0
    ],
    "_padding_": [
        0,
        3,
        0,
        0
    ],
    "_skin_": "sba44ef79cbb455b8d2e8b0602b2e178",
    "_text_": "e",
    "_width_": {
        "type": "string",
        "value": "30dp"
    },
    "_wrapping_": 2,
    "accessibilityconfig": {
        "a11yLabel": "Search "
    },
    "android": {
        "textStyle": {
            "letterSpacing": 0,
            "strikeThrough": false
        }
    },
    "canUpdateUI": true,
    "centerx": {
        "type": "string",
        "value": "50%"
    },
    "centery": {
        "type": "string",
        "value": "50%"
    },
    "containerweight": 100,
    "contentalignment": 5,
    "desktopweb": {
        "psp": {
            "hoverSkin": "sba44ef79cbb455b8d2e8b0602b2e178"
        }
    },
    "id": "CopyimgSearchIcon0bd7ebbaf387149",
    "info": null,
    "ipad": {
        "psp": {
            "wrapping": 2
        }
    },
    "iphone": {
        "psp": {
            "wrapping": 2
        }
    },
    "isvisible": true,
    "kuid": "h9652c102f50421ab3475ddead8cde53",
    "name": "kony.ui.Label",
    "paddingLocked": false,
    "parent": "imgSearchIcon",
    "pf": "userwidgetmodel",
    "tooltip": "Search",
    "wType": "Label",
    "zindex": 1
}