{
    "DNDConfig": null,
    "__parentReadjusting__": false,
    "_height_": {
        "type": "string",
        "value": "40dp"
    },
    "_left_": {
        "type": "string",
        "value": "0dp"
    },
    "_margin_": [
        0,
        0,
        0,
        0
    ],
    "_orientation_": 6,
    "_padding_": [
        0,
        0,
        0,
        0
    ],
    "_percent_": true,
    "_skin_": "s83b05b9a5a04f0cb23757b7102dab99",
    "_top_": {
        "type": "string",
        "value": "0dp"
    },
    "_width_": {
        "type": "string",
        "value": "100%"
    },
    "allboxes": [],
    "autogrowmode": 0,
    "canUpdateUI": true,
    "children": [
        "lblM1O3",
        "imgIndicatorM1O3"
    ],
    "clipbounds": true,
    "containerweight": 100,
    "desktopweb": {
        "psp": {
            "hoverSkin": "s745002012f24986a7fc107bcbf50026"
        }
    },
    "disabledSkins": {},
    "enablescrolling": true,
    "id": "flxSubMenu1Option3",
    "info": null,
    "isvisible": true,
    "kuid": "e6c3020642bf40519d0345ab4d7e1a72",
    "layouttype": 2,
    "name": "kony.ui.FlexContainer",
    "parent": "flxSubMenu1",
    "pf": "userwidgetmodel",
    "snapgridsize": 10,
    "snaptogrid": true,
    "wType": "FlexContainer",
    "widgetalignment": 1,
    "zindex": 1
}