{
    "@class": "com.kony.gen.viz.model.component.KVizLabel",
    "DNDConfig": null,
    "__parentReadjusting__": false,
    "_bottom_": {
        "type": "string",
        "value": "0dp"
    },
    "_height_": {
        "type": "string",
        "value": "2dp"
    },
    "_left_": {
        "type": "string",
        "value": "20%"
    },
    "_margin_": [
        1,
        1,
        1,
        1
    ],
    "_padding_": [
        0,
        0,
        0,
        0
    ],
    "_skin_": "sd8c2dfad0b748d89f6de70a3b083b22",
    "_text_": "",
    "_width_": {
        "type": "string",
        "value": "60dp"
    },
    "_wrapping_": 2,
    "accessibilityconfig": {
        "a11yLabel": "Login"
    },
    "android": {
        "textStyle": {
            "letterSpacing": 0,
            "strikeThrough": false
        }
    },
    "canUpdateUI": true,
    "containerweight": 100,
    "contentalignment": 4,
    "id": "imgIndicatorM2O2",
    "info": null,
    "ipad": {
        "psp": {
            "wrapping": 2
        }
    },
    "iphone": {
        "psp": {
            "wrapping": 2
        }
    },
    "isvisible": true,
    "kuid": "c3c2bd6546834d95a6ecd746b63cceff",
    "name": "kony.ui.Label",
    "parent": "flxSubMenu2Option2",
    "pf": "userwidgetmodel",
    "tooltip": "Login",
    "wType": "Label",
    "zindex": 1
}