{
    "DNDConfig": null,
    "_bottom_": {
        "type": "string",
        "value": "0dp"
    },
    "_height_": {
        "type": "string",
        "value": "100%"
    },
    "_left_": {
        "type": "string",
        "value": "0"
    },
    "_margin_": [
        0,
        0,
        0,
        0
    ],
    "_orientation_": 6,
    "_padding_": [
        0,
        0,
        0,
        0
    ],
    "_percent_": true,
    "_right_": {
        "type": "string",
        "value": "0dp"
    },
    "_skin_": "s417bab1ea8144ddabbee7e3841704a8",
    "_top_": {
        "type": "string",
        "value": "0%"
    },
    "_width_": {
        "type": "string",
        "value": "100%"
    },
    "allboxes": [],
    "autogrowmode": 0,
    "canUpdateUI": true,
    "children": [
        "flxCCModalContent"
    ],
    "clipbounds": true,
    "containerweight": 100,
    "desktopweb": {
        "top": {
            "type": "string",
            "value": "0dp"
        }
    },
    "enablescrolling": true,
    "id": "flxAddCurrencyModal",
    "info": null,
    "iscustomlayout": false,
    "ismodalcontainer": true,
    "isvisible": false,
    "kuid": "i72a6c6407794b6cbbf8e1d5644e3460",
    "layouttype": 2,
    "name": "kony.ui.FlexContainer",
    "parent": "frmCurrencyConverter",
    "pf": "frmCurrencyConverter",
    "responsiveData": {
        "b2": {
            "isVisible": false
        }
    },
    "responsiveconfig": {
        "offset": {
            "b1": 0,
            "b2": 0,
            "b3": 0
        },
        "span": {
            "b1": 3,
            "b2": 4,
            "b3": 6
        }
    },
    "retaincontentalignment": false,
    "retainflexpositionproperties": false,
    "retainflowhorizontalalignment": false,
    "snapgridsize": 10,
    "snaptogrid": true,
    "wType": "FlexContainer",
    "widgetalignment": 1,
    "zindex": 9999
}