{
    "@class": "com.kony.gen.viz.model.component.KVizUserWidget",
    "DNDConfig": null,
    "_children_": [],
    "_height_": {
        "type": "string",
        "value": "100%"
    },
    "_left_": {
        "type": "string",
        "value": "0dp"
    },
    "_margin_": [
        0,
        0,
        0,
        0
    ],
    "_orientation_": 1,
    "_padding_": [
        0,
        0,
        0,
        0
    ],
    "_percent_": true,
    "_render_": true,
    "_skin_": "s24c92fc23b14f5484b693ee9b8a9b35",
    "_top_": {
        "type": "string",
        "value": "0dp"
    },
    "_width_": {
        "type": "string",
        "value": "100%"
    },
    "canUpdateUI": true,
    "containerweight": 0,
    "data": {
        "currentFilter": "1M",
        "date1": "1M",
        "date2": "1Y",
        "date3": "5Y",
        "ide_onFilterChanged": "AS_UWI_cb20e678c2c94b4b95445611585d325f"
    },
    "id": "investmentLineChart",
    "info": null,
    "iscustomlayout": false,
    "issegmentchild": false,
    "isvisible": true,
    "kuid": "h6528314968d4dbd8ccc9021e200bbf7",
    "masterType": 1,
    "name": "kony.ui.UserWidgetInstance",
    "parent": "flxInstrumentLineChart",
    "pf": "frmCurrencyConverter",
    "retaincontentalignment": false,
    "retainflexpositionproperties": false,
    "retainflowhorizontalalignment": false,
    "sourceUserWidget": "h069f3ba1e7145de8c79fb443a22d20a",
    "wType": "UserWidgetInstance"
}