{
    "DNDConfig": null,
    "__parentReadjusting__": false,
    "_height_": {
        "type": "string",
        "value": "40dp"
    },
    "_left_": {
        "type": "string",
        "value": "0dp"
    },
    "_margin_": [
        0,
        0,
        0,
        0
    ],
    "_orientation_": 6,
    "_padding_": [
        0,
        0,
        0,
        0
    ],
    "_percent_": true,
    "_skin_": "se2c51e2a5574dcc8bc00a48bc7649ca",
    "_top_": {
        "type": "string",
        "value": "0dp"
    },
    "_width_": {
        "type": "string",
        "value": "100%"
    },
    "allboxes": [],
    "canUpdateUI": true,
    "children": [
        "flxFrom",
        "flxDate",
        "flxAmount",
        "flxStatus"
    ],
    "clipbounds": true,
    "containerweight": 100,
    "enablescrolling": true,
    "id": "flxSort",
    "info": null,
    "isvisible": true,
    "kuid": "e4550480e53d4e47b8d0075fd4db0e63",
    "layouttype": 3,
    "name": "kony.ui.FlexContainer",
    "parent": "flxtransferActivityWrapper",
    "pf": "frmWireTransferViewActivity",
    "responsiveData": {
        "b4": {
            "height": {
                "type": "string",
                "value": "0dp"
            },
            "isVisible": false,
            "width": {
                "type": "string",
                "value": "0%"
            }
        }
    },
    "snapgridsize": 10,
    "snaptogrid": true,
    "wType": "FlexContainer",
    "widgetalignment": 1,
    "zindex": 1
}