{
    "@class": "com.kony.gen.viz.model.component.KVizRichText",
    "DNDConfig": null,
    "__parentReadjusting__": false,
    "_height_": {
        "type": "ref",
        "value": "preferred"
    },
    "_left_": {
        "type": "string",
        "value": "85dp"
    },
    "_margin_": [
        0,
        0,
        0,
        0
    ],
    "_padding_": [
        0,
        0,
        0,
        0
    ],
    "_skin_": "s54053171dc84722aadd410cfc137838",
    "_text_": "<b>No Records found</b> so far.\n",
    "_top_": {
        "type": "string",
        "value": "35dp"
    },
    "_width_": {
        "type": "string",
        "value": "100%"
    },
    "_wrapping_": 2,
    "accessibilityconfig": {
        "a11yLabel": "<b>No Records found</b> so far.\n"
    },
    "canUpdateUI": true,
    "containerweight": 100,
    "contentalignment": 4,
    "id": "rtxNoRecords",
    "info": null,
    "isvisible": true,
    "kuid": "be603c21d5724d23be7f0ba6a3250f21",
    "name": "kony.ui.RichText",
    "parent": "flxNoRecords",
    "pf": "frmWireTransferViewActivity",
    "responsiveData": {
        "b1": {
            "left": {
                "type": "string",
                "value": "80dp"
            }
        },
        "b2": {
            "left": {
                "type": "string",
                "value": "80dp"
            }
        },
        "b3": {
            "left": {
                "type": "string",
                "value": "80dp"
            }
        },
        "b4": {
            "left": {
                "type": "string",
                "value": "100dp"
            },
            "width": {
                "type": "string",
                "value": "80%"
            }
        }
    },
    "texti18n": "i18n.PayAPerson.NoRecords",
    "wType": "RichText",
    "widgetalignment": 5,
    "zindex": 1
}