{
    "@class": "com.kony.gen.viz.model.component.KVizUserWidget",
    "DNDConfig": null,
    "__parentReadjusting__": false,
    "_bottom_": {
        "type": "string",
        "value": ""
    },
    "_children_": [],
    "_height_": {
        "type": "string",
        "value": "103px"
    },
    "_left_": {
        "type": "string",
        "value": "0dp"
    },
    "_margin_": [
        0,
        0,
        0,
        0
    ],
    "_orientation_": 1,
    "_padding_": [
        0,
        0,
        0,
        0
    ],
    "_percent_": true,
    "_render_": true,
    "_skin_": "s576844bc0e148a9a02e6171eac305ac",
    "_top_": {
        "type": "string",
        "value": "30dp"
    },
    "_width_": {
        "type": "string",
        "value": "100%"
    },
    "areflexpropsreferenced": false,
    "autogrowmode": 0,
    "canUpdateUI": true,
    "centery": {
        "type": "string",
        "value": ""
    },
    "clipbounds": true,
    "containerweight": 0,
    "dataDiffs": {
        "btnCancel": {
            "__events__": {},
            "__info__": {
                "kuid": "ab17e013675e42edaf83bae0ebc92b57",
                "srcKUID": "fe63955edbd24a4ea6b8cae6b9dc4e9d",
                "wType": "Button"
            },
            "right": {
                "Default": {
                    "type": "string",
                    "value": "30.83%"
                }
            }
        },
        "btnConfirm": {
            "__events__": {},
            "__info__": {
                "kuid": "a3ba49afe21d46fd83c8cd7d169a5c0f",
                "srcKUID": "fce03529e50d441ea6385939a861c275",
                "wType": "Button"
            },
            "width": {
                "Default": {
                    "type": "string",
                    "value": "12.50%"
                }
            }
        },
        "btnModify": {
            "__events__": {},
            "__info__": {
                "kuid": "d9073d7c23e0489088d35e3e5536f972",
                "srcKUID": "b0db2b5c6b0b4deb89afff129dc620f7",
                "wType": "Button"
            },
            "right": {
                "Default": {
                    "type": "string",
                    "value": "16.67%"
                }
            }
        },
        "confirmButtons": {
            "__events__": {},
            "__info__": {
                "isRoot": true,
                "kuid": "b6a3deb620694a76b2fad46bc6e9ccf8",
                "srcKUID": "ddfb5a99e80b4d01b3e3abf4c1af4adc",
                "wType": "FlexContainer"
            },
            "bottom": {
                "Default": {
                    "type": "string",
                    "value": ""
                }
            },
            "centerY": {
                "Default": {
                    "type": "string",
                    "value": ""
                }
            },
            "isVisible": true,
            "left": {
                "Default": {
                    "type": "string",
                    "value": "0dp"
                }
            },
            "top": {
                "Default": {
                    "type": "string",
                    "value": "30dp"
                }
            },
            "zIndex": {
                "Default": 1
            }
        },
        "flxHorizontalLine": {
            "__events__": {},
            "__info__": {
                "kuid": "h6c70e81479748159fc25d2b10b4a33d",
                "srcKUID": "ac533aa67f084f63ae00d6834110ffa8",
                "wType": "FlexContainer"
            }
        }
    },
    "id": "Buttons",
    "info": null,
    "isdatareferenced": false,
    "issegmentchild": false,
    "isvisible": true,
    "kuid": "b6a3deb620694a76b2fad46bc6e9ccf8",
    "layouttype": 2,
    "masterType": 0,
    "name": "kony.ui.UserWidgetInstance",
    "parent": "flxMainConfirmPage",
    "pf": "userwidgetmodel",
    "snapgridsize": 10,
    "snaptogrid": true,
    "sourceUserWidget": "ddfb5a99e80b4d01b3e3abf4c1af4adc",
    "wType": "UserWidgetInstance",
    "zindex": 1
}