{
    "DNDConfig": null,
    "_height_": {
        "type": "string",
        "value": "320dp"
    },
    "_left_": {
        "type": "string",
        "value": "0dp"
    },
    "_margin_": [
        0,
        0,
        0,
        0
    ],
    "_orientation_": 6,
    "_padding_": [
        0,
        0,
        0,
        0
    ],
    "_percent_": true,
    "_skin_": "s9f0c4bc0cd8418da924fd6b0065e2a7",
    "_top_": {
        "type": "string",
        "value": "0dp"
    },
    "_width_": {
        "type": "string",
        "value": "100%"
    },
    "allboxes": [],
    "autogrowmode": 0,
    "canUpdateUI": true,
    "children": [
        "flxSeparator",
        "flxDetailsHeader",
        "flxDetailsSubHeader",
        "flxDetails1",
        "flxDetails2",
        "flxDetails3",
        "flxDetailsHeader1",
        "flxDetails11",
        "flxDetails12",
        "flxDetails13",
        "flxDetailsHeader2",
        "flxDetails21",
        "flxDetails22"
    ],
    "clipbounds": true,
    "containerId": true,
    "containerweight": 100,
    "enablescrolling": true,
    "id": "flxDetails",
    "info": null,
    "isvisible": true,
    "kuid": "c340940867fb45809e60433226025cd2",
    "layouttype": 4,
    "name": "kony.ui.FlexContainer",
    "parent": "flxtransferActivityWrapper",
    "pf": "segUserManagementPermissionsBBCopyLimits",
    "snapgridsize": 10,
    "snaptogrid": true,
    "wType": "FlexContainer",
    "widgetalignment": 1,
    "zindex": 1
}