{
    "DNDConfig": null,
    "__parentReadjusting__": false,
    "_bottom_": {
        "type": "number",
        "value": ""
    },
    "_height_": {
        "type": "string",
        "value": "100dp"
    },
    "_left_": {
        "type": "string",
        "value": "0dp"
    },
    "_margin_": [
        0,
        0,
        0,
        0
    ],
    "_orientation_": 6,
    "_padding_": [
        0,
        0,
        0,
        0
    ],
    "_percent_": true,
    "_skin_": "s24c92fc23b14f5484b693ee9b8a9b35",
    "_top_": {
        "type": "string",
        "value": "480dp"
    },
    "_width_": {
        "type": "string",
        "value": "100%"
    },
    "allboxes": [],
    "canUpdateUI": true,
    "children": [
        "flxSeparator",
        "flxRegisterDevice",
        "btnProceed"
    ],
    "clipbounds": true,
    "containerweight": 100,
    "enablescrolling": true,
    "id": "flxActions",
    "info": null,
    "isvisible": true,
    "kuid": "f0098d6f03554676b54f1bc5c0b4e83c",
    "layouttype": 2,
    "name": "kony.ui.FlexContainer",
    "parent": "flxSecurityQuestions",
    "pf": "frmMFAPreLogin",
    "responsiveData": {
        "b1": {
            "bottom": {
                "type": "string",
                "value": ""
            },
            "height": {
                "type": "string",
                "value": "140dp"
            },
            "top": {
                "type": "string",
                "value": "435dp"
            },
            "zIndex": 2
        },
        "b2": {
            "height": {
                "type": "string",
                "value": "130dp"
            },
            "layoutType": 4,
            "left": {
                "type": "string",
                "value": "0dp"
            },
            "top": {
                "type": "string",
                "value": "450dp"
            }
        },
        "b3": {
            "height": {
                "type": "string",
                "value": "125dp"
            },
            "layoutType": 4,
            "top": {
                "type": "string",
                "value": "500dp"
            },
            "width": {
                "type": "string",
                "value": "100%"
            }
        },
        "b4": {
            "height": {
                "type": "string",
                "value": "120dp"
            },
            "layoutType": 4,
            "top": {
                "type": "string",
                "value": "430dp"
            }
        }
    },
    "snapgridsize": 10,
    "snaptogrid": true,
    "wType": "FlexContainer",
    "widgetalignment": 1,
    "zindex": 2
}