{
    "@class": "com.kony.gen.viz.model.component.KVizImage2",
    "DNDConfig": null,
    "__parentReadjusting__": false,
    "_base64_": null,
    "_height_": {
        "type": "string",
        "value": "64dp"
    },
    "_left_": {
        "type": "string",
        "value": "80dp"
    },
    "_margin_": [
        0,
        0,
        0,
        0
    ],
    "_padding_": [
        0,
        0,
        0,
        0
    ],
    "_skin_": "s78a5f26c9f14cec9ebed1bb46098f80",
    "_src_": "kony_logo.png",
    "_top_": {
        "type": "string",
        "value": "13dp"
    },
    "_width_": {
        "type": "string",
        "value": "102dp"
    },
    "canUpdateUI": true,
    "centerx": {
        "type": "string",
        "value": "14%"
    },
    "containerweight": 100,
    "context": {
        "channel": "desktop",
        "formID": "frmMFAPreLogin",
        "platform": "desktopweb",
        "templateType": "forms",
        "topLevelBox": null
    },
    "id": "imgKony",
    "imagescalemode": 1,
    "imagewhiledownloading": "img_transparent.png",
    "info": null,
    "invokedProperty": "src",
    "isvisible": false,
    "kuid": "cb7538d1b42e452da70448d5c7219b21",
    "name": "kony.ui.Image2",
    "parent": "flxMain",
    "pf": "frmMFAPreLogin",
    "responsiveData": {
        "b1": {
            "centerX": {
                "type": "string",
                "value": ""
            },
            "height": {
                "type": "string",
                "value": "42dp"
            },
            "isVisible": true,
            "left": {
                "type": "string",
                "value": "80dp"
            },
            "top": {
                "type": "string",
                "value": "9.11%"
            },
            "width": {
                "type": "string",
                "value": "175px"
            },
            "zIndex": 1
        },
        "b2": {
            "centerX": {
                "type": "string",
                "value": "50%"
            },
            "height": {
                "type": "string",
                "value": "50dp"
            },
            "isVisible": true,
            "left": {
                "type": "string",
                "value": ""
            },
            "top": {
                "type": "string",
                "value": "100dp"
            },
            "width": {
                "type": "string",
                "value": "175dp"
            }
        },
        "b3": {
            "centerX": {
                "type": "string",
                "value": ""
            },
            "height": {
                "type": "string",
                "value": "48dp"
            },
            "isVisible": true,
            "left": {
                "type": "string",
                "value": "15%"
            },
            "top": {
                "type": "string",
                "value": "65dp"
            },
            "width": {
                "type": "string",
                "value": "150dp"
            }
        },
        "b4": {
            "centerX": {
                "type": "string",
                "value": "50%"
            },
            "height": {
                "type": "string",
                "value": "50dp"
            },
            "isVisible": true,
            "left": {
                "type": "string",
                "value": "20%"
            },
            "top": {
                "type": "string",
                "value": "100dp"
            },
            "width": {
                "type": "string",
                "value": "175dp"
            }
        }
    },
    "srcType": 1,
    "wType": "Image",
    "widgetalignment": 5,
    "zindex": 1,
    "accessibilityconfig": {
        "a11yLabel": "Login Kony Logo",
        "a11yValue": ""
    }
}