{
    "@class": "com.kony.gen.viz.model.component.KVizUserWidget",
    "DNDConfig": null,
    "__parentReadjusting__": false,
    "_android_": {},
    "_androidwearos_": {},
    "_children_": [],
    "_desktopweb_": {},
    "_height_": {
        "type": "string",
        "value": "100%"
    },
    "_ipad_": {},
    "_iphone_": {},
    "_kiosk_": {},
    "_left_": {
        "type": "string",
        "value": "0dp"
    },
    "_margin_": [
        0,
        0,
        0,
        0
    ],
    "_orientation_": 1,
    "_padding_": [
        0,
        0,
        0,
        0
    ],
    "_percent_": true,
    "_responsiveData_": {},
    "_skin_": "s1d5d3417cb74ec9883e5f01b8521945",
    "_spa_": {},
    "_spaan_": {},
    "_spaandroidtablet_": {},
    "_spabb_": {},
    "_spaip_": {},
    "_spaipad_": {},
    "_spamobile_": {},
    "_spatablet_": {},
    "_spawindowstablet_": {},
    "_spawinphone8_": {},
    "_tabrcandroid_": {},
    "_top_": {
        "type": "string",
        "value": "0dp"
    },
    "_vizProps_": {
        "hidewidgethierarchy": false
    },
    "_width_": {
        "type": "string",
        "value": "100%"
    },
    "_windows10_": {},
    "_windows8_": {},
    "_winphone10_": {},
    "_winphone8_": {},
    "areflexpropsreferenced": false,
    "canUpdateUI": true,
    "clipbounds": true,
    "containerweight": 0,
    "dataDiffs": {
        "AlterneteActionsLoginNow": {
            "__events__": {},
            "__info__": {
                "kuid": "e0191562bec34aac8756b2d607be3a19",
                "srcKUID": "c76e5e68783f478a841959f3eedefe22",
                "wType": "UserWidgetInstance"
            },
            "centerX": {},
            "left": {},
            "responsiveData": {
                "b1": {
                    "centerX": {
                        "type": "string",
                        "value": ""
                    },
                    "left": {
                        "type": "string",
                        "value": "80dp"
                    },
                    "top": {
                        "type": "string",
                        "value": "70dp"
                    },
                    "width": {
                        "type": "string",
                        "value": "70%"
                    }
                },
                "b2": {
                    "centerX": {
                        "type": "string",
                        "value": "50%"
                    },
                    "left": {
                        "type": "string",
                        "value": ""
                    },
                    "top": {
                        "type": "string",
                        "value": "102dp"
                    },
                    "width": {
                        "type": "string",
                        "value": "330px"
                    }
                },
                "b3": {
                    "centerX": {
                        "type": "string",
                        "value": "50%"
                    },
                    "left": {
                        "type": "string",
                        "value": ""
                    },
                    "top": {
                        "type": "string",
                        "value": "102dp"
                    },
                    "width": {
                        "type": "string",
                        "value": "80%"
                    }
                },
                "b4": {
                    "centerX": {
                        "type": "string",
                        "value": "50%"
                    },
                    "left": {
                        "type": "string",
                        "value": ""
                    },
                    "top": {
                        "type": "string",
                        "value": "102dp"
                    },
                    "width": {
                        "type": "string",
                        "value": "330px"
                    }
                }
            },
            "top": {},
            "width": {}
        },
        "AlterneteActionsLoginNow.flcVerticalBar": {
            "__events__": {},
            "__info__": {
                "kuid": "f89a32e89dc745b29a8e175b5a457e68",
                "srcKUID": "f68f9ef4ac3240f3a465d4684e2a241d",
                "wType": "FlexContainer"
            }
        },
        "AlterneteActionsLoginNow.flxImgContainer": {
            "__events__": {},
            "__info__": {
                "kuid": "g42402f28cf3419eb76a79b71a2d38b0",
                "srcKUID": "db5fdc5465054b94bac7d75e308a6602",
                "wType": "FlexContainer"
            }
        },
        "AlterneteActionsLoginNow.flxImgMain": {
            "__events__": {},
            "__info__": {
                "kuid": "f704c6df88a84e709b2f69c0932bc286",
                "srcKUID": "e2f0ca2e87594d55b0060765b6f2aa6a",
                "wType": "FlexContainer"
            }
        },
        "AlterneteActionsLoginNow.fontIconOption": {
            "__events__": {},
            "__info__": {
                "kuid": "de100e645d49426a97c066e5ec627859",
                "srcKUID": "b47f760baacd46fcab06785b4fc6b4d2",
                "wType": "Label"
            },
            "height": {},
            "responsiveData": {
                "b3": {
                    "height": {
                        "type": "string",
                        "value": "30dp"
                    },
                    "width": {
                        "type": "string",
                        "value": "30dp"
                    }
                }
            },
            "width": {}
        },
        "AlterneteActionsLoginNow.imgOptionKA": {
            "__events__": {},
            "__info__": {
                "kuid": "e87f780a240845beaf43b37690869c7c",
                "srcKUID": "f75c728a21264a8a9fb3eaa2c4d89977",
                "wType": "Image"
            },
            "src": "login_signin.png"
        },
        "AlterneteActionsLoginNow.imgRightTip": {
            "__events__": {},
            "__info__": {
                "kuid": "d8c2282617d349fbbbe12e769a6f242d",
                "srcKUID": "ecc40e52caab4324967ebe6416d6e955",
                "wType": "Image"
            },
            "src": "lefy_arrow_white.png"
        },
        "AlterneteActionsLoginNow.rtxCVV": {
            "__events__": {},
            "__info__": {
                "kuid": "c1cfed4a7fe64ee2a28565779067ffe8",
                "srcKUID": "f4f48efc437d46ea912b05df01730a6b",
                "wType": "RichText"
            }
        },
        "flxLogoutSuccess": {
            "__events__": {},
            "__info__": {
                "kuid": "b10b34212dd34e119632296da3f6a110",
                "srcKUID": "g94721d8e4a84084ba7d96413651ae04",
                "wType": "FlexContainer"
            },
            "autogrowMode": {
                "Default": 1
            },
            "height": {},
            "left": {},
            "responsiveData": {
                "b1": {
                    "left": {
                        "type": "string",
                        "value": "0dp"
                    },
                    "top": {
                        "type": "string",
                        "value": "200dp"
                    }
                },
                "b2": {
                    "height": {
                        "type": "ref",
                        "value": "preferred"
                    },
                    "layoutType": 2,
                    "left": {
                        "type": "string",
                        "value": ""
                    },
                    "top": {
                        "type": "string",
                        "value": "200dp"
                    }
                },
                "b3": {
                    "left": {
                        "type": "string",
                        "value": "0dp"
                    }
                },
                "b4": {
                    "left": {
                        "type": "string",
                        "value": ""
                    },
                    "top": {
                        "type": "string",
                        "value": "170dp"
                    }
                }
            },
            "top": {}
        },
        "imgLogoutSuccess": {
            "__events__": {},
            "__info__": {
                "kuid": "f2ee25ff614d471e8207ee04f91fb557",
                "srcKUID": "c434f755fde941c89ee73075c3b5c951",
                "wType": "Image"
            },
            "centerX": {},
            "left": {},
            "responsiveData": {
                "b1": {
                    "left": {
                        "type": "string",
                        "value": "80dp"
                    }
                },
                "b2": {
                    "centerX": {
                        "type": "string",
                        "value": "50%"
                    }
                },
                "b3": {
                    "centerX": {
                        "type": "string",
                        "value": "50%"
                    },
                    "left": {
                        "type": "string",
                        "value": ""
                    }
                },
                "b4": {
                    "centerX": {
                        "type": "string",
                        "value": "50%"
                    },
                    "src": "error_yellow.png"
                }
            },
            "src": "error_yellow.png"
        },
        "lblLoggedOut": {
            "__events__": {},
            "__info__": {
                "kuid": "fe3e0af3fbda45f59dccf30ff2ff9e74",
                "srcKUID": "ca71833aaecc47d68139336e587c939c",
                "wType": "Label"
            },
            "centerX": {},
            "left": {},
            "responsiveData": {
                "b1": {
                    "left": {
                        "type": "string",
                        "value": "140dp"
                    },
                    "text": "Label ",
                    "width": {
                        "type": "string",
                        "value": "70%"
                    }
                },
                "b2": {
                    "centerX": {
                        "type": "string",
                        "value": "50%"
                    },
                    "left": {
                        "type": "string",
                        "value": ""
                    },
                    "top": {
                        "type": "string",
                        "value": "70dp"
                    },
                    "width": {
                        "type": "string",
                        "value": "80%"
                    }
                },
                "b3": {
                    "centerX": {
                        "type": "string",
                        "value": "50%"
                    },
                    "left": {
                        "type": "string",
                        "value": ""
                    },
                    "top": {
                        "type": "string",
                        "value": "70dp"
                    },
                    "width": {
                        "type": "string",
                        "value": "80%"
                    }
                },
                "b4": {
                    "centerX": {
                        "type": "string",
                        "value": "50%"
                    },
                    "left": {
                        "type": "string",
                        "value": ""
                    },
                    "top": {
                        "type": "string",
                        "value": "70dp"
                    },
                    "width": {
                        "type": "string",
                        "value": "80%"
                    }
                }
            },
            "text": "Label",
            "top": {},
            "width": {}
        },
        "lblSuccessIcon": {
            "__events__": {},
            "__info__": {
                "kuid": "d3d3e46b5b264a7399b42e1128cdcef5",
                "srcKUID": "abccb3ffb5634ef7b6dd8cbf33b7d3b3",
                "wType": "Label"
            },
            "responsiveData": {
                "b1": {
                    "isVisible": false
                },
                "b2": {
                    "isVisible": false
                },
                "b3": {
                    "isVisible": false
                },
                "b4": {
                    "isVisible": false
                }
            }
        },
        "logOutMsg": {
            "__events__": {},
            "__info__": {
                "isRoot": true,
                "kuid": "d9ad246f4684465cb5d923ae39e3fbb9",
                "srcKUID": "b9c7ba6ae25648cdaf1e0bfb090e927d",
                "wType": "FlexContainer"
            }
        }
    },
    "enablescrolling": true,
    "id": "logOutMsg1",
    "info": null,
    "iscustomlayout": false,
    "isdatareferenced": false,
    "isvisible": true,
    "kuid": "d9ad246f4684465cb5d923ae39e3fbb9",
    "layouttype": 4,
    "masterType": 0,
    "name": "kony.ui.UserWidgetInstance",
    "parent": "flxLogoutMsgMFA",
    "pf": "frmMFAPreLogin",
    "retaincontentalignment": false,
    "retainflexpositionproperties": false,
    "snapgridsize": 10,
    "snaptogrid": true,
    "sourceUserWidget": "b9c7ba6ae25648cdaf1e0bfb090e927d",
    "wType": "UserWidgetInstance",
    "zindex": 1
}