{
    "@class": "com.kony.gen.viz.model.component.KVizUserWidget",
    "DNDConfig": null,
    "__parentReadjusting__": false,
    "_android_": {},
    "_androidwearos_": {},
    "_children_": [],
    "_desktopweb_": {},
    "_height_": {
        "type": "string",
        "value": "100%"
    },
    "_ipad_": {},
    "_iphone_": {},
    "_kiosk_": {},
    "_left_": {
        "type": "string",
        "value": "0dp"
    },
    "_margin_": [
        0,
        0,
        0,
        0
    ],
    "_orientation_": 1,
    "_padding_": [
        0,
        0,
        0,
        0
    ],
    "_percent_": true,
    "_responsiveData_": {
        "b1": {
            "height": {
                "type": "string",
                "value": "100%"
            },
            "top": {
                "type": "string",
                "value": "50dp"
            }
        }
    },
    "_skin_": "s1d5d3417cb74ec9883e5f01b8521945",
    "_spa_": {},
    "_spaan_": {},
    "_spaandroidtablet_": {},
    "_spabb_": {},
    "_spaip_": {},
    "_spaipad_": {},
    "_spamobile_": {},
    "_spatablet_": {},
    "_spawindowstablet_": {},
    "_spawinphone8_": {},
    "_tabrcandroid_": {},
    "_top_": {
        "type": "string",
        "value": "0dp"
    },
    "_vizProps_": {
        "hidewidgethierarchy": false
    },
    "_width_": {
        "type": "string",
        "value": "100%"
    },
    "_windows10_": {},
    "_windows8_": {},
    "_winphone10_": {},
    "_winphone8_": {},
    "areflexpropsreferenced": false,
    "canUpdateUI": true,
    "clipbounds": false,
    "containerweight": 0,
    "dataDiffs": {
        "OTPModule": {
            "__events__": {},
            "__info__": {
                "isRoot": true,
                "kuid": "a189f8f317ce4f95a175f8a56614d296",
                "srcKUID": "j352ee82c89c4404a67cd7f06714deea",
                "wType": "FlexContainer"
            },
            "autogrowMode": {
                "Default": 0
            },
            "height": {},
            "responsiveData": {
                "b1": {
                    "height": {
                        "type": "string",
                        "value": "100%"
                    },
                    "top": {
                        "type": "string",
                        "value": "50dp"
                    }
                }
            },
            "top": {}
        },
        "btnLogin": {
            "__events__": {},
            "__info__": {
                "kuid": "jfb10f451b084a33865a2a91180a3ae0",
                "srcKUID": "jb49e6f6f8b3446fb4d87e5d3dae49d8",
                "wType": "Button"
            },
            "responsiveData": {
                "b1": {
                    "top": {
                        "type": "string",
                        "value": "25dp"
                    }
                },
                "b2": {
                    "top": {
                        "type": "string",
                        "value": "34dp"
                    }
                },
                "b3": {
                    "top": {
                        "type": "string",
                        "value": "25dp"
                    },
                    "width": {
                        "type": "string",
                        "value": "250dp"
                    }
                },
                "b4": {
                    "top": {
                        "type": "string",
                        "value": "34dp"
                    }
                }
            },
            "top": {},
            "width": {}
        },
        "btnProceed": {
            "__events__": {},
            "__info__": {
                "kuid": "j9910058bf14407da57cc5b01778038f",
                "srcKUID": "baf01ea9a6ba483399ae0c64e163eced",
                "wType": "Button"
            },
            "responsiveData": {
                "b2": {
                    "top": {
                        "type": "string",
                        "value": "40dp"
                    }
                },
                "b3": {
                    "width": {
                        "type": "string",
                        "value": "90%"
                    }
                }
            },
            "top": {},
            "width": {}
        },
        "btnResendOTP": {
            "__events__": {},
            "__info__": {
                "kuid": "ef777ac39dda44188dddcfd29ada9e79",
                "srcKUID": "ja72dae30362454299c560823819574b",
                "wType": "Button"
            },
            "responsiveData": {
                "b1": {
                    "top": {
                        "type": "string",
                        "value": "25dp"
                    }
                },
                "b3": {
                    "top": {
                        "type": "string",
                        "value": "30px"
                    }
                }
            },
            "top": {}
        },
        "btnTandC": {
            "__events__": {},
            "__info__": {
                "kuid": "f1ce297a49dd48609dac3715eff9042a",
                "srcKUID": "a7c3ca7ab3b84e1cbc2bc19893b2afbd",
                "wType": "Button"
            }
        },
        "flexcheckuncheck": {
            "__events__": {},
            "__info__": {
                "kuid": "a99ede792fdc4e8f916dddfc0ffbaafc",
                "srcKUID": "db5c458648b840399db8efa6a04ec7ac",
                "wType": "FlexContainer"
            },
            "autogrowMode": {
                "Default": 1
            },
            "height": {
                "Default": {
                    "type": "ref",
                    "value": "preferred"
                }
            },
            "responsiveData": {
                "b1": {
                    "top": {
                        "type": "string",
                        "value": "20dp"
                    }
                },
                "b3": {}
            },
            "top": {}
        },
        "flxAgree": {
            "__events__": {},
            "__info__": {
                "kuid": "h11ff228855c4a4daaec3d6647de5f6b",
                "srcKUID": "i9a5148af8864783abee1e5a00f33d14",
                "wType": "FlexContainer"
            },
            "isVisible": false,
            "responsiveData": {
                "b1": {}
            },
            "vizProps": {
                "hide": false
            }
        },
        "flxCVV": {
            "__events__": {},
            "__info__": {
                "kuid": "f105b708e492488b8f985184b0eea6eb",
                "srcKUID": "ja9b17b4d48649908a160d606ed3d8be",
                "wType": "FlexContainer"
            },
            "autogrowMode": {
                "Default": 0
            },
            "height": {},
            "responsiveData": {
                "b1": {
                    "height": {
                        "type": "string",
                        "value": "40dp"
                    },
                    "top": {
                        "type": "string",
                        "value": "48dp"
                    }
                },
                "b2": {
                    "top": {
                        "type": "string",
                        "value": "60dp"
                    }
                },
                "b3": {
                    "top": {
                        "type": "string",
                        "value": "85dp"
                    },
                    "width": {
                        "type": "string",
                        "value": "250dp"
                    }
                },
                "b4": {
                    "layoutType": 4,
                    "top": {
                        "type": "string",
                        "value": "60dp"
                    }
                }
            },
            "top": {
                "Default": {
                    "type": "string",
                    "value": "40dp"
                }
            },
            "width": {
                "Default": {
                    "type": "string",
                    "value": "350dp"
                }
            }
        },
        "flxClick": {
            "__events__": {},
            "__info__": {
                "kuid": "b8ec00be17984f13b9fef7ff1d806407",
                "srcKUID": "bfa8783cced94f4fbe579382fb4e452c",
                "wType": "FlexContainer"
            },
            "autogrowMode": {
                "Default": 1
            },
            "height": {
                "Default": {
                    "type": "ref",
                    "value": "preferred"
                }
            },
            "responsiveData": {
                "b1": {
                    "isVisible": false
                },
                "b2": {
                    "isVisible": false
                },
                "b3": {
                    "isVisible": false
                },
                "b4": {
                    "isVisible": false
                }
            }
        },
        "flxDescription": {
            "__events__": {},
            "__info__": {
                "kuid": "e62d473fbc144eb6ba6c1af6711e68ca",
                "srcKUID": "a6e4d2986d564194b3f7e147c744651a",
                "wType": "FlexContainer"
            },
            "centerX": {
                "Default": {
                    "type": "number",
                    "value": ""
                }
            },
            "responsiveData": {
                "b2": {
                    "centerX": {
                        "type": "string",
                        "value": "50%"
                    }
                },
                "b3": {
                    "centerX": {
                        "type": "string",
                        "value": "50%"
                    },
                    "width": {
                        "type": "string",
                        "value": "70%"
                    }
                },
                "b4": {
                    "centerX": {
                        "type": "string",
                        "value": "50%"
                    },
                    "width": {
                        "type": "string",
                        "value": "297dp"
                    }
                }
            },
            "width": {}
        },
        "flxEnterOTP": {
            "__events__": {},
            "__info__": {
                "kuid": "f65fb99cfe2347449f10bcedc65913eb",
                "srcKUID": "de12331819ea4d04a026dc11b6f4cc93",
                "wType": "FlexContainer"
            },
            "responsiveData": {
                "b1": {},
                "b2": {
                    "top": {
                        "type": "string",
                        "value": "0dp"
                    }
                },
                "b3": {
                    "top": {
                        "type": "string",
                        "value": "0dp"
                    }
                },
                "b4": {}
            },
            "top": {}
        },
        "flxEnterSecureAccessCode": {
            "__events__": {},
            "__info__": {
                "kuid": "f1b83fa29ea4476fbff9255cd0359211",
                "srcKUID": "j97cd3cf44e741df9e3f5ea9acd7c528",
                "wType": "FlexContainer"
            },
            "autogrowMode": {
                "Default": 0
            },
            "height": {},
            "left": {},
            "responsiveData": {
                "b1": {
                    "height": {
                        "type": "string",
                        "value": "100%"
                    },
                    "top": {
                        "type": "string",
                        "value": "0dp"
                    }
                },
                "b2": {
                    "left": {
                        "type": "string",
                        "value": "0dp"
                    },
                    "top": {
                        "type": "string",
                        "value": "0dp"
                    }
                },
                "b3": {
                    "left": {
                        "type": "string",
                        "value": "0dp"
                    },
                    "top": {
                        "type": "string",
                        "value": "0dp"
                    }
                },
                "b4": {
                    "left": {
                        "type": "string",
                        "value": "0dp"
                    },
                    "top": {
                        "type": "string",
                        "value": "0dp"
                    }
                }
            },
            "top": {}
        },
        "flxImgTxt": {
            "__events__": {},
            "__info__": {
                "kuid": "h8763ceb7059471fbc6045ae4359583b",
                "srcKUID": "d6da234dd41e4bcdab46d2091be55c89",
                "wType": "FlexContainer"
            },
            "autogrowMode": {
                "Default": 0
            },
            "height": {},
            "layoutType": 3,
            "responsiveData": {
                "b1": {
                    "top": {
                        "type": "string",
                        "value": "50dp"
                    }
                },
                "b2": {
                    "height": {
                        "type": "string",
                        "value": "160dp"
                    },
                    "layoutType": 4,
                    "top": {
                        "type": "string",
                        "value": "100dp"
                    }
                },
                "b3": {
                    "height": {
                        "type": "string",
                        "value": "210px"
                    },
                    "layoutType": 4,
                    "top": {
                        "type": "string",
                        "value": "70dp"
                    },
                    "width": {
                        "type": "string",
                        "value": "90%"
                    }
                },
                "b4": {
                    "height": {
                        "type": "string",
                        "value": "160px"
                    },
                    "layoutType": 4,
                    "top": {
                        "type": "string",
                        "value": "100dp"
                    }
                }
            },
            "top": {},
            "width": {}
        },
        "flxOTPHeader": {
            "__events__": {},
            "__info__": {
                "kuid": "aac72ed8048c46bf8d8a04d74aff25c0",
                "srcKUID": "a7f3a09197bd4878a4888b52c07b6005",
                "wType": "FlexContainer"
            }
        },
        "flxRemember": {
            "__events__": {},
            "__info__": {
                "kuid": "j67b3df7ce6d428db646404e82d19b71",
                "srcKUID": "d656782fd45a4aa299ceea4a8649b853",
                "wType": "FlexContainer"
            },
            "autogrowMode": {
                "Default": 0
            },
            "centerX": {},
            "height": {},
            "responsiveData": {
                "b1": {
                    "centerX": {
                        "type": "string",
                        "value": "50%"
                    },
                    "height": {
                        "type": "string",
                        "value": "50dp"
                    }
                },
                "b2": {
                    "centerX": {
                        "type": "string",
                        "value": "50%"
                    }
                },
                "b3": {
                    "centerX": {
                        "type": "string",
                        "value": "50%"
                    }
                },
                "b4": {
                    "centerX": {
                        "type": "string",
                        "value": "50%"
                    },
                    "height": {
                        "type": "string",
                        "value": "50dp"
                    }
                }
            }
        },
        "flxRememberMe": {
            "__events__": {},
            "__info__": {
                "kuid": "b788edd5dd264f8ea4f1123c52ab7cd5",
                "srcKUID": "ca5ed658ccba4d28a22f50e5b2cfafb0",
                "wType": "FlexContainer"
            },
            "autogrowMode": {
                "Default": 0
            },
            "centerX": {},
            "height": {},
            "left": {},
            "responsiveData": {
                "b1": {
                    "height": {
                        "type": "string",
                        "value": "50dp"
                    },
                    "width": {
                        "type": "string",
                        "value": "350dp"
                    }
                },
                "b2": {
                    "centerX": {
                        "type": "string",
                        "value": "50%"
                    },
                    "left": {
                        "type": "string",
                        "value": "132dp"
                    },
                    "top": {
                        "type": "string",
                        "value": "51dp"
                    },
                    "width": {
                        "type": "string",
                        "value": "350dp"
                    }
                },
                "b3": {
                    "centerX": {
                        "type": "string",
                        "value": "50%"
                    },
                    "height": {
                        "type": "string",
                        "value": "28dp"
                    },
                    "left": {
                        "type": "string",
                        "value": ""
                    },
                    "top": {
                        "type": "string",
                        "value": "25dp"
                    },
                    "width": {
                        "type": "string",
                        "value": "250dp"
                    }
                },
                "b4": {
                    "centerX": {
                        "type": "string",
                        "value": "50%"
                    },
                    "height": {
                        "type": "string",
                        "value": "50dp"
                    },
                    "left": {
                        "type": "string",
                        "value": "100dp"
                    },
                    "top": {
                        "type": "string",
                        "value": "51dp"
                    },
                    "width": {
                        "type": "string",
                        "value": "350dp"
                    }
                }
            },
            "top": {},
            "width": {}
        },
        "flximgrtx": {
            "__events__": {},
            "__info__": {
                "kuid": "c6aec6cd5e5641dea6c93d97ceadccdc",
                "srcKUID": "a6c07baea80b4a7a860333d3b810d8df",
                "wType": "FlexContainer"
            },
            "autogrowMode": {
                "Default": 1
            },
            "centerX": {},
            "height": {
                "Default": {
                    "type": "ref",
                    "value": "preferred"
                }
            },
            "left": {},
            "responsiveData": {
                "b1": {
                    "layoutType": 2,
                    "top": {
                        "type": "string",
                        "value": "50dp"
                    }
                },
                "b2": {
                    "centerX": {
                        "type": "string",
                        "value": "50%"
                    },
                    "layoutType": 4,
                    "left": {
                        "type": "string",
                        "value": "80dp"
                    },
                    "top": {
                        "type": "string",
                        "value": "100dp"
                    }
                },
                "b3": {
                    "centerX": {
                        "type": "string",
                        "value": "50%"
                    },
                    "layoutType": 4,
                    "top": {
                        "type": "string",
                        "value": "100dp"
                    }
                },
                "b4": {
                    "layoutType": 4,
                    "top": {
                        "type": "string",
                        "value": "120dp"
                    }
                }
            },
            "top": {}
        },
        "imgPhoneOTP": {
            "__events__": {},
            "__info__": {
                "kuid": "f047647bbb6944c48d7fcbe91cfca6f1",
                "srcKUID": "g2f30a7d6344404498b0b715fc675745",
                "wType": "Image"
            },
            "src": "send_pin.png"
        },
        "imgRememberMe": {
            "__events__": {},
            "__info__": {
                "kuid": "icee31f8792d4d4abf091377a5abe141",
                "srcKUID": "dcc183adf6f14df0992f27056447bf53",
                "wType": "Image"
            },
            "height": {
                "Default": {
                    "type": "ref",
                    "value": "preferred"
                }
            },
            "left": {
                "Default": {
                    "type": "string",
                    "value": "0dp"
                }
            },
            "responsiveData": {},
            "src": "unchecked_box.png",
            "top": {
                "Default": {
                    "type": "string",
                    "value": "0dp"
                }
            }
        },
        "lblFavoriteEmailCheckBox": {
            "__events__": {},
            "__info__": {
                "kuid": "b1032822f818488fbfc8a2e2e6c03701",
                "srcKUID": "f971b3ce7e3546e18f53f66e9b358e32",
                "wType": "Label"
            }
        },
        "lblHeader": {
            "__events__": {},
            "__info__": {
                "kuid": "c819620ea77b417cbe8cd92967dea1ed",
                "srcKUID": "dc1a5270bad84fd1af595c0c86cc3f48",
                "wType": "Label"
            }
        },
        "lblHeaderOTP": {
            "__events__": {},
            "__info__": {
                "kuid": "c9937f31dc0e4ed88b7f5979bbf07e1a",
                "srcKUID": "d75445dfc76e4ef39ec9e9a4d8c45886",
                "wType": "Label"
            },
            "centerX": {},
            "height": {},
            "left": {},
            "responsiveData": {
                "b1": {
                    "left": {
                        "type": "string",
                        "value": "15dp"
                    },
                    "width": {
                        "type": "string",
                        "value": "91%"
                    }
                },
                "b2": {
                    "height": {
                        "type": "ref",
                        "value": "preferred"
                    },
                    "width": {
                        "type": "string",
                        "value": "90%"
                    }
                },
                "b3": {
                    "width": {
                        "type": "string",
                        "value": "91%"
                    }
                },
                "b4": {
                    "centerX": {
                        "type": "string",
                        "value": ""
                    },
                    "height": {
                        "type": "ref",
                        "value": "preferred"
                    },
                    "top": {
                        "type": "string",
                        "value": "0dp"
                    },
                    "width": {
                        "type": "string",
                        "value": "90%"
                    }
                }
            },
            "top": {},
            "width": {}
        },
        "lblIAccept": {
            "__events__": {},
            "__info__": {
                "kuid": "bd1d2671452a4d78b30247a1efba6685",
                "srcKUID": "b1017c8409b14e6c9aaa22c678e8724f",
                "wType": "Label"
            }
        },
        "lblMRememberMe": {
            "__events__": {},
            "__info__": {
                "kuid": "a508428b7af243aa88052f15d95555e8",
                "srcKUID": "ef34b0ce10914c6cb765abf051b4b322",
                "wType": "Label"
            },
            "height": {
                "Default": {
                    "type": "ref",
                    "value": "preferred"
                }
            },
            "responsiveData": {
                "b3": {
                    "text": "D",
                    "top": {
                        "type": "string",
                        "value": "0dp"
                    }
                }
            },
            "text": "D",
            "top": {}
        },
        "lblNoteSecureAccessCode": {
            "__events__": {},
            "__info__": {
                "kuid": "e10fae8fddd7487ba9b4e15793d291db",
                "srcKUID": "de02bae9b2da40b884eccd1aa6c1c390",
                "wType": "Label"
            }
        },
        "lblOTP": {
            "__events__": {},
            "__info__": {
                "kuid": "j30d10d5180e4e239c136ef48faaa1fc",
                "srcKUID": "af4e2f3220fb4096a7e759f5e32c6bc1",
                "wType": "Label"
            },
            "centerX": {
                "Default": {
                    "type": "number",
                    "value": ""
                }
            },
            "centerY": {},
            "height": {
                "Default": {
                    "type": "string",
                    "value": "66dp"
                }
            },
            "responsiveData": {
                "b2": {
                    "centerX": {
                        "type": "string",
                        "value": "50%"
                    },
                    "centerY": {
                        "type": "string",
                        "value": ""
                    },
                    "width": {
                        "type": "string",
                        "value": "60dp"
                    }
                },
                "b3": {
                    "centerX": {
                        "type": "string",
                        "value": "50%"
                    },
                    "centerY": {
                        "type": "string",
                        "value": ""
                    },
                    "top": {
                        "type": "string",
                        "value": "0dp"
                    }
                },
                "b4": {
                    "centerX": {
                        "type": "string",
                        "value": "50%"
                    },
                    "centerY": {
                        "type": "string",
                        "value": ""
                    }
                }
            },
            "top": {},
            "width": {}
        },
        "lblPhoneOTP": {
            "__events__": {},
            "__info__": {
                "kuid": "dbce108e1cfc4e17be9664d4e05115c7",
                "srcKUID": "cf9f08adbdc2473489f16fde06b7a94a",
                "wType": "Label"
            },
            "centerX": {},
            "centerY": {},
            "height": {
                "Default": {
                    "type": "string",
                    "value": "66dp"
                }
            },
            "responsiveData": {
                "b1": {
                    "centerY": {
                        "type": "string",
                        "value": ""
                    },
                    "top": {
                        "type": "string",
                        "value": "20dp"
                    }
                },
                "b2": {
                    "centerX": {
                        "type": "string",
                        "value": "50%"
                    },
                    "centerY": {
                        "type": "string",
                        "value": ""
                    },
                    "height": {
                        "type": "string",
                        "value": "66dp"
                    }
                },
                "b3": {
                    "centerX": {
                        "type": "string",
                        "value": "50%"
                    },
                    "centerY": {
                        "type": "string",
                        "value": ""
                    },
                    "height": {
                        "type": "string",
                        "value": "66dp"
                    }
                },
                "b4": {
                    "centerX": {
                        "type": "string",
                        "value": "50%"
                    },
                    "centerY": {
                        "type": "string",
                        "value": ""
                    },
                    "height": {
                        "type": "string",
                        "value": "66dp"
                    },
                    "top": {
                        "type": "string",
                        "value": "0dp"
                    }
                }
            },
            "top": {}
        },
        "lblRegisteredEmail": {
            "__events__": {},
            "__info__": {
                "kuid": "d8305f40250f46a8b9ffa255cc571777",
                "srcKUID": "e89c65c37c724096a3f39aeee4d891f8",
                "wType": "Label"
            },
            "responsiveData": {
                "b2": {
                    "top": {
                        "type": "string",
                        "value": "30dp"
                    }
                },
                "b3": {
                    "width": {
                        "type": "string",
                        "value": "90%"
                    }
                }
            },
            "top": {},
            "width": {}
        },
        "lblRegisteredPhone": {
            "__events__": {},
            "__info__": {
                "kuid": "g317b2613fe24b14a285fab2bf5c858e",
                "srcKUID": "ed8b15cea278495a87564de173e89fa7",
                "wType": "Label"
            },
            "centerX": {},
            "left": {},
            "responsiveData": {
                "b2": {
                    "top": {
                        "type": "string",
                        "value": "26dp"
                    }
                },
                "b3": {
                    "centerX": {
                        "type": "string",
                        "value": "50%"
                    },
                    "left": {
                        "type": "string",
                        "value": ""
                    },
                    "top": {
                        "type": "string",
                        "value": "30dp"
                    },
                    "width": {
                        "type": "string",
                        "value": "90%"
                    }
                },
                "b4": {
                    "top": {
                        "type": "string",
                        "value": "26dp"
                    }
                }
            },
            "top": {},
            "width": {}
        },
        "lblRememberMe": {
            "__events__": {},
            "__info__": {
                "kuid": "ff921944f68b4a00b32883551634939f",
                "srcKUID": "cd3935ecd7f24a3683f4e269f652e609",
                "wType": "Label"
            },
            "centerX": {},
            "i18n_text": "i18n.mfaprelogin.registerthisdevice",
            "left": {},
            "responsiveData": {
                "b1": {
                    "centerX": {
                        "type": "string",
                        "value": ""
                    },
                    "left": {
                        "type": "string",
                        "value": "0dp"
                    },
                    "text": "Register this browser",
                    "top": {
                        "type": "string",
                        "value": "20dp"
                    }
                },
                "b2": {
                    "centerX": {
                        "type": "string",
                        "value": ""
                    },
                    "left": {
                        "type": "string",
                        "value": "0dp"
                    }
                },
                "b3": {
                    "centerX": {
                        "type": "string",
                        "value": ""
                    },
                    "left": {
                        "type": "string",
                        "value": "0dp"
                    },
                    "top": {
                        "type": "string",
                        "value": "5dp"
                    }
                },
                "b4": {
                    "centerX": {
                        "type": "string",
                        "value": ""
                    },
                    "left": {
                        "type": "string",
                        "value": "0dp"
                    }
                }
            },
            "text": "Register this device",
            "top": {}
        },
        "lblResendMessage": {
            "__events__": {},
            "__info__": {
                "kuid": "a016fdc7a2814cc9938a53a367cc2203",
                "srcKUID": "cbba658422a8417793c34c8ffd62fca5",
                "wType": "Label"
            },
            "left": {},
            "responsiveData": {
                "b1": {
                    "left": {
                        "type": "string",
                        "value": "15dp"
                    }
                }
            }
        },
        "lblResendOTPMessage": {
            "__events__": {},
            "__info__": {
                "kuid": "dcadcf37fdd8403e99d6b6a3a8fc3781",
                "srcKUID": "a07f3b2d85d14f16929c741d0d0e2bd7",
                "wType": "Label"
            },
            "isVisible": false,
            "left": {},
            "responsiveData": {
                "b1": {
                    "top": {
                        "type": "string",
                        "value": "105dp"
                    },
                    "width": {
                        "type": "string",
                        "value": "100%"
                    }
                },
                "b2": {
                    "left": {
                        "type": "string",
                        "value": "0dp"
                    },
                    "top": {
                        "type": "string",
                        "value": "10dp"
                    },
                    "width": {
                        "type": "string",
                        "value": "100%"
                    }
                },
                "b3": {
                    "width": {
                        "type": "string",
                        "value": "100%"
                    }
                },
                "b4": {
                    "top": {
                        "type": "string",
                        "value": "10dp"
                    },
                    "width": {
                        "type": "string",
                        "value": "100%"
                    }
                }
            },
            "text": "",
            "top": {},
            "width": {}
        },
        "lblWrongOTP": {
            "__events__": {},
            "__info__": {
                "kuid": "c220653655de4c02bef8ce50d0c6cdf5",
                "srcKUID": "f10ceda731fb4743b431eb8d23edd993",
                "wType": "Label"
            },
            "responsiveData": {
                "b1": {
                    "isVisible": false,
                    "top": {
                        "type": "string",
                        "value": "152dp"
                    }
                },
                "b2": {
                    "isVisible": false,
                    "top": {
                        "type": "string",
                        "value": "245dp"
                    }
                },
                "b3": {
                    "centerX": {
                        "type": "string",
                        "value": "50%"
                    },
                    "isVisible": false,
                    "top": {
                        "type": "string",
                        "value": "245dp"
                    },
                    "width": {
                        "type": "string",
                        "value": "80%"
                    }
                },
                "b4": {
                    "isVisible": false,
                    "top": {
                        "type": "string",
                        "value": "260dp"
                    }
                }
            },
            "top": {}
        },
        "lbxEmail": {
            "__events__": {},
            "__info__": {
                "kuid": "b62a6343f32044fb98ed5edcfb571592",
                "srcKUID": "ef5d5aeef9c0485291943c9566d43162",
                "wType": "ListBox"
            },
            "responsiveData": {
                "b3": {
                    "width": {
                        "type": "string",
                        "value": "90%"
                    }
                }
            },
            "width": {}
        },
        "lbxPhone": {
            "__events__": {},
            "__info__": {
                "kuid": "e78e3ba9229743b98bca13d6177c79fe",
                "srcKUID": "hb8abcd82dae41f0ad5722e9ef91de94",
                "wType": "ListBox"
            },
            "responsiveData": {
                "b3": {
                    "width": {
                        "type": "string",
                        "value": "90%"
                    }
                }
            },
            "width": {}
        },
        "rtxEnterCVVCode": {
            "__events__": {},
            "__info__": {
                "kuid": "ba6e640f7b73452aad22fe4ade75342c",
                "srcKUID": "bbbe6a0a66b740d58587ffd7aa17a34a",
                "wType": "RichText"
            },
            "centerX": {
                "Default": {
                    "type": "string",
                    "value": "50%"
                }
            },
            "centerY": {},
            "height": {},
            "left": {},
            "responsiveData": {
                "b1": {
                    "centerX": {
                        "type": "string",
                        "value": ""
                    },
                    "centerY": {
                        "type": "string",
                        "value": ""
                    },
                    "height": {
                        "type": "ref",
                        "value": "preferred"
                    },
                    "left": {
                        "type": "string",
                        "value": "60dp"
                    },
                    "top": {
                        "type": "string",
                        "value": "30dp"
                    },
                    "width": {
                        "type": "string",
                        "value": "85%"
                    }
                },
                "b2": {
                    "centerX": {
                        "type": "string",
                        "value": "50%"
                    },
                    "centerY": {
                        "type": "string",
                        "value": ""
                    },
                    "height": {
                        "type": "ref",
                        "value": "preferred"
                    },
                    "left": {
                        "type": "string",
                        "value": ""
                    },
                    "top": {
                        "type": "string",
                        "value": "20dp"
                    },
                    "width": {
                        "type": "string",
                        "value": "85%"
                    }
                },
                "b3": {
                    "centerX": {
                        "type": "string",
                        "value": "50%"
                    },
                    "height": {
                        "type": "ref",
                        "value": "preferred"
                    },
                    "left": {
                        "type": "string",
                        "value": "0dp"
                    },
                    "text": "Enter Secure Access Code sent on\nyour mobile phone.",
                    "width": {
                        "type": "string",
                        "value": "270dp"
                    }
                },
                "b4": {
                    "centerX": {
                        "type": "string",
                        "value": "50%"
                    },
                    "centerY": {
                        "type": "string",
                        "value": ""
                    },
                    "height": {
                        "type": "ref",
                        "value": "preferred"
                    },
                    "left": {
                        "type": "string",
                        "value": "0dp"
                    },
                    "top": {
                        "type": "string",
                        "value": "20dp"
                    },
                    "width": {
                        "type": "string",
                        "value": "80%"
                    }
                }
            },
            "top": {},
            "width": {}
        },
        "tbxCVV": {
            "__events__": {},
            "__info__": {
                "kuid": "c5dadeedd9fd4835aa5e19eb80c6d11f",
                "srcKUID": "iadac46e1933407cb3f04c7de82b3555",
                "wType": "TextField"
            },
            "centerX": {},
            "centerY": {
                "Default": {
                    "type": "string",
                    "value": "53%"
                }
            },
            "height": {},
            "left": {},
            "responsiveData": {
                "b1": {
                    "centerX": {
                        "type": "string",
                        "value": ""
                    },
                    "centerY": {
                        "type": "string",
                        "value": "50%"
                    },
                    "height": {
                        "type": "string",
                        "value": "100%"
                    },
                    "left": {
                        "type": "number",
                        "value": "0"
                    },
                    "top": {
                        "type": "string",
                        "value": ""
                    },
                    "width": {
                        "type": "string",
                        "value": "100%"
                    }
                },
                "b2": {
                    "left": {
                        "type": "string",
                        "value": "0dp"
                    }
                },
                "b3": {
                    "width": {
                        "type": "string",
                        "value": "100%"
                    }
                },
                "b4": {
                    "centerX": {
                        "type": "string",
                        "value": "50%"
                    },
                    "top": {
                        "type": "string",
                        "value": "80dp"
                    }
                }
            },
            "top": {},
            "width": {}
        }
    },
    "enablescrolling": true,
    "id": "OTPModule",
    "info": null,
    "iscustomlayout": false,
    "isdatareferenced": false,
    "issegmentchild": false,
    "isvisible": true,
    "kuid": "a189f8f317ce4f95a175f8a56614d296",
    "layouttype": 2,
    "masterType": 0,
    "name": "kony.ui.UserWidgetInstance",
    "parent": "flxPhoneAndEmail",
    "pf": "frmMFAPreLogin",
    "retaincontentalignment": false,
    "retainflexpositionproperties": false,
    "snapgridsize": 10,
    "snaptogrid": true,
    "sourceUserWidget": "j352ee82c89c4404a67cd7f06714deea",
    "wType": "UserWidgetInstance"
}