{
    "DNDConfig": null,
    "__parentReadjusting__": false,
    "_height_": {
        "type": "string",
        "value": "742dp"
    },
    "_left_": {
        "type": "string",
        "value": "0dp"
    },
    "_margin_": [
        0,
        0,
        0,
        0
    ],
    "_orientation_": 6,
    "_padding_": [
        0,
        0,
        0,
        0
    ],
    "_percent_": true,
    "_skin_": "scbd4cac3526468089bf3013adff0549",
    "_top_": {
        "type": "string",
        "value": "0dp"
    },
    "_width_": {
        "type": "string",
        "value": "100%"
    },
    "allboxes": [],
    "autogrowmode": 0,
    "canUpdateUI": true,
    "children": [
        "flxSeparator2",
        "lblFrom",
        "flxCalendar",
        "tbxActualLoanEndDate",
        "lblLoanEndDate",
        "tbxLoanPayOffAmount",
        "lblLoanPayOffAmount",
        "listbxFrom",
        "listbxTo",
        "lblTo",
        "tbxPayoffPenality",
        "tbxOptional",
        "lblPayOn",
        "lblNote",
        "btnCancel",
        "btnConfirm",
        "flxCheckbox",
        "flxPayOffPenality",
        "lblAgree",
        "imgInfo",
        "flxa"
    ],
    "clipbounds": true,
    "containerweight": 100,
    "enablescrolling": true,
    "id": "flxContent",
    "info": null,
    "isvisible": false,
    "kuid": "ce0934df615940408228f20b6f56e03f",
    "layouttype": 2,
    "name": "kony.ui.FlexContainer",
    "parent": "flxLoanPayOff",
    "pf": "userwidgetmodel",
    "snapgridsize": 10,
    "snaptogrid": true,
    "wType": "FlexContainer",
    "widgetalignment": 1,
    "zindex": 1
}