{
    "@class": "com.kony.gen.viz.model.component.KVizLabel",
    "DNDConfig": null,
    "__parentReadjusting__": false,
    "_height_": {
        "type": "string",
        "value": "20dp"
    },
    "_margin_": [
        1,
        1,
        1,
        1
    ],
    "_padding_": [
        0,
        0,
        0,
        0
    ],
    "_skin_": "s7b013da610149b687ff70100336c9e5",
    "_text_": "Send Money To New Recipient",
    "_top_": {
        "type": "string",
        "value": "105dp"
    },
    "_width_": {
        "type": "string",
        "value": "100%"
    },
    "_wrapping_": 2,
    "accessibilityconfig": {
        "a11yLabel": "Send Money to New Recipient"
    },
    "android": {
        "textStyle": {
            "letterSpacing": 0,
            "strikeThrough": false
        }
    },
    "canUpdateUI": true,
    "centerx": {
        "type": "string",
        "value": "50%"
    },
    "containerweight": 100,
    "contentalignment": 5,
    "desktopweb": {
        "psp": {
            "hoverSkin": "s0082bcdc29941d08a3e3d32c4669326"
        }
    },
    "disabledSkins": {},
    "id": "lblSendMoneyToNewRecipientPayPersonFailure",
    "info": null,
    "ipad": {
        "psp": {
            "wrapping": 2
        }
    },
    "iphone": {
        "psp": {
            "wrapping": 2
        }
    },
    "iscustomlayout": false,
    "isvisible": true,
    "kuid": "a9289383288749949ace40b7c803b5e4",
    "name": "kony.ui.Label",
    "parent": "flxNoResultsToPayPersonFailure",
    "pf": "userwidgetmodel",
    "retaincontentalignment": false,
    "retainflexpositionproperties": false,
    "texti18n": "i18n.PayAPerson.SendMoneyToNewRecipient",
    "tooltip": "",
    "wType": "Label",
    "zindex": 1
}