{
    "@class": "com.kony.gen.viz.model.component.KVizTextBox2",
    "DNDConfig": null,
    "__parentReadjusting__": false,
    "_height_": {
        "type": "string",
        "value": "40dp"
    },
    "_left_": {
        "type": "string",
        "value": "3.77%"
    },
    "_margin_": [
        0,
        0,
        0,
        0
    ],
    "_padding_": [
        1,
        0,
        0,
        0
    ],
    "_placeholder_": "",
    "_skin_": "se724e09b52442d8815cf20aaa2a6cbe",
    "_text_": "$ 12,980.00",
    "_top_": {
        "type": "string",
        "value": "205dp"
    },
    "_width_": {
        "type": "string",
        "value": "45.34%"
    },
    "autocapitalize": "none",
    "autocomplete": false,
    "autocorrect": false,
    "autofilter": false,
    "canUpdateUI": true,
    "containerheight": "",
    "containerheightmode": 1,
    "containerweight": 100,
    "contentalignment": 1,
    "desktopweb": {},
    "focusskin": "s2faf9c2766d4142ab33d0bf97445ae0",
    "id": "tbxLoanPayOffAmount",
    "info": null,
    "isvisible": true,
    "keyboardtype": "A",
    "kuid": "ua5e674d95af49c29110e0f78fcab9c4",
    "mode": "A",
    "name": "kony.ui.TextBox2",
    "paddinginpixel": false,
    "parent": "flxContent",
    "pf": "userwidgetmodel",
    "securetextentry": false,
    "textinputmode": "A",
    "viewtype": "default",
    "wType": "TextField",
    "zindex": 1
}