{
    "@class": "com.kony.gen.viz.model.component.KVizTextBox2",
    "DNDConfig": null,
    "__parentReadjusting__": false,
    "_height_": {
        "type": "string",
        "value": "40dp"
    },
    "_left_": {
        "type": "string",
        "value": "3.77%"
    },
    "_margin_": [
        0,
        0,
        0,
        0
    ],
    "_padding_": [
        1,
        0,
        0,
        0
    ],
    "_placeholder_": "Optional",
    "_skin_": "sef50e59a86d4a8f9eccdf903cdcdcb3",
    "_text_": "",
    "_top_": {
        "type": "string",
        "value": "530dp"
    },
    "_width_": {
        "type": "string",
        "value": "95.50%"
    },
    "accessibilityconfig": {
        "a11yLabel": "Optional"
    },
    "autocapitalize": "none",
    "autocomplete": false,
    "autocorrect": false,
    "autofilter": false,
    "canUpdateUI": true,
    "containerheight": "",
    "containerheightmode": 1,
    "containerweight": 100,
    "contentalignment": 1,
    "desktopweb": {},
    "focusskin": "s2faf9c2766d4142ab33d0bf97445ae0",
    "id": "tbxOptional",
    "info": null,
    "isvisible": true,
    "keyboardtype": "A",
    "kuid": "u923242465814f10b4dc1ef3d4e3274b",
    "mode": "A",
    "name": "kony.ui.TextBox2",
    "paddinginpixel": false,
    "parent": "flxContent",
    "pf": "userwidgetmodel",
    "securetextentry": false,
    "textinputmode": "A",
    "viewtype": "default",
    "wType": "TextField",
    "zindex": 1
}