{
    "@class": "com.kony.gen.viz.model.component.KVizButton",
    "DNDConfig": null,
    "__parentReadjusting__": false,
    "_height_": {
        "type": "string",
        "value": "40dp"
    },
    "_margin_": [
        6,
        6,
        6,
        6
    ],
    "_padding_": [
        0,
        0,
        0,
        0
    ],
    "_right_": {
        "type": "string",
        "value": "308dp"
    },
    "_skin_": "sa611611b2f24e93bcfd09e1606c0d86",
    "_text_": "NO THANKS",
    "_top_": {
        "type": "string",
        "value": "30dp"
    },
    "_width_": {
        "type": "string",
        "value": "258dp"
    },
    "accessibilityconfig": {
        "a11yLabel": "No Thanks"
    },
    "canUpdateUI": true,
    "centery": {
        "type": "string",
        "value": "50%"
    },
    "containerweight": 100,
    "contentalignment": 5,
    "desktopweb": {
        "psp": {
            "hoverSkin": "sba91fb5e9774521856508ab3e21943d"
        }
    },
    "disabledSkins": {},
    "displaytext": true,
    "focusskin": "sb23593b913b4005add4a246020aa1cc",
    "id": "btnCancelNotEligible",
    "info": null,
    "isvisible": true,
    "kuid": "fe099ec904ef4133b5ff47acb1146464",
    "name": "kony.ui.Button",
    "parent": "flxButtonsNotEligible",
    "pf": "frmBillPayActivationNotEligible",
    "responsiveData": {
        "b3": {
            "centerY": {
                "type": "string",
                "value": ""
            },
            "right": {
                "type": "string",
                "value": "2%"
            },
            "top": {
                "type": "string",
                "value": "80dp"
            },
            "width": {
                "type": "string",
                "value": "96%"
            }
        }
    },
    "texti18n": "i18n.BillPay.NOTHANKS",
    "tooltip": "No Thanks",
    "wType": "Button",
    "zindex": 2
}