{
    "@class": "com.kony.gen.viz.model.component.KVizUserWidget",
    "DNDConfig": null,
    "_children_": [],
    "_height_": {
        "type": "string",
        "value": "200dp"
    },
    "_left_": {
        "type": "string",
        "value": "0dp"
    },
    "_margin_": [
        0,
        0,
        0,
        0
    ],
    "_orientation_": 1,
    "_padding_": [
        0,
        0,
        0,
        0
    ],
    "_percent_": true,
    "_skin_": "s24c92fc23b14f5484b693ee9b8a9b35",
    "_top_": {
        "type": "string",
        "value": "0dp"
    },
    "_width_": {
        "type": "string",
        "value": "100%"
    },
    "areflexpropsreferenced": false,
    "autogrowmode": 0,
    "canUpdateUI": true,
    "clipbounds": false,
    "containerweight": 0,
    "dataDiffs": {
        "cardDetails": {
            "__events__": {},
            "__info__": {
                "isRoot": true,
                "kuid": "jd24db581d5c496f884a9a16f814a294",
                "srcKUID": "c8b6d77f869e488ca37963692a6a18bc",
                "wType": "FlexContainer"
            }
        },
        "flxCardDetails": {
            "__events__": {},
            "__info__": {
                "kuid": "ce669fc9a2e04f5f99e758fbb90eabf8",
                "srcKUID": "ca26fd415c6148499c1439df9356f3e2",
                "wType": "FlexContainer"
            }
        },
        "flxCardHeader": {
            "__events__": {},
            "__info__": {
                "kuid": "a73b20d47f684693847e754f7a40de0d",
                "srcKUID": "fe91b4603fa24e71bf2dad8db9da51ec",
                "wType": "FlexContainer"
            }
        },
        "flxDetailsRow1": {
            "__events__": {},
            "__info__": {
                "kuid": "d09c6592c82847a6918c40d0e38dbf50",
                "srcKUID": "e7938485003445cf804636460db9b811",
                "wType": "FlexContainer"
            }
        },
        "flxDetailsRow2": {
            "__events__": {},
            "__info__": {
                "kuid": "a8369f105dc94363933549701e1d406e",
                "srcKUID": "j6a0d82bdf4342b5b8cc85dc94002ad0",
                "wType": "FlexContainer"
            }
        },
        "flxDetailsRow3": {
            "__events__": {},
            "__info__": {
                "kuid": "h4007d61d270468abcf99d195969a975",
                "srcKUID": "bc48462138a24eb29f074236a2ea669b",
                "wType": "FlexContainer"
            }
        },
        "flxDetailsRow4": {
            "__events__": {},
            "__info__": {
                "kuid": "a01f075ce63c4c5d859682e97d19d068",
                "srcKUID": "ad0ec286566e481eae43f35f0a16d158",
                "wType": "FlexContainer"
            }
        },
        "flxWrapper": {
            "__events__": {},
            "__info__": {
                "kuid": "dea8b1dd6118495b88ffa8f58b62ed92",
                "srcKUID": "ce97166f7cac467cb6335a3fac1bf9f0",
                "wType": "FlexContainer"
            }
        },
        "imgCard": {
            "__events__": {},
            "__info__": {
                "kuid": "dca2a321cb2646fdbd50866bfd9cc44c",
                "srcKUID": "d761321196fb49a6b3946aec117ba89c",
                "wType": "Image"
            }
        },
        "imgCardMobile": {
            "__events__": {},
            "__info__": {
                "kuid": "ccb0454a15284a9e929919b5898da640",
                "srcKUID": "a11ee4865f294b6193d864f05f5d55f2",
                "wType": "Image"
            }
        },
        "lblCardHeader": {
            "__events__": {},
            "__info__": {
                "kuid": "g6693b51d91c4e6e9097cb328427aba7",
                "srcKUID": "e0e44aa5b0214f5e8e1ab71099b23a81",
                "wType": "Label"
            }
        },
        "lblCardName": {
            "__events__": {},
            "__info__": {
                "kuid": "b5aadf566e9e4aebbe5e97afc2904e08",
                "srcKUID": "b897da7835a749368f0d19e8e4266a47",
                "wType": "Label"
            }
        },
        "lblCardStatus": {
            "__events__": {},
            "__info__": {
                "kuid": "cb87a4d760e84d389487f421f5857f45",
                "srcKUID": "eecffe8bc31c4e5b98a700e909df4468",
                "wType": "Label"
            }
        },
        "lblCardStatusMobile": {
            "__events__": {},
            "__info__": {
                "kuid": "bc44775edf124a80ad0996a887a2917c",
                "srcKUID": "cec0b615c44443a9b010d99f3315959a",
                "wType": "Label"
            }
        },
        "lblKey1": {
            "__events__": {},
            "__info__": {
                "kuid": "i780ce6be03e49f4a2de04c43be94ad2",
                "srcKUID": "cbb6ef29c94d44d586f634fa2b57f2bf",
                "wType": "Label"
            }
        },
        "lblKey2": {
            "__events__": {},
            "__info__": {
                "kuid": "a5ad415225214d769d0939915a654833",
                "srcKUID": "c1c176bbafc14047a93387566dd20521",
                "wType": "Label"
            }
        },
        "lblKey3": {
            "__events__": {},
            "__info__": {
                "kuid": "je32755600ec45d5be44aa945f7a6a66",
                "srcKUID": "jec27cdf42d747778db5b0866b8873dd",
                "wType": "Label"
            }
        },
        "lblKey4": {
            "__events__": {},
            "__info__": {
                "kuid": "a8aec241a33f4b0f919abd80e5310476",
                "srcKUID": "cd8d6e491fb44d3692928ce44c770850",
                "wType": "Label"
            }
        },
        "lblSeparator1": {
            "__events__": {},
            "__info__": {
                "kuid": "c566fe6c5b17493098ac919c6f125369",
                "srcKUID": "dc193190c4344bc5983ba440f34841c2",
                "wType": "Label"
            }
        },
        "rtxValue1": {
            "__events__": {},
            "__info__": {
                "kuid": "e9b0a1268e9741f98eb462b903e27154",
                "srcKUID": "fceae50465894645a9fcfb1d07f50a90",
                "wType": "RichText"
            }
        },
        "rtxValue2": {
            "__events__": {},
            "__info__": {
                "kuid": "g7e89c9684ed42699159fdac891b0bc5",
                "srcKUID": "c539f328a9bd49ae821fd596f7ef509d",
                "wType": "RichText"
            }
        },
        "rtxValue3": {
            "__events__": {},
            "__info__": {
                "kuid": "ad77fd92567e44058423f739093483c6",
                "srcKUID": "fdfaa544a2b54a06a8f9b546a02d2ef1",
                "wType": "RichText"
            }
        },
        "rtxValue4": {
            "__events__": {},
            "__info__": {
                "kuid": "if9e07abdfeb45229881c5359e251c58",
                "srcKUID": "d9fcceffa6744266a8197fa222b5d461",
                "wType": "RichText"
            }
        },
        "rtxValueMobile": {
            "__events__": {},
            "__info__": {
                "kuid": "a1afa3d70c7d4fcb88168a0979d4ff58",
                "srcKUID": "c199e7ffa6c04d7789110eeebbc5250b",
                "wType": "RichText"
            }
        }
    },
    "enablescrolling": true,
    "id": "cardDetails",
    "info": null,
    "iscustomlayout": false,
    "isdatareferenced": false,
    "isvisible": true,
    "kuid": "jd24db581d5c496f884a9a16f814a294",
    "layouttype": 2,
    "masterType": 0,
    "name": "kony.ui.UserWidgetInstance",
    "parent": "flxLeft",
    "pf": "frmCardManagementChangePin",
    "retaincontentalignment": false,
    "retainflexpositionproperties": false,
    "retainflowhorizontalalignment": false,
    "snapgridsize": 10,
    "snaptogrid": true,
    "sourceUserWidget": "c8b6d77f869e488ca37963692a6a18bc",
    "wType": "UserWidgetInstance"
}