{
    "DNDConfig": null,
    "_height_": {
        "type": "string",
        "value": "25dp"
    },
    "_left_": {
        "type": "string",
        "value": "20dp"
    },
    "_margin_": [
        0,
        0,
        0,
        0
    ],
    "_orientation_": 6,
    "_padding_": [
        0,
        0,
        0,
        0
    ],
    "_percent_": true,
    "_skin_": "s24c92fc23b14f5484b693ee9b8a9b35",
    "_top_": {
        "type": "string",
        "value": "1dp"
    },
    "_width_": {
        "type": "string",
        "value": "25px"
    },
    "allboxes": [],
    "canUpdateUI": true,
    "children": [
        "lblCheckBox2"
    ],
    "clipbounds": false,
    "containerweight": 100,
    "enablescrolling": true,
    "id": "flxCheckBox2",
    "info": null,
    "isvisible": true,
    "kuid": "d0031434334b401fbfb76af86d0232dd",
    "layouttype": 2,
    "name": "kony.ui.FlexContainer",
    "parent": "flxCheckBoxes",
    "pf": "frmCardManagementChangePin",
    "responsiveData": {
        "b2": {
            "height": {
                "type": "string",
                "value": "26dp"
            },
            "top": {
                "type": "string",
                "value": "2dp"
            }
        }
    },
    "snapgridsize": 10,
    "snaptogrid": true,
    "wType": "FlexContainer",
    "widgetalignment": 1,
    "zindex": 1
}