{
    "@class": "com.kony.gen.viz.model.component.KVizListBox",
    "DNDConfig": null,
    "_height_": {
        "type": "string",
        "value": "40dp"
    },
    "_left_": {
        "type": "string",
        "value": "0dp"
    },
    "_margin_": [
        0,
        0,
        0,
        0
    ],
    "_padding_": [
        2,
        0,
        0,
        0
    ],
    "_skin_": "sfae4459590b4f39af6863186b5f2646",
    "_top_": {
        "type": "string",
        "value": "10dp"
    },
    "_width_": {
        "type": "string",
        "value": "298px"
    },
    "canUpdateUI": true,
    "containerweight": 100,
    "contentalignment": 4,
    "groupcells": false,
    "id": "lbxReasonPinChange",
    "info": null,
    "isvisible": true,
    "kuid": "e8d52002b2454c7fbd8c38411dbe759c",
    "masterdata": [
        [
            "lb1",
            "Listbox One"
        ],
        [
            "lb2",
            "Listbox Two"
        ],
        [
            "lb3",
            "Listbox Three"
        ]
    ],
    "name": "kony.ui.ListBox",
    "parent": "flxChangeCardPin",
    "pf": "frmCardManagementChangePin",
    "responsiveData": {
        "b3": {
            "width": {
                "type": "string",
                "value": "100%"
            }
        }
    },
    "selectedkey": null,
    "selectedkeys": null,
    "selectedkeyvalue": null,
    "selectedkeyvalues": null,
    "size": 18,
    "viewconfig": {
        "toggleViewConfig": {
            "viewStyle": 0
        }
    },
    "viewtype": 0,
    "wType": "ListBox",
    "zindex": 1
}