{
    "@class": "com.kony.gen.viz.model.component.KVizButton",
    "DNDConfig": null,
    "__parentReadjusting__": false,
    "_height_": {
        "type": "ref",
        "value": "preferred"
    },
    "_margin_": [
        6,
        6,
        6,
        6
    ],
    "_padding_": [
        0,
        0,
        0,
        0
    ],
    "_skin_": "s11500b7e365426abf410569d0884580",
    "_text_": "Button",
    "_top_": {
        "type": "string",
        "value": "42dp"
    },
    "_width_": {
        "type": "ref",
        "value": "preferred"
    },
    "accessibilityconfig": {
        "a11yLabel": "Enter the CVV code"
    },
    "canUpdateUI": true,
    "centerx": {
        "type": "string",
        "value": "50%"
    },
    "containerweight": 100,
    "contentalignment": 5,
    "desktopweb": {
        "psp": {
            "hoverSkin": "s0d853c8b5284c03a08be1232819c24b"
        }
    },
    "displaytext": true,
    "focusskin": "s264339940904f6b9d3e47b6fdc9e327",
    "id": "btnUseCVV",
    "info": null,
    "isvisible": true,
    "kuid": "09a4d0b986674ce2ad9e551ca60ec155",
    "name": "kony.ui.Button",
    "parent": "resetusingOTP",
    "pf": "userwidgetmodel",
    "texti18n": "i18n.common.CVVOption",
    "tooltip": "Use the CVV code option",
    "wType": "Button",
    "zindex": 1
}