{
    "@class": "com.kony.gen.viz.model.component.KVizRichText",
    "DNDConfig": null,
    "__parentReadjusting__": false,
    "_height_": {
        "type": "ref",
        "value": "preferred"
    },
    "_left_": {
        "type": "string",
        "value": "50dp"
    },
    "_margin_": [
        0,
        0,
        0,
        0
    ],
    "_padding_": [
        0,
        0,
        0,
        0
    ],
    "_skin_": "seffa83c16094f9585ed7086b5631829",
    "_text_": "",
    "_top_": {
        "type": "string",
        "value": "15dp"
    },
    "_width_": {
        "type": "string",
        "value": "81.70%"
    },
    "_wrapping_": 2,
    "accessibilityconfig": {
        "a11yLabel": "Do you want us to text you the code?"
    },
    "canUpdateUI": true,
    "containerweight": 100,
    "contentalignment": 4,
    "id": "rtxEnterCVVCode",
    "info": null,
    "isvisible": true,
    "kuid": "dcaa079227b7421882500b0dd8cb4253",
    "name": "kony.ui.RichText",
    "parent": "flximgtext",
    "pf": "userwidgetmodel",
    "texti18n": "i18n.common.WantOTP",
    "wType": "RichText",
    "widgetalignment": 5,
    "zindex": 1
}