{
    "@class": "com.kony.gen.viz.model.component.KVizButton",
    "DNDConfig": null,
    "__parentReadjusting__": false,
    "_height_": {
        "type": "string",
        "value": "25dp"
    },
    "_left_": {
        "type": "string",
        "value": "0%"
    },
    "_margin_": [
        6,
        6,
        6,
        6
    ],
    "_padding_": [
        0,
        0,
        0,
        0
    ],
    "_skin_": "sf6ca31ec68641e5a2df8232c58cd39a",
    "_text_": "EDIT",
    "_top_": {
        "type": "string",
        "value": "13px"
    },
    "_width_": {
        "type": "string",
        "value": "25%"
    },
    "accessibilityconfig": {
        "a11yLabel": "EDIT"
    },
    "canUpdateUI": true,
    "containerId": true,
    "containerweight": 100,
    "contentalignment": 5,
    "desktopweb": {
        "psp": {
            "hoverSkin": "sd36babbd8f6461f8b492698ab830d13"
        }
    },
    "disabledSkins": {
        "focusSkin": "sf44d06ca8224832827ea7fdff757013"
    },
    "displaytext": true,
    "id": "btnEdit",
    "ide_onClick": "AS_Button_j31e51592b614912a062bbf4f5994bc2",
    "info": null,
    "isvisible": true,
    "kuid": "a8236c2f12324abda5d9ce369770a721",
    "name": "kony.ui.Button",
    "parent": "flxActions",
    "pf": "segManageRecipientSelectedMobile",
    "wType": "Button",
    "zindex": 1
}