{
    "@class": "com.kony.gen.viz.model.component.KVizLabel",
    "DNDConfig": null,
    "_height_": {
        "type": "ref",
        "value": "preferred"
    },
    "_left_": {
        "type": "string",
        "value": "20dp"
    },
    "_margin_": [
        1,
        1,
        1,
        1
    ],
    "_padding_": [
        0,
        0,
        0,
        0
    ],
    "_skin_": "sb75b207521b47ba8f721dca18b56352",
    "_text_": "Label",
    "_top_": {
        "type": "string",
        "value": "10dp"
    },
    "_width_": {
        "type": "ref",
        "value": "preferred"
    },
    "_wrapping_": 2,
    "android": {
        "textStyle": {
            "letterSpacing": 0,
            "strikeThrough": false
        }
    },
    "canUpdateUI": true,
    "containerweight": 100,
    "contentalignment": 4,
    "id": "lblPopupDescription",
    "info": null,
    "ipad": {
        "psp": {
            "wrapping": 2
        }
    },
    "iphone": {
        "psp": {
            "wrapping": 2
        }
    },
    "iscustomlayout": false,
    "isvisible": true,
    "kuid": "a0ebfda4e561491e9ff3505c4921230a",
    "name": "kony.ui.Label",
    "parent": "flxPopupDescription",
    "pf": "userwidgetmodel",
    "responsiveData": {
        "b1": {
            "skin": "se86916c40c2424ab258b8871ef00e14",
            "width": {
                "type": "string",
                "value": "93.50%"
            }
        },
        "b2": {
            "skin": "se86916c40c2424ab258b8871ef00e14",
            "width": {
                "type": "string",
                "value": "93.50%"
            }
        },
        "b3": {
            "left": {
                "type": "string",
                "value": "3.50%"
            },
            "skin": "se86916c40c2424ab258b8871ef00e14",
            "width": {
                "type": "string",
                "value": "93%"
            }
        },
        "b4": {
            "skin": "se86916c40c2424ab258b8871ef00e14",
            "width": {
                "type": "string",
                "value": "93.50%"
            }
        }
    },
    "retaincontentalignment": false,
    "retainflexpositionproperties": false,
    "tooltip": "",
    "wType": "Label",
    "zindex": 1
}