{
    "@class": "com.kony.gen.viz.model.component.KVizButton",
    "DNDConfig": null,
    "__parentReadjusting__": false,
    "_height_": {
        "type": "string",
        "value": "50dp"
    },
    "_left_": {
        "type": "string",
        "value": "37.83%"
    },
    "_margin_": [
        6,
        6,
        6,
        6
    ],
    "_padding_": [
        0,
        0,
        0,
        0
    ],
    "_skin_": "s215ef7edf8c4ddb8f9f91fcc80f7b42",
    "_text_": "NO THANKS",
    "_top_": {
        "type": "string",
        "value": "30px"
    },
    "_width_": {
        "type": "string",
        "value": "28.97%"
    },
    "accessibilityconfig": {
        "a11yLabel": "No Thanks"
    },
    "canUpdateUI": true,
    "containerweight": 100,
    "contentalignment": 5,
    "desktopweb": {
        "psp": {
            "hoverSkin": "s83729feaa224e359d660d5af05c4bac"
        }
    },
    "disabledSkins": {},
    "displaytext": true,
    "focusskin": "s434743e49c446699565893e4974ec52",
    "id": "btnNoThanks",
    "ide_onClick": "AS_Button_af6bb3f5943848d6ba6a4a79d5464f4b",
    "info": null,
    "isvisible": true,
    "kuid": "a6f5c4213bb0439d928f30a3c3a031bf",
    "name": "kony.ui.Button",
    "parent": "flxButtons",
    "pf": "frmNotEligibleToTransfer",
    "responsiveData": {
        "b4": {
            "bottom": {
                "type": "string",
                "value": ""
            },
            "height": {
                "type": "string",
                "value": "40dp"
            },
            "left": {
                "type": "string",
                "value": "10dp"
            },
            "right": {
                "type": "string",
                "value": "10dp"
            },
            "top": {
                "type": "string",
                "value": "80dp"
            },
            "width": {
                "type": "string",
                "value": ""
            }
        }
    },
    "texti18n": "i18n.BillPay.NOTHANKS",
    "tooltip": "No Thanks",
    "wType": "Button",
    "zindex": 2
}