{
    "@class": "com.kony.gen.viz.model.component.KVizImage2",
    "DNDConfig": null,
    "__parentReadjusting__": false,
    "_base64_": null,
    "_height_": {
        "type": "string",
        "value": "25dp"
    },
    "_margin_": [
        0,
        0,
        0,
        0
    ],
    "_padding_": [
        0,
        0,
        0,
        0
    ],
    "_skin_": "s78a5f26c9f14cec9ebed1bb46098f80",
    "_src_": "download_blue.png",
    "_width_": {
        "type": "string",
        "value": "25dp"
    },
    "accessibilityconfig": {
        "a11yLabel": "Download",
        "a11yValue": ""
    },
    "canUpdateUI": true,
    "centerx": {
        "type": "string",
        "value": "50%"
    },
    "centery": {
        "type": "string",
        "value": "50%"
    },
    "containerweight": 100,
    "context": {
        "channel": "desktop",
        "formID": "frmWireTransfer",
        "platform": "desktopweb",
        "templateType": "forms",
        "topLevelBox": null
    },
    "id": "imgDownload",
    "imagescalemode": 1,
    "info": null,
    "invokedProperty": "src",
    "isvisible": false,
    "kuid": "gf7f50624d6447fc81e4042d4c14f6e3",
    "name": "kony.ui.Image2",
    "parent": "flxDownload",
    "pf": "frmNotEligibleToTransfer",
    "srcType": 1,
    "tooltip": "Print",
    "wType": "Image",
    "widgetalignment": 5,
    "zindex": 1
}