{
    "@class": "com.kony.gen.viz.model.component.KVizButton",
    "DNDConfig": null,
    "__parentReadjusting__": false,
    "_height_": {
        "type": "string",
        "value": "100%"
    },
    "_margin_": [
        6,
        6,
        6,
        6
    ],
    "_padding_": [
        0,
        0,
        0,
        0
    ],
    "_right_": {
        "type": "string",
        "value": "40dp"
    },
    "_skin_": "se4cbdf6e51f48eda9966caa941c6a19",
    "_text_": "EDIT",
    "_top_": {
        "type": "string",
        "value": "0dp"
    },
    "_width_": {
        "type": "string",
        "value": "110dp"
    },
    "accessibilityconfig": {
        "a11yLabel": "EDIT"
    },
    "canUpdateUI": true,
    "containerweight": 100,
    "contentalignment": 5,
    "desktopweb": {
        "psp": {}
    },
    "disabledSkins": {
        "focusSkin": "sf44d06ca8224832827ea7fdff757013"
    },
    "displaytext": true,
    "id": "btnAction",
    "info": null,
    "isvisible": true,
    "kuid": "j7ae1f82fbe641c781b0f820db238ac6",
    "name": "kony.ui.Button",
    "parent": "flxRow",
    "pf": "segFastPastTransfers",
    "tooltip": "VIEW REPORT",
    "wType": "Button",
    "zindex": 4
}