{
    "DNDConfig": null,
    "__parentReadjusting__": false,
    "_height_": {
        "type": "string",
        "value": "100%"
    },
    "_left_": {
        "type": "string",
        "value": "5%"
    },
    "_margin_": [
        0,
        0,
        0,
        0
    ],
    "_orientation_": 6,
    "_padding_": [
        0,
        0,
        0,
        0
    ],
    "_percent_": true,
    "_skin_": "s24c92fc23b14f5484b693ee9b8a9b35",
    "_top_": {
        "type": "string",
        "value": "0dp"
    },
    "_width_": {
        "type": "string",
        "value": "100%"
    },
    "allboxes": [],
    "autogrowmode": 0,
    "canUpdateUI": true,
    "children": [
        "flxDetailHeader",
        "lblSeperatorhor1",
        "flxCheck1",
        "lblSeperatorhor2",
        "flxCheck2",
        "lblSeperatorhor3",
        "flxCash",
        "lblSeperatorhor4",
        "flxTotal",
        "lblSeperatorhor5",
        "txtFieldMemo"
    ],
    "clipbounds": true,
    "containerId": true,
    "containerweight": 100,
    "disabledSkins": {
        "focusSkin": "s24c92fc23b14f5484b693ee9b8a9b35"
    },
    "enablescrolling": true,
    "id": "flxInformation",
    "info": null,
    "isvisible": true,
    "kuid": "g636dde4f393439380bb46bdc109c953",
    "layouttype": 4,
    "name": "kony.ui.FlexContainer",
    "parent": "flxDetail",
    "pf": "segCheckImages",
    "snapgridsize": 10,
    "snaptogrid": true,
    "wType": "FlexContainer",
    "widgetalignment": 1,
    "zindex": 1
}