{
	 "@class": "com.kony.gen.viz.model.component.KVizLabel",
	 "DNDConfig": null,
	 "__parentReadjusting__": false,
	 "_bottom_": {
		 "type": "string",
		 "value": "0dp"
	},
	 "_height_": {
		 "type": "string",
		 "value": "1dp"
	},
	 "_left_": {
		 "type": "string",
		 "value": "0%"
	},
	 "_margin_": [
		 1,
		 1,
		 1,
		 1
	],
	 "_padding_": [
		 0,
		 0,
		 0,
		 0
	],
	 "_skin_": "s0163b2b61c84c77a499a8f2f7f2e9be",
	 "_text_": "",
	 "_top_": {
		 "type": "string",
		 "value": "0dp"
	},
	 "_width_": {
		 "type": "string",
		 "value": "100%"
	},
	 "_wrapping_": 2,
	 "accessibilityconfig": {
		 "a11yLabel": "randomValue",
		 "a11yHidden": true,
		 "a11yARIA": {
			 "tabindex": -1
		}
	},
	 "android": {
		 "textStyle": {
			 "letterSpacing": 0,
			 "strikeThrough": false
		}
	},
	 "canUpdateUI": true,
	 "centerx": {
		 "type": "string",
		 "value": "50%"
	},
	 "containerId": true,
	 "containerweight": 100,
	 "contentalignment": 4,
	 "id": "lblSeperatorhor2",
	 "info": null,
	 "ipad": {
		 "psp": {
			 "wrapping": 2
		}
	},
	 "iphone": {
		 "psp": {
			 "wrapping": 2
		}
	},
	 "isvisible": false,
	 "kuid": "fcb4f394a6c145eaa235d97a2d4739c1",
	 "name": "kony.ui.Label",
	 "parent": "flxInformation",
	 "pf": "segCheckImages",
	 "tooltip": "",
	 "wType": "Label",
	 "zindex": 1
}