{
    "@class": "com.kony.gen.viz.model.component.KVizButton",
    "DNDConfig": null,
    "__parentReadjusting__": false,
    "_height_": {
        "type": "string",
        "value": "25dp"
    },
    "_margin_": [
        6,
        6,
        6,
        6
    ],
    "_padding_": [
        0,
        0,
        0,
        0
    ],
    "_right_": {
        "type": "string",
        "value": "15%"
    },
    "_skin_": "sf6ca31ec68641e5a2df8232c58cd39a",
    "_text_": "MODIFY",
    "_top_": {
        "type": "string",
        "value": "10dp"
    },
    "_width_": {
        "type": "ref",
        "value": "preferred"
    },
    "accessibilityconfig": {
        "a11yLabel": "MODIFY"
    },
    "canUpdateUI": true,
    "containerId": true,
    "containerweight": 100,
    "contentalignment": 5,
    "disabledSkins": {
        "focusSkin": "sf44d06ca8224832827ea7fdff757013"
    },
    "displaytext": true,
    "id": "btnModify",
    "ide_onClick": "AS_Button_a74bdcdfd2474c64bd4b7a5cd4f2c4ee",
    "info": null,
    "isvisible": true,
    "kuid": "ia6f5b69cab84ae49188b3847d6f802d",
    "name": "kony.ui.Button",
    "parent": "flxModifyAction",
    "pf": "segSentSelectedMobile",
    "wType": "Button",
    "zindex": 1
}