{
    "@class": "com.kony.gen.viz.model.component.KVizButton",
    "DNDConfig": null,
    "__parentReadjusting__": false,
    "_height_": {
        "type": "string",
        "value": "50dp"
    },
    "_left_": {
        "type": "string",
        "value": "0dp"
    },
    "_margin_": [
        6,
        6,
        6,
        6
    ],
    "_padding_": [
        0,
        0,
        0,
        0
    ],
    "_right_": {
        "type": "string",
        "value": "3%"
    },
    "_skin_": "sf6ca31ec68641e5a2df8232c58cd39a",
    "_text_": "VIEW ACTIVITY",
    "_top_": {
        "type": "string",
        "value": "0px"
    },
    "_width_": {
        "type": "string",
        "value": "100%"
    },
    "accessibilityconfig": {
        "a11yLabel": "VIEW ACTIVITY"
    },
    "canUpdateUI": true,
    "containerId": true,
    "containerweight": 100,
    "contentalignment": 5,
    "disabledSkins": {
        "focusSkin": "sf44d06ca8224832827ea7fdff757013"
    },
    "displaytext": true,
    "id": "btnViewActivity",
    "ide_onClick": "AS_Button_be88e618edc64ce0ba7c140a9689b39b",
    "info": null,
    "isvisible": true,
    "kuid": "ab2c80d289d74eb29596c035d505609b",
    "name": "kony.ui.Button",
    "parent": "flxDetailsRow2",
    "pf": "segSentSelectedMobile",
    "wType": "Button",
    "zindex": 1
}