{
	 "@class": "com.kony.gen.viz.model.component.KVizLabel",
	 "DNDConfig": null,
	 "__parentReadjusting__": false,
	 "_height_": {
		 "type": "string",
		 "value": "1dp"
	},
	 "_left_": {
		 "type": "string",
		 "value": "3.17%"
	},
	 "_margin_": [
		 1,
		 1,
		 1,
		 1
	],
	 "_padding_": [
		 0,
		 0,
		 0,
		 0
	],
	 "_skin_": "s09349f2265649b3ae4b14f3130733b2",
	 "_text_": "",
	 "_top_": {
		 "type": "string",
		 "value": "0dp"
	},
	 "_width_": {
		 "type": "string",
		 "value": "93.03%"
	},
	 "_wrapping_": 2,
	 "accessibilityconfig": {
		 "a11yLabel": "randomValue",
		 "a11yHidden": true,
		 "a11yARIA": {
			 "tabindex": -1
		}
	},
	 "android": {
		 "textStyle": {
			 "letterSpacing": 0,
			 "strikeThrough": false
		}
	},
	 "canUpdateUI": true,
	 "containerId": true,
	 "containerweight": 100,
	 "contentalignment": 4,
	 "id": "lblSeparator",
	 "info": null,
	 "ipad": {
		 "psp": {
			 "wrapping": 2
		}
	},
	 "iphone": {
		 "psp": {
			 "wrapping": 2
		}
	},
	 "isvisible": true,
	 "kuid": "bf55ad20fafa4ff09d4a0c927621b515",
	 "name": "kony.ui.Label",
	 "parent": "flxSelectedRowWrapper",
	 "pf": "segSentSelectedMobile",
	 "tooltip": "",
	 "wType": "Label",
	 "zindex": 1
}