{
    "@class": "com.kony.gen.viz.model.component.KVizButton",
    "DNDConfig": null,
    "__parentReadjusting__": false,
    "_height_": {
        "type": "string",
        "value": "40dp"
    },
    "_margin_": [
        6,
        6,
        6,
        6
    ],
    "_padding_": [
        0,
        0,
        0,
        0
    ],
    "_right_": {
        "type": "string",
        "value": "30dp"
    },
    "_skin_": "sfbbba35ede4457b94eb681b72349b98",
    "_text_": "MAKE ONE TIME PAYMENT",
    "_top_": {
        "type": "number",
        "value": ""
    },
    "_width_": {
        "type": "string",
        "value": "258dp"
    },
    "accessibilityconfig": {
        "a11yLabel": "Make One Time Payment"
    },
    "canUpdateUI": true,
    "centery": {
        "type": "string",
        "value": "50%"
    },
    "containerweight": 100,
    "contentalignment": 5,
    "desktopweb": {
        "psp": {
            "hoverSkin": "s81054b5e2b74f17a5261991df565427"
        }
    },
    "disabledSkins": {
        "focusSkin": "sf44d06ca8224832827ea7fdff757013"
    },
    "displaytext": true,
    "id": "btnMakeOneTimePayment",
    "info": null,
    "isvisible": true,
    "kuid": "h3e32d557b2940aabf4e69fca024ad29",
    "name": "kony.ui.Button",
    "parent": "flxButtonsAck",
    "pf": "frmBillPayActivationAcknowledgement",
    "responsiveData": {
        "b3": {
            "centerY": {
                "type": "string",
                "value": ""
            },
            "right": {
                "type": "string",
                "value": "2%"
            },
            "top": {
                "type": "string",
                "value": "20dp"
            },
            "width": {
                "type": "string",
                "value": "96%"
            }
        }
    },
    "texti18n": "i18n.BillPay.MAKEONETIMEPAYMENT",
    "tooltip": "Make One Time Payment",
    "wType": "Button",
    "zindex": 2
}