{
    "@class": "com.kony.gen.viz.model.component.KVizLabel",
    "DNDConfig": null,
    "__parentReadjusting__": false,
    "_height_": {
        "type": "ref",
        "value": "preferred"
    },
    "_left_": {
        "type": "string",
        "value": "89dp"
    },
    "_margin_": [
        1,
        1,
        1,
        1
    ],
    "_padding_": [
        2,
        0,
        2,
        2
    ],
    "_skin_": "s608c536372f4a78bb304a72ff27441b",
    "_text_": "Label",
    "_top_": {
        "type": "string",
        "value": "24px"
    },
    "_width_": {
        "type": "string",
        "value": "94.40%"
    },
    "_wrapping_": 2,
    "accessibilityconfig": {
        "a11yLabel": "Label"
    },
    "android": {
        "textStyle": {
            "letterSpacing": 0,
            "strikeThrough": false
        }
    },
    "canUpdateUI": true,
    "centerx": {
        "type": "string",
        "value": "50%"
    },
    "containerweight": 100,
    "contentalignment": 5,
    "id": "lblTransactionMessage",
    "info": null,
    "ipad": {
        "psp": {
            "wrapping": 2
        }
    },
    "iphone": {
        "psp": {
            "wrapping": 2
        }
    },
    "isvisible": true,
    "kuid": "ee3179b8dbf14f589352bd9effb18149",
    "name": "kony.ui.Label",
    "paddinginpixel": false,
    "parent": "flxActivateAcknowledgement",
    "pf": "frmBillPayActivationAcknowledgement",
    "texti18n": "i18n.billPay.activateBillPaySuccessMsg",
    "tooltip": "",
    "wType": "Label",
    "zindex": 1
}