{
    "DNDConfig": null,
    "_height_": {
        "type": "string",
        "value": "150dp"
    },
    "_left_": {
        "type": "string",
        "value": "0"
    },
    "_margin_": [
        0,
        0,
        0,
        0
    ],
    "_orientation_": 6,
    "_padding_": [
        0,
        0,
        0,
        0
    ],
    "_percent_": true,
    "_skin_": "s24c92fc23b14f5484b693ee9b8a9b35",
    "_top_": {
        "type": "string",
        "value": "0dp"
    },
    "_width_": {
        "type": "string",
        "value": "100%"
    },
    "allboxes": [],
    "autogrowmode": 0,
    "canUpdateUI": true,
    "children": [
        "lblAccountNumber",
        "lblAccountNumberValue",
        "lblSwift",
        "lblSwiftValue",
        "lblPaymentRef",
        "lblPaymentRefValue",
        "tbxPaymentReference",
        "lblNickName",
        "lblNickNameValue"
    ],
    "clipbounds": true,
    "containerId": true,
    "containerweight": 100,
    "enablescrolling": true,
    "id": "flxBeneficiaryInfo",
    "info": null,
    "iscustomlayout": false,
    "isvisible": true,
    "kuid": "g3cd23b465144988b7cbce9fe0d5010b",
    "layouttype": 2,
    "name": "kony.ui.FlexContainer",
    "parent": "flxBeneficiaryDetails",
    "pf": "segBulkPaymentsEditBeneficiaryRow",
    "retaincontentalignment": false,
    "retainflexpositionproperties": false,
    "snapgridsize": 10,
    "snaptogrid": true,
    "wType": "FlexContainer",
    "widgetalignment": 1,
    "zindex": 1
}