{
    "@class": "com.kony.gen.viz.model.component.KVizListBox",
    "DNDConfig": null,
    "__parentReadjusting__": false,
    "_height_": {
        "type": "string",
        "value": "40dp"
    },
    "_left_": {
        "type": "string",
        "value": "50dp"
    },
    "_margin_": [
        0,
        0,
        0,
        0
    ],
    "_padding_": [
        3,
        0,
        0,
        0
    ],
    "_placeholder_": "Please Select",
    "_skin_": "sd53756c2b454873b2c89cc68c2f8d51",
    "_top_": {
        "type": "string",
        "value": "0dp"
    },
    "_width_": {
        "type": "string",
        "value": "60%"
    },
    "canUpdateUI": true,
    "centery": {
        "type": "string",
        "value": "50%"
    },
    "containerId": true,
    "containerweight": 100,
    "contentalignment": 4,
    "dropdownimage": "listboxarw.png",
    "focusskin": "s9eb08f78097439eb767801e8fdeb5cd",
    "groupcells": false,
    "id": "ListBox0f204cf65e9ec44",
    "info": null,
    "iscustomlayout": false,
    "isvisible": true,
    "kuid": "cdc4e81e20a0414b8acd5e5ea58214b0",
    "masterdata": [
        [
            "lb1",
            "Placeholder One"
        ],
        [
            "lb2",
            "Placeholder Two"
        ],
        [
            "lb3",
            "Placeholder Three"
        ]
    ],
    "name": "kony.ui.ListBox",
    "parent": "flxReferenceID",
    "pf": "segBulkWireEditConfirmTransfer",
    "retaincontentalignment": false,
    "retainflexpositionproperties": false,
    "selectedkey": null,
    "selectedkeys": null,
    "selectedkeyvalue": null,
    "selectedkeyvalues": null,
    "size": 18,
    "viewconfig": {
        "toggleViewConfig": {
            "viewStyle": 0
        }
    },
    "viewtype": 0,
    "wType": "ListBox",
    "zindex": 1
}