{
    "customComponent": {
        "i18nSupported": true,
        "id": "cwh92651cdf8a34959997e8ddd71154333",
        "isOverride": false,
        "konyWrapperFiles": [
            "resources/thirdpartywidgets/widgetwrapper/tp-WealthLineChart-wrapper.js"
        ],
        "libraryFiles": [
            "resources/thirdpartywidgets/chartist/chartist.min.js",
            "resources/thirdpartywidgets/chartist/chartist.min.css",
            "resources/thirdpartywidgets/chartist/chartist-plugin-tooltip2.css",
            "resources/thirdpartywidgets/chartist/chartist-plugin-tooltip2.js",
            "resources/thirdpartywidgets/chartist/driver.js",
            "resources/thirdpartywidgets/chartist/linechart-tooltip.js",
            "resources/thirdpartywidgets/chartist/linechart.css",
            "resources/thirdpartywidgets/chartist/linechart.js",
            "resources/thirdpartywidgets/chartist/investmentChart.js",
            "resources/thirdpartywidgets/chartist/moment.min.js",
            "resources/thirdpartywidgets/chartist/jquery-3.5.0.js"
        ],
        "libraryName": "chartist",
        "marginSupported": true,
        "name": "WealthLineChart",
        "paddingSupported": true,
        "platformID": "0",
        "property": []
    }
}