{
    "@class": "com.kony.gen.viz.model.component.KVizButton",
    "DNDConfig": null,
    "__parentReadjusting__": false,
    "_height_": {
        "type": "string",
        "value": "50dp"
    },
    "_left_": {
        "type": "string",
        "value": "30dp"
    },
    "_margin_": [
        6,
        6,
        6,
        6
    ],
    "_padding_": [
        0,
        0,
        0,
        0
    ],
    "_skin_": "sf8d698105d64946938f8872bfb56994",
    "_text_": "Action2",
    "_top_": {
        "type": "string",
        "value": "0"
    },
    "_width_": {
        "type": "string",
        "value": "92%"
    },
    "canUpdateUI": true,
    "containerweight": 100,
    "contentalignment": 4,
    "disabledSkins": {
        "focusSkin": "sf44d06ca8224832827ea7fdff757013"
    },
    "displaytext": true,
    "id": "btnAction2",
    "info": null,
    "isvisible": true,
    "kuid": "u15fc11a4b634333832f0c792dd1cda9",
    "name": "kony.ui.Button",
    "parent": "flxAction2",
    "pf": "userwidgetmodel",
    "tooltip": "",
    "wType": "Button",
    "zindex": 1
}